att: 0
size:
32			64			128
0.6498	std:0.0044	0.6450	std:0.0103	0.6412	std:0.0079
0.6656	std:0.0059	0.6662	std:0.0073	0.6648	std:0.0092
0.6066	std:0.0189	0.5844	std:0.0478	0.5742	std:0.0483
0.6342	std:0.0094	0.6214	std:0.0251	0.6150	std:0.0253
0.7156	std:0.0053	0.7122	std:0.0070	0.7082	std:0.0041

att: 0
size:
att: 0
size:
32			64			128
0.6500	std:0.0043	0.6372	std:0.0091	0.6316	std:0.0086
0.6574	std:0.0069	0.6622	std:0.0124	0.6602	std:0.0073
0.6296	std:0.0051	0.5656	std:0.0506	0.5450	std:0.0447
0.6432	std:0.0020	0.6092	std:0.0265	0.5964	std:0.0238
0.7144	std:0.0058	0.7056	std:0.0086	0.6318	std:0.0083

att: 0
size:
att: 0
size:
32			64			128
0.6664	std:0.0125	0.6646	std:0.0104	0.6642	std:0.0199
0.6462	std:0.0096	0.6498	std:0.0085	0.6506	std:0.0119
0.7418	std:0.0852	0.7158	std:0.0187	0.7126	std:0.0643
0.6886	std:0.0332	0.6814	std:0.0119	0.6792	std:0.0328
0.7172	std:0.0065	0.7158	std:0.0095	0.6644	std:0.0195

att: 0
size:
att: 0
size:
32			64			128
0.6720	std:0.0081	0.6614	std:0.0130	0.6618	std:0.0250
0.6430	std:0.0064	0.6468	std:0.0114	0.6554	std:0.0106
0.7778	std:0.0397	0.7132	std:0.0165	0.6838	std:0.0950
0.7036	std:0.0145	0.6782	std:0.0130	0.6668	std:0.0493
0.7178	std:0.0065	0.7124	std:0.0101	0.6618	std:0.0243

att: 0
size:
32			64			128
0.6532	std:0.0042	0.6508	std:0.0034	0.6534	std:0.0029
0.6798	std:0.0034	0.6800	std:0.0057	0.6800	std:0.0035
0.5822	std:0.0157	0.5726	std:0.0210	0.5806	std:0.0111
0.6272	std:0.0087	0.6214	std:0.0102	0.6262	std:0.0058
0.7106	std:0.0018	0.7104	std:0.0023	0.7098	std:0.0018

32			64			128
0.6798	std:0.0072	0.6732	std:0.0094	0.6646	std:0.0076
0.6728	std:0.0043	0.6632	std:0.0093	0.6652	std:0.0070
0.7008	std:0.0217	0.7048	std:0.0302	0.6650	std:0.0234
0.6862	std:0.0107	0.6832	std:0.0140	0.6652	std:0.0123
0.7420	std:0.0070	0.7336	std:0.0086	0.7278	std:0.0083

32			64			128
0.6792	std:0.0057	0.6694	std:0.0062	0.6622	std:0.0142
0.6634	std:0.0078	0.6642	std:0.0054	0.6564	std:0.0091
0.7318	std:0.0428	0.6868	std:0.0205	0.6844	std:0.0586
0.6950	std:0.0151	0.6752	std:0.0099	0.6690	std:0.0282
0.7360	std:0.0030	0.7294	std:0.0069	0.6622	std:0.0142

32			64			128
0.6812	std:0.0091	0.6714	std:0.0078	0.6614	std:0.0096
0.6596	std:0.0135	0.6548	std:0.0133	0.6462	std:0.0108
0.7528	std:0.0304	0.7296	std:0.0354	0.7188	std:0.0539
0.7026	std:0.0096	0.6894	std:0.0119	0.6794	std:0.0216
0.7346	std:0.0086	0.7276	std:0.0078	0.6614	std:0.0096

L: 8
size:
32			64			128
0.6702	std:	0.0050	0.6706	std:	0.0030	0.6674	std:	0.0074
0.6402	std:	0.0041	0.6424	std:	0.0051	0.6402	std:	0.0048
0.7796	std:	0.0142	0.7746	std:	0.0126	0.7674	std:	0.0275
0.7028	std:	0.0061	0.7020	std:	0.0034	0.6978	std:	0.0115
0.6698	std:	0.0047	0.6706	std:	0.0030	0.6672	std:	0.0073

L: 16
size:
32			64			128
0.6694	std:	0.0030	0.6700	std:	0.0025	0.6666	std:	0.0069
0.6412	std:	0.0035	0.6418	std:	0.0038	0.6394	std:	0.0064
0.7728	std:	0.0094	0.7720	std:	0.0169	0.7686	std:	0.0243
0.7006	std:	0.0032	0.7008	std:	0.0053	0.6980	std:	0.0099
0.6694	std:	0.0030	0.6700	std:	0.0025	0.6666	std:	0.0069

L: 32
size:
32			64			128
0.6646	std:	0.0076	0.6692	std:	0.0038	0.6670	std:	0.0065
0.6380	std:	0.0078	0.6408	std:	0.0038	0.6382	std:	0.0054
0.7652	std:	0.0197	0.7718	std:	0.0165	0.7724	std:	0.0204
0.6958	std:	0.0086	0.7004	std:	0.0062	0.6990	std:	0.0087
0.6646	std:	0.0076	0.6692	std:	0.0038	0.6666	std:	0.0065

L: 64
size:
32			64			128
0.6654	std:	0.0063	0.6678	std:	0.0048	0.6664	std:	0.0070
0.6364	std:	0.0066	0.6372	std:	0.0056	0.6382	std:	0.0043
0.7738	std:	0.0224	0.7824	std:	0.0136	0.7714	std:	0.0232
0.6986	std:	0.0082	0.7024	std:	0.0051	0.6986	std:	0.0107
0.6652	std:	0.0061	0.6678	std:	0.0048	0.6664	std:	0.0070

L: 128
size:
32			64			128
0.6650	std:	0.0062	0.6668	std:	0.0054	0.6642	std:	0.0059
0.6366	std:	0.0052	0.6372	std:	0.0055	0.6396	std:	0.0065
0.7696	std:	0.0167	0.7788	std:	0.0190	0.7540	std:	0.0216
0.6970	std:	0.0076	0.7008	std:	0.0071	0.6918	std:	0.0083
0.6646	std:	0.0059	0.6668	std:	0.0054	0.6638	std:	0.0063

