att: 0
size:
32			64			128
0.6790	std:0.0062	0.6748	std:0.0085	0.6762	std:0.0072
0.6630	std:0.0087	0.6620	std:0.0073	0.6688	std:0.0050
0.7326	std:0.0359	0.7182	std:0.0555	0.7004	std:0.0298
0.6956	std:0.0126	0.6878	std:0.0216	0.6840	std:0.0138
0.7356	std:0.0067	0.7334	std:0.0060	0.7354	std:0.0046

att: 0
size:
att: 0
size:
32			64			128
0.6898	std:0.0041	0.6900	std:0.0046	0.6936	std:0.0065
0.6666	std:0.0127	0.6676	std:0.0133	0.6630	std:0.0065
0.7628	std:0.0371	0.7620	std:0.0513	0.7886	std:0.0213
0.7108	std:0.0092	0.7108	std:0.0154	0.7206	std:0.0087
0.7444	std:0.0058	0.7448	std:0.0052	0.7448	std:0.0051

att: 0
size:
att: 0
size:
32			64			128
0.6934	std:0.0055	0.6874	std:0.0084	0.6898	std:0.0073
0.6722	std:0.0129	0.6674	std:0.0107	0.6770	std:0.0104
0.7598	std:0.0341	0.7498	std:0.0413	0.7304	std:0.0437
0.7126	std:0.0097	0.7056	std:0.0148	0.7020	std:0.0160
0.7486	std:0.0062	0.7454	std:0.0076	0.7488	std:0.0048

att: 0
size:
att: 0
size:
32			64			128
0.6900	std:0.0085	0.6930	std:0.0039	0.6862	std:0.0188
0.6630	std:0.0130	0.6724	std:0.0104	0.6642	std:0.0301
0.7754	std:0.0133	0.7564	std:0.0359	0.7630	std:0.0416
0.7148	std:0.0040	0.7114	std:0.0107	0.7090	std:0.0055
0.7446	std:0.0086	0.7488	std:0.0075	0.7200	std:0.0465

att: 0
size:
32			64			128
0.6542	std:0.0073	0.6558	std:0.0087	0.6566	std:0.0105
0.6674	std:0.0214	0.6740	std:0.0158	0.6684	std:0.0147
0.6254	std:0.0908	0.6106	std:0.0732	0.6288	std:0.0775
0.6416	std:0.0363	0.6382	std:0.0331	0.6452	std:0.0362
0.7062	std:0.0016	0.7080	std:0.0029	0.7068	std:0.0037

32			64			128
0.6872	std:0.0050	0.6872	std:0.0052	0.6898	std:0.0054
0.6698	std:0.0118	0.6728	std:0.0083	0.6772	std:0.0093
0.7422	std:0.0229	0.7312	std:0.0243	0.7296	std:0.0451
0.7036	std:0.0053	0.7004	std:0.0084	0.7018	std:0.0160
0.7438	std:0.0051	0.7456	std:0.0055	0.7494	std:0.0030

32			64			128
0.6884	std:0.0025	0.6822	std:0.0064	0.6816	std:0.0062
0.6774	std:0.0068	0.6748	std:0.0095	0.6736	std:0.0098
0.7212	std:0.0241	0.7072	std:0.0282	0.7086	std:0.0365
0.6986	std:0.0076	0.6900	std:0.0112	0.6902	std:0.0138
0.7482	std:0.0036	0.7442	std:0.0063	0.7424	std:0.0056

32			64			128
0.6838	std:0.0077	0.6706	std:0.0243	0.6792	std:0.0050
0.6670	std:0.0095	0.6686	std:0.0195	0.6642	std:0.0107
0.7372	std:0.0115	0.6780	std:0.0714	0.7292	std:0.0207
0.7004	std:0.0066	0.6718	std:0.0388	0.6950	std:0.0039
0.7430	std:0.0080	0.7188	std:0.0513	0.7360	std:0.0075

L: 8
size:
32			64			128
0.6698	std:	0.0022	0.6714	std:	0.0044	0.6700	std:	0.0054
0.6348	std:	0.0026	0.6398	std:	0.0103	0.6352	std:	0.0097
0.8028	std:	0.0187	0.7878	std:	0.0297	0.8036	std:	0.0270
0.7086	std:	0.0062	0.7060	std:	0.0067	0.7092	std:	0.0056
0.6694	std:	0.0022	0.6712	std:	0.0044	0.6696	std:	0.0053

L: 16
size:
32			64			128
0.6704	std:	0.0039	0.6708	std:	0.0052	0.6704	std:	0.0027
0.6352	std:	0.0026	0.6402	std:	0.0081	0.6360	std:	0.0057
0.8024	std:	0.0190	0.7842	std:	0.0208	0.8006	std:	0.0215
0.7088	std:	0.0068	0.7048	std:	0.0055	0.7088	std:	0.0058
0.6698	std:	0.0036	0.6708	std:	0.0052	0.6700	std:	0.0029

L: 32
size:
32			64			128
0.6690	std:	0.0039	0.6712	std:	0.0050	0.6694	std:	0.0038
0.6368	std:	0.0016	0.6404	std:	0.0075	0.6396	std:	0.0061
0.7904	std:	0.0237	0.7848	std:	0.0218	0.7802	std:	0.0238
0.7052	std:	0.0085	0.7050	std:	0.0060	0.7028	std:	0.0074
0.6686	std:	0.0042	0.6710	std:	0.0045	0.6694	std:	0.0038

L: 64
size:
32			64			128
0.6682	std:	0.0058	0.6692	std:	0.0041	0.6694	std:	0.0048
0.6368	std:	0.0043	0.6394	std:	0.0057	0.6396	std:	0.0073
0.7880	std:	0.0263	0.7812	std:	0.0199	0.7784	std:	0.0330
0.7040	std:	0.0100	0.7028	std:	0.0063	0.7020	std:	0.0106
0.6682	std:	0.0058	0.6690	std:	0.0041	0.6690	std:	0.0045

L: 128
size:
32			64			128
0.6672	std:	0.0044	0.6676	std:	0.0055	0.6698	std:	0.0033
0.6360	std:	0.0040	0.6362	std:	0.0085	0.6380	std:	0.0014
0.7848	std:	0.0324	0.7874	std:	0.0358	0.7870	std:	0.0113
0.7024	std:	0.0111	0.7034	std:	0.0108	0.7046	std:	0.0050
0.6668	std:	0.0041	0.6672	std:	0.0054	0.6698	std:	0.0033

