L: 8
size:
32			64			128
0.6592	std:	0.0041	0.6598	std:	0.0054	0.6590	std:	0.0034
0.6390	std:	0.0048	0.6404	std:	0.0045	0.6420	std:	0.0039
0.7350	std:	0.0051	0.7320	std:	0.0151	0.7222	std:	0.0165
0.6836	std:	0.0033	0.6830	std:	0.0073	0.6794	std:	0.0065
0.6986	std:	0.0042	0.6978	std:	0.0053	0.6988	std:	0.0041

L: 16
size:
32			64			128
0.6578	std:	0.0051	0.6592	std:	0.0047	0.6596	std:	0.0040
0.6400	std:	0.0063	0.6402	std:	0.0049	0.6412	std:	0.0038
0.7250	std:	0.0110	0.7298	std:	0.0124	0.7266	std:	0.0187
0.6798	std:	0.0050	0.6822	std:	0.0055	0.6812	std:	0.0076
0.6974	std:	0.0054	0.6962	std:	0.0060	0.6982	std:	0.0038

L: 32
size:
32			64			128
0.6590	std:	0.0042	0.6582	std:	0.0055	0.6582	std:	0.0036
0.6386	std:	0.0040	0.6400	std:	0.0058	0.6384	std:	0.0045
0.7344	std:	0.0157	0.7258	std:	0.0203	0.7318	std:	0.0209
0.6830	std:	0.0065	0.6802	std:	0.0080	0.6818	std:	0.0079
0.6972	std:	0.0047	0.6956	std:	0.0055	0.6962	std:	0.0041

L: 64
size:
32			64			128
0.6580	std:	0.0049	0.6590	std:	0.0052	0.6572	std:	0.0036
0.6422	std:	0.0062	0.6418	std:	0.0042	0.6384	std:	0.0048
0.7160	std:	0.0133	0.7220	std:	0.0169	0.7292	std:	0.0141
0.6768	std:	0.0052	0.6792	std:	0.0077	0.6806	std:	0.0052
0.6970	std:	0.0056	0.6956	std:	0.0047	0.6950	std:	0.0054

L: 128
size:
32			64			128
0.6574	std:	0.0034	0.6592	std:	0.0041	0.6584	std:	0.0019
0.6384	std:	0.0057	0.6402	std:	0.0048	0.6386	std:	0.0048
0.7294	std:	0.0094	0.7312	std:	0.0176	0.7338	std:	0.0152
0.6808	std:	0.0027	0.6824	std:	0.0067	0.6826	std:	0.0040
0.6954	std:	0.0047	0.6956	std:	0.0040	0.6952	std:	0.0040

