start to construct computing graph
graph construct over
3803
epochs start
#iterations: 0
currently lose_sum: 0.7087612152099609
time_elpased: 6.71
#iterations: 1
currently lose_sum: 0.6934199333190918
time_elpased: 6.649
#iterations: 2
currently lose_sum: 0.6919556260108948
time_elpased: 6.691
#iterations: 3
currently lose_sum: 0.6874424815177917
time_elpased: 6.69
#iterations: 4
currently lose_sum: 0.6924799084663391
time_elpased: 6.699
#iterations: 5
currently lose_sum: 0.6943438649177551
time_elpased: 6.707
#iterations: 6
currently lose_sum: 0.6951988339424133
time_elpased: 6.641
#iterations: 7
currently lose_sum: 0.6893211603164673
time_elpased: 6.708
#iterations: 8
currently lose_sum: 0.6871087551116943
time_elpased: 6.694
#iterations: 9
currently lose_sum: 0.6801220774650574
time_elpased: 6.748
#iterations: 10
currently lose_sum: 0.6944169402122498
time_elpased: 6.73
#iterations: 11
currently lose_sum: 0.6849113702774048
time_elpased: 6.662
#iterations: 12
currently lose_sum: 0.6865335702896118
time_elpased: 6.668
#iterations: 13
currently lose_sum: 0.6866406798362732
time_elpased: 6.671
#iterations: 14
currently lose_sum: 0.6946607232093811
time_elpased: 6.686
#iterations: 15
currently lose_sum: 0.6802676320075989
time_elpased: 6.691
#iterations: 16
currently lose_sum: 0.6801888942718506
time_elpased: 6.731
#iterations: 17
currently lose_sum: 0.6934565901756287
time_elpased: 6.705
#iterations: 18
currently lose_sum: 0.6661210656166077
time_elpased: 6.669
#iterations: 19
currently lose_sum: 0.6968915462493896
time_elpased: 6.705
start validation test
0.5324
0.524252817246
0.843848580442
0.646721063765
0.527849614896
17.231
#iterations: 20
currently lose_sum: 0.6865525841712952
time_elpased: 6.013
#iterations: 21
currently lose_sum: 0.6882243156433105
time_elpased: 6.048
#iterations: 22
currently lose_sum: 0.7020412683486938
time_elpased: 6.024
#iterations: 23
currently lose_sum: 0.6895639300346375
time_elpased: 6.043
#iterations: 24
currently lose_sum: 0.6957579255104065
time_elpased: 6.097
#iterations: 25
currently lose_sum: 0.6862714886665344
time_elpased: 6.038
#iterations: 26
currently lose_sum: 0.6896513104438782
time_elpased: 6.041
#iterations: 27
currently lose_sum: 0.6819931864738464
time_elpased: 6.045
#iterations: 28
currently lose_sum: 0.6868974566459656
time_elpased: 6.019
#iterations: 29
currently lose_sum: 0.716559886932373
time_elpased: 6.033
#iterations: 30
currently lose_sum: 0.6985883116722107
time_elpased: 6.029
#iterations: 31
currently lose_sum: 0.6738405823707581
time_elpased: 6.049
#iterations: 32
currently lose_sum: 0.684838056564331
time_elpased: 6.051
#iterations: 33
currently lose_sum: 0.6933027505874634
time_elpased: 6.073
#iterations: 34
currently lose_sum: 0.6837635636329651
time_elpased: 6.058
#iterations: 35
currently lose_sum: 0.6815545558929443
time_elpased: 6.035
#iterations: 36
currently lose_sum: 0.683983564376831
time_elpased: 6.048
#iterations: 37
currently lose_sum: 0.6851997375488281
time_elpased: 6.044
#iterations: 38
currently lose_sum: 0.6689295768737793
time_elpased: 6.037
#iterations: 39
currently lose_sum: 0.7225270867347717
time_elpased: 6.036
start validation test
0.5032
0.647727272727
0.044952681388
0.0840707964602
0.509895171863
21.484
#iterations: 40
currently lose_sum: 0.6859573125839233
time_elpased: 6.102
#iterations: 41
currently lose_sum: 0.6815531849861145
time_elpased: 6.034
#iterations: 42
currently lose_sum: 0.6712210178375244
time_elpased: 6.043
#iterations: 43
currently lose_sum: 0.7048008441925049
time_elpased: 6.067
#iterations: 44
currently lose_sum: 0.6615915894508362
time_elpased: 6.078
#iterations: 45
currently lose_sum: 0.6864206790924072
time_elpased: 6.108
#iterations: 46
currently lose_sum: 0.6823979020118713
time_elpased: 6.08
#iterations: 47
currently lose_sum: 0.6900833249092102
time_elpased: 6.087
#iterations: 48
currently lose_sum: 0.673282265663147
time_elpased: 6.049
#iterations: 49
currently lose_sum: 0.6627275347709656
time_elpased: 6.045
#iterations: 50
currently lose_sum: 0.6755634546279907
time_elpased: 6.061
#iterations: 51
currently lose_sum: 0.684764564037323
time_elpased: 5.997
#iterations: 52
currently lose_sum: 0.6669952273368835
time_elpased: 6.078
#iterations: 53
currently lose_sum: 0.6933931112289429
time_elpased: 6.057
#iterations: 54
currently lose_sum: 0.6733679175376892
time_elpased: 6.072
#iterations: 55
currently lose_sum: 0.6320674419403076
time_elpased: 6.132
#iterations: 56
currently lose_sum: 0.6652794480323792
time_elpased: 6.061
#iterations: 57
currently lose_sum: 0.6736732721328735
time_elpased: 6.051
#iterations: 58
currently lose_sum: 0.6894621849060059
time_elpased: 6.019
#iterations: 59
currently lose_sum: 0.6890873908996582
time_elpased: 6.04
start validation test
0.512
0.626315789474
0.0938485804416
0.163237311385
0.518109355156
17.235
#iterations: 60
currently lose_sum: 0.6935684680938721
time_elpased: 6.031
#iterations: 61
currently lose_sum: 0.6155185103416443
time_elpased: 6.041
#iterations: 62
currently lose_sum: 0.6351816058158875
time_elpased: 6.036
#iterations: 63
currently lose_sum: 0.6662968397140503
time_elpased: 6.058
#iterations: 64
currently lose_sum: 0.647346019744873
time_elpased: 6.046
#iterations: 65
currently lose_sum: 0.6558741927146912
time_elpased: 6.06
#iterations: 66
currently lose_sum: 0.6423404216766357
time_elpased: 6.093
#iterations: 67
currently lose_sum: 0.6675485968589783
time_elpased: 6.082
#iterations: 68
currently lose_sum: 0.6525322198867798
time_elpased: 6.061
#iterations: 69
currently lose_sum: 0.682265043258667
time_elpased: 6.174
#iterations: 70
currently lose_sum: 0.6751629114151001
time_elpased: 6.383
#iterations: 71
currently lose_sum: 0.6788920760154724
time_elpased: 6.238
#iterations: 72
currently lose_sum: 0.6777705550193787
time_elpased: 6.035
#iterations: 73
currently lose_sum: 0.6818612813949585
time_elpased: 6.022
#iterations: 74
currently lose_sum: 0.675823450088501
time_elpased: 6.087
#iterations: 75
currently lose_sum: 0.6850466728210449
time_elpased: 6.104
#iterations: 76
currently lose_sum: 0.7130914330482483
time_elpased: 6.076
#iterations: 77
currently lose_sum: 0.6489113569259644
time_elpased: 6.044
#iterations: 78
currently lose_sum: 0.5907256603240967
time_elpased: 6.023
#iterations: 79
currently lose_sum: 0.6661112308502197
time_elpased: 6.073
start validation test
0.6212
0.632535094963
0.604100946372
0.617991125454
0.621449823835
16.462
#iterations: 80
currently lose_sum: 0.6874914765357971
time_elpased: 6.066
#iterations: 81
currently lose_sum: 0.6545956134796143
time_elpased: 6.113
#iterations: 82
currently lose_sum: 0.661173939704895
time_elpased: 6.019
#iterations: 83
currently lose_sum: 0.6714645624160767
time_elpased: 6.055
#iterations: 84
currently lose_sum: 0.6680201888084412
time_elpased: 6.044
#iterations: 85
currently lose_sum: 0.6792077422142029
time_elpased: 6.042
#iterations: 86
currently lose_sum: 0.665239155292511
time_elpased: 6.048
#iterations: 87
currently lose_sum: 0.6558417677879333
time_elpased: 6.074
#iterations: 88
currently lose_sum: 0.6842828989028931
time_elpased: 6.07
#iterations: 89
currently lose_sum: 0.6659998893737793
time_elpased: 6.022
#iterations: 90
currently lose_sum: 0.6166351437568665
time_elpased: 6.035
#iterations: 91
currently lose_sum: 0.5957022905349731
time_elpased: 6.054
#iterations: 92
currently lose_sum: 0.6531779766082764
time_elpased: 6.046
#iterations: 93
currently lose_sum: 0.6073902249336243
time_elpased: 6.07
#iterations: 94
currently lose_sum: 0.6166427731513977
time_elpased: 6.048
#iterations: 95
currently lose_sum: 0.6601188778877258
time_elpased: 6.074
#iterations: 96
currently lose_sum: 0.6629340648651123
time_elpased: 6.013
#iterations: 97
currently lose_sum: 0.6710460782051086
time_elpased: 6.005
#iterations: 98
currently lose_sum: 0.6208469867706299
time_elpased: 6.102
#iterations: 99
currently lose_sum: 0.6490470767021179
time_elpased: 6.056
start validation test
0.5832
0.726907630522
0.285488958991
0.409966024915
0.5875496743
16.532
#iterations: 100
currently lose_sum: 0.5977751612663269
time_elpased: 6.069
#iterations: 101
currently lose_sum: 0.6569612622261047
time_elpased: 6.094
#iterations: 102
currently lose_sum: 0.6328629851341248
time_elpased: 6.075
#iterations: 103
currently lose_sum: 0.6933439373970032
time_elpased: 6.074
#iterations: 104
currently lose_sum: 0.726060688495636
time_elpased: 6.099
#iterations: 105
currently lose_sum: 0.6177861094474792
time_elpased: 6.073
#iterations: 106
currently lose_sum: 0.6094850301742554
time_elpased: 6.056
#iterations: 107
currently lose_sum: 0.6503636837005615
time_elpased: 6.012
#iterations: 108
currently lose_sum: 0.6206651329994202
time_elpased: 6.073
#iterations: 109
currently lose_sum: 0.6491037607192993
time_elpased: 6.073
#iterations: 110
currently lose_sum: 0.6320663094520569
time_elpased: 6.118
#iterations: 111
currently lose_sum: 0.6177271008491516
time_elpased: 6.061
#iterations: 112
currently lose_sum: 0.5965848565101624
time_elpased: 6.088
#iterations: 113
currently lose_sum: 0.6286401748657227
time_elpased: 6.072
#iterations: 114
currently lose_sum: 0.6401312947273254
time_elpased: 6.099
#iterations: 115
currently lose_sum: 0.5770571827888489
time_elpased: 6.061
#iterations: 116
currently lose_sum: 0.6081266403198242
time_elpased: 6.078
#iterations: 117
currently lose_sum: 0.6561642289161682
time_elpased: 6.043
#iterations: 118
currently lose_sum: 0.5857669711112976
time_elpased: 5.99
#iterations: 119
currently lose_sum: 0.6446377635002136
time_elpased: 6.067
start validation test
0.6524
0.709779179811
0.532334384858
0.608382154123
0.654154205416
15.617
#iterations: 120
currently lose_sum: 0.7206863164901733
time_elpased: 6.065
#iterations: 121
currently lose_sum: 0.578286349773407
time_elpased: 6.075
#iterations: 122
currently lose_sum: 0.5741167664527893
time_elpased: 6.057
#iterations: 123
currently lose_sum: 0.6014328002929688
time_elpased: 6.093
#iterations: 124
currently lose_sum: 0.669582188129425
time_elpased: 6.04
#iterations: 125
currently lose_sum: 0.629254162311554
time_elpased: 6.084
#iterations: 126
currently lose_sum: 0.6497570872306824
time_elpased: 6.072
#iterations: 127
currently lose_sum: 0.6376841068267822
time_elpased: 6.069
#iterations: 128
currently lose_sum: 0.5702354907989502
time_elpased: 6.068
#iterations: 129
currently lose_sum: 0.6667774319648743
time_elpased: 6.039
#iterations: 130
currently lose_sum: 0.6605680584907532
time_elpased: 6.045
#iterations: 131
currently lose_sum: 0.6866452097892761
time_elpased: 6.026
#iterations: 132
currently lose_sum: 0.6256590485572815
time_elpased: 6.074
#iterations: 133
currently lose_sum: 0.6761516332626343
time_elpased: 6.072
#iterations: 134
currently lose_sum: 0.5434368848800659
time_elpased: 6.034
#iterations: 135
currently lose_sum: 0.5677899718284607
time_elpased: 6.125
#iterations: 136
currently lose_sum: 0.5899633169174194
time_elpased: 6.017
#iterations: 137
currently lose_sum: 0.6341462135314941
time_elpased: 6.07
#iterations: 138
currently lose_sum: 0.6046240329742432
time_elpased: 6.042
#iterations: 139
currently lose_sum: 0.4873417317867279
time_elpased: 6.094
start validation test
0.646
0.750982961992
0.451892744479
0.564254062038
0.648835982629
15.976
#iterations: 140
currently lose_sum: 0.602315366268158
time_elpased: 6.072
#iterations: 141
currently lose_sum: 0.615872323513031
time_elpased: 6.099
#iterations: 142
currently lose_sum: 0.6073956489562988
time_elpased: 6.012
#iterations: 143
currently lose_sum: 0.5714457035064697
time_elpased: 6.068
#iterations: 144
currently lose_sum: 0.6236019730567932
time_elpased: 6.072
#iterations: 145
currently lose_sum: 0.5246737003326416
time_elpased: 6.046
#iterations: 146
currently lose_sum: 0.5357780456542969
time_elpased: 6.113
#iterations: 147
currently lose_sum: 0.5390734076499939
time_elpased: 6.037
#iterations: 148
currently lose_sum: 0.6151041984558105
time_elpased: 6.034
#iterations: 149
currently lose_sum: 0.639924168586731
time_elpased: 6.07
#iterations: 150
currently lose_sum: 0.6794546246528625
time_elpased: 6.038
#iterations: 151
currently lose_sum: 0.6758499145507812
time_elpased: 6.054
#iterations: 152
currently lose_sum: 0.5488846898078918
time_elpased: 6.048
#iterations: 153
currently lose_sum: 0.6290556788444519
time_elpased: 6.043
#iterations: 154
currently lose_sum: 0.6026875972747803
time_elpased: 6.029
#iterations: 155
currently lose_sum: 0.5564026832580566
time_elpased: 6.051
#iterations: 156
currently lose_sum: 0.5802580118179321
time_elpased: 6.061
#iterations: 157
currently lose_sum: 0.6600598692893982
time_elpased: 6.102
#iterations: 158
currently lose_sum: 0.5360623002052307
time_elpased: 6.05
#iterations: 159
currently lose_sum: 0.590288519859314
time_elpased: 6.065
start validation test
0.6808
0.680491551459
0.698738170347
0.689494163424
0.680537916342
15.075
#iterations: 160
currently lose_sum: 0.5640153288841248
time_elpased: 6.112
#iterations: 161
currently lose_sum: 0.5637643337249756
time_elpased: 6.109
#iterations: 162
currently lose_sum: 0.5611364245414734
time_elpased: 6.084
#iterations: 163
currently lose_sum: 0.603590190410614
time_elpased: 6.124
#iterations: 164
currently lose_sum: 0.6281804442405701
time_elpased: 6.068
#iterations: 165
currently lose_sum: 0.6044490933418274
time_elpased: 6.047
#iterations: 166
currently lose_sum: 0.5363087058067322
time_elpased: 6.049
#iterations: 167
currently lose_sum: 0.5658079385757446
time_elpased: 6.026
#iterations: 168
currently lose_sum: 0.6181577444076538
time_elpased: 6.052
#iterations: 169
currently lose_sum: 0.6023725271224976
time_elpased: 6.063
#iterations: 170
currently lose_sum: 0.5450782179832458
time_elpased: 6.05
#iterations: 171
currently lose_sum: 0.6185309886932373
time_elpased: 6.039
#iterations: 172
currently lose_sum: 0.5530796647071838
time_elpased: 6.106
#iterations: 173
currently lose_sum: 0.6736096143722534
time_elpased: 6.062
#iterations: 174
currently lose_sum: 0.630689263343811
time_elpased: 6.053
#iterations: 175
currently lose_sum: 0.5853134393692017
time_elpased: 6.038
#iterations: 176
currently lose_sum: 0.5411866903305054
time_elpased: 5.993
#iterations: 177
currently lose_sum: 0.6107822060585022
time_elpased: 6.061
#iterations: 178
currently lose_sum: 0.5141374468803406
time_elpased: 6.078
#iterations: 179
currently lose_sum: 0.5111726522445679
time_elpased: 6.106
start validation test
0.6568
0.613888888889
0.871451104101
0.720338983051
0.653663863739
15.376
#iterations: 180
currently lose_sum: 0.5454959273338318
time_elpased: 6.037
#iterations: 181
currently lose_sum: 0.5522640347480774
time_elpased: 6.039
#iterations: 182
currently lose_sum: 0.5643474459648132
time_elpased: 6.047
#iterations: 183
currently lose_sum: 0.5711891055107117
time_elpased: 6.085
#iterations: 184
currently lose_sum: 0.5930697917938232
time_elpased: 6.068
#iterations: 185
currently lose_sum: 0.5969005823135376
time_elpased: 6.081
#iterations: 186
currently lose_sum: 0.655754029750824
time_elpased: 6.115
#iterations: 187
currently lose_sum: 0.5216853618621826
time_elpased: 6.093
#iterations: 188
currently lose_sum: 0.6101803779602051
time_elpased: 6.047
#iterations: 189
currently lose_sum: 0.5874822735786438
time_elpased: 6.049
#iterations: 190
currently lose_sum: 0.5281655788421631
time_elpased: 6.087
#iterations: 191
currently lose_sum: 0.5637115240097046
time_elpased: 6.057
#iterations: 192
currently lose_sum: 0.5222715139389038
time_elpased: 6.049
#iterations: 193
currently lose_sum: 0.5208237171173096
time_elpased: 6.074
#iterations: 194
currently lose_sum: 0.5445927977561951
time_elpased: 6.045
#iterations: 195
currently lose_sum: 0.6068596839904785
time_elpased: 6.048
#iterations: 196
currently lose_sum: 0.5530096888542175
time_elpased: 6.059
#iterations: 197
currently lose_sum: 0.554516613483429
time_elpased: 6.023
#iterations: 198
currently lose_sum: 0.7097675204277039
time_elpased: 6.027
#iterations: 199
currently lose_sum: 0.5987221598625183
time_elpased: 6.002
start validation test
0.6916
0.726940639269
0.627760252366
0.673719847651
0.692532723586
14.955
#iterations: 200
currently lose_sum: 0.5871803760528564
time_elpased: 6.046
#iterations: 201
currently lose_sum: 0.6012030243873596
time_elpased: 6.066
#iterations: 202
currently lose_sum: 0.5623980164527893
time_elpased: 6.041
#iterations: 203
currently lose_sum: 0.561138391494751
time_elpased: 6.082
#iterations: 204
currently lose_sum: 0.5659577250480652
time_elpased: 6.066
#iterations: 205
currently lose_sum: 0.5789644122123718
time_elpased: 6.048
#iterations: 206
currently lose_sum: 0.5793797969818115
time_elpased: 6.073
#iterations: 207
currently lose_sum: 0.5463752150535583
time_elpased: 6.097
#iterations: 208
currently lose_sum: 0.5971587300300598
time_elpased: 6.045
#iterations: 209
currently lose_sum: 0.5625823736190796
time_elpased: 6.069
#iterations: 210
currently lose_sum: 0.5414653420448303
time_elpased: 6.009
#iterations: 211
currently lose_sum: 0.622646689414978
time_elpased: 6.119
#iterations: 212
currently lose_sum: 0.5671574473381042
time_elpased: 6.011
#iterations: 213
currently lose_sum: 0.45141544938087463
time_elpased: 6.072
#iterations: 214
currently lose_sum: 0.5806686878204346
time_elpased: 6.027
#iterations: 215
currently lose_sum: 0.6657328009605408
time_elpased: 6.117
#iterations: 216
currently lose_sum: 0.5513231754302979
time_elpased: 6.082
#iterations: 217
currently lose_sum: 0.4971018135547638
time_elpased: 6.001
#iterations: 218
currently lose_sum: 0.5887209177017212
time_elpased: 6.085
#iterations: 219
currently lose_sum: 0.5790769457817078
time_elpased: 6.097
start validation test
0.6876
0.753381893861
0.570977917981
0.649618663078
0.689303894055
14.829
#iterations: 220
currently lose_sum: 0.6087988018989563
time_elpased: 6.046
#iterations: 221
currently lose_sum: 0.5108328461647034
time_elpased: 6.041
#iterations: 222
currently lose_sum: 0.49049171805381775
time_elpased: 6.086
#iterations: 223
currently lose_sum: 0.5728603005409241
time_elpased: 6.031
#iterations: 224
currently lose_sum: 0.47543662786483765
time_elpased: 6.111
#iterations: 225
currently lose_sum: 0.4920635223388672
time_elpased: 6.023
#iterations: 226
currently lose_sum: 0.4667007327079773
time_elpased: 6.029
#iterations: 227
currently lose_sum: 0.5698003172874451
time_elpased: 6.053
#iterations: 228
currently lose_sum: 0.5783721804618835
time_elpased: 6.113
#iterations: 229
currently lose_sum: 0.499828040599823
time_elpased: 6.054
#iterations: 230
currently lose_sum: 0.5766607522964478
time_elpased: 6.026
#iterations: 231
currently lose_sum: 0.6045241951942444
time_elpased: 6.003
#iterations: 232
currently lose_sum: 0.5202934145927429
time_elpased: 6.115
#iterations: 233
currently lose_sum: 0.5808326005935669
time_elpased: 6.048
#iterations: 234
currently lose_sum: 0.515940248966217
time_elpased: 6.046
#iterations: 235
currently lose_sum: 0.5505725145339966
time_elpased: 6.059
#iterations: 236
currently lose_sum: 0.5145852565765381
time_elpased: 6.071
#iterations: 237
currently lose_sum: 0.5168005228042603
time_elpased: 6.058
#iterations: 238
currently lose_sum: 0.5275431275367737
time_elpased: 6.027
#iterations: 239
currently lose_sum: 0.5944298505783081
time_elpased: 6.043
start validation test
0.6928
0.752016129032
0.58832807571
0.66017699115
0.694326375517
14.925
#iterations: 240
currently lose_sum: 0.5342010259628296
time_elpased: 6.05
#iterations: 241
currently lose_sum: 0.5519016981124878
time_elpased: 6.068
#iterations: 242
currently lose_sum: 0.6005804538726807
time_elpased: 6.005
#iterations: 243
currently lose_sum: 0.6708722114562988
time_elpased: 6.113
#iterations: 244
currently lose_sum: 0.5676693320274353
time_elpased: 6.05
#iterations: 245
currently lose_sum: 0.525510311126709
time_elpased: 6.094
#iterations: 246
currently lose_sum: 0.6135271787643433
time_elpased: 6.076
#iterations: 247
currently lose_sum: 0.4890057444572449
time_elpased: 6.104
#iterations: 248
currently lose_sum: 0.5231508612632751
time_elpased: 6.091
#iterations: 249
currently lose_sum: 0.6866716146469116
time_elpased: 6.036
#iterations: 250
currently lose_sum: 0.590798556804657
time_elpased: 6.069
#iterations: 251
currently lose_sum: 0.558967649936676
time_elpased: 6.064
#iterations: 252
currently lose_sum: 0.5812169909477234
time_elpased: 6.04
#iterations: 253
currently lose_sum: 0.649604320526123
time_elpased: 6.036
#iterations: 254
currently lose_sum: 0.558275580406189
time_elpased: 6.042
#iterations: 255
currently lose_sum: 0.4899223744869232
time_elpased: 6.05
#iterations: 256
currently lose_sum: 0.5803683996200562
time_elpased: 6.054
#iterations: 257
currently lose_sum: 0.5539915561676025
time_elpased: 6.081
#iterations: 258
currently lose_sum: 0.6832676529884338
time_elpased: 5.992
#iterations: 259
currently lose_sum: 0.6269694566726685
time_elpased: 6.051
start validation test
0.7104
0.717252396166
0.708201892744
0.712698412698
0.710432115203
14.188
#iterations: 260
currently lose_sum: 0.5658525228500366
time_elpased: 6.07
#iterations: 261
currently lose_sum: 0.6884205341339111
time_elpased: 6.065
#iterations: 262
currently lose_sum: 0.509522557258606
time_elpased: 6.042
#iterations: 263
currently lose_sum: 0.5315910577774048
time_elpased: 6.089
#iterations: 264
currently lose_sum: 0.49961623549461365
time_elpased: 6.015
#iterations: 265
currently lose_sum: 0.6324582099914551
time_elpased: 6.027
#iterations: 266
currently lose_sum: 0.521103024482727
time_elpased: 6.112
#iterations: 267
currently lose_sum: 0.5666772723197937
time_elpased: 6.052
#iterations: 268
currently lose_sum: 0.4412509500980377
time_elpased: 6.145
#iterations: 269
currently lose_sum: 0.5133751034736633
time_elpased: 6.048
#iterations: 270
currently lose_sum: 0.7721412777900696
time_elpased: 6.07
#iterations: 271
currently lose_sum: 0.5465840101242065
time_elpased: 6.109
#iterations: 272
currently lose_sum: 0.4357527196407318
time_elpased: 6.056
#iterations: 273
currently lose_sum: 0.635219931602478
time_elpased: 6.088
#iterations: 274
currently lose_sum: 0.5260620713233948
time_elpased: 6.049
#iterations: 275
currently lose_sum: 0.5705457925796509
time_elpased: 6.026
#iterations: 276
currently lose_sum: 0.5150144696235657
time_elpased: 6.062
#iterations: 277
currently lose_sum: 0.7503465414047241
time_elpased: 6.058
#iterations: 278
currently lose_sum: 0.5824310779571533
time_elpased: 6.026
#iterations: 279
currently lose_sum: 0.47953471541404724
time_elpased: 6.095
start validation test
0.6724
0.809655172414
0.462933753943
0.589061716006
0.675460383465
15.912
#iterations: 280
currently lose_sum: 0.5416951775550842
time_elpased: 6.122
#iterations: 281
currently lose_sum: 0.5457981824874878
time_elpased: 6.097
#iterations: 282
currently lose_sum: 0.5718194842338562
time_elpased: 6.094
#iterations: 283
currently lose_sum: 0.5547205805778503
time_elpased: 6.01
#iterations: 284
currently lose_sum: 0.5162670612335205
time_elpased: 6.05
#iterations: 285
currently lose_sum: 0.5948469638824463
time_elpased: 6.035
#iterations: 286
currently lose_sum: 0.5719542503356934
time_elpased: 6.066
#iterations: 287
currently lose_sum: 0.5195202827453613
time_elpased: 6.054
#iterations: 288
currently lose_sum: 0.5750632286071777
time_elpased: 6.011
#iterations: 289
currently lose_sum: 0.4914412796497345
time_elpased: 6.037
#iterations: 290
currently lose_sum: 0.5062429904937744
time_elpased: 6.053
#iterations: 291
currently lose_sum: 0.49626442790031433
time_elpased: 6.026
#iterations: 292
currently lose_sum: 0.5112478137016296
time_elpased: 6.096
#iterations: 293
currently lose_sum: 0.47343218326568604
time_elpased: 6.072
#iterations: 294
currently lose_sum: 0.5104362964630127
time_elpased: 6.058
#iterations: 295
currently lose_sum: 0.5685017108917236
time_elpased: 6.074
#iterations: 296
currently lose_sum: 0.5563359260559082
time_elpased: 6.033
#iterations: 297
currently lose_sum: 0.465270459651947
time_elpased: 6.039
#iterations: 298
currently lose_sum: 0.5367732048034668
time_elpased: 6.042
#iterations: 299
currently lose_sum: 0.5319778919219971
time_elpased: 6.037
start validation test
0.672
0.786445012788
0.485015772871
0.6
0.674731912409
15.125
#iterations: 300
currently lose_sum: 0.5248273015022278
time_elpased: 6.065
#iterations: 301
currently lose_sum: 0.5472450256347656
time_elpased: 6.1
#iterations: 302
currently lose_sum: 0.6547052264213562
time_elpased: 6.053
#iterations: 303
currently lose_sum: 0.5555727481842041
time_elpased: 6.021
#iterations: 304
currently lose_sum: 0.5357896685600281
time_elpased: 6.075
#iterations: 305
currently lose_sum: 0.5157966017723083
time_elpased: 5.99
#iterations: 306
currently lose_sum: 0.5004233717918396
time_elpased: 6.068
#iterations: 307
currently lose_sum: 0.5992864370346069
time_elpased: 6.055
#iterations: 308
currently lose_sum: 0.5047263503074646
time_elpased: 6.077
#iterations: 309
currently lose_sum: 0.4374408721923828
time_elpased: 6.062
#iterations: 310
currently lose_sum: 0.549224317073822
time_elpased: 6.101
#iterations: 311
currently lose_sum: 0.5761898159980774
time_elpased: 6.021
#iterations: 312
currently lose_sum: 0.5323686003684998
time_elpased: 6.016
#iterations: 313
currently lose_sum: 0.5703031420707703
time_elpased: 6.097
#iterations: 314
currently lose_sum: 0.5718847513198853
time_elpased: 6.034
#iterations: 315
currently lose_sum: 0.518833577632904
time_elpased: 6.03
#iterations: 316
currently lose_sum: 0.573942244052887
time_elpased: 6.017
#iterations: 317
currently lose_sum: 0.6039279699325562
time_elpased: 6.083
#iterations: 318
currently lose_sum: 0.575666606426239
time_elpased: 6.073
#iterations: 319
currently lose_sum: 0.5626141428947449
time_elpased: 6.019
start validation test
0.6676
0.802213001383
0.457413249211
0.582621798091
0.67067091032
15.608
#iterations: 320
currently lose_sum: 0.4568551182746887
time_elpased: 6.118
#iterations: 321
currently lose_sum: 0.5912333130836487
time_elpased: 6.059
#iterations: 322
currently lose_sum: 0.4580462574958801
time_elpased: 6.023
#iterations: 323
currently lose_sum: 0.593447744846344
time_elpased: 6.127
#iterations: 324
currently lose_sum: 0.5336559414863586
time_elpased: 6.049
#iterations: 325
currently lose_sum: 0.6247202157974243
time_elpased: 6.061
#iterations: 326
currently lose_sum: 0.5551376342773438
time_elpased: 6.064
#iterations: 327
currently lose_sum: 0.6940373182296753
time_elpased: 6.016
#iterations: 328
currently lose_sum: 0.5178762674331665
time_elpased: 6.026
#iterations: 329
currently lose_sum: 0.5398901104927063
time_elpased: 6.133
#iterations: 330
currently lose_sum: 0.5050735473632812
time_elpased: 6.072
#iterations: 331
currently lose_sum: 0.5940744280815125
time_elpased: 6.045
#iterations: 332
currently lose_sum: 0.5120574831962585
time_elpased: 6.011
#iterations: 333
currently lose_sum: 0.48135310411453247
time_elpased: 6.024
#iterations: 334
currently lose_sum: 0.6173842549324036
time_elpased: 6.051
#iterations: 335
currently lose_sum: 0.488067090511322
time_elpased: 6.073
#iterations: 336
currently lose_sum: 0.5446531176567078
time_elpased: 6.077
#iterations: 337
currently lose_sum: 0.45091789960861206
time_elpased: 6.11
#iterations: 338
currently lose_sum: 0.5145391225814819
time_elpased: 6.048
#iterations: 339
currently lose_sum: 0.41798219084739685
time_elpased: 6.086
start validation test
0.7136
0.722222222222
0.707413249211
0.714741035857
0.713690390839
13.761
#iterations: 340
currently lose_sum: 0.5106023550033569
time_elpased: 6.086
#iterations: 341
currently lose_sum: 0.5785852074623108
time_elpased: 6.062
#iterations: 342
currently lose_sum: 0.4792937934398651
time_elpased: 6.044
#iterations: 343
currently lose_sum: 0.8491275906562805
time_elpased: 6.039
#iterations: 344
currently lose_sum: 0.48222053050994873
time_elpased: 6.104
#iterations: 345
currently lose_sum: 0.6236923336982727
time_elpased: 6.08
#iterations: 346
currently lose_sum: 0.5684114694595337
time_elpased: 6.07
#iterations: 347
currently lose_sum: 0.4655091166496277
time_elpased: 6.069
#iterations: 348
currently lose_sum: 0.42464324831962585
time_elpased: 6.057
#iterations: 349
currently lose_sum: 0.4838963449001312
time_elpased: 6.037
#iterations: 350
currently lose_sum: 0.48014312982559204
time_elpased: 6.058
#iterations: 351
currently lose_sum: 0.4775131940841675
time_elpased: 6.04
#iterations: 352
currently lose_sum: 0.497977077960968
time_elpased: 6.024
#iterations: 353
currently lose_sum: 0.5331436395645142
time_elpased: 6.061
#iterations: 354
currently lose_sum: 0.6119793653488159
time_elpased: 6.048
#iterations: 355
currently lose_sum: 0.6089985966682434
time_elpased: 6.064
#iterations: 356
currently lose_sum: 0.5186660289764404
time_elpased: 6.079
#iterations: 357
currently lose_sum: 0.4097568392753601
time_elpased: 6.06
#iterations: 358
currently lose_sum: 0.4794072210788727
time_elpased: 6.097
#iterations: 359
currently lose_sum: 0.45627808570861816
time_elpased: 6.059
start validation test
0.7164
0.770571151985
0.627760252366
0.691873098653
0.717695061248
14.375
#iterations: 360
currently lose_sum: 0.6985350251197815
time_elpased: 6.08
#iterations: 361
currently lose_sum: 0.5007376670837402
time_elpased: 6.002
#iterations: 362
currently lose_sum: 0.38731566071510315
time_elpased: 6.07
#iterations: 363
currently lose_sum: 0.40824103355407715
time_elpased: 6.06
#iterations: 364
currently lose_sum: 0.559313178062439
time_elpased: 6.019
#iterations: 365
currently lose_sum: 0.5873668193817139
time_elpased: 6.061
#iterations: 366
currently lose_sum: 0.5107267498970032
time_elpased: 6.035
#iterations: 367
currently lose_sum: 0.4488719701766968
time_elpased: 6.147
#iterations: 368
currently lose_sum: 0.5403061509132385
time_elpased: 6.08
#iterations: 369
currently lose_sum: 0.46247777342796326
time_elpased: 6.079
#iterations: 370
currently lose_sum: 0.4848368763923645
time_elpased: 6.094
#iterations: 371
currently lose_sum: 0.44834887981414795
time_elpased: 6.044
#iterations: 372
currently lose_sum: 0.5368568301200867
time_elpased: 5.995
#iterations: 373
currently lose_sum: 0.5360792279243469
time_elpased: 6.043
#iterations: 374
currently lose_sum: 0.4454491138458252
time_elpased: 6.045
#iterations: 375
currently lose_sum: 0.5267586708068848
time_elpased: 6.014
#iterations: 376
currently lose_sum: 0.5833876132965088
time_elpased: 6.077
#iterations: 377
currently lose_sum: 0.5532629489898682
time_elpased: 6.043
#iterations: 378
currently lose_sum: 0.539615273475647
time_elpased: 6.138
#iterations: 379
currently lose_sum: 0.6538227796554565
time_elpased: 6.036
start validation test
0.7152
0.779116465863
0.611987381703
0.685512367491
0.716707976566
13.894
#iterations: 380
currently lose_sum: 0.5537559390068054
time_elpased: 6.074
#iterations: 381
currently lose_sum: 0.5505512952804565
time_elpased: 6.039
#iterations: 382
currently lose_sum: 0.5446822643280029
time_elpased: 6.081
#iterations: 383
currently lose_sum: 0.41965267062187195
time_elpased: 6.06
#iterations: 384
currently lose_sum: 0.572810709476471
time_elpased: 6.061
#iterations: 385
currently lose_sum: 0.5133737325668335
time_elpased: 6.12
#iterations: 386
currently lose_sum: 0.5414392948150635
time_elpased: 6.045
#iterations: 387
currently lose_sum: 0.5604909062385559
time_elpased: 6.109
#iterations: 388
currently lose_sum: 0.5088512301445007
time_elpased: 6.091
#iterations: 389
currently lose_sum: 0.7191636562347412
time_elpased: 6.045
#iterations: 390
currently lose_sum: 0.45974594354629517
time_elpased: 6.094
#iterations: 391
currently lose_sum: 0.44890639185905457
time_elpased: 6.112
#iterations: 392
currently lose_sum: 0.5146588683128357
time_elpased: 6.029
#iterations: 393
currently lose_sum: 0.5196771025657654
time_elpased: 6.044
#iterations: 394
currently lose_sum: 0.42771023511886597
time_elpased: 6.06
#iterations: 395
currently lose_sum: 0.520682692527771
time_elpased: 6.067
#iterations: 396
currently lose_sum: 0.4526319205760956
time_elpased: 6.086
#iterations: 397
currently lose_sum: 0.4663483500480652
time_elpased: 6.011
#iterations: 398
currently lose_sum: 0.5161291360855103
time_elpased: 6.03
#iterations: 399
currently lose_sum: 0.546345055103302
time_elpased: 6.072
start validation test
0.718
0.703249097473
0.768138801262
0.734263098379
0.717267452579
13.686
#iterations: 400
currently lose_sum: 0.4599241614341736
time_elpased: 6.046
#iterations: 401
currently lose_sum: 0.6217391490936279
time_elpased: 6.04
#iterations: 402
currently lose_sum: 0.5385737419128418
time_elpased: 6.082
#iterations: 403
currently lose_sum: 0.4526301622390747
time_elpased: 6.021
#iterations: 404
currently lose_sum: 0.45622527599334717
time_elpased: 6.098
#iterations: 405
currently lose_sum: 0.46262603998184204
time_elpased: 6.073
#iterations: 406
currently lose_sum: 0.4880302846431732
time_elpased: 6.085
#iterations: 407
currently lose_sum: 0.6257249712944031
time_elpased: 6.036
#iterations: 408
currently lose_sum: 0.5170804858207703
time_elpased: 6.023
#iterations: 409
currently lose_sum: 0.4887757897377014
time_elpased: 6.078
#iterations: 410
currently lose_sum: 0.4846753180027008
time_elpased: 6.015
#iterations: 411
currently lose_sum: 0.4716387093067169
time_elpased: 6.063
#iterations: 412
currently lose_sum: 0.6019162535667419
time_elpased: 6.103
#iterations: 413
currently lose_sum: 0.5283300876617432
time_elpased: 5.999
#iterations: 414
currently lose_sum: 0.46717125177383423
time_elpased: 6.053
#iterations: 415
currently lose_sum: 0.43796563148498535
time_elpased: 6.02
#iterations: 416
currently lose_sum: 0.5386326313018799
time_elpased: 6.104
#iterations: 417
currently lose_sum: 0.4565836191177368
time_elpased: 6.067
#iterations: 418
currently lose_sum: 0.4662020802497864
time_elpased: 6.117
#iterations: 419
currently lose_sum: 0.4411035180091858
time_elpased: 6.102
start validation test
0.6832
0.82602739726
0.475552050473
0.603603603604
0.686233817444
15.394
#iterations: 420
currently lose_sum: 0.575735867023468
time_elpased: 6.087
#iterations: 421
currently lose_sum: 0.45137909054756165
time_elpased: 6.05
#iterations: 422
currently lose_sum: 0.5766420960426331
time_elpased: 6.156
#iterations: 423
currently lose_sum: 0.5180484652519226
time_elpased: 6.043
#iterations: 424
currently lose_sum: 0.419840008020401
time_elpased: 6.005
#iterations: 425
currently lose_sum: 0.38400498032569885
time_elpased: 6.067
#iterations: 426
currently lose_sum: 0.490626722574234
time_elpased: 6.038
#iterations: 427
currently lose_sum: 0.48314720392227173
time_elpased: 6.06
#iterations: 428
currently lose_sum: 0.49563467502593994
time_elpased: 6.023
#iterations: 429
currently lose_sum: 0.42245781421661377
time_elpased: 6.049
#iterations: 430
currently lose_sum: 0.5965112447738647
time_elpased: 6.021
#iterations: 431
currently lose_sum: 0.5218284726142883
time_elpased: 6.045
#iterations: 432
currently lose_sum: 0.4240989685058594
time_elpased: 6.098
#iterations: 433
currently lose_sum: 0.39015358686447144
time_elpased: 6.09
#iterations: 434
currently lose_sum: 0.491821825504303
time_elpased: 6.044
#iterations: 435
currently lose_sum: 0.45513299107551575
time_elpased: 6.024
#iterations: 436
currently lose_sum: 0.5263107419013977
time_elpased: 6.085
#iterations: 437
currently lose_sum: 0.45993727445602417
time_elpased: 6.024
#iterations: 438
currently lose_sum: 0.4867846667766571
time_elpased: 6.073
#iterations: 439
currently lose_sum: 0.4328201711177826
time_elpased: 6.033
start validation test
0.7068
0.664009809933
0.854100946372
0.7471541911
0.704647875784
14.460
#iterations: 440
currently lose_sum: 0.5025192499160767
time_elpased: 6.082
#iterations: 441
currently lose_sum: 0.47534114122390747
time_elpased: 6.043
#iterations: 442
currently lose_sum: 0.5915151834487915
time_elpased: 6.086
#iterations: 443
currently lose_sum: 0.46912750601768494
time_elpased: 6.074
#iterations: 444
currently lose_sum: 0.4375612139701843
time_elpased: 6.047
#iterations: 445
currently lose_sum: 0.4506571292877197
time_elpased: 6.058
#iterations: 446
currently lose_sum: 0.6730046272277832
time_elpased: 6.063
#iterations: 447
currently lose_sum: 0.44674819707870483
time_elpased: 6.003
#iterations: 448
currently lose_sum: 0.4477653205394745
time_elpased: 6.048
#iterations: 449
currently lose_sum: 0.40340694785118103
time_elpased: 6.161
#iterations: 450
currently lose_sum: 0.4630928039550781
time_elpased: 6.024
#iterations: 451
currently lose_sum: 0.6098124384880066
time_elpased: 6.044
#iterations: 452
currently lose_sum: 0.45608851313591003
time_elpased: 6.031
#iterations: 453
currently lose_sum: 0.4684567153453827
time_elpased: 6.047
#iterations: 454
currently lose_sum: 0.42443642020225525
time_elpased: 6.009
#iterations: 455
currently lose_sum: 0.4905490577220917
time_elpased: 6.113
#iterations: 456
currently lose_sum: 0.46624451875686646
time_elpased: 6.043
#iterations: 457
currently lose_sum: 0.5269518494606018
time_elpased: 6.023
#iterations: 458
currently lose_sum: 0.4853827655315399
time_elpased: 6.11
#iterations: 459
currently lose_sum: 0.41615086793899536
time_elpased: 6.013
start validation test
0.7188
0.81284606866
0.578864353312
0.67618608936
0.720844514318
13.945
#iterations: 460
currently lose_sum: 0.49937477707862854
time_elpased: 6.081
#iterations: 461
currently lose_sum: 0.43250328302383423
time_elpased: 6.062
#iterations: 462
currently lose_sum: 0.5022075772285461
time_elpased: 6.064
#iterations: 463
currently lose_sum: 0.45153123140335083
time_elpased: 6.047
#iterations: 464
currently lose_sum: 0.55793696641922
time_elpased: 6.093
#iterations: 465
currently lose_sum: 0.5562507510185242
time_elpased: 6.033
#iterations: 466
currently lose_sum: 0.5288667678833008
time_elpased: 6.052
#iterations: 467
currently lose_sum: 0.5298166871070862
time_elpased: 6.065
#iterations: 468
currently lose_sum: 0.4326708912849426
time_elpased: 6.047
#iterations: 469
currently lose_sum: 0.45645347237586975
time_elpased: 6.038
#iterations: 470
currently lose_sum: 0.5044429898262024
time_elpased: 6.074
#iterations: 471
currently lose_sum: 0.5374330282211304
time_elpased: 6.065
#iterations: 472
currently lose_sum: 0.40846359729766846
time_elpased: 6.044
#iterations: 473
currently lose_sum: 0.43486565351486206
time_elpased: 6.042
#iterations: 474
currently lose_sum: 0.3864842653274536
time_elpased: 6.057
#iterations: 475
currently lose_sum: 0.547415018081665
time_elpased: 6.092
#iterations: 476
currently lose_sum: 0.49260619282722473
time_elpased: 6.034
#iterations: 477
currently lose_sum: 0.5386207103729248
time_elpased: 6.056
#iterations: 478
currently lose_sum: 0.5168899297714233
time_elpased: 6.049
#iterations: 479
currently lose_sum: 0.5198161602020264
time_elpased: 6.017
start validation test
0.7248
0.728346456693
0.729495268139
0.728920409771
0.724731400303
13.730
#iterations: 480
currently lose_sum: 0.589617908000946
time_elpased: 6.078
#iterations: 481
currently lose_sum: 0.4672589600086212
time_elpased: 6.049
#iterations: 482
currently lose_sum: 0.5328764319419861
time_elpased: 6.052
#iterations: 483
currently lose_sum: 0.5302543640136719
time_elpased: 6.067
#iterations: 484
currently lose_sum: 0.4221268892288208
time_elpased: 6.076
#iterations: 485
currently lose_sum: 0.4011974334716797
time_elpased: 6.066
#iterations: 486
currently lose_sum: 0.5912476181983948
time_elpased: 6.109
#iterations: 487
currently lose_sum: 0.685451865196228
time_elpased: 6.046
#iterations: 488
currently lose_sum: 0.44704481959342957
time_elpased: 6.065
#iterations: 489
currently lose_sum: 0.5466504096984863
time_elpased: 6.082
#iterations: 490
currently lose_sum: 0.42459049820899963
time_elpased: 6.059
#iterations: 491
currently lose_sum: 0.4777669608592987
time_elpased: 6.072
#iterations: 492
currently lose_sum: 0.41856688261032104
time_elpased: 6.088
#iterations: 493
currently lose_sum: 0.447875052690506
time_elpased: 6.107
#iterations: 494
currently lose_sum: 0.5098969340324402
time_elpased: 6.024
#iterations: 495
currently lose_sum: 0.4785604178905487
time_elpased: 6.054
#iterations: 496
currently lose_sum: 0.5108421444892883
time_elpased: 6.075
#iterations: 497
currently lose_sum: 0.534984827041626
time_elpased: 6.038
#iterations: 498
currently lose_sum: 0.4794389307498932
time_elpased: 6.064
#iterations: 499
currently lose_sum: 0.4558788239955902
time_elpased: 6.014
start validation test
0.7344
0.772072072072
0.675867507886
0.720773759462
0.735255182515
13.530
#iterations: 500
currently lose_sum: 0.5076167583465576
time_elpased: 6.043
#iterations: 501
currently lose_sum: 0.4207212030887604
time_elpased: 6.107
#iterations: 502
currently lose_sum: 0.5263032913208008
time_elpased: 6.048
#iterations: 503
currently lose_sum: 0.45657098293304443
time_elpased: 6.085
#iterations: 504
currently lose_sum: 0.5011600255966187
time_elpased: 6.05
#iterations: 505
currently lose_sum: 0.419746994972229
time_elpased: 6.071
#iterations: 506
currently lose_sum: 0.44739916920661926
time_elpased: 6.024
#iterations: 507
currently lose_sum: 0.5094977617263794
time_elpased: 6.059
#iterations: 508
currently lose_sum: 0.5644852519035339
time_elpased: 6.119
#iterations: 509
currently lose_sum: 0.5903931856155396
time_elpased: 6.076
#iterations: 510
currently lose_sum: 0.3354383707046509
time_elpased: 6.075
#iterations: 511
currently lose_sum: 0.4398070275783539
time_elpased: 6.096
#iterations: 512
currently lose_sum: 0.4778025150299072
time_elpased: 6.027
#iterations: 513
currently lose_sum: 0.588546872138977
time_elpased: 6.03
#iterations: 514
currently lose_sum: 0.5314551591873169
time_elpased: 6.069
#iterations: 515
currently lose_sum: 0.5421873331069946
time_elpased: 6.035
#iterations: 516
currently lose_sum: 0.3853825330734253
time_elpased: 6.027
#iterations: 517
currently lose_sum: 0.327739417552948
time_elpased: 6.077
#iterations: 518
currently lose_sum: 0.47211265563964844
time_elpased: 6.014
#iterations: 519
currently lose_sum: 0.47742992639541626
time_elpased: 6.044
start validation test
0.6912
0.843490304709
0.480283911672
0.612060301508
0.694281566226
16.046
#iterations: 520
currently lose_sum: 0.4529556930065155
time_elpased: 6.074
#iterations: 521
currently lose_sum: 0.4583534002304077
time_elpased: 6.085
#iterations: 522
currently lose_sum: 0.4804041385650635
time_elpased: 6.09
#iterations: 523
currently lose_sum: 0.506888210773468
time_elpased: 6.059
#iterations: 524
currently lose_sum: 0.4652577340602875
time_elpased: 6.037
#iterations: 525
currently lose_sum: 0.47771531343460083
time_elpased: 6.045
#iterations: 526
currently lose_sum: 0.5246763825416565
time_elpased: 6.09
#iterations: 527
currently lose_sum: 0.49063804745674133
time_elpased: 6.063
#iterations: 528
currently lose_sum: 0.411591500043869
time_elpased: 6.075
#iterations: 529
currently lose_sum: 0.4715029001235962
time_elpased: 6.074
#iterations: 530
currently lose_sum: 0.4943080544471741
time_elpased: 6.082
#iterations: 531
currently lose_sum: 0.4902540445327759
time_elpased: 6.079
#iterations: 532
currently lose_sum: 0.4446837604045868
time_elpased: 6.07
#iterations: 533
currently lose_sum: 0.3868025243282318
time_elpased: 6.083
#iterations: 534
currently lose_sum: 0.5501855611801147
time_elpased: 6.042
#iterations: 535
currently lose_sum: 0.47202855348587036
time_elpased: 6.049
#iterations: 536
currently lose_sum: 0.4869508743286133
time_elpased: 6.057
#iterations: 537
currently lose_sum: 0.443294882774353
time_elpased: 6.067
#iterations: 538
currently lose_sum: 0.5347753167152405
time_elpased: 6.116
#iterations: 539
currently lose_sum: 0.5564941167831421
time_elpased: 6.109
start validation test
0.7376
0.732876712329
0.759463722397
0.745933384973
0.737280562497
13.292
#iterations: 540
currently lose_sum: 0.44368332624435425
time_elpased: 6.046
#iterations: 541
currently lose_sum: 0.44107651710510254
time_elpased: 6.046
#iterations: 542
currently lose_sum: 0.4050865173339844
time_elpased: 6.049
#iterations: 543
currently lose_sum: 0.5099277496337891
time_elpased: 6.045
#iterations: 544
currently lose_sum: 0.5242271423339844
time_elpased: 6.025
#iterations: 545
currently lose_sum: 0.33308953046798706
time_elpased: 6.059
#iterations: 546
currently lose_sum: 0.5844100117683411
time_elpased: 6.048
#iterations: 547
currently lose_sum: 0.4686039686203003
time_elpased: 6.063
#iterations: 548
currently lose_sum: 0.4989594519138336
time_elpased: 6.1
#iterations: 549
currently lose_sum: 0.37091904878616333
time_elpased: 6.072
#iterations: 550
currently lose_sum: 0.5393664836883545
time_elpased: 6.036
#iterations: 551
currently lose_sum: 0.4641173183917999
time_elpased: 6.059
#iterations: 552
currently lose_sum: 0.4480088949203491
time_elpased: 6.086
#iterations: 553
currently lose_sum: 0.47633397579193115
time_elpased: 6.077
#iterations: 554
currently lose_sum: 0.37830695509910583
time_elpased: 6.066
#iterations: 555
currently lose_sum: 0.35560476779937744
time_elpased: 6.048
#iterations: 556
currently lose_sum: 0.5797256827354431
time_elpased: 6.067
#iterations: 557
currently lose_sum: 0.4675060212612152
time_elpased: 6.095
#iterations: 558
currently lose_sum: 0.4644027352333069
time_elpased: 6.07
#iterations: 559
currently lose_sum: 0.563955545425415
time_elpased: 6.066
start validation test
0.744
0.791280148423
0.672712933754
0.727195225916
0.745041531812
13.410
#iterations: 560
currently lose_sum: 0.4663509428501129
time_elpased: 6.009
#iterations: 561
currently lose_sum: 0.4263361394405365
time_elpased: 6.023
#iterations: 562
currently lose_sum: 0.448138952255249
time_elpased: 6.039
#iterations: 563
currently lose_sum: 0.46247559785842896
time_elpased: 6.082
#iterations: 564
currently lose_sum: 0.4356582760810852
time_elpased: 6.096
#iterations: 565
currently lose_sum: 0.4595576524734497
time_elpased: 6.063
#iterations: 566
currently lose_sum: 0.46949002146720886
time_elpased: 6.017
#iterations: 567
currently lose_sum: 0.49053189158439636
time_elpased: 6.112
#iterations: 568
currently lose_sum: 0.5137889385223389
time_elpased: 6.055
#iterations: 569
currently lose_sum: 0.39153853058815
time_elpased: 6.063
#iterations: 570
currently lose_sum: 0.48618942499160767
time_elpased: 6.077
#iterations: 571
currently lose_sum: 0.4691362679004669
time_elpased: 6.068
#iterations: 572
currently lose_sum: 0.4835831820964813
time_elpased: 6.067
#iterations: 573
currently lose_sum: 0.42804649472236633
time_elpased: 6.09
#iterations: 574
currently lose_sum: 0.6669588685035706
time_elpased: 5.994
#iterations: 575
currently lose_sum: 0.3954053521156311
time_elpased: 6.008
#iterations: 576
currently lose_sum: 0.437724769115448
time_elpased: 6.061
#iterations: 577
currently lose_sum: 0.43075406551361084
time_elpased: 6.053
#iterations: 578
currently lose_sum: 0.4842926263809204
time_elpased: 6.065
#iterations: 579
currently lose_sum: 0.5424649119377136
time_elpased: 6.064
start validation test
0.708
0.669182389937
0.839116719243
0.744576627012
0.706084333647
14.897
#iterations: 580
currently lose_sum: 0.4576975107192993
time_elpased: 6.033
#iterations: 581
currently lose_sum: 0.4556940495967865
time_elpased: 6.101
#iterations: 582
currently lose_sum: 0.5608232021331787
time_elpased: 6.052
#iterations: 583
currently lose_sum: 0.43085747957229614
time_elpased: 6.088
#iterations: 584
currently lose_sum: 0.5225457549095154
time_elpased: 6.097
#iterations: 585
currently lose_sum: 0.4005284011363983
time_elpased: 6.061
#iterations: 586
currently lose_sum: 0.41382500529289246
time_elpased: 6.044
#iterations: 587
currently lose_sum: 0.4006423056125641
time_elpased: 6.058
#iterations: 588
currently lose_sum: 0.5005354881286621
time_elpased: 6.084
#iterations: 589
currently lose_sum: 0.44846680760383606
time_elpased: 6.149
#iterations: 590
currently lose_sum: 0.480152428150177
time_elpased: 6.024
#iterations: 591
currently lose_sum: 0.4388521611690521
time_elpased: 6.03
#iterations: 592
currently lose_sum: 0.4313459098339081
time_elpased: 6.099
#iterations: 593
currently lose_sum: 0.4952199459075928
time_elpased: 6.056
#iterations: 594
currently lose_sum: 0.40015166997909546
time_elpased: 6.089
#iterations: 595
currently lose_sum: 0.41395682096481323
time_elpased: 6.096
#iterations: 596
currently lose_sum: 0.40225180983543396
time_elpased: 6.078
#iterations: 597
currently lose_sum: 0.4281405210494995
time_elpased: 6.065
#iterations: 598
currently lose_sum: 0.6119977831840515
time_elpased: 6.033
#iterations: 599
currently lose_sum: 0.4107833206653595
time_elpased: 6.048
start validation test
0.7124
0.667072428484
0.864353312303
0.753005839918
0.710179902905
13.908
acc: 0.718
pre: 0.714
rec: 0.742
F1: 0.728
auc: 0.718
