start to construct computing graph
graph construct over
3802
epochs start
#iterations: 0
currently lose_sum: 0.6927748322486877
time_elpased: 6.691
#iterations: 1
currently lose_sum: 0.6930768489837646
time_elpased: 6.785
#iterations: 2
currently lose_sum: 0.6960369348526001
time_elpased: 6.672
#iterations: 3
currently lose_sum: 0.6940733194351196
time_elpased: 6.738
#iterations: 4
currently lose_sum: 0.69461989402771
time_elpased: 7.053
#iterations: 5
currently lose_sum: 0.6949130296707153
time_elpased: 6.661
#iterations: 6
currently lose_sum: 0.6889293193817139
time_elpased: 6.612
#iterations: 7
currently lose_sum: 0.6877593994140625
time_elpased: 6.711
#iterations: 8
currently lose_sum: 0.6878772974014282
time_elpased: 6.617
#iterations: 9
currently lose_sum: 0.7056519985198975
time_elpased: 6.593
#iterations: 10
currently lose_sum: 0.688368022441864
time_elpased: 6.596
#iterations: 11
currently lose_sum: 0.6933966875076294
time_elpased: 6.774
#iterations: 12
currently lose_sum: 0.6925926804542542
time_elpased: 6.578
#iterations: 13
currently lose_sum: 0.6975868940353394
time_elpased: 6.586
#iterations: 14
currently lose_sum: 0.6839230060577393
time_elpased: 6.696
#iterations: 15
currently lose_sum: 0.6966347694396973
time_elpased: 6.606
#iterations: 16
currently lose_sum: 0.6912326216697693
time_elpased: 6.629
#iterations: 17
currently lose_sum: 0.6979571580886841
time_elpased: 6.865
#iterations: 18
currently lose_sum: 0.6814938187599182
time_elpased: 6.674
#iterations: 19
currently lose_sum: 0.6948293447494507
time_elpased: 6.563
start validation test
0.5236
0.535681186284
0.455835962145
0.492543672774
0.524590058995
17.209
#iterations: 20
currently lose_sum: 0.6798614263534546
time_elpased: 6.05
#iterations: 21
currently lose_sum: 0.6661712527275085
time_elpased: 6.026
#iterations: 22
currently lose_sum: 0.6957045197486877
time_elpased: 6.32
#iterations: 23
currently lose_sum: 0.6852721571922302
time_elpased: 6.112
#iterations: 24
currently lose_sum: 0.677126407623291
time_elpased: 6.018
#iterations: 25
currently lose_sum: 0.6555632948875427
time_elpased: 6.076
#iterations: 26
currently lose_sum: 0.6911288499832153
time_elpased: 6.022
#iterations: 27
currently lose_sum: 0.6799932718276978
time_elpased: 6.338
#iterations: 28
currently lose_sum: 0.6669358015060425
time_elpased: 6.017
#iterations: 29
currently lose_sum: 0.6764122247695923
time_elpased: 6.101
#iterations: 30
currently lose_sum: 0.6765488982200623
time_elpased: 6.113
#iterations: 31
currently lose_sum: 0.6953550577163696
time_elpased: 6.091
#iterations: 32
currently lose_sum: 0.6783088445663452
time_elpased: 6.107
#iterations: 33
currently lose_sum: 0.6838539838790894
time_elpased: 6.124
#iterations: 34
currently lose_sum: 0.6861907839775085
time_elpased: 6.045
#iterations: 35
currently lose_sum: 0.6656864881515503
time_elpased: 6.162
#iterations: 36
currently lose_sum: 0.676838755607605
time_elpased: 6.017
#iterations: 37
currently lose_sum: 0.7315798997879028
time_elpased: 6.063
#iterations: 38
currently lose_sum: 0.6174464225769043
time_elpased: 6.086
#iterations: 39
currently lose_sum: 0.6856334209442139
time_elpased: 6.137
start validation test
0.5408
0.526338893766
0.945583596215
0.676254935138
0.534885953951
17.385
#iterations: 40
currently lose_sum: 0.6669172644615173
time_elpased: 6.039
#iterations: 41
currently lose_sum: 0.6582591533660889
time_elpased: 6.037
#iterations: 42
currently lose_sum: 0.6564717292785645
time_elpased: 6.184
#iterations: 43
currently lose_sum: 0.671233057975769
time_elpased: 6.101
#iterations: 44
currently lose_sum: 0.670634925365448
time_elpased: 6.136
#iterations: 45
currently lose_sum: 0.7210313677787781
time_elpased: 6.031
#iterations: 46
currently lose_sum: 0.6947550177574158
time_elpased: 6.088
#iterations: 47
currently lose_sum: 0.6485393643379211
time_elpased: 6.08
#iterations: 48
currently lose_sum: 0.6523832082748413
time_elpased: 6.145
#iterations: 49
currently lose_sum: 0.6926857233047485
time_elpased: 6.057
#iterations: 50
currently lose_sum: 0.6884601712226868
time_elpased: 6.155
#iterations: 51
currently lose_sum: 0.6569458246231079
time_elpased: 6.06
#iterations: 52
currently lose_sum: 0.6595868468284607
time_elpased: 6.469
#iterations: 53
currently lose_sum: 0.6807410717010498
time_elpased: 6.153
#iterations: 54
currently lose_sum: 0.7045448422431946
time_elpased: 6.045
#iterations: 55
currently lose_sum: 0.6845487952232361
time_elpased: 6.149
#iterations: 56
currently lose_sum: 0.6798257231712341
time_elpased: 6.055
#iterations: 57
currently lose_sum: 0.6995291113853455
time_elpased: 6.029
#iterations: 58
currently lose_sum: 0.6349985003471375
time_elpased: 6.445
#iterations: 59
currently lose_sum: 0.6744859218597412
time_elpased: 6.182
start validation test
0.552
0.532370953631
0.959779179811
0.684862127181
0.546042187308
19.221
#iterations: 60
currently lose_sum: 0.665895402431488
time_elpased: 6.132
#iterations: 61
currently lose_sum: 0.6555507183074951
time_elpased: 6.061
#iterations: 62
currently lose_sum: 0.6624377369880676
time_elpased: 6.074
#iterations: 63
currently lose_sum: 0.7009197473526001
time_elpased: 6.049
#iterations: 64
currently lose_sum: 0.6575808525085449
time_elpased: 6.397
#iterations: 65
currently lose_sum: 0.6520497798919678
time_elpased: 6.311
#iterations: 66
currently lose_sum: 0.647255539894104
time_elpased: 6.024
#iterations: 67
currently lose_sum: 0.6627551913261414
time_elpased: 6.135
#iterations: 68
currently lose_sum: 0.6645025610923767
time_elpased: 6.128
#iterations: 69
currently lose_sum: 0.6706196665763855
time_elpased: 6.024
#iterations: 70
currently lose_sum: 0.6519320011138916
time_elpased: 6.267
#iterations: 71
currently lose_sum: 0.6563011407852173
time_elpased: 6.281
#iterations: 72
currently lose_sum: 0.6878541707992554
time_elpased: 6.133
#iterations: 73
currently lose_sum: 0.6661851406097412
time_elpased: 6.066
#iterations: 74
currently lose_sum: 0.6353663206100464
time_elpased: 6.582
#iterations: 75
currently lose_sum: 0.6188915967941284
time_elpased: 6.246
#iterations: 76
currently lose_sum: 0.6111332178115845
time_elpased: 6.017
#iterations: 77
currently lose_sum: 0.6901542544364929
time_elpased: 6.029
#iterations: 78
currently lose_sum: 0.6164973378181458
time_elpased: 6.064
#iterations: 79
currently lose_sum: 0.6079198718070984
time_elpased: 6.145
start validation test
0.612
0.642720306513
0.529179810726
0.58044982699
0.613210035233
16.415
#iterations: 80
currently lose_sum: 0.6467657685279846
time_elpased: 6.188
#iterations: 81
currently lose_sum: 0.5765620470046997
time_elpased: 6.157
#iterations: 82
currently lose_sum: 0.6719644069671631
time_elpased: 6.107
#iterations: 83
currently lose_sum: 0.6273952722549438
time_elpased: 6.035
#iterations: 84
currently lose_sum: 0.6737169623374939
time_elpased: 6.069
#iterations: 85
currently lose_sum: 0.6872180104255676
time_elpased: 6.114
#iterations: 86
currently lose_sum: 0.6624229550361633
time_elpased: 6.132
#iterations: 87
currently lose_sum: 0.651562511920929
time_elpased: 6.058
#iterations: 88
currently lose_sum: 0.646006166934967
time_elpased: 6.104
#iterations: 89
currently lose_sum: 0.6468415260314941
time_elpased: 6.368
#iterations: 90
currently lose_sum: 0.6895835399627686
time_elpased: 6.16
#iterations: 91
currently lose_sum: 0.6471056938171387
time_elpased: 6.299
#iterations: 92
currently lose_sum: 0.705210268497467
time_elpased: 6.205
#iterations: 93
currently lose_sum: 0.6446847319602966
time_elpased: 6.103
#iterations: 94
currently lose_sum: 0.6095330715179443
time_elpased: 6.102
#iterations: 95
currently lose_sum: 0.6461448669433594
time_elpased: 6.252
#iterations: 96
currently lose_sum: 0.6036505103111267
time_elpased: 6.07
#iterations: 97
currently lose_sum: 0.6399341821670532
time_elpased: 6.078
#iterations: 98
currently lose_sum: 0.6548004150390625
time_elpased: 6.035
#iterations: 99
currently lose_sum: 0.6430792212486267
time_elpased: 6.222
start validation test
0.5704
0.735436893204
0.238958990536
0.360714285714
0.575242482281
16.780
#iterations: 100
currently lose_sum: 0.6412906050682068
time_elpased: 6.171
#iterations: 101
currently lose_sum: 0.6854057312011719
time_elpased: 6.09
#iterations: 102
currently lose_sum: 0.687713086605072
time_elpased: 6.154
#iterations: 103
currently lose_sum: 0.6720256209373474
time_elpased: 6.017
#iterations: 104
currently lose_sum: 0.5701150894165039
time_elpased: 6.063
#iterations: 105
currently lose_sum: 0.6163569092750549
time_elpased: 6.131
#iterations: 106
currently lose_sum: 0.6348095536231995
time_elpased: 6.116
#iterations: 107
currently lose_sum: 0.6366384625434875
time_elpased: 6.149
#iterations: 108
currently lose_sum: 0.5824437141418457
time_elpased: 6.128
#iterations: 109
currently lose_sum: 0.729288637638092
time_elpased: 6.325
#iterations: 110
currently lose_sum: 0.6754322648048401
time_elpased: 6.297
#iterations: 111
currently lose_sum: 0.6349676251411438
time_elpased: 6.03
#iterations: 112
currently lose_sum: 0.6165052652359009
time_elpased: 6.022
#iterations: 113
currently lose_sum: 0.6338276863098145
time_elpased: 6.138
#iterations: 114
currently lose_sum: 0.6985106468200684
time_elpased: 6.224
#iterations: 115
currently lose_sum: 0.6169907450675964
time_elpased: 6.113
#iterations: 116
currently lose_sum: 0.6326086521148682
time_elpased: 6.061
#iterations: 117
currently lose_sum: 0.6402897834777832
time_elpased: 6.147
#iterations: 118
currently lose_sum: 0.6112338900566101
time_elpased: 6.084
#iterations: 119
currently lose_sum: 0.5991163849830627
time_elpased: 6.122
start validation test
0.6408
0.616498740554
0.772082018927
0.685574229692
0.638881918555
15.794
#iterations: 120
currently lose_sum: 0.6154739856719971
time_elpased: 6.06
#iterations: 121
currently lose_sum: 0.6399524211883545
time_elpased: 6.072
#iterations: 122
currently lose_sum: 0.6067515015602112
time_elpased: 6.099
#iterations: 123
currently lose_sum: 0.6225492358207703
time_elpased: 6.103
#iterations: 124
currently lose_sum: 0.6658145785331726
time_elpased: 6.203
#iterations: 125
currently lose_sum: 0.6678999066352844
time_elpased: 6.116
#iterations: 126
currently lose_sum: 0.5841588973999023
time_elpased: 6.129
#iterations: 127
currently lose_sum: 0.6298048496246338
time_elpased: 6.156
#iterations: 128
currently lose_sum: 1.7017894983291626
time_elpased: 6.117
#iterations: 129
currently lose_sum: 0.7058342099189758
time_elpased: 6.075
#iterations: 130
currently lose_sum: 0.6174731254577637
time_elpased: 6.065
#iterations: 131
currently lose_sum: 0.6781947612762451
time_elpased: 6.067
#iterations: 132
currently lose_sum: 0.6386919021606445
time_elpased: 6.178
#iterations: 133
currently lose_sum: 0.6272491216659546
time_elpased: 6.256
#iterations: 134
currently lose_sum: 0.5718057751655579
time_elpased: 6.072
#iterations: 135
currently lose_sum: 0.5966457724571228
time_elpased: 6.213
#iterations: 136
currently lose_sum: 0.6210978031158447
time_elpased: 6.056
#iterations: 137
currently lose_sum: 0.612814724445343
time_elpased: 6.07
#iterations: 138
currently lose_sum: 0.6792305111885071
time_elpased: 6.138
#iterations: 139
currently lose_sum: 0.6196426153182983
time_elpased: 6.178
start validation test
0.6532
0.659506762132
0.653785488959
0.656633663366
0.653191445778
15.442
#iterations: 140
currently lose_sum: 0.5860295295715332
time_elpased: 6.028
#iterations: 141
currently lose_sum: 0.6367535591125488
time_elpased: 6.076
#iterations: 142
currently lose_sum: 0.5773527026176453
time_elpased: 6.025
#iterations: 143
currently lose_sum: 0.6534391641616821
time_elpased: 6.136
#iterations: 144
currently lose_sum: 0.6836932897567749
time_elpased: 6.053
#iterations: 145
currently lose_sum: 0.6347198486328125
time_elpased: 6.066
#iterations: 146
currently lose_sum: 0.6218591332435608
time_elpased: 6.242
#iterations: 147
currently lose_sum: 0.6265591382980347
time_elpased: 6.103
#iterations: 148
currently lose_sum: 0.673236072063446
time_elpased: 6.069
#iterations: 149
currently lose_sum: 0.6646173000335693
time_elpased: 6.084
#iterations: 150
currently lose_sum: 0.652366042137146
time_elpased: 6.027
#iterations: 151
currently lose_sum: 0.6381603479385376
time_elpased: 6.027
#iterations: 152
currently lose_sum: 0.6335887312889099
time_elpased: 6.023
#iterations: 153
currently lose_sum: 0.6130520105361938
time_elpased: 6.043
#iterations: 154
currently lose_sum: 0.6252685785293579
time_elpased: 6.049
#iterations: 155
currently lose_sum: 0.7074505686759949
time_elpased: 6.098
#iterations: 156
currently lose_sum: 0.5875177979469299
time_elpased: 6.071
#iterations: 157
currently lose_sum: 0.5357735753059387
time_elpased: 6.053
#iterations: 158
currently lose_sum: 0.5800976157188416
time_elpased: 6.166
#iterations: 159
currently lose_sum: 0.7527918815612793
time_elpased: 6.228
start validation test
0.6264
0.771986970684
0.3738170347
0.503719447396
0.630090335532
16.000
#iterations: 160
currently lose_sum: 0.6000944375991821
time_elpased: 6.079
#iterations: 161
currently lose_sum: 0.5761070847511292
time_elpased: 6.225
#iterations: 162
currently lose_sum: 0.5648813843727112
time_elpased: 6.076
#iterations: 163
currently lose_sum: 0.4986715614795685
time_elpased: 6.082
#iterations: 164
currently lose_sum: 0.5589597821235657
time_elpased: 6.01
#iterations: 165
currently lose_sum: 0.5959497690200806
time_elpased: 6.02
#iterations: 166
currently lose_sum: 0.7432346940040588
time_elpased: 6.041
#iterations: 167
currently lose_sum: 0.5959770083427429
time_elpased: 6.068
#iterations: 168
currently lose_sum: 0.654610812664032
time_elpased: 6.295
#iterations: 169
currently lose_sum: 0.6195347309112549
time_elpased: 6.334
#iterations: 170
currently lose_sum: 0.6690380573272705
time_elpased: 6.046
#iterations: 171
currently lose_sum: 0.7064967155456543
time_elpased: 6.059
#iterations: 172
currently lose_sum: 0.5494154095649719
time_elpased: 6.053
#iterations: 173
currently lose_sum: 0.5750739574432373
time_elpased: 6.096
#iterations: 174
currently lose_sum: 0.6519574522972107
time_elpased: 6.074
#iterations: 175
currently lose_sum: 0.6666761636734009
time_elpased: 6.145
#iterations: 176
currently lose_sum: 0.5626569986343384
time_elpased: 6.096
#iterations: 177
currently lose_sum: 0.603408932685852
time_elpased: 6.083
#iterations: 178
currently lose_sum: 0.6657531261444092
time_elpased: 6.069
#iterations: 179
currently lose_sum: 0.6704897880554199
time_elpased: 6.274
start validation test
0.5528
0.847222222222
0.144321766562
0.246630727763
0.558768026138
16.808
#iterations: 180
currently lose_sum: 0.6227654218673706
time_elpased: 6.245
#iterations: 181
currently lose_sum: 0.6544721722602844
time_elpased: 6.115
#iterations: 182
currently lose_sum: 0.6966896653175354
time_elpased: 6.167
#iterations: 183
currently lose_sum: 0.8353634476661682
time_elpased: 6.171
#iterations: 184
currently lose_sum: 0.5511401295661926
time_elpased: 6.086
#iterations: 185
currently lose_sum: 0.5548692345619202
time_elpased: 6.083
#iterations: 186
currently lose_sum: 0.6209690570831299
time_elpased: 6.015
#iterations: 187
currently lose_sum: 0.5365787744522095
time_elpased: 6.059
#iterations: 188
currently lose_sum: 0.5622472167015076
time_elpased: 6.121
#iterations: 189
currently lose_sum: 0.5700141787528992
time_elpased: 6.114
#iterations: 190
currently lose_sum: 0.6424067616462708
time_elpased: 6.068
#iterations: 191
currently lose_sum: 0.5838524103164673
time_elpased: 6.054
#iterations: 192
currently lose_sum: 0.5723576545715332
time_elpased: 6.208
#iterations: 193
currently lose_sum: 0.6692034006118774
time_elpased: 6.115
#iterations: 194
currently lose_sum: 0.5680473446846008
time_elpased: 6.274
#iterations: 195
currently lose_sum: 0.5943308472633362
time_elpased: 6.36
#iterations: 196
currently lose_sum: 0.5315354466438293
time_elpased: 6.107
#iterations: 197
currently lose_sum: 0.5384528636932373
time_elpased: 6.187
#iterations: 198
currently lose_sum: 0.6194495558738708
time_elpased: 6.314
#iterations: 199
currently lose_sum: 0.5473763942718506
time_elpased: 6.039
start validation test
0.6392
0.74335106383
0.440851735016
0.553465346535
0.64209794543
16.224
#iterations: 200
currently lose_sum: 0.5332006812095642
time_elpased: 6.133
#iterations: 201
currently lose_sum: 0.5995328426361084
time_elpased: 6.223
#iterations: 202
currently lose_sum: 0.6321420073509216
time_elpased: 6.041
#iterations: 203
currently lose_sum: 0.546690821647644
time_elpased: 6.127
#iterations: 204
currently lose_sum: 0.7113317847251892
time_elpased: 6.077
#iterations: 205
currently lose_sum: 0.5648413896560669
time_elpased: 6.071
#iterations: 206
currently lose_sum: 0.5432454347610474
time_elpased: 6.075
#iterations: 207
currently lose_sum: 0.5111924409866333
time_elpased: 6.032
#iterations: 208
currently lose_sum: 0.5627670884132385
time_elpased: 6.152
#iterations: 209
currently lose_sum: 0.5484673380851746
time_elpased: 6.017
#iterations: 210
currently lose_sum: 0.6189038157463074
time_elpased: 6.139
#iterations: 211
currently lose_sum: 0.6062209606170654
time_elpased: 6.148
#iterations: 212
currently lose_sum: 0.5952085256576538
time_elpased: 6.084
#iterations: 213
currently lose_sum: 0.5841457843780518
time_elpased: 6.061
#iterations: 214
currently lose_sum: 0.6632528901100159
time_elpased: 6.546
#iterations: 215
currently lose_sum: 0.5470430254936218
time_elpased: 6.092
#iterations: 216
currently lose_sum: 0.5726773142814636
time_elpased: 6.01
#iterations: 217
currently lose_sum: 0.6672114729881287
time_elpased: 6.323
#iterations: 218
currently lose_sum: 0.5939616560935974
time_elpased: 6.116
#iterations: 219
currently lose_sum: 0.5447077751159668
time_elpased: 6.039
start validation test
0.69
0.740487804878
0.59858044164
0.662014827737
0.691335675366
14.888
#iterations: 220
currently lose_sum: 0.5382242202758789
time_elpased: 6.525
#iterations: 221
currently lose_sum: 0.5470477342605591
time_elpased: 6.105
#iterations: 222
currently lose_sum: 0.5874699354171753
time_elpased: 6.364
#iterations: 223
currently lose_sum: 0.5897457599639893
time_elpased: 6.356
#iterations: 224
currently lose_sum: 0.526370108127594
time_elpased: 6.325
#iterations: 225
currently lose_sum: 0.6100171804428101
time_elpased: 6.09
#iterations: 226
currently lose_sum: 0.5984916687011719
time_elpased: 6.079
#iterations: 227
currently lose_sum: 0.6013268828392029
time_elpased: 6.067
#iterations: 228
currently lose_sum: 0.5272703766822815
time_elpased: 6.034
#iterations: 229
currently lose_sum: 0.6847834587097168
time_elpased: 6.435
#iterations: 230
currently lose_sum: 0.5267566442489624
time_elpased: 6.117
#iterations: 231
currently lose_sum: 0.535419762134552
time_elpased: 6.027
#iterations: 232
currently lose_sum: 0.637238085269928
time_elpased: 6.331
#iterations: 233
currently lose_sum: 0.44518107175827026
time_elpased: 6.269
#iterations: 234
currently lose_sum: 0.5230617523193359
time_elpased: 6.243
#iterations: 235
currently lose_sum: 0.5934547185897827
time_elpased: 6.157
#iterations: 236
currently lose_sum: 0.5862816572189331
time_elpased: 6.075
#iterations: 237
currently lose_sum: 0.5397294759750366
time_elpased: 6.056
#iterations: 238
currently lose_sum: 0.5749885439872742
time_elpased: 6.193
#iterations: 239
currently lose_sum: 0.6128629446029663
time_elpased: 6.062
start validation test
0.6516
0.779971791255
0.436119873817
0.559433485078
0.654748248597
15.295
#iterations: 240
currently lose_sum: 0.5782157778739929
time_elpased: 6.065
#iterations: 241
currently lose_sum: 0.5874729156494141
time_elpased: 6.134
#iterations: 242
currently lose_sum: 0.6545804738998413
time_elpased: 6.06
#iterations: 243
currently lose_sum: 0.5069863796234131
time_elpased: 6.195
#iterations: 244
currently lose_sum: 0.4948978126049042
time_elpased: 6.028
#iterations: 245
currently lose_sum: 0.5369083881378174
time_elpased: 6.259
#iterations: 246
currently lose_sum: 0.5785983800888062
time_elpased: 6.242
#iterations: 247
currently lose_sum: 0.5059003233909607
time_elpased: 6.054
#iterations: 248
currently lose_sum: 0.4460417926311493
time_elpased: 6.093
#iterations: 249
currently lose_sum: 0.4906036853790283
time_elpased: 6.072
#iterations: 250
currently lose_sum: 0.5160344839096069
time_elpased: 6.041
#iterations: 251
currently lose_sum: 0.5639953017234802
time_elpased: 6.471
#iterations: 252
currently lose_sum: 0.6911247372627258
time_elpased: 6.072
#iterations: 253
currently lose_sum: 0.5662953853607178
time_elpased: 6.06
#iterations: 254
currently lose_sum: 0.5297590494155884
time_elpased: 6.072
#iterations: 255
currently lose_sum: 0.5209218859672546
time_elpased: 6.122
#iterations: 256
currently lose_sum: 0.5424690842628479
time_elpased: 5.989
#iterations: 257
currently lose_sum: 0.5818637609481812
time_elpased: 6.083
#iterations: 258
currently lose_sum: 0.6592819094657898
time_elpased: 6.04
#iterations: 259
currently lose_sum: 0.561513364315033
time_elpased: 6.183
start validation test
0.6864
0.711908931699
0.641167192429
0.67468879668
0.687060868942
14.676
#iterations: 260
currently lose_sum: 0.5310385823249817
time_elpased: 6.152
#iterations: 261
currently lose_sum: 0.535478949546814
time_elpased: 6.125
#iterations: 262
currently lose_sum: 0.5687587261199951
time_elpased: 6.103
#iterations: 263
currently lose_sum: 0.49918878078460693
time_elpased: 6.296
#iterations: 264
currently lose_sum: 0.4462110996246338
time_elpased: 6.09
#iterations: 265
currently lose_sum: 0.6052985787391663
time_elpased: 6.08
#iterations: 266
currently lose_sum: 0.5393896698951721
time_elpased: 6.018
#iterations: 267
currently lose_sum: 0.5946864485740662
time_elpased: 6.043
#iterations: 268
currently lose_sum: 0.597129225730896
time_elpased: 5.989
#iterations: 269
currently lose_sum: 0.4950929582118988
time_elpased: 6.154
#iterations: 270
currently lose_sum: 0.5779576301574707
time_elpased: 6.03
#iterations: 271
currently lose_sum: 0.5385525822639465
time_elpased: 6.249
#iterations: 272
currently lose_sum: 0.4718685448169708
time_elpased: 6.131
#iterations: 273
currently lose_sum: 0.5598530769348145
time_elpased: 6.151
#iterations: 274
currently lose_sum: 0.5220643877983093
time_elpased: 6.091
#iterations: 275
currently lose_sum: 0.501889705657959
time_elpased: 6.229
#iterations: 276
currently lose_sum: 0.5828452110290527
time_elpased: 6.067
#iterations: 277
currently lose_sum: 0.5391213893890381
time_elpased: 6.093
#iterations: 278
currently lose_sum: 0.5337264537811279
time_elpased: 6.298
#iterations: 279
currently lose_sum: 0.4618087112903595
time_elpased: 6.306
start validation test
0.7028
0.745556594949
0.628548895899
0.682071031237
0.70388483756
14.521
#iterations: 280
currently lose_sum: 0.5212125182151794
time_elpased: 6.068
#iterations: 281
currently lose_sum: 0.5166987776756287
time_elpased: 6.124
#iterations: 282
currently lose_sum: 0.47112369537353516
time_elpased: 6.048
#iterations: 283
currently lose_sum: 0.4435218572616577
time_elpased: 6.261
#iterations: 284
currently lose_sum: 0.5542630553245544
time_elpased: 6.307
#iterations: 285
currently lose_sum: 0.5521188974380493
time_elpased: 6.073
#iterations: 286
currently lose_sum: 0.5183078646659851
time_elpased: 6.148
#iterations: 287
currently lose_sum: 0.6196296215057373
time_elpased: 6.089
#iterations: 288
currently lose_sum: 0.5379931330680847
time_elpased: 6.085
#iterations: 289
currently lose_sum: 0.549620509147644
time_elpased: 6.204
#iterations: 290
currently lose_sum: 0.6069885492324829
time_elpased: 6.064
#iterations: 291
currently lose_sum: 0.5357813835144043
time_elpased: 6.276
#iterations: 292
currently lose_sum: 0.5078097581863403
time_elpased: 6.065
#iterations: 293
currently lose_sum: 0.5155274271965027
time_elpased: 6.083
#iterations: 294
currently lose_sum: 0.598142147064209
time_elpased: 6.099
#iterations: 295
currently lose_sum: 0.5258362293243408
time_elpased: 6.195
#iterations: 296
currently lose_sum: 0.5578224062919617
time_elpased: 6.093
#iterations: 297
currently lose_sum: 0.5742937326431274
time_elpased: 6.081
#iterations: 298
currently lose_sum: 0.5140376687049866
time_elpased: 6.086
#iterations: 299
currently lose_sum: 0.5544753670692444
time_elpased: 6.061
start validation test
0.6848
0.649625935162
0.821766561514
0.725626740947
0.682798865173
14.374
#iterations: 300
currently lose_sum: 0.4967176020145416
time_elpased: 6.111
#iterations: 301
currently lose_sum: 0.5079157948493958
time_elpased: 6.089
#iterations: 302
currently lose_sum: 0.5481861233711243
time_elpased: 6.135
#iterations: 303
currently lose_sum: 0.44312727451324463
time_elpased: 6.074
#iterations: 304
currently lose_sum: 0.4264623522758484
time_elpased: 6.089
#iterations: 305
currently lose_sum: 0.5133475661277771
time_elpased: 6.065
#iterations: 306
currently lose_sum: 0.545358419418335
time_elpased: 6.198
#iterations: 307
currently lose_sum: 0.45825669169425964
time_elpased: 6.582
#iterations: 308
currently lose_sum: 0.5974557995796204
time_elpased: 6.186
#iterations: 309
currently lose_sum: 0.576957643032074
time_elpased: 6.06
#iterations: 310
currently lose_sum: 0.5749778747558594
time_elpased: 6.045
#iterations: 311
currently lose_sum: 0.5918850898742676
time_elpased: 6.095
#iterations: 312
currently lose_sum: 0.5948345065116882
time_elpased: 6.018
#iterations: 313
currently lose_sum: 0.6357471942901611
time_elpased: 6.038
#iterations: 314
currently lose_sum: 0.5916165113449097
time_elpased: 6.26
#iterations: 315
currently lose_sum: 0.48221367597579956
time_elpased: 6.137
#iterations: 316
currently lose_sum: 0.5232430100440979
time_elpased: 6.072
#iterations: 317
currently lose_sum: 0.527292788028717
time_elpased: 6.024
#iterations: 318
currently lose_sum: 0.45241275429725647
time_elpased: 6.029
#iterations: 319
currently lose_sum: 0.49508213996887207
time_elpased: 6.043
start validation test
0.7084
0.675799086758
0.817034700315
0.73973580864
0.706812804703
14.134
#iterations: 320
currently lose_sum: 0.4400186240673065
time_elpased: 6.109
#iterations: 321
currently lose_sum: 0.4979429543018341
time_elpased: 6.364
#iterations: 322
currently lose_sum: 0.6118193864822388
time_elpased: 6.072
#iterations: 323
currently lose_sum: 0.502719521522522
time_elpased: 6.104
#iterations: 324
currently lose_sum: 0.6801983714103699
time_elpased: 5.988
#iterations: 325
currently lose_sum: 0.5384166240692139
time_elpased: 6.275
#iterations: 326
currently lose_sum: 0.4804205596446991
time_elpased: 6.065
#iterations: 327
currently lose_sum: 0.563174843788147
time_elpased: 6.151
#iterations: 328
currently lose_sum: 0.4862387478351593
time_elpased: 6.092
#iterations: 329
currently lose_sum: 0.4616529941558838
time_elpased: 6.117
#iterations: 330
currently lose_sum: 0.45973095297813416
time_elpased: 6.051
#iterations: 331
currently lose_sum: 0.571959912776947
time_elpased: 6.359
#iterations: 332
currently lose_sum: 0.47730204463005066
time_elpased: 6.069
#iterations: 333
currently lose_sum: 0.6476157903671265
time_elpased: 6.056
#iterations: 334
currently lose_sum: 0.44103285670280457
time_elpased: 6.093
#iterations: 335
currently lose_sum: 0.4972359538078308
time_elpased: 6.058
#iterations: 336
currently lose_sum: 0.5793318748474121
time_elpased: 6.188
#iterations: 337
currently lose_sum: 0.5343935489654541
time_elpased: 6.106
#iterations: 338
currently lose_sum: 0.5000405311584473
time_elpased: 6.489
#iterations: 339
currently lose_sum: 0.5247837901115417
time_elpased: 6.118
start validation test
0.6996
0.669064748201
0.806782334385
0.731498033607
0.698034024335
14.273
#iterations: 340
currently lose_sum: 0.48837563395500183
time_elpased: 6.146
#iterations: 341
currently lose_sum: 0.4836447536945343
time_elpased: 6.034
#iterations: 342
currently lose_sum: 0.4965050220489502
time_elpased: 6.284
#iterations: 343
currently lose_sum: 0.4058961570262909
time_elpased: 6.04
#iterations: 344
currently lose_sum: 0.6734850406646729
time_elpased: 6.051
#iterations: 345
currently lose_sum: 0.6803310513496399
time_elpased: 6.05
#iterations: 346
currently lose_sum: 0.5418139100074768
time_elpased: 6.128
#iterations: 347
currently lose_sum: 0.5406194925308228
time_elpased: 6.021
#iterations: 348
currently lose_sum: 0.48953425884246826
time_elpased: 6.137
#iterations: 349
currently lose_sum: 0.4964684545993805
time_elpased: 6.072
#iterations: 350
currently lose_sum: 0.5086581707000732
time_elpased: 6.09
#iterations: 351
currently lose_sum: 0.4250124394893646
time_elpased: 6.058
#iterations: 352
currently lose_sum: 0.5557355284690857
time_elpased: 6.019
#iterations: 353
currently lose_sum: 0.489287793636322
time_elpased: 6.071
#iterations: 354
currently lose_sum: 0.5878666639328003
time_elpased: 6.069
#iterations: 355
currently lose_sum: 0.5199450850486755
time_elpased: 6.051
#iterations: 356
currently lose_sum: 0.5050128698348999
time_elpased: 6.124
#iterations: 357
currently lose_sum: 0.6443548798561096
time_elpased: 6.315
#iterations: 358
currently lose_sum: 0.5798371434211731
time_elpased: 6.267
#iterations: 359
currently lose_sum: 0.5212392210960388
time_elpased: 6.032
start validation test
0.7104
0.697962154294
0.756309148265
0.725965177896
0.709729249457
14.185
#iterations: 360
currently lose_sum: 0.5378139615058899
time_elpased: 6.052
#iterations: 361
currently lose_sum: 0.5070367455482483
time_elpased: 6.125
#iterations: 362
currently lose_sum: 0.5308645367622375
time_elpased: 6.057
#iterations: 363
currently lose_sum: 0.5335543155670166
time_elpased: 6.143
#iterations: 364
currently lose_sum: 0.42752060294151306
time_elpased: 6.175
#iterations: 365
currently lose_sum: 0.4708617329597473
time_elpased: 6.119
#iterations: 366
currently lose_sum: 0.5069434642791748
time_elpased: 6.101
#iterations: 367
currently lose_sum: 0.5239944458007812
time_elpased: 6.295
#iterations: 368
currently lose_sum: 0.4798448085784912
time_elpased: 6.117
#iterations: 369
currently lose_sum: 0.4648221731185913
time_elpased: 6.094
#iterations: 370
currently lose_sum: 0.4570075273513794
time_elpased: 6.114
#iterations: 371
currently lose_sum: 0.5063819289207458
time_elpased: 6.092
#iterations: 372
currently lose_sum: 0.5954999923706055
time_elpased: 6.046
#iterations: 373
currently lose_sum: 0.4914005696773529
time_elpased: 6.146
#iterations: 374
currently lose_sum: 0.424871027469635
time_elpased: 6.337
#iterations: 375
currently lose_sum: 0.5137858390808105
time_elpased: 6.215
#iterations: 376
currently lose_sum: 0.594022274017334
time_elpased: 6.111
#iterations: 377
currently lose_sum: 0.49298474192619324
time_elpased: 6.043
#iterations: 378
currently lose_sum: 0.49117714166641235
time_elpased: 6.15
#iterations: 379
currently lose_sum: 0.46529167890548706
time_elpased: 6.076
start validation test
0.7272
0.728193146417
0.73738170347
0.73275862069
0.727051241345
13.830
#iterations: 380
currently lose_sum: 0.5075639486312866
time_elpased: 6.107
#iterations: 381
currently lose_sum: 0.428844153881073
time_elpased: 6.077
#iterations: 382
currently lose_sum: 0.5534984469413757
time_elpased: 6.106
#iterations: 383
currently lose_sum: 0.433572381734848
time_elpased: 6.149
#iterations: 384
currently lose_sum: 0.5141369104385376
time_elpased: 6.115
#iterations: 385
currently lose_sum: 0.5191894769668579
time_elpased: 6.069
#iterations: 386
currently lose_sum: 0.5026973485946655
time_elpased: 6.105
#iterations: 387
currently lose_sum: 0.4989751875400543
time_elpased: 6.061
#iterations: 388
currently lose_sum: 0.5626140832901001
time_elpased: 6.038
#iterations: 389
currently lose_sum: 0.4388697147369385
time_elpased: 6.165
#iterations: 390
currently lose_sum: 0.5179362893104553
time_elpased: 6.125
#iterations: 391
currently lose_sum: 0.5067937970161438
time_elpased: 6.022
#iterations: 392
currently lose_sum: 0.455908864736557
time_elpased: 6.136
#iterations: 393
currently lose_sum: 0.36675742268562317
time_elpased: 6.09
#iterations: 394
currently lose_sum: 0.3993801176548004
time_elpased: 6.111
#iterations: 395
currently lose_sum: 0.4858297109603882
time_elpased: 6.193
#iterations: 396
currently lose_sum: 0.4701186418533325
time_elpased: 6.075
#iterations: 397
currently lose_sum: 0.5591803193092346
time_elpased: 6.036
#iterations: 398
currently lose_sum: 0.5395625233650208
time_elpased: 6.064
#iterations: 399
currently lose_sum: 0.5067019462585449
time_elpased: 6.011
start validation test
0.6996
0.795428571429
0.548895899054
0.64955669622
0.701801845631
14.330
#iterations: 400
currently lose_sum: 0.4446290135383606
time_elpased: 6.142
#iterations: 401
currently lose_sum: 0.47006720304489136
time_elpased: 6.123
#iterations: 402
currently lose_sum: 0.708210289478302
time_elpased: 6.151
#iterations: 403
currently lose_sum: 0.4878847599029541
time_elpased: 6.024
#iterations: 404
currently lose_sum: 0.44826722145080566
time_elpased: 6.043
#iterations: 405
currently lose_sum: 0.6087900400161743
time_elpased: 6.032
#iterations: 406
currently lose_sum: 0.4463553726673126
time_elpased: 6.11
#iterations: 407
currently lose_sum: 0.5177361965179443
time_elpased: 6.055
#iterations: 408
currently lose_sum: 0.5031265020370483
time_elpased: 6.179
#iterations: 409
currently lose_sum: 0.46516045928001404
time_elpased: 6.043
#iterations: 410
currently lose_sum: 0.5644054412841797
time_elpased: 6.224
#iterations: 411
currently lose_sum: 0.5770027041435242
time_elpased: 6.24
#iterations: 412
currently lose_sum: 0.4919959604740143
time_elpased: 6.166
#iterations: 413
currently lose_sum: 0.45364710688591003
time_elpased: 6.594
#iterations: 414
currently lose_sum: 0.4876795709133148
time_elpased: 6.077
#iterations: 415
currently lose_sum: 0.539161741733551
time_elpased: 6.181
#iterations: 416
currently lose_sum: 0.5383886694908142
time_elpased: 6.011
#iterations: 417
currently lose_sum: 0.4513484537601471
time_elpased: 6.375
#iterations: 418
currently lose_sum: 0.44376397132873535
time_elpased: 6.02
#iterations: 419
currently lose_sum: 0.48184439539909363
time_elpased: 6.136
start validation test
0.732
0.735062893082
0.73738170347
0.736220472441
0.731921371216
13.603
#iterations: 420
currently lose_sum: 0.46447205543518066
time_elpased: 6.107
#iterations: 421
currently lose_sum: 0.4451703727245331
time_elpased: 6.274
#iterations: 422
currently lose_sum: 0.38419991731643677
time_elpased: 6.095
#iterations: 423
currently lose_sum: 0.5554096102714539
time_elpased: 6.081
#iterations: 424
currently lose_sum: 0.4649738073348999
time_elpased: 6.055
#iterations: 425
currently lose_sum: 0.5046061277389526
time_elpased: 6.126
#iterations: 426
currently lose_sum: 0.4679497480392456
time_elpased: 6.124
#iterations: 427
currently lose_sum: 0.5504186749458313
time_elpased: 6.08
#iterations: 428
currently lose_sum: 0.656169593334198
time_elpased: 6.081
#iterations: 429
currently lose_sum: 0.569293200969696
time_elpased: 6.105
#iterations: 430
currently lose_sum: 0.5135246515274048
time_elpased: 6.037
#iterations: 431
currently lose_sum: 0.4532551169395447
time_elpased: 6.169
#iterations: 432
currently lose_sum: 0.44624122977256775
time_elpased: 6.147
#iterations: 433
currently lose_sum: 0.488219290971756
time_elpased: 6.019
#iterations: 434
currently lose_sum: 0.5433116555213928
time_elpased: 6.042
#iterations: 435
currently lose_sum: 0.48004546761512756
time_elpased: 6.05
#iterations: 436
currently lose_sum: 0.5045841932296753
time_elpased: 6.009
#iterations: 437
currently lose_sum: 0.46375128626823425
time_elpased: 6.074
#iterations: 438
currently lose_sum: 0.3901345729827881
time_elpased: 6.246
#iterations: 439
currently lose_sum: 0.5165102481842041
time_elpased: 6.153
start validation test
0.6788
0.830725462304
0.460567823344
0.592592592593
0.681988457126
15.493
#iterations: 440
currently lose_sum: 0.46438834071159363
time_elpased: 6.008
#iterations: 441
currently lose_sum: 0.531151533126831
time_elpased: 6.076
#iterations: 442
currently lose_sum: 0.6274994611740112
time_elpased: 6.007
#iterations: 443
currently lose_sum: 0.4634217917919159
time_elpased: 6.094
#iterations: 444
currently lose_sum: 0.5540001392364502
time_elpased: 6.448
#iterations: 445
currently lose_sum: 0.4855298101902008
time_elpased: 6.088
#iterations: 446
currently lose_sum: 0.39593231678009033
time_elpased: 6.185
#iterations: 447
currently lose_sum: 0.4686085879802704
time_elpased: 6.031
#iterations: 448
currently lose_sum: 0.3964276611804962
time_elpased: 6.032
#iterations: 449
currently lose_sum: 0.4018869698047638
time_elpased: 6.059
#iterations: 450
currently lose_sum: 0.4331762194633484
time_elpased: 6.332
#iterations: 451
currently lose_sum: 0.45704352855682373
time_elpased: 6.174
#iterations: 452
currently lose_sum: 0.4531663656234741
time_elpased: 6.057
#iterations: 453
currently lose_sum: 0.5078555941581726
time_elpased: 6.048
#iterations: 454
currently lose_sum: 0.5709892511367798
time_elpased: 6.365
#iterations: 455
currently lose_sum: 0.49688857793807983
time_elpased: 6.21
#iterations: 456
currently lose_sum: 0.4149714708328247
time_elpased: 6.124
#iterations: 457
currently lose_sum: 0.4139561951160431
time_elpased: 6.116
#iterations: 458
currently lose_sum: 0.5521730780601501
time_elpased: 6.421
#iterations: 459
currently lose_sum: 0.505204975605011
time_elpased: 6.399
start validation test
0.7244
0.745547073791
0.693217665615
0.718430731508
0.724855586054
13.835
#iterations: 460
currently lose_sum: 0.43853798508644104
time_elpased: 6.11
#iterations: 461
currently lose_sum: 0.41878509521484375
time_elpased: 6.086
#iterations: 462
currently lose_sum: 0.5056008696556091
time_elpased: 6.084
#iterations: 463
currently lose_sum: 0.4151679277420044
time_elpased: 6.096
#iterations: 464
currently lose_sum: 0.4261777400970459
time_elpased: 6.075
#iterations: 465
currently lose_sum: 0.5364744663238525
time_elpased: 6.08
#iterations: 466
currently lose_sum: 0.42572399973869324
time_elpased: 6.209
#iterations: 467
currently lose_sum: 0.49430543184280396
time_elpased: 6.162
#iterations: 468
currently lose_sum: 0.41860952973365784
time_elpased: 6.318
#iterations: 469
currently lose_sum: 0.49412041902542114
time_elpased: 6.069
#iterations: 470
currently lose_sum: 0.3890987038612366
time_elpased: 6.046
#iterations: 471
currently lose_sum: 0.5026059150695801
time_elpased: 6.454
#iterations: 472
currently lose_sum: 0.5011675357818604
time_elpased: 6.057
#iterations: 473
currently lose_sum: 0.4359323978424072
time_elpased: 6.047
#iterations: 474
currently lose_sum: 0.4842621088027954
time_elpased: 6.014
#iterations: 475
currently lose_sum: 0.4639989137649536
time_elpased: 6.076
#iterations: 476
currently lose_sum: 0.4243830144405365
time_elpased: 6.144
#iterations: 477
currently lose_sum: 0.49682193994522095
time_elpased: 6.095
#iterations: 478
currently lose_sum: 0.4856368899345398
time_elpased: 6.122
#iterations: 479
currently lose_sum: 0.43967074155807495
time_elpased: 6.071
start validation test
0.7248
0.781553398058
0.634858044164
0.700609225413
0.726114087017
13.715
#iterations: 480
currently lose_sum: 0.4907374680042267
time_elpased: 6.175
#iterations: 481
currently lose_sum: 0.4822508990764618
time_elpased: 6.139
#iterations: 482
currently lose_sum: 0.5256774425506592
time_elpased: 6.07
#iterations: 483
currently lose_sum: 0.5850769877433777
time_elpased: 6.155
#iterations: 484
currently lose_sum: 0.47495049238204956
time_elpased: 6.055
#iterations: 485
currently lose_sum: 0.5401327013969421
time_elpased: 5.998
#iterations: 486
currently lose_sum: 0.6223138570785522
time_elpased: 6.063
#iterations: 487
currently lose_sum: 0.4488920569419861
time_elpased: 6.083
#iterations: 488
currently lose_sum: 0.464430570602417
time_elpased: 6.032
#iterations: 489
currently lose_sum: 0.38901209831237793
time_elpased: 6.105
#iterations: 490
currently lose_sum: 0.5257151126861572
time_elpased: 6.131
#iterations: 491
currently lose_sum: 0.5259667038917542
time_elpased: 6.001
#iterations: 492
currently lose_sum: 0.3650282919406891
time_elpased: 6.359
#iterations: 493
currently lose_sum: 0.41819894313812256
time_elpased: 6.145
#iterations: 494
currently lose_sum: 0.4504868984222412
time_elpased: 6.425
#iterations: 495
currently lose_sum: 0.42021068930625916
time_elpased: 6.073
#iterations: 496
currently lose_sum: 0.5149321556091309
time_elpased: 6.046
#iterations: 497
currently lose_sum: 0.46528375148773193
time_elpased: 6.112
#iterations: 498
currently lose_sum: 0.47975993156433105
time_elpased: 6.238
#iterations: 499
currently lose_sum: 0.5196241140365601
time_elpased: 6.164
start validation test
0.7324
0.716245487365
0.782334384858
0.747832642292
0.731670439182
13.565
#iterations: 500
currently lose_sum: 0.5654250979423523
time_elpased: 6.052
#iterations: 501
currently lose_sum: 0.4258961081504822
time_elpased: 6.106
#iterations: 502
currently lose_sum: 0.5933495163917542
time_elpased: 6.102
#iterations: 503
currently lose_sum: 0.5355521440505981
time_elpased: 6.071
#iterations: 504
currently lose_sum: 0.5618559122085571
time_elpased: 6.063
#iterations: 505
currently lose_sum: 0.42257922887802124
time_elpased: 6.073
#iterations: 506
currently lose_sum: 0.45371121168136597
time_elpased: 6.114
#iterations: 507
currently lose_sum: 0.4576733410358429
time_elpased: 6.055
#iterations: 508
currently lose_sum: 0.4045082926750183
time_elpased: 6.09
#iterations: 509
currently lose_sum: 0.4858134984970093
time_elpased: 6.056
#iterations: 510
currently lose_sum: 0.47604018449783325
time_elpased: 6.074
#iterations: 511
currently lose_sum: 0.43365517258644104
time_elpased: 6.098
#iterations: 512
currently lose_sum: 0.5404272079467773
time_elpased: 6.036
#iterations: 513
currently lose_sum: 0.4520432949066162
time_elpased: 6.033
#iterations: 514
currently lose_sum: 0.4355965554714203
time_elpased: 6.11
#iterations: 515
currently lose_sum: 0.45413142442703247
time_elpased: 6.608
#iterations: 516
currently lose_sum: 0.45991256833076477
time_elpased: 6.089
#iterations: 517
currently lose_sum: 0.4740690290927887
time_elpased: 6.054
#iterations: 518
currently lose_sum: 0.48037633299827576
time_elpased: 6.187
#iterations: 519
currently lose_sum: 0.39759063720703125
time_elpased: 6.062
start validation test
0.7408
0.784926470588
0.673501577287
0.724957555178
0.741783256176
13.488
#iterations: 520
currently lose_sum: 0.5135800242424011
time_elpased: 6.154
#iterations: 521
currently lose_sum: 0.48774856328964233
time_elpased: 6.098
#iterations: 522
currently lose_sum: 0.4055396616458893
time_elpased: 6.485
#iterations: 523
currently lose_sum: 0.3977770507335663
time_elpased: 6.051
#iterations: 524
currently lose_sum: 0.3635465204715729
time_elpased: 6.32
#iterations: 525
currently lose_sum: 0.6604358553886414
time_elpased: 6.093
#iterations: 526
currently lose_sum: 0.409872829914093
time_elpased: 5.997
#iterations: 527
currently lose_sum: 0.48736244440078735
time_elpased: 6.049
#iterations: 528
currently lose_sum: 0.4722496271133423
time_elpased: 6.402
#iterations: 529
currently lose_sum: 0.4426618814468384
time_elpased: 6.249
#iterations: 530
currently lose_sum: 0.4156138300895691
time_elpased: 6.109
#iterations: 531
currently lose_sum: 0.45373716950416565
time_elpased: 6.056
#iterations: 532
currently lose_sum: 0.3302725553512573
time_elpased: 6.198
#iterations: 533
currently lose_sum: 0.4724441170692444
time_elpased: 6.149
#iterations: 534
currently lose_sum: 0.4599269926548004
time_elpased: 6.207
#iterations: 535
currently lose_sum: 0.5568888783454895
time_elpased: 6.129
#iterations: 536
currently lose_sum: 0.43843337893486023
time_elpased: 6.086
#iterations: 537
currently lose_sum: 0.430501252412796
time_elpased: 6.191
#iterations: 538
currently lose_sum: 0.5255581736564636
time_elpased: 6.174
#iterations: 539
currently lose_sum: 0.38893499970436096
time_elpased: 5.983
start validation test
0.7352
0.740095087163
0.736593059937
0.738339920949
0.735179646852
13.646
#iterations: 540
currently lose_sum: 0.48752185702323914
time_elpased: 6.002
#iterations: 541
currently lose_sum: 0.5331974625587463
time_elpased: 6.706
#iterations: 542
currently lose_sum: 0.4224660396575928
time_elpased: 6.109
#iterations: 543
currently lose_sum: 0.4851802885532379
time_elpased: 6.099
#iterations: 544
currently lose_sum: 0.44654980301856995
time_elpased: 6.029
#iterations: 545
currently lose_sum: 0.4611563980579376
time_elpased: 6.445
#iterations: 546
currently lose_sum: 0.48602721095085144
time_elpased: 6.288
#iterations: 547
currently lose_sum: 0.44722259044647217
time_elpased: 5.986
#iterations: 548
currently lose_sum: 0.3769512474536896
time_elpased: 6.14
#iterations: 549
currently lose_sum: 0.3442997634410858
time_elpased: 5.99
#iterations: 550
currently lose_sum: 0.43462538719177246
time_elpased: 6.156
#iterations: 551
currently lose_sum: 0.5247611999511719
time_elpased: 6.086
#iterations: 552
currently lose_sum: 0.43397441506385803
time_elpased: 6.108
#iterations: 553
currently lose_sum: 0.48457810282707214
time_elpased: 6.074
#iterations: 554
currently lose_sum: 0.47021469473838806
time_elpased: 6.096
#iterations: 555
currently lose_sum: 0.4454634487628937
time_elpased: 6.066
#iterations: 556
currently lose_sum: 0.3756795823574066
time_elpased: 6.117
#iterations: 557
currently lose_sum: 0.5001649260520935
time_elpased: 6.131
#iterations: 558
currently lose_sum: 0.4018607437610626
time_elpased: 6.183
#iterations: 559
currently lose_sum: 0.45609942078590393
time_elpased: 6.147
start validation test
0.6908
0.822685788787
0.497634069401
0.620147420147
0.693622229506
14.879
#iterations: 560
currently lose_sum: 0.3583863079547882
time_elpased: 6.071
#iterations: 561
currently lose_sum: 0.4468485116958618
time_elpased: 6.036
#iterations: 562
currently lose_sum: 0.38124725222587585
time_elpased: 6.152
#iterations: 563
currently lose_sum: 0.5941749811172485
time_elpased: 6.038
#iterations: 564
currently lose_sum: 0.41630294919013977
time_elpased: 6.134
#iterations: 565
currently lose_sum: 0.4617113769054413
time_elpased: 6.134
#iterations: 566
currently lose_sum: 0.48036232590675354
time_elpased: 6.075
#iterations: 567
currently lose_sum: 0.3956848978996277
time_elpased: 6.12
#iterations: 568
currently lose_sum: 0.4962996244430542
time_elpased: 6.024
#iterations: 569
currently lose_sum: 0.4255180358886719
time_elpased: 6.057
#iterations: 570
currently lose_sum: 0.5019845366477966
time_elpased: 6.078
#iterations: 571
currently lose_sum: 0.494140088558197
time_elpased: 6.157
#iterations: 572
currently lose_sum: 0.4370374381542206
time_elpased: 6.207
#iterations: 573
currently lose_sum: 0.5615308284759521
time_elpased: 6.036
#iterations: 574
currently lose_sum: 0.43989476561546326
time_elpased: 6.043
#iterations: 575
currently lose_sum: 0.4608871042728424
time_elpased: 6.013
#iterations: 576
currently lose_sum: 0.4138820171356201
time_elpased: 6.209
#iterations: 577
currently lose_sum: 0.39659497141838074
time_elpased: 6.051
#iterations: 578
currently lose_sum: 0.6140491962432861
time_elpased: 6.094
#iterations: 579
currently lose_sum: 0.4127552807331085
time_elpased: 6.203
start validation test
0.7364
0.777070063694
0.673501577287
0.721588508661
0.737318970462
13.577
#iterations: 580
currently lose_sum: 0.4511372447013855
time_elpased: 6.02
#iterations: 581
currently lose_sum: 0.2987639307975769
time_elpased: 6.196
#iterations: 582
currently lose_sum: 0.5309484601020813
time_elpased: 6.107
#iterations: 583
currently lose_sum: 0.530842125415802
time_elpased: 6.293
#iterations: 584
currently lose_sum: 0.4324783980846405
time_elpased: 6.124
#iterations: 585
currently lose_sum: 0.3770442605018616
time_elpased: 6.101
#iterations: 586
currently lose_sum: 0.3707083761692047
time_elpased: 6.016
#iterations: 587
currently lose_sum: 0.4665791988372803
time_elpased: 6.08
#iterations: 588
currently lose_sum: 0.41293418407440186
time_elpased: 6.053
#iterations: 589
currently lose_sum: 0.5879334211349487
time_elpased: 6.034
#iterations: 590
currently lose_sum: 0.45156875252723694
time_elpased: 6.094
#iterations: 591
currently lose_sum: 0.3988901376724243
time_elpased: 6.052
#iterations: 592
currently lose_sum: 0.3676358759403229
time_elpased: 6.086
#iterations: 593
currently lose_sum: 0.4566444754600525
time_elpased: 6.038
#iterations: 594
currently lose_sum: 0.3738613426685333
time_elpased: 6.089
#iterations: 595
currently lose_sum: 0.38027462363243103
time_elpased: 6.141
#iterations: 596
currently lose_sum: 0.4845508933067322
time_elpased: 6.125
#iterations: 597
currently lose_sum: 0.41595137119293213
time_elpased: 6.087
#iterations: 598
currently lose_sum: 0.568294107913971
time_elpased: 6.15
#iterations: 599
currently lose_sum: 0.5116339325904846
time_elpased: 5.996
start validation test
0.7408
0.73773006135
0.758675078864
0.748055987558
0.740538838133
13.280
acc: 0.736
pre: 0.737
rec: 0.748
F1: 0.742
auc: 0.736
