start to construct computing graph
graph construct over
3803
epochs start
#iterations: 0
currently lose_sum: 0.6934463977813721
time_elpased: 3.368
#iterations: 1
currently lose_sum: 0.6903215050697327
time_elpased: 3.139
#iterations: 2
currently lose_sum: 0.69140625
time_elpased: 3.105
#iterations: 3
currently lose_sum: 0.6925685405731201
time_elpased: 3.155
#iterations: 4
currently lose_sum: 0.6939885020256042
time_elpased: 3.11
#iterations: 5
currently lose_sum: 0.6923666596412659
time_elpased: 3.109
#iterations: 6
currently lose_sum: 0.6941049098968506
time_elpased: 3.189
#iterations: 7
currently lose_sum: 0.6902043223381042
time_elpased: 3.452
#iterations: 8
currently lose_sum: 0.7027250528335571
time_elpased: 3.247
#iterations: 9
currently lose_sum: 0.690163254737854
time_elpased: 3.198
#iterations: 10
currently lose_sum: 0.6964282393455505
time_elpased: 3.157
#iterations: 11
currently lose_sum: 0.6948150396347046
time_elpased: 3.103
#iterations: 12
currently lose_sum: 0.6790059804916382
time_elpased: 3.208
#iterations: 13
currently lose_sum: 0.6780059933662415
time_elpased: 3.151
#iterations: 14
currently lose_sum: 0.6949681043624878
time_elpased: 3.142
#iterations: 15
currently lose_sum: 0.6890043616294861
time_elpased: 3.055
#iterations: 16
currently lose_sum: 0.6783345937728882
time_elpased: 3.222
#iterations: 17
currently lose_sum: 0.6904024481773376
time_elpased: 3.424
#iterations: 18
currently lose_sum: 0.6980239748954773
time_elpased: 3.27
#iterations: 19
currently lose_sum: 0.6872749924659729
time_elpased: 3.723
start validation test
0.5268
0.627272727273
0.163378058406
0.259236067627
0.531810683704
17.513
#iterations: 20
currently lose_sum: 0.683967113494873
time_elpased: 2.431
#iterations: 21
currently lose_sum: 0.6985558867454529
time_elpased: 2.508
#iterations: 22
currently lose_sum: 0.675275444984436
time_elpased: 2.525
#iterations: 23
currently lose_sum: 0.6807469129562378
time_elpased: 2.569
#iterations: 24
currently lose_sum: 0.6692562103271484
time_elpased: 2.659
#iterations: 25
currently lose_sum: 0.6690970063209534
time_elpased: 2.794
#iterations: 26
currently lose_sum: 0.6794764995574951
time_elpased: 2.492
#iterations: 27
currently lose_sum: 0.6889404058456421
time_elpased: 2.755
#iterations: 28
currently lose_sum: 0.6793586015701294
time_elpased: 2.492
#iterations: 29
currently lose_sum: 0.6894333362579346
time_elpased: 2.518
#iterations: 30
currently lose_sum: 0.6744173169136047
time_elpased: 2.552
#iterations: 31
currently lose_sum: 0.6619277000427246
time_elpased: 2.472
#iterations: 32
currently lose_sum: 0.7108237743377686
time_elpased: 2.667
#iterations: 33
currently lose_sum: 0.6644905805587769
time_elpased: 2.504
#iterations: 34
currently lose_sum: 0.6613771319389343
time_elpased: 2.566
#iterations: 35
currently lose_sum: 0.6658565998077393
time_elpased: 2.736
#iterations: 36
currently lose_sum: 0.6547892093658447
time_elpased: 2.487
#iterations: 37
currently lose_sum: 0.6588247418403625
time_elpased: 2.744
#iterations: 38
currently lose_sum: 0.6582797765731812
time_elpased: 2.428
#iterations: 39
currently lose_sum: 0.6635763049125671
time_elpased: 2.54
start validation test
0.5812
0.606796116505
0.493291239148
0.544188071397
0.582412042931
16.809
#iterations: 40
currently lose_sum: 0.6496084332466125
time_elpased: 2.508
#iterations: 41
currently lose_sum: 0.6814354062080383
time_elpased: 2.705
#iterations: 42
currently lose_sum: 0.6600558757781982
time_elpased: 2.506
#iterations: 43
currently lose_sum: 0.6478132605552673
time_elpased: 2.59
#iterations: 44
currently lose_sum: 0.6545921564102173
time_elpased: 3.051
#iterations: 45
currently lose_sum: 0.7007080912590027
time_elpased: 2.535
#iterations: 46
currently lose_sum: 0.6715371608734131
time_elpased: 2.591
#iterations: 47
currently lose_sum: 0.6496557593345642
time_elpased: 2.508
#iterations: 48
currently lose_sum: 0.6015816330909729
time_elpased: 2.643
#iterations: 49
currently lose_sum: 0.6441754102706909
time_elpased: 2.472
#iterations: 50
currently lose_sum: 0.7467716932296753
time_elpased: 2.515
#iterations: 51
currently lose_sum: 0.6343832015991211
time_elpased: 2.435
#iterations: 52
currently lose_sum: 0.653867781162262
time_elpased: 2.532
#iterations: 53
currently lose_sum: 0.659035861492157
time_elpased: 2.531
#iterations: 54
currently lose_sum: 0.6379752159118652
time_elpased: 2.538
#iterations: 55
currently lose_sum: 0.6514018774032593
time_elpased: 2.423
#iterations: 56
currently lose_sum: 0.6367441415786743
time_elpased: 2.489
#iterations: 57
currently lose_sum: 0.6641697883605957
time_elpased: 2.517
#iterations: 58
currently lose_sum: 0.6873393058776855
time_elpased: 2.89
#iterations: 59
currently lose_sum: 0.6748205423355103
time_elpased: 2.55
start validation test
0.6056
0.585932721713
0.756116811365
0.660234321158
0.603524747937
16.297
#iterations: 60
currently lose_sum: 0.6325153112411499
time_elpased: 2.478
#iterations: 61
currently lose_sum: 0.6705743670463562
time_elpased: 2.478
#iterations: 62
currently lose_sum: 0.6447026133537292
time_elpased: 2.478
#iterations: 63
currently lose_sum: 0.6591102480888367
time_elpased: 2.507
#iterations: 64
currently lose_sum: 0.6512860059738159
time_elpased: 2.494
#iterations: 65
currently lose_sum: 0.6319063901901245
time_elpased: 2.54
#iterations: 66
currently lose_sum: 0.6511304974555969
time_elpased: 2.537
#iterations: 67
currently lose_sum: 0.6463044881820679
time_elpased: 2.45
#iterations: 68
currently lose_sum: 0.6430583000183105
time_elpased: 2.538
#iterations: 69
currently lose_sum: 0.66022789478302
time_elpased: 2.527
#iterations: 70
currently lose_sum: 0.6855954527854919
time_elpased: 2.492
#iterations: 71
currently lose_sum: 0.6508802175521851
time_elpased: 2.486
#iterations: 72
currently lose_sum: 0.6368647813796997
time_elpased: 2.547
#iterations: 73
currently lose_sum: 0.633676290512085
time_elpased: 2.486
#iterations: 74
currently lose_sum: 0.6171891093254089
time_elpased: 2.511
#iterations: 75
currently lose_sum: 0.5991336703300476
time_elpased: 2.639
#iterations: 76
currently lose_sum: 0.67310631275177
time_elpased: 2.683
#iterations: 77
currently lose_sum: 0.6582891941070557
time_elpased: 2.526
#iterations: 78
currently lose_sum: 0.7344812154769897
time_elpased: 2.511
#iterations: 79
currently lose_sum: 0.6317091584205627
time_elpased: 2.788
start validation test
0.6076
0.594327176781
0.711128650355
0.647502694934
0.606172597684
16.471
#iterations: 80
currently lose_sum: 0.633171796798706
time_elpased: 2.474
#iterations: 81
currently lose_sum: 0.6268516778945923
time_elpased: 2.538
#iterations: 82
currently lose_sum: 0.6152974963188171
time_elpased: 2.446
#iterations: 83
currently lose_sum: 0.5944988131523132
time_elpased: 2.517
#iterations: 84
currently lose_sum: 0.6504577398300171
time_elpased: 2.519
#iterations: 85
currently lose_sum: 0.6213981509208679
time_elpased: 2.44
#iterations: 86
currently lose_sum: 0.6006712913513184
time_elpased: 2.831
#iterations: 87
currently lose_sum: 0.6467217206954956
time_elpased: 2.42
#iterations: 88
currently lose_sum: 0.6191028952598572
time_elpased: 2.777
#iterations: 89
currently lose_sum: 0.6294305920600891
time_elpased: 2.523
#iterations: 90
currently lose_sum: 0.6528511047363281
time_elpased: 3.013
#iterations: 91
currently lose_sum: 0.6048524379730225
time_elpased: 2.492
#iterations: 92
currently lose_sum: 0.5912453532218933
time_elpased: 2.566
#iterations: 93
currently lose_sum: 0.657219409942627
time_elpased: 2.469
#iterations: 94
currently lose_sum: 0.6107885241508484
time_elpased: 2.483
#iterations: 95
currently lose_sum: 0.6691936254501343
time_elpased: 2.517
#iterations: 96
currently lose_sum: 0.6052541136741638
time_elpased: 2.461
#iterations: 97
currently lose_sum: 0.5553869009017944
time_elpased: 2.507
#iterations: 98
currently lose_sum: 0.6046549081802368
time_elpased: 2.518
#iterations: 99
currently lose_sum: 0.6775665283203125
time_elpased: 2.507
start validation test
0.6108
0.759717314488
0.339384372534
0.469176213857
0.614542145715
16.384
#iterations: 100
currently lose_sum: 0.63948655128479
time_elpased: 2.432
#iterations: 101
currently lose_sum: 0.5688089728355408
time_elpased: 2.511
#iterations: 102
currently lose_sum: 0.6487200260162354
time_elpased: 2.604
#iterations: 103
currently lose_sum: 0.6405136585235596
time_elpased: 2.527
#iterations: 104
currently lose_sum: 0.6474816799163818
time_elpased: 2.496
#iterations: 105
currently lose_sum: 0.5947770476341248
time_elpased: 2.46
#iterations: 106
currently lose_sum: 0.57834792137146
time_elpased: 2.618
#iterations: 107
currently lose_sum: 0.6841139197349548
time_elpased: 2.494
#iterations: 108
currently lose_sum: 0.6040996313095093
time_elpased: 2.519
#iterations: 109
currently lose_sum: 0.6501284241676331
time_elpased: 2.491
#iterations: 110
currently lose_sum: 0.6483500003814697
time_elpased: 2.536
#iterations: 111
currently lose_sum: 0.6546018719673157
time_elpased: 2.484
#iterations: 112
currently lose_sum: 0.600176215171814
time_elpased: 2.524
#iterations: 113
currently lose_sum: 0.586936354637146
time_elpased: 2.532
#iterations: 114
currently lose_sum: 0.622246503829956
time_elpased: 2.687
#iterations: 115
currently lose_sum: 0.6804702877998352
time_elpased: 2.786
#iterations: 116
currently lose_sum: 0.6187352538108826
time_elpased: 2.501
#iterations: 117
currently lose_sum: 0.5442029237747192
time_elpased: 3.183
#iterations: 118
currently lose_sum: 0.567808210849762
time_elpased: 2.478
#iterations: 119
currently lose_sum: 0.6213089227676392
time_elpased: 2.594
start validation test
0.6512
0.646404744255
0.688239936859
0.666666666667
0.650689311495
15.221
#iterations: 120
currently lose_sum: 0.5616390109062195
time_elpased: 2.481
#iterations: 121
currently lose_sum: 0.7575827836990356
time_elpased: 2.453
#iterations: 122
currently lose_sum: 0.5890731811523438
time_elpased: 2.486
#iterations: 123
currently lose_sum: 0.5936040282249451
time_elpased: 2.62
#iterations: 124
currently lose_sum: 0.6059249639511108
time_elpased: 2.485
#iterations: 125
currently lose_sum: 0.5515652298927307
time_elpased: 2.484
#iterations: 126
currently lose_sum: 0.6105830669403076
time_elpased: 2.481
#iterations: 127
currently lose_sum: 0.5869751572608948
time_elpased: 2.5
#iterations: 128
currently lose_sum: 0.5916627645492554
time_elpased: 2.465
#iterations: 129
currently lose_sum: 0.5559669733047485
time_elpased: 2.535
#iterations: 130
currently lose_sum: 0.7086509466171265
time_elpased: 2.508
#iterations: 131
currently lose_sum: 0.5735727548599243
time_elpased: 2.495
#iterations: 132
currently lose_sum: 0.574622631072998
time_elpased: 2.552
#iterations: 133
currently lose_sum: 0.6580250263214111
time_elpased: 2.846
#iterations: 134
currently lose_sum: 0.6096948981285095
time_elpased: 2.482
#iterations: 135
currently lose_sum: 0.5934224128723145
time_elpased: 2.476
#iterations: 136
currently lose_sum: 0.5369248390197754
time_elpased: 2.489
#iterations: 137
currently lose_sum: 0.5556342601776123
time_elpased: 2.427
#iterations: 138
currently lose_sum: 0.6034553050994873
time_elpased: 2.693
#iterations: 139
currently lose_sum: 0.6228476166725159
time_elpased: 2.514
start validation test
0.6108
0.810126582278
0.303078137332
0.441125789776
0.615042718301
16.884
#iterations: 140
currently lose_sum: 0.5201613903045654
time_elpased: 2.53
#iterations: 141
currently lose_sum: 0.6411524415016174
time_elpased: 2.515
#iterations: 142
currently lose_sum: 0.5366711616516113
time_elpased: 2.739
#iterations: 143
currently lose_sum: 0.6157718896865845
time_elpased: 2.689
#iterations: 144
currently lose_sum: 0.661644458770752
time_elpased: 2.504
#iterations: 145
currently lose_sum: 0.6138087511062622
time_elpased: 2.523
#iterations: 146
currently lose_sum: 0.614794135093689
time_elpased: 2.627
#iterations: 147
currently lose_sum: 0.5759788155555725
time_elpased: 2.584
#iterations: 148
currently lose_sum: 0.7209287881851196
time_elpased: 2.504
#iterations: 149
currently lose_sum: 0.567618727684021
time_elpased: 2.514
#iterations: 150
currently lose_sum: 0.505286693572998
time_elpased: 2.425
#iterations: 151
currently lose_sum: 0.4942973256111145
time_elpased: 2.462
#iterations: 152
currently lose_sum: 0.5955831408500671
time_elpased: 2.444
#iterations: 153
currently lose_sum: 0.6233034729957581
time_elpased: 2.432
#iterations: 154
currently lose_sum: 0.5549725294113159
time_elpased: 2.574
#iterations: 155
currently lose_sum: 0.6090549230575562
time_elpased: 2.503
#iterations: 156
currently lose_sum: 0.633130669593811
time_elpased: 2.389
#iterations: 157
currently lose_sum: 0.4972544014453888
time_elpased: 2.543
#iterations: 158
currently lose_sum: 0.524569571018219
time_elpased: 2.661
#iterations: 159
currently lose_sum: 0.6733452081680298
time_elpased: 2.478
start validation test
0.6624
0.761433868974
0.486187845304
0.59344894027
0.664829526869
15.189
#iterations: 160
currently lose_sum: 0.7775256633758545
time_elpased: 2.772
#iterations: 161
currently lose_sum: 0.574400007724762
time_elpased: 2.453
#iterations: 162
currently lose_sum: 0.5201318860054016
time_elpased: 2.512
#iterations: 163
currently lose_sum: 0.6309943199157715
time_elpased: 2.445
#iterations: 164
currently lose_sum: 0.6350098252296448
time_elpased: 2.58
#iterations: 165
currently lose_sum: 0.53684401512146
time_elpased: 2.456
#iterations: 166
currently lose_sum: 0.5643357634544373
time_elpased: 2.494
#iterations: 167
currently lose_sum: 0.5639951229095459
time_elpased: 2.471
#iterations: 168
currently lose_sum: 0.5042588710784912
time_elpased: 2.603
#iterations: 169
currently lose_sum: 0.5880851745605469
time_elpased: 2.476
#iterations: 170
currently lose_sum: 0.5291265845298767
time_elpased: 2.473
#iterations: 171
currently lose_sum: 0.4845127761363983
time_elpased: 2.569
#iterations: 172
currently lose_sum: 0.5874801874160767
time_elpased: 2.526
#iterations: 173
currently lose_sum: 0.5046687722206116
time_elpased: 2.601
#iterations: 174
currently lose_sum: 0.5722193717956543
time_elpased: 2.599
#iterations: 175
currently lose_sum: 0.6446580290794373
time_elpased: 2.454
#iterations: 176
currently lose_sum: 0.5830791592597961
time_elpased: 2.485
#iterations: 177
currently lose_sum: 0.6686708331108093
time_elpased: 2.513
#iterations: 178
currently lose_sum: 0.6806987524032593
time_elpased: 2.505
#iterations: 179
currently lose_sum: 0.551565408706665
time_elpased: 2.584
start validation test
0.6752
0.66238401142
0.732438831886
0.695652173913
0.674410819025
14.718
#iterations: 180
currently lose_sum: 0.5200887322425842
time_elpased: 2.564
#iterations: 181
currently lose_sum: 0.594490110874176
time_elpased: 2.892
#iterations: 182
currently lose_sum: 0.5930860638618469
time_elpased: 2.492
#iterations: 183
currently lose_sum: 0.577004075050354
time_elpased: 2.534
#iterations: 184
currently lose_sum: 0.5237465500831604
time_elpased: 2.455
#iterations: 185
currently lose_sum: 0.5723789930343628
time_elpased: 2.701
#iterations: 186
currently lose_sum: 0.5062248706817627
time_elpased: 2.611
#iterations: 187
currently lose_sum: 0.5365410447120667
time_elpased: 2.462
#iterations: 188
currently lose_sum: 0.5569570660591125
time_elpased: 2.518
#iterations: 189
currently lose_sum: 0.5907477736473083
time_elpased: 2.536
#iterations: 190
currently lose_sum: 0.5381174683570862
time_elpased: 2.465
#iterations: 191
currently lose_sum: 0.5496709942817688
time_elpased: 2.616
#iterations: 192
currently lose_sum: 0.6986808180809021
time_elpased: 2.687
#iterations: 193
currently lose_sum: 0.5235497951507568
time_elpased: 2.631
#iterations: 194
currently lose_sum: 0.5787078142166138
time_elpased: 2.588
#iterations: 195
currently lose_sum: 0.6571404933929443
time_elpased: 2.473
#iterations: 196
currently lose_sum: 0.6063005328178406
time_elpased: 2.466
#iterations: 197
currently lose_sum: 0.7333812713623047
time_elpased: 2.578
#iterations: 198
currently lose_sum: 0.5627835988998413
time_elpased: 2.837
#iterations: 199
currently lose_sum: 0.4952501058578491
time_elpased: 2.598
start validation test
0.6928
0.670074982958
0.775848460931
0.71909290417
0.691654968503
14.457
#iterations: 200
currently lose_sum: 0.6376080513000488
time_elpased: 2.499
#iterations: 201
currently lose_sum: 0.5244672894477844
time_elpased: 2.418
#iterations: 202
currently lose_sum: 0.6293473243713379
time_elpased: 2.746
#iterations: 203
currently lose_sum: 0.5743105411529541
time_elpased: 2.479
#iterations: 204
currently lose_sum: 0.5472717881202698
time_elpased: 2.505
#iterations: 205
currently lose_sum: 0.49399280548095703
time_elpased: 2.587
#iterations: 206
currently lose_sum: 0.556902289390564
time_elpased: 2.552
#iterations: 207
currently lose_sum: 0.51627516746521
time_elpased: 2.716
#iterations: 208
currently lose_sum: 0.506634533405304
time_elpased: 2.555
#iterations: 209
currently lose_sum: 0.4984661936759949
time_elpased: 2.515
#iterations: 210
currently lose_sum: 0.500995397567749
time_elpased: 2.56
#iterations: 211
currently lose_sum: 0.5025168061256409
time_elpased: 2.486
#iterations: 212
currently lose_sum: 0.5164899230003357
time_elpased: 2.848
#iterations: 213
currently lose_sum: 0.6362881064414978
time_elpased: 2.561
#iterations: 214
currently lose_sum: 0.5428957939147949
time_elpased: 2.495
#iterations: 215
currently lose_sum: 0.5258631110191345
time_elpased: 2.462
#iterations: 216
currently lose_sum: 0.5535619258880615
time_elpased: 2.547
#iterations: 217
currently lose_sum: 0.551557719707489
time_elpased: 2.496
#iterations: 218
currently lose_sum: 0.5534894466400146
time_elpased: 2.528
#iterations: 219
currently lose_sum: 0.6495378613471985
time_elpased: 2.818
start validation test
0.6424
0.59708485164
0.905288082084
0.719573400251
0.638775427903
16.562
#iterations: 220
currently lose_sum: 0.5201578736305237
time_elpased: 2.591
#iterations: 221
currently lose_sum: 0.6174232363700867
time_elpased: 2.59
#iterations: 222
currently lose_sum: 0.5811014771461487
time_elpased: 2.452
#iterations: 223
currently lose_sum: 0.550930380821228
time_elpased: 2.526
#iterations: 224
currently lose_sum: 0.711810290813446
time_elpased: 2.438
#iterations: 225
currently lose_sum: 0.534603476524353
time_elpased: 2.516
#iterations: 226
currently lose_sum: 0.5394890308380127
time_elpased: 2.513
#iterations: 227
currently lose_sum: 0.5050247311592102
time_elpased: 2.461
#iterations: 228
currently lose_sum: 0.537931501865387
time_elpased: 2.57
#iterations: 229
currently lose_sum: 0.5810409784317017
time_elpased: 2.534
#iterations: 230
currently lose_sum: 0.5043880939483643
time_elpased: 2.47
#iterations: 231
currently lose_sum: 0.4946046769618988
time_elpased: 2.494
#iterations: 232
currently lose_sum: 0.5312659740447998
time_elpased: 2.49
#iterations: 233
currently lose_sum: 0.5118587017059326
time_elpased: 2.435
#iterations: 234
currently lose_sum: 0.5763352513313293
time_elpased: 2.507
#iterations: 235
currently lose_sum: 0.6374455690383911
time_elpased: 2.425
#iterations: 236
currently lose_sum: 0.489938348531723
time_elpased: 2.567
#iterations: 237
currently lose_sum: 0.548965573310852
time_elpased: 2.575
#iterations: 238
currently lose_sum: 0.6119597554206848
time_elpased: 2.489
#iterations: 239
currently lose_sum: 0.5343837738037109
time_elpased: 2.533
start validation test
0.5992
0.881844380403
0.241515390687
0.379182156134
0.604131580177
18.631
#iterations: 240
currently lose_sum: 0.5343638062477112
time_elpased: 2.543
#iterations: 241
currently lose_sum: 0.5201557278633118
time_elpased: 2.826
#iterations: 242
currently lose_sum: 0.5689799189567566
time_elpased: 2.526
#iterations: 243
currently lose_sum: 0.5039606690406799
time_elpased: 3.001
#iterations: 244
currently lose_sum: 0.696251630783081
time_elpased: 2.555
#iterations: 245
currently lose_sum: 0.5901135802268982
time_elpased: 2.481
#iterations: 246
currently lose_sum: 0.5429147481918335
time_elpased: 2.509
#iterations: 247
currently lose_sum: 0.5044435262680054
time_elpased: 2.64
#iterations: 248
currently lose_sum: 0.5325279235839844
time_elpased: 2.645
#iterations: 249
currently lose_sum: 0.5561760067939758
time_elpased: 2.76
#iterations: 250
currently lose_sum: 0.5747568011283875
time_elpased: 2.474
#iterations: 251
currently lose_sum: 0.6120385527610779
time_elpased: 2.522
#iterations: 252
currently lose_sum: 0.5050638318061829
time_elpased: 2.528
#iterations: 253
currently lose_sum: 0.5515608787536621
time_elpased: 2.464
#iterations: 254
currently lose_sum: 0.4511331617832184
time_elpased: 2.536
#iterations: 255
currently lose_sum: 0.5479312539100647
time_elpased: 2.503
#iterations: 256
currently lose_sum: 0.48946261405944824
time_elpased: 2.535
#iterations: 257
currently lose_sum: 0.5160276293754578
time_elpased: 2.448
#iterations: 258
currently lose_sum: 0.4584587812423706
time_elpased: 2.46
#iterations: 259
currently lose_sum: 0.5275285243988037
time_elpased: 2.484
start validation test
0.668
0.801379310345
0.458563535912
0.583333333333
0.670887607372
14.971
#iterations: 260
currently lose_sum: 0.5421201586723328
time_elpased: 2.47
#iterations: 261
currently lose_sum: 0.5188231468200684
time_elpased: 2.462
#iterations: 262
currently lose_sum: 0.5611165761947632
time_elpased: 2.495
#iterations: 263
currently lose_sum: 0.5535385012626648
time_elpased: 2.42
#iterations: 264
currently lose_sum: 0.4228328764438629
time_elpased: 2.725
#iterations: 265
currently lose_sum: 0.5488346219062805
time_elpased: 2.48
#iterations: 266
currently lose_sum: 0.527378261089325
time_elpased: 2.521
#iterations: 267
currently lose_sum: 0.5440546274185181
time_elpased: 2.489
#iterations: 268
currently lose_sum: 0.4197763204574585
time_elpased: 2.469
#iterations: 269
currently lose_sum: 0.4798235297203064
time_elpased: 2.867
#iterations: 270
currently lose_sum: 0.6138391494750977
time_elpased: 2.993
#iterations: 271
currently lose_sum: 0.4153635501861572
time_elpased: 2.5
#iterations: 272
currently lose_sum: 0.5396549105644226
time_elpased: 2.598
#iterations: 273
currently lose_sum: 0.4974331557750702
time_elpased: 2.57
#iterations: 274
currently lose_sum: 0.47454094886779785
time_elpased: 2.652
#iterations: 275
currently lose_sum: 0.48515138030052185
time_elpased: 2.537
#iterations: 276
currently lose_sum: 0.554419755935669
time_elpased: 2.573
#iterations: 277
currently lose_sum: 0.5048831105232239
time_elpased: 2.647
#iterations: 278
currently lose_sum: 0.5281684994697571
time_elpased: 2.5
#iterations: 279
currently lose_sum: 0.49010220170021057
time_elpased: 2.544
start validation test
0.7096
0.750231267345
0.640094711918
0.690800681431
0.710558304864
14.080
#iterations: 280
currently lose_sum: 0.5143774151802063
time_elpased: 3.029
#iterations: 281
currently lose_sum: 0.5307838320732117
time_elpased: 2.47
#iterations: 282
currently lose_sum: 0.5108606219291687
time_elpased: 2.54
#iterations: 283
currently lose_sum: 0.44525375962257385
time_elpased: 2.479
#iterations: 284
currently lose_sum: 0.4972149133682251
time_elpased: 2.89
#iterations: 285
currently lose_sum: 0.6492965221405029
time_elpased: 2.64
#iterations: 286
currently lose_sum: 0.4804418087005615
time_elpased: 2.5
#iterations: 287
currently lose_sum: 0.46614447236061096
time_elpased: 2.694
#iterations: 288
currently lose_sum: 0.51202791929245
time_elpased: 2.465
#iterations: 289
currently lose_sum: 0.5096343159675598
time_elpased: 2.53
#iterations: 290
currently lose_sum: 0.4667782187461853
time_elpased: 2.493
#iterations: 291
currently lose_sum: 0.4751500189304352
time_elpased: 2.779
#iterations: 292
currently lose_sum: 0.5501483678817749
time_elpased: 2.527
#iterations: 293
currently lose_sum: 0.4119630455970764
time_elpased: 2.695
#iterations: 294
currently lose_sum: 0.6954457759857178
time_elpased: 2.501
#iterations: 295
currently lose_sum: 0.48719730973243713
time_elpased: 2.448
#iterations: 296
currently lose_sum: 0.49742504954338074
time_elpased: 2.468
#iterations: 297
currently lose_sum: 0.48117560148239136
time_elpased: 2.421
#iterations: 298
currently lose_sum: 0.4766403138637543
time_elpased: 2.486
#iterations: 299
currently lose_sum: 0.5541734099388123
time_elpased: 2.576
start validation test
0.7088
0.711704634721
0.715074980268
0.713385826772
0.708713483646
13.861
#iterations: 300
currently lose_sum: 0.4388713836669922
time_elpased: 2.506
#iterations: 301
currently lose_sum: 0.4420486092567444
time_elpased: 2.595
#iterations: 302
currently lose_sum: 0.4794808626174927
time_elpased: 3.233
#iterations: 303
currently lose_sum: 0.6800285577774048
time_elpased: 2.467
#iterations: 304
currently lose_sum: 0.4977932870388031
time_elpased: 2.593
#iterations: 305
currently lose_sum: 0.4493907690048218
time_elpased: 2.429
#iterations: 306
currently lose_sum: 0.47692668437957764
time_elpased: 2.453
#iterations: 307
currently lose_sum: 0.5634300112724304
time_elpased: 2.539
#iterations: 308
currently lose_sum: 0.538272500038147
time_elpased: 2.543
#iterations: 309
currently lose_sum: 0.4668775796890259
time_elpased: 2.725
#iterations: 310
currently lose_sum: 0.5483899116516113
time_elpased: 2.415
#iterations: 311
currently lose_sum: 0.5055891275405884
time_elpased: 2.52
#iterations: 312
currently lose_sum: 0.5401620268821716
time_elpased: 2.583
#iterations: 313
currently lose_sum: 0.5641670823097229
time_elpased: 2.723
#iterations: 314
currently lose_sum: 0.4679320454597473
time_elpased: 2.555
#iterations: 315
currently lose_sum: 0.4858558773994446
time_elpased: 2.554
#iterations: 316
currently lose_sum: 0.5461075305938721
time_elpased: 2.985
#iterations: 317
currently lose_sum: 0.4803992509841919
time_elpased: 2.61
#iterations: 318
currently lose_sum: 0.43785545229911804
time_elpased: 2.745
#iterations: 319
currently lose_sum: 0.5288985371589661
time_elpased: 2.482
start validation test
0.6736
0.812760055479
0.462509865825
0.58953722334
0.676510407365
15.026
#iterations: 320
currently lose_sum: 0.4620105028152466
time_elpased: 2.502
#iterations: 321
currently lose_sum: 0.4602246582508087
time_elpased: 2.466
#iterations: 322
currently lose_sum: 0.5249925255775452
time_elpased: 2.435
#iterations: 323
currently lose_sum: 0.44603973627090454
time_elpased: 2.583
#iterations: 324
currently lose_sum: 0.6134520173072815
time_elpased: 2.517
#iterations: 325
currently lose_sum: 0.4530433714389801
time_elpased: 2.453
#iterations: 326
currently lose_sum: 0.6006462574005127
time_elpased: 2.574
#iterations: 327
currently lose_sum: 0.5274968147277832
time_elpased: 2.515
#iterations: 328
currently lose_sum: 0.48433470726013184
time_elpased: 2.676
#iterations: 329
currently lose_sum: 0.5519271492958069
time_elpased: 2.432
#iterations: 330
currently lose_sum: 0.5546314716339111
time_elpased: 2.491
#iterations: 331
currently lose_sum: 0.4894568622112274
time_elpased: 2.802
#iterations: 332
currently lose_sum: 0.4174672067165375
time_elpased: 2.5
#iterations: 333
currently lose_sum: 0.5251824259757996
time_elpased: 2.531
#iterations: 334
currently lose_sum: 0.4255841076374054
time_elpased: 2.601
#iterations: 335
currently lose_sum: 0.5951368808746338
time_elpased: 2.47
#iterations: 336
currently lose_sum: 0.6047067642211914
time_elpased: 2.525
#iterations: 337
currently lose_sum: 0.5612567067146301
time_elpased: 3.353
#iterations: 338
currently lose_sum: 0.49131906032562256
time_elpased: 2.73
#iterations: 339
currently lose_sum: 0.5780437588691711
time_elpased: 2.91
start validation test
0.6524
0.85409252669
0.378847671665
0.524876981957
0.6561716055
17.024
#iterations: 340
currently lose_sum: 0.5108932256698608
time_elpased: 2.504
#iterations: 341
currently lose_sum: 0.47168540954589844
time_elpased: 2.496
#iterations: 342
currently lose_sum: 0.5041317939758301
time_elpased: 2.541
#iterations: 343
currently lose_sum: 0.4041658639907837
time_elpased: 2.594
#iterations: 344
currently lose_sum: 0.4799202084541321
time_elpased: 2.477
#iterations: 345
currently lose_sum: 0.4912548065185547
time_elpased: 2.532
#iterations: 346
currently lose_sum: 0.5485966801643372
time_elpased: 2.465
#iterations: 347
currently lose_sum: 0.42184051871299744
time_elpased: 2.478
#iterations: 348
currently lose_sum: 0.4638415575027466
time_elpased: 2.463
#iterations: 349
currently lose_sum: 0.5893312692642212
time_elpased: 2.5
#iterations: 350
currently lose_sum: 0.4943987727165222
time_elpased: 2.508
#iterations: 351
currently lose_sum: 0.491914838552475
time_elpased: 2.508
#iterations: 352
currently lose_sum: 0.6126766800880432
time_elpased: 2.779
#iterations: 353
currently lose_sum: 0.43668797612190247
time_elpased: 2.475
#iterations: 354
currently lose_sum: 0.444693922996521
time_elpased: 2.47
#iterations: 355
currently lose_sum: 0.46140244603157043
time_elpased: 2.486
#iterations: 356
currently lose_sum: 0.5614756345748901
time_elpased: 2.492
#iterations: 357
currently lose_sum: 0.46987053751945496
time_elpased: 2.496
#iterations: 358
currently lose_sum: 0.5395731925964355
time_elpased: 2.614
#iterations: 359
currently lose_sum: 0.5224851965904236
time_elpased: 2.48
start validation test
0.7064
0.689679715302
0.764798737174
0.725299401198
0.705594826819
13.915
#iterations: 360
currently lose_sum: 0.49199286103248596
time_elpased: 2.431
#iterations: 361
currently lose_sum: 0.46967190504074097
time_elpased: 2.6
#iterations: 362
currently lose_sum: 0.37334832549095154
time_elpased: 2.609
#iterations: 363
currently lose_sum: 0.45047858357429504
time_elpased: 2.552
#iterations: 364
currently lose_sum: 0.4363883137702942
time_elpased: 2.459
#iterations: 365
currently lose_sum: 0.4175693392753601
time_elpased: 2.498
#iterations: 366
currently lose_sum: 0.42931243777275085
time_elpased: 2.569
#iterations: 367
currently lose_sum: 0.5660267472267151
time_elpased: 2.481
#iterations: 368
currently lose_sum: 0.5857628583908081
time_elpased: 2.495
#iterations: 369
currently lose_sum: 0.48565781116485596
time_elpased: 2.465
#iterations: 370
currently lose_sum: 0.626047670841217
time_elpased: 2.423
#iterations: 371
currently lose_sum: 0.5369638204574585
time_elpased: 2.459
#iterations: 372
currently lose_sum: 0.6411266326904297
time_elpased: 2.432
#iterations: 373
currently lose_sum: 0.44770681858062744
time_elpased: 2.507
#iterations: 374
currently lose_sum: 0.5349239110946655
time_elpased: 2.466
#iterations: 375
currently lose_sum: 0.4957923889160156
time_elpased: 2.487
#iterations: 376
currently lose_sum: 0.455526202917099
time_elpased: 2.462
#iterations: 377
currently lose_sum: 0.37958046793937683
time_elpased: 2.46
#iterations: 378
currently lose_sum: 0.5379477143287659
time_elpased: 2.66
#iterations: 379
currently lose_sum: 0.41474810242652893
time_elpased: 2.533
start validation test
0.6968
0.664087685364
0.812943962115
0.731014904187
0.695198663945
14.025
#iterations: 380
currently lose_sum: 0.5113215446472168
time_elpased: 2.58
#iterations: 381
currently lose_sum: 0.5339080095291138
time_elpased: 2.556
#iterations: 382
currently lose_sum: 0.5252256989479065
time_elpased: 2.54
#iterations: 383
currently lose_sum: 0.40388649702072144
time_elpased: 2.522
#iterations: 384
currently lose_sum: 0.6802327036857605
time_elpased: 2.513
#iterations: 385
currently lose_sum: 0.45782867074012756
time_elpased: 2.502
#iterations: 386
currently lose_sum: 0.5970937609672546
time_elpased: 2.549
#iterations: 387
currently lose_sum: 0.49742621183395386
time_elpased: 2.535
#iterations: 388
currently lose_sum: 0.48690253496170044
time_elpased: 2.62
#iterations: 389
currently lose_sum: 0.477818101644516
time_elpased: 2.467
#iterations: 390
currently lose_sum: 0.49600455164909363
time_elpased: 2.834
#iterations: 391
currently lose_sum: 0.4676149785518646
time_elpased: 2.495
#iterations: 392
currently lose_sum: 0.3985527455806732
time_elpased: 2.618
#iterations: 393
currently lose_sum: 0.5852018594741821
time_elpased: 2.439
#iterations: 394
currently lose_sum: 0.5271041989326477
time_elpased: 2.474
#iterations: 395
currently lose_sum: 0.5506429076194763
time_elpased: 2.46
#iterations: 396
currently lose_sum: 0.4490887522697449
time_elpased: 2.527
#iterations: 397
currently lose_sum: 0.45752236247062683
time_elpased: 2.615
#iterations: 398
currently lose_sum: 0.5602278709411621
time_elpased: 2.585
#iterations: 399
currently lose_sum: 0.6001560688018799
time_elpased: 2.497
start validation test
0.7024
0.679232350925
0.782162588792
0.727072633896
0.701300272498
14.124
#iterations: 400
currently lose_sum: 0.48411086201667786
time_elpased: 2.511
#iterations: 401
currently lose_sum: 0.5154290795326233
time_elpased: 2.521
#iterations: 402
currently lose_sum: 0.42872437834739685
time_elpased: 2.532
#iterations: 403
currently lose_sum: 0.4282606840133667
time_elpased: 2.507
#iterations: 404
currently lose_sum: 0.469328910112381
time_elpased: 2.591
#iterations: 405
currently lose_sum: 0.5852653980255127
time_elpased: 2.475
#iterations: 406
currently lose_sum: 0.426738977432251
time_elpased: 2.74
#iterations: 407
currently lose_sum: 0.4502595067024231
time_elpased: 2.485
#iterations: 408
currently lose_sum: 0.44114866852760315
time_elpased: 2.544
#iterations: 409
currently lose_sum: 0.5701701641082764
time_elpased: 2.515
#iterations: 410
currently lose_sum: 0.5068780779838562
time_elpased: 2.534
#iterations: 411
currently lose_sum: 0.5387410521507263
time_elpased: 2.698
#iterations: 412
currently lose_sum: 0.511421799659729
time_elpased: 2.559
#iterations: 413
currently lose_sum: 0.44896361231803894
time_elpased: 2.494
#iterations: 414
currently lose_sum: 0.5590981841087341
time_elpased: 2.542
#iterations: 415
currently lose_sum: 0.5289123058319092
time_elpased: 2.504
#iterations: 416
currently lose_sum: 0.5057036876678467
time_elpased: 2.623
#iterations: 417
currently lose_sum: 0.5574021339416504
time_elpased: 2.646
#iterations: 418
currently lose_sum: 0.47825679183006287
time_elpased: 2.494
#iterations: 419
currently lose_sum: 0.45344772934913635
time_elpased: 2.507
start validation test
0.602
0.904761904762
0.239936858721
0.379288833437
0.606991949231
20.287
#iterations: 420
currently lose_sum: 0.560966968536377
time_elpased: 2.457
#iterations: 421
currently lose_sum: 0.4976988136768341
time_elpased: 2.459
#iterations: 422
currently lose_sum: 0.6880989074707031
time_elpased: 2.621
#iterations: 423
currently lose_sum: 0.5327560901641846
time_elpased: 2.471
#iterations: 424
currently lose_sum: 0.4796828031539917
time_elpased: 2.465
#iterations: 425
currently lose_sum: 0.5364248156547546
time_elpased: 2.737
#iterations: 426
currently lose_sum: 0.4944828152656555
time_elpased: 2.506
#iterations: 427
currently lose_sum: 0.6471384167671204
time_elpased: 2.556
#iterations: 428
currently lose_sum: 0.4593518078327179
time_elpased: 2.437
#iterations: 429
currently lose_sum: 0.4852639436721802
time_elpased: 2.544
#iterations: 430
currently lose_sum: 0.4866313934326172
time_elpased: 2.555
#iterations: 431
currently lose_sum: 0.4631308615207672
time_elpased: 3.068
#iterations: 432
currently lose_sum: 0.4384433627128601
time_elpased: 2.521
#iterations: 433
currently lose_sum: 0.4481995403766632
time_elpased: 2.574
#iterations: 434
currently lose_sum: 0.4743508994579315
time_elpased: 2.599
#iterations: 435
currently lose_sum: 0.4092250168323517
time_elpased: 2.534
#iterations: 436
currently lose_sum: 0.4589827358722687
time_elpased: 2.495
#iterations: 437
currently lose_sum: 0.6266903281211853
time_elpased: 2.514
#iterations: 438
currently lose_sum: 0.39438900351524353
time_elpased: 2.458
#iterations: 439
currently lose_sum: 0.45875370502471924
time_elpased: 2.633
start validation test
0.7184
0.768863419293
0.635359116022
0.695764909248
0.71954492703
14.049
#iterations: 440
currently lose_sum: 0.45438438653945923
time_elpased: 2.466
#iterations: 441
currently lose_sum: 0.5144158005714417
time_elpased: 2.476
#iterations: 442
currently lose_sum: 0.44142383337020874
time_elpased: 3.001
#iterations: 443
currently lose_sum: 0.5154953598976135
time_elpased: 2.441
#iterations: 444
currently lose_sum: 0.5164257884025574
time_elpased: 2.489
#iterations: 445
currently lose_sum: 0.452706515789032
time_elpased: 2.515
#iterations: 446
currently lose_sum: 0.4072170555591583
time_elpased: 2.515
#iterations: 447
currently lose_sum: 0.44685080647468567
time_elpased: 2.602
#iterations: 448
currently lose_sum: 0.5644776225090027
time_elpased: 2.428
#iterations: 449
currently lose_sum: 0.5862592458724976
time_elpased: 2.448
#iterations: 450
currently lose_sum: 0.47478142380714417
time_elpased: 2.535
#iterations: 451
currently lose_sum: 0.5101163387298584
time_elpased: 2.547
#iterations: 452
currently lose_sum: 0.43765541911125183
time_elpased: 2.675
#iterations: 453
currently lose_sum: 0.43023598194122314
time_elpased: 2.428
#iterations: 454
currently lose_sum: 0.5751581192016602
time_elpased: 2.542
#iterations: 455
currently lose_sum: 0.46402618288993835
time_elpased: 2.467
#iterations: 456
currently lose_sum: 0.5376386046409607
time_elpased: 2.45
#iterations: 457
currently lose_sum: 0.5152391791343689
time_elpased: 2.484
#iterations: 458
currently lose_sum: 0.4565889239311218
time_elpased: 2.541
#iterations: 459
currently lose_sum: 0.4574737846851349
time_elpased: 2.772
start validation test
0.7084
0.819477434679
0.544593528019
0.654338549075
0.710658483393
14.596
#iterations: 460
currently lose_sum: 0.5232364535331726
time_elpased: 2.685
#iterations: 461
currently lose_sum: 0.4607524871826172
time_elpased: 2.524
#iterations: 462
currently lose_sum: 0.5317288041114807
time_elpased: 3.02
#iterations: 463
currently lose_sum: 0.41213616728782654
time_elpased: 2.559
#iterations: 464
currently lose_sum: 0.4682752192020416
time_elpased: 2.692
#iterations: 465
currently lose_sum: 0.7014828324317932
time_elpased: 2.547
#iterations: 466
currently lose_sum: 0.46025729179382324
time_elpased: 2.711
#iterations: 467
currently lose_sum: 0.4743887186050415
time_elpased: 2.476
#iterations: 468
currently lose_sum: 0.4424082040786743
time_elpased: 2.549
#iterations: 469
currently lose_sum: 0.5101682543754578
time_elpased: 2.563
#iterations: 470
currently lose_sum: 0.35934266448020935
time_elpased: 2.576
#iterations: 471
currently lose_sum: 0.49967116117477417
time_elpased: 2.492
#iterations: 472
currently lose_sum: 0.4616459310054779
time_elpased: 2.458
#iterations: 473
currently lose_sum: 0.4338446855545044
time_elpased: 2.71
#iterations: 474
currently lose_sum: 0.4267066717147827
time_elpased: 2.538
#iterations: 475
currently lose_sum: 0.4181477427482605
time_elpased: 2.464
#iterations: 476
currently lose_sum: 0.41436532139778137
time_elpased: 2.492
#iterations: 477
currently lose_sum: 0.5032880902290344
time_elpased: 2.592
#iterations: 478
currently lose_sum: 0.4755394756793976
time_elpased: 2.489
#iterations: 479
currently lose_sum: 0.4630941152572632
time_elpased: 2.592
start validation test
0.7148
0.78381147541
0.603788476717
0.682122157824
0.716330572503
14.209
#iterations: 480
currently lose_sum: 0.4968843162059784
time_elpased: 2.552
#iterations: 481
currently lose_sum: 0.610153317451477
time_elpased: 2.561
#iterations: 482
currently lose_sum: 0.511371910572052
time_elpased: 2.48
#iterations: 483
currently lose_sum: 0.4369777739048004
time_elpased: 2.515
#iterations: 484
currently lose_sum: 0.46165069937705994
time_elpased: 2.434
#iterations: 485
currently lose_sum: 0.5502657890319824
time_elpased: 2.536
#iterations: 486
currently lose_sum: 0.5058174729347229
time_elpased: 2.706
#iterations: 487
currently lose_sum: 0.4861874282360077
time_elpased: 2.534
#iterations: 488
currently lose_sum: 0.39720916748046875
time_elpased: 2.549
#iterations: 489
currently lose_sum: 0.42161819338798523
time_elpased: 2.452
#iterations: 490
currently lose_sum: 0.5035753846168518
time_elpased: 2.49
#iterations: 491
currently lose_sum: 0.438538134098053
time_elpased: 2.486
#iterations: 492
currently lose_sum: 0.5531051158905029
time_elpased: 2.511
#iterations: 493
currently lose_sum: 0.38354766368865967
time_elpased: 2.496
#iterations: 494
currently lose_sum: 0.5059981346130371
time_elpased: 2.437
#iterations: 495
currently lose_sum: 0.4703107178211212
time_elpased: 2.537
#iterations: 496
currently lose_sum: 0.3651271462440491
time_elpased: 2.613
#iterations: 497
currently lose_sum: 0.5102915167808533
time_elpased: 2.506
#iterations: 498
currently lose_sum: 0.4641245901584625
time_elpased: 2.477
#iterations: 499
currently lose_sum: 0.36857903003692627
time_elpased: 2.711
start validation test
0.6984
0.667537557152
0.806629834254
0.730521801287
0.696907780063
14.687
#iterations: 500
currently lose_sum: 0.42433643341064453
time_elpased: 2.657
#iterations: 501
currently lose_sum: 0.5257045030593872
time_elpased: 2.458
#iterations: 502
currently lose_sum: 0.46462684869766235
time_elpased: 2.54
#iterations: 503
currently lose_sum: 0.38643431663513184
time_elpased: 2.544
#iterations: 504
currently lose_sum: 0.4751730263233185
time_elpased: 2.422
#iterations: 505
currently lose_sum: 0.4678465723991394
time_elpased: 2.906
#iterations: 506
currently lose_sum: 0.4537148177623749
time_elpased: 2.759
#iterations: 507
currently lose_sum: 0.4881018400192261
time_elpased: 2.502
#iterations: 508
currently lose_sum: 0.41461479663848877
time_elpased: 2.651
#iterations: 509
currently lose_sum: 0.544516384601593
time_elpased: 2.477
#iterations: 510
currently lose_sum: 0.40851715207099915
time_elpased: 2.531
#iterations: 511
currently lose_sum: 0.5327863097190857
time_elpased: 2.605
#iterations: 512
currently lose_sum: 0.44782254099845886
time_elpased: 2.483
#iterations: 513
currently lose_sum: 0.5753877758979797
time_elpased: 2.57
#iterations: 514
currently lose_sum: 0.5188215374946594
time_elpased: 2.513
#iterations: 515
currently lose_sum: 0.3955725133419037
time_elpased: 2.572
#iterations: 516
currently lose_sum: 0.44408243894577026
time_elpased: 2.721
#iterations: 517
currently lose_sum: 0.43737053871154785
time_elpased: 2.746
#iterations: 518
currently lose_sum: 0.4364394247531891
time_elpased: 3.29
#iterations: 519
currently lose_sum: 0.44289538264274597
time_elpased: 2.556
start validation test
0.7112
0.683749157114
0.800315706393
0.737454545455
0.709971316295
13.803
#iterations: 520
currently lose_sum: 0.5306758284568787
time_elpased: 2.506
#iterations: 521
currently lose_sum: 0.5109555125236511
time_elpased: 2.448
#iterations: 522
currently lose_sum: 0.3999783396720886
time_elpased: 2.787
#iterations: 523
currently lose_sum: 0.4151701331138611
time_elpased: 2.437
#iterations: 524
currently lose_sum: 0.520117998123169
time_elpased: 2.566
#iterations: 525
currently lose_sum: 0.4584238827228546
time_elpased: 2.505
#iterations: 526
currently lose_sum: 0.49210938811302185
time_elpased: 2.464
#iterations: 527
currently lose_sum: 0.4270835220813751
time_elpased: 2.504
#iterations: 528
currently lose_sum: 0.45225784182548523
time_elpased: 2.624
#iterations: 529
currently lose_sum: 0.5277552008628845
time_elpased: 2.495
#iterations: 530
currently lose_sum: 0.5423932075500488
time_elpased: 2.548
#iterations: 531
currently lose_sum: 0.3880869150161743
time_elpased: 2.533
#iterations: 532
currently lose_sum: 0.5264303684234619
time_elpased: 2.664
#iterations: 533
currently lose_sum: 0.4622402489185333
time_elpased: 2.693
#iterations: 534
currently lose_sum: 0.3103448450565338
time_elpased: 2.491
#iterations: 535
currently lose_sum: 0.43010780215263367
time_elpased: 2.619
#iterations: 536
currently lose_sum: 0.5557728409767151
time_elpased: 2.543
#iterations: 537
currently lose_sum: 0.5194589495658875
time_elpased: 2.536
#iterations: 538
currently lose_sum: 0.47465503215789795
time_elpased: 2.483
#iterations: 539
currently lose_sum: 0.40703722834587097
time_elpased: 2.423
start validation test
0.7312
0.78360343184
0.648776637727
0.709844559585
0.732336412943
13.733
#iterations: 540
currently lose_sum: 0.4831378161907196
time_elpased: 2.438
#iterations: 541
currently lose_sum: 0.4325377941131592
time_elpased: 2.486
#iterations: 542
currently lose_sum: 0.42214539647102356
time_elpased: 2.545
#iterations: 543
currently lose_sum: 0.6403331160545349
time_elpased: 2.597
#iterations: 544
currently lose_sum: 0.5284582376480103
time_elpased: 2.529
#iterations: 545
currently lose_sum: 0.44453495740890503
time_elpased: 2.619
#iterations: 546
currently lose_sum: 0.4611436426639557
time_elpased: 2.493
#iterations: 547
currently lose_sum: 0.5885785818099976
time_elpased: 2.501
#iterations: 548
currently lose_sum: 0.5095825791358948
time_elpased: 2.581
#iterations: 549
currently lose_sum: 0.49046435952186584
time_elpased: 2.478
#iterations: 550
currently lose_sum: 0.42274975776672363
time_elpased: 2.516
#iterations: 551
currently lose_sum: 0.4953993856906891
time_elpased: 2.475
#iterations: 552
currently lose_sum: 0.49690017104148865
time_elpased: 2.505
#iterations: 553
currently lose_sum: 0.3926451504230499
time_elpased: 2.519
#iterations: 554
currently lose_sum: 0.503363847732544
time_elpased: 2.466
#iterations: 555
currently lose_sum: 0.49853962659835815
time_elpased: 2.542
#iterations: 556
currently lose_sum: 0.5166593790054321
time_elpased: 2.942
#iterations: 557
currently lose_sum: 0.4848863482475281
time_elpased: 2.779
#iterations: 558
currently lose_sum: 0.4435405731201172
time_elpased: 2.677
#iterations: 559
currently lose_sum: 0.3238581120967865
time_elpased: 2.694
start validation test
0.7252
0.790581162325
0.6227308603
0.696688741722
0.726612794302
14.013
#iterations: 560
currently lose_sum: 0.4178144931793213
time_elpased: 2.647
#iterations: 561
currently lose_sum: 0.39948147535324097
time_elpased: 2.625
#iterations: 562
currently lose_sum: 0.4920603930950165
time_elpased: 2.736
#iterations: 563
currently lose_sum: 0.4646812379360199
time_elpased: 2.581
#iterations: 564
currently lose_sum: 0.4898037016391754
time_elpased: 2.443
#iterations: 565
currently lose_sum: 0.4169357419013977
time_elpased: 2.554
#iterations: 566
currently lose_sum: 0.4700790047645569
time_elpased: 2.443
#iterations: 567
currently lose_sum: 0.44747552275657654
time_elpased: 2.444
#iterations: 568
currently lose_sum: 0.4605802893638611
time_elpased: 2.532
#iterations: 569
currently lose_sum: 0.46373045444488525
time_elpased: 2.673
#iterations: 570
currently lose_sum: 0.3968554735183716
time_elpased: 2.979
#iterations: 571
currently lose_sum: 0.5070576667785645
time_elpased: 2.812
#iterations: 572
currently lose_sum: 0.3851582407951355
time_elpased: 2.457
#iterations: 573
currently lose_sum: 0.5693857669830322
time_elpased: 2.537
#iterations: 574
currently lose_sum: 0.4209091067314148
time_elpased: 2.647
#iterations: 575
currently lose_sum: 0.5582786798477173
time_elpased: 2.532
#iterations: 576
currently lose_sum: 0.37258246541023254
time_elpased: 2.52
#iterations: 577
currently lose_sum: 0.4510658383369446
time_elpased: 2.484
#iterations: 578
currently lose_sum: 0.39462172985076904
time_elpased: 2.853
#iterations: 579
currently lose_sum: 0.43045517802238464
time_elpased: 2.533
start validation test
0.7344
0.781512605042
0.660615627466
0.715996578272
0.735417302784
13.599
#iterations: 580
currently lose_sum: 0.41910094022750854
time_elpased: 2.506
#iterations: 581
currently lose_sum: 0.45563262701034546
time_elpased: 2.605
#iterations: 582
currently lose_sum: 0.3697645962238312
time_elpased: 2.714
#iterations: 583
currently lose_sum: 0.5271156430244446
time_elpased: 2.529
#iterations: 584
currently lose_sum: 0.49091339111328125
time_elpased: 2.47
#iterations: 585
currently lose_sum: 0.46826449036598206
time_elpased: 2.481
#iterations: 586
currently lose_sum: 0.497721791267395
time_elpased: 2.634
#iterations: 587
currently lose_sum: 0.43540531396865845
time_elpased: 2.669
#iterations: 588
currently lose_sum: 0.4430600106716156
time_elpased: 2.55
#iterations: 589
currently lose_sum: 0.4234515428543091
time_elpased: 2.445
#iterations: 590
currently lose_sum: 0.44400253891944885
time_elpased: 2.423
#iterations: 591
currently lose_sum: 0.4854031503200531
time_elpased: 2.485
#iterations: 592
currently lose_sum: 0.48598384857177734
time_elpased: 2.702
#iterations: 593
currently lose_sum: 0.40612053871154785
time_elpased: 2.453
#iterations: 594
currently lose_sum: 0.5826428532600403
time_elpased: 2.778
#iterations: 595
currently lose_sum: 0.49200305342674255
time_elpased: 2.437
#iterations: 596
currently lose_sum: 0.385265588760376
time_elpased: 2.64
#iterations: 597
currently lose_sum: 0.2955879867076874
time_elpased: 2.525
#iterations: 598
currently lose_sum: 0.4276331663131714
time_elpased: 2.52
#iterations: 599
currently lose_sum: 0.39545512199401855
time_elpased: 2.509
start validation test
0.7172
0.691518467852
0.797947908445
0.740930743862
0.716086687394
13.748
acc: 0.741
pre: 0.786
rec: 0.673
F1: 0.725
auc: 0.742
