start to construct computing graph
graph construct over
3803
epochs start
#iterations: 0
currently lose_sum: 0.6952691674232483
time_elpased: 3.194
#iterations: 1
currently lose_sum: 0.6920130848884583
time_elpased: 3.158
#iterations: 2
currently lose_sum: 0.6951683163642883
time_elpased: 3.172
#iterations: 3
currently lose_sum: 0.6894634962081909
time_elpased: 3.13
#iterations: 4
currently lose_sum: 0.6918319463729858
time_elpased: 3.182
#iterations: 5
currently lose_sum: 0.6914980411529541
time_elpased: 3.18
#iterations: 6
currently lose_sum: 0.6952226161956787
time_elpased: 3.102
#iterations: 7
currently lose_sum: 0.6933083534240723
time_elpased: 3.147
#iterations: 8
currently lose_sum: 0.689775824546814
time_elpased: 3.15
#iterations: 9
currently lose_sum: 0.6864473819732666
time_elpased: 3.185
#iterations: 10
currently lose_sum: 0.6938769817352295
time_elpased: 3.099
#iterations: 11
currently lose_sum: 0.6956653594970703
time_elpased: 3.152
#iterations: 12
currently lose_sum: 0.682725191116333
time_elpased: 3.141
#iterations: 13
currently lose_sum: 0.6876408457756042
time_elpased: 3.179
#iterations: 14
currently lose_sum: 0.6975969076156616
time_elpased: 3.173
#iterations: 15
currently lose_sum: 0.6815402507781982
time_elpased: 3.17
#iterations: 16
currently lose_sum: 0.6863222718238831
time_elpased: 3.14
#iterations: 17
currently lose_sum: 0.6918852925300598
time_elpased: 3.14
#iterations: 18
currently lose_sum: 0.6660908460617065
time_elpased: 3.142
#iterations: 19
currently lose_sum: 0.6896560788154602
time_elpased: 3.168
start validation test
0.5332
0.531780994336
0.666403785489
0.591529576479
0.531253840796
17.265
#iterations: 20
currently lose_sum: 0.683305025100708
time_elpased: 2.557
#iterations: 21
currently lose_sum: 0.7033706903457642
time_elpased: 2.537
#iterations: 22
currently lose_sum: 0.702454149723053
time_elpased: 2.6
#iterations: 23
currently lose_sum: 0.6895065307617188
time_elpased: 2.536
#iterations: 24
currently lose_sum: 0.7102336883544922
time_elpased: 2.544
#iterations: 25
currently lose_sum: 0.6916215419769287
time_elpased: 2.567
#iterations: 26
currently lose_sum: 0.6897920966148376
time_elpased: 2.522
#iterations: 27
currently lose_sum: 0.682797908782959
time_elpased: 2.507
#iterations: 28
currently lose_sum: 0.6789477467536926
time_elpased: 2.485
#iterations: 29
currently lose_sum: 0.679594099521637
time_elpased: 2.566
#iterations: 30
currently lose_sum: 0.6632845997810364
time_elpased: 2.513
#iterations: 31
currently lose_sum: 0.6693058013916016
time_elpased: 2.537
#iterations: 32
currently lose_sum: 0.6904162764549255
time_elpased: 2.548
#iterations: 33
currently lose_sum: 0.6819918155670166
time_elpased: 2.514
#iterations: 34
currently lose_sum: 0.693324863910675
time_elpased: 2.525
#iterations: 35
currently lose_sum: 0.6617276668548584
time_elpased: 2.523
#iterations: 36
currently lose_sum: 0.6736682057380676
time_elpased: 2.534
#iterations: 37
currently lose_sum: 0.6895801424980164
time_elpased: 2.524
#iterations: 38
currently lose_sum: 0.6851608157157898
time_elpased: 2.538
#iterations: 39
currently lose_sum: 0.6884018778800964
time_elpased: 2.582
start validation test
0.5488
0.531138790036
0.941640378549
0.679180887372
0.543060449015
17.183
#iterations: 40
currently lose_sum: 0.6864199042320251
time_elpased: 2.509
#iterations: 41
currently lose_sum: 0.6730806231498718
time_elpased: 2.46
#iterations: 42
currently lose_sum: 0.65301913022995
time_elpased: 2.576
#iterations: 43
currently lose_sum: 0.6929870843887329
time_elpased: 2.536
#iterations: 44
currently lose_sum: 0.6737539768218994
time_elpased: 2.51
#iterations: 45
currently lose_sum: 0.6875424385070801
time_elpased: 2.53
#iterations: 46
currently lose_sum: 0.6738954186439514
time_elpased: 2.515
#iterations: 47
currently lose_sum: 0.643094003200531
time_elpased: 2.53
#iterations: 48
currently lose_sum: 0.6908984184265137
time_elpased: 2.524
#iterations: 49
currently lose_sum: 0.6481111645698547
time_elpased: 2.51
#iterations: 50
currently lose_sum: 0.6778318881988525
time_elpased: 2.521
#iterations: 51
currently lose_sum: 0.6876842379570007
time_elpased: 2.518
#iterations: 52
currently lose_sum: 0.6658403277397156
time_elpased: 2.502
#iterations: 53
currently lose_sum: 0.7006092667579651
time_elpased: 2.52
#iterations: 54
currently lose_sum: 0.6634353399276733
time_elpased: 2.593
#iterations: 55
currently lose_sum: 0.629152774810791
time_elpased: 2.526
#iterations: 56
currently lose_sum: 0.655093252658844
time_elpased: 2.52
#iterations: 57
currently lose_sum: 0.6871980428695679
time_elpased: 2.509
#iterations: 58
currently lose_sum: 0.6724616885185242
time_elpased: 2.535
#iterations: 59
currently lose_sum: 0.6411611437797546
time_elpased: 2.499
start validation test
0.6064
0.619327731092
0.581230283912
0.59967453214
0.606767739358
16.460
#iterations: 60
currently lose_sum: 0.6877239346504211
time_elpased: 2.526
#iterations: 61
currently lose_sum: 0.6150694489479065
time_elpased: 2.536
#iterations: 62
currently lose_sum: 0.6570748686790466
time_elpased: 2.463
#iterations: 63
currently lose_sum: 0.678344190120697
time_elpased: 2.533
#iterations: 64
currently lose_sum: 0.6546666622161865
time_elpased: 2.516
#iterations: 65
currently lose_sum: 0.6870629787445068
time_elpased: 2.526
#iterations: 66
currently lose_sum: 0.6683750748634338
time_elpased: 2.475
#iterations: 67
currently lose_sum: 0.6788985729217529
time_elpased: 2.531
#iterations: 68
currently lose_sum: 0.634040892124176
time_elpased: 2.543
#iterations: 69
currently lose_sum: 0.6315872669219971
time_elpased: 2.501
#iterations: 70
currently lose_sum: 0.6886721849441528
time_elpased: 2.563
#iterations: 71
currently lose_sum: 0.6589862704277039
time_elpased: 2.529
#iterations: 72
currently lose_sum: 0.7290361523628235
time_elpased: 2.486
#iterations: 73
currently lose_sum: 0.6964712738990784
time_elpased: 2.46
#iterations: 74
currently lose_sum: 0.6462377309799194
time_elpased: 2.486
#iterations: 75
currently lose_sum: 0.624535858631134
time_elpased: 2.496
#iterations: 76
currently lose_sum: 0.6983625888824463
time_elpased: 2.497
#iterations: 77
currently lose_sum: 0.6573996543884277
time_elpased: 2.539
#iterations: 78
currently lose_sum: 0.5899930596351624
time_elpased: 2.562
#iterations: 79
currently lose_sum: 0.6363096833229065
time_elpased: 2.511
start validation test
0.6224
0.641608391608
0.578864353312
0.608623548922
0.62303607276
16.221
#iterations: 80
currently lose_sum: 0.6774293780326843
time_elpased: 2.516
#iterations: 81
currently lose_sum: 0.6529895067214966
time_elpased: 2.596
#iterations: 82
currently lose_sum: 0.6340695023536682
time_elpased: 2.558
#iterations: 83
currently lose_sum: 0.632510781288147
time_elpased: 2.591
#iterations: 84
currently lose_sum: 0.641052782535553
time_elpased: 2.616
#iterations: 85
currently lose_sum: 0.6362786293029785
time_elpased: 2.554
#iterations: 86
currently lose_sum: 0.6581678986549377
time_elpased: 2.522
#iterations: 87
currently lose_sum: 0.6461423635482788
time_elpased: 2.53
#iterations: 88
currently lose_sum: 0.6497092247009277
time_elpased: 2.546
#iterations: 89
currently lose_sum: 0.6288185715675354
time_elpased: 2.56
#iterations: 90
currently lose_sum: 0.6404587626457214
time_elpased: 2.5
#iterations: 91
currently lose_sum: 0.6384166479110718
time_elpased: 2.55
#iterations: 92
currently lose_sum: 0.6510881185531616
time_elpased: 2.502
#iterations: 93
currently lose_sum: 0.6067984700202942
time_elpased: 2.536
#iterations: 94
currently lose_sum: 0.6299965381622314
time_elpased: 2.472
#iterations: 95
currently lose_sum: 0.648912787437439
time_elpased: 2.544
#iterations: 96
currently lose_sum: 0.6819208264350891
time_elpased: 2.505
#iterations: 97
currently lose_sum: 0.6762972474098206
time_elpased: 2.529
#iterations: 98
currently lose_sum: 0.6837079524993896
time_elpased: 2.499
#iterations: 99
currently lose_sum: 0.6047823429107666
time_elpased: 2.485
start validation test
0.6516
0.665831244779
0.628548895899
0.646653144016
0.651936785612
15.781
#iterations: 100
currently lose_sum: 0.6344954967498779
time_elpased: 2.485
#iterations: 101
currently lose_sum: 0.6409511566162109
time_elpased: 2.573
#iterations: 102
currently lose_sum: 0.6275266408920288
time_elpased: 2.499
#iterations: 103
currently lose_sum: 0.6839867234230042
time_elpased: 2.488
#iterations: 104
currently lose_sum: 0.7417179942131042
time_elpased: 2.491
#iterations: 105
currently lose_sum: 0.601020872592926
time_elpased: 2.569
#iterations: 106
currently lose_sum: 0.6133551001548767
time_elpased: 2.535
#iterations: 107
currently lose_sum: 0.6796408891677856
time_elpased: 2.5
#iterations: 108
currently lose_sum: 0.6003090143203735
time_elpased: 2.555
#iterations: 109
currently lose_sum: 0.6738339066505432
time_elpased: 2.518
#iterations: 110
currently lose_sum: 0.6984522342681885
time_elpased: 2.55
#iterations: 111
currently lose_sum: 0.601356565952301
time_elpased: 2.499
#iterations: 112
currently lose_sum: 0.631213366985321
time_elpased: 2.563
#iterations: 113
currently lose_sum: 0.6429963707923889
time_elpased: 2.547
#iterations: 114
currently lose_sum: 0.6593675017356873
time_elpased: 2.527
#iterations: 115
currently lose_sum: 0.5671226382255554
time_elpased: 2.512
#iterations: 116
currently lose_sum: 0.6060846447944641
time_elpased: 2.562
#iterations: 117
currently lose_sum: 0.6091885566711426
time_elpased: 2.531
#iterations: 118
currently lose_sum: 0.5798640251159668
time_elpased: 2.549
#iterations: 119
currently lose_sum: 0.6211836338043213
time_elpased: 2.544
start validation test
0.564
0.788961038961
0.191640378549
0.308375634518
0.569440319145
16.875
#iterations: 120
currently lose_sum: 0.6521027088165283
time_elpased: 2.575
#iterations: 121
currently lose_sum: 0.5579800605773926
time_elpased: 2.539
#iterations: 122
currently lose_sum: 0.5750680565834045
time_elpased: 2.506
#iterations: 123
currently lose_sum: 0.6005181670188904
time_elpased: 2.519
#iterations: 124
currently lose_sum: 0.7789153456687927
time_elpased: 2.523
#iterations: 125
currently lose_sum: 0.6144729852676392
time_elpased: 2.502
#iterations: 126
currently lose_sum: 0.6226964592933655
time_elpased: 2.497
#iterations: 127
currently lose_sum: 0.6111027002334595
time_elpased: 2.529
#iterations: 128
currently lose_sum: 0.5447771549224854
time_elpased: 2.533
#iterations: 129
currently lose_sum: 0.576957643032074
time_elpased: 2.509
#iterations: 130
currently lose_sum: 0.6100614666938782
time_elpased: 2.54
#iterations: 131
currently lose_sum: 0.7360166311264038
time_elpased: 2.551
#iterations: 132
currently lose_sum: 0.6251744627952576
time_elpased: 2.51
#iterations: 133
currently lose_sum: 0.6757187843322754
time_elpased: 2.529
#iterations: 134
currently lose_sum: 0.5514084100723267
time_elpased: 2.504
#iterations: 135
currently lose_sum: 0.5908898711204529
time_elpased: 2.511
#iterations: 136
currently lose_sum: 0.5755959153175354
time_elpased: 2.534
#iterations: 137
currently lose_sum: 0.6471073031425476
time_elpased: 2.565
#iterations: 138
currently lose_sum: 0.5831087231636047
time_elpased: 2.542
#iterations: 139
currently lose_sum: 0.5100582242012024
time_elpased: 2.491
start validation test
0.6424
0.742227979275
0.451892744479
0.561764705882
0.645183385227
15.735
#iterations: 140
currently lose_sum: 0.5933563113212585
time_elpased: 2.528
#iterations: 141
currently lose_sum: 0.5938400030136108
time_elpased: 2.516
#iterations: 142
currently lose_sum: 0.6428573727607727
time_elpased: 2.581
#iterations: 143
currently lose_sum: 0.585178554058075
time_elpased: 2.553
#iterations: 144
currently lose_sum: 0.5967883467674255
time_elpased: 2.505
#iterations: 145
currently lose_sum: 0.5308073163032532
time_elpased: 2.574
#iterations: 146
currently lose_sum: 0.5237996578216553
time_elpased: 2.554
#iterations: 147
currently lose_sum: 0.5369603633880615
time_elpased: 2.568
#iterations: 148
currently lose_sum: 0.6750209331512451
time_elpased: 2.54
#iterations: 149
currently lose_sum: 0.5885148644447327
time_elpased: 2.603
#iterations: 150
currently lose_sum: 0.6611636281013489
time_elpased: 2.557
#iterations: 151
currently lose_sum: 0.610345721244812
time_elpased: 2.551
#iterations: 152
currently lose_sum: 0.5640866756439209
time_elpased: 2.584
#iterations: 153
currently lose_sum: 0.7050879597663879
time_elpased: 2.558
#iterations: 154
currently lose_sum: 0.6053014993667603
time_elpased: 2.556
#iterations: 155
currently lose_sum: 0.5507413744926453
time_elpased: 2.502
#iterations: 156
currently lose_sum: 0.5915206074714661
time_elpased: 2.58
#iterations: 157
currently lose_sum: 0.6412726640701294
time_elpased: 2.58
#iterations: 158
currently lose_sum: 0.5261214971542358
time_elpased: 2.504
#iterations: 159
currently lose_sum: 0.5883473753929138
time_elpased: 2.506
start validation test
0.6652
0.63840719332
0.783911671924
0.703716814159
0.663465576222
15.337
#iterations: 160
currently lose_sum: 0.6058138012886047
time_elpased: 2.51
#iterations: 161
currently lose_sum: 0.6749438643455505
time_elpased: 2.582
#iterations: 162
currently lose_sum: 0.6052889823913574
time_elpased: 2.564
#iterations: 163
currently lose_sum: 0.6631773114204407
time_elpased: 2.5
#iterations: 164
currently lose_sum: 0.606783390045166
time_elpased: 2.498
#iterations: 165
currently lose_sum: 0.6076812148094177
time_elpased: 2.528
#iterations: 166
currently lose_sum: 0.5435432195663452
time_elpased: 2.529
#iterations: 167
currently lose_sum: 0.5827494859695435
time_elpased: 2.538
#iterations: 168
currently lose_sum: 0.5892777442932129
time_elpased: 2.502
#iterations: 169
currently lose_sum: 0.6260988116264343
time_elpased: 2.472
#iterations: 170
currently lose_sum: 0.5412055253982544
time_elpased: 2.52
#iterations: 171
currently lose_sum: 0.642606258392334
time_elpased: 2.482
#iterations: 172
currently lose_sum: 0.5700024962425232
time_elpased: 2.554
#iterations: 173
currently lose_sum: 0.6219826340675354
time_elpased: 2.539
#iterations: 174
currently lose_sum: 0.5623529553413391
time_elpased: 2.553
#iterations: 175
currently lose_sum: 0.5611379742622375
time_elpased: 2.537
#iterations: 176
currently lose_sum: 0.5396602153778076
time_elpased: 2.538
#iterations: 177
currently lose_sum: 0.5397785305976868
time_elpased: 2.562
#iterations: 178
currently lose_sum: 0.5712774395942688
time_elpased: 2.533
#iterations: 179
currently lose_sum: 0.4856068789958954
time_elpased: 2.569
start validation test
0.6796
0.655978623914
0.774447949527
0.710307414105
0.678214234504
14.996
#iterations: 180
currently lose_sum: 0.5769489407539368
time_elpased: 2.538
#iterations: 181
currently lose_sum: 0.6023195385932922
time_elpased: 2.501
#iterations: 182
currently lose_sum: 0.5381742715835571
time_elpased: 2.519
#iterations: 183
currently lose_sum: 0.5835723876953125
time_elpased: 2.501
#iterations: 184
currently lose_sum: 0.5489049553871155
time_elpased: 2.542
#iterations: 185
currently lose_sum: 0.5802451968193054
time_elpased: 2.547
#iterations: 186
currently lose_sum: 0.5615335702896118
time_elpased: 2.512
#iterations: 187
currently lose_sum: 0.587446928024292
time_elpased: 2.569
#iterations: 188
currently lose_sum: 0.5954906940460205
time_elpased: 2.512
#iterations: 189
currently lose_sum: 0.5758360028266907
time_elpased: 2.52
#iterations: 190
currently lose_sum: 0.5666430592536926
time_elpased: 2.577
#iterations: 191
currently lose_sum: 0.5232349038124084
time_elpased: 2.515
#iterations: 192
currently lose_sum: 0.5369043946266174
time_elpased: 2.535
#iterations: 193
currently lose_sum: 0.5528467297554016
time_elpased: 2.484
#iterations: 194
currently lose_sum: 0.5571467280387878
time_elpased: 2.524
#iterations: 195
currently lose_sum: 0.5717090368270874
time_elpased: 2.503
#iterations: 196
currently lose_sum: 0.5327196717262268
time_elpased: 2.483
#iterations: 197
currently lose_sum: 0.5150324106216431
time_elpased: 2.496
#iterations: 198
currently lose_sum: 0.581946849822998
time_elpased: 2.533
#iterations: 199
currently lose_sum: 0.5652706623077393
time_elpased: 2.49
start validation test
0.6916
0.701868399675
0.681388012618
0.691476590636
0.691749201114
14.749
#iterations: 200
currently lose_sum: 0.530081033706665
time_elpased: 2.472
#iterations: 201
currently lose_sum: 0.6075918078422546
time_elpased: 2.519
#iterations: 202
currently lose_sum: 0.5423595905303955
time_elpased: 2.497
#iterations: 203
currently lose_sum: 0.5671061277389526
time_elpased: 2.513
#iterations: 204
currently lose_sum: 0.5384260416030884
time_elpased: 2.474
#iterations: 205
currently lose_sum: 0.5538977980613708
time_elpased: 2.503
#iterations: 206
currently lose_sum: 0.53791344165802
time_elpased: 2.513
#iterations: 207
currently lose_sum: 0.49424779415130615
time_elpased: 2.61
#iterations: 208
currently lose_sum: 0.5706413388252258
time_elpased: 2.561
#iterations: 209
currently lose_sum: 0.5673935413360596
time_elpased: 2.475
#iterations: 210
currently lose_sum: 0.5218926668167114
time_elpased: 2.501
#iterations: 211
currently lose_sum: 0.5958734154701233
time_elpased: 2.483
#iterations: 212
currently lose_sum: 0.5672430992126465
time_elpased: 2.534
#iterations: 213
currently lose_sum: 0.47647908329963684
time_elpased: 2.575
#iterations: 214
currently lose_sum: 0.6206904649734497
time_elpased: 2.564
#iterations: 215
currently lose_sum: 0.5660024881362915
time_elpased: 2.517
#iterations: 216
currently lose_sum: 0.5123107433319092
time_elpased: 2.506
#iterations: 217
currently lose_sum: 0.5145158171653748
time_elpased: 2.546
#iterations: 218
currently lose_sum: 0.594937264919281
time_elpased: 2.527
#iterations: 219
currently lose_sum: 0.5724667906761169
time_elpased: 2.542
start validation test
0.6632
0.789402173913
0.458201892744
0.579840319361
0.666195102216
15.785
#iterations: 220
currently lose_sum: 0.5191342234611511
time_elpased: 2.578
#iterations: 221
currently lose_sum: 0.5032065510749817
time_elpased: 2.467
#iterations: 222
currently lose_sum: 0.5038412809371948
time_elpased: 2.503
#iterations: 223
currently lose_sum: 0.5771125555038452
time_elpased: 2.544
#iterations: 224
currently lose_sum: 0.5030809640884399
time_elpased: 2.511
#iterations: 225
currently lose_sum: 0.4859696626663208
time_elpased: 2.485
#iterations: 226
currently lose_sum: 0.4861055612564087
time_elpased: 2.522
#iterations: 227
currently lose_sum: 0.5725182890892029
time_elpased: 2.562
#iterations: 228
currently lose_sum: 0.6150681376457214
time_elpased: 2.553
#iterations: 229
currently lose_sum: 0.5800342559814453
time_elpased: 2.477
#iterations: 230
currently lose_sum: 0.6002208590507507
time_elpased: 2.556
#iterations: 231
currently lose_sum: 0.5742930769920349
time_elpased: 2.5
#iterations: 232
currently lose_sum: 0.5729138851165771
time_elpased: 2.505
#iterations: 233
currently lose_sum: 0.549573540687561
time_elpased: 2.557
#iterations: 234
currently lose_sum: 0.5372431874275208
time_elpased: 2.481
#iterations: 235
currently lose_sum: 0.4922046363353729
time_elpased: 2.542
#iterations: 236
currently lose_sum: 0.526512622833252
time_elpased: 2.549
#iterations: 237
currently lose_sum: 0.5067964196205139
time_elpased: 2.5
#iterations: 238
currently lose_sum: 0.5587589144706726
time_elpased: 2.543
#iterations: 239
currently lose_sum: 0.5587748885154724
time_elpased: 2.555
start validation test
0.6872
0.734104046243
0.60094637224
0.660884648742
0.688460199107
14.708
#iterations: 240
currently lose_sum: 0.5408033132553101
time_elpased: 2.517
#iterations: 241
currently lose_sum: 0.518254280090332
time_elpased: 2.584
#iterations: 242
currently lose_sum: 0.5456880331039429
time_elpased: 2.501
#iterations: 243
currently lose_sum: 0.5940788388252258
time_elpased: 2.506
#iterations: 244
currently lose_sum: 0.5374833941459656
time_elpased: 2.513
#iterations: 245
currently lose_sum: 0.5443124175071716
time_elpased: 2.528
#iterations: 246
currently lose_sum: 0.5541313290596008
time_elpased: 2.564
#iterations: 247
currently lose_sum: 0.4388352334499359
time_elpased: 2.485
#iterations: 248
currently lose_sum: 0.5176212787628174
time_elpased: 2.546
#iterations: 249
currently lose_sum: 0.5778587460517883
time_elpased: 2.504
#iterations: 250
currently lose_sum: 0.581204891204834
time_elpased: 2.531
#iterations: 251
currently lose_sum: 0.4849449396133423
time_elpased: 2.527
#iterations: 252
currently lose_sum: 0.629613995552063
time_elpased: 2.502
#iterations: 253
currently lose_sum: 0.6162975430488586
time_elpased: 2.506
#iterations: 254
currently lose_sum: 0.5229342579841614
time_elpased: 2.521
#iterations: 255
currently lose_sum: 0.5320552587509155
time_elpased: 2.519
#iterations: 256
currently lose_sum: 0.6056475043296814
time_elpased: 2.499
#iterations: 257
currently lose_sum: 0.5492953062057495
time_elpased: 2.495
#iterations: 258
currently lose_sum: 0.6842396259307861
time_elpased: 2.488
#iterations: 259
currently lose_sum: 0.5501412153244019
time_elpased: 2.512
start validation test
0.6564
0.787623066104
0.441640378549
0.565942395149
0.659537721742
15.577
#iterations: 260
currently lose_sum: 0.495491623878479
time_elpased: 2.484
#iterations: 261
currently lose_sum: 0.5213537812232971
time_elpased: 2.556
#iterations: 262
currently lose_sum: 0.5382307171821594
time_elpased: 2.536
#iterations: 263
currently lose_sum: 0.5066901445388794
time_elpased: 2.543
#iterations: 264
currently lose_sum: 0.4960887134075165
time_elpased: 2.528
#iterations: 265
currently lose_sum: 0.5637454986572266
time_elpased: 2.475
#iterations: 266
currently lose_sum: 0.5019232034683228
time_elpased: 2.54
#iterations: 267
currently lose_sum: 0.5793454051017761
time_elpased: 2.537
#iterations: 268
currently lose_sum: 0.4426915645599365
time_elpased: 2.516
#iterations: 269
currently lose_sum: 0.5164528489112854
time_elpased: 2.544
#iterations: 270
currently lose_sum: 0.5432509779930115
time_elpased: 2.528
#iterations: 271
currently lose_sum: 0.5915642976760864
time_elpased: 2.547
#iterations: 272
currently lose_sum: 0.5203502178192139
time_elpased: 2.492
#iterations: 273
currently lose_sum: 0.6133525371551514
time_elpased: 2.521
#iterations: 274
currently lose_sum: 0.5261930227279663
time_elpased: 2.496
#iterations: 275
currently lose_sum: 0.7315776944160461
time_elpased: 2.506
#iterations: 276
currently lose_sum: 0.47370460629463196
time_elpased: 2.531
#iterations: 277
currently lose_sum: 0.6380813717842102
time_elpased: 2.525
#iterations: 278
currently lose_sum: 0.5555580854415894
time_elpased: 2.51
#iterations: 279
currently lose_sum: 0.4866853952407837
time_elpased: 2.479
start validation test
0.6868
0.648499693815
0.835173501577
0.730093071355
0.684632205334
15.250
#iterations: 280
currently lose_sum: 0.5522898435592651
time_elpased: 2.561
#iterations: 281
currently lose_sum: 0.5713699460029602
time_elpased: 2.49
#iterations: 282
currently lose_sum: 0.5383598208427429
time_elpased: 2.572
#iterations: 283
currently lose_sum: 0.5324010252952576
time_elpased: 2.524
#iterations: 284
currently lose_sum: 0.5404982566833496
time_elpased: 2.527
#iterations: 285
currently lose_sum: 0.5861238837242126
time_elpased: 2.529
#iterations: 286
currently lose_sum: 0.5066301226615906
time_elpased: 2.495
#iterations: 287
currently lose_sum: 0.5025888681411743
time_elpased: 2.495
#iterations: 288
currently lose_sum: 0.5211448073387146
time_elpased: 2.563
#iterations: 289
currently lose_sum: 0.509936511516571
time_elpased: 2.59
#iterations: 290
currently lose_sum: 0.5467225909233093
time_elpased: 2.567
#iterations: 291
currently lose_sum: 0.456522673368454
time_elpased: 2.489
#iterations: 292
currently lose_sum: 0.5660538077354431
time_elpased: 2.531
#iterations: 293
currently lose_sum: 0.5033454895019531
time_elpased: 2.601
#iterations: 294
currently lose_sum: 0.5661839842796326
time_elpased: 2.541
#iterations: 295
currently lose_sum: 0.47564560174942017
time_elpased: 2.559
#iterations: 296
currently lose_sum: 0.488917738199234
time_elpased: 2.537
#iterations: 297
currently lose_sum: 0.4506392776966095
time_elpased: 2.531
#iterations: 298
currently lose_sum: 0.5137365460395813
time_elpased: 2.511
#iterations: 299
currently lose_sum: 0.5189411044120789
time_elpased: 2.508
start validation test
0.6884
0.774410774411
0.544164037855
0.639184807781
0.690507343603
14.876
#iterations: 300
currently lose_sum: 0.6322749257087708
time_elpased: 2.499
#iterations: 301
currently lose_sum: 0.5253292918205261
time_elpased: 2.561
#iterations: 302
currently lose_sum: 0.6903603076934814
time_elpased: 2.541
#iterations: 303
currently lose_sum: 0.5030406713485718
time_elpased: 2.516
#iterations: 304
currently lose_sum: 0.5632858872413635
time_elpased: 2.541
#iterations: 305
currently lose_sum: 0.49771392345428467
time_elpased: 2.538
#iterations: 306
currently lose_sum: 0.4859273433685303
time_elpased: 2.564
#iterations: 307
currently lose_sum: 0.6148265600204468
time_elpased: 2.533
#iterations: 308
currently lose_sum: 0.5822821855545044
time_elpased: 2.554
#iterations: 309
currently lose_sum: 0.44111961126327515
time_elpased: 2.505
#iterations: 310
currently lose_sum: 0.48116347193717957
time_elpased: 2.562
#iterations: 311
currently lose_sum: 0.5156598687171936
time_elpased: 2.532
#iterations: 312
currently lose_sum: 0.5062314867973328
time_elpased: 2.519
#iterations: 313
currently lose_sum: 0.6965704560279846
time_elpased: 2.516
#iterations: 314
currently lose_sum: 0.5294539928436279
time_elpased: 2.5
#iterations: 315
currently lose_sum: 0.5582757592201233
time_elpased: 2.579
#iterations: 316
currently lose_sum: 0.6115723252296448
time_elpased: 2.569
#iterations: 317
currently lose_sum: 0.5529689788818359
time_elpased: 2.54
#iterations: 318
currently lose_sum: 0.5878223180770874
time_elpased: 2.489
#iterations: 319
currently lose_sum: 0.6257447004318237
time_elpased: 2.49
start validation test
0.6992
0.703791469194
0.702681388013
0.703235990529
0.699149135565
14.662
#iterations: 320
currently lose_sum: 0.4888969361782074
time_elpased: 2.521
#iterations: 321
currently lose_sum: 0.5356744527816772
time_elpased: 2.562
#iterations: 322
currently lose_sum: 0.4364740252494812
time_elpased: 2.513
#iterations: 323
currently lose_sum: 0.5747718214988708
time_elpased: 2.546
#iterations: 324
currently lose_sum: 0.6423271298408508
time_elpased: 2.487
#iterations: 325
currently lose_sum: 0.5792238712310791
time_elpased: 2.559
#iterations: 326
currently lose_sum: 0.6089272499084473
time_elpased: 2.529
#iterations: 327
currently lose_sum: 0.5899004340171814
time_elpased: 2.531
#iterations: 328
currently lose_sum: 0.5088502764701843
time_elpased: 2.543
#iterations: 329
currently lose_sum: 0.5151040554046631
time_elpased: 2.576
#iterations: 330
currently lose_sum: 0.5156338214874268
time_elpased: 2.552
#iterations: 331
currently lose_sum: 0.5394156575202942
time_elpased: 2.512
#iterations: 332
currently lose_sum: 0.46445778012275696
time_elpased: 2.599
#iterations: 333
currently lose_sum: 0.5038621425628662
time_elpased: 2.533
#iterations: 334
currently lose_sum: 0.5284069776535034
time_elpased: 2.523
#iterations: 335
currently lose_sum: 0.48409003019332886
time_elpased: 2.531
#iterations: 336
currently lose_sum: 0.4507644772529602
time_elpased: 2.515
#iterations: 337
currently lose_sum: 0.45742303133010864
time_elpased: 2.565
#iterations: 338
currently lose_sum: 0.4984201192855835
time_elpased: 2.535
#iterations: 339
currently lose_sum: 0.4494188725948334
time_elpased: 2.483
start validation test
0.7
0.763211382114
0.592271293375
0.666962699822
0.701573958376
14.267
#iterations: 340
currently lose_sum: 0.4735508859157562
time_elpased: 2.526
#iterations: 341
currently lose_sum: 0.5526546239852905
time_elpased: 2.5
#iterations: 342
currently lose_sum: 0.4878087639808655
time_elpased: 2.479
#iterations: 343
currently lose_sum: 0.688611626625061
time_elpased: 2.509
#iterations: 344
currently lose_sum: 0.5699049830436707
time_elpased: 2.504
#iterations: 345
currently lose_sum: 0.5847971439361572
time_elpased: 2.479
#iterations: 346
currently lose_sum: 0.5595746040344238
time_elpased: 2.588
#iterations: 347
currently lose_sum: 0.4384289085865021
time_elpased: 2.537
#iterations: 348
currently lose_sum: 0.4411877691745758
time_elpased: 2.521
#iterations: 349
currently lose_sum: 0.4438130259513855
time_elpased: 2.534
#iterations: 350
currently lose_sum: 0.4777587950229645
time_elpased: 2.493
#iterations: 351
currently lose_sum: 0.5075016617774963
time_elpased: 2.516
#iterations: 352
currently lose_sum: 0.5346417427062988
time_elpased: 2.523
#iterations: 353
currently lose_sum: 0.6397753357887268
time_elpased: 2.524
#iterations: 354
currently lose_sum: 0.503614068031311
time_elpased: 2.545
#iterations: 355
currently lose_sum: 0.4721403121948242
time_elpased: 2.548
#iterations: 356
currently lose_sum: 0.48525717854499817
time_elpased: 2.555
#iterations: 357
currently lose_sum: 0.475774884223938
time_elpased: 2.528
#iterations: 358
currently lose_sum: 0.508359432220459
time_elpased: 2.513
#iterations: 359
currently lose_sum: 0.5104721188545227
time_elpased: 2.508
start validation test
0.7148
0.714285714286
0.729495268139
0.721810378463
0.714585296407
13.963
#iterations: 360
currently lose_sum: 0.5797903537750244
time_elpased: 2.543
#iterations: 361
currently lose_sum: 0.6230975985527039
time_elpased: 2.551
#iterations: 362
currently lose_sum: 0.40480706095695496
time_elpased: 2.498
#iterations: 363
currently lose_sum: 0.387140154838562
time_elpased: 2.585
#iterations: 364
currently lose_sum: 0.6057283878326416
time_elpased: 2.544
#iterations: 365
currently lose_sum: 0.6034534573554993
time_elpased: 2.53
#iterations: 366
currently lose_sum: 0.5715709924697876
time_elpased: 2.616
#iterations: 367
currently lose_sum: 0.4653262794017792
time_elpased: 2.549
#iterations: 368
currently lose_sum: 0.4387322962284088
time_elpased: 2.543
#iterations: 369
currently lose_sum: 0.482423335313797
time_elpased: 2.516
#iterations: 370
currently lose_sum: 0.48375633358955383
time_elpased: 2.546
#iterations: 371
currently lose_sum: 0.5101814270019531
time_elpased: 2.523
#iterations: 372
currently lose_sum: 0.5502731800079346
time_elpased: 2.554
#iterations: 373
currently lose_sum: 0.5335888862609863
time_elpased: 2.564
#iterations: 374
currently lose_sum: 0.4387752115726471
time_elpased: 2.471
#iterations: 375
currently lose_sum: 0.5002601742744446
time_elpased: 2.544
#iterations: 376
currently lose_sum: 0.46227043867111206
time_elpased: 2.583
#iterations: 377
currently lose_sum: 0.6125076413154602
time_elpased: 2.509
#iterations: 378
currently lose_sum: 0.5212342143058777
time_elpased: 2.515
#iterations: 379
currently lose_sum: 0.5501992702484131
time_elpased: 2.52
start validation test
0.718
0.742463393626
0.679810725552
0.709757101688
0.718557960179
13.857
#iterations: 380
currently lose_sum: 0.5192186236381531
time_elpased: 2.533
#iterations: 381
currently lose_sum: 0.6250426173210144
time_elpased: 2.576
#iterations: 382
currently lose_sum: 0.7205436825752258
time_elpased: 2.542
#iterations: 383
currently lose_sum: 0.4619768559932709
time_elpased: 2.501
#iterations: 384
currently lose_sum: 0.5999632477760315
time_elpased: 2.541
#iterations: 385
currently lose_sum: 0.6119624972343445
time_elpased: 2.508
#iterations: 386
currently lose_sum: 0.5958575010299683
time_elpased: 2.59
#iterations: 387
currently lose_sum: 0.442173033952713
time_elpased: 2.544
#iterations: 388
currently lose_sum: 0.3971653878688812
time_elpased: 2.521
#iterations: 389
currently lose_sum: 0.5279103517532349
time_elpased: 2.544
#iterations: 390
currently lose_sum: 0.4846830666065216
time_elpased: 2.532
#iterations: 391
currently lose_sum: 0.4589667022228241
time_elpased: 2.58
#iterations: 392
currently lose_sum: 0.4869101345539093
time_elpased: 2.505
#iterations: 393
currently lose_sum: 0.5328421592712402
time_elpased: 2.513
#iterations: 394
currently lose_sum: 0.4321669638156891
time_elpased: 2.487
#iterations: 395
currently lose_sum: 0.4775453805923462
time_elpased: 2.514
#iterations: 396
currently lose_sum: 0.493259072303772
time_elpased: 2.5
#iterations: 397
currently lose_sum: 0.4273386001586914
time_elpased: 2.506
#iterations: 398
currently lose_sum: 0.5842119455337524
time_elpased: 2.484
#iterations: 399
currently lose_sum: 0.49162232875823975
time_elpased: 2.532
start validation test
0.7012
0.785949506037
0.564668769716
0.657182193667
0.703194774468
14.612
#iterations: 400
currently lose_sum: 0.40874573588371277
time_elpased: 2.527
#iterations: 401
currently lose_sum: 0.5855669379234314
time_elpased: 2.546
#iterations: 402
currently lose_sum: 0.47598522901535034
time_elpased: 2.528
#iterations: 403
currently lose_sum: 0.4576275646686554
time_elpased: 2.537
#iterations: 404
currently lose_sum: 0.44612449407577515
time_elpased: 2.494
#iterations: 405
currently lose_sum: 0.48212936520576477
time_elpased: 2.541
#iterations: 406
currently lose_sum: 0.4871699810028076
time_elpased: 2.491
#iterations: 407
currently lose_sum: 0.5797560811042786
time_elpased: 2.536
#iterations: 408
currently lose_sum: 0.5186527371406555
time_elpased: 2.494
#iterations: 409
currently lose_sum: 0.4297177791595459
time_elpased: 2.469
#iterations: 410
currently lose_sum: 0.47271957993507385
time_elpased: 2.516
#iterations: 411
currently lose_sum: 0.3314286768436432
time_elpased: 2.51
#iterations: 412
currently lose_sum: 0.5064669251441956
time_elpased: 2.52
#iterations: 413
currently lose_sum: 0.4934559762477875
time_elpased: 2.524
#iterations: 414
currently lose_sum: 0.5782690644264221
time_elpased: 2.508
#iterations: 415
currently lose_sum: 0.39895880222320557
time_elpased: 2.528
#iterations: 416
currently lose_sum: 0.561433732509613
time_elpased: 2.507
#iterations: 417
currently lose_sum: 0.4474066495895386
time_elpased: 2.55
#iterations: 418
currently lose_sum: 0.44581565260887146
time_elpased: 2.512
#iterations: 419
currently lose_sum: 0.4727843105792999
time_elpased: 2.5
start validation test
0.704
0.78144989339
0.578075709779
0.664551223935
0.705839802942
14.590
#iterations: 420
currently lose_sum: 0.4745718836784363
time_elpased: 2.556
#iterations: 421
currently lose_sum: 0.4859095513820648
time_elpased: 2.558
#iterations: 422
currently lose_sum: 0.5159083008766174
time_elpased: 2.511
#iterations: 423
currently lose_sum: 0.4610561430454254
time_elpased: 2.487
#iterations: 424
currently lose_sum: 0.49011993408203125
time_elpased: 2.497
#iterations: 425
currently lose_sum: 0.4019148349761963
time_elpased: 2.545
#iterations: 426
currently lose_sum: 0.43242210149765015
time_elpased: 2.487
#iterations: 427
currently lose_sum: 0.4531153738498688
time_elpased: 2.486
#iterations: 428
currently lose_sum: 0.5479626655578613
time_elpased: 2.486
#iterations: 429
currently lose_sum: 0.43681904673576355
time_elpased: 2.496
#iterations: 430
currently lose_sum: 0.6290023326873779
time_elpased: 2.446
#iterations: 431
currently lose_sum: 0.573982834815979
time_elpased: 2.518
#iterations: 432
currently lose_sum: 0.477295845746994
time_elpased: 2.554
#iterations: 433
currently lose_sum: 0.37869793176651
time_elpased: 2.556
#iterations: 434
currently lose_sum: 0.4368640184402466
time_elpased: 2.516
#iterations: 435
currently lose_sum: 0.48820799589157104
time_elpased: 2.548
#iterations: 436
currently lose_sum: 0.5106980800628662
time_elpased: 2.51
#iterations: 437
currently lose_sum: 0.4568597376346588
time_elpased: 2.5
#iterations: 438
currently lose_sum: 0.5040162205696106
time_elpased: 2.529
#iterations: 439
currently lose_sum: 0.4834744930267334
time_elpased: 2.498
start validation test
0.726
0.707473309609
0.783911671924
0.743733632623
0.72515388791
13.897
#iterations: 440
currently lose_sum: 0.5223857164382935
time_elpased: 2.542
#iterations: 441
currently lose_sum: 0.45416009426116943
time_elpased: 2.569
#iterations: 442
currently lose_sum: 0.5754790306091309
time_elpased: 2.506
#iterations: 443
currently lose_sum: 0.48272469639778137
time_elpased: 2.532
#iterations: 444
currently lose_sum: 0.4679242670536041
time_elpased: 2.582
#iterations: 445
currently lose_sum: 0.47356942296028137
time_elpased: 2.507
#iterations: 446
currently lose_sum: 0.6286759376525879
time_elpased: 2.538
#iterations: 447
currently lose_sum: 0.4688952565193176
time_elpased: 2.535
#iterations: 448
currently lose_sum: 0.41104042530059814
time_elpased: 2.545
#iterations: 449
currently lose_sum: 0.4547367990016937
time_elpased: 2.591
#iterations: 450
currently lose_sum: 0.4731161892414093
time_elpased: 2.576
#iterations: 451
currently lose_sum: 0.6298753023147583
time_elpased: 2.527
#iterations: 452
currently lose_sum: 0.42823782563209534
time_elpased: 2.541
#iterations: 453
currently lose_sum: 0.5115814805030823
time_elpased: 2.5
#iterations: 454
currently lose_sum: 0.37742120027542114
time_elpased: 2.56
#iterations: 455
currently lose_sum: 0.497298002243042
time_elpased: 2.501
#iterations: 456
currently lose_sum: 0.4540921449661255
time_elpased: 2.524
#iterations: 457
currently lose_sum: 0.4734978973865509
time_elpased: 2.571
#iterations: 458
currently lose_sum: 0.49069932103157043
time_elpased: 2.566
#iterations: 459
currently lose_sum: 0.4332736134529114
time_elpased: 2.533
start validation test
0.7296
0.711126961484
0.786277602524
0.746816479401
0.728771918145
13.830
#iterations: 460
currently lose_sum: 0.4980873763561249
time_elpased: 2.516
#iterations: 461
currently lose_sum: 0.444335013628006
time_elpased: 2.509
#iterations: 462
currently lose_sum: 0.4827154576778412
time_elpased: 2.544
#iterations: 463
currently lose_sum: 0.4485451579093933
time_elpased: 2.47
#iterations: 464
currently lose_sum: 0.48315688967704773
time_elpased: 2.6
#iterations: 465
currently lose_sum: 0.6157541871070862
time_elpased: 2.499
#iterations: 466
currently lose_sum: 0.5470865368843079
time_elpased: 2.491
#iterations: 467
currently lose_sum: 0.5826090574264526
time_elpased: 2.54
#iterations: 468
currently lose_sum: 0.4380950927734375
time_elpased: 2.519
#iterations: 469
currently lose_sum: 0.47555673122406006
time_elpased: 2.547
#iterations: 470
currently lose_sum: 0.4897802770137787
time_elpased: 2.5
#iterations: 471
currently lose_sum: 0.5249510407447815
time_elpased: 2.514
#iterations: 472
currently lose_sum: 0.42991653084754944
time_elpased: 2.543
#iterations: 473
currently lose_sum: 0.42286357283592224
time_elpased: 2.49
#iterations: 474
currently lose_sum: 0.4123944938182831
time_elpased: 2.523
#iterations: 475
currently lose_sum: 0.7323607802391052
time_elpased: 2.526
#iterations: 476
currently lose_sum: 0.541857123374939
time_elpased: 2.551
#iterations: 477
currently lose_sum: 0.5279214978218079
time_elpased: 2.494
#iterations: 478
currently lose_sum: 0.5592136383056641
time_elpased: 2.492
#iterations: 479
currently lose_sum: 0.48895037174224854
time_elpased: 2.498
start validation test
0.6108
0.869674185464
0.273659305994
0.416316736653
0.615725756893
19.657
#iterations: 480
currently lose_sum: 0.5013099908828735
time_elpased: 2.544
#iterations: 481
currently lose_sum: 0.4780918061733246
time_elpased: 2.53
#iterations: 482
currently lose_sum: 0.5748803615570068
time_elpased: 2.543
#iterations: 483
currently lose_sum: 0.44254571199417114
time_elpased: 2.486
#iterations: 484
currently lose_sum: 0.5303795337677002
time_elpased: 2.494
#iterations: 485
currently lose_sum: 0.4075196385383606
time_elpased: 2.495
#iterations: 486
currently lose_sum: 0.5846754312515259
time_elpased: 2.535
#iterations: 487
currently lose_sum: 0.5165103673934937
time_elpased: 2.502
#iterations: 488
currently lose_sum: 0.45738670229911804
time_elpased: 2.543
#iterations: 489
currently lose_sum: 0.5323073863983154
time_elpased: 2.53
#iterations: 490
currently lose_sum: 0.43264105916023254
time_elpased: 2.516
#iterations: 491
currently lose_sum: 0.4927677810192108
time_elpased: 2.52
#iterations: 492
currently lose_sum: 0.4104717969894409
time_elpased: 2.532
#iterations: 493
currently lose_sum: 0.4763890504837036
time_elpased: 2.516
#iterations: 494
currently lose_sum: 0.5081655383110046
time_elpased: 2.506
#iterations: 495
currently lose_sum: 0.5510962605476379
time_elpased: 2.516
#iterations: 496
currently lose_sum: 0.4989965558052063
time_elpased: 2.575
#iterations: 497
currently lose_sum: 0.5107674598693848
time_elpased: 2.512
#iterations: 498
currently lose_sum: 0.43669554591178894
time_elpased: 2.541
#iterations: 499
currently lose_sum: 0.4295804500579834
time_elpased: 2.592
start validation test
0.7264
0.774952919021
0.64905362776
0.70643776824
0.727530060633
13.825
#iterations: 500
currently lose_sum: 0.542479395866394
time_elpased: 2.493
#iterations: 501
currently lose_sum: 0.4136800467967987
time_elpased: 2.521
#iterations: 502
currently lose_sum: 0.5514228940010071
time_elpased: 2.522
#iterations: 503
currently lose_sum: 0.4688304662704468
time_elpased: 2.548
#iterations: 504
currently lose_sum: 0.4909270107746124
time_elpased: 2.504
#iterations: 505
currently lose_sum: 0.36419790983200073
time_elpased: 2.516
#iterations: 506
currently lose_sum: 0.41444361209869385
time_elpased: 2.554
#iterations: 507
currently lose_sum: 0.48763370513916016
time_elpased: 2.523
#iterations: 508
currently lose_sum: 0.650291919708252
time_elpased: 2.504
#iterations: 509
currently lose_sum: 0.5789499878883362
time_elpased: 2.554
#iterations: 510
currently lose_sum: 0.35109421610832214
time_elpased: 2.582
#iterations: 511
currently lose_sum: 0.5155386924743652
time_elpased: 2.55
#iterations: 512
currently lose_sum: 0.5105319023132324
time_elpased: 2.588
#iterations: 513
currently lose_sum: 0.569212794303894
time_elpased: 2.546
#iterations: 514
currently lose_sum: 0.537416934967041
time_elpased: 2.593
#iterations: 515
currently lose_sum: 0.4110826849937439
time_elpased: 2.503
#iterations: 516
currently lose_sum: 0.38776102662086487
time_elpased: 2.558
#iterations: 517
currently lose_sum: 0.35172921419143677
time_elpased: 2.533
#iterations: 518
currently lose_sum: 0.4775172472000122
time_elpased: 2.52
#iterations: 519
currently lose_sum: 0.4192782938480377
time_elpased: 2.495
start validation test
0.6892
0.816774193548
0.499211356467
0.619676945668
0.691975808104
15.154
#iterations: 520
currently lose_sum: 0.4580127000808716
time_elpased: 2.503
#iterations: 521
currently lose_sum: 0.4213069677352905
time_elpased: 2.521
#iterations: 522
currently lose_sum: 0.44861358404159546
time_elpased: 2.509
#iterations: 523
currently lose_sum: 0.5081770420074463
time_elpased: 2.573
#iterations: 524
currently lose_sum: 0.36514148116111755
time_elpased: 2.517
#iterations: 525
currently lose_sum: 0.5694378614425659
time_elpased: 2.586
#iterations: 526
currently lose_sum: 0.4810912609100342
time_elpased: 2.569
#iterations: 527
currently lose_sum: 0.5500506162643433
time_elpased: 2.521
#iterations: 528
currently lose_sum: 0.40392357110977173
time_elpased: 2.578
#iterations: 529
currently lose_sum: 0.48585227131843567
time_elpased: 2.538
#iterations: 530
currently lose_sum: 0.4091652035713196
time_elpased: 2.487
#iterations: 531
currently lose_sum: 0.4465768337249756
time_elpased: 2.531
#iterations: 532
currently lose_sum: 0.482941210269928
time_elpased: 2.507
#iterations: 533
currently lose_sum: 0.43912234902381897
time_elpased: 2.533
#iterations: 534
currently lose_sum: 0.5529406666755676
time_elpased: 2.523
#iterations: 535
currently lose_sum: 0.4582606554031372
time_elpased: 2.551
#iterations: 536
currently lose_sum: 0.5052474737167358
time_elpased: 2.525
#iterations: 537
currently lose_sum: 0.5053078532218933
time_elpased: 2.519
#iterations: 538
currently lose_sum: 0.4946064352989197
time_elpased: 2.586
#iterations: 539
currently lose_sum: 0.4608398377895355
time_elpased: 2.51
start validation test
0.702
0.661320172733
0.845425867508
0.742125302873
0.699904492196
15.323
#iterations: 540
currently lose_sum: 0.5250133275985718
time_elpased: 2.541
#iterations: 541
currently lose_sum: 0.40917181968688965
time_elpased: 2.484
#iterations: 542
currently lose_sum: 0.36564964056015015
time_elpased: 2.539
#iterations: 543
currently lose_sum: 0.4494437277317047
time_elpased: 2.512
#iterations: 544
currently lose_sum: 0.5362611413002014
time_elpased: 2.563
#iterations: 545
currently lose_sum: 0.3401670455932617
time_elpased: 2.522
#iterations: 546
currently lose_sum: 0.4966661036014557
time_elpased: 2.54
#iterations: 547
currently lose_sum: 0.47144225239753723
time_elpased: 2.518
#iterations: 548
currently lose_sum: 0.5143725872039795
time_elpased: 2.467
#iterations: 549
currently lose_sum: 0.3538075387477875
time_elpased: 2.556
#iterations: 550
currently lose_sum: 0.5115965008735657
time_elpased: 2.534
#iterations: 551
currently lose_sum: 0.48803433775901794
time_elpased: 2.538
#iterations: 552
currently lose_sum: 0.4928661584854126
time_elpased: 2.525
#iterations: 553
currently lose_sum: 0.5796257853507996
time_elpased: 2.51
#iterations: 554
currently lose_sum: 0.45245876908302307
time_elpased: 2.543
#iterations: 555
currently lose_sum: 0.41328611969947815
time_elpased: 2.518
#iterations: 556
currently lose_sum: 0.42981094121932983
time_elpased: 2.47
#iterations: 557
currently lose_sum: 0.43289971351623535
time_elpased: 2.563
#iterations: 558
currently lose_sum: 0.436940997838974
time_elpased: 2.542
#iterations: 559
currently lose_sum: 0.5429555773735046
time_elpased: 2.533
start validation test
0.7352
0.754621848739
0.708201892744
0.73067534581
0.735594452866
13.571
#iterations: 560
currently lose_sum: 0.40684014558792114
time_elpased: 2.517
#iterations: 561
currently lose_sum: 0.4296211898326874
time_elpased: 2.527
#iterations: 562
currently lose_sum: 0.49871116876602173
time_elpased: 2.502
#iterations: 563
currently lose_sum: 0.49230751395225525
time_elpased: 2.543
#iterations: 564
currently lose_sum: 0.44122904539108276
time_elpased: 2.5
#iterations: 565
currently lose_sum: 0.4907108545303345
time_elpased: 2.502
#iterations: 566
currently lose_sum: 0.5297390222549438
time_elpased: 2.515
#iterations: 567
currently lose_sum: 0.5990185737609863
time_elpased: 2.454
#iterations: 568
currently lose_sum: 0.5434880256652832
time_elpased: 2.529
#iterations: 569
currently lose_sum: 0.40787261724472046
time_elpased: 2.521
#iterations: 570
currently lose_sum: 0.501911461353302
time_elpased: 2.496
#iterations: 571
currently lose_sum: 0.4632895290851593
time_elpased: 2.556
#iterations: 572
currently lose_sum: 0.5232058167457581
time_elpased: 2.549
#iterations: 573
currently lose_sum: 0.46532127261161804
time_elpased: 2.525
#iterations: 574
currently lose_sum: 0.5544529557228088
time_elpased: 2.543
#iterations: 575
currently lose_sum: 0.38458555936813354
time_elpased: 2.546
#iterations: 576
currently lose_sum: 0.43911704421043396
time_elpased: 2.52
#iterations: 577
currently lose_sum: 0.40828239917755127
time_elpased: 2.547
#iterations: 578
currently lose_sum: 0.49476584792137146
time_elpased: 2.506
#iterations: 579
currently lose_sum: 0.5475762486457825
time_elpased: 2.574
start validation test
0.7192
0.702142857143
0.77523659306
0.73688155922
0.718381283543
14.544
#iterations: 580
currently lose_sum: 0.47479620575904846
time_elpased: 2.549
#iterations: 581
currently lose_sum: 0.44594061374664307
time_elpased: 2.56
#iterations: 582
currently lose_sum: 0.5637916326522827
time_elpased: 2.515
#iterations: 583
currently lose_sum: 0.47438979148864746
time_elpased: 2.522
#iterations: 584
currently lose_sum: 0.5351856350898743
time_elpased: 2.542
#iterations: 585
currently lose_sum: 0.42723846435546875
time_elpased: 2.527
#iterations: 586
currently lose_sum: 0.4097146689891815
time_elpased: 2.533
#iterations: 587
currently lose_sum: 0.401569128036499
time_elpased: 2.499
#iterations: 588
currently lose_sum: 0.4935462474822998
time_elpased: 2.565
#iterations: 589
currently lose_sum: 0.4506605565547943
time_elpased: 2.537
#iterations: 590
currently lose_sum: 0.42449328303337097
time_elpased: 2.532
#iterations: 591
currently lose_sum: 0.4398883581161499
time_elpased: 2.571
#iterations: 592
currently lose_sum: 0.5088793635368347
time_elpased: 2.491
#iterations: 593
currently lose_sum: 0.4200759828090668
time_elpased: 2.502
#iterations: 594
currently lose_sum: 0.41852205991744995
time_elpased: 2.535
#iterations: 595
currently lose_sum: 0.45083945989608765
time_elpased: 2.581
#iterations: 596
currently lose_sum: 0.5056924223899841
time_elpased: 2.511
#iterations: 597
currently lose_sum: 0.45273661613464355
time_elpased: 2.528
#iterations: 598
currently lose_sum: 0.4751443564891815
time_elpased: 2.558
#iterations: 599
currently lose_sum: 0.45517826080322266
time_elpased: 2.535
start validation test
0.7192
0.778543307087
0.6238170347
0.692644483363
0.720593582285
14.009
acc: 0.722
pre: 0.740
rec: 0.695
F1: 0.717
auc: 0.722
