start to construct computing graph
graph construct over
3804
epochs start
#iterations: 0
currently lose_sum: 0.691059410572052
time_elpased: 20.58
#iterations: 1
currently lose_sum: 0.7009782195091248
time_elpased: 21.661
#iterations: 2
currently lose_sum: 0.686194658279419
time_elpased: 19.502
#iterations: 3
currently lose_sum: 0.7037507891654968
time_elpased: 21.093
#iterations: 4
currently lose_sum: 0.7241768836975098
time_elpased: 21.102
#iterations: 5
currently lose_sum: 0.6901201605796814
time_elpased: 21.043
#iterations: 6
currently lose_sum: 0.7219317555427551
time_elpased: 20.062
#iterations: 7
currently lose_sum: 0.6817411184310913
time_elpased: 12.931
#iterations: 8
currently lose_sum: 0.6802777647972107
time_elpased: 11.337
#iterations: 9
currently lose_sum: 0.6864076852798462
time_elpased: 11.284
#iterations: 10
currently lose_sum: 0.6970487236976624
time_elpased: 11.202
#iterations: 11
currently lose_sum: 0.7052407264709473
time_elpased: 11.238
#iterations: 12
currently lose_sum: 0.6809368133544922
time_elpased: 11.221
#iterations: 13
currently lose_sum: 0.6910296678543091
time_elpased: 11.375
#iterations: 14
currently lose_sum: 0.6897932291030884
time_elpased: 11.315
#iterations: 15
currently lose_sum: 0.714932382106781
time_elpased: 11.216
#iterations: 16
currently lose_sum: 0.68770432472229
time_elpased: 11.261
#iterations: 17
currently lose_sum: 0.6809095740318298
time_elpased: 11.216
#iterations: 18
currently lose_sum: 0.6726801991462708
time_elpased: 11.215
#iterations: 19
currently lose_sum: 0.677019476890564
time_elpased: 15.552
start validation test
0.5568
0.598757763975
0.380426203631
0.465250965251
0.559231755505
17.020
#iterations: 20
currently lose_sum: 0.6805049180984497
time_elpased: 20.501
#iterations: 21
currently lose_sum: 0.6738612651824951
time_elpased: 13.455
#iterations: 22
currently lose_sum: 0.6520938873291016
time_elpased: 18.904
#iterations: 23
currently lose_sum: 0.6990678310394287
time_elpased: 20.309
#iterations: 24
currently lose_sum: 0.6685973405838013
time_elpased: 20.876
#iterations: 25
currently lose_sum: 0.668092668056488
time_elpased: 20.619
#iterations: 26
currently lose_sum: 0.7158939242362976
time_elpased: 20.913
#iterations: 27
currently lose_sum: 0.6435055732727051
time_elpased: 20.447
#iterations: 28
currently lose_sum: 0.6748161911964417
time_elpased: 20.718
#iterations: 29
currently lose_sum: 0.7005003094673157
time_elpased: 20.333
#iterations: 30
currently lose_sum: 0.6683720350265503
time_elpased: 20.482
#iterations: 31
currently lose_sum: 0.6751870512962341
time_elpased: 20.911
#iterations: 32
currently lose_sum: 0.6892223954200745
time_elpased: 20.06
#iterations: 33
currently lose_sum: 0.6733404397964478
time_elpased: 20.329
#iterations: 34
currently lose_sum: 0.6801486015319824
time_elpased: 20.725
#iterations: 35
currently lose_sum: 0.6659713983535767
time_elpased: 20.114
#iterations: 36
currently lose_sum: 0.687211811542511
time_elpased: 20.731
#iterations: 37
currently lose_sum: 0.656497061252594
time_elpased: 20.59
#iterations: 38
currently lose_sum: 0.6523860096931458
time_elpased: 20.599
#iterations: 39
currently lose_sum: 0.675841212272644
time_elpased: 20.065
start validation test
0.5936
0.585084745763
0.681136543015
0.62946754194
0.592393089026
16.819
#iterations: 40
currently lose_sum: 0.6534037590026855
time_elpased: 21.071
#iterations: 41
currently lose_sum: 0.6832697987556458
time_elpased: 20.412
#iterations: 42
currently lose_sum: 0.669081449508667
time_elpased: 20.89
#iterations: 43
currently lose_sum: 0.6503881812095642
time_elpased: 20.394
#iterations: 44
currently lose_sum: 0.6652671098709106
time_elpased: 20.021
#iterations: 45
currently lose_sum: 0.6575189232826233
time_elpased: 20.443
#iterations: 46
currently lose_sum: 0.645796537399292
time_elpased: 17.652
#iterations: 47
currently lose_sum: 0.7311403155326843
time_elpased: 18.756
#iterations: 48
currently lose_sum: 0.6359126567840576
time_elpased: 19.232
#iterations: 49
currently lose_sum: 0.7253983020782471
time_elpased: 20.346
#iterations: 50
currently lose_sum: 0.6665177345275879
time_elpased: 20.701
#iterations: 51
currently lose_sum: 0.7387399077415466
time_elpased: 20.576
#iterations: 52
currently lose_sum: 0.6524200439453125
time_elpased: 20.359
#iterations: 53
currently lose_sum: 0.6709511280059814
time_elpased: 20.636
#iterations: 54
currently lose_sum: 0.6596802473068237
time_elpased: 20.244
#iterations: 55
currently lose_sum: 0.6276078224182129
time_elpased: 20.633
#iterations: 56
currently lose_sum: 0.6480390429496765
time_elpased: 20.596
#iterations: 57
currently lose_sum: 0.6380091905593872
time_elpased: 20.311
#iterations: 58
currently lose_sum: 0.6667382121086121
time_elpased: 20.449
#iterations: 59
currently lose_sum: 0.6627734303474426
time_elpased: 20.659
start validation test
0.5916
0.715789473684
0.322020520916
0.444202504083
0.595316829801
16.411
#iterations: 60
currently lose_sum: 0.6869453191757202
time_elpased: 20.683
#iterations: 61
currently lose_sum: 0.6287143230438232
time_elpased: 20.245
#iterations: 62
currently lose_sum: 0.6683605313301086
time_elpased: 20.651
#iterations: 63
currently lose_sum: 0.5952917337417603
time_elpased: 20.208
#iterations: 64
currently lose_sum: 0.6478538513183594
time_elpased: 20.855
#iterations: 65
currently lose_sum: 0.6560671925544739
time_elpased: 20.747
#iterations: 66
currently lose_sum: 0.6602563261985779
time_elpased: 20.695
#iterations: 67
currently lose_sum: 0.6434223651885986
time_elpased: 20.351
#iterations: 68
currently lose_sum: 0.6431477069854736
time_elpased: 20.66
#iterations: 69
currently lose_sum: 0.6574522256851196
time_elpased: 19.283
#iterations: 70
currently lose_sum: 0.6377988457679749
time_elpased: 19.644
#iterations: 71
currently lose_sum: 0.6551151275634766
time_elpased: 18.662
#iterations: 72
currently lose_sum: 0.654449999332428
time_elpased: 20.175
#iterations: 73
currently lose_sum: 0.6467999219894409
time_elpased: 20.096
#iterations: 74
currently lose_sum: 0.6104015111923218
time_elpased: 20.61
#iterations: 75
currently lose_sum: 0.6298316717147827
time_elpased: 20.633
#iterations: 76
currently lose_sum: 0.6458181738853455
time_elpased: 20.158
#iterations: 77
currently lose_sum: 0.6935150027275085
time_elpased: 20.528
#iterations: 78
currently lose_sum: 0.6491941809654236
time_elpased: 20.432
#iterations: 79
currently lose_sum: 0.6021376252174377
time_elpased: 20.546
start validation test
0.6092
0.579845814978
0.831097079716
0.68310087577
0.606140591764
16.880
#iterations: 80
currently lose_sum: 0.6291343569755554
time_elpased: 20.529
#iterations: 81
currently lose_sum: 0.6177991628646851
time_elpased: 20.321
#iterations: 82
currently lose_sum: 0.6088253855705261
time_elpased: 19.75
#iterations: 83
currently lose_sum: 0.6172996759414673
time_elpased: 20.795
#iterations: 84
currently lose_sum: 0.5956554412841797
time_elpased: 20.552
#iterations: 85
currently lose_sum: 0.6043175458908081
time_elpased: 20.606
#iterations: 86
currently lose_sum: 0.5873998403549194
time_elpased: 20.707
#iterations: 87
currently lose_sum: 0.6158859133720398
time_elpased: 20.596
#iterations: 88
currently lose_sum: 0.6227667927742004
time_elpased: 19.757
#iterations: 89
currently lose_sum: 0.7534195184707642
time_elpased: 20.609
#iterations: 90
currently lose_sum: 0.652564525604248
time_elpased: 20.694
#iterations: 91
currently lose_sum: 0.6156924366950989
time_elpased: 20.582
#iterations: 92
currently lose_sum: 0.636643648147583
time_elpased: 20.457
#iterations: 93
currently lose_sum: 0.6270626187324524
time_elpased: 20.133
#iterations: 94
currently lose_sum: 0.7076492309570312
time_elpased: 19.146
#iterations: 95
currently lose_sum: 0.6074104905128479
time_elpased: 19.699
#iterations: 96
currently lose_sum: 0.6340668201446533
time_elpased: 17.202
#iterations: 97
currently lose_sum: 0.5799649357795715
time_elpased: 20.072
#iterations: 98
currently lose_sum: 0.6048104763031006
time_elpased: 20.618
#iterations: 99
currently lose_sum: 0.5889340043067932
time_elpased: 20.568
start validation test
0.6268
0.746312684366
0.399368587214
0.52030848329
0.629935712909
15.895
#iterations: 100
currently lose_sum: 0.6262689232826233
time_elpased: 20.17
#iterations: 101
currently lose_sum: 0.5608400106430054
time_elpased: 20.2
#iterations: 102
currently lose_sum: 0.681855320930481
time_elpased: 19.92
#iterations: 103
currently lose_sum: 0.6505383253097534
time_elpased: 20.965
#iterations: 104
currently lose_sum: 0.6089165806770325
time_elpased: 20.608
#iterations: 105
currently lose_sum: 0.6224824786186218
time_elpased: 20.754
#iterations: 106
currently lose_sum: 0.6083238124847412
time_elpased: 20.565
#iterations: 107
currently lose_sum: 0.5652275085449219
time_elpased: 20.403
#iterations: 108
currently lose_sum: 0.6643785238265991
time_elpased: 20.806
#iterations: 109
currently lose_sum: 0.6123400926589966
time_elpased: 20.404
#iterations: 110
currently lose_sum: 0.637357234954834
time_elpased: 20.506
#iterations: 111
currently lose_sum: 0.5850441455841064
time_elpased: 20.718
#iterations: 112
currently lose_sum: 0.617843747138977
time_elpased: 20.733
#iterations: 113
currently lose_sum: 0.6115140318870544
time_elpased: 20.227
#iterations: 114
currently lose_sum: 0.6289535760879517
time_elpased: 20.172
#iterations: 115
currently lose_sum: 0.570816159248352
time_elpased: 20.307
#iterations: 116
currently lose_sum: 0.6195423603057861
time_elpased: 20.556
#iterations: 117
currently lose_sum: 0.6594453454017639
time_elpased: 20.617
#iterations: 118
currently lose_sum: 0.5387477278709412
time_elpased: 20.608
#iterations: 119
currently lose_sum: 0.5949883460998535
time_elpased: 19.191
start validation test
0.6564
0.624238733252
0.808997632202
0.704709522173
0.654296058599
15.289
#iterations: 120
currently lose_sum: 0.5920064449310303
time_elpased: 19.974
#iterations: 121
currently lose_sum: 0.7124814391136169
time_elpased: 16.57
#iterations: 122
currently lose_sum: 0.6136422157287598
time_elpased: 18.557
#iterations: 123
currently lose_sum: 0.5833859443664551
time_elpased: 19.467
#iterations: 124
currently lose_sum: 0.6347126960754395
time_elpased: 20.585
#iterations: 125
currently lose_sum: 0.6502568125724792
time_elpased: 20.547
#iterations: 126
currently lose_sum: 0.6024186611175537
time_elpased: 19.936
#iterations: 127
currently lose_sum: 0.6083099246025085
time_elpased: 20.516
#iterations: 128
currently lose_sum: 0.56956946849823
time_elpased: 20.196
#iterations: 129
currently lose_sum: 0.5594270825386047
time_elpased: 20.469
#iterations: 130
currently lose_sum: 0.5945038795471191
time_elpased: 20.088
#iterations: 131
currently lose_sum: 0.5498766899108887
time_elpased: 20.609
#iterations: 132
currently lose_sum: 0.5656359791755676
time_elpased: 19.545
#iterations: 133
currently lose_sum: 0.6415953040122986
time_elpased: 19.818
#iterations: 134
currently lose_sum: 0.6766787767410278
time_elpased: 20.606
#iterations: 135
currently lose_sum: 0.5969076156616211
time_elpased: 18.193
#iterations: 136
currently lose_sum: 0.6077240109443665
time_elpased: 20.602
#iterations: 137
currently lose_sum: 0.5781519412994385
time_elpased: 20.033
#iterations: 138
currently lose_sum: 0.5643105506896973
time_elpased: 20.307
#iterations: 139
currently lose_sum: 0.5627267360687256
time_elpased: 20.434
start validation test
0.6412
0.769679300292
0.416732438832
0.540706605223
0.644294848775
15.639
#iterations: 140
currently lose_sum: 0.5667092204093933
time_elpased: 19.559
#iterations: 141
currently lose_sum: 0.572494387626648
time_elpased: 20.503
#iterations: 142
currently lose_sum: 0.6013909578323364
time_elpased: 20.457
#iterations: 143
currently lose_sum: 0.5323663949966431
time_elpased: 20.649
#iterations: 144
currently lose_sum: 0.5896236896514893
time_elpased: 20.5
#iterations: 145
currently lose_sum: 0.584538459777832
time_elpased: 20.117
#iterations: 146
currently lose_sum: 0.5294643640518188
time_elpased: 19.153
#iterations: 147
currently lose_sum: 0.5150548219680786
time_elpased: 20.599
#iterations: 148
currently lose_sum: 0.48866188526153564
time_elpased: 20.086
#iterations: 149
currently lose_sum: 0.6109873652458191
time_elpased: 20.605
#iterations: 150
currently lose_sum: 0.6443855166435242
time_elpased: 20.513
#iterations: 151
currently lose_sum: 0.5680892467498779
time_elpased: 19.835
#iterations: 152
currently lose_sum: 0.6204678416252136
time_elpased: 19.79
#iterations: 153
currently lose_sum: 0.5666899085044861
time_elpased: 20.6
#iterations: 154
currently lose_sum: 0.6063342690467834
time_elpased: 20.06
#iterations: 155
currently lose_sum: 0.6309877634048462
time_elpased: 20.598
#iterations: 156
currently lose_sum: 0.6006229519844055
time_elpased: 20.361
#iterations: 157
currently lose_sum: 0.5330365300178528
time_elpased: 20.212
#iterations: 158
currently lose_sum: 0.533654510974884
time_elpased: 19.963
#iterations: 159
currently lose_sum: 0.5536909699440002
time_elpased: 19.36
start validation test
0.5616
0.840637450199
0.166535122336
0.277997364954
0.567046961006
19.120
#iterations: 160
currently lose_sum: 0.5687068104743958
time_elpased: 20.079
#iterations: 161
currently lose_sum: 0.5979799032211304
time_elpased: 20.747
#iterations: 162
currently lose_sum: 0.5598748922348022
time_elpased: 20.606
#iterations: 163
currently lose_sum: 0.6305180788040161
time_elpased: 20.531
#iterations: 164
currently lose_sum: 0.5502227544784546
time_elpased: 20.522
#iterations: 165
currently lose_sum: 0.6036377549171448
time_elpased: 19.498
#iterations: 166
currently lose_sum: 0.52906733751297
time_elpased: 20.689
#iterations: 167
currently lose_sum: 0.5355391502380371
time_elpased: 21.291
#iterations: 168
currently lose_sum: 0.5748713612556458
time_elpased: 21.66
#iterations: 169
currently lose_sum: 0.5915245413780212
time_elpased: 20.838
#iterations: 170
currently lose_sum: 0.6191423535346985
time_elpased: 16.407
#iterations: 171
currently lose_sum: 0.5828759074211121
time_elpased: 17.49
#iterations: 172
currently lose_sum: 0.5566205382347107
time_elpased: 18.287
#iterations: 173
currently lose_sum: 0.5897495150566101
time_elpased: 20.17
#iterations: 174
currently lose_sum: 0.6809380054473877
time_elpased: 19.624
#iterations: 175
currently lose_sum: 0.6272247433662415
time_elpased: 20.434
#iterations: 176
currently lose_sum: 0.5963461399078369
time_elpased: 20.601
#iterations: 177
currently lose_sum: 0.5138332843780518
time_elpased: 20.565
#iterations: 178
currently lose_sum: 0.5216379761695862
time_elpased: 20.525
#iterations: 179
currently lose_sum: 0.5668964982032776
time_elpased: 20.642
start validation test
0.6268
0.795053003534
0.355169692186
0.490998363339
0.630545105623
15.936
#iterations: 180
currently lose_sum: 0.585149347782135
time_elpased: 20.679
#iterations: 181
currently lose_sum: 0.5797718167304993
time_elpased: 20.637
#iterations: 182
currently lose_sum: 0.5798105001449585
time_elpased: 20.452
#iterations: 183
currently lose_sum: 0.5673480033874512
time_elpased: 20.383
#iterations: 184
currently lose_sum: 0.5500696897506714
time_elpased: 20.395
#iterations: 185
currently lose_sum: 0.5685575604438782
time_elpased: 20.598
#iterations: 186
currently lose_sum: 0.5192811489105225
time_elpased: 20.28
#iterations: 187
currently lose_sum: 0.6174141764640808
time_elpased: 20.597
#iterations: 188
currently lose_sum: 0.5667915344238281
time_elpased: 20.742
#iterations: 189
currently lose_sum: 0.5426914691925049
time_elpased: 21.151
#iterations: 190
currently lose_sum: 0.4816957712173462
time_elpased: 26.25
#iterations: 191
currently lose_sum: 0.5582131147384644
time_elpased: 26.033
#iterations: 192
currently lose_sum: 0.5288503170013428
time_elpased: 24.727
#iterations: 193
currently lose_sum: 0.609246015548706
time_elpased: 27.822
#iterations: 194
currently lose_sum: 0.5261040329933167
time_elpased: 26.872
#iterations: 195
currently lose_sum: 0.5241780281066895
time_elpased: 26.687
#iterations: 196
currently lose_sum: 0.5969603061676025
time_elpased: 23.844
#iterations: 197
currently lose_sum: 0.5110159516334534
time_elpased: 22.315
#iterations: 198
currently lose_sum: 0.5960267782211304
time_elpased: 22.504
#iterations: 199
currently lose_sum: 0.5282924771308899
time_elpased: 20.469
start validation test
0.6868
0.657757496741
0.79636937648
0.72045697965
0.685289311111
14.610
#iterations: 200
currently lose_sum: 0.5411745309829712
time_elpased: 27.106
#iterations: 201
currently lose_sum: 0.572253406047821
time_elpased: 27.023
#iterations: 202
currently lose_sum: 0.5240183472633362
time_elpased: 25.958
#iterations: 203
currently lose_sum: 0.5511597394943237
time_elpased: 24.968
#iterations: 204
currently lose_sum: 0.5743132829666138
time_elpased: 26.936
#iterations: 205
currently lose_sum: 0.5201352834701538
time_elpased: 27.046
#iterations: 206
currently lose_sum: 0.5276987552642822
time_elpased: 26.781
#iterations: 207
currently lose_sum: 0.6774746775627136
time_elpased: 26.883
#iterations: 208
currently lose_sum: 0.6710712909698486
time_elpased: 25.124
#iterations: 209
currently lose_sum: 0.551566481590271
time_elpased: 26.405
#iterations: 210
currently lose_sum: 0.5217493176460266
time_elpased: 23.72
#iterations: 211
currently lose_sum: 0.5416418313980103
time_elpased: 27.537
#iterations: 212
currently lose_sum: 0.6081551909446716
time_elpased: 27.295
#iterations: 213
currently lose_sum: 0.45324936509132385
time_elpased: 27.03
#iterations: 214
currently lose_sum: 0.5979921221733093
time_elpased: 26.248
#iterations: 215
currently lose_sum: 0.5639765858650208
time_elpased: 24.636
#iterations: 216
currently lose_sum: 0.5645896792411804
time_elpased: 24.269
#iterations: 217
currently lose_sum: 0.579833984375
time_elpased: 26.501
#iterations: 218
currently lose_sum: 0.6999413967132568
time_elpased: 27.892
#iterations: 219
currently lose_sum: 0.8234663605690002
time_elpased: 26.692
start validation test
0.584
0.849230769231
0.217837411208
0.346733668342
0.589048470405
17.503
#iterations: 220
currently lose_sum: 0.5558499693870544
time_elpased: 26.572
#iterations: 221
currently lose_sum: 0.6102011799812317
time_elpased: 19.088
#iterations: 222
currently lose_sum: 0.5832914710044861
time_elpased: 26.421
#iterations: 223
currently lose_sum: 0.5974939465522766
time_elpased: 27.153
#iterations: 224
currently lose_sum: 0.5321617126464844
time_elpased: 27.015
#iterations: 225
currently lose_sum: 0.5828371047973633
time_elpased: 27.148
#iterations: 226
currently lose_sum: 0.5704312324523926
time_elpased: 26.537
#iterations: 227
currently lose_sum: 0.5349823832511902
time_elpased: 26.213
#iterations: 228
currently lose_sum: 0.6653968691825867
time_elpased: 27.195
#iterations: 229
currently lose_sum: 0.589505136013031
time_elpased: 27.151
#iterations: 230
currently lose_sum: 0.5743621587753296
time_elpased: 27.197
#iterations: 231
currently lose_sum: 0.624721348285675
time_elpased: 26.353
#iterations: 232
currently lose_sum: 0.5076723694801331
time_elpased: 26.147
#iterations: 233
currently lose_sum: 0.5139062404632568
time_elpased: 26.774
#iterations: 234
currently lose_sum: 0.540614902973175
time_elpased: 26.484
#iterations: 235
currently lose_sum: 0.5387512445449829
time_elpased: 26.806
#iterations: 236
currently lose_sum: 0.526432454586029
time_elpased: 27.003
#iterations: 237
currently lose_sum: 0.6283551454544067
time_elpased: 24.191
#iterations: 238
currently lose_sum: 0.5324839949607849
time_elpased: 25.039
#iterations: 239
currently lose_sum: 0.6419582962989807
time_elpased: 26.167
start validation test
0.6872
0.657365347177
0.79952644041
0.72150997151
0.685651298064
14.781
#iterations: 240
currently lose_sum: 0.6326978206634521
time_elpased: 25.316
#iterations: 241
currently lose_sum: 0.4894970655441284
time_elpased: 27.292
#iterations: 242
currently lose_sum: 0.5148679614067078
time_elpased: 27.469
#iterations: 243
currently lose_sum: 0.5958083868026733
time_elpased: 26.212
#iterations: 244
currently lose_sum: 0.6437999606132507
time_elpased: 25.802
#iterations: 245
currently lose_sum: 0.477156400680542
time_elpased: 26.258
#iterations: 246
currently lose_sum: 0.5949442386627197
time_elpased: 27.165
#iterations: 247
currently lose_sum: 0.5213103890419006
time_elpased: 26.845
#iterations: 248
currently lose_sum: 0.5963721871376038
time_elpased: 27.457
#iterations: 249
currently lose_sum: 0.48621174693107605
time_elpased: 26.8
#iterations: 250
currently lose_sum: 0.594068169593811
time_elpased: 26.661
#iterations: 251
currently lose_sum: 0.512542724609375
time_elpased: 26.277
#iterations: 252
currently lose_sum: 0.5660683512687683
time_elpased: 26.577
#iterations: 253
currently lose_sum: 0.5489481091499329
time_elpased: 27.794
#iterations: 254
currently lose_sum: 0.47982001304626465
time_elpased: 27.038
#iterations: 255
currently lose_sum: 0.4862992465496063
time_elpased: 26.428
#iterations: 256
currently lose_sum: 0.4732799530029297
time_elpased: 26.388
#iterations: 257
currently lose_sum: 0.5211334824562073
time_elpased: 26.595
#iterations: 258
currently lose_sum: 0.593845784664154
time_elpased: 27.067
#iterations: 259
currently lose_sum: 0.462533175945282
time_elpased: 27.329
start validation test
0.6824
0.814077025232
0.483820047356
0.606930693069
0.68513792311
14.734
#iterations: 260
currently lose_sum: 0.5673632621765137
time_elpased: 26.437
#iterations: 261
currently lose_sum: 0.7001838088035583
time_elpased: 23.381
#iterations: 262
currently lose_sum: 0.5025204420089722
time_elpased: 25.07
#iterations: 263
currently lose_sum: 0.4504683017730713
time_elpased: 27.086
#iterations: 264
currently lose_sum: 0.5425409078598022
time_elpased: 27.23
#iterations: 265
currently lose_sum: 0.5067354440689087
time_elpased: 27.002
#iterations: 266
currently lose_sum: 0.5392030477523804
time_elpased: 25.806
#iterations: 267
currently lose_sum: 0.48682186007499695
time_elpased: 25.22
#iterations: 268
currently lose_sum: 0.49770858883857727
time_elpased: 26.846
#iterations: 269
currently lose_sum: 0.5492395162582397
time_elpased: 27.46
#iterations: 270
currently lose_sum: 0.6362937688827515
time_elpased: 27.521
#iterations: 271
currently lose_sum: 0.46164971590042114
time_elpased: 27.193
#iterations: 272
currently lose_sum: 0.5668994784355164
time_elpased: 26.875
#iterations: 273
currently lose_sum: 0.5362563133239746
time_elpased: 26.573
#iterations: 274
currently lose_sum: 0.5724495053291321
time_elpased: 26.459
#iterations: 275
currently lose_sum: 0.5658803582191467
time_elpased: 27.307
#iterations: 276
currently lose_sum: 0.5396590828895569
time_elpased: 27.388
#iterations: 277
currently lose_sum: 0.4879286289215088
time_elpased: 26.845
#iterations: 278
currently lose_sum: 0.5255883932113647
time_elpased: 26.566
#iterations: 279
currently lose_sum: 0.47840985655784607
time_elpased: 26.981
start validation test
0.71
0.699558173785
0.749802683504
0.72380952381
0.709451220098
13.855
#iterations: 280
currently lose_sum: 0.5685891509056091
time_elpased: 27.514
#iterations: 281
currently lose_sum: 0.5080420970916748
time_elpased: 26.716
#iterations: 282
currently lose_sum: 0.5531659126281738
time_elpased: 27.207
#iterations: 283
currently lose_sum: 0.535304844379425
time_elpased: 25.817
#iterations: 284
currently lose_sum: 0.48840850591659546
time_elpased: 25.127
#iterations: 285
currently lose_sum: 0.4272719621658325
time_elpased: 24.715
#iterations: 286
currently lose_sum: 0.5954495072364807
time_elpased: 22.283
#iterations: 287
currently lose_sum: 0.4976489543914795
time_elpased: 27.406
#iterations: 288
currently lose_sum: 0.5261311531066895
time_elpased: 27.177
#iterations: 289
currently lose_sum: 0.4770972430706024
time_elpased: 26.29
#iterations: 290
currently lose_sum: 0.547909677028656
time_elpased: 24.811
#iterations: 291
currently lose_sum: 0.48062142729759216
time_elpased: 23.46
#iterations: 292
currently lose_sum: 0.516737163066864
time_elpased: 26.594
#iterations: 293
currently lose_sum: 0.558743417263031
time_elpased: 27.353
#iterations: 294
currently lose_sum: 0.686154305934906
time_elpased: 27.19
#iterations: 295
currently lose_sum: 0.44955652952194214
time_elpased: 26.899
#iterations: 296
currently lose_sum: 0.5573372840881348
time_elpased: 27.212
#iterations: 297
currently lose_sum: 0.5086643099784851
time_elpased: 26.516
#iterations: 298
currently lose_sum: 0.5738918781280518
time_elpased: 27.095
#iterations: 299
currently lose_sum: 0.5166963338851929
time_elpased: 27.713
start validation test
0.6744
0.804026845638
0.472770323599
0.595427435388
0.677179971207
14.840
#iterations: 300
currently lose_sum: 0.5739478468894958
time_elpased: 26.66
#iterations: 301
currently lose_sum: 0.6669513583183289
time_elpased: 26.531
#iterations: 302
currently lose_sum: 0.493375688791275
time_elpased: 26.99
#iterations: 303
currently lose_sum: 0.5439519286155701
time_elpased: 27.166
#iterations: 304
currently lose_sum: 0.5312654972076416
time_elpased: 27.175
#iterations: 305
currently lose_sum: 0.5336934924125671
time_elpased: 28.016
#iterations: 306
currently lose_sum: 0.46194249391555786
time_elpased: 27.405
#iterations: 307
currently lose_sum: 0.5124776363372803
time_elpased: 24.841
#iterations: 308
currently lose_sum: 0.6614169478416443
time_elpased: 20.859
#iterations: 309
currently lose_sum: 0.5689256191253662
time_elpased: 25.875
#iterations: 310
currently lose_sum: 0.5281102657318115
time_elpased: 27.309
#iterations: 311
currently lose_sum: 0.46496307849884033
time_elpased: 26.929
#iterations: 312
currently lose_sum: 0.49526655673980713
time_elpased: 26.355
#iterations: 313
currently lose_sum: 0.5292792320251465
time_elpased: 24.914
#iterations: 314
currently lose_sum: 0.4802202880382538
time_elpased: 21.588
#iterations: 315
currently lose_sum: 0.5537555813789368
time_elpased: 25.613
#iterations: 316
currently lose_sum: 0.5114690065383911
time_elpased: 27.551
#iterations: 317
currently lose_sum: 0.5319684743881226
time_elpased: 27.24
#iterations: 318
currently lose_sum: 0.5293108224868774
time_elpased: 26.225
#iterations: 319
currently lose_sum: 0.5868840217590332
time_elpased: 26.57
start validation test
0.6984
0.738604651163
0.626677190213
0.6780529462
0.699388878967
14.090
#iterations: 320
currently lose_sum: 0.5019206404685974
time_elpased: 26.917
#iterations: 321
currently lose_sum: 0.5173132419586182
time_elpased: 26.931
#iterations: 322
currently lose_sum: 0.5085155367851257
time_elpased: 27.39
#iterations: 323
currently lose_sum: 0.4865688979625702
time_elpased: 26.75
#iterations: 324
currently lose_sum: 0.4885025918483734
time_elpased: 26.1
#iterations: 325
currently lose_sum: 0.5271326303482056
time_elpased: 26.419
#iterations: 326
currently lose_sum: 0.502547025680542
time_elpased: 25.205
#iterations: 327
currently lose_sum: 0.3885197341442108
time_elpased: 27.321
#iterations: 328
currently lose_sum: 0.47068771719932556
time_elpased: 26.491
#iterations: 329
currently lose_sum: 0.5412718057632446
time_elpased: 25.988
#iterations: 330
currently lose_sum: 0.5102365016937256
time_elpased: 24.67
#iterations: 331
currently lose_sum: 0.5688395500183105
time_elpased: 25.563
#iterations: 332
currently lose_sum: 0.5110626220703125
time_elpased: 26.39
#iterations: 333
currently lose_sum: 0.5375429391860962
time_elpased: 26.85
#iterations: 334
currently lose_sum: 0.5758763551712036
time_elpased: 27.774
#iterations: 335
currently lose_sum: 0.5310636758804321
time_elpased: 26.426
#iterations: 336
currently lose_sum: 0.5006305575370789
time_elpased: 23.417
#iterations: 337
currently lose_sum: 0.4231146275997162
time_elpased: 23.656
#iterations: 338
currently lose_sum: 0.571847140789032
time_elpased: 25.46
#iterations: 339
currently lose_sum: 0.47152459621429443
time_elpased: 27.311
start validation test
0.6428
0.887966804979
0.337805840568
0.489422527158
0.647005110065
16.664
#iterations: 340
currently lose_sum: 0.5131019353866577
time_elpased: 27.087
#iterations: 341
currently lose_sum: 0.4743141531944275
time_elpased: 24.998
#iterations: 342
currently lose_sum: 0.48134666681289673
time_elpased: 26.102
#iterations: 343
currently lose_sum: 0.49456119537353516
time_elpased: 26.116
#iterations: 344
currently lose_sum: 0.49383655190467834
time_elpased: 26.694
#iterations: 345
currently lose_sum: 0.5136414766311646
time_elpased: 26.938
#iterations: 346
currently lose_sum: 0.5222700238227844
time_elpased: 26.984
#iterations: 347
currently lose_sum: 0.49507424235343933
time_elpased: 26.069
#iterations: 348
currently lose_sum: 0.6280645132064819
time_elpased: 26.528
#iterations: 349
currently lose_sum: 0.4725306034088135
time_elpased: 27.031
#iterations: 350
currently lose_sum: 0.527306318283081
time_elpased: 26.457
#iterations: 351
currently lose_sum: 0.44101184606552124
time_elpased: 27.335
#iterations: 352
currently lose_sum: 0.4565447270870209
time_elpased: 26.992
#iterations: 353
currently lose_sum: 0.5307127833366394
time_elpased: 27.181
#iterations: 354
currently lose_sum: 0.4832417666912079
time_elpased: 26.48
#iterations: 355
currently lose_sum: 0.4044696092605591
time_elpased: 19.526
#iterations: 356
currently lose_sum: 0.5631425976753235
time_elpased: 26.515
#iterations: 357
currently lose_sum: 0.488735169172287
time_elpased: 23.611
#iterations: 358
currently lose_sum: 0.5013386607170105
time_elpased: 26.693
#iterations: 359
currently lose_sum: 0.5104940533638
time_elpased: 27.148
start validation test
0.6736
0.622487778381
0.904498816101
0.737451737452
0.670416480232
15.428
#iterations: 360
currently lose_sum: 0.4635544717311859
time_elpased: 23.559
#iterations: 361
currently lose_sum: 0.5248489379882812
time_elpased: 20.407
#iterations: 362
currently lose_sum: 0.5860368013381958
time_elpased: 23.159
#iterations: 363
currently lose_sum: 0.41064971685409546
time_elpased: 27.337
#iterations: 364
currently lose_sum: 0.47656288743019104
time_elpased: 27.537
#iterations: 365
currently lose_sum: 0.49930527806282043
time_elpased: 27.113
#iterations: 366
currently lose_sum: 0.5130205154418945
time_elpased: 25.712
#iterations: 367
currently lose_sum: 0.538201093673706
time_elpased: 25.714
#iterations: 368
currently lose_sum: 0.4555959403514862
time_elpased: 26.724
#iterations: 369
currently lose_sum: 0.48622748255729675
time_elpased: 27.414
#iterations: 370
currently lose_sum: 0.5276153087615967
time_elpased: 28.136
#iterations: 371
currently lose_sum: 0.5073593258857727
time_elpased: 27.102
#iterations: 372
currently lose_sum: 0.6719616055488586
time_elpased: 26.723
#iterations: 373
currently lose_sum: 0.6221404075622559
time_elpased: 26.04
#iterations: 374
currently lose_sum: 0.4681752026081085
time_elpased: 26.771
#iterations: 375
currently lose_sum: 0.5710105895996094
time_elpased: 27.014
#iterations: 376
currently lose_sum: 0.6062632203102112
time_elpased: 27.245
#iterations: 377
currently lose_sum: 0.4307686686515808
time_elpased: 26.299
#iterations: 378
currently lose_sum: 0.44181275367736816
time_elpased: 25.318
#iterations: 379
currently lose_sum: 0.4450562298297882
time_elpased: 26.292
start validation test
0.6972
0.65605875153
0.846093133386
0.739055498104
0.695147134414
13.927
#iterations: 380
currently lose_sum: 0.5137148499488831
time_elpased: 26.325
#iterations: 381
currently lose_sum: 0.46740037202835083
time_elpased: 27.012
#iterations: 382
currently lose_sum: 0.4927811324596405
time_elpased: 27.042
#iterations: 383
currently lose_sum: 0.4752005636692047
time_elpased: 20.785
#iterations: 384
currently lose_sum: 0.5122871398925781
time_elpased: 23.707
#iterations: 385
currently lose_sum: 0.4222201406955719
time_elpased: 20.887
#iterations: 386
currently lose_sum: 0.49030864238739014
time_elpased: 26.402
#iterations: 387
currently lose_sum: 0.5313513875007629
time_elpased: 26.999
#iterations: 388
currently lose_sum: 0.5425878763198853
time_elpased: 27.349
#iterations: 389
currently lose_sum: 0.5988314747810364
time_elpased: 26.596
#iterations: 390
currently lose_sum: 0.4365587532520294
time_elpased: 26.293
#iterations: 391
currently lose_sum: 0.548617422580719
time_elpased: 26.257
#iterations: 392
currently lose_sum: 0.46116751432418823
time_elpased: 27.028
#iterations: 393
currently lose_sum: 0.55486661195755
time_elpased: 27.455
#iterations: 394
currently lose_sum: 0.5590397715568542
time_elpased: 26.558
#iterations: 395
currently lose_sum: 0.450912743806839
time_elpased: 26.26
#iterations: 396
currently lose_sum: 0.40582945942878723
time_elpased: 26.425
#iterations: 397
currently lose_sum: 0.47121360898017883
time_elpased: 26.804
#iterations: 398
currently lose_sum: 0.4880295991897583
time_elpased: 26.566
#iterations: 399
currently lose_sum: 0.488027960062027
time_elpased: 27.227
start validation test
0.6988
0.826972010178
0.513022888713
0.633219678519
0.701361403805
14.588
#iterations: 400
currently lose_sum: 0.5392156839370728
time_elpased: 26.838
#iterations: 401
currently lose_sum: 0.5330305099487305
time_elpased: 26.963
#iterations: 402
currently lose_sum: 0.5694788098335266
time_elpased: 25.978
#iterations: 403
currently lose_sum: 0.5720593929290771
time_elpased: 20.701
#iterations: 404
currently lose_sum: 0.4220503270626068
time_elpased: 26.694
#iterations: 405
currently lose_sum: 0.512382984161377
time_elpased: 27.45
#iterations: 406
currently lose_sum: 0.4489920139312744
time_elpased: 27.578
#iterations: 407
currently lose_sum: 0.5233563184738159
time_elpased: 26.392
#iterations: 408
currently lose_sum: 0.4793236553668976
time_elpased: 24.777
#iterations: 409
currently lose_sum: 0.44713711738586426
time_elpased: 24.705
#iterations: 410
currently lose_sum: 0.4932439923286438
time_elpased: 27.449
#iterations: 411
currently lose_sum: 0.6973212957382202
time_elpased: 26.681
#iterations: 412
currently lose_sum: 0.5704869627952576
time_elpased: 26.68
#iterations: 413
currently lose_sum: 0.5752203464508057
time_elpased: 26.535
#iterations: 414
currently lose_sum: 0.474099725484848
time_elpased: 26.414
#iterations: 415
currently lose_sum: 0.5032179355621338
time_elpased: 26.541
#iterations: 416
currently lose_sum: 0.47367626428604126
time_elpased: 27.083
#iterations: 417
currently lose_sum: 0.45446857810020447
time_elpased: 27.693
#iterations: 418
currently lose_sum: 0.4598652124404907
time_elpased: 27.113
#iterations: 419
currently lose_sum: 0.4854086637496948
time_elpased: 26.494
start validation test
0.7184
0.759926131117
0.64956590371
0.700425531915
0.7193490508
13.800
#iterations: 420
currently lose_sum: 0.4661983251571655
time_elpased: 27.131
#iterations: 421
currently lose_sum: 0.3788589537143707
time_elpased: 26.412
#iterations: 422
currently lose_sum: 0.5253726840019226
time_elpased: 27.003
#iterations: 423
currently lose_sum: 0.49357908964157104
time_elpased: 27.171
#iterations: 424
currently lose_sum: 0.49015510082244873
time_elpased: 26.468
#iterations: 425
currently lose_sum: 0.4319044053554535
time_elpased: 26.046
#iterations: 426
currently lose_sum: 0.5254571437835693
time_elpased: 24.783
#iterations: 427
currently lose_sum: 0.4289047122001648
time_elpased: 26.461
#iterations: 428
currently lose_sum: 0.4697098433971405
time_elpased: 26.999
#iterations: 429
currently lose_sum: 0.6015105247497559
time_elpased: 27.072
#iterations: 430
currently lose_sum: 0.5071351528167725
time_elpased: 26.068
#iterations: 431
currently lose_sum: 0.4743676781654358
time_elpased: 21.643
#iterations: 432
currently lose_sum: 0.47041115164756775
time_elpased: 25.828
#iterations: 433
currently lose_sum: 0.6093931794166565
time_elpased: 26.466
#iterations: 434
currently lose_sum: 0.3885958194732666
time_elpased: 27.566
#iterations: 435
currently lose_sum: 0.35484474897384644
time_elpased: 27.588
#iterations: 436
currently lose_sum: 0.5289106965065002
time_elpased: 26.42
#iterations: 437
currently lose_sum: 0.48110589385032654
time_elpased: 26.665
#iterations: 438
currently lose_sum: 0.43193328380584717
time_elpased: 26.763
#iterations: 439
currently lose_sum: 0.48872944712638855
time_elpased: 27.816
start validation test
0.7148
0.710486322188
0.737963693765
0.723964382501
0.714480630337
13.319
#iterations: 440
currently lose_sum: 0.4792080819606781
time_elpased: 27.721
#iterations: 441
currently lose_sum: 0.5299989581108093
time_elpased: 28.08
#iterations: 442
currently lose_sum: 0.5146615505218506
time_elpased: 26.045
#iterations: 443
currently lose_sum: 0.513705849647522
time_elpased: 26.415
#iterations: 444
currently lose_sum: 0.39520835876464844
time_elpased: 23.301
#iterations: 445
currently lose_sum: 0.47037994861602783
time_elpased: 27.539
#iterations: 446
currently lose_sum: 0.47257569432258606
time_elpased: 26.951
#iterations: 447
currently lose_sum: 0.48376378417015076
time_elpased: 24.646
#iterations: 448
currently lose_sum: 0.38991978764533997
time_elpased: 22.763
#iterations: 449
currently lose_sum: 0.4448300302028656
time_elpased: 17.816
#iterations: 450
currently lose_sum: 0.4960912764072418
time_elpased: 21.379
#iterations: 451
currently lose_sum: 0.43853405117988586
time_elpased: 25.812
#iterations: 452
currently lose_sum: 0.4492950439453125
time_elpased: 26.897
#iterations: 453
currently lose_sum: 0.38968878984451294
time_elpased: 27.399
#iterations: 454
currently lose_sum: 0.48211905360221863
time_elpased: 25.112
#iterations: 455
currently lose_sum: 0.5542025566101074
time_elpased: 23.254
#iterations: 456
currently lose_sum: 0.4688751995563507
time_elpased: 25.518
#iterations: 457
currently lose_sum: 0.49533358216285706
time_elpased: 26.282
#iterations: 458
currently lose_sum: 0.47934380173683167
time_elpased: 26.844
#iterations: 459
currently lose_sum: 0.4989759922027588
time_elpased: 26.794
start validation test
0.7024
0.655192878338
0.87134964483
0.747967479675
0.700070605059
14.849
#iterations: 460
currently lose_sum: 0.41079750657081604
time_elpased: 26.036
#iterations: 461
currently lose_sum: 0.3988945782184601
time_elpased: 23.473
#iterations: 462
currently lose_sum: 0.4536787271499634
time_elpased: 26.238
#iterations: 463
currently lose_sum: 0.5015785098075867
time_elpased: 26.96
#iterations: 464
currently lose_sum: 0.5914775133132935
time_elpased: 27.188
#iterations: 465
currently lose_sum: 0.4739682674407959
time_elpased: 26.981
#iterations: 466
currently lose_sum: 0.568697988986969
time_elpased: 25.754
#iterations: 467
currently lose_sum: 0.46929481625556946
time_elpased: 27.276
#iterations: 468
currently lose_sum: 0.45058295130729675
time_elpased: 25.238
#iterations: 469
currently lose_sum: 0.5909391641616821
time_elpased: 27.197
#iterations: 470
currently lose_sum: 0.4233361780643463
time_elpased: 27.351
#iterations: 471
currently lose_sum: 0.4019080400466919
time_elpased: 27.241
#iterations: 472
currently lose_sum: 0.4077049195766449
time_elpased: 25.961
#iterations: 473
currently lose_sum: 0.49563151597976685
time_elpased: 25.57
#iterations: 474
currently lose_sum: 0.45424363017082214
time_elpased: 26.905
#iterations: 475
currently lose_sum: 0.5407534837722778
time_elpased: 27.172
#iterations: 476
currently lose_sum: 0.4581703245639801
time_elpased: 26.76
#iterations: 477
currently lose_sum: 0.48474571108818054
time_elpased: 26.688
#iterations: 478
currently lose_sum: 0.47999370098114014
time_elpased: 26.228
#iterations: 479
currently lose_sum: 0.47355595231056213
time_elpased: 23.629
start validation test
0.6656
0.614810868407
0.910812943962
0.734096692112
0.662219124049
15.985
#iterations: 480
currently lose_sum: 0.44389429688453674
time_elpased: 27.095
#iterations: 481
currently lose_sum: 0.39215385913848877
time_elpased: 27.657
#iterations: 482
currently lose_sum: 0.46231400966644287
time_elpased: 26.822
#iterations: 483
currently lose_sum: 0.5120765566825867
time_elpased: 26.262
#iterations: 484
currently lose_sum: 0.4757534861564636
time_elpased: 26.153
#iterations: 485
currently lose_sum: 0.5085107684135437
time_elpased: 27.43
#iterations: 486
currently lose_sum: 0.44445204734802246
time_elpased: 27.058
#iterations: 487
currently lose_sum: 0.5071896910667419
time_elpased: 26.891
#iterations: 488
currently lose_sum: 0.4890393018722534
time_elpased: 27.35
#iterations: 489
currently lose_sum: 0.37392327189445496
time_elpased: 26.819
#iterations: 490
currently lose_sum: 0.42521780729293823
time_elpased: 25.878
#iterations: 491
currently lose_sum: 0.553726315498352
time_elpased: 26.21
#iterations: 492
currently lose_sum: 0.3812110126018524
time_elpased: 27.276
#iterations: 493
currently lose_sum: 0.4239879548549652
time_elpased: 27.783
#iterations: 494
currently lose_sum: 0.4612577557563782
time_elpased: 26.488
#iterations: 495
currently lose_sum: 0.5509416460990906
time_elpased: 25.229
#iterations: 496
currently lose_sum: 0.4267224967479706
time_elpased: 23.779
#iterations: 497
currently lose_sum: 0.42100411653518677
time_elpased: 26.222
#iterations: 498
currently lose_sum: 0.4663243889808655
time_elpased: 26.663
#iterations: 499
currently lose_sum: 0.512773871421814
time_elpased: 26.996
start validation test
0.6992
0.829705505762
0.511444356748
0.6328125
0.701788682835
14.434
#iterations: 500
currently lose_sum: 0.4346340298652649
time_elpased: 24.342
#iterations: 501
currently lose_sum: 0.47329428791999817
time_elpased: 26.396
#iterations: 502
currently lose_sum: 0.4772804379463196
time_elpased: 24.83
#iterations: 503
currently lose_sum: 0.48817065358161926
time_elpased: 25.545
#iterations: 504
currently lose_sum: 0.45347273349761963
time_elpased: 27.016
#iterations: 505
currently lose_sum: 0.4444098174571991
time_elpased: 26.663
#iterations: 506
currently lose_sum: 0.5637961626052856
time_elpased: 26.266
#iterations: 507
currently lose_sum: 0.4732047915458679
time_elpased: 26.497
#iterations: 508
currently lose_sum: 0.4282125234603882
time_elpased: 26.856
#iterations: 509
currently lose_sum: 0.45215240120887756
time_elpased: 27.207
#iterations: 510
currently lose_sum: 0.4632378816604614
time_elpased: 27.325
#iterations: 511
currently lose_sum: 0.40752658247947693
time_elpased: 27.737
#iterations: 512
currently lose_sum: 0.641486644744873
time_elpased: 26.044
#iterations: 513
currently lose_sum: 0.4853198528289795
time_elpased: 25.735
#iterations: 514
currently lose_sum: 0.46588119864463806
time_elpased: 26.86
#iterations: 515
currently lose_sum: 0.42925330996513367
time_elpased: 25.985
#iterations: 516
currently lose_sum: 0.44425255060195923
time_elpased: 27.183
#iterations: 517
currently lose_sum: 0.4969751834869385
time_elpased: 26.995
#iterations: 518
currently lose_sum: 0.5053194165229797
time_elpased: 26.63
#iterations: 519
currently lose_sum: 0.4136580526828766
time_elpased: 26.546
start validation test
0.7248
0.729579698652
0.726124704025
0.727848101266
0.72478173563
13.251
#iterations: 520
currently lose_sum: 0.4565165638923645
time_elpased: 25.553
#iterations: 521
currently lose_sum: 0.45376837253570557
time_elpased: 27.309
#iterations: 522
currently lose_sum: 0.4881760776042938
time_elpased: 26.381
#iterations: 523
currently lose_sum: 0.37457966804504395
time_elpased: 25.316
#iterations: 524
currently lose_sum: 0.40041592717170715
time_elpased: 23.411
#iterations: 525
currently lose_sum: 0.44482648372650146
time_elpased: 24.62
#iterations: 526
currently lose_sum: 0.42868438363075256
time_elpased: 26.008
#iterations: 527
currently lose_sum: 0.4595107138156891
time_elpased: 27.097
#iterations: 528
currently lose_sum: 0.49439647793769836
time_elpased: 26.991
#iterations: 529
currently lose_sum: 0.40479719638824463
time_elpased: 26.505
#iterations: 530
currently lose_sum: 0.46652957797050476
time_elpased: 25.769
#iterations: 531
currently lose_sum: 0.4030667841434479
time_elpased: 26.204
#iterations: 532
currently lose_sum: 0.6068131923675537
time_elpased: 26.368
#iterations: 533
currently lose_sum: 0.5438032150268555
time_elpased: 27.014
#iterations: 534
currently lose_sum: 0.41236087679862976
time_elpased: 27.361
#iterations: 535
currently lose_sum: 0.4938506782054901
time_elpased: 25.794
#iterations: 536
currently lose_sum: 0.5842293500900269
time_elpased: 25.952
#iterations: 537
currently lose_sum: 0.40141355991363525
time_elpased: 27.443
#iterations: 538
currently lose_sum: 0.44976258277893066
time_elpased: 27.391
#iterations: 539
currently lose_sum: 0.3935868740081787
time_elpased: 27.205
start validation test
0.706
0.662591687042
0.855564325178
0.746813641061
0.70393788035
13.976
#iterations: 540
currently lose_sum: 0.5235354900360107
time_elpased: 26.396
#iterations: 541
currently lose_sum: 0.4318919777870178
time_elpased: 26.548
#iterations: 542
currently lose_sum: 0.39045989513397217
time_elpased: 24.984
#iterations: 543
currently lose_sum: 0.4478137195110321
time_elpased: 24.509
#iterations: 544
currently lose_sum: 0.400859534740448
time_elpased: 26.746
#iterations: 545
currently lose_sum: 0.4278965890407562
time_elpased: 26.644
#iterations: 546
currently lose_sum: 0.43374836444854736
time_elpased: 26.961
#iterations: 547
currently lose_sum: 0.46102669835090637
time_elpased: 26.183
#iterations: 548
currently lose_sum: 0.426858514547348
time_elpased: 23.69
#iterations: 549
currently lose_sum: 0.4925369918346405
time_elpased: 25.233
#iterations: 550
currently lose_sum: 0.3968496024608612
time_elpased: 27.652
#iterations: 551
currently lose_sum: 0.4642421305179596
time_elpased: 26.988
#iterations: 552
currently lose_sum: 0.4115856885910034
time_elpased: 26.843
#iterations: 553
currently lose_sum: 0.48200348019599915
time_elpased: 26.496
#iterations: 554
currently lose_sum: 0.4995393455028534
time_elpased: 27.564
#iterations: 555
currently lose_sum: 0.48767372965812683
time_elpased: 26.424
#iterations: 556
currently lose_sum: 0.3893759846687317
time_elpased: 27.465
#iterations: 557
currently lose_sum: 0.47804710268974304
time_elpased: 27.751
#iterations: 558
currently lose_sum: 0.4469962418079376
time_elpased: 26.589
#iterations: 559
currently lose_sum: 0.4654886722564697
time_elpased: 26.251
start validation test
0.7212
0.713323353293
0.752170481452
0.732232039954
0.720772994173
13.704
#iterations: 560
currently lose_sum: 0.5084370970726013
time_elpased: 26.443
#iterations: 561
currently lose_sum: 0.5278401374816895
time_elpased: 26.677
#iterations: 562
currently lose_sum: 0.4360511302947998
time_elpased: 26.783
#iterations: 563
currently lose_sum: 0.45588770508766174
time_elpased: 27.163
#iterations: 564
currently lose_sum: 0.42510101199150085
time_elpased: 26.396
#iterations: 565
currently lose_sum: 0.48625117540359497
time_elpased: 25.456
#iterations: 566
currently lose_sum: 0.4226808249950409
time_elpased: 26.258
#iterations: 567
currently lose_sum: 0.41757503151893616
time_elpased: 27.383
#iterations: 568
currently lose_sum: 0.4952646493911743
time_elpased: 27.41
#iterations: 569
currently lose_sum: 0.4548082649707794
time_elpased: 26.722
#iterations: 570
currently lose_sum: 0.3725062906742096
time_elpased: 25.231
#iterations: 571
currently lose_sum: 0.4217187464237213
time_elpased: 22.325
#iterations: 572
currently lose_sum: 0.5915699005126953
time_elpased: 26.24
#iterations: 573
currently lose_sum: 0.3386911153793335
time_elpased: 27.701
#iterations: 574
currently lose_sum: 0.3813965320587158
time_elpased: 27.46
#iterations: 575
currently lose_sum: 0.4206937551498413
time_elpased: 27.229
#iterations: 576
currently lose_sum: 0.46515119075775146
time_elpased: 27.24
#iterations: 577
currently lose_sum: 0.5181085467338562
time_elpased: 23.842
#iterations: 578
currently lose_sum: 0.536521852016449
time_elpased: 26.077
#iterations: 579
currently lose_sum: 0.384336918592453
time_elpased: 26.818
start validation test
0.7164
0.809312638581
0.576164167324
0.673121254034
0.718333502965
13.814
#iterations: 580
currently lose_sum: 0.4992845952510834
time_elpased: 26.329
#iterations: 581
currently lose_sum: 0.3952621519565582
time_elpased: 25.958
#iterations: 582
currently lose_sum: 0.37121230363845825
time_elpased: 21.969
#iterations: 583
currently lose_sum: 0.42679348587989807
time_elpased: 21.399
#iterations: 584
currently lose_sum: 0.36916840076446533
time_elpased: 24.535
#iterations: 585
currently lose_sum: 0.4567357301712036
time_elpased: 26.41
#iterations: 586
currently lose_sum: 0.4337037205696106
time_elpased: 27.441
#iterations: 587
currently lose_sum: 0.41082656383514404
time_elpased: 27.403
#iterations: 588
currently lose_sum: 0.4468875229358673
time_elpased: 25.067
#iterations: 589
currently lose_sum: 0.45221900939941406
time_elpased: 23.454
#iterations: 590
currently lose_sum: 0.5471417903900146
time_elpased: 25.411
#iterations: 591
currently lose_sum: 0.40958648920059204
time_elpased: 24.944
#iterations: 592
currently lose_sum: 0.3337436616420746
time_elpased: 26.828
#iterations: 593
currently lose_sum: 0.4806392192840576
time_elpased: 26.791
#iterations: 594
currently lose_sum: 0.4342536926269531
time_elpased: 24.43
#iterations: 595
currently lose_sum: 0.3450818657875061
time_elpased: 24.574
#iterations: 596
currently lose_sum: 0.4616733491420746
time_elpased: 19.862
#iterations: 597
currently lose_sum: 0.3392545282840729
time_elpased: 26.667
#iterations: 598
currently lose_sum: 0.6659202575683594
time_elpased: 27.051
#iterations: 599
currently lose_sum: 0.42675599455833435
time_elpased: 27.662
start validation test
0.7152
0.805953693495
0.576953433307
0.672493100276
0.71710607594
13.796
acc: 0.736
pre: 0.747
rec: 0.725
F1: 0.736
auc: 0.737
