start to construct computing graph
graph construct over
3802
epochs start
#iterations: 0
currently lose_sum: 0.6993516683578491
time_elpased: 3.228
#iterations: 1
currently lose_sum: 0.6939132213592529
time_elpased: 3.402
#iterations: 2
currently lose_sum: 0.6936027407646179
time_elpased: 3.235
#iterations: 3
currently lose_sum: 0.6918997764587402
time_elpased: 3.371
#iterations: 4
currently lose_sum: 0.6934958100318909
time_elpased: 3.548
#iterations: 5
currently lose_sum: 0.691542387008667
time_elpased: 3.204
#iterations: 6
currently lose_sum: 0.6877127885818481
time_elpased: 3.181
#iterations: 7
currently lose_sum: 0.6917166709899902
time_elpased: 3.248
#iterations: 8
currently lose_sum: 0.6899462938308716
time_elpased: 3.189
#iterations: 9
currently lose_sum: 0.6965093016624451
time_elpased: 3.16
#iterations: 10
currently lose_sum: 0.683383047580719
time_elpased: 3.15
#iterations: 11
currently lose_sum: 0.687001645565033
time_elpased: 3.316
#iterations: 12
currently lose_sum: 0.6906076073646545
time_elpased: 3.219
#iterations: 13
currently lose_sum: 0.6967827081680298
time_elpased: 3.182
#iterations: 14
currently lose_sum: 0.683586835861206
time_elpased: 3.312
#iterations: 15
currently lose_sum: 0.6993204355239868
time_elpased: 3.212
#iterations: 16
currently lose_sum: 0.6926538348197937
time_elpased: 3.143
#iterations: 17
currently lose_sum: 0.6994986534118652
time_elpased: 3.426
#iterations: 18
currently lose_sum: 0.6784411668777466
time_elpased: 3.225
#iterations: 19
currently lose_sum: 0.6901261806488037
time_elpased: 3.168
start validation test
0.532
0.551362683438
0.414826498423
0.473447344734
0.53371195051
17.146
#iterations: 20
currently lose_sum: 0.6805596947669983
time_elpased: 2.461
#iterations: 21
currently lose_sum: 0.6721377372741699
time_elpased: 2.438
#iterations: 22
currently lose_sum: 0.7001667618751526
time_elpased: 2.722
#iterations: 23
currently lose_sum: 0.7080152630805969
time_elpased: 2.481
#iterations: 24
currently lose_sum: 0.6846892833709717
time_elpased: 2.452
#iterations: 25
currently lose_sum: 0.6604617238044739
time_elpased: 2.433
#iterations: 26
currently lose_sum: 0.6999987959861755
time_elpased: 2.48
#iterations: 27
currently lose_sum: 0.6602485179901123
time_elpased: 2.699
#iterations: 28
currently lose_sum: 0.6614513993263245
time_elpased: 2.508
#iterations: 29
currently lose_sum: 0.6492231488227844
time_elpased: 2.577
#iterations: 30
currently lose_sum: 0.6664053201675415
time_elpased: 2.54
#iterations: 31
currently lose_sum: 0.6828024387359619
time_elpased: 2.533
#iterations: 32
currently lose_sum: 0.6503869891166687
time_elpased: 2.529
#iterations: 33
currently lose_sum: 0.6573188900947571
time_elpased: 2.475
#iterations: 34
currently lose_sum: 0.645378589630127
time_elpased: 2.491
#iterations: 35
currently lose_sum: 0.6437134742736816
time_elpased: 2.585
#iterations: 36
currently lose_sum: 0.6803434491157532
time_elpased: 2.561
#iterations: 37
currently lose_sum: 0.6722325086593628
time_elpased: 2.458
#iterations: 38
currently lose_sum: 0.6118499040603638
time_elpased: 2.496
#iterations: 39
currently lose_sum: 0.682056188583374
time_elpased: 2.544
start validation test
0.574
0.559530791789
0.752365930599
0.641775983855
0.571394004261
17.004
#iterations: 40
currently lose_sum: 0.6729599237442017
time_elpased: 2.473
#iterations: 41
currently lose_sum: 0.6385547518730164
time_elpased: 2.462
#iterations: 42
currently lose_sum: 0.6376317143440247
time_elpased: 2.582
#iterations: 43
currently lose_sum: 0.6295146346092224
time_elpased: 2.484
#iterations: 44
currently lose_sum: 0.6141000390052795
time_elpased: 2.42
#iterations: 45
currently lose_sum: 0.6478173136711121
time_elpased: 2.459
#iterations: 46
currently lose_sum: 0.6876863837242126
time_elpased: 2.491
#iterations: 47
currently lose_sum: 0.6326432228088379
time_elpased: 2.544
#iterations: 48
currently lose_sum: 0.6050878763198853
time_elpased: 2.55
#iterations: 49
currently lose_sum: 0.695249080657959
time_elpased: 2.475
#iterations: 50
currently lose_sum: 0.6839742064476013
time_elpased: 2.526
#iterations: 51
currently lose_sum: 0.6415470838546753
time_elpased: 2.46
#iterations: 52
currently lose_sum: 0.61455899477005
time_elpased: 2.75
#iterations: 53
currently lose_sum: 0.6717529892921448
time_elpased: 2.634
#iterations: 54
currently lose_sum: 0.6853240728378296
time_elpased: 2.521
#iterations: 55
currently lose_sum: 0.6898776292800903
time_elpased: 2.551
#iterations: 56
currently lose_sum: 0.6257674694061279
time_elpased: 2.486
#iterations: 57
currently lose_sum: 0.6714610457420349
time_elpased: 2.527
#iterations: 58
currently lose_sum: 0.630267858505249
time_elpased: 2.849
#iterations: 59
currently lose_sum: 0.6713193655014038
time_elpased: 2.506
start validation test
0.6132
0.583750695604
0.827287066246
0.684502446982
0.610072104552
16.364
#iterations: 60
currently lose_sum: 0.6494686603546143
time_elpased: 2.449
#iterations: 61
currently lose_sum: 0.6137121319770813
time_elpased: 2.441
#iterations: 62
currently lose_sum: 0.6418182253837585
time_elpased: 2.537
#iterations: 63
currently lose_sum: 0.6684520244598389
time_elpased: 2.47
#iterations: 64
currently lose_sum: 0.7365231513977051
time_elpased: 2.774
#iterations: 65
currently lose_sum: 0.6370154619216919
time_elpased: 2.68
#iterations: 66
currently lose_sum: 0.6018221378326416
time_elpased: 2.471
#iterations: 67
currently lose_sum: 0.661125898361206
time_elpased: 2.554
#iterations: 68
currently lose_sum: 0.6995186805725098
time_elpased: 2.549
#iterations: 69
currently lose_sum: 0.6245371103286743
time_elpased: 2.485
#iterations: 70
currently lose_sum: 0.647095799446106
time_elpased: 2.643
#iterations: 71
currently lose_sum: 0.6814970374107361
time_elpased: 2.695
#iterations: 72
currently lose_sum: 0.6430088877677917
time_elpased: 2.568
#iterations: 73
currently lose_sum: 0.5977480411529541
time_elpased: 2.494
#iterations: 74
currently lose_sum: 0.6449934244155884
time_elpased: 2.929
#iterations: 75
currently lose_sum: 0.6224626898765564
time_elpased: 2.653
#iterations: 76
currently lose_sum: 0.5747078061103821
time_elpased: 2.457
#iterations: 77
currently lose_sum: 0.6454175710678101
time_elpased: 2.441
#iterations: 78
currently lose_sum: 0.5929657220840454
time_elpased: 2.446
#iterations: 79
currently lose_sum: 0.600477397441864
time_elpased: 2.555
start validation test
0.6476
0.630303030303
0.738170347003
0.679985470396
0.646276731943
15.994
#iterations: 80
currently lose_sum: 0.6229332089424133
time_elpased: 2.588
#iterations: 81
currently lose_sum: 0.5570898652076721
time_elpased: 2.545
#iterations: 82
currently lose_sum: 0.6317265033721924
time_elpased: 2.529
#iterations: 83
currently lose_sum: 0.6124212145805359
time_elpased: 2.42
#iterations: 84
currently lose_sum: 0.629306435585022
time_elpased: 2.51
#iterations: 85
currently lose_sum: 0.6782357692718506
time_elpased: 2.552
#iterations: 86
currently lose_sum: 0.6395533084869385
time_elpased: 2.44
#iterations: 87
currently lose_sum: 0.6541087627410889
time_elpased: 2.463
#iterations: 88
currently lose_sum: 0.6111046671867371
time_elpased: 2.586
#iterations: 89
currently lose_sum: 0.6261141300201416
time_elpased: 2.792
#iterations: 90
currently lose_sum: 0.6508400440216064
time_elpased: 2.633
#iterations: 91
currently lose_sum: 0.63526850938797
time_elpased: 2.643
#iterations: 92
currently lose_sum: 0.6372065544128418
time_elpased: 2.627
#iterations: 93
currently lose_sum: 0.6572521924972534
time_elpased: 2.637
#iterations: 94
currently lose_sum: 0.567410945892334
time_elpased: 2.519
#iterations: 95
currently lose_sum: 0.594014585018158
time_elpased: 2.547
#iterations: 96
currently lose_sum: 0.5712930560112
time_elpased: 2.502
#iterations: 97
currently lose_sum: 0.556529700756073
time_elpased: 2.512
#iterations: 98
currently lose_sum: 0.6273645758628845
time_elpased: 2.501
#iterations: 99
currently lose_sum: 0.5635818839073181
time_elpased: 2.539
start validation test
0.6488
0.727803738318
0.491324921136
0.586629001883
0.651100772256
15.660
#iterations: 100
currently lose_sum: 0.5925158858299255
time_elpased: 2.503
#iterations: 101
currently lose_sum: 0.5563175082206726
time_elpased: 2.512
#iterations: 102
currently lose_sum: 0.6064566969871521
time_elpased: 2.648
#iterations: 103
currently lose_sum: 0.5902642011642456
time_elpased: 2.462
#iterations: 104
currently lose_sum: 0.5713735818862915
time_elpased: 2.508
#iterations: 105
currently lose_sum: 0.558940589427948
time_elpased: 2.514
#iterations: 106
currently lose_sum: 0.6089149713516235
time_elpased: 2.567
#iterations: 107
currently lose_sum: 0.5839702486991882
time_elpased: 2.575
#iterations: 108
currently lose_sum: 0.577130138874054
time_elpased: 2.511
#iterations: 109
currently lose_sum: 0.721423864364624
time_elpased: 2.715
#iterations: 110
currently lose_sum: 0.6393916606903076
time_elpased: 2.649
#iterations: 111
currently lose_sum: 0.594511091709137
time_elpased: 2.487
#iterations: 112
currently lose_sum: 0.5910433530807495
time_elpased: 2.493
#iterations: 113
currently lose_sum: 0.6214393973350525
time_elpased: 2.523
#iterations: 114
currently lose_sum: 0.6166942715644836
time_elpased: 2.585
#iterations: 115
currently lose_sum: 0.5474428534507751
time_elpased: 2.515
#iterations: 116
currently lose_sum: 0.6711096167564392
time_elpased: 2.444
#iterations: 117
currently lose_sum: 0.645592212677002
time_elpased: 2.621
#iterations: 118
currently lose_sum: 0.5736953020095825
time_elpased: 2.481
#iterations: 119
currently lose_sum: 0.5863646864891052
time_elpased: 2.476
start validation test
0.63
0.782537067545
0.374605678233
0.506666666667
0.633731410545
16.367
#iterations: 120
currently lose_sum: 0.5839157104492188
time_elpased: 2.463
#iterations: 121
currently lose_sum: 0.6168714761734009
time_elpased: 2.477
#iterations: 122
currently lose_sum: 0.5770472288131714
time_elpased: 2.52
#iterations: 123
currently lose_sum: 0.6163878440856934
time_elpased: 2.479
#iterations: 124
currently lose_sum: 0.562689483165741
time_elpased: 2.57
#iterations: 125
currently lose_sum: 0.5891388058662415
time_elpased: 2.527
#iterations: 126
currently lose_sum: 0.5791077613830566
time_elpased: 2.533
#iterations: 127
currently lose_sum: 0.49797770380973816
time_elpased: 2.531
#iterations: 128
currently lose_sum: 0.5668118000030518
time_elpased: 2.539
#iterations: 129
currently lose_sum: 0.5350899696350098
time_elpased: 2.502
#iterations: 130
currently lose_sum: 0.5874712467193604
time_elpased: 2.491
#iterations: 131
currently lose_sum: 0.5839353799819946
time_elpased: 2.459
#iterations: 132
currently lose_sum: 0.5451719164848328
time_elpased: 2.677
#iterations: 133
currently lose_sum: 0.5914766788482666
time_elpased: 2.613
#iterations: 134
currently lose_sum: 0.560645580291748
time_elpased: 2.568
#iterations: 135
currently lose_sum: 0.5917012691497803
time_elpased: 2.612
#iterations: 136
currently lose_sum: 0.6026672124862671
time_elpased: 2.541
#iterations: 137
currently lose_sum: 0.6034407019615173
time_elpased: 2.504
#iterations: 138
currently lose_sum: 0.5938061475753784
time_elpased: 2.478
#iterations: 139
currently lose_sum: 0.5565624833106995
time_elpased: 2.592
start validation test
0.6216
0.80608365019
0.334384858044
0.472686733556
0.625796325126
16.505
#iterations: 140
currently lose_sum: 0.5883278846740723
time_elpased: 2.484
#iterations: 141
currently lose_sum: 0.6444262862205505
time_elpased: 2.456
#iterations: 142
currently lose_sum: 0.5878399014472961
time_elpased: 2.474
#iterations: 143
currently lose_sum: 0.55156409740448
time_elpased: 2.657
#iterations: 144
currently lose_sum: 0.5693778395652771
time_elpased: 2.5
#iterations: 145
currently lose_sum: 0.5606523156166077
time_elpased: 2.465
#iterations: 146
currently lose_sum: 0.575180172920227
time_elpased: 2.637
#iterations: 147
currently lose_sum: 0.6219907999038696
time_elpased: 2.544
#iterations: 148
currently lose_sum: 0.569624125957489
time_elpased: 2.491
#iterations: 149
currently lose_sum: 0.5999437570571899
time_elpased: 2.497
#iterations: 150
currently lose_sum: 0.6195668578147888
time_elpased: 2.492
#iterations: 151
currently lose_sum: 0.5492222309112549
time_elpased: 2.467
#iterations: 152
currently lose_sum: 0.6759703755378723
time_elpased: 2.512
#iterations: 153
currently lose_sum: 0.5957956910133362
time_elpased: 2.513
#iterations: 154
currently lose_sum: 0.6295251250267029
time_elpased: 2.515
#iterations: 155
currently lose_sum: 0.6293758153915405
time_elpased: 2.579
#iterations: 156
currently lose_sum: 0.5725952982902527
time_elpased: 2.433
#iterations: 157
currently lose_sum: 0.5392441749572754
time_elpased: 2.499
#iterations: 158
currently lose_sum: 0.5340507626533508
time_elpased: 2.608
#iterations: 159
currently lose_sum: 0.7588942050933838
time_elpased: 2.632
start validation test
0.6912
0.728360957643
0.6238170347
0.67204757859
0.692184491376
14.671
#iterations: 160
currently lose_sum: 0.582807183265686
time_elpased: 2.471
#iterations: 161
currently lose_sum: 0.46593719720840454
time_elpased: 2.575
#iterations: 162
currently lose_sum: 0.5296489596366882
time_elpased: 2.44
#iterations: 163
currently lose_sum: 0.5206156969070435
time_elpased: 2.531
#iterations: 164
currently lose_sum: 0.5229739546775818
time_elpased: 2.443
#iterations: 165
currently lose_sum: 0.5644258260726929
time_elpased: 2.498
#iterations: 166
currently lose_sum: 0.5879817605018616
time_elpased: 2.49
#iterations: 167
currently lose_sum: 0.5679598450660706
time_elpased: 2.556
#iterations: 168
currently lose_sum: 0.5986849069595337
time_elpased: 2.744
#iterations: 169
currently lose_sum: 0.5346322059631348
time_elpased: 2.864
#iterations: 170
currently lose_sum: 0.6308517456054688
time_elpased: 2.472
#iterations: 171
currently lose_sum: 0.5795385837554932
time_elpased: 2.449
#iterations: 172
currently lose_sum: 0.5859240889549255
time_elpased: 2.5
#iterations: 173
currently lose_sum: 0.5548341870307922
time_elpased: 2.518
#iterations: 174
currently lose_sum: 0.5919854044914246
time_elpased: 2.498
#iterations: 175
currently lose_sum: 0.5144855380058289
time_elpased: 2.561
#iterations: 176
currently lose_sum: 0.5088675022125244
time_elpased: 2.551
#iterations: 177
currently lose_sum: 0.5616781115531921
time_elpased: 2.54
#iterations: 178
currently lose_sum: 0.5413022041320801
time_elpased: 2.463
#iterations: 179
currently lose_sum: 0.6114885807037354
time_elpased: 2.679
start validation test
0.6948
0.69468003084
0.710567823344
0.70253411306
0.694569625958
14.597
#iterations: 180
currently lose_sum: 0.5385650396347046
time_elpased: 2.6
#iterations: 181
currently lose_sum: 0.526966392993927
time_elpased: 2.506
#iterations: 182
currently lose_sum: 0.5726590156555176
time_elpased: 2.666
#iterations: 183
currently lose_sum: 0.5667601227760315
time_elpased: 2.611
#iterations: 184
currently lose_sum: 0.48720863461494446
time_elpased: 2.446
#iterations: 185
currently lose_sum: 0.5136852264404297
time_elpased: 2.556
#iterations: 186
currently lose_sum: 0.5278029441833496
time_elpased: 2.538
#iterations: 187
currently lose_sum: 0.5337637066841125
time_elpased: 2.436
#iterations: 188
currently lose_sum: 0.5251321196556091
time_elpased: 2.493
#iterations: 189
currently lose_sum: 0.5470041036605835
time_elpased: 2.455
#iterations: 190
currently lose_sum: 0.5516538023948669
time_elpased: 2.432
#iterations: 191
currently lose_sum: 0.5563275814056396
time_elpased: 2.442
#iterations: 192
currently lose_sum: 0.5037432312965393
time_elpased: 2.683
#iterations: 193
currently lose_sum: 0.6214431524276733
time_elpased: 2.462
#iterations: 194
currently lose_sum: 0.538736879825592
time_elpased: 2.678
#iterations: 195
currently lose_sum: 0.7119914293289185
time_elpased: 2.746
#iterations: 196
currently lose_sum: 0.537223756313324
time_elpased: 2.489
#iterations: 197
currently lose_sum: 0.5247341394424438
time_elpased: 2.689
#iterations: 198
currently lose_sum: 0.5377845168113708
time_elpased: 2.837
#iterations: 199
currently lose_sum: 0.49081870913505554
time_elpased: 2.476
start validation test
0.6944
0.71465076661
0.66167192429
0.687141687142
0.694878169937
14.574
#iterations: 200
currently lose_sum: 0.5284786224365234
time_elpased: 2.478
#iterations: 201
currently lose_sum: 0.5769885778427124
time_elpased: 2.58
#iterations: 202
currently lose_sum: 0.6130039691925049
time_elpased: 2.43
#iterations: 203
currently lose_sum: 0.500088632106781
time_elpased: 2.497
#iterations: 204
currently lose_sum: 0.5399007201194763
time_elpased: 2.461
#iterations: 205
currently lose_sum: 0.4904504120349884
time_elpased: 2.488
#iterations: 206
currently lose_sum: 0.5238199830055237
time_elpased: 2.48
#iterations: 207
currently lose_sum: 0.46608254313468933
time_elpased: 2.495
#iterations: 208
currently lose_sum: 0.4717365503311157
time_elpased: 2.543
#iterations: 209
currently lose_sum: 0.5287706255912781
time_elpased: 2.474
#iterations: 210
currently lose_sum: 0.5671250820159912
time_elpased: 2.617
#iterations: 211
currently lose_sum: 0.5585966110229492
time_elpased: 2.516
#iterations: 212
currently lose_sum: 0.531827449798584
time_elpased: 2.508
#iterations: 213
currently lose_sum: 0.5883867740631104
time_elpased: 2.514
#iterations: 214
currently lose_sum: 0.6149858832359314
time_elpased: 2.971
#iterations: 215
currently lose_sum: 0.5146116018295288
time_elpased: 2.522
#iterations: 216
currently lose_sum: 0.5069223046302795
time_elpased: 2.497
#iterations: 217
currently lose_sum: 0.5955960750579834
time_elpased: 2.724
#iterations: 218
currently lose_sum: 0.5351661443710327
time_elpased: 2.466
#iterations: 219
currently lose_sum: 0.5092942118644714
time_elpased: 2.445
start validation test
0.664
0.817507418398
0.434542586751
0.56745623069
0.667352462207
15.726
#iterations: 220
currently lose_sum: 0.5041731595993042
time_elpased: 2.894
#iterations: 221
currently lose_sum: 0.49674323201179504
time_elpased: 2.511
#iterations: 222
currently lose_sum: 0.5090208649635315
time_elpased: 2.67
#iterations: 223
currently lose_sum: 0.5065091252326965
time_elpased: 2.729
#iterations: 224
currently lose_sum: 0.49407294392585754
time_elpased: 2.76
#iterations: 225
currently lose_sum: 0.566525936126709
time_elpased: 2.554
#iterations: 226
currently lose_sum: 0.6004246473312378
time_elpased: 2.514
#iterations: 227
currently lose_sum: 0.5226503014564514
time_elpased: 2.451
#iterations: 228
currently lose_sum: 0.4964539706707001
time_elpased: 2.499
#iterations: 229
currently lose_sum: 0.5598267316818237
time_elpased: 2.823
#iterations: 230
currently lose_sum: 0.5087767243385315
time_elpased: 2.484
#iterations: 231
currently lose_sum: 0.5351652503013611
time_elpased: 2.496
#iterations: 232
currently lose_sum: 0.5347239971160889
time_elpased: 2.634
#iterations: 233
currently lose_sum: 0.3967813551425934
time_elpased: 2.646
#iterations: 234
currently lose_sum: 0.5526684522628784
time_elpased: 2.667
#iterations: 235
currently lose_sum: 0.5147722363471985
time_elpased: 2.497
#iterations: 236
currently lose_sum: 0.5509142875671387
time_elpased: 2.568
#iterations: 237
currently lose_sum: 0.5212241411209106
time_elpased: 2.454
#iterations: 238
currently lose_sum: 0.5401719212532043
time_elpased: 2.574
#iterations: 239
currently lose_sum: 0.6994866728782654
time_elpased: 2.459
start validation test
0.706
0.709019607843
0.712933753943
0.710971293748
0.705898695153
14.195
#iterations: 240
currently lose_sum: 0.6232496500015259
time_elpased: 2.449
#iterations: 241
currently lose_sum: 0.5385368466377258
time_elpased: 2.467
#iterations: 242
currently lose_sum: 0.5889060497283936
time_elpased: 2.478
#iterations: 243
currently lose_sum: 0.4561305344104767
time_elpased: 2.511
#iterations: 244
currently lose_sum: 0.4668309688568115
time_elpased: 2.454
#iterations: 245
currently lose_sum: 0.5126016736030579
time_elpased: 2.72
#iterations: 246
currently lose_sum: 0.660319447517395
time_elpased: 2.584
#iterations: 247
currently lose_sum: 0.5122429728507996
time_elpased: 2.443
#iterations: 248
currently lose_sum: 0.44137871265411377
time_elpased: 2.529
#iterations: 249
currently lose_sum: 0.45476478338241577
time_elpased: 2.489
#iterations: 250
currently lose_sum: 0.4825507402420044
time_elpased: 2.437
#iterations: 251
currently lose_sum: 0.5141664743423462
time_elpased: 2.838
#iterations: 252
currently lose_sum: 0.5591982007026672
time_elpased: 2.624
#iterations: 253
currently lose_sum: 0.6207630634307861
time_elpased: 2.549
#iterations: 254
currently lose_sum: 0.5705968737602234
time_elpased: 2.465
#iterations: 255
currently lose_sum: 0.47961682081222534
time_elpased: 2.554
#iterations: 256
currently lose_sum: 0.6005670428276062
time_elpased: 2.471
#iterations: 257
currently lose_sum: 0.5593552589416504
time_elpased: 2.482
#iterations: 258
currently lose_sum: 0.6214172840118408
time_elpased: 2.505
#iterations: 259
currently lose_sum: 0.5890102386474609
time_elpased: 2.587
start validation test
0.7068
0.707203718048
0.720031545741
0.713559984369
0.706606681962
14.308
#iterations: 260
currently lose_sum: 0.5095555782318115
time_elpased: 2.572
#iterations: 261
currently lose_sum: 0.5192262530326843
time_elpased: 2.512
#iterations: 262
currently lose_sum: 0.5483994483947754
time_elpased: 2.473
#iterations: 263
currently lose_sum: 0.4760972559452057
time_elpased: 2.736
#iterations: 264
currently lose_sum: 0.5299352407455444
time_elpased: 2.425
#iterations: 265
currently lose_sum: 0.5855086445808411
time_elpased: 2.522
#iterations: 266
currently lose_sum: 0.5801149010658264
time_elpased: 2.486
#iterations: 267
currently lose_sum: 0.5417282581329346
time_elpased: 2.44
#iterations: 268
currently lose_sum: 0.5464528799057007
time_elpased: 2.428
#iterations: 269
currently lose_sum: 0.4790937304496765
time_elpased: 2.536
#iterations: 270
currently lose_sum: 0.5308080911636353
time_elpased: 2.413
#iterations: 271
currently lose_sum: 0.4868902564048767
time_elpased: 2.583
#iterations: 272
currently lose_sum: 0.448695570230484
time_elpased: 2.456
#iterations: 273
currently lose_sum: 0.46835434436798096
time_elpased: 2.517
#iterations: 274
currently lose_sum: 0.608046293258667
time_elpased: 2.464
#iterations: 275
currently lose_sum: 0.48645344376564026
time_elpased: 2.636
#iterations: 276
currently lose_sum: 0.5176606178283691
time_elpased: 2.485
#iterations: 277
currently lose_sum: 0.6489695906639099
time_elpased: 2.48
#iterations: 278
currently lose_sum: 0.47403690218925476
time_elpased: 2.696
#iterations: 279
currently lose_sum: 0.5122293829917908
time_elpased: 2.713
start validation test
0.696
0.665580182529
0.805205047319
0.728765167737
0.694404471711
14.167
#iterations: 280
currently lose_sum: 0.4338427782058716
time_elpased: 2.511
#iterations: 281
currently lose_sum: 0.5292859673500061
time_elpased: 2.545
#iterations: 282
currently lose_sum: 0.45541301369667053
time_elpased: 2.45
#iterations: 283
currently lose_sum: 0.452304482460022
time_elpased: 2.685
#iterations: 284
currently lose_sum: 0.5555956363677979
time_elpased: 2.638
#iterations: 285
currently lose_sum: 0.5515100955963135
time_elpased: 2.542
#iterations: 286
currently lose_sum: 0.6508764624595642
time_elpased: 2.442
#iterations: 287
currently lose_sum: 0.6178543567657471
time_elpased: 2.555
#iterations: 288
currently lose_sum: 0.5118497610092163
time_elpased: 2.454
#iterations: 289
currently lose_sum: 0.48626744747161865
time_elpased: 2.529
#iterations: 290
currently lose_sum: 0.4897613525390625
time_elpased: 2.451
#iterations: 291
currently lose_sum: 0.5090946555137634
time_elpased: 2.748
#iterations: 292
currently lose_sum: 0.4680381417274475
time_elpased: 2.496
#iterations: 293
currently lose_sum: 0.6380142569541931
time_elpased: 2.489
#iterations: 294
currently lose_sum: 0.5310011506080627
time_elpased: 2.577
#iterations: 295
currently lose_sum: 0.49947765469551086
time_elpased: 2.57
#iterations: 296
currently lose_sum: 0.4992105960845947
time_elpased: 2.522
#iterations: 297
currently lose_sum: 0.5285535454750061
time_elpased: 2.448
#iterations: 298
currently lose_sum: 0.4623590409755707
time_elpased: 2.493
#iterations: 299
currently lose_sum: 0.5557076334953308
time_elpased: 2.487
start validation test
0.7052
0.772867420349
0.593059936909
0.671128960286
0.706838410013
14.424
#iterations: 300
currently lose_sum: 0.4719896614551544
time_elpased: 2.439
#iterations: 301
currently lose_sum: 0.5386821627616882
time_elpased: 2.486
#iterations: 302
currently lose_sum: 0.5927086472511292
time_elpased: 2.546
#iterations: 303
currently lose_sum: 0.49834588170051575
time_elpased: 2.468
#iterations: 304
currently lose_sum: 0.3818696141242981
time_elpased: 2.473
#iterations: 305
currently lose_sum: 0.5252284407615662
time_elpased: 2.475
#iterations: 306
currently lose_sum: 0.5514021515846252
time_elpased: 2.708
#iterations: 307
currently lose_sum: 0.44969016313552856
time_elpased: 3.031
#iterations: 308
currently lose_sum: 0.5039473176002502
time_elpased: 2.583
#iterations: 309
currently lose_sum: 0.5542073249816895
time_elpased: 2.522
#iterations: 310
currently lose_sum: 0.5791771411895752
time_elpased: 2.511
#iterations: 311
currently lose_sum: 0.5590335726737976
time_elpased: 2.513
#iterations: 312
currently lose_sum: 0.5388627052307129
time_elpased: 2.495
#iterations: 313
currently lose_sum: 0.5657976269721985
time_elpased: 2.463
#iterations: 314
currently lose_sum: 0.5670152902603149
time_elpased: 2.652
#iterations: 315
currently lose_sum: 0.45239341259002686
time_elpased: 2.516
#iterations: 316
currently lose_sum: 0.6249150633811951
time_elpased: 2.524
#iterations: 317
currently lose_sum: 0.5643296837806702
time_elpased: 2.499
#iterations: 318
currently lose_sum: 0.4777069389820099
time_elpased: 2.479
#iterations: 319
currently lose_sum: 0.4900367856025696
time_elpased: 2.472
start validation test
0.714
0.791359325606
0.592271293375
0.67749210645
0.715778503831
14.128
#iterations: 320
currently lose_sum: 0.41086873412132263
time_elpased: 2.462
#iterations: 321
currently lose_sum: 0.49606239795684814
time_elpased: 2.787
#iterations: 322
currently lose_sum: 0.6357589960098267
time_elpased: 2.452
#iterations: 323
currently lose_sum: 0.4210759699344635
time_elpased: 2.442
#iterations: 324
currently lose_sum: 0.5299327969551086
time_elpased: 2.466
#iterations: 325
currently lose_sum: 0.5063607692718506
time_elpased: 2.696
#iterations: 326
currently lose_sum: 0.46634751558303833
time_elpased: 2.511
#iterations: 327
currently lose_sum: 0.5000700354576111
time_elpased: 2.635
#iterations: 328
currently lose_sum: 0.5209380984306335
time_elpased: 2.5
#iterations: 329
currently lose_sum: 0.5193545818328857
time_elpased: 2.599
#iterations: 330
currently lose_sum: 0.42680466175079346
time_elpased: 2.468
#iterations: 331
currently lose_sum: 0.613884449005127
time_elpased: 2.712
#iterations: 332
currently lose_sum: 0.4695342183113098
time_elpased: 2.478
#iterations: 333
currently lose_sum: 0.5438315272331238
time_elpased: 2.455
#iterations: 334
currently lose_sum: 0.4520632028579712
time_elpased: 2.55
#iterations: 335
currently lose_sum: 0.5196784734725952
time_elpased: 2.532
#iterations: 336
currently lose_sum: 0.3989125192165375
time_elpased: 2.526
#iterations: 337
currently lose_sum: 0.5335702300071716
time_elpased: 2.486
#iterations: 338
currently lose_sum: 0.5086400508880615
time_elpased: 2.895
#iterations: 339
currently lose_sum: 0.5283467173576355
time_elpased: 2.497
start validation test
0.7172
0.703113685735
0.765772870662
0.733106832767
0.716490331435
13.868
#iterations: 340
currently lose_sum: 0.6159716844558716
time_elpased: 2.544
#iterations: 341
currently lose_sum: 0.5327267646789551
time_elpased: 2.475
#iterations: 342
currently lose_sum: 0.6311132907867432
time_elpased: 2.639
#iterations: 343
currently lose_sum: 0.4052164554595947
time_elpased: 2.408
#iterations: 344
currently lose_sum: 0.5260489583015442
time_elpased: 2.473
#iterations: 345
currently lose_sum: 0.49390220642089844
time_elpased: 2.454
#iterations: 346
currently lose_sum: 0.48100271821022034
time_elpased: 2.514
#iterations: 347
currently lose_sum: 0.5486482381820679
time_elpased: 2.447
#iterations: 348
currently lose_sum: 0.5181182026863098
time_elpased: 2.478
#iterations: 349
currently lose_sum: 0.6440699100494385
time_elpased: 2.551
#iterations: 350
currently lose_sum: 0.4434337615966797
time_elpased: 2.473
#iterations: 351
currently lose_sum: 0.42739394307136536
time_elpased: 2.531
#iterations: 352
currently lose_sum: 0.4986572265625
time_elpased: 2.479
#iterations: 353
currently lose_sum: 0.45887434482574463
time_elpased: 2.525
#iterations: 354
currently lose_sum: 0.5149961113929749
time_elpased: 2.426
#iterations: 355
currently lose_sum: 0.5199072360992432
time_elpased: 2.519
#iterations: 356
currently lose_sum: 0.5662177205085754
time_elpased: 2.596
#iterations: 357
currently lose_sum: 0.5483874678611755
time_elpased: 2.725
#iterations: 358
currently lose_sum: 0.5193235874176025
time_elpased: 2.721
#iterations: 359
currently lose_sum: 0.44665905833244324
time_elpased: 2.49
start validation test
0.642
0.87374749499
0.343848580442
0.493491794001
0.646356108403
16.802
#iterations: 360
currently lose_sum: 0.5360004901885986
time_elpased: 2.482
#iterations: 361
currently lose_sum: 0.5156437158584595
time_elpased: 2.535
#iterations: 362
currently lose_sum: 0.5424982905387878
time_elpased: 2.443
#iterations: 363
currently lose_sum: 0.5262736082077026
time_elpased: 2.446
#iterations: 364
currently lose_sum: 0.3888372778892517
time_elpased: 2.593
#iterations: 365
currently lose_sum: 0.45939362049102783
time_elpased: 2.471
#iterations: 366
currently lose_sum: 0.5900905728340149
time_elpased: 2.433
#iterations: 367
currently lose_sum: 0.47101253271102905
time_elpased: 2.708
#iterations: 368
currently lose_sum: 0.47189465165138245
time_elpased: 2.512
#iterations: 369
currently lose_sum: 0.4908941984176636
time_elpased: 2.5
#iterations: 370
currently lose_sum: 0.4862261712551117
time_elpased: 2.63
#iterations: 371
currently lose_sum: 0.6885989904403687
time_elpased: 2.44
#iterations: 372
currently lose_sum: 0.443431556224823
time_elpased: 2.483
#iterations: 373
currently lose_sum: 0.49141934514045715
time_elpased: 2.59
#iterations: 374
currently lose_sum: 0.4578055143356323
time_elpased: 2.818
#iterations: 375
currently lose_sum: 0.44642916321754456
time_elpased: 2.634
#iterations: 376
currently lose_sum: 0.5159696936607361
time_elpased: 2.548
#iterations: 377
currently lose_sum: 0.49092739820480347
time_elpased: 2.484
#iterations: 378
currently lose_sum: 0.4760207235813141
time_elpased: 2.553
#iterations: 379
currently lose_sum: 0.3915448784828186
time_elpased: 2.524
start validation test
0.7208
0.6875
0.824132492114
0.749641319943
0.719290272031
13.888
#iterations: 380
currently lose_sum: 0.4401606619358063
time_elpased: 2.485
#iterations: 381
currently lose_sum: 0.41196098923683167
time_elpased: 2.452
#iterations: 382
currently lose_sum: 0.5798096656799316
time_elpased: 2.527
#iterations: 383
currently lose_sum: 0.40435126423835754
time_elpased: 2.534
#iterations: 384
currently lose_sum: 0.5382556319236755
time_elpased: 2.502
#iterations: 385
currently lose_sum: 0.5662973523139954
time_elpased: 2.462
#iterations: 386
currently lose_sum: 0.4676162004470825
time_elpased: 2.457
#iterations: 387
currently lose_sum: 0.5015794634819031
time_elpased: 2.46
#iterations: 388
currently lose_sum: 0.49959129095077515
time_elpased: 2.469
#iterations: 389
currently lose_sum: 0.40705615282058716
time_elpased: 2.539
#iterations: 390
currently lose_sum: 0.5038902759552002
time_elpased: 2.459
#iterations: 391
currently lose_sum: 0.48400557041168213
time_elpased: 2.516
#iterations: 392
currently lose_sum: 0.734093189239502
time_elpased: 2.599
#iterations: 393
currently lose_sum: 0.33912932872772217
time_elpased: 2.407
#iterations: 394
currently lose_sum: 0.40494033694267273
time_elpased: 2.479
#iterations: 395
currently lose_sum: 0.5861010551452637
time_elpased: 2.545
#iterations: 396
currently lose_sum: 0.4588273763656616
time_elpased: 2.459
#iterations: 397
currently lose_sum: 0.5467058420181274
time_elpased: 2.488
#iterations: 398
currently lose_sum: 0.46801239252090454
time_elpased: 2.47
#iterations: 399
currently lose_sum: 0.44540244340896606
time_elpased: 2.46
start validation test
0.7292
0.740831295844
0.716876971609
0.728657314629
0.729380044246
13.506
#iterations: 400
currently lose_sum: 0.4876868426799774
time_elpased: 2.465
#iterations: 401
currently lose_sum: 0.46386367082595825
time_elpased: 2.533
#iterations: 402
currently lose_sum: 0.477996826171875
time_elpased: 2.486
#iterations: 403
currently lose_sum: 0.5005854964256287
time_elpased: 2.491
#iterations: 404
currently lose_sum: 0.41737183928489685
time_elpased: 2.457
#iterations: 405
currently lose_sum: 0.5351293683052063
time_elpased: 2.563
#iterations: 406
currently lose_sum: 0.47184470295906067
time_elpased: 2.479
#iterations: 407
currently lose_sum: 0.43925121426582336
time_elpased: 2.534
#iterations: 408
currently lose_sum: 0.5043070912361145
time_elpased: 2.508
#iterations: 409
currently lose_sum: 0.45618781447410583
time_elpased: 2.457
#iterations: 410
currently lose_sum: 0.6385960578918457
time_elpased: 2.575
#iterations: 411
currently lose_sum: 0.5786849856376648
time_elpased: 2.665
#iterations: 412
currently lose_sum: 0.43862923979759216
time_elpased: 2.556
#iterations: 413
currently lose_sum: 0.4398013949394226
time_elpased: 2.944
#iterations: 414
currently lose_sum: 0.48113441467285156
time_elpased: 2.557
#iterations: 415
currently lose_sum: 0.46673348546028137
time_elpased: 2.687
#iterations: 416
currently lose_sum: 0.4627632796764374
time_elpased: 2.644
#iterations: 417
currently lose_sum: 0.46454331278800964
time_elpased: 2.763
#iterations: 418
currently lose_sum: 0.48577892780303955
time_elpased: 2.432
#iterations: 419
currently lose_sum: 0.4578370153903961
time_elpased: 2.659
start validation test
0.736
0.746353322528
0.726340694006
0.736211031175
0.736141126224
13.540
#iterations: 420
currently lose_sum: 0.5135469436645508
time_elpased: 2.447
#iterations: 421
currently lose_sum: 0.4608720541000366
time_elpased: 2.659
#iterations: 422
currently lose_sum: 0.38599053025245667
time_elpased: 2.462
#iterations: 423
currently lose_sum: 0.6027382612228394
time_elpased: 2.491
#iterations: 424
currently lose_sum: 0.4226556420326233
time_elpased: 2.484
#iterations: 425
currently lose_sum: 0.4759896993637085
time_elpased: 2.544
#iterations: 426
currently lose_sum: 0.5172744393348694
time_elpased: 2.444
#iterations: 427
currently lose_sum: 0.49891427159309387
time_elpased: 2.424
#iterations: 428
currently lose_sum: 0.605334997177124
time_elpased: 2.505
#iterations: 429
currently lose_sum: 0.5637798309326172
time_elpased: 2.519
#iterations: 430
currently lose_sum: 0.5240877270698547
time_elpased: 2.448
#iterations: 431
currently lose_sum: 0.4546051025390625
time_elpased: 2.576
#iterations: 432
currently lose_sum: 0.3926923871040344
time_elpased: 2.503
#iterations: 433
currently lose_sum: 0.4935745298862457
time_elpased: 2.466
#iterations: 434
currently lose_sum: 0.5171000361442566
time_elpased: 2.486
#iterations: 435
currently lose_sum: 0.47568076848983765
time_elpased: 2.472
#iterations: 436
currently lose_sum: 0.46890953183174133
time_elpased: 2.425
#iterations: 437
currently lose_sum: 0.43181174993515015
time_elpased: 2.511
#iterations: 438
currently lose_sum: 0.38376280665397644
time_elpased: 2.604
#iterations: 439
currently lose_sum: 0.6128821969032288
time_elpased: 2.461
start validation test
0.6992
0.824937027708
0.516561514196
0.635305528613
0.701868419435
14.837
#iterations: 440
currently lose_sum: 0.41767552495002747
time_elpased: 2.435
#iterations: 441
currently lose_sum: 0.519690752029419
time_elpased: 2.534
#iterations: 442
currently lose_sum: 0.5735338926315308
time_elpased: 2.489
#iterations: 443
currently lose_sum: 0.4229566156864166
time_elpased: 2.636
#iterations: 444
currently lose_sum: 0.5808696150779724
time_elpased: 2.813
#iterations: 445
currently lose_sum: 0.4295467436313629
time_elpased: 2.46
#iterations: 446
currently lose_sum: 0.3957652151584625
time_elpased: 2.592
#iterations: 447
currently lose_sum: 0.5109145641326904
time_elpased: 2.478
#iterations: 448
currently lose_sum: 0.3739786446094513
time_elpased: 2.551
#iterations: 449
currently lose_sum: 0.4113923907279968
time_elpased: 2.489
#iterations: 450
currently lose_sum: 0.5185155272483826
time_elpased: 2.673
#iterations: 451
currently lose_sum: 0.48847290873527527
time_elpased: 2.46
#iterations: 452
currently lose_sum: 0.43510422110557556
time_elpased: 2.454
#iterations: 453
currently lose_sum: 0.7007843255996704
time_elpased: 2.473
#iterations: 454
currently lose_sum: 0.5434243679046631
time_elpased: 2.761
#iterations: 455
currently lose_sum: 0.4970622956752777
time_elpased: 2.622
#iterations: 456
currently lose_sum: 0.40321946144104004
time_elpased: 2.606
#iterations: 457
currently lose_sum: 0.41019752621650696
time_elpased: 2.573
#iterations: 458
currently lose_sum: 0.5793532729148865
time_elpased: 2.801
#iterations: 459
currently lose_sum: 0.4767893850803375
time_elpased: 2.775
start validation test
0.7344
0.774545454545
0.671924290221
0.719594594595
0.735312794461
13.733
#iterations: 460
currently lose_sum: 0.4144028127193451
time_elpased: 2.491
#iterations: 461
currently lose_sum: 0.4295288026332855
time_elpased: 2.502
#iterations: 462
currently lose_sum: 0.48502808809280396
time_elpased: 2.459
#iterations: 463
currently lose_sum: 0.3942810893058777
time_elpased: 2.465
#iterations: 464
currently lose_sum: 0.5182971358299255
time_elpased: 2.47
#iterations: 465
currently lose_sum: 0.4929376244544983
time_elpased: 2.485
#iterations: 466
currently lose_sum: 0.4190256595611572
time_elpased: 2.536
#iterations: 467
currently lose_sum: 0.5112972855567932
time_elpased: 2.528
#iterations: 468
currently lose_sum: 0.38392001390457153
time_elpased: 2.8
#iterations: 469
currently lose_sum: 0.5303361415863037
time_elpased: 2.44
#iterations: 470
currently lose_sum: 0.3835505545139313
time_elpased: 2.449
#iterations: 471
currently lose_sum: 0.5769380331039429
time_elpased: 2.88
#iterations: 472
currently lose_sum: 0.4623769521713257
time_elpased: 2.519
#iterations: 473
currently lose_sum: 0.37860533595085144
time_elpased: 2.454
#iterations: 474
currently lose_sum: 0.4458845555782318
time_elpased: 2.516
#iterations: 475
currently lose_sum: 0.47524863481521606
time_elpased: 2.521
#iterations: 476
currently lose_sum: 0.4130673110485077
time_elpased: 2.563
#iterations: 477
currently lose_sum: 0.5513206720352173
time_elpased: 2.471
#iterations: 478
currently lose_sum: 0.6251173615455627
time_elpased: 2.552
#iterations: 479
currently lose_sum: 0.47278159856796265
time_elpased: 2.534
start validation test
0.6964
0.846258503401
0.490536277603
0.621068397404
0.699407749191
15.068
#iterations: 480
currently lose_sum: 0.5004376769065857
time_elpased: 2.591
#iterations: 481
currently lose_sum: 0.49876606464385986
time_elpased: 2.66
#iterations: 482
currently lose_sum: 0.5391560196876526
time_elpased: 2.459
#iterations: 483
currently lose_sum: 0.5289124846458435
time_elpased: 2.578
#iterations: 484
currently lose_sum: 0.4831852614879608
time_elpased: 2.492
#iterations: 485
currently lose_sum: 0.5173442959785461
time_elpased: 2.443
#iterations: 486
currently lose_sum: 0.6958340406417847
time_elpased: 2.5
#iterations: 487
currently lose_sum: 0.4229836165904999
time_elpased: 2.457
#iterations: 488
currently lose_sum: 0.44034361839294434
time_elpased: 2.539
#iterations: 489
currently lose_sum: 0.4527072012424469
time_elpased: 2.525
#iterations: 490
currently lose_sum: 0.7864026427268982
time_elpased: 2.536
#iterations: 491
currently lose_sum: 0.571053147315979
time_elpased: 2.476
#iterations: 492
currently lose_sum: 0.3495579659938812
time_elpased: 2.757
#iterations: 493
currently lose_sum: 0.4625425636768341
time_elpased: 2.458
#iterations: 494
currently lose_sum: 0.455240935087204
time_elpased: 2.778
#iterations: 495
currently lose_sum: 0.4140625298023224
time_elpased: 2.466
#iterations: 496
currently lose_sum: 0.5820869207382202
time_elpased: 2.564
#iterations: 497
currently lose_sum: 0.4931596517562866
time_elpased: 2.46
#iterations: 498
currently lose_sum: 0.4580361843109131
time_elpased: 2.592
#iterations: 499
currently lose_sum: 0.4716537594795227
time_elpased: 2.507
start validation test
0.7404
0.747798238591
0.736593059937
0.742153357171
0.740455620878
13.498
#iterations: 500
currently lose_sum: 0.4873727560043335
time_elpased: 2.483
#iterations: 501
currently lose_sum: 0.42397987842559814
time_elpased: 2.457
#iterations: 502
currently lose_sum: 0.4893585443496704
time_elpased: 2.438
#iterations: 503
currently lose_sum: 0.47468098998069763
time_elpased: 2.526
#iterations: 504
currently lose_sum: 0.5375022292137146
time_elpased: 2.519
#iterations: 505
currently lose_sum: 0.4446941018104553
time_elpased: 2.478
#iterations: 506
currently lose_sum: 0.4442605674266815
time_elpased: 2.601
#iterations: 507
currently lose_sum: 0.3620630204677582
time_elpased: 2.47
#iterations: 508
currently lose_sum: 0.474818617105484
time_elpased: 2.514
#iterations: 509
currently lose_sum: 0.4323899745941162
time_elpased: 2.454
#iterations: 510
currently lose_sum: 0.4835081994533539
time_elpased: 2.472
#iterations: 511
currently lose_sum: 0.4783501923084259
time_elpased: 2.461
#iterations: 512
currently lose_sum: 0.4629463851451874
time_elpased: 2.479
#iterations: 513
currently lose_sum: 0.5460474491119385
time_elpased: 2.499
#iterations: 514
currently lose_sum: 0.43069908022880554
time_elpased: 2.463
#iterations: 515
currently lose_sum: 0.41272982954978943
time_elpased: 2.992
#iterations: 516
currently lose_sum: 0.44093379378318787
time_elpased: 2.525
#iterations: 517
currently lose_sum: 0.4096449911594391
time_elpased: 2.461
#iterations: 518
currently lose_sum: 0.5350599884986877
time_elpased: 2.646
#iterations: 519
currently lose_sum: 0.3797823190689087
time_elpased: 2.451
start validation test
0.74
0.754530477759
0.722397476341
0.738114423852
0.740257179729
13.393
#iterations: 520
currently lose_sum: 0.520301878452301
time_elpased: 2.411
#iterations: 521
currently lose_sum: 0.46220332384109497
time_elpased: 2.491
#iterations: 522
currently lose_sum: 0.4237045347690582
time_elpased: 2.614
#iterations: 523
currently lose_sum: 0.41502121090888977
time_elpased: 2.457
#iterations: 524
currently lose_sum: 0.39510658383369446
time_elpased: 2.551
#iterations: 525
currently lose_sum: 0.44770416617393494
time_elpased: 2.504
#iterations: 526
currently lose_sum: 0.40844231843948364
time_elpased: 2.476
#iterations: 527
currently lose_sum: 0.4143042266368866
time_elpased: 2.52
#iterations: 528
currently lose_sum: 0.4900771975517273
time_elpased: 2.854
#iterations: 529
currently lose_sum: 0.4440767168998718
time_elpased: 2.59
#iterations: 530
currently lose_sum: 0.4448706805706024
time_elpased: 2.435
#iterations: 531
currently lose_sum: 0.4565829336643219
time_elpased: 2.5
#iterations: 532
currently lose_sum: 0.35281699895858765
time_elpased: 2.501
#iterations: 533
currently lose_sum: 0.560014545917511
time_elpased: 2.479
#iterations: 534
currently lose_sum: 0.4548977315425873
time_elpased: 2.58
#iterations: 535
currently lose_sum: 0.3895074427127838
time_elpased: 2.544
#iterations: 536
currently lose_sum: 0.40333664417266846
time_elpased: 2.512
#iterations: 537
currently lose_sum: 0.4448249340057373
time_elpased: 2.63
#iterations: 538
currently lose_sum: 0.4526345729827881
time_elpased: 2.552
#iterations: 539
currently lose_sum: 0.40947845578193665
time_elpased: 2.445
start validation test
0.7324
0.727756653992
0.754731861199
0.74099883856
0.732073722807
13.536
#iterations: 540
currently lose_sum: 0.5479996800422668
time_elpased: 2.447
#iterations: 541
currently lose_sum: 0.46595001220703125
time_elpased: 3.085
#iterations: 542
currently lose_sum: 0.4056832194328308
time_elpased: 2.553
#iterations: 543
currently lose_sum: 0.512651264667511
time_elpased: 2.471
#iterations: 544
currently lose_sum: 0.45692214369773865
time_elpased: 2.467
#iterations: 545
currently lose_sum: 0.5082497596740723
time_elpased: 2.742
#iterations: 546
currently lose_sum: 0.4157325029373169
time_elpased: 2.759
#iterations: 547
currently lose_sum: 0.41989776492118835
time_elpased: 2.52
#iterations: 548
currently lose_sum: 0.4592786133289337
time_elpased: 2.563
#iterations: 549
currently lose_sum: 0.3518402874469757
time_elpased: 2.482
#iterations: 550
currently lose_sum: 0.45139721035957336
time_elpased: 2.612
#iterations: 551
currently lose_sum: 0.49104881286621094
time_elpased: 2.472
#iterations: 552
currently lose_sum: 0.45563599467277527
time_elpased: 2.469
#iterations: 553
currently lose_sum: 0.5369174480438232
time_elpased: 2.486
#iterations: 554
currently lose_sum: 0.49010008573532104
time_elpased: 2.455
#iterations: 555
currently lose_sum: 0.4825192987918854
time_elpased: 2.479
#iterations: 556
currently lose_sum: 0.44838523864746094
time_elpased: 2.541
#iterations: 557
currently lose_sum: 0.5258691310882568
time_elpased: 2.475
#iterations: 558
currently lose_sum: 0.42130088806152344
time_elpased: 2.538
#iterations: 559
currently lose_sum: 0.48148518800735474
time_elpased: 2.495
start validation test
0.692
0.828496042216
0.495268138801
0.61994076999
0.694874329141
15.228
#iterations: 560
currently lose_sum: 0.40243884921073914
time_elpased: 2.502
#iterations: 561
currently lose_sum: 0.48711854219436646
time_elpased: 2.463
#iterations: 562
currently lose_sum: 0.4276287853717804
time_elpased: 2.54
#iterations: 563
currently lose_sum: 0.6951257586479187
time_elpased: 2.473
#iterations: 564
currently lose_sum: 0.4269377589225769
time_elpased: 2.484
#iterations: 565
currently lose_sum: 0.46991971135139465
time_elpased: 2.581
#iterations: 566
currently lose_sum: 0.44205498695373535
time_elpased: 2.444
#iterations: 567
currently lose_sum: 0.41882193088531494
time_elpased: 2.502
#iterations: 568
currently lose_sum: 0.4030957818031311
time_elpased: 2.519
#iterations: 569
currently lose_sum: 0.4147407114505768
time_elpased: 2.484
#iterations: 570
currently lose_sum: 0.48707857728004456
time_elpased: 2.447
#iterations: 571
currently lose_sum: 0.46566203236579895
time_elpased: 2.56
#iterations: 572
currently lose_sum: 0.44339263439178467
time_elpased: 2.642
#iterations: 573
currently lose_sum: 0.572684109210968
time_elpased: 2.44
#iterations: 574
currently lose_sum: 0.42802688479423523
time_elpased: 2.45
#iterations: 575
currently lose_sum: 0.4567866623401642
time_elpased: 2.443
#iterations: 576
currently lose_sum: 0.4578748643398285
time_elpased: 2.618
#iterations: 577
currently lose_sum: 0.4059085547924042
time_elpased: 2.439
#iterations: 578
currently lose_sum: 0.4824502468109131
time_elpased: 2.454
#iterations: 579
currently lose_sum: 0.37929970026016235
time_elpased: 2.622
start validation test
0.7368
0.776268115942
0.675867507886
0.722596964587
0.73769024745
13.489
#iterations: 580
currently lose_sum: 0.3914875090122223
time_elpased: 2.495
#iterations: 581
currently lose_sum: 0.33265236020088196
time_elpased: 2.553
#iterations: 582
currently lose_sum: 0.5099895596504211
time_elpased: 2.503
#iterations: 583
currently lose_sum: 0.41805434226989746
time_elpased: 2.727
#iterations: 584
currently lose_sum: 0.441150963306427
time_elpased: 2.551
#iterations: 585
currently lose_sum: 0.39918285608291626
time_elpased: 2.456
#iterations: 586
currently lose_sum: 0.3971511125564575
time_elpased: 2.528
#iterations: 587
currently lose_sum: 0.4683856964111328
time_elpased: 2.506
#iterations: 588
currently lose_sum: 0.5613236427307129
time_elpased: 2.482
#iterations: 589
currently lose_sum: 0.5008512735366821
time_elpased: 2.443
#iterations: 590
currently lose_sum: 0.5096886157989502
time_elpased: 2.546
#iterations: 591
currently lose_sum: 0.40688255429267883
time_elpased: 2.529
#iterations: 592
currently lose_sum: 0.4189695715904236
time_elpased: 2.442
#iterations: 593
currently lose_sum: 0.43181857466697693
time_elpased: 2.488
#iterations: 594
currently lose_sum: 0.36313408613204956
time_elpased: 2.554
#iterations: 595
currently lose_sum: 0.42839059233665466
time_elpased: 2.46
#iterations: 596
currently lose_sum: 0.44216835498809814
time_elpased: 2.536
#iterations: 597
currently lose_sum: 0.4610445499420166
time_elpased: 2.457
#iterations: 598
currently lose_sum: 0.5293861031532288
time_elpased: 2.565
#iterations: 599
currently lose_sum: 0.46394333243370056
time_elpased: 2.473
start validation test
0.7376
0.769366197183
0.68927444795
0.727121464226
0.738306055144
13.481
acc: 0.743
pre: 0.767
rec: 0.708
F1: 0.736
auc: 0.743
