start to construct computing graph
graph construct over
3803
epochs start
#iterations: 0
currently lose_sum: 0.7016185522079468
time_elpased: 3.322
#iterations: 1
currently lose_sum: 0.6918255686759949
time_elpased: 3.099
#iterations: 2
currently lose_sum: 0.6867313981056213
time_elpased: 3.129
#iterations: 3
currently lose_sum: 0.6970192790031433
time_elpased: 3.126
#iterations: 4
currently lose_sum: 0.6941547989845276
time_elpased: 3.167
#iterations: 5
currently lose_sum: 0.6912038922309875
time_elpased: 3.114
#iterations: 6
currently lose_sum: 0.6904639601707458
time_elpased: 3.24
#iterations: 7
currently lose_sum: 0.6910746693611145
time_elpased: 3.447
#iterations: 8
currently lose_sum: 0.7159092426300049
time_elpased: 3.143
#iterations: 9
currently lose_sum: 0.6895835399627686
time_elpased: 3.224
#iterations: 10
currently lose_sum: 0.6940562725067139
time_elpased: 3.095
#iterations: 11
currently lose_sum: 0.687636137008667
time_elpased: 3.054
#iterations: 12
currently lose_sum: 0.6788197159767151
time_elpased: 3.192
#iterations: 13
currently lose_sum: 0.6834843158721924
time_elpased: 3.209
#iterations: 14
currently lose_sum: 0.7009878754615784
time_elpased: 3.069
#iterations: 15
currently lose_sum: 0.683840811252594
time_elpased: 3.133
#iterations: 16
currently lose_sum: 0.6727955341339111
time_elpased: 3.192
#iterations: 17
currently lose_sum: 0.6829572319984436
time_elpased: 3.386
#iterations: 18
currently lose_sum: 0.6891961097717285
time_elpased: 3.26
#iterations: 19
currently lose_sum: 0.6769087314605713
time_elpased: 3.778
start validation test
0.5448
0.560563380282
0.471191791634
0.512006861063
0.545814873919
17.160
#iterations: 20
currently lose_sum: 0.6787074208259583
time_elpased: 2.524
#iterations: 21
currently lose_sum: 0.6932130455970764
time_elpased: 2.531
#iterations: 22
currently lose_sum: 0.6779085397720337
time_elpased: 2.496
#iterations: 23
currently lose_sum: 0.6886230707168579
time_elpased: 2.496
#iterations: 24
currently lose_sum: 0.6652085781097412
time_elpased: 2.644
#iterations: 25
currently lose_sum: 0.6687437295913696
time_elpased: 2.762
#iterations: 26
currently lose_sum: 0.6683551669120789
time_elpased: 2.496
#iterations: 27
currently lose_sum: 0.684378981590271
time_elpased: 2.762
#iterations: 28
currently lose_sum: 0.6800814270973206
time_elpased: 2.428
#iterations: 29
currently lose_sum: 0.6944029927253723
time_elpased: 2.548
#iterations: 30
currently lose_sum: 0.6693680286407471
time_elpased: 2.521
#iterations: 31
currently lose_sum: 0.6664170622825623
time_elpased: 2.53
#iterations: 32
currently lose_sum: 0.681468665599823
time_elpased: 2.683
#iterations: 33
currently lose_sum: 0.6573717594146729
time_elpased: 2.525
#iterations: 34
currently lose_sum: 0.6665859222412109
time_elpased: 2.526
#iterations: 35
currently lose_sum: 0.6596647500991821
time_elpased: 2.658
#iterations: 36
currently lose_sum: 0.650441586971283
time_elpased: 2.423
#iterations: 37
currently lose_sum: 0.6624191403388977
time_elpased: 2.691
#iterations: 38
currently lose_sum: 0.6485729813575745
time_elpased: 2.484
#iterations: 39
currently lose_sum: 0.6641466021537781
time_elpased: 2.467
start validation test
0.5788
0.599074074074
0.510655090766
0.551342138901
0.579739548627
16.736
#iterations: 40
currently lose_sum: 0.6374520063400269
time_elpased: 2.48
#iterations: 41
currently lose_sum: 0.6841081380844116
time_elpased: 2.792
#iterations: 42
currently lose_sum: 0.6411394476890564
time_elpased: 2.471
#iterations: 43
currently lose_sum: 0.6469174027442932
time_elpased: 2.509
#iterations: 44
currently lose_sum: 0.638702392578125
time_elpased: 3.051
#iterations: 45
currently lose_sum: 0.6933899521827698
time_elpased: 2.468
#iterations: 46
currently lose_sum: 0.6735385060310364
time_elpased: 2.582
#iterations: 47
currently lose_sum: 0.6897846460342407
time_elpased: 2.483
#iterations: 48
currently lose_sum: 0.6233254075050354
time_elpased: 2.576
#iterations: 49
currently lose_sum: 0.6507960557937622
time_elpased: 2.481
#iterations: 50
currently lose_sum: 0.6922833323478699
time_elpased: 2.475
#iterations: 51
currently lose_sum: 0.6373912692070007
time_elpased: 2.494
#iterations: 52
currently lose_sum: 0.6399092674255371
time_elpased: 2.533
#iterations: 53
currently lose_sum: 0.6650439500808716
time_elpased: 2.516
#iterations: 54
currently lose_sum: 0.6423004269599915
time_elpased: 2.463
#iterations: 55
currently lose_sum: 0.6551975011825562
time_elpased: 2.533
#iterations: 56
currently lose_sum: 0.6361516714096069
time_elpased: 2.517
#iterations: 57
currently lose_sum: 0.6681414246559143
time_elpased: 2.517
#iterations: 58
currently lose_sum: 0.6877196431159973
time_elpased: 3.018
#iterations: 59
currently lose_sum: 0.6581709384918213
time_elpased: 2.52
start validation test
0.6012
0.714285714286
0.355169692186
0.474433315762
0.604592145363
16.496
#iterations: 60
currently lose_sum: 0.6434784531593323
time_elpased: 2.46
#iterations: 61
currently lose_sum: 0.7209945917129517
time_elpased: 2.456
#iterations: 62
currently lose_sum: 0.6234098672866821
time_elpased: 2.485
#iterations: 63
currently lose_sum: 0.6664982438087463
time_elpased: 2.557
#iterations: 64
currently lose_sum: 0.66056227684021
time_elpased: 2.547
#iterations: 65
currently lose_sum: 0.6191795468330383
time_elpased: 2.486
#iterations: 66
currently lose_sum: 0.6599376201629639
time_elpased: 2.515
#iterations: 67
currently lose_sum: 0.6387582421302795
time_elpased: 2.503
#iterations: 68
currently lose_sum: 0.6740818619728088
time_elpased: 2.473
#iterations: 69
currently lose_sum: 0.6561363339424133
time_elpased: 2.582
#iterations: 70
currently lose_sum: 0.6597241163253784
time_elpased: 2.505
#iterations: 71
currently lose_sum: 0.6527431607246399
time_elpased: 2.487
#iterations: 72
currently lose_sum: 0.6746436953544617
time_elpased: 2.587
#iterations: 73
currently lose_sum: 0.6509130597114563
time_elpased: 2.528
#iterations: 74
currently lose_sum: 0.618353545665741
time_elpased: 2.587
#iterations: 75
currently lose_sum: 0.6275033950805664
time_elpased: 2.637
#iterations: 76
currently lose_sum: 0.6575544476509094
time_elpased: 2.748
#iterations: 77
currently lose_sum: 0.6238739490509033
time_elpased: 2.609
#iterations: 78
currently lose_sum: 0.62615966796875
time_elpased: 2.489
#iterations: 79
currently lose_sum: 0.6107091307640076
time_elpased: 2.755
start validation test
0.6248
0.629019607843
0.632991318074
0.630999213218
0.624687062119
15.990
#iterations: 80
currently lose_sum: 0.6384996175765991
time_elpased: 2.538
#iterations: 81
currently lose_sum: 0.6140694618225098
time_elpased: 2.518
#iterations: 82
currently lose_sum: 0.6015074253082275
time_elpased: 2.482
#iterations: 83
currently lose_sum: 0.6122609972953796
time_elpased: 2.475
#iterations: 84
currently lose_sum: 0.621177077293396
time_elpased: 2.563
#iterations: 85
currently lose_sum: 0.6086877584457397
time_elpased: 2.457
#iterations: 86
currently lose_sum: 0.735646665096283
time_elpased: 2.772
#iterations: 87
currently lose_sum: 0.6440322995185852
time_elpased: 2.41
#iterations: 88
currently lose_sum: 0.6247009634971619
time_elpased: 2.815
#iterations: 89
currently lose_sum: 0.6459160447120667
time_elpased: 2.486
#iterations: 90
currently lose_sum: 0.6457405090332031
time_elpased: 3.11
#iterations: 91
currently lose_sum: 0.6221628189086914
time_elpased: 2.475
#iterations: 92
currently lose_sum: 0.5733763575553894
time_elpased: 2.683
#iterations: 93
currently lose_sum: 0.6847027540206909
time_elpased: 2.456
#iterations: 94
currently lose_sum: 0.6705140471458435
time_elpased: 2.48
#iterations: 95
currently lose_sum: 0.6647958159446716
time_elpased: 2.596
#iterations: 96
currently lose_sum: 0.5507571697235107
time_elpased: 2.512
#iterations: 97
currently lose_sum: 0.5589522123336792
time_elpased: 2.521
#iterations: 98
currently lose_sum: 0.571280300617218
time_elpased: 2.503
#iterations: 99
currently lose_sum: 0.648681640625
time_elpased: 2.483
start validation test
0.6284
0.673155737705
0.518547750592
0.585822559073
0.629914589002
15.855
#iterations: 100
currently lose_sum: 0.6405659317970276
time_elpased: 2.457
#iterations: 101
currently lose_sum: 0.5718762278556824
time_elpased: 2.464
#iterations: 102
currently lose_sum: 0.6348859071731567
time_elpased: 2.613
#iterations: 103
currently lose_sum: 0.6142111420631409
time_elpased: 2.455
#iterations: 104
currently lose_sum: 0.6420591473579407
time_elpased: 2.485
#iterations: 105
currently lose_sum: 0.5691369771957397
time_elpased: 2.48
#iterations: 106
currently lose_sum: 0.5437166094779968
time_elpased: 2.586
#iterations: 107
currently lose_sum: 0.6699824333190918
time_elpased: 2.52
#iterations: 108
currently lose_sum: 0.5952173471450806
time_elpased: 2.575
#iterations: 109
currently lose_sum: 0.6231846809387207
time_elpased: 2.525
#iterations: 110
currently lose_sum: 0.5951803922653198
time_elpased: 2.512
#iterations: 111
currently lose_sum: 0.6559715867042542
time_elpased: 2.474
#iterations: 112
currently lose_sum: 0.5752899050712585
time_elpased: 2.55
#iterations: 113
currently lose_sum: 0.5927137136459351
time_elpased: 2.514
#iterations: 114
currently lose_sum: 0.5947238802909851
time_elpased: 2.577
#iterations: 115
currently lose_sum: 0.6098951101303101
time_elpased: 2.745
#iterations: 116
currently lose_sum: 0.6342447996139526
time_elpased: 2.449
#iterations: 117
currently lose_sum: 0.527626097202301
time_elpased: 3.172
#iterations: 118
currently lose_sum: 0.6101082563400269
time_elpased: 2.55
#iterations: 119
currently lose_sum: 0.6255002617835999
time_elpased: 2.568
start validation test
0.6264
0.77520661157
0.370165745856
0.501068376068
0.629932832377
16.138
#iterations: 120
currently lose_sum: 0.5816866159439087
time_elpased: 2.486
#iterations: 121
currently lose_sum: 0.7444722056388855
time_elpased: 2.478
#iterations: 122
currently lose_sum: 0.5789856910705566
time_elpased: 2.496
#iterations: 123
currently lose_sum: 0.8392997980117798
time_elpased: 2.603
#iterations: 124
currently lose_sum: 0.6348757743835449
time_elpased: 2.465
#iterations: 125
currently lose_sum: 0.5553406476974487
time_elpased: 2.455
#iterations: 126
currently lose_sum: 0.6639277935028076
time_elpased: 2.46
#iterations: 127
currently lose_sum: 0.5850749015808105
time_elpased: 2.532
#iterations: 128
currently lose_sum: 0.5750284194946289
time_elpased: 2.523
#iterations: 129
currently lose_sum: 0.5619537234306335
time_elpased: 2.493
#iterations: 130
currently lose_sum: 0.6171333193778992
time_elpased: 2.528
#iterations: 131
currently lose_sum: 0.5332145094871521
time_elpased: 2.457
#iterations: 132
currently lose_sum: 0.5490802526473999
time_elpased: 2.551
#iterations: 133
currently lose_sum: 0.6041191816329956
time_elpased: 2.852
#iterations: 134
currently lose_sum: 0.5937893390655518
time_elpased: 2.496
#iterations: 135
currently lose_sum: 0.5834949612617493
time_elpased: 2.509
#iterations: 136
currently lose_sum: 0.5892148613929749
time_elpased: 2.457
#iterations: 137
currently lose_sum: 0.5380333065986633
time_elpased: 2.488
#iterations: 138
currently lose_sum: 0.5653282403945923
time_elpased: 2.639
#iterations: 139
currently lose_sum: 0.583373486995697
time_elpased: 2.495
start validation test
0.5832
0.883959044369
0.204419889503
0.332051282051
0.588422434614
18.805
#iterations: 140
currently lose_sum: 0.5349394083023071
time_elpased: 2.496
#iterations: 141
currently lose_sum: 0.6139383316040039
time_elpased: 2.44
#iterations: 142
currently lose_sum: 0.5507548451423645
time_elpased: 2.752
#iterations: 143
currently lose_sum: 0.598341166973114
time_elpased: 2.669
#iterations: 144
currently lose_sum: 0.6549057960510254
time_elpased: 2.478
#iterations: 145
currently lose_sum: 0.5933234691619873
time_elpased: 2.531
#iterations: 146
currently lose_sum: 0.6121384501457214
time_elpased: 2.519
#iterations: 147
currently lose_sum: 0.5607441663742065
time_elpased: 2.544
#iterations: 148
currently lose_sum: 0.6459941267967224
time_elpased: 2.529
#iterations: 149
currently lose_sum: 0.529173731803894
time_elpased: 2.556
#iterations: 150
currently lose_sum: 0.5300562977790833
time_elpased: 2.501
#iterations: 151
currently lose_sum: 0.4797576069831848
time_elpased: 2.457
#iterations: 152
currently lose_sum: 0.5499757528305054
time_elpased: 2.466
#iterations: 153
currently lose_sum: 0.5776328444480896
time_elpased: 2.474
#iterations: 154
currently lose_sum: 0.5568984150886536
time_elpased: 2.621
#iterations: 155
currently lose_sum: 0.6206048727035522
time_elpased: 2.429
#iterations: 156
currently lose_sum: 0.5458068251609802
time_elpased: 2.513
#iterations: 157
currently lose_sum: 0.4818546175956726
time_elpased: 2.597
#iterations: 158
currently lose_sum: 0.5442136526107788
time_elpased: 2.703
#iterations: 159
currently lose_sum: 0.6208658814430237
time_elpased: 2.446
start validation test
0.6824
0.676098287416
0.716653512234
0.695785440613
0.681927729353
14.659
#iterations: 160
currently lose_sum: 0.7237445116043091
time_elpased: 2.803
#iterations: 161
currently lose_sum: 0.569563090801239
time_elpased: 2.485
#iterations: 162
currently lose_sum: 0.52045077085495
time_elpased: 2.509
#iterations: 163
currently lose_sum: 0.6537623405456543
time_elpased: 2.482
#iterations: 164
currently lose_sum: 0.5677708983421326
time_elpased: 2.592
#iterations: 165
currently lose_sum: 0.530657947063446
time_elpased: 2.465
#iterations: 166
currently lose_sum: 0.5850626230239868
time_elpased: 2.517
#iterations: 167
currently lose_sum: 0.5592120289802551
time_elpased: 2.403
#iterations: 168
currently lose_sum: 0.49912330508232117
time_elpased: 2.601
#iterations: 169
currently lose_sum: 0.5842838883399963
time_elpased: 2.514
#iterations: 170
currently lose_sum: 0.5244446396827698
time_elpased: 2.471
#iterations: 171
currently lose_sum: 0.5091715455055237
time_elpased: 2.567
#iterations: 172
currently lose_sum: 0.5392868518829346
time_elpased: 2.498
#iterations: 173
currently lose_sum: 0.5509895086288452
time_elpased: 2.528
#iterations: 174
currently lose_sum: 0.5831432342529297
time_elpased: 2.605
#iterations: 175
currently lose_sum: 0.6359939575195312
time_elpased: 2.501
#iterations: 176
currently lose_sum: 0.634726345539093
time_elpased: 2.472
#iterations: 177
currently lose_sum: 0.6178188920021057
time_elpased: 2.49
#iterations: 178
currently lose_sum: 0.7116623520851135
time_elpased: 2.467
#iterations: 179
currently lose_sum: 0.5316449999809265
time_elpased: 2.519
start validation test
0.6888
0.730009407338
0.612470402526
0.666094420601
0.689852395099
14.772
#iterations: 180
currently lose_sum: 0.5271382927894592
time_elpased: 2.553
#iterations: 181
currently lose_sum: 0.6042742133140564
time_elpased: 2.897
#iterations: 182
currently lose_sum: 0.5691399574279785
time_elpased: 2.461
#iterations: 183
currently lose_sum: 0.5546854138374329
time_elpased: 2.542
#iterations: 184
currently lose_sum: 0.5534573197364807
time_elpased: 2.512
#iterations: 185
currently lose_sum: 0.5758956074714661
time_elpased: 2.638
#iterations: 186
currently lose_sum: 0.5089561939239502
time_elpased: 2.63
#iterations: 187
currently lose_sum: 0.5623491406440735
time_elpased: 2.459
#iterations: 188
currently lose_sum: 0.5683969259262085
time_elpased: 2.533
#iterations: 189
currently lose_sum: 0.5412636399269104
time_elpased: 2.537
#iterations: 190
currently lose_sum: 0.523809015750885
time_elpased: 2.504
#iterations: 191
currently lose_sum: 0.5855593085289001
time_elpased: 2.627
#iterations: 192
currently lose_sum: 0.7771857380867004
time_elpased: 2.736
#iterations: 193
currently lose_sum: 0.5832911133766174
time_elpased: 2.734
#iterations: 194
currently lose_sum: 0.54487144947052
time_elpased: 2.567
#iterations: 195
currently lose_sum: 0.6443405747413635
time_elpased: 2.444
#iterations: 196
currently lose_sum: 0.6400435566902161
time_elpased: 2.484
#iterations: 197
currently lose_sum: 0.5067756772041321
time_elpased: 2.596
#iterations: 198
currently lose_sum: 0.5121766924858093
time_elpased: 2.843
#iterations: 199
currently lose_sum: 0.49779465794563293
time_elpased: 2.526
start validation test
0.6972
0.706980519481
0.687450670876
0.697078831533
0.697334418974
14.341
#iterations: 200
currently lose_sum: 0.6273625493049622
time_elpased: 2.551
#iterations: 201
currently lose_sum: 0.5234313011169434
time_elpased: 2.483
#iterations: 202
currently lose_sum: 0.6188672780990601
time_elpased: 2.747
#iterations: 203
currently lose_sum: 0.5503253936767578
time_elpased: 2.514
#iterations: 204
currently lose_sum: 0.556039035320282
time_elpased: 2.528
#iterations: 205
currently lose_sum: 0.5061528086662292
time_elpased: 2.62
#iterations: 206
currently lose_sum: 0.6072496771812439
time_elpased: 2.487
#iterations: 207
currently lose_sum: 0.47825944423675537
time_elpased: 2.686
#iterations: 208
currently lose_sum: 0.5759156942367554
time_elpased: 2.465
#iterations: 209
currently lose_sum: 0.525346577167511
time_elpased: 2.52
#iterations: 210
currently lose_sum: 0.5904091000556946
time_elpased: 2.507
#iterations: 211
currently lose_sum: 0.49268558621406555
time_elpased: 2.458
#iterations: 212
currently lose_sum: 0.5016027092933655
time_elpased: 2.867
#iterations: 213
currently lose_sum: 0.6365793347358704
time_elpased: 2.501
#iterations: 214
currently lose_sum: 0.5401276350021362
time_elpased: 2.497
#iterations: 215
currently lose_sum: 0.5391913056373596
time_elpased: 2.442
#iterations: 216
currently lose_sum: 0.5619701147079468
time_elpased: 2.537
#iterations: 217
currently lose_sum: 0.5282644629478455
time_elpased: 2.455
#iterations: 218
currently lose_sum: 0.6231591105461121
time_elpased: 2.569
#iterations: 219
currently lose_sum: 0.5077828168869019
time_elpased: 2.825
start validation test
0.6608
0.618428490673
0.863456985004
0.720685111989
0.658005864765
15.262
#iterations: 220
currently lose_sum: 0.5005975961685181
time_elpased: 2.576
#iterations: 221
currently lose_sum: 0.6049016714096069
time_elpased: 2.586
#iterations: 222
currently lose_sum: 0.5671654939651489
time_elpased: 2.528
#iterations: 223
currently lose_sum: 0.5782603621482849
time_elpased: 2.452
#iterations: 224
currently lose_sum: 0.6417511701583862
time_elpased: 2.446
#iterations: 225
currently lose_sum: 0.5027455687522888
time_elpased: 2.551
#iterations: 226
currently lose_sum: 0.5464182496070862
time_elpased: 2.47
#iterations: 227
currently lose_sum: 0.509540319442749
time_elpased: 2.446
#iterations: 228
currently lose_sum: 0.5220959186553955
time_elpased: 2.64
#iterations: 229
currently lose_sum: 0.6126431822776794
time_elpased: 2.518
#iterations: 230
currently lose_sum: 0.4871021509170532
time_elpased: 2.475
#iterations: 231
currently lose_sum: 0.5451765656471252
time_elpased: 2.5
#iterations: 232
currently lose_sum: 0.5117258429527283
time_elpased: 2.42
#iterations: 233
currently lose_sum: 0.5120448470115662
time_elpased: 2.478
#iterations: 234
currently lose_sum: 0.5987082123756409
time_elpased: 2.503
#iterations: 235
currently lose_sum: 0.6216552257537842
time_elpased: 2.462
#iterations: 236
currently lose_sum: 0.4858028292655945
time_elpased: 2.57
#iterations: 237
currently lose_sum: 0.6014050841331482
time_elpased: 2.564
#iterations: 238
currently lose_sum: 0.49934160709381104
time_elpased: 2.528
#iterations: 239
currently lose_sum: 0.49766141176223755
time_elpased: 2.467
start validation test
0.6016
0.851948051948
0.258879242305
0.397094430993
0.606325265921
17.554
#iterations: 240
currently lose_sum: 0.5076876878738403
time_elpased: 2.563
#iterations: 241
currently lose_sum: 0.5089378952980042
time_elpased: 2.801
#iterations: 242
currently lose_sum: 0.4942290484905243
time_elpased: 2.557
#iterations: 243
currently lose_sum: 0.5220852494239807
time_elpased: 3.061
#iterations: 244
currently lose_sum: 0.5896967053413391
time_elpased: 2.496
#iterations: 245
currently lose_sum: 0.5544202327728271
time_elpased: 2.505
#iterations: 246
currently lose_sum: 0.5311768054962158
time_elpased: 2.551
#iterations: 247
currently lose_sum: 0.4888177514076233
time_elpased: 2.595
#iterations: 248
currently lose_sum: 0.5355437397956848
time_elpased: 2.625
#iterations: 249
currently lose_sum: 0.49765631556510925
time_elpased: 2.677
#iterations: 250
currently lose_sum: 0.531309962272644
time_elpased: 2.551
#iterations: 251
currently lose_sum: 0.6126705408096313
time_elpased: 2.557
#iterations: 252
currently lose_sum: 0.5373448133468628
time_elpased: 2.555
#iterations: 253
currently lose_sum: 0.5750588774681091
time_elpased: 2.471
#iterations: 254
currently lose_sum: 0.523337721824646
time_elpased: 2.47
#iterations: 255
currently lose_sum: 0.5277299880981445
time_elpased: 2.44
#iterations: 256
currently lose_sum: 0.5159308910369873
time_elpased: 2.551
#iterations: 257
currently lose_sum: 0.49518030881881714
time_elpased: 2.471
#iterations: 258
currently lose_sum: 0.4650312662124634
time_elpased: 2.506
#iterations: 259
currently lose_sum: 0.5277009010314941
time_elpased: 2.496
start validation test
0.6772
0.789672544081
0.494869771113
0.608442503639
0.679713879879
14.644
#iterations: 260
currently lose_sum: 0.5206360220909119
time_elpased: 2.46
#iterations: 261
currently lose_sum: 0.5242330431938171
time_elpased: 2.527
#iterations: 262
currently lose_sum: 0.5396549701690674
time_elpased: 2.497
#iterations: 263
currently lose_sum: 0.540780246257782
time_elpased: 2.456
#iterations: 264
currently lose_sum: 0.49277958273887634
time_elpased: 2.718
#iterations: 265
currently lose_sum: 0.5290631055831909
time_elpased: 2.449
#iterations: 266
currently lose_sum: 0.4977419972419739
time_elpased: 2.477
#iterations: 267
currently lose_sum: 0.6189489960670471
time_elpased: 2.473
#iterations: 268
currently lose_sum: 0.44400832056999207
time_elpased: 2.461
#iterations: 269
currently lose_sum: 0.49958938360214233
time_elpased: 2.873
#iterations: 270
currently lose_sum: 0.625788688659668
time_elpased: 3.009
#iterations: 271
currently lose_sum: 0.43934059143066406
time_elpased: 2.477
#iterations: 272
currently lose_sum: 0.5335354804992676
time_elpased: 2.553
#iterations: 273
currently lose_sum: 0.627770185470581
time_elpased: 2.532
#iterations: 274
currently lose_sum: 0.4746014475822449
time_elpased: 2.69
#iterations: 275
currently lose_sum: 0.5687624216079712
time_elpased: 2.487
#iterations: 276
currently lose_sum: 0.5535800457000732
time_elpased: 2.567
#iterations: 277
currently lose_sum: 0.5222609639167786
time_elpased: 2.68
#iterations: 278
currently lose_sum: 0.5961755514144897
time_elpased: 2.466
#iterations: 279
currently lose_sum: 0.48313629627227783
time_elpased: 2.531
start validation test
0.6964
0.783482142857
0.554064719811
0.649098474341
0.698362449119
14.442
#iterations: 280
currently lose_sum: 0.542405903339386
time_elpased: 3.036
#iterations: 281
currently lose_sum: 0.49826672673225403
time_elpased: 2.49
#iterations: 282
currently lose_sum: 0.5526530742645264
time_elpased: 2.522
#iterations: 283
currently lose_sum: 0.4341527819633484
time_elpased: 2.48
#iterations: 284
currently lose_sum: 0.5510501265525818
time_elpased: 2.918
#iterations: 285
currently lose_sum: 0.5859335064888
time_elpased: 2.613
#iterations: 286
currently lose_sum: 0.4751412570476532
time_elpased: 2.557
#iterations: 287
currently lose_sum: 0.46027976274490356
time_elpased: 2.696
#iterations: 288
currently lose_sum: 0.47047531604766846
time_elpased: 2.442
#iterations: 289
currently lose_sum: 0.5066776275634766
time_elpased: 2.543
#iterations: 290
currently lose_sum: 0.47414860129356384
time_elpased: 2.469
#iterations: 291
currently lose_sum: 0.5820901393890381
time_elpased: 2.692
#iterations: 292
currently lose_sum: 0.5155691504478455
time_elpased: 2.448
#iterations: 293
currently lose_sum: 0.3850104510784149
time_elpased: 2.655
#iterations: 294
currently lose_sum: 0.6176108121871948
time_elpased: 2.541
#iterations: 295
currently lose_sum: 0.5200547575950623
time_elpased: 2.472
#iterations: 296
currently lose_sum: 0.520912766456604
time_elpased: 2.492
#iterations: 297
currently lose_sum: 0.45001861453056335
time_elpased: 2.491
#iterations: 298
currently lose_sum: 0.47879332304000854
time_elpased: 2.466
#iterations: 299
currently lose_sum: 0.5556929111480713
time_elpased: 2.484
start validation test
0.7052
0.772073921971
0.593528018942
0.671128960286
0.706739678571
14.116
#iterations: 300
currently lose_sum: 0.45514968037605286
time_elpased: 2.511
#iterations: 301
currently lose_sum: 0.5728470683097839
time_elpased: 2.613
#iterations: 302
currently lose_sum: 0.5073950886726379
time_elpased: 3.165
#iterations: 303
currently lose_sum: 0.5829275250434875
time_elpased: 2.524
#iterations: 304
currently lose_sum: 0.5042658448219299
time_elpased: 2.567
#iterations: 305
currently lose_sum: 0.4716647267341614
time_elpased: 2.505
#iterations: 306
currently lose_sum: 0.43112143874168396
time_elpased: 2.46
#iterations: 307
currently lose_sum: 0.5110630393028259
time_elpased: 2.563
#iterations: 308
currently lose_sum: 0.5024327635765076
time_elpased: 2.573
#iterations: 309
currently lose_sum: 0.4795147776603699
time_elpased: 2.764
#iterations: 310
currently lose_sum: 0.6516280174255371
time_elpased: 2.491
#iterations: 311
currently lose_sum: 0.48904168605804443
time_elpased: 2.547
#iterations: 312
currently lose_sum: 0.48517999053001404
time_elpased: 2.563
#iterations: 313
currently lose_sum: 0.5280729532241821
time_elpased: 2.76
#iterations: 314
currently lose_sum: 0.5582945942878723
time_elpased: 2.515
#iterations: 315
currently lose_sum: 0.4704602360725403
time_elpased: 2.495
#iterations: 316
currently lose_sum: 0.5634462237358093
time_elpased: 3.037
#iterations: 317
currently lose_sum: 0.49838507175445557
time_elpased: 2.557
#iterations: 318
currently lose_sum: 0.44879150390625
time_elpased: 2.766
#iterations: 319
currently lose_sum: 0.4898611307144165
time_elpased: 2.497
start validation test
0.6748
0.819718309859
0.459352801894
0.588770864947
0.677770480428
14.964
#iterations: 320
currently lose_sum: 0.4789644181728363
time_elpased: 2.502
#iterations: 321
currently lose_sum: 0.4894951581954956
time_elpased: 2.455
#iterations: 322
currently lose_sum: 0.6976919770240784
time_elpased: 2.524
#iterations: 323
currently lose_sum: 0.45473533868789673
time_elpased: 2.59
#iterations: 324
currently lose_sum: 0.5706504583358765
time_elpased: 2.519
#iterations: 325
currently lose_sum: 0.4853798747062683
time_elpased: 2.439
#iterations: 326
currently lose_sum: 0.49954143166542053
time_elpased: 2.5
#iterations: 327
currently lose_sum: 0.5087856650352478
time_elpased: 2.557
#iterations: 328
currently lose_sum: 0.547136664390564
time_elpased: 2.684
#iterations: 329
currently lose_sum: 0.5929850935935974
time_elpased: 2.467
#iterations: 330
currently lose_sum: 0.5109382271766663
time_elpased: 2.515
#iterations: 331
currently lose_sum: 0.4735085964202881
time_elpased: 2.778
#iterations: 332
currently lose_sum: 0.41111207008361816
time_elpased: 2.543
#iterations: 333
currently lose_sum: 0.5420965552330017
time_elpased: 2.569
#iterations: 334
currently lose_sum: 0.39451897144317627
time_elpased: 2.544
#iterations: 335
currently lose_sum: 0.6097176671028137
time_elpased: 2.471
#iterations: 336
currently lose_sum: 0.48555290699005127
time_elpased: 2.435
#iterations: 337
currently lose_sum: 0.562114953994751
time_elpased: 3.349
#iterations: 338
currently lose_sum: 0.48710930347442627
time_elpased: 2.717
#iterations: 339
currently lose_sum: 0.6024878025054932
time_elpased: 2.887
start validation test
0.7044
0.807692307692
0.546961325967
0.652235294118
0.706570687314
14.327
#iterations: 340
currently lose_sum: 0.4607611894607544
time_elpased: 2.536
#iterations: 341
currently lose_sum: 0.47123000025749207
time_elpased: 2.489
#iterations: 342
currently lose_sum: 0.5092915296554565
time_elpased: 2.529
#iterations: 343
currently lose_sum: 0.44041499495506287
time_elpased: 2.599
#iterations: 344
currently lose_sum: 0.5389484167098999
time_elpased: 2.461
#iterations: 345
currently lose_sum: 0.4612419009208679
time_elpased: 2.488
#iterations: 346
currently lose_sum: 0.5035547614097595
time_elpased: 2.504
#iterations: 347
currently lose_sum: 0.45115867257118225
time_elpased: 2.447
#iterations: 348
currently lose_sum: 0.49368321895599365
time_elpased: 2.482
#iterations: 349
currently lose_sum: 0.49888932704925537
time_elpased: 2.44
#iterations: 350
currently lose_sum: 0.4765453338623047
time_elpased: 2.531
#iterations: 351
currently lose_sum: 0.4447767734527588
time_elpased: 2.484
#iterations: 352
currently lose_sum: 0.5461498498916626
time_elpased: 2.853
#iterations: 353
currently lose_sum: 0.4292951822280884
time_elpased: 2.462
#iterations: 354
currently lose_sum: 0.5013591051101685
time_elpased: 2.473
#iterations: 355
currently lose_sum: 0.44099029898643494
time_elpased: 2.49
#iterations: 356
currently lose_sum: 0.5129067301750183
time_elpased: 2.481
#iterations: 357
currently lose_sum: 0.4474058151245117
time_elpased: 2.541
#iterations: 358
currently lose_sum: 0.6069909930229187
time_elpased: 2.587
#iterations: 359
currently lose_sum: 0.4668739438056946
time_elpased: 2.495
start validation test
0.6852
0.643884892086
0.847671665351
0.731856899489
0.682959920267
14.712
#iterations: 360
currently lose_sum: 0.48874419927597046
time_elpased: 2.479
#iterations: 361
currently lose_sum: 0.622258722782135
time_elpased: 2.562
#iterations: 362
currently lose_sum: 0.40700721740722656
time_elpased: 2.598
#iterations: 363
currently lose_sum: 0.47039997577667236
time_elpased: 2.532
#iterations: 364
currently lose_sum: 0.4710114300251007
time_elpased: 2.472
#iterations: 365
currently lose_sum: 0.41615089774131775
time_elpased: 2.454
#iterations: 366
currently lose_sum: 0.4350852072238922
time_elpased: 2.611
#iterations: 367
currently lose_sum: 0.5360703468322754
time_elpased: 2.436
#iterations: 368
currently lose_sum: 0.5388112664222717
time_elpased: 2.516
#iterations: 369
currently lose_sum: 0.5348724126815796
time_elpased: 2.476
#iterations: 370
currently lose_sum: 0.6707621216773987
time_elpased: 2.459
#iterations: 371
currently lose_sum: 0.5246362090110779
time_elpased: 2.522
#iterations: 372
currently lose_sum: 0.7006640434265137
time_elpased: 2.515
#iterations: 373
currently lose_sum: 0.44692620635032654
time_elpased: 2.475
#iterations: 374
currently lose_sum: 0.5479517579078674
time_elpased: 2.458
#iterations: 375
currently lose_sum: 0.5601071119308472
time_elpased: 2.467
#iterations: 376
currently lose_sum: 0.466106116771698
time_elpased: 2.428
#iterations: 377
currently lose_sum: 0.48146069049835205
time_elpased: 2.466
#iterations: 378
currently lose_sum: 0.5081233978271484
time_elpased: 2.677
#iterations: 379
currently lose_sum: 0.40255019068717957
time_elpased: 2.435
start validation test
0.7068
0.670498084291
0.828729281768
0.74126367808
0.705118898792
14.026
#iterations: 380
currently lose_sum: 0.6160651445388794
time_elpased: 2.589
#iterations: 381
currently lose_sum: 0.519278883934021
time_elpased: 2.567
#iterations: 382
currently lose_sum: 0.6119981408119202
time_elpased: 2.482
#iterations: 383
currently lose_sum: 0.4178626239299774
time_elpased: 2.539
#iterations: 384
currently lose_sum: 0.5144895911216736
time_elpased: 2.577
#iterations: 385
currently lose_sum: 0.42151516675949097
time_elpased: 2.442
#iterations: 386
currently lose_sum: 0.5860669612884521
time_elpased: 2.542
#iterations: 387
currently lose_sum: 0.45675790309906006
time_elpased: 2.55
#iterations: 388
currently lose_sum: 0.4587726593017578
time_elpased: 2.646
#iterations: 389
currently lose_sum: 0.46257683634757996
time_elpased: 2.417
#iterations: 390
currently lose_sum: 0.4907155930995941
time_elpased: 2.753
#iterations: 391
currently lose_sum: 0.45823806524276733
time_elpased: 2.502
#iterations: 392
currently lose_sum: 0.4903118908405304
time_elpased: 2.629
#iterations: 393
currently lose_sum: 0.5708987712860107
time_elpased: 2.505
#iterations: 394
currently lose_sum: 0.6435495018959045
time_elpased: 2.461
#iterations: 395
currently lose_sum: 0.44118666648864746
time_elpased: 2.446
#iterations: 396
currently lose_sum: 0.41072219610214233
time_elpased: 2.51
#iterations: 397
currently lose_sum: 0.4375471770763397
time_elpased: 2.608
#iterations: 398
currently lose_sum: 0.5357167720794678
time_elpased: 2.644
#iterations: 399
currently lose_sum: 0.5327256917953491
time_elpased: 2.462
start validation test
0.72
0.70528602462
0.768745067088
0.735649546828
0.719327926893
13.756
#iterations: 400
currently lose_sum: 0.4430202543735504
time_elpased: 2.462
#iterations: 401
currently lose_sum: 0.4522262513637543
time_elpased: 2.493
#iterations: 402
currently lose_sum: 0.43609267473220825
time_elpased: 2.554
#iterations: 403
currently lose_sum: 0.4418080449104309
time_elpased: 2.584
#iterations: 404
currently lose_sum: 0.4687528908252716
time_elpased: 2.658
#iterations: 405
currently lose_sum: 0.7312864661216736
time_elpased: 2.529
#iterations: 406
currently lose_sum: 0.4050349295139313
time_elpased: 2.693
#iterations: 407
currently lose_sum: 0.5130048394203186
time_elpased: 2.463
#iterations: 408
currently lose_sum: 0.41643965244293213
time_elpased: 2.519
#iterations: 409
currently lose_sum: 0.5552329421043396
time_elpased: 2.574
#iterations: 410
currently lose_sum: 0.5578911304473877
time_elpased: 2.513
#iterations: 411
currently lose_sum: 0.5617857575416565
time_elpased: 2.735
#iterations: 412
currently lose_sum: 0.6412058472633362
time_elpased: 2.481
#iterations: 413
currently lose_sum: 0.43429088592529297
time_elpased: 2.413
#iterations: 414
currently lose_sum: 0.5675063133239746
time_elpased: 2.525
#iterations: 415
currently lose_sum: 0.539155125617981
time_elpased: 2.515
#iterations: 416
currently lose_sum: 0.563269853591919
time_elpased: 2.699
#iterations: 417
currently lose_sum: 0.4753386974334717
time_elpased: 2.669
#iterations: 418
currently lose_sum: 0.43764445185661316
time_elpased: 2.479
#iterations: 419
currently lose_sum: 0.4388520121574402
time_elpased: 2.489
start validation test
0.5988
0.923076923077
0.227308602999
0.364787840405
0.603921941402
20.976
#iterations: 420
currently lose_sum: 0.5481441020965576
time_elpased: 2.491
#iterations: 421
currently lose_sum: 0.511497974395752
time_elpased: 2.536
#iterations: 422
currently lose_sum: 0.47471970319747925
time_elpased: 2.62
#iterations: 423
currently lose_sum: 0.49114498496055603
time_elpased: 2.486
#iterations: 424
currently lose_sum: 0.4825151860713959
time_elpased: 2.472
#iterations: 425
currently lose_sum: 0.5477485656738281
time_elpased: 2.668
#iterations: 426
currently lose_sum: 0.485311359167099
time_elpased: 2.476
#iterations: 427
currently lose_sum: 0.5481778979301453
time_elpased: 2.492
#iterations: 428
currently lose_sum: 0.4829367697238922
time_elpased: 2.5
#iterations: 429
currently lose_sum: 0.5147193074226379
time_elpased: 2.491
#iterations: 430
currently lose_sum: 0.4765564799308777
time_elpased: 2.541
#iterations: 431
currently lose_sum: 0.45695123076438904
time_elpased: 3.101
#iterations: 432
currently lose_sum: 0.4388502240180969
time_elpased: 2.54
#iterations: 433
currently lose_sum: 0.4100401997566223
time_elpased: 2.586
#iterations: 434
currently lose_sum: 0.4715425968170166
time_elpased: 2.586
#iterations: 435
currently lose_sum: 0.4805387258529663
time_elpased: 2.529
#iterations: 436
currently lose_sum: 0.4522322714328766
time_elpased: 2.428
#iterations: 437
currently lose_sum: 0.49255692958831787
time_elpased: 2.472
#iterations: 438
currently lose_sum: 0.3985997140407562
time_elpased: 2.45
#iterations: 439
currently lose_sum: 0.43769028782844543
time_elpased: 2.677
start validation test
0.712
0.782249742002
0.598263614838
0.677996422182
0.713568141563
14.089
#iterations: 440
currently lose_sum: 0.5270535945892334
time_elpased: 2.521
#iterations: 441
currently lose_sum: 0.49899429082870483
time_elpased: 2.502
#iterations: 442
currently lose_sum: 0.472004771232605
time_elpased: 3.008
#iterations: 443
currently lose_sum: 0.5070616006851196
time_elpased: 2.496
#iterations: 444
currently lose_sum: 0.5197538733482361
time_elpased: 2.487
#iterations: 445
currently lose_sum: 0.47549277544021606
time_elpased: 2.519
#iterations: 446
currently lose_sum: 0.41493961215019226
time_elpased: 2.547
#iterations: 447
currently lose_sum: 0.5149088501930237
time_elpased: 2.598
#iterations: 448
currently lose_sum: 0.4975340664386749
time_elpased: 2.494
#iterations: 449
currently lose_sum: 0.44721871614456177
time_elpased: 2.447
#iterations: 450
currently lose_sum: 0.44230806827545166
time_elpased: 2.515
#iterations: 451
currently lose_sum: 0.48228102922439575
time_elpased: 2.551
#iterations: 452
currently lose_sum: 0.46200069785118103
time_elpased: 2.697
#iterations: 453
currently lose_sum: 0.4706847369670868
time_elpased: 2.464
#iterations: 454
currently lose_sum: 0.5224943161010742
time_elpased: 2.51
#iterations: 455
currently lose_sum: 0.4219740331172943
time_elpased: 2.465
#iterations: 456
currently lose_sum: 0.5470954775810242
time_elpased: 2.474
#iterations: 457
currently lose_sum: 0.5944791436195374
time_elpased: 2.561
#iterations: 458
currently lose_sum: 0.49173393845558167
time_elpased: 2.573
#iterations: 459
currently lose_sum: 0.4821278750896454
time_elpased: 2.747
start validation test
0.716
0.797860962567
0.588792423047
0.677565849228
0.717753875757
14.072
#iterations: 460
currently lose_sum: 0.5354294180870056
time_elpased: 2.646
#iterations: 461
currently lose_sum: 0.41349127888679504
time_elpased: 2.525
#iterations: 462
currently lose_sum: 0.5066224932670593
time_elpased: 2.982
#iterations: 463
currently lose_sum: 0.43785351514816284
time_elpased: 2.653
#iterations: 464
currently lose_sum: 0.45396149158477783
time_elpased: 2.663
#iterations: 465
currently lose_sum: 0.5078734755516052
time_elpased: 2.6
#iterations: 466
currently lose_sum: 0.43697312474250793
time_elpased: 2.705
#iterations: 467
currently lose_sum: 0.5054727792739868
time_elpased: 2.527
#iterations: 468
currently lose_sum: 0.47089606523513794
time_elpased: 2.485
#iterations: 469
currently lose_sum: 0.4913782477378845
time_elpased: 2.538
#iterations: 470
currently lose_sum: 0.3852858245372772
time_elpased: 2.57
#iterations: 471
currently lose_sum: 0.4801466464996338
time_elpased: 2.44
#iterations: 472
currently lose_sum: 0.46360644698143005
time_elpased: 2.433
#iterations: 473
currently lose_sum: 0.355813205242157
time_elpased: 2.617
#iterations: 474
currently lose_sum: 0.432695209980011
time_elpased: 2.58
#iterations: 475
currently lose_sum: 0.4615963101387024
time_elpased: 2.44
#iterations: 476
currently lose_sum: 0.39222466945648193
time_elpased: 2.583
#iterations: 477
currently lose_sum: 0.48721233010292053
time_elpased: 2.574
#iterations: 478
currently lose_sum: 0.46093228459358215
time_elpased: 2.479
#iterations: 479
currently lose_sum: 0.43061935901641846
time_elpased: 2.582
start validation test
0.7152
0.772861356932
0.620363062352
0.68826619965
0.716507565239
14.049
#iterations: 480
currently lose_sum: 0.5066453814506531
time_elpased: 2.557
#iterations: 481
currently lose_sum: 0.5542144775390625
time_elpased: 2.623
#iterations: 482
currently lose_sum: 0.522560715675354
time_elpased: 2.492
#iterations: 483
currently lose_sum: 0.457813024520874
time_elpased: 2.471
#iterations: 484
currently lose_sum: 0.45107293128967285
time_elpased: 2.429
#iterations: 485
currently lose_sum: 0.5248140096664429
time_elpased: 2.538
#iterations: 486
currently lose_sum: 0.40380173921585083
time_elpased: 2.752
#iterations: 487
currently lose_sum: 0.4839353859424591
time_elpased: 2.562
#iterations: 488
currently lose_sum: 0.43900349736213684
time_elpased: 2.48
#iterations: 489
currently lose_sum: 0.3856245279312134
time_elpased: 2.478
#iterations: 490
currently lose_sum: 0.4459982216358185
time_elpased: 2.501
#iterations: 491
currently lose_sum: 0.45462632179260254
time_elpased: 2.536
#iterations: 492
currently lose_sum: 0.5600138306617737
time_elpased: 2.542
#iterations: 493
currently lose_sum: 0.39658257365226746
time_elpased: 2.582
#iterations: 494
currently lose_sum: 0.49458372592926025
time_elpased: 2.556
#iterations: 495
currently lose_sum: 0.5141353011131287
time_elpased: 2.545
#iterations: 496
currently lose_sum: 0.3584349751472473
time_elpased: 2.654
#iterations: 497
currently lose_sum: 0.49665573239326477
time_elpased: 2.475
#iterations: 498
currently lose_sum: 0.428824782371521
time_elpased: 2.488
#iterations: 499
currently lose_sum: 0.38665854930877686
time_elpased: 2.678
start validation test
0.7088
0.694304253785
0.760063141279
0.72569706104
0.70809320892
14.234
#iterations: 500
currently lose_sum: 0.43112853169441223
time_elpased: 2.692
#iterations: 501
currently lose_sum: 0.5499986410140991
time_elpased: 2.441
#iterations: 502
currently lose_sum: 0.47879356145858765
time_elpased: 2.545
#iterations: 503
currently lose_sum: 0.3909350335597992
time_elpased: 2.496
#iterations: 504
currently lose_sum: 0.460854709148407
time_elpased: 2.498
#iterations: 505
currently lose_sum: 0.5150306224822998
time_elpased: 2.924
#iterations: 506
currently lose_sum: 0.45488712191581726
time_elpased: 2.764
#iterations: 507
currently lose_sum: 0.4879525899887085
time_elpased: 2.486
#iterations: 508
currently lose_sum: 0.42358720302581787
time_elpased: 2.626
#iterations: 509
currently lose_sum: 0.5238426923751831
time_elpased: 2.438
#iterations: 510
currently lose_sum: 0.41695067286491394
time_elpased: 2.453
#iterations: 511
currently lose_sum: 0.4727783203125
time_elpased: 2.549
#iterations: 512
currently lose_sum: 0.4263877868652344
time_elpased: 2.544
#iterations: 513
currently lose_sum: 0.5033553242683411
time_elpased: 2.565
#iterations: 514
currently lose_sum: 0.5485959053039551
time_elpased: 2.454
#iterations: 515
currently lose_sum: 0.4486827850341797
time_elpased: 2.545
#iterations: 516
currently lose_sum: 0.46499165892601013
time_elpased: 2.677
#iterations: 517
currently lose_sum: 0.4199756979942322
time_elpased: 2.705
#iterations: 518
currently lose_sum: 0.38601821660995483
time_elpased: 3.298
#iterations: 519
currently lose_sum: 0.47846993803977966
time_elpased: 2.506
start validation test
0.6932
0.646713615023
0.869771112865
0.741837765062
0.690765523991
15.007
#iterations: 520
currently lose_sum: 0.5435597896575928
time_elpased: 2.516
#iterations: 521
currently lose_sum: 0.5034606456756592
time_elpased: 2.518
#iterations: 522
currently lose_sum: 0.4098353683948517
time_elpased: 2.799
#iterations: 523
currently lose_sum: 0.43295425176620483
time_elpased: 2.498
#iterations: 524
currently lose_sum: 0.44786858558654785
time_elpased: 2.595
#iterations: 525
currently lose_sum: 0.48655545711517334
time_elpased: 2.461
#iterations: 526
currently lose_sum: 0.4336109161376953
time_elpased: 2.477
#iterations: 527
currently lose_sum: 0.48070359230041504
time_elpased: 2.449
#iterations: 528
currently lose_sum: 0.476603627204895
time_elpased: 2.596
#iterations: 529
currently lose_sum: 0.5036442279815674
time_elpased: 2.515
#iterations: 530
currently lose_sum: 0.6189634799957275
time_elpased: 2.47
#iterations: 531
currently lose_sum: 0.4049912989139557
time_elpased: 2.544
#iterations: 532
currently lose_sum: 0.5257294774055481
time_elpased: 2.701
#iterations: 533
currently lose_sum: 0.3657502830028534
time_elpased: 2.675
#iterations: 534
currently lose_sum: 0.3283994197845459
time_elpased: 2.46
#iterations: 535
currently lose_sum: 0.4375172555446625
time_elpased: 2.548
#iterations: 536
currently lose_sum: 0.5127618312835693
time_elpased: 2.578
#iterations: 537
currently lose_sum: 0.4972056448459625
time_elpased: 2.581
#iterations: 538
currently lose_sum: 0.5440839529037476
time_elpased: 2.459
#iterations: 539
currently lose_sum: 0.4014585018157959
time_elpased: 2.433
start validation test
0.7288
0.791295746785
0.631412786109
0.702370500439
0.730142727199
13.812
#iterations: 540
currently lose_sum: 0.4851306974887848
time_elpased: 2.523
#iterations: 541
currently lose_sum: 0.5266217589378357
time_elpased: 2.523
#iterations: 542
currently lose_sum: 0.38237422704696655
time_elpased: 2.53
#iterations: 543
currently lose_sum: 0.5230252146720886
time_elpased: 2.602
#iterations: 544
currently lose_sum: 0.496480256319046
time_elpased: 2.568
#iterations: 545
currently lose_sum: 0.45804542303085327
time_elpased: 2.603
#iterations: 546
currently lose_sum: 0.4414694607257843
time_elpased: 2.551
#iterations: 547
currently lose_sum: 0.5779160261154175
time_elpased: 2.481
#iterations: 548
currently lose_sum: 0.5136783123016357
time_elpased: 2.565
#iterations: 549
currently lose_sum: 0.49496063590049744
time_elpased: 2.482
#iterations: 550
currently lose_sum: 0.4685102701187134
time_elpased: 2.494
#iterations: 551
currently lose_sum: 0.44184020161628723
time_elpased: 2.494
#iterations: 552
currently lose_sum: 0.4576159715652466
time_elpased: 2.553
#iterations: 553
currently lose_sum: 0.36054688692092896
time_elpased: 2.53
#iterations: 554
currently lose_sum: 0.469191312789917
time_elpased: 2.445
#iterations: 555
currently lose_sum: 0.45667338371276855
time_elpased: 2.522
#iterations: 556
currently lose_sum: 0.48445937037467957
time_elpased: 2.951
#iterations: 557
currently lose_sum: 0.45481643080711365
time_elpased: 2.835
#iterations: 558
currently lose_sum: 0.39173346757888794
time_elpased: 2.681
#iterations: 559
currently lose_sum: 0.31706342101097107
time_elpased: 2.584
start validation test
0.7244
0.762250453721
0.662983425414
0.709159983115
0.725246781645
13.784
#iterations: 560
currently lose_sum: 0.3952219784259796
time_elpased: 2.719
#iterations: 561
currently lose_sum: 0.3962474465370178
time_elpased: 2.601
#iterations: 562
currently lose_sum: 0.3977464437484741
time_elpased: 2.781
#iterations: 563
currently lose_sum: 0.45769286155700684
time_elpased: 2.579
#iterations: 564
currently lose_sum: 0.46702516078948975
time_elpased: 2.488
#iterations: 565
currently lose_sum: 0.3945259153842926
time_elpased: 2.539
#iterations: 566
currently lose_sum: 0.529893159866333
time_elpased: 2.519
#iterations: 567
currently lose_sum: 0.47815966606140137
time_elpased: 2.544
#iterations: 568
currently lose_sum: 0.485294908285141
time_elpased: 2.518
#iterations: 569
currently lose_sum: 0.46840354800224304
time_elpased: 2.648
#iterations: 570
currently lose_sum: 0.5127422213554382
time_elpased: 3.005
#iterations: 571
currently lose_sum: 0.4951481521129608
time_elpased: 2.781
#iterations: 572
currently lose_sum: 0.3880160450935364
time_elpased: 2.477
#iterations: 573
currently lose_sum: 0.4627053737640381
time_elpased: 2.491
#iterations: 574
currently lose_sum: 0.3956732451915741
time_elpased: 2.619
#iterations: 575
currently lose_sum: 0.4743911027908325
time_elpased: 2.523
#iterations: 576
currently lose_sum: 0.3740536570549011
time_elpased: 2.542
#iterations: 577
currently lose_sum: 0.4636818766593933
time_elpased: 2.528
#iterations: 578
currently lose_sum: 0.37985506653785706
time_elpased: 2.932
#iterations: 579
currently lose_sum: 0.43592414259910583
time_elpased: 2.472
start validation test
0.7292
0.758318739054
0.683504340963
0.71897052719
0.729830029362
13.423
#iterations: 580
currently lose_sum: 0.49414175748825073
time_elpased: 2.467
#iterations: 581
currently lose_sum: 0.4883889853954315
time_elpased: 2.574
#iterations: 582
currently lose_sum: 0.3801182508468628
time_elpased: 2.769
#iterations: 583
currently lose_sum: 0.44936421513557434
time_elpased: 2.534
#iterations: 584
currently lose_sum: 0.42062318325042725
time_elpased: 2.6
#iterations: 585
currently lose_sum: 0.4305444359779358
time_elpased: 2.439
#iterations: 586
currently lose_sum: 0.5160106420516968
time_elpased: 2.623
#iterations: 587
currently lose_sum: 0.3968624770641327
time_elpased: 2.849
#iterations: 588
currently lose_sum: 0.4353634715080261
time_elpased: 2.74
#iterations: 589
currently lose_sum: 0.4525846540927887
time_elpased: 2.748
#iterations: 590
currently lose_sum: 0.4270938038825989
time_elpased: 2.847
#iterations: 591
currently lose_sum: 0.5287047028541565
time_elpased: 3.13
#iterations: 592
currently lose_sum: 0.5057927966117859
time_elpased: 2.963
#iterations: 593
currently lose_sum: 0.39861640334129333
time_elpased: 2.684
#iterations: 594
currently lose_sum: 0.5683770179748535
time_elpased: 3.067
#iterations: 595
currently lose_sum: 0.5571791529655457
time_elpased: 2.685
#iterations: 596
currently lose_sum: 0.37135693430900574
time_elpased: 2.872
#iterations: 597
currently lose_sum: 0.33048439025878906
time_elpased: 2.798
#iterations: 598
currently lose_sum: 0.4151420295238495
time_elpased: 2.796
#iterations: 599
currently lose_sum: 0.36072567105293274
time_elpased: 2.802
start validation test
0.7288
0.770431588613
0.662194159432
0.712224108659
0.729718328702
13.715
acc: 0.742
pre: 0.779
rec: 0.685
F1: 0.729
auc: 0.742
