start to construct computing graph
graph construct over
3802
epochs start
#iterations: 0
currently lose_sum: 0.6960816979408264
time_elpased: 3.579
#iterations: 1
currently lose_sum: 0.6915315985679626
time_elpased: 3.278
#iterations: 2
currently lose_sum: 0.6913673877716064
time_elpased: 3.332
#iterations: 3
currently lose_sum: 0.694337010383606
time_elpased: 3.38
#iterations: 4
currently lose_sum: 0.693115770816803
time_elpased: 3.979
#iterations: 5
currently lose_sum: 0.6709091663360596
time_elpased: 3.27
#iterations: 6
currently lose_sum: 0.6893302798271179
time_elpased: 3.556
#iterations: 7
currently lose_sum: 0.6840575933456421
time_elpased: 3.242
#iterations: 8
currently lose_sum: 0.6914739012718201
time_elpased: 3.256
#iterations: 9
currently lose_sum: 0.692710816860199
time_elpased: 3.51
#iterations: 10
currently lose_sum: 0.6964502930641174
time_elpased: 3.23
#iterations: 11
currently lose_sum: 0.6856340169906616
time_elpased: 3.243
#iterations: 12
currently lose_sum: 0.7092304825782776
time_elpased: 3.29
#iterations: 13
currently lose_sum: 0.6900079846382141
time_elpased: 3.289
#iterations: 14
currently lose_sum: 0.6821675896644592
time_elpased: 3.247
#iterations: 15
currently lose_sum: 0.6942784190177917
time_elpased: 3.293
#iterations: 16
currently lose_sum: 0.6910661458969116
time_elpased: 3.243
#iterations: 17
currently lose_sum: 0.6996381878852844
time_elpased: 3.182
#iterations: 18
currently lose_sum: 0.6870959401130676
time_elpased: 3.393
#iterations: 19
currently lose_sum: 0.6794781684875488
time_elpased: 3.257
start validation test
0.5544
0.543161434978
0.764195583596
0.63499344692
0.551334804785
17.145
#iterations: 20
currently lose_sum: 0.6837254166603088
time_elpased: 2.991
#iterations: 21
currently lose_sum: 0.700246274471283
time_elpased: 2.593
#iterations: 22
currently lose_sum: 0.6946648359298706
time_elpased: 2.704
#iterations: 23
currently lose_sum: 0.6871984601020813
time_elpased: 2.529
#iterations: 24
currently lose_sum: 0.6841990947723389
time_elpased: 2.584
#iterations: 25
currently lose_sum: 0.6809021234512329
time_elpased: 2.518
#iterations: 26
currently lose_sum: 0.6759980916976929
time_elpased: 2.532
#iterations: 27
currently lose_sum: 0.7077626585960388
time_elpased: 2.51
#iterations: 28
currently lose_sum: 0.6743807792663574
time_elpased: 2.555
#iterations: 29
currently lose_sum: 0.6800976395606995
time_elpased: 2.52
#iterations: 30
currently lose_sum: 0.6811294555664062
time_elpased: 2.619
#iterations: 31
currently lose_sum: 0.6629369854927063
time_elpased: 2.518
#iterations: 32
currently lose_sum: 0.6943278312683105
time_elpased: 2.574
#iterations: 33
currently lose_sum: 0.7018652558326721
time_elpased: 2.443
#iterations: 34
currently lose_sum: 0.6871141195297241
time_elpased: 2.53
#iterations: 35
currently lose_sum: 0.6543945074081421
time_elpased: 2.511
#iterations: 36
currently lose_sum: 0.6908605694770813
time_elpased: 2.527
#iterations: 37
currently lose_sum: 0.6935301423072815
time_elpased: 2.5
#iterations: 38
currently lose_sum: 0.7003852128982544
time_elpased: 2.57
#iterations: 39
currently lose_sum: 0.6605322957038879
time_elpased: 2.6
start validation test
0.58
0.640826873385
0.391167192429
0.485798237023
0.58275892089
16.763
#iterations: 40
currently lose_sum: 0.6687346696853638
time_elpased: 2.483
#iterations: 41
currently lose_sum: 0.6785647869110107
time_elpased: 2.543
#iterations: 42
currently lose_sum: 0.6830403208732605
time_elpased: 2.512
#iterations: 43
currently lose_sum: 0.6783765554428101
time_elpased: 2.928
#iterations: 44
currently lose_sum: 0.6443296670913696
time_elpased: 2.521
#iterations: 45
currently lose_sum: 0.6413493156433105
time_elpased: 2.761
#iterations: 46
currently lose_sum: 0.6256284117698669
time_elpased: 2.516
#iterations: 47
currently lose_sum: 0.6606785655021667
time_elpased: 2.533
#iterations: 48
currently lose_sum: 0.6332172155380249
time_elpased: 2.489
#iterations: 49
currently lose_sum: 0.6850541830062866
time_elpased: 2.513
#iterations: 50
currently lose_sum: 0.6809270977973938
time_elpased: 2.792
#iterations: 51
currently lose_sum: 0.6805059313774109
time_elpased: 2.547
#iterations: 52
currently lose_sum: 0.6417092680931091
time_elpased: 2.523
#iterations: 53
currently lose_sum: 0.6512927412986755
time_elpased: 2.549
#iterations: 54
currently lose_sum: 0.6741531491279602
time_elpased: 2.537
#iterations: 55
currently lose_sum: 0.6619529128074646
time_elpased: 2.586
#iterations: 56
currently lose_sum: 0.6532560586929321
time_elpased: 2.492
#iterations: 57
currently lose_sum: 0.6562033891677856
time_elpased: 2.543
#iterations: 58
currently lose_sum: 0.6540930867195129
time_elpased: 2.894
#iterations: 59
currently lose_sum: 0.6284105181694031
time_elpased: 2.74
start validation test
0.6156
0.602129075183
0.713722397476
0.653193792855
0.614166393543
16.175
#iterations: 60
currently lose_sum: 0.6574402451515198
time_elpased: 2.524
#iterations: 61
currently lose_sum: 0.6893070936203003
time_elpased: 2.508
#iterations: 62
currently lose_sum: 0.6237439513206482
time_elpased: 2.483
#iterations: 63
currently lose_sum: 0.6210309863090515
time_elpased: 2.553
#iterations: 64
currently lose_sum: 0.6652069091796875
time_elpased: 2.537
#iterations: 65
currently lose_sum: 0.6970832943916321
time_elpased: 2.53
#iterations: 66
currently lose_sum: 0.665147066116333
time_elpased: 2.564
#iterations: 67
currently lose_sum: 0.6869751214981079
time_elpased: 2.5
#iterations: 68
currently lose_sum: 0.6544603109359741
time_elpased: 2.479
#iterations: 69
currently lose_sum: 0.7054232954978943
time_elpased: 2.531
#iterations: 70
currently lose_sum: 0.6778820753097534
time_elpased: 2.538
#iterations: 71
currently lose_sum: 0.6236574649810791
time_elpased: 2.66
#iterations: 72
currently lose_sum: 0.6601710319519043
time_elpased: 2.56
#iterations: 73
currently lose_sum: 0.6579892039299011
time_elpased: 2.729
#iterations: 74
currently lose_sum: 0.6602493524551392
time_elpased: 2.525
#iterations: 75
currently lose_sum: 0.644712507724762
time_elpased: 2.516
#iterations: 76
currently lose_sum: 0.8018929958343506
time_elpased: 3.269
#iterations: 77
currently lose_sum: 0.6696892380714417
time_elpased: 2.47
#iterations: 78
currently lose_sum: 0.6582992672920227
time_elpased: 2.611
#iterations: 79
currently lose_sum: 0.6234226226806641
time_elpased: 2.53
start validation test
0.6016
0.662291169451
0.437697160883
0.527065527066
0.603994684338
16.503
#iterations: 80
currently lose_sum: 0.6449806690216064
time_elpased: 2.664
#iterations: 81
currently lose_sum: 0.6273228526115417
time_elpased: 2.933
#iterations: 82
currently lose_sum: 0.6316167712211609
time_elpased: 2.532
#iterations: 83
currently lose_sum: 0.6684709787368774
time_elpased: 2.531
#iterations: 84
currently lose_sum: 0.5779320597648621
time_elpased: 2.532
#iterations: 85
currently lose_sum: 0.5942957401275635
time_elpased: 2.561
#iterations: 86
currently lose_sum: 0.6548091173171997
time_elpased: 2.605
#iterations: 87
currently lose_sum: 0.677361011505127
time_elpased: 2.557
#iterations: 88
currently lose_sum: 0.6346529722213745
time_elpased: 2.473
#iterations: 89
currently lose_sum: 0.5846015810966492
time_elpased: 2.539
#iterations: 90
currently lose_sum: 0.6294450759887695
time_elpased: 2.611
#iterations: 91
currently lose_sum: 0.6202738285064697
time_elpased: 2.51
#iterations: 92
currently lose_sum: 0.653431236743927
time_elpased: 2.522
#iterations: 93
currently lose_sum: 0.6018784046173096
time_elpased: 2.519
#iterations: 94
currently lose_sum: 0.6392494440078735
time_elpased: 2.561
#iterations: 95
currently lose_sum: 0.6352253556251526
time_elpased: 2.582
#iterations: 96
currently lose_sum: 0.6297588348388672
time_elpased: 2.598
#iterations: 97
currently lose_sum: 0.6578863263130188
time_elpased: 2.522
#iterations: 98
currently lose_sum: 0.6882100701332092
time_elpased: 2.501
#iterations: 99
currently lose_sum: 0.6340842247009277
time_elpased: 2.52
start validation test
0.6132
0.747940691928
0.358044164038
0.484266666667
0.616927926175
16.469
#iterations: 100
currently lose_sum: 0.5735670328140259
time_elpased: 2.532
#iterations: 101
currently lose_sum: 0.6139354705810547
time_elpased: 2.511
#iterations: 102
currently lose_sum: 0.6368152499198914
time_elpased: 2.551
#iterations: 103
currently lose_sum: 0.7244604229927063
time_elpased: 2.581
#iterations: 104
currently lose_sum: 0.628207802772522
time_elpased: 2.571
#iterations: 105
currently lose_sum: 0.6445832848548889
time_elpased: 2.485
#iterations: 106
currently lose_sum: 0.5674988627433777
time_elpased: 2.5
#iterations: 107
currently lose_sum: 0.554114818572998
time_elpased: 2.661
#iterations: 108
currently lose_sum: 0.6419693231582642
time_elpased: 2.566
#iterations: 109
currently lose_sum: 0.6468687653541565
time_elpased: 2.543
#iterations: 110
currently lose_sum: 0.6583042740821838
time_elpased: 2.524
#iterations: 111
currently lose_sum: 0.5944290161132812
time_elpased: 2.563
#iterations: 112
currently lose_sum: 0.5901051163673401
time_elpased: 2.489
#iterations: 113
currently lose_sum: 0.6231170892715454
time_elpased: 2.535
#iterations: 114
currently lose_sum: 0.6577540636062622
time_elpased: 2.502
#iterations: 115
currently lose_sum: 0.5886183977127075
time_elpased: 2.497
#iterations: 116
currently lose_sum: 0.6038978099822998
time_elpased: 2.548
#iterations: 117
currently lose_sum: 0.64507657289505
time_elpased: 2.49
#iterations: 118
currently lose_sum: 0.6098939776420593
time_elpased: 2.785
#iterations: 119
currently lose_sum: 0.6058344841003418
time_elpased: 2.598
start validation test
0.6436
0.65643153527
0.6238170347
0.639708855641
0.643889036831
15.522
#iterations: 120
currently lose_sum: 0.6615626811981201
time_elpased: 2.63
#iterations: 121
currently lose_sum: 0.6591411828994751
time_elpased: 2.529
#iterations: 122
currently lose_sum: 0.642462968826294
time_elpased: 2.52
#iterations: 123
currently lose_sum: 0.5756354331970215
time_elpased: 2.549
#iterations: 124
currently lose_sum: 0.6067278385162354
time_elpased: 2.529
#iterations: 125
currently lose_sum: 0.6585119366645813
time_elpased: 2.853
#iterations: 126
currently lose_sum: 0.5951086282730103
time_elpased: 2.604
#iterations: 127
currently lose_sum: 0.6242231726646423
time_elpased: 2.508
#iterations: 128
currently lose_sum: 0.5633113980293274
time_elpased: 2.545
#iterations: 129
currently lose_sum: 0.6839281320571899
time_elpased: 2.635
#iterations: 130
currently lose_sum: 0.5927518606185913
time_elpased: 2.563
#iterations: 131
currently lose_sum: 0.5556113719940186
time_elpased: 2.639
#iterations: 132
currently lose_sum: 0.652157723903656
time_elpased: 2.51
#iterations: 133
currently lose_sum: 0.5898040533065796
time_elpased: 2.529
#iterations: 134
currently lose_sum: 0.5983760356903076
time_elpased: 2.58
#iterations: 135
currently lose_sum: 0.5812820196151733
time_elpased: 2.551
#iterations: 136
currently lose_sum: 0.5831453800201416
time_elpased: 2.548
#iterations: 137
currently lose_sum: 0.5558943748474121
time_elpased: 2.45
#iterations: 138
currently lose_sum: 0.5868625640869141
time_elpased: 2.498
#iterations: 139
currently lose_sum: 0.5120232701301575
time_elpased: 2.625
start validation test
0.6656
0.708897485493
0.578075709779
0.63683753258
0.66687876398
15.271
#iterations: 140
currently lose_sum: 0.5332736372947693
time_elpased: 2.495
#iterations: 141
currently lose_sum: 0.6209487915039062
time_elpased: 2.57
#iterations: 142
currently lose_sum: 0.5794163346290588
time_elpased: 2.605
#iterations: 143
currently lose_sum: 0.5847045183181763
time_elpased: 2.592
#iterations: 144
currently lose_sum: 0.5531737804412842
time_elpased: 2.496
#iterations: 145
currently lose_sum: 0.585667073726654
time_elpased: 2.594
#iterations: 146
currently lose_sum: 0.5332082509994507
time_elpased: 2.611
#iterations: 147
currently lose_sum: 0.6573497653007507
time_elpased: 2.675
#iterations: 148
currently lose_sum: 0.5747109651565552
time_elpased: 2.53
#iterations: 149
currently lose_sum: 0.6146814823150635
time_elpased: 2.773
#iterations: 150
currently lose_sum: 0.596509575843811
time_elpased: 2.495
#iterations: 151
currently lose_sum: 0.5371972322463989
time_elpased: 2.568
#iterations: 152
currently lose_sum: 0.6055957078933716
time_elpased: 2.484
#iterations: 153
currently lose_sum: 0.5528275966644287
time_elpased: 2.55
#iterations: 154
currently lose_sum: 0.6302932500839233
time_elpased: 2.572
#iterations: 155
currently lose_sum: 0.5844555497169495
time_elpased: 2.685
#iterations: 156
currently lose_sum: 0.5317423939704895
time_elpased: 2.499
#iterations: 157
currently lose_sum: 0.6699882745742798
time_elpased: 2.724
#iterations: 158
currently lose_sum: 0.5764411687850952
time_elpased: 2.521
#iterations: 159
currently lose_sum: 0.6256318688392639
time_elpased: 2.854
start validation test
0.6408
0.776119402985
0.410094637224
0.536635706914
0.644170695235
15.742
#iterations: 160
currently lose_sum: 0.6031027436256409
time_elpased: 2.525
#iterations: 161
currently lose_sum: 0.5964405536651611
time_elpased: 3.029
#iterations: 162
currently lose_sum: 0.5785770416259766
time_elpased: 2.664
#iterations: 163
currently lose_sum: 0.5791968107223511
time_elpased: 3.034
#iterations: 164
currently lose_sum: 0.6201353669166565
time_elpased: 2.535
#iterations: 165
currently lose_sum: 0.6624951362609863
time_elpased: 2.501
#iterations: 166
currently lose_sum: 0.5717024803161621
time_elpased: 2.503
#iterations: 167
currently lose_sum: 0.523325502872467
time_elpased: 2.701
#iterations: 168
currently lose_sum: 0.643165111541748
time_elpased: 2.515
#iterations: 169
currently lose_sum: 0.5156571865081787
time_elpased: 2.537
#iterations: 170
currently lose_sum: 0.5593380928039551
time_elpased: 2.495
#iterations: 171
currently lose_sum: 0.5536119341850281
time_elpased: 2.485
#iterations: 172
currently lose_sum: 0.5558236837387085
time_elpased: 2.601
#iterations: 173
currently lose_sum: 0.5682786703109741
time_elpased: 2.555
#iterations: 174
currently lose_sum: 0.5335866808891296
time_elpased: 2.597
#iterations: 175
currently lose_sum: 0.6013613939285278
time_elpased: 2.614
#iterations: 176
currently lose_sum: 0.5241106152534485
time_elpased: 2.52
#iterations: 177
currently lose_sum: 0.5735609531402588
time_elpased: 2.506
#iterations: 178
currently lose_sum: 0.5282540321350098
time_elpased: 2.485
#iterations: 179
currently lose_sum: 0.6551864147186279
time_elpased: 2.533
start validation test
0.6736
0.653741496599
0.757886435331
0.701972242513
0.672368542341
14.918
#iterations: 180
currently lose_sum: 0.5925551056861877
time_elpased: 2.49
#iterations: 181
currently lose_sum: 0.47169002890586853
time_elpased: 2.495
#iterations: 182
currently lose_sum: 0.5744840502738953
time_elpased: 2.547
#iterations: 183
currently lose_sum: 0.5309333205223083
time_elpased: 2.537
#iterations: 184
currently lose_sum: 0.49441203474998474
time_elpased: 2.869
#iterations: 185
currently lose_sum: 0.5685343742370605
time_elpased: 2.598
#iterations: 186
currently lose_sum: 0.6034268736839294
time_elpased: 2.553
#iterations: 187
currently lose_sum: 0.4258783757686615
time_elpased: 2.567
#iterations: 188
currently lose_sum: 0.5537297129631042
time_elpased: 2.853
#iterations: 189
currently lose_sum: 0.5452622771263123
time_elpased: 2.577
#iterations: 190
currently lose_sum: 0.5048425793647766
time_elpased: 2.468
#iterations: 191
currently lose_sum: 0.5526854991912842
time_elpased: 2.762
#iterations: 192
currently lose_sum: 0.5617318153381348
time_elpased: 2.552
#iterations: 193
currently lose_sum: 0.5502492785453796
time_elpased: 2.54
#iterations: 194
currently lose_sum: 0.5347985625267029
time_elpased: 2.501
#iterations: 195
currently lose_sum: 0.5423980355262756
time_elpased: 2.546
#iterations: 196
currently lose_sum: 0.5783116221427917
time_elpased: 2.542
#iterations: 197
currently lose_sum: 0.7104408144950867
time_elpased: 2.531
#iterations: 198
currently lose_sum: 0.5776330828666687
time_elpased: 2.548
#iterations: 199
currently lose_sum: 0.5352979898452759
time_elpased: 2.559
start validation test
0.6612
0.755151515152
0.491324921136
0.595317725753
0.663681941087
15.228
#iterations: 200
currently lose_sum: 0.5494067668914795
time_elpased: 2.848
#iterations: 201
currently lose_sum: 0.6484976410865784
time_elpased: 2.547
#iterations: 202
currently lose_sum: 0.584550142288208
time_elpased: 2.508
#iterations: 203
currently lose_sum: 0.6429774761199951
time_elpased: 2.555
#iterations: 204
currently lose_sum: 0.6608049869537354
time_elpased: 2.6
#iterations: 205
currently lose_sum: 0.5461815595626831
time_elpased: 2.512
#iterations: 206
currently lose_sum: 0.5867035984992981
time_elpased: 2.551
#iterations: 207
currently lose_sum: 0.5675716400146484
time_elpased: 2.481
#iterations: 208
currently lose_sum: 0.5695388913154602
time_elpased: 2.576
#iterations: 209
currently lose_sum: 0.5651525855064392
time_elpased: 2.542
#iterations: 210
currently lose_sum: 0.5505152940750122
time_elpased: 2.532
#iterations: 211
currently lose_sum: 0.5754933953285217
time_elpased: 2.492
#iterations: 212
currently lose_sum: 0.578355073928833
time_elpased: 2.47
#iterations: 213
currently lose_sum: 0.5108429193496704
time_elpased: 2.587
#iterations: 214
currently lose_sum: 0.5727819800376892
time_elpased: 2.751
#iterations: 215
currently lose_sum: 0.6117660403251648
time_elpased: 2.76
#iterations: 216
currently lose_sum: 0.5804979205131531
time_elpased: 2.521
#iterations: 217
currently lose_sum: 0.5319481492042542
time_elpased: 2.655
#iterations: 218
currently lose_sum: 0.5321996808052063
time_elpased: 2.533
#iterations: 219
currently lose_sum: 0.5640520453453064
time_elpased: 2.548
start validation test
0.622
0.809980806142
0.332807570978
0.471771939631
0.62622521406
16.700
#iterations: 220
currently lose_sum: 0.5763909816741943
time_elpased: 2.495
#iterations: 221
currently lose_sum: 0.549336850643158
time_elpased: 2.677
#iterations: 222
currently lose_sum: 0.5477595329284668
time_elpased: 2.579
#iterations: 223
currently lose_sum: 0.4805730879306793
time_elpased: 2.54
#iterations: 224
currently lose_sum: 0.5586287975311279
time_elpased: 2.914
#iterations: 225
currently lose_sum: 0.5287399291992188
time_elpased: 2.537
#iterations: 226
currently lose_sum: 0.4701615571975708
time_elpased: 2.513
#iterations: 227
currently lose_sum: 0.5812548995018005
time_elpased: 2.69
#iterations: 228
currently lose_sum: 0.5813748240470886
time_elpased: 2.522
#iterations: 229
currently lose_sum: 0.5162814855575562
time_elpased: 2.516
#iterations: 230
currently lose_sum: 0.5079748630523682
time_elpased: 2.582
#iterations: 231
currently lose_sum: 0.5866550803184509
time_elpased: 2.528
#iterations: 232
currently lose_sum: 0.5900715589523315
time_elpased: 2.612
#iterations: 233
currently lose_sum: 0.4435453712940216
time_elpased: 2.56
#iterations: 234
currently lose_sum: 0.462978720664978
time_elpased: 2.515
#iterations: 235
currently lose_sum: 0.6252647638320923
time_elpased: 2.588
#iterations: 236
currently lose_sum: 0.622877299785614
time_elpased: 2.503
#iterations: 237
currently lose_sum: 0.4984828233718872
time_elpased: 2.507
#iterations: 238
currently lose_sum: 0.5910449028015137
time_elpased: 2.595
#iterations: 239
currently lose_sum: 0.4655081629753113
time_elpased: 2.669
start validation test
0.6636
0.793672627235
0.455047318612
0.578446115288
0.666647035929
15.973
#iterations: 240
currently lose_sum: 0.5585465431213379
time_elpased: 2.498
#iterations: 241
currently lose_sum: 0.49558770656585693
time_elpased: 2.56
#iterations: 242
currently lose_sum: 0.5188634395599365
time_elpased: 2.797
#iterations: 243
currently lose_sum: 0.5070409178733826
time_elpased: 2.61
#iterations: 244
currently lose_sum: 0.6184298992156982
time_elpased: 2.506
#iterations: 245
currently lose_sum: 0.5577540993690491
time_elpased: 2.537
#iterations: 246
currently lose_sum: 0.45492416620254517
time_elpased: 2.617
#iterations: 247
currently lose_sum: 0.49818283319473267
time_elpased: 2.681
#iterations: 248
currently lose_sum: 0.6376477479934692
time_elpased: 2.862
#iterations: 249
currently lose_sum: 0.5357827544212341
time_elpased: 2.541
#iterations: 250
currently lose_sum: 0.516087532043457
time_elpased: 2.729
#iterations: 251
currently lose_sum: 0.5887797474861145
time_elpased: 2.517
#iterations: 252
currently lose_sum: 0.5978239178657532
time_elpased: 2.611
#iterations: 253
currently lose_sum: 0.6239736080169678
time_elpased: 2.878
#iterations: 254
currently lose_sum: 0.4450194835662842
time_elpased: 2.811
#iterations: 255
currently lose_sum: 0.497837632894516
time_elpased: 2.886
#iterations: 256
currently lose_sum: 0.5061113834381104
time_elpased: 2.569
#iterations: 257
currently lose_sum: 0.5176502466201782
time_elpased: 2.515
#iterations: 258
currently lose_sum: 0.48643115162849426
time_elpased: 2.525
#iterations: 259
currently lose_sum: 0.5866497755050659
time_elpased: 2.559
start validation test
0.6912
0.662729658793
0.796529968454
0.723495702006
0.689661088123
14.762
#iterations: 260
currently lose_sum: 0.5599159002304077
time_elpased: 2.586
#iterations: 261
currently lose_sum: 0.5790441632270813
time_elpased: 2.567
#iterations: 262
currently lose_sum: 0.5793144106864929
time_elpased: 3.082
#iterations: 263
currently lose_sum: 0.6390804052352905
time_elpased: 2.564
#iterations: 264
currently lose_sum: 0.5249019861221313
time_elpased: 2.557
#iterations: 265
currently lose_sum: 0.4991096556186676
time_elpased: 2.517
#iterations: 266
currently lose_sum: 0.5184858441352844
time_elpased: 2.548
#iterations: 267
currently lose_sum: 0.7311264872550964
time_elpased: 2.547
#iterations: 268
currently lose_sum: 0.5319532155990601
time_elpased: 2.645
#iterations: 269
currently lose_sum: 0.49276894330978394
time_elpased: 2.624
#iterations: 270
currently lose_sum: 0.5395606756210327
time_elpased: 2.543
#iterations: 271
currently lose_sum: 0.5422423481941223
time_elpased: 2.59
#iterations: 272
currently lose_sum: 0.5771517753601074
time_elpased: 2.546
#iterations: 273
currently lose_sum: 0.7151678204536438
time_elpased: 2.519
#iterations: 274
currently lose_sum: 0.4775337874889374
time_elpased: 2.531
#iterations: 275
currently lose_sum: 0.4952632784843445
time_elpased: 2.533
#iterations: 276
currently lose_sum: 0.5212165117263794
time_elpased: 2.535
#iterations: 277
currently lose_sum: 0.554782509803772
time_elpased: 2.517
#iterations: 278
currently lose_sum: 0.5163053274154663
time_elpased: 2.599
#iterations: 279
currently lose_sum: 0.53110271692276
time_elpased: 2.556
start validation test
0.6996
0.738248847926
0.631703470032
0.680832979176
0.700591994756
14.588
#iterations: 280
currently lose_sum: 0.5837256908416748
time_elpased: 2.571
#iterations: 281
currently lose_sum: 0.4989946782588959
time_elpased: 2.55
#iterations: 282
currently lose_sum: 0.5520007610321045
time_elpased: 2.579
#iterations: 283
currently lose_sum: 0.5670759081840515
time_elpased: 2.568
#iterations: 284
currently lose_sum: 0.5749642252922058
time_elpased: 2.548
#iterations: 285
currently lose_sum: 0.5703198909759521
time_elpased: 2.504
#iterations: 286
currently lose_sum: 0.5222729444503784
time_elpased: 2.696
#iterations: 287
currently lose_sum: 0.5453218221664429
time_elpased: 2.544
#iterations: 288
currently lose_sum: 0.5285143256187439
time_elpased: 2.583
#iterations: 289
currently lose_sum: 0.4937400817871094
time_elpased: 2.796
#iterations: 290
currently lose_sum: 0.6110354065895081
time_elpased: 2.823
#iterations: 291
currently lose_sum: 0.4592139422893524
time_elpased: 2.551
#iterations: 292
currently lose_sum: 0.5883241891860962
time_elpased: 2.545
#iterations: 293
currently lose_sum: 0.4496574401855469
time_elpased: 2.534
#iterations: 294
currently lose_sum: 0.46064186096191406
time_elpased: 2.534
#iterations: 295
currently lose_sum: 0.5924733281135559
time_elpased: 2.61
#iterations: 296
currently lose_sum: 0.5429755449295044
time_elpased: 2.781
#iterations: 297
currently lose_sum: 0.4934663474559784
time_elpased: 2.598
#iterations: 298
currently lose_sum: 0.5282986164093018
time_elpased: 2.51
#iterations: 299
currently lose_sum: 0.5251691341400146
time_elpased: 2.558
start validation test
0.7036
0.756572541383
0.612776025237
0.677124183007
0.704926973657
14.364
#iterations: 300
currently lose_sum: 0.45550376176834106
time_elpased: 2.71
#iterations: 301
currently lose_sum: 0.4900810122489929
time_elpased: 2.577
#iterations: 302
currently lose_sum: 0.5333252549171448
time_elpased: 2.568
#iterations: 303
currently lose_sum: 0.5805279016494751
time_elpased: 2.57
#iterations: 304
currently lose_sum: 0.47495314478874207
time_elpased: 2.498
#iterations: 305
currently lose_sum: 0.5476851463317871
time_elpased: 2.644
#iterations: 306
currently lose_sum: 0.4933576285839081
time_elpased: 2.55
#iterations: 307
currently lose_sum: 0.5289202332496643
time_elpased: 2.615
#iterations: 308
currently lose_sum: 0.6255537867546082
time_elpased: 2.58
#iterations: 309
currently lose_sum: 0.48406437039375305
time_elpased: 2.573
#iterations: 310
currently lose_sum: 0.506006121635437
time_elpased: 2.507
#iterations: 311
currently lose_sum: 0.5440071821212769
time_elpased: 2.751
#iterations: 312
currently lose_sum: 0.5431837439537048
time_elpased: 2.621
#iterations: 313
currently lose_sum: 0.4940612018108368
time_elpased: 2.545
#iterations: 314
currently lose_sum: 0.4630688428878784
time_elpased: 2.519
#iterations: 315
currently lose_sum: 0.4722597897052765
time_elpased: 2.589
#iterations: 316
currently lose_sum: 0.539706289768219
time_elpased: 2.523
#iterations: 317
currently lose_sum: 0.49734318256378174
time_elpased: 2.515
#iterations: 318
currently lose_sum: 0.5917514562606812
time_elpased: 2.55
#iterations: 319
currently lose_sum: 0.5212997198104858
time_elpased: 2.602
start validation test
0.6732
0.820768136558
0.455047318612
0.585489599188
0.67638729567
15.821
#iterations: 320
currently lose_sum: 0.4877415895462036
time_elpased: 2.621
#iterations: 321
currently lose_sum: 0.57737135887146
time_elpased: 3.017
#iterations: 322
currently lose_sum: 0.5645308494567871
time_elpased: 2.595
#iterations: 323
currently lose_sum: 0.5082786679267883
time_elpased: 2.51
#iterations: 324
currently lose_sum: 0.47209906578063965
time_elpased: 2.518
#iterations: 325
currently lose_sum: 0.5625016093254089
time_elpased: 2.749
#iterations: 326
currently lose_sum: 0.4797033965587616
time_elpased: 2.555
#iterations: 327
currently lose_sum: 0.4882511794567108
time_elpased: 2.53
#iterations: 328
currently lose_sum: 0.4882977306842804
time_elpased: 2.685
#iterations: 329
currently lose_sum: 0.5169103145599365
time_elpased: 2.551
#iterations: 330
currently lose_sum: 0.5557785034179688
time_elpased: 2.543
#iterations: 331
currently lose_sum: 0.5521606206893921
time_elpased: 2.742
#iterations: 332
currently lose_sum: 0.5580127239227295
time_elpased: 2.7
#iterations: 333
currently lose_sum: 0.5600807666778564
time_elpased: 2.579
#iterations: 334
currently lose_sum: 0.5757198929786682
time_elpased: 2.537
#iterations: 335
currently lose_sum: 0.62375807762146
time_elpased: 2.648
#iterations: 336
currently lose_sum: 0.5273158550262451
time_elpased: 2.991
#iterations: 337
currently lose_sum: 0.48954659700393677
time_elpased: 2.522
#iterations: 338
currently lose_sum: 0.6064159870147705
time_elpased: 2.539
#iterations: 339
currently lose_sum: 0.4710904657840729
time_elpased: 2.576
start validation test
0.6784
0.825842696629
0.463722397476
0.593939393939
0.681536523413
15.530
#iterations: 340
currently lose_sum: 0.4257774353027344
time_elpased: 2.531
#iterations: 341
currently lose_sum: 0.40998920798301697
time_elpased: 2.774
#iterations: 342
currently lose_sum: 0.4898214340209961
time_elpased: 2.718
#iterations: 343
currently lose_sum: 0.6917951703071594
time_elpased: 2.596
#iterations: 344
currently lose_sum: 0.5030360817909241
time_elpased: 2.724
#iterations: 345
currently lose_sum: 0.6458901762962341
time_elpased: 2.552
#iterations: 346
currently lose_sum: 0.5205444097518921
time_elpased: 2.616
#iterations: 347
currently lose_sum: 0.6040221452713013
time_elpased: 3.092
#iterations: 348
currently lose_sum: 0.5600696802139282
time_elpased: 2.569
#iterations: 349
currently lose_sum: 0.475523442029953
time_elpased: 2.648
#iterations: 350
currently lose_sum: 0.5331532955169678
time_elpased: 2.547
#iterations: 351
currently lose_sum: 0.41667845845222473
time_elpased: 2.597
#iterations: 352
currently lose_sum: 0.5383927226066589
time_elpased: 2.643
#iterations: 353
currently lose_sum: 0.5332576632499695
time_elpased: 2.525
#iterations: 354
currently lose_sum: 0.4703943729400635
time_elpased: 2.539
#iterations: 355
currently lose_sum: 0.5101223587989807
time_elpased: 2.655
#iterations: 356
currently lose_sum: 0.5133490562438965
time_elpased: 2.557
#iterations: 357
currently lose_sum: 0.5400901436805725
time_elpased: 2.505
#iterations: 358
currently lose_sum: 0.40646085143089294
time_elpased: 2.577
#iterations: 359
currently lose_sum: 0.4985452890396118
time_elpased: 2.514
start validation test
0.7108
0.729957805907
0.682176656151
0.705258866694
0.711218198206
13.945
#iterations: 360
currently lose_sum: 0.40485474467277527
time_elpased: 2.563
#iterations: 361
currently lose_sum: 0.4481596052646637
time_elpased: 2.601
#iterations: 362
currently lose_sum: 0.4257623553276062
time_elpased: 2.507
#iterations: 363
currently lose_sum: 0.535207986831665
time_elpased: 2.526
#iterations: 364
currently lose_sum: 0.47757643461227417
time_elpased: 2.548
#iterations: 365
currently lose_sum: 0.530890703201294
time_elpased: 2.629
#iterations: 366
currently lose_sum: 0.5223962664604187
time_elpased: 2.555
#iterations: 367
currently lose_sum: 0.5359845757484436
time_elpased: 2.538
#iterations: 368
currently lose_sum: 0.5247544050216675
time_elpased: 2.58
#iterations: 369
currently lose_sum: 0.5848478674888611
time_elpased: 2.521
#iterations: 370
currently lose_sum: 0.5035422444343567
time_elpased: 2.543
#iterations: 371
currently lose_sum: 0.5404258966445923
time_elpased: 2.513
#iterations: 372
currently lose_sum: 0.5318038463592529
time_elpased: 2.824
#iterations: 373
currently lose_sum: 0.4455379247665405
time_elpased: 2.573
#iterations: 374
currently lose_sum: 0.4479276239871979
time_elpased: 2.703
#iterations: 375
currently lose_sum: 0.5772770047187805
time_elpased: 2.571
#iterations: 376
currently lose_sum: 0.5130073428153992
time_elpased: 2.663
#iterations: 377
currently lose_sum: 0.45051896572113037
time_elpased: 2.582
#iterations: 378
currently lose_sum: 0.5210816860198975
time_elpased: 2.622
#iterations: 379
currently lose_sum: 0.4621945321559906
time_elpased: 2.525
start validation test
0.7052
0.675711449371
0.805205047319
0.734796689457
0.703738887296
14.173
#iterations: 380
currently lose_sum: 0.464173823595047
time_elpased: 2.62
#iterations: 381
currently lose_sum: 0.44239342212677
time_elpased: 2.527
#iterations: 382
currently lose_sum: 0.3493933081626892
time_elpased: 2.618
#iterations: 383
currently lose_sum: 0.5021834373474121
time_elpased: 2.616
#iterations: 384
currently lose_sum: 0.46422645449638367
time_elpased: 2.556
#iterations: 385
currently lose_sum: 0.4452952444553375
time_elpased: 2.543
#iterations: 386
currently lose_sum: 0.636151909828186
time_elpased: 2.598
#iterations: 387
currently lose_sum: 0.7254801392555237
time_elpased: 2.545
#iterations: 388
currently lose_sum: 0.519609272480011
time_elpased: 2.726
#iterations: 389
currently lose_sum: 0.4297904670238495
time_elpased: 2.535
#iterations: 390
currently lose_sum: 0.5886421203613281
time_elpased: 2.691
#iterations: 391
currently lose_sum: 0.5608354210853577
time_elpased: 2.998
#iterations: 392
currently lose_sum: 0.5111731886863708
time_elpased: 2.652
#iterations: 393
currently lose_sum: 0.6176679730415344
time_elpased: 2.602
#iterations: 394
currently lose_sum: 0.5174097418785095
time_elpased: 2.692
#iterations: 395
currently lose_sum: 0.4974956512451172
time_elpased: 2.523
#iterations: 396
currently lose_sum: 0.7164745926856995
time_elpased: 2.525
#iterations: 397
currently lose_sum: 0.513896107673645
time_elpased: 2.519
#iterations: 398
currently lose_sum: 0.593608558177948
time_elpased: 2.479
#iterations: 399
currently lose_sum: 0.4577864706516266
time_elpased: 3.834
start validation test
0.6528
0.60395010395
0.916403785489
0.728070175439
0.648948645991
16.311
#iterations: 400
currently lose_sum: 0.5277780890464783
time_elpased: 2.605
#iterations: 401
currently lose_sum: 0.42308029532432556
time_elpased: 2.563
#iterations: 402
currently lose_sum: 0.4161040484905243
time_elpased: 2.727
#iterations: 403
currently lose_sum: 0.5148574709892273
time_elpased: 2.53
#iterations: 404
currently lose_sum: 0.5082194805145264
time_elpased: 2.554
#iterations: 405
currently lose_sum: 0.42664775252342224
time_elpased: 2.663
#iterations: 406
currently lose_sum: 0.3683086335659027
time_elpased: 2.792
#iterations: 407
currently lose_sum: 0.4607948958873749
time_elpased: 2.649
#iterations: 408
currently lose_sum: 0.5501227378845215
time_elpased: 2.66
#iterations: 409
currently lose_sum: 0.469369500875473
time_elpased: 2.632
#iterations: 410
currently lose_sum: 0.5889728665351868
time_elpased: 2.566
#iterations: 411
currently lose_sum: 0.5353868007659912
time_elpased: 2.61
#iterations: 412
currently lose_sum: 0.5518218874931335
time_elpased: 2.624
#iterations: 413
currently lose_sum: 0.6130956411361694
time_elpased: 2.643
#iterations: 414
currently lose_sum: 0.47905632853507996
time_elpased: 2.774
#iterations: 415
currently lose_sum: 0.47947847843170166
time_elpased: 2.572
#iterations: 416
currently lose_sum: 0.4875815510749817
time_elpased: 2.767
#iterations: 417
currently lose_sum: 0.44316568970680237
time_elpased: 2.537
#iterations: 418
currently lose_sum: 0.5351499915122986
time_elpased: 2.566
#iterations: 419
currently lose_sum: 0.583862841129303
time_elpased: 2.511
start validation test
0.6572
0.609018567639
0.905362776025
0.728195369489
0.653574245155
15.782
#iterations: 420
currently lose_sum: 0.5552197098731995
time_elpased: 2.559
#iterations: 421
currently lose_sum: 0.46189194917678833
time_elpased: 2.469
#iterations: 422
currently lose_sum: 0.5129601955413818
time_elpased: 2.552
#iterations: 423
currently lose_sum: 0.46033287048339844
time_elpased: 2.55
#iterations: 424
currently lose_sum: 0.4869265854358673
time_elpased: 2.503
#iterations: 425
currently lose_sum: 0.5291579961776733
time_elpased: 2.68
#iterations: 426
currently lose_sum: 0.4394148290157318
time_elpased: 2.491
#iterations: 427
currently lose_sum: 0.48938992619514465
time_elpased: 2.51
#iterations: 428
currently lose_sum: 0.45370879769325256
time_elpased: 2.521
#iterations: 429
currently lose_sum: 0.46455666422843933
time_elpased: 2.523
#iterations: 430
currently lose_sum: 0.5280756950378418
time_elpased: 2.557
#iterations: 431
currently lose_sum: 0.4380459487438202
time_elpased: 2.594
#iterations: 432
currently lose_sum: 0.549151599407196
time_elpased: 2.572
#iterations: 433
currently lose_sum: 0.5229688286781311
time_elpased: 2.554
#iterations: 434
currently lose_sum: 0.4391273856163025
time_elpased: 2.713
#iterations: 435
currently lose_sum: 0.6350415945053101
time_elpased: 2.727
#iterations: 436
currently lose_sum: 0.4784618318080902
time_elpased: 2.52
#iterations: 437
currently lose_sum: 0.52296382188797
time_elpased: 2.551
#iterations: 438
currently lose_sum: 0.5120303630828857
time_elpased: 2.693
#iterations: 439
currently lose_sum: 0.5097404718399048
time_elpased: 2.532
start validation test
0.706
0.678260869565
0.799684542587
0.733984799131
0.704631232332
13.979
#iterations: 440
currently lose_sum: 0.4933335781097412
time_elpased: 2.51
#iterations: 441
currently lose_sum: 0.3843235373497009
time_elpased: 2.559
#iterations: 442
currently lose_sum: 0.6440420746803284
time_elpased: 2.647
#iterations: 443
currently lose_sum: 0.4259817600250244
time_elpased: 2.648
#iterations: 444
currently lose_sum: 0.5057932138442993
time_elpased: 2.564
#iterations: 445
currently lose_sum: 0.44837966561317444
time_elpased: 2.569
#iterations: 446
currently lose_sum: 0.5372424125671387
time_elpased: 2.57
#iterations: 447
currently lose_sum: 0.6206138730049133
time_elpased: 2.54
#iterations: 448
currently lose_sum: 0.4459247589111328
time_elpased: 2.567
#iterations: 449
currently lose_sum: 0.4548027813434601
time_elpased: 2.663
#iterations: 450
currently lose_sum: 0.4465104341506958
time_elpased: 2.514
#iterations: 451
currently lose_sum: 0.5910232067108154
time_elpased: 2.555
#iterations: 452
currently lose_sum: 0.5225800275802612
time_elpased: 2.537
#iterations: 453
currently lose_sum: 0.47790923714637756
time_elpased: 2.736
#iterations: 454
currently lose_sum: 0.5946595668792725
time_elpased: 2.527
#iterations: 455
currently lose_sum: 0.49172061681747437
time_elpased: 2.477
#iterations: 456
currently lose_sum: 0.4503425657749176
time_elpased: 2.547
#iterations: 457
currently lose_sum: 0.5318019390106201
time_elpased: 2.777
#iterations: 458
currently lose_sum: 0.534634530544281
time_elpased: 2.503
#iterations: 459
currently lose_sum: 0.4583497643470764
time_elpased: 2.526
start validation test
0.7196
0.740866610025
0.687697160883
0.713292433538
0.720066112909
13.707
#iterations: 460
currently lose_sum: 0.4880584478378296
time_elpased: 2.617
#iterations: 461
currently lose_sum: 0.46570709347724915
time_elpased: 2.603
#iterations: 462
currently lose_sum: 0.4701686203479767
time_elpased: 2.546
#iterations: 463
currently lose_sum: 0.43796467781066895
time_elpased: 2.528
#iterations: 464
currently lose_sum: 0.42465001344680786
time_elpased: 2.538
#iterations: 465
currently lose_sum: 0.5082366466522217
time_elpased: 2.619
#iterations: 466
currently lose_sum: 0.5257638692855835
time_elpased: 2.83
#iterations: 467
currently lose_sum: 0.4401465654373169
time_elpased: 2.599
#iterations: 468
currently lose_sum: 0.5000141859054565
time_elpased: 2.523
#iterations: 469
currently lose_sum: 0.4697108566761017
time_elpased: 2.637
#iterations: 470
currently lose_sum: 0.6326716542243958
time_elpased: 2.498
#iterations: 471
currently lose_sum: 0.49925950169563293
time_elpased: 2.496
#iterations: 472
currently lose_sum: 0.4514877200126648
time_elpased: 2.523
#iterations: 473
currently lose_sum: 0.4869868755340576
time_elpased: 2.526
#iterations: 474
currently lose_sum: 0.479775995016098
time_elpased: 2.527
#iterations: 475
currently lose_sum: 0.4212840795516968
time_elpased: 2.648
#iterations: 476
currently lose_sum: 0.4958324730396271
time_elpased: 2.543
#iterations: 477
currently lose_sum: 0.618867039680481
time_elpased: 2.61
#iterations: 478
currently lose_sum: 0.3820915222167969
time_elpased: 2.496
#iterations: 479
currently lose_sum: 0.4332018196582794
time_elpased: 2.54
start validation test
0.6852
0.835425383543
0.472397476341
0.603526448363
0.688309127781
15.500
#iterations: 480
currently lose_sum: 0.44390150904655457
time_elpased: 2.739
#iterations: 481
currently lose_sum: 0.48169276118278503
time_elpased: 2.577
#iterations: 482
currently lose_sum: 0.4279508590698242
time_elpased: 2.549
#iterations: 483
currently lose_sum: 0.4420504868030548
time_elpased: 2.596
#iterations: 484
currently lose_sum: 0.4673302471637726
time_elpased: 2.58
#iterations: 485
currently lose_sum: 0.4607495069503784
time_elpased: 2.5
#iterations: 486
currently lose_sum: 0.5975162982940674
time_elpased: 2.666
#iterations: 487
currently lose_sum: 0.4670948386192322
time_elpased: 2.52
#iterations: 488
currently lose_sum: 0.44907525181770325
time_elpased: 2.51
#iterations: 489
currently lose_sum: 0.5056624412536621
time_elpased: 2.564
#iterations: 490
currently lose_sum: 0.485519140958786
time_elpased: 2.608
#iterations: 491
currently lose_sum: 0.45245665311813354
time_elpased: 2.526
#iterations: 492
currently lose_sum: 0.5817733407020569
time_elpased: 2.547
#iterations: 493
currently lose_sum: 0.47083595395088196
time_elpased: 2.489
#iterations: 494
currently lose_sum: 0.5126192569732666
time_elpased: 2.631
#iterations: 495
currently lose_sum: 0.46875831484794617
time_elpased: 2.494
#iterations: 496
currently lose_sum: 0.4947735667228699
time_elpased: 2.513
#iterations: 497
currently lose_sum: 0.5217211246490479
time_elpased: 2.706
#iterations: 498
currently lose_sum: 0.46628180146217346
time_elpased: 2.577
#iterations: 499
currently lose_sum: 0.4388611614704132
time_elpased: 2.532
start validation test
0.7196
0.694845360825
0.797318611987
0.742563349247
0.718464500799
13.597
#iterations: 500
currently lose_sum: 0.4249729812145233
time_elpased: 2.642
#iterations: 501
currently lose_sum: 0.43336960673332214
time_elpased: 2.549
#iterations: 502
currently lose_sum: 0.4781385064125061
time_elpased: 2.605
#iterations: 503
currently lose_sum: 0.45106393098831177
time_elpased: 2.782
#iterations: 504
currently lose_sum: 0.4442611038684845
time_elpased: 2.565
#iterations: 505
currently lose_sum: 0.4120333194732666
time_elpased: 2.544
#iterations: 506
currently lose_sum: 0.5170552730560303
time_elpased: 2.591
#iterations: 507
currently lose_sum: 0.4012281000614166
time_elpased: 2.487
#iterations: 508
currently lose_sum: 0.3643703758716583
time_elpased: 2.677
#iterations: 509
currently lose_sum: 0.4359985291957855
time_elpased: 2.494
#iterations: 510
currently lose_sum: 0.48143085837364197
time_elpased: 2.502
#iterations: 511
currently lose_sum: 0.4472745656967163
time_elpased: 2.714
#iterations: 512
currently lose_sum: 0.41477125883102417
time_elpased: 2.491
#iterations: 513
currently lose_sum: 0.4438666105270386
time_elpased: 2.517
#iterations: 514
currently lose_sum: 0.44687652587890625
time_elpased: 2.662
#iterations: 515
currently lose_sum: 0.4244905710220337
time_elpased: 2.55
#iterations: 516
currently lose_sum: 0.463455468416214
time_elpased: 2.547
#iterations: 517
currently lose_sum: 0.3567053973674774
time_elpased: 2.53
#iterations: 518
currently lose_sum: 0.46462059020996094
time_elpased: 2.53
#iterations: 519
currently lose_sum: 0.46480393409729004
time_elpased: 2.52
start validation test
0.702
0.810939357907
0.53785488959
0.646752015173
0.704398224016
14.542
#iterations: 520
currently lose_sum: 0.3501221537590027
time_elpased: 2.59
#iterations: 521
currently lose_sum: 0.46114081144332886
time_elpased: 2.547
#iterations: 522
currently lose_sum: 0.39710143208503723
time_elpased: 2.548
#iterations: 523
currently lose_sum: 0.4407576620578766
time_elpased: 2.65
#iterations: 524
currently lose_sum: 0.5254658460617065
time_elpased: 2.568
#iterations: 525
currently lose_sum: 0.4315262734889984
time_elpased: 2.567
#iterations: 526
currently lose_sum: 0.46713966131210327
time_elpased: 2.608
#iterations: 527
currently lose_sum: 0.4998873174190521
time_elpased: 2.73
#iterations: 528
currently lose_sum: 0.4852658212184906
time_elpased: 2.521
#iterations: 529
currently lose_sum: 0.5804572105407715
time_elpased: 2.964
#iterations: 530
currently lose_sum: 0.5236427187919617
time_elpased: 3.045
#iterations: 531
currently lose_sum: 0.37314945459365845
time_elpased: 2.655
#iterations: 532
currently lose_sum: 0.430702805519104
time_elpased: 2.716
#iterations: 533
currently lose_sum: 0.473075270652771
time_elpased: 2.631
#iterations: 534
currently lose_sum: 0.4488561153411865
time_elpased: 2.555
#iterations: 535
currently lose_sum: 0.48685622215270996
time_elpased: 2.546
#iterations: 536
currently lose_sum: 0.5441794395446777
time_elpased: 2.593
#iterations: 537
currently lose_sum: 0.4042133390903473
time_elpased: 2.642
#iterations: 538
currently lose_sum: 0.7097519040107727
time_elpased: 3.555
#iterations: 539
currently lose_sum: 0.4689083397388458
time_elpased: 2.53
start validation test
0.7196
0.707388441843
0.76261829653
0.733965844402
0.718971485927
13.363
#iterations: 540
currently lose_sum: 0.3164447844028473
time_elpased: 2.618
#iterations: 541
currently lose_sum: 0.5202206373214722
time_elpased: 2.821
#iterations: 542
currently lose_sum: 0.4334052801132202
time_elpased: 2.593
#iterations: 543
currently lose_sum: 0.6278910636901855
time_elpased: 2.704
#iterations: 544
currently lose_sum: 0.38266313076019287
time_elpased: 2.569
#iterations: 545
currently lose_sum: 0.43236443400382996
time_elpased: 2.576
#iterations: 546
currently lose_sum: 0.5460567474365234
time_elpased: 2.753
#iterations: 547
currently lose_sum: 0.3896990716457367
time_elpased: 2.647
#iterations: 548
currently lose_sum: 0.5553075075149536
time_elpased: 2.538
#iterations: 549
currently lose_sum: 0.43985626101493835
time_elpased: 2.567
#iterations: 550
currently lose_sum: 0.4460064768791199
time_elpased: 2.711
#iterations: 551
currently lose_sum: 0.48056116700172424
time_elpased: 2.535
#iterations: 552
currently lose_sum: 0.3936457335948944
time_elpased: 2.534
#iterations: 553
currently lose_sum: 0.4077247679233551
time_elpased: 2.613
#iterations: 554
currently lose_sum: 0.4771241247653961
time_elpased: 2.57
#iterations: 555
currently lose_sum: 0.3668128252029419
time_elpased: 2.585
#iterations: 556
currently lose_sum: 0.4217245876789093
time_elpased: 2.889
#iterations: 557
currently lose_sum: 0.37958917021751404
time_elpased: 2.731
#iterations: 558
currently lose_sum: 0.44962745904922485
time_elpased: 2.587
#iterations: 559
currently lose_sum: 0.5061697363853455
time_elpased: 2.619
start validation test
0.7056
0.818944844125
0.538643533123
0.649857278782
0.708039299029
15.193
#iterations: 560
currently lose_sum: 0.5078821778297424
time_elpased: 2.507
#iterations: 561
currently lose_sum: 0.4741746485233307
time_elpased: 2.605
#iterations: 562
currently lose_sum: 0.4979129731655121
time_elpased: 2.553
#iterations: 563
currently lose_sum: 0.4715114235877991
time_elpased: 2.565
#iterations: 564
currently lose_sum: 0.494005024433136
time_elpased: 2.818
#iterations: 565
currently lose_sum: 0.47745296359062195
time_elpased: 2.489
#iterations: 566
currently lose_sum: 0.4050327241420746
time_elpased: 2.497
#iterations: 567
currently lose_sum: 0.5393475294113159
time_elpased: 2.534
#iterations: 568
currently lose_sum: 0.43921011686325073
time_elpased: 2.473
#iterations: 569
currently lose_sum: 0.5056794285774231
time_elpased: 2.506
#iterations: 570
currently lose_sum: 0.4004255533218384
time_elpased: 2.527
#iterations: 571
currently lose_sum: 0.4903915524482727
time_elpased: 2.579
#iterations: 572
currently lose_sum: 0.562399685382843
time_elpased: 2.595
#iterations: 573
currently lose_sum: 0.5188911557197571
time_elpased: 2.538
#iterations: 574
currently lose_sum: 0.4248361587524414
time_elpased: 2.644
#iterations: 575
currently lose_sum: 0.4979899525642395
time_elpased: 2.494
#iterations: 576
currently lose_sum: 0.5165630578994751
time_elpased: 2.581
#iterations: 577
currently lose_sum: 0.4667755365371704
time_elpased: 2.573
#iterations: 578
currently lose_sum: 0.5909011363983154
time_elpased: 2.547
#iterations: 579
currently lose_sum: 0.5170573592185974
time_elpased: 3.017
start validation test
0.7328
0.778810408922
0.660883280757
0.715017064846
0.733850731288
13.610
#iterations: 580
currently lose_sum: 0.38860756158828735
time_elpased: 2.572
#iterations: 581
currently lose_sum: 0.4774244427680969
time_elpased: 2.512
#iterations: 582
currently lose_sum: 0.5570741891860962
time_elpased: 2.828
#iterations: 583
currently lose_sum: 0.44756004214286804
time_elpased: 2.585
#iterations: 584
currently lose_sum: 0.42248040437698364
time_elpased: 2.911
#iterations: 585
currently lose_sum: 0.39929142594337463
time_elpased: 2.779
#iterations: 586
currently lose_sum: 0.43468940258026123
time_elpased: 2.519
#iterations: 587
currently lose_sum: 0.5045021176338196
time_elpased: 2.517
#iterations: 588
currently lose_sum: 0.4627898335456848
time_elpased: 2.592
#iterations: 589
currently lose_sum: 0.454015851020813
time_elpased: 2.637
#iterations: 590
currently lose_sum: 0.3723001182079315
time_elpased: 2.694
#iterations: 591
currently lose_sum: 0.4868943691253662
time_elpased: 2.521
#iterations: 592
currently lose_sum: 0.39970284700393677
time_elpased: 2.551
#iterations: 593
currently lose_sum: 0.5455147624015808
time_elpased: 2.517
#iterations: 594
currently lose_sum: 0.4129374623298645
time_elpased: 2.589
#iterations: 595
currently lose_sum: 0.47867825627326965
time_elpased: 2.619
#iterations: 596
currently lose_sum: 0.45178619027137756
time_elpased: 2.587
#iterations: 597
currently lose_sum: 0.4709949195384979
time_elpased: 2.523
#iterations: 598
currently lose_sum: 0.5402311086654663
time_elpased: 2.753
#iterations: 599
currently lose_sum: 0.39755362272262573
time_elpased: 2.835
start validation test
0.722
0.802534318902
0.599369085174
0.686230248307
0.723791685444
14.117
acc: 0.718
pre: 0.702
rec: 0.772
F1: 0.736
auc: 0.718
