start to construct computing graph
graph construct over
3803
epochs start
#iterations: 0
currently lose_sum: 0.6936497688293457
time_elpased: 2.481
#iterations: 1
currently lose_sum: 0.6892805695533752
time_elpased: 2.312
#iterations: 2
currently lose_sum: 0.6904335021972656
time_elpased: 2.273
#iterations: 3
currently lose_sum: 0.6906005144119263
time_elpased: 2.315
#iterations: 4
currently lose_sum: 0.6928106546401978
time_elpased: 2.262
#iterations: 5
currently lose_sum: 0.691275417804718
time_elpased: 2.276
#iterations: 6
currently lose_sum: 0.6929789185523987
time_elpased: 2.374
#iterations: 7
currently lose_sum: 0.6961115002632141
time_elpased: 2.6
#iterations: 8
currently lose_sum: 0.7014840841293335
time_elpased: 2.301
#iterations: 9
currently lose_sum: 0.6912487149238586
time_elpased: 2.323
#iterations: 10
currently lose_sum: 0.688659131526947
time_elpased: 2.307
#iterations: 11
currently lose_sum: 0.6933887600898743
time_elpased: 2.277
#iterations: 12
currently lose_sum: 0.6813474297523499
time_elpased: 2.33
#iterations: 13
currently lose_sum: 0.6809972524642944
time_elpased: 2.347
#iterations: 14
currently lose_sum: 0.6958706378936768
time_elpased: 2.251
#iterations: 15
currently lose_sum: 0.6915739178657532
time_elpased: 2.324
#iterations: 16
currently lose_sum: 0.6845845580101013
time_elpased: 2.376
#iterations: 17
currently lose_sum: 0.6872313022613525
time_elpased: 2.454
#iterations: 18
currently lose_sum: 0.6930741667747498
time_elpased: 2.455
#iterations: 19
currently lose_sum: 0.6749818921089172
time_elpased: 2.92
start validation test
0.5272
0.543234994914
0.421468034728
0.474666666667
0.528657780543
17.169
#iterations: 20
currently lose_sum: 0.6817909479141235
time_elpased: 1.838
#iterations: 21
currently lose_sum: 0.6907182335853577
time_elpased: 1.871
#iterations: 22
currently lose_sum: 0.686953604221344
time_elpased: 1.917
#iterations: 23
currently lose_sum: 0.6912862658500671
time_elpased: 1.898
#iterations: 24
currently lose_sum: 0.6720610857009888
time_elpased: 2.033
#iterations: 25
currently lose_sum: 0.661001443862915
time_elpased: 2.185
#iterations: 26
currently lose_sum: 0.6690255999565125
time_elpased: 1.85
#iterations: 27
currently lose_sum: 0.6976890563964844
time_elpased: 2.179
#iterations: 28
currently lose_sum: 0.6863824725151062
time_elpased: 1.84
#iterations: 29
currently lose_sum: 0.7011057138442993
time_elpased: 1.859
#iterations: 30
currently lose_sum: 0.669346034526825
time_elpased: 1.867
#iterations: 31
currently lose_sum: 0.6648072600364685
time_elpased: 1.857
#iterations: 32
currently lose_sum: 0.6723083257675171
time_elpased: 2.041
#iterations: 33
currently lose_sum: 0.6556462049484253
time_elpased: 1.854
#iterations: 34
currently lose_sum: 0.6708207726478577
time_elpased: 1.927
#iterations: 35
currently lose_sum: 0.6595407128334045
time_elpased: 2.051
#iterations: 36
currently lose_sum: 0.6396023631095886
time_elpased: 1.886
#iterations: 37
currently lose_sum: 0.657014012336731
time_elpased: 2.077
#iterations: 38
currently lose_sum: 0.6758842468261719
time_elpased: 1.858
#iterations: 39
currently lose_sum: 0.677204430103302
time_elpased: 1.848
start validation test
0.5788
0.600943396226
0.502762430939
0.54748603352
0.579848368754
16.871
#iterations: 40
currently lose_sum: 0.6558372378349304
time_elpased: 1.878
#iterations: 41
currently lose_sum: 0.6950331330299377
time_elpased: 2.109
#iterations: 42
currently lose_sum: 0.6398431062698364
time_elpased: 1.836
#iterations: 43
currently lose_sum: 0.6440591216087341
time_elpased: 1.925
#iterations: 44
currently lose_sum: 0.6587739586830139
time_elpased: 2.409
#iterations: 45
currently lose_sum: 0.6894685626029968
time_elpased: 1.834
#iterations: 46
currently lose_sum: 0.660155713558197
time_elpased: 1.943
#iterations: 47
currently lose_sum: 0.6469001173973083
time_elpased: 1.871
#iterations: 48
currently lose_sum: 0.6276451945304871
time_elpased: 1.987
#iterations: 49
currently lose_sum: 0.6515592336654663
time_elpased: 1.823
#iterations: 50
currently lose_sum: 0.6871327757835388
time_elpased: 1.908
#iterations: 51
currently lose_sum: 0.6450315117835999
time_elpased: 1.889
#iterations: 52
currently lose_sum: 0.6310557723045349
time_elpased: 1.891
#iterations: 53
currently lose_sum: 0.6672706604003906
time_elpased: 1.878
#iterations: 54
currently lose_sum: 0.6441149711608887
time_elpased: 1.847
#iterations: 55
currently lose_sum: 0.656423807144165
time_elpased: 1.801
#iterations: 56
currently lose_sum: 0.6328443884849548
time_elpased: 1.866
#iterations: 57
currently lose_sum: 0.659807026386261
time_elpased: 1.874
#iterations: 58
currently lose_sum: 0.681084394454956
time_elpased: 2.321
#iterations: 59
currently lose_sum: 0.6463459730148315
time_elpased: 1.934
start validation test
0.5996
0.576967592593
0.786898184688
0.665776293823
0.59701762438
16.387
#iterations: 60
currently lose_sum: 0.6264312863349915
time_elpased: 1.852
#iterations: 61
currently lose_sum: 0.6505393981933594
time_elpased: 1.884
#iterations: 62
currently lose_sum: 0.639729380607605
time_elpased: 1.828
#iterations: 63
currently lose_sum: 0.6476896405220032
time_elpased: 1.919
#iterations: 64
currently lose_sum: 0.6392895579338074
time_elpased: 1.918
#iterations: 65
currently lose_sum: 0.6429690718650818
time_elpased: 1.894
#iterations: 66
currently lose_sum: 0.6708273887634277
time_elpased: 1.844
#iterations: 67
currently lose_sum: 0.639249324798584
time_elpased: 1.79
#iterations: 68
currently lose_sum: 0.652020275592804
time_elpased: 1.875
#iterations: 69
currently lose_sum: 0.6343013644218445
time_elpased: 1.965
#iterations: 70
currently lose_sum: 0.6370403170585632
time_elpased: 1.839
#iterations: 71
currently lose_sum: 0.6489982604980469
time_elpased: 1.892
#iterations: 72
currently lose_sum: 0.6314154863357544
time_elpased: 1.864
#iterations: 73
currently lose_sum: 0.624214231967926
time_elpased: 1.833
#iterations: 74
currently lose_sum: 0.6346815228462219
time_elpased: 1.913
#iterations: 75
currently lose_sum: 0.6088120937347412
time_elpased: 2.006
#iterations: 76
currently lose_sum: 0.6738074421882629
time_elpased: 2.064
#iterations: 77
currently lose_sum: 0.6515432596206665
time_elpased: 1.897
#iterations: 78
currently lose_sum: 0.6499319672584534
time_elpased: 1.882
#iterations: 79
currently lose_sum: 0.6154859662055969
time_elpased: 2.058
start validation test
0.6364
0.649415692821
0.614048934491
0.631237322515
0.636708165542
16.081
#iterations: 80
currently lose_sum: 0.6339209079742432
time_elpased: 1.838
#iterations: 81
currently lose_sum: 0.614054262638092
time_elpased: 1.946
#iterations: 82
currently lose_sum: 0.614142656326294
time_elpased: 1.881
#iterations: 83
currently lose_sum: 0.5841807723045349
time_elpased: 1.842
#iterations: 84
currently lose_sum: 0.6409233808517456
time_elpased: 1.935
#iterations: 85
currently lose_sum: 0.6160910725593567
time_elpased: 1.829
#iterations: 86
currently lose_sum: 0.7043659687042236
time_elpased: 2.164
#iterations: 87
currently lose_sum: 0.6505071520805359
time_elpased: 1.845
#iterations: 88
currently lose_sum: 0.6246530413627625
time_elpased: 2.148
#iterations: 89
currently lose_sum: 0.6394716501235962
time_elpased: 1.893
#iterations: 90
currently lose_sum: 0.654651939868927
time_elpased: 2.369
#iterations: 91
currently lose_sum: 0.6092841625213623
time_elpased: 1.855
#iterations: 92
currently lose_sum: 0.5776914358139038
time_elpased: 2.028
#iterations: 93
currently lose_sum: 0.6611713171005249
time_elpased: 1.844
#iterations: 94
currently lose_sum: 0.6322011947631836
time_elpased: 1.818
#iterations: 95
currently lose_sum: 0.6419429779052734
time_elpased: 1.889
#iterations: 96
currently lose_sum: 0.5585035085678101
time_elpased: 1.821
#iterations: 97
currently lose_sum: 0.573026180267334
time_elpased: 1.848
#iterations: 98
currently lose_sum: 0.5677260756492615
time_elpased: 1.881
#iterations: 99
currently lose_sum: 0.6385130882263184
time_elpased: 1.866
start validation test
0.6048
0.682352941176
0.411996842936
0.513779527559
0.607458275483
16.423
#iterations: 100
currently lose_sum: 0.6326508522033691
time_elpased: 1.851
#iterations: 101
currently lose_sum: 0.6008579730987549
time_elpased: 1.87
#iterations: 102
currently lose_sum: 0.6613810062408447
time_elpased: 1.908
#iterations: 103
currently lose_sum: 0.6171841621398926
time_elpased: 1.842
#iterations: 104
currently lose_sum: 0.61912602186203
time_elpased: 1.923
#iterations: 105
currently lose_sum: 0.5698238611221313
time_elpased: 1.849
#iterations: 106
currently lose_sum: 0.5295866131782532
time_elpased: 2.02
#iterations: 107
currently lose_sum: 0.6675291657447815
time_elpased: 1.887
#iterations: 108
currently lose_sum: 0.6070386171340942
time_elpased: 1.888
#iterations: 109
currently lose_sum: 0.6141272187232971
time_elpased: 1.977
#iterations: 110
currently lose_sum: 0.6618501543998718
time_elpased: 1.877
#iterations: 111
currently lose_sum: 0.6635558605194092
time_elpased: 1.937
#iterations: 112
currently lose_sum: 0.6169512271881104
time_elpased: 1.877
#iterations: 113
currently lose_sum: 0.606792688369751
time_elpased: 1.926
#iterations: 114
currently lose_sum: 0.6200040578842163
time_elpased: 1.988
#iterations: 115
currently lose_sum: 0.6102750897407532
time_elpased: 2.128
#iterations: 116
currently lose_sum: 0.6175376176834106
time_elpased: 1.839
#iterations: 117
currently lose_sum: 0.5625569224357605
time_elpased: 2.529
#iterations: 118
currently lose_sum: 0.5777702927589417
time_elpased: 1.886
#iterations: 119
currently lose_sum: 0.6386474967002869
time_elpased: 1.948
start validation test
0.6548
0.641061452514
0.72454617206
0.680251945165
0.653838373946
15.302
#iterations: 120
currently lose_sum: 0.595079779624939
time_elpased: 1.871
#iterations: 121
currently lose_sum: 0.7154353260993958
time_elpased: 1.84
#iterations: 122
currently lose_sum: 0.5943987965583801
time_elpased: 1.864
#iterations: 123
currently lose_sum: 0.718549370765686
time_elpased: 1.956
#iterations: 124
currently lose_sum: 0.6210991144180298
time_elpased: 1.902
#iterations: 125
currently lose_sum: 0.5610024333000183
time_elpased: 1.905
#iterations: 126
currently lose_sum: 0.6272252202033997
time_elpased: 1.867
#iterations: 127
currently lose_sum: 0.5962714552879333
time_elpased: 1.831
#iterations: 128
currently lose_sum: 0.5826618075370789
time_elpased: 1.87
#iterations: 129
currently lose_sum: 0.5873477458953857
time_elpased: 1.913
#iterations: 130
currently lose_sum: 0.6087377667427063
time_elpased: 1.907
#iterations: 131
currently lose_sum: 0.567295253276825
time_elpased: 1.869
#iterations: 132
currently lose_sum: 0.5547672510147095
time_elpased: 1.932
#iterations: 133
currently lose_sum: 0.6463366746902466
time_elpased: 2.196
#iterations: 134
currently lose_sum: 0.6257330775260925
time_elpased: 1.83
#iterations: 135
currently lose_sum: 0.7465240359306335
time_elpased: 1.854
#iterations: 136
currently lose_sum: 0.63625168800354
time_elpased: 1.842
#iterations: 137
currently lose_sum: 0.5479595065116882
time_elpased: 1.819
#iterations: 138
currently lose_sum: 0.5947609543800354
time_elpased: 2.001
#iterations: 139
currently lose_sum: 0.5701318979263306
time_elpased: 1.832
start validation test
0.5796
0.86
0.20363062352
0.329291640077
0.58478368159
18.603
#iterations: 140
currently lose_sum: 0.565986156463623
time_elpased: 1.842
#iterations: 141
currently lose_sum: 0.6097452044487
time_elpased: 1.885
#iterations: 142
currently lose_sum: 0.5699377655982971
time_elpased: 2.13
#iterations: 143
currently lose_sum: 0.6223504543304443
time_elpased: 2.018
#iterations: 144
currently lose_sum: 0.6331444382667542
time_elpased: 1.925
#iterations: 145
currently lose_sum: 0.6107066869735718
time_elpased: 1.859
#iterations: 146
currently lose_sum: 0.6328037977218628
time_elpased: 1.907
#iterations: 147
currently lose_sum: 0.6189923882484436
time_elpased: 1.955
#iterations: 148
currently lose_sum: 0.6490541696548462
time_elpased: 1.849
#iterations: 149
currently lose_sum: 0.5454474687576294
time_elpased: 1.953
#iterations: 150
currently lose_sum: 0.5026271939277649
time_elpased: 1.865
#iterations: 151
currently lose_sum: 0.5199899077415466
time_elpased: 1.859
#iterations: 152
currently lose_sum: 0.5766884684562683
time_elpased: 1.837
#iterations: 153
currently lose_sum: 0.6171712875366211
time_elpased: 1.881
#iterations: 154
currently lose_sum: 0.5642778873443604
time_elpased: 1.921
#iterations: 155
currently lose_sum: 0.5960960984230042
time_elpased: 1.856
#iterations: 156
currently lose_sum: 0.514926016330719
time_elpased: 1.839
#iterations: 157
currently lose_sum: 0.5029670596122742
time_elpased: 1.944
#iterations: 158
currently lose_sum: 0.5780598521232605
time_elpased: 2.034
#iterations: 159
currently lose_sum: 0.6091575622558594
time_elpased: 1.828
start validation test
0.6796
0.664780763791
0.741910023678
0.701230883999
0.678740899917
14.872
#iterations: 160
currently lose_sum: 0.7867628335952759
time_elpased: 2.118
#iterations: 161
currently lose_sum: 0.5843863487243652
time_elpased: 1.828
#iterations: 162
currently lose_sum: 0.5474572777748108
time_elpased: 1.815
#iterations: 163
currently lose_sum: 0.6255098581314087
time_elpased: 1.836
#iterations: 164
currently lose_sum: 0.6729537844657898
time_elpased: 1.911
#iterations: 165
currently lose_sum: 0.5409371256828308
time_elpased: 1.815
#iterations: 166
currently lose_sum: 0.6105241775512695
time_elpased: 1.838
#iterations: 167
currently lose_sum: 0.5986165404319763
time_elpased: 1.833
#iterations: 168
currently lose_sum: 0.5130500793457031
time_elpased: 1.935
#iterations: 169
currently lose_sum: 0.5852567553520203
time_elpased: 1.889
#iterations: 170
currently lose_sum: 0.5153534412384033
time_elpased: 1.835
#iterations: 171
currently lose_sum: 0.5753179788589478
time_elpased: 1.923
#iterations: 172
currently lose_sum: 0.5373698472976685
time_elpased: 1.862
#iterations: 173
currently lose_sum: 0.5482492446899414
time_elpased: 1.879
#iterations: 174
currently lose_sum: 0.6214858293533325
time_elpased: 1.945
#iterations: 175
currently lose_sum: 0.5517422556877136
time_elpased: 1.807
#iterations: 176
currently lose_sum: 0.5900577902793884
time_elpased: 1.868
#iterations: 177
currently lose_sum: 0.6796374320983887
time_elpased: 1.867
#iterations: 178
currently lose_sum: 0.6528314352035522
time_elpased: 1.828
#iterations: 179
currently lose_sum: 0.5547348260879517
time_elpased: 1.896
start validation test
0.6796
0.657645466847
0.767166535122
0.708196721311
0.678392675509
14.969
#iterations: 180
currently lose_sum: 0.5225641131401062
time_elpased: 1.898
#iterations: 181
currently lose_sum: 0.6185158491134644
time_elpased: 2.238
#iterations: 182
currently lose_sum: 0.5702588558197021
time_elpased: 1.85
#iterations: 183
currently lose_sum: 0.5820768475532532
time_elpased: 1.861
#iterations: 184
currently lose_sum: 0.5613449811935425
time_elpased: 1.898
#iterations: 185
currently lose_sum: 0.5959987044334412
time_elpased: 2.015
#iterations: 186
currently lose_sum: 0.5193728804588318
time_elpased: 2.002
#iterations: 187
currently lose_sum: 0.5205939412117004
time_elpased: 1.826
#iterations: 188
currently lose_sum: 0.621040940284729
time_elpased: 1.872
#iterations: 189
currently lose_sum: 0.6607154011726379
time_elpased: 1.934
#iterations: 190
currently lose_sum: 0.4977516829967499
time_elpased: 1.86
#iterations: 191
currently lose_sum: 0.6065982580184937
time_elpased: 1.962
#iterations: 192
currently lose_sum: 0.649993360042572
time_elpased: 2.109
#iterations: 193
currently lose_sum: 0.5802538394927979
time_elpased: 2.025
#iterations: 194
currently lose_sum: 0.5838303565979004
time_elpased: 1.932
#iterations: 195
currently lose_sum: 0.5505654215812683
time_elpased: 1.887
#iterations: 196
currently lose_sum: 0.6576905846595764
time_elpased: 1.871
#iterations: 197
currently lose_sum: 0.5651764869689941
time_elpased: 1.929
#iterations: 198
currently lose_sum: 0.564913272857666
time_elpased: 2.205
#iterations: 199
currently lose_sum: 0.497961163520813
time_elpased: 1.89
start validation test
0.6884
0.660737812912
0.791633780584
0.720287253142
0.686976663204
14.735
#iterations: 200
currently lose_sum: 0.6593414545059204
time_elpased: 1.829
#iterations: 201
currently lose_sum: 0.5113975405693054
time_elpased: 1.824
#iterations: 202
currently lose_sum: 0.6258960366249084
time_elpased: 2.109
#iterations: 203
currently lose_sum: 0.5554053783416748
time_elpased: 1.885
#iterations: 204
currently lose_sum: 0.5543389916419983
time_elpased: 1.821
#iterations: 205
currently lose_sum: 0.5469430088996887
time_elpased: 1.946
#iterations: 206
currently lose_sum: 0.5308079719543457
time_elpased: 1.907
#iterations: 207
currently lose_sum: 0.5013311505317688
time_elpased: 2.13
#iterations: 208
currently lose_sum: 0.5443053841590881
time_elpased: 1.851
#iterations: 209
currently lose_sum: 0.5890436768531799
time_elpased: 1.86
#iterations: 210
currently lose_sum: 0.5708627104759216
time_elpased: 1.95
#iterations: 211
currently lose_sum: 0.5221913456916809
time_elpased: 1.865
#iterations: 212
currently lose_sum: 0.5662340521812439
time_elpased: 2.179
#iterations: 213
currently lose_sum: 0.5788630843162537
time_elpased: 1.852
#iterations: 214
currently lose_sum: 0.5687159895896912
time_elpased: 1.798
#iterations: 215
currently lose_sum: 0.5520955920219421
time_elpased: 1.816
#iterations: 216
currently lose_sum: 0.5507041811943054
time_elpased: 1.979
#iterations: 217
currently lose_sum: 0.5238133072853088
time_elpased: 1.966
#iterations: 218
currently lose_sum: 0.5813015699386597
time_elpased: 1.922
#iterations: 219
currently lose_sum: 0.6005831360816956
time_elpased: 2.179
start validation test
0.6468
0.602019128587
0.894238358327
0.719593521753
0.643388441126
16.231
#iterations: 220
currently lose_sum: 0.5112106800079346
time_elpased: 1.953
#iterations: 221
currently lose_sum: 0.6564579606056213
time_elpased: 1.967
#iterations: 222
currently lose_sum: 0.5975705981254578
time_elpased: 1.907
#iterations: 223
currently lose_sum: 0.5816372632980347
time_elpased: 1.881
#iterations: 224
currently lose_sum: 0.5611758828163147
time_elpased: 1.838
#iterations: 225
currently lose_sum: 0.49653375148773193
time_elpased: 1.836
#iterations: 226
currently lose_sum: 0.6066144108772278
time_elpased: 1.906
#iterations: 227
currently lose_sum: 0.5020499229431152
time_elpased: 1.855
#iterations: 228
currently lose_sum: 0.532113790512085
time_elpased: 1.981
#iterations: 229
currently lose_sum: 0.6592987775802612
time_elpased: 1.834
#iterations: 230
currently lose_sum: 0.4936408996582031
time_elpased: 1.815
#iterations: 231
currently lose_sum: 0.5165655612945557
time_elpased: 1.833
#iterations: 232
currently lose_sum: 0.6234863996505737
time_elpased: 1.793
#iterations: 233
currently lose_sum: 0.5150852799415588
time_elpased: 1.817
#iterations: 234
currently lose_sum: 0.5658750534057617
time_elpased: 1.814
#iterations: 235
currently lose_sum: 0.5405036211013794
time_elpased: 1.862
#iterations: 236
currently lose_sum: 0.5004695653915405
time_elpased: 1.952
#iterations: 237
currently lose_sum: 0.5352651476860046
time_elpased: 1.959
#iterations: 238
currently lose_sum: 0.6409721374511719
time_elpased: 1.841
#iterations: 239
currently lose_sum: 0.5317782759666443
time_elpased: 1.797
start validation test
0.5928
0.878419452888
0.228097868982
0.362155388471
0.597828334329
19.414
#iterations: 240
currently lose_sum: 0.5403939485549927
time_elpased: 1.891
#iterations: 241
currently lose_sum: 0.5599133968353271
time_elpased: 2.192
#iterations: 242
currently lose_sum: 0.5255120992660522
time_elpased: 1.876
#iterations: 243
currently lose_sum: 0.5347553491592407
time_elpased: 2.351
#iterations: 244
currently lose_sum: 0.5490546822547913
time_elpased: 1.839
#iterations: 245
currently lose_sum: 0.5991143584251404
time_elpased: 1.849
#iterations: 246
currently lose_sum: 0.5966673493385315
time_elpased: 1.845
#iterations: 247
currently lose_sum: 0.500474214553833
time_elpased: 2.003
#iterations: 248
currently lose_sum: 0.6135149598121643
time_elpased: 1.993
#iterations: 249
currently lose_sum: 0.5421546697616577
time_elpased: 2.127
#iterations: 250
currently lose_sum: 0.5417307615280151
time_elpased: 1.852
#iterations: 251
currently lose_sum: 0.5606459975242615
time_elpased: 1.903
#iterations: 252
currently lose_sum: 0.5413810610771179
time_elpased: 1.878
#iterations: 253
currently lose_sum: 0.6373663544654846
time_elpased: 1.841
#iterations: 254
currently lose_sum: 0.5079872012138367
time_elpased: 1.803
#iterations: 255
currently lose_sum: 0.5627532005310059
time_elpased: 1.811
#iterations: 256
currently lose_sum: 0.5158910155296326
time_elpased: 1.844
#iterations: 257
currently lose_sum: 0.5256433486938477
time_elpased: 1.861
#iterations: 258
currently lose_sum: 0.49436163902282715
time_elpased: 1.902
#iterations: 259
currently lose_sum: 0.5467730164527893
time_elpased: 1.844
start validation test
0.6952
0.706459525756
0.681925808998
0.693975903614
0.695383018043
14.340
#iterations: 260
currently lose_sum: 0.5619524121284485
time_elpased: 1.863
#iterations: 261
currently lose_sum: 0.561487078666687
time_elpased: 1.872
#iterations: 262
currently lose_sum: 0.5525486469268799
time_elpased: 1.869
#iterations: 263
currently lose_sum: 0.5977230668067932
time_elpased: 1.829
#iterations: 264
currently lose_sum: 0.49362289905548096
time_elpased: 2.009
#iterations: 265
currently lose_sum: 0.5851433873176575
time_elpased: 1.844
#iterations: 266
currently lose_sum: 0.6352982521057129
time_elpased: 1.952
#iterations: 267
currently lose_sum: 0.5944774746894836
time_elpased: 1.857
#iterations: 268
currently lose_sum: 0.49523764848709106
time_elpased: 1.825
#iterations: 269
currently lose_sum: 0.5048372149467468
time_elpased: 2.229
#iterations: 270
currently lose_sum: 0.6356360912322998
time_elpased: 2.381
#iterations: 271
currently lose_sum: 0.4742036759853363
time_elpased: 1.827
#iterations: 272
currently lose_sum: 0.567305862903595
time_elpased: 1.907
#iterations: 273
currently lose_sum: 0.5336989760398865
time_elpased: 1.923
#iterations: 274
currently lose_sum: 0.5239244103431702
time_elpased: 2.057
#iterations: 275
currently lose_sum: 0.5292314291000366
time_elpased: 1.829
#iterations: 276
currently lose_sum: 0.575522243976593
time_elpased: 1.981
#iterations: 277
currently lose_sum: 0.6156691312789917
time_elpased: 2.042
#iterations: 278
currently lose_sum: 0.5790852904319763
time_elpased: 1.832
#iterations: 279
currently lose_sum: 0.5076109170913696
time_elpased: 1.843
start validation test
0.6908
0.658536585366
0.809786898185
0.726371681416
0.689159466935
14.581
#iterations: 280
currently lose_sum: 0.6018339395523071
time_elpased: 2.459
#iterations: 281
currently lose_sum: 0.5294228196144104
time_elpased: 1.877
#iterations: 282
currently lose_sum: 0.5719848871231079
time_elpased: 1.881
#iterations: 283
currently lose_sum: 0.4388248920440674
time_elpased: 1.825
#iterations: 284
currently lose_sum: 0.5629404187202454
time_elpased: 2.205
#iterations: 285
currently lose_sum: 0.6143979430198669
time_elpased: 1.97
#iterations: 286
currently lose_sum: 0.5001896619796753
time_elpased: 1.828
#iterations: 287
currently lose_sum: 0.5080845355987549
time_elpased: 2.075
#iterations: 288
currently lose_sum: 0.49492838978767395
time_elpased: 1.823
#iterations: 289
currently lose_sum: 0.5270229578018188
time_elpased: 1.902
#iterations: 290
currently lose_sum: 0.505719780921936
time_elpased: 1.816
#iterations: 291
currently lose_sum: 0.5500099062919617
time_elpased: 2.089
#iterations: 292
currently lose_sum: 0.5408408045768738
time_elpased: 1.872
#iterations: 293
currently lose_sum: 0.46722421050071716
time_elpased: 2.03
#iterations: 294
currently lose_sum: 0.6505345106124878
time_elpased: 1.87
#iterations: 295
currently lose_sum: 0.5007277727127075
time_elpased: 1.866
#iterations: 296
currently lose_sum: 0.549578070640564
time_elpased: 1.817
#iterations: 297
currently lose_sum: 0.46392136812210083
time_elpased: 1.814
#iterations: 298
currently lose_sum: 0.5027326345443726
time_elpased: 1.823
#iterations: 299
currently lose_sum: 0.5812714099884033
time_elpased: 1.897
start validation test
0.7036
0.723639455782
0.671665351223
0.696684404421
0.704040299294
14.226
#iterations: 300
currently lose_sum: 0.5064995884895325
time_elpased: 1.835
#iterations: 301
currently lose_sum: 0.49651673436164856
time_elpased: 1.947
#iterations: 302
currently lose_sum: 0.5278539061546326
time_elpased: 2.548
#iterations: 303
currently lose_sum: 0.5983271598815918
time_elpased: 1.864
#iterations: 304
currently lose_sum: 0.5789772868156433
time_elpased: 1.975
#iterations: 305
currently lose_sum: 0.4800511300563812
time_elpased: 1.897
#iterations: 306
currently lose_sum: 0.46001487970352173
time_elpased: 1.895
#iterations: 307
currently lose_sum: 0.52616286277771
time_elpased: 1.831
#iterations: 308
currently lose_sum: 0.5358749032020569
time_elpased: 1.944
#iterations: 309
currently lose_sum: 0.560350239276886
time_elpased: 2.041
#iterations: 310
currently lose_sum: 0.5404327511787415
time_elpased: 1.809
#iterations: 311
currently lose_sum: 0.5230620503425598
time_elpased: 1.905
#iterations: 312
currently lose_sum: 0.4813131093978882
time_elpased: 1.896
#iterations: 313
currently lose_sum: 0.5462903380393982
time_elpased: 2.116
#iterations: 314
currently lose_sum: 0.5823820233345032
time_elpased: 1.918
#iterations: 315
currently lose_sum: 0.5161215662956238
time_elpased: 1.852
#iterations: 316
currently lose_sum: 0.6101326942443848
time_elpased: 2.424
#iterations: 317
currently lose_sum: 0.47380417585372925
time_elpased: 1.906
#iterations: 318
currently lose_sum: 0.4520774781703949
time_elpased: 2.048
#iterations: 319
currently lose_sum: 0.49744415283203125
time_elpased: 1.827
start validation test
0.6764
0.789873417722
0.492501973165
0.606708799222
0.678935495909
14.990
#iterations: 320
currently lose_sum: 0.5884552001953125
time_elpased: 1.948
#iterations: 321
currently lose_sum: 0.5581521391868591
time_elpased: 1.848
#iterations: 322
currently lose_sum: 0.548758864402771
time_elpased: 1.832
#iterations: 323
currently lose_sum: 0.4871143400669098
time_elpased: 1.978
#iterations: 324
currently lose_sum: 0.5897833108901978
time_elpased: 1.858
#iterations: 325
currently lose_sum: 0.4671225845813751
time_elpased: 1.843
#iterations: 326
currently lose_sum: 0.5433211326599121
time_elpased: 1.84
#iterations: 327
currently lose_sum: 0.49705588817596436
time_elpased: 1.871
#iterations: 328
currently lose_sum: 0.5111473202705383
time_elpased: 1.978
#iterations: 329
currently lose_sum: 0.548410177230835
time_elpased: 1.823
#iterations: 330
currently lose_sum: 0.5574914813041687
time_elpased: 1.866
#iterations: 331
currently lose_sum: 0.5304160118103027
time_elpased: 2.171
#iterations: 332
currently lose_sum: 0.4278734624385834
time_elpased: 1.858
#iterations: 333
currently lose_sum: 0.5750879645347595
time_elpased: 1.895
#iterations: 334
currently lose_sum: 0.4317963421344757
time_elpased: 1.906
#iterations: 335
currently lose_sum: 0.655989408493042
time_elpased: 1.839
#iterations: 336
currently lose_sum: 0.6013010144233704
time_elpased: 1.807
#iterations: 337
currently lose_sum: 0.6364030241966248
time_elpased: 2.676
#iterations: 338
currently lose_sum: 0.485492467880249
time_elpased: 2.116
#iterations: 339
currently lose_sum: 0.587410569190979
time_elpased: 2.222
start validation test
0.6976
0.774436090226
0.569060773481
0.656050955414
0.699372235889
14.370
#iterations: 340
currently lose_sum: 0.5100633502006531
time_elpased: 1.914
#iterations: 341
currently lose_sum: 0.5261170268058777
time_elpased: 1.845
#iterations: 342
currently lose_sum: 0.5453053116798401
time_elpased: 1.841
#iterations: 343
currently lose_sum: 0.49052268266677856
time_elpased: 1.932
#iterations: 344
currently lose_sum: 0.48156747221946716
time_elpased: 1.872
#iterations: 345
currently lose_sum: 0.4773317575454712
time_elpased: 1.87
#iterations: 346
currently lose_sum: 0.5578086972236633
time_elpased: 1.845
#iterations: 347
currently lose_sum: 0.46480271220207214
time_elpased: 1.84
#iterations: 348
currently lose_sum: 0.532177746295929
time_elpased: 1.932
#iterations: 349
currently lose_sum: 0.549831211566925
time_elpased: 1.817
#iterations: 350
currently lose_sum: 0.4987231194972992
time_elpased: 1.856
#iterations: 351
currently lose_sum: 0.5531541705131531
time_elpased: 1.853
#iterations: 352
currently lose_sum: 0.6160843372344971
time_elpased: 2.152
#iterations: 353
currently lose_sum: 0.4837770164012909
time_elpased: 1.835
#iterations: 354
currently lose_sum: 0.45319756865501404
time_elpased: 1.862
#iterations: 355
currently lose_sum: 0.43607354164123535
time_elpased: 1.886
#iterations: 356
currently lose_sum: 0.5699191093444824
time_elpased: 1.882
#iterations: 357
currently lose_sum: 0.5403037071228027
time_elpased: 1.842
#iterations: 358
currently lose_sum: 0.5361629128456116
time_elpased: 1.932
#iterations: 359
currently lose_sum: 0.5546467900276184
time_elpased: 1.854
start validation test
0.6792
0.636684303351
0.854775059195
0.729784366577
0.676779257091
15.289
#iterations: 360
currently lose_sum: 0.4934310019016266
time_elpased: 1.878
#iterations: 361
currently lose_sum: 0.5390770435333252
time_elpased: 1.933
#iterations: 362
currently lose_sum: 0.40703797340393066
time_elpased: 1.97
#iterations: 363
currently lose_sum: 0.5126237869262695
time_elpased: 1.877
#iterations: 364
currently lose_sum: 0.5009429454803467
time_elpased: 1.864
#iterations: 365
currently lose_sum: 0.44727274775505066
time_elpased: 1.807
#iterations: 366
currently lose_sum: 0.4614228308200836
time_elpased: 1.998
#iterations: 367
currently lose_sum: 0.5921556353569031
time_elpased: 1.818
#iterations: 368
currently lose_sum: 0.6249266862869263
time_elpased: 1.787
#iterations: 369
currently lose_sum: 0.4906083941459656
time_elpased: 1.857
#iterations: 370
currently lose_sum: 0.6833990216255188
time_elpased: 1.864
#iterations: 371
currently lose_sum: 0.6174818277359009
time_elpased: 1.948
#iterations: 372
currently lose_sum: 0.5549805164337158
time_elpased: 1.852
#iterations: 373
currently lose_sum: 0.4466438591480255
time_elpased: 1.878
#iterations: 374
currently lose_sum: 0.5520862340927124
time_elpased: 1.806
#iterations: 375
currently lose_sum: 0.5185642242431641
time_elpased: 1.81
#iterations: 376
currently lose_sum: 0.5011882185935974
time_elpased: 1.808
#iterations: 377
currently lose_sum: 0.44111132621765137
time_elpased: 1.871
#iterations: 378
currently lose_sum: 0.5314542651176453
time_elpased: 1.981
#iterations: 379
currently lose_sum: 0.4076346457004547
time_elpased: 1.893
start validation test
0.698
0.664524421594
0.816101026046
0.732554020546
0.696371680906
14.387
#iterations: 380
currently lose_sum: 0.6140875816345215
time_elpased: 1.973
#iterations: 381
currently lose_sum: 0.557098925113678
time_elpased: 1.922
#iterations: 382
currently lose_sum: 0.5867420434951782
time_elpased: 1.878
#iterations: 383
currently lose_sum: 0.49688422679901123
time_elpased: 1.904
#iterations: 384
currently lose_sum: 0.6128977537155151
time_elpased: 1.948
#iterations: 385
currently lose_sum: 0.4559207856655121
time_elpased: 1.84
#iterations: 386
currently lose_sum: 0.5150253772735596
time_elpased: 1.924
#iterations: 387
currently lose_sum: 0.5186638832092285
time_elpased: 1.883
#iterations: 388
currently lose_sum: 0.4688064157962799
time_elpased: 1.983
#iterations: 389
currently lose_sum: 0.47974464297294617
time_elpased: 1.842
#iterations: 390
currently lose_sum: 0.5013079047203064
time_elpased: 2.035
#iterations: 391
currently lose_sum: 0.48253971338272095
time_elpased: 1.867
#iterations: 392
currently lose_sum: 0.5232597589492798
time_elpased: 2.025
#iterations: 393
currently lose_sum: 0.6226717233657837
time_elpased: 1.81
#iterations: 394
currently lose_sum: 0.5806871652603149
time_elpased: 1.825
#iterations: 395
currently lose_sum: 0.4692448675632477
time_elpased: 1.818
#iterations: 396
currently lose_sum: 0.48126640915870667
time_elpased: 1.883
#iterations: 397
currently lose_sum: 0.4725465476512909
time_elpased: 2.003
#iterations: 398
currently lose_sum: 0.5673549771308899
time_elpased: 1.954
#iterations: 399
currently lose_sum: 0.5966693758964539
time_elpased: 1.829
start validation test
0.7016
0.672859986729
0.800315706393
0.731074260995
0.700238956197
14.368
#iterations: 400
currently lose_sum: 0.49207085371017456
time_elpased: 1.9
#iterations: 401
currently lose_sum: 0.45074522495269775
time_elpased: 1.907
#iterations: 402
currently lose_sum: 0.4312410056591034
time_elpased: 1.932
#iterations: 403
currently lose_sum: 0.44844502210617065
time_elpased: 1.889
#iterations: 404
currently lose_sum: 0.4766497015953064
time_elpased: 1.979
#iterations: 405
currently lose_sum: 0.5089223980903625
time_elpased: 1.852
#iterations: 406
currently lose_sum: 0.41391852498054504
time_elpased: 2.055
#iterations: 407
currently lose_sum: 0.4906417429447174
time_elpased: 1.844
#iterations: 408
currently lose_sum: 0.48268967866897583
time_elpased: 1.891
#iterations: 409
currently lose_sum: 0.4632357060909271
time_elpased: 1.893
#iterations: 410
currently lose_sum: 0.5197145938873291
time_elpased: 1.881
#iterations: 411
currently lose_sum: 0.5442928075790405
time_elpased: 2.067
#iterations: 412
currently lose_sum: 0.5199474096298218
time_elpased: 1.831
#iterations: 413
currently lose_sum: 0.4933328330516815
time_elpased: 1.818
#iterations: 414
currently lose_sum: 0.6101223230361938
time_elpased: 1.937
#iterations: 415
currently lose_sum: 0.5580517053604126
time_elpased: 1.857
#iterations: 416
currently lose_sum: 0.584043562412262
time_elpased: 2.038
#iterations: 417
currently lose_sum: 0.5402253866195679
time_elpased: 1.978
#iterations: 418
currently lose_sum: 0.4583378732204437
time_elpased: 1.852
#iterations: 419
currently lose_sum: 0.5351961851119995
time_elpased: 1.917
start validation test
0.6228
0.858407079646
0.306235201263
0.451425247237
0.627164640372
17.830
#iterations: 420
currently lose_sum: 0.6237655878067017
time_elpased: 1.844
#iterations: 421
currently lose_sum: 0.4950028359889984
time_elpased: 1.839
#iterations: 422
currently lose_sum: 0.5253721475601196
time_elpased: 1.969
#iterations: 423
currently lose_sum: 0.5053873658180237
time_elpased: 1.899
#iterations: 424
currently lose_sum: 0.6135063767433167
time_elpased: 1.865
#iterations: 425
currently lose_sum: 0.4917266368865967
time_elpased: 2.022
#iterations: 426
currently lose_sum: 0.5328519940376282
time_elpased: 1.859
#iterations: 427
currently lose_sum: 0.5725358724594116
time_elpased: 1.864
#iterations: 428
currently lose_sum: 0.5055112242698669
time_elpased: 1.845
#iterations: 429
currently lose_sum: 0.5463429093360901
time_elpased: 1.898
#iterations: 430
currently lose_sum: 0.5146586894989014
time_elpased: 1.996
#iterations: 431
currently lose_sum: 0.4890815019607544
time_elpased: 2.37
#iterations: 432
currently lose_sum: 0.4565555453300476
time_elpased: 1.858
#iterations: 433
currently lose_sum: 0.4717859923839569
time_elpased: 1.876
#iterations: 434
currently lose_sum: 0.5002833008766174
time_elpased: 1.992
#iterations: 435
currently lose_sum: 0.44857484102249146
time_elpased: 1.911
#iterations: 436
currently lose_sum: 0.4902842342853546
time_elpased: 1.9
#iterations: 437
currently lose_sum: 0.4675733149051666
time_elpased: 1.816
#iterations: 438
currently lose_sum: 0.4510515332221985
time_elpased: 1.842
#iterations: 439
currently lose_sum: 0.48096251487731934
time_elpased: 2.398
start validation test
0.7164
0.755027422303
0.651933701657
0.69970351546
0.717288829742
14.173
#iterations: 440
currently lose_sum: 0.536207914352417
time_elpased: 4.928
#iterations: 441
currently lose_sum: 0.49396324157714844
time_elpased: 2.554
#iterations: 442
currently lose_sum: 0.4584215581417084
time_elpased: 3.612
#iterations: 443
currently lose_sum: 0.5628974437713623
time_elpased: 1.949
#iterations: 444
currently lose_sum: 0.561357319355011
time_elpased: 1.845
#iterations: 445
currently lose_sum: 0.47899413108825684
time_elpased: 1.85
#iterations: 446
currently lose_sum: 0.4402235746383667
time_elpased: 1.958
#iterations: 447
currently lose_sum: 0.47911128401756287
time_elpased: 3.309
#iterations: 448
currently lose_sum: 0.5488677024841309
time_elpased: 1.909
#iterations: 449
currently lose_sum: 0.4956861138343811
time_elpased: 1.866
#iterations: 450
currently lose_sum: 0.5145403742790222
time_elpased: 1.918
#iterations: 451
currently lose_sum: 0.518787145614624
time_elpased: 2.012
#iterations: 452
currently lose_sum: 0.4812425673007965
time_elpased: 2.055
#iterations: 453
currently lose_sum: 0.4633983373641968
time_elpased: 2.401
#iterations: 454
currently lose_sum: 0.5210490822792053
time_elpased: 3.023
#iterations: 455
currently lose_sum: 0.47642505168914795
time_elpased: 2.475
#iterations: 456
currently lose_sum: 0.5482668876647949
time_elpased: 1.871
#iterations: 457
currently lose_sum: 0.5519805550575256
time_elpased: 1.898
#iterations: 458
currently lose_sum: 0.47746723890304565
time_elpased: 2.022
#iterations: 459
currently lose_sum: 0.49115416407585144
time_elpased: 2.099
start validation test
0.7072
0.783068783069
0.584056827151
0.669077757685
0.708897837744
14.338
#iterations: 460
currently lose_sum: 0.5235884785652161
time_elpased: 2.056
#iterations: 461
currently lose_sum: 0.4181899130344391
time_elpased: 1.888
#iterations: 462
currently lose_sum: 0.5713167786598206
time_elpased: 2.603
#iterations: 463
currently lose_sum: 0.48268330097198486
time_elpased: 2.66
#iterations: 464
currently lose_sum: 0.4237091839313507
time_elpased: 2.473
#iterations: 465
currently lose_sum: 0.545545756816864
time_elpased: 2.229
#iterations: 466
currently lose_sum: 0.49380820989608765
time_elpased: 2.096
#iterations: 467
currently lose_sum: 0.504731297492981
time_elpased: 1.925
#iterations: 468
currently lose_sum: 0.4598226547241211
time_elpased: 1.891
#iterations: 469
currently lose_sum: 0.5348081588745117
time_elpased: 1.878
#iterations: 470
currently lose_sum: 0.4479961693286896
time_elpased: 1.969
#iterations: 471
currently lose_sum: 0.5081906318664551
time_elpased: 1.857
#iterations: 472
currently lose_sum: 0.5154863595962524
time_elpased: 1.829
#iterations: 473
currently lose_sum: 0.35209259390830994
time_elpased: 2.063
#iterations: 474
currently lose_sum: 0.4451032280921936
time_elpased: 1.952
#iterations: 475
currently lose_sum: 0.44900599122047424
time_elpased: 1.807
#iterations: 476
currently lose_sum: 0.4365748167037964
time_elpased: 1.853
#iterations: 477
currently lose_sum: 0.5399478077888489
time_elpased: 1.938
#iterations: 478
currently lose_sum: 0.495320200920105
time_elpased: 1.895
#iterations: 479
currently lose_sum: 0.4795984625816345
time_elpased: 1.951
start validation test
0.7168
0.767976989453
0.632202052092
0.693506493506
0.717966395064
14.076
#iterations: 480
currently lose_sum: 0.6647613048553467
time_elpased: 2.013
#iterations: 481
currently lose_sum: 0.5199266672134399
time_elpased: 2.001
#iterations: 482
currently lose_sum: 0.4182499349117279
time_elpased: 1.876
#iterations: 483
currently lose_sum: 0.44037681818008423
time_elpased: 1.861
#iterations: 484
currently lose_sum: 0.47955426573753357
time_elpased: 1.835
#iterations: 485
currently lose_sum: 0.5552833676338196
time_elpased: 1.955
#iterations: 486
currently lose_sum: 0.48264458775520325
time_elpased: 2.124
#iterations: 487
currently lose_sum: 0.4758724272251129
time_elpased: 1.926
#iterations: 488
currently lose_sum: 0.48491737246513367
time_elpased: 1.879
#iterations: 489
currently lose_sum: 0.49684351682662964
time_elpased: 1.854
#iterations: 490
currently lose_sum: 0.44955816864967346
time_elpased: 1.897
#iterations: 491
currently lose_sum: 0.44707566499710083
time_elpased: 1.863
#iterations: 492
currently lose_sum: 0.5770666003227234
time_elpased: 1.895
#iterations: 493
currently lose_sum: 0.4759656488895416
time_elpased: 1.846
#iterations: 494
currently lose_sum: 0.5201107263565063
time_elpased: 1.839
#iterations: 495
currently lose_sum: 0.4964901804924011
time_elpased: 1.897
#iterations: 496
currently lose_sum: 0.4161085784435272
time_elpased: 2.004
#iterations: 497
currently lose_sum: 0.5531741380691528
time_elpased: 2.024
#iterations: 498
currently lose_sum: 0.5195386409759521
time_elpased: 1.972
#iterations: 499
currently lose_sum: 0.34958896040916443
time_elpased: 2.138
start validation test
0.6888
0.655435473617
0.813733228098
0.726056338028
0.687077481851
15.112
#iterations: 500
currently lose_sum: 0.4935835301876068
time_elpased: 2.024
#iterations: 501
currently lose_sum: 0.536382257938385
time_elpased: 1.787
#iterations: 502
currently lose_sum: 0.5190415978431702
time_elpased: 1.893
#iterations: 503
currently lose_sum: 0.44424834847450256
time_elpased: 1.904
#iterations: 504
currently lose_sum: 0.4440591335296631
time_elpased: 1.849
#iterations: 505
currently lose_sum: 0.5488776564598083
time_elpased: 2.301
#iterations: 506
currently lose_sum: 0.4740784168243408
time_elpased: 2.162
#iterations: 507
currently lose_sum: 0.5703012347221375
time_elpased: 1.917
#iterations: 508
currently lose_sum: 0.47702136635780334
time_elpased: 1.976
#iterations: 509
currently lose_sum: 0.553464412689209
time_elpased: 1.837
#iterations: 510
currently lose_sum: 0.45775142312049866
time_elpased: 1.953
#iterations: 511
currently lose_sum: 0.5570801496505737
time_elpased: 2.479
#iterations: 512
currently lose_sum: 0.45438238978385925
time_elpased: 2.328
#iterations: 513
currently lose_sum: 0.5989610552787781
time_elpased: 2.01
#iterations: 514
currently lose_sum: 0.56009840965271
time_elpased: 1.899
#iterations: 515
currently lose_sum: 0.45256462693214417
time_elpased: 1.934
#iterations: 516
currently lose_sum: 0.5259640216827393
time_elpased: 1.975
#iterations: 517
currently lose_sum: 0.461753249168396
time_elpased: 2.094
#iterations: 518
currently lose_sum: 0.5341925024986267
time_elpased: 2.649
#iterations: 519
currently lose_sum: 0.4930930435657501
time_elpased: 1.879
start validation test
0.7128
0.790476190476
0.589581689029
0.675406871609
0.714498873712
14.198
#iterations: 520
currently lose_sum: 0.48471182584762573
time_elpased: 1.959
#iterations: 521
currently lose_sum: 0.6452815532684326
time_elpased: 1.903
#iterations: 522
currently lose_sum: 0.5077714323997498
time_elpased: 2.154
#iterations: 523
currently lose_sum: 0.48595118522644043
time_elpased: 1.838
#iterations: 524
currently lose_sum: 0.5116679668426514
time_elpased: 1.945
#iterations: 525
currently lose_sum: 0.4775888919830322
time_elpased: 1.844
#iterations: 526
currently lose_sum: 0.4835101366043091
time_elpased: 1.851
#iterations: 527
currently lose_sum: 0.5809919834136963
time_elpased: 1.793
#iterations: 528
currently lose_sum: 0.5042181611061096
time_elpased: 1.966
#iterations: 529
currently lose_sum: 0.500762403011322
time_elpased: 1.951
#iterations: 530
currently lose_sum: 0.5992040634155273
time_elpased: 1.973
#iterations: 531
currently lose_sum: 0.5123299360275269
time_elpased: 1.933
#iterations: 532
currently lose_sum: 0.5292709469795227
time_elpased: 2.099
#iterations: 533
currently lose_sum: 0.40997833013534546
time_elpased: 2.179
#iterations: 534
currently lose_sum: 0.3475687801837921
time_elpased: 1.855
#iterations: 535
currently lose_sum: 0.4853487014770508
time_elpased: 1.947
#iterations: 536
currently lose_sum: 0.5512723922729492
time_elpased: 1.913
#iterations: 537
currently lose_sum: 0.6203946471214294
time_elpased: 1.961
#iterations: 538
currently lose_sum: 0.6063235998153687
time_elpased: 1.895
#iterations: 539
currently lose_sum: 0.4511573910713196
time_elpased: 1.864
start validation test
0.7192
0.725099601594
0.718232044199
0.721649484536
0.7192133457
13.628
#iterations: 540
currently lose_sum: 0.5077133774757385
time_elpased: 1.831
#iterations: 541
currently lose_sum: 0.4495089650154114
time_elpased: 1.977
#iterations: 542
currently lose_sum: 0.4603111147880554
time_elpased: 1.842
#iterations: 543
currently lose_sum: 0.4951009750366211
time_elpased: 2.015
#iterations: 544
currently lose_sum: 0.5155043005943298
time_elpased: 1.892
#iterations: 545
currently lose_sum: 0.4240497648715973
time_elpased: 1.926
#iterations: 546
currently lose_sum: 0.47794196009635925
time_elpased: 1.841
#iterations: 547
currently lose_sum: 0.640105664730072
time_elpased: 1.857
#iterations: 548
currently lose_sum: 0.49124035239219666
time_elpased: 1.94
#iterations: 549
currently lose_sum: 0.5088192820549011
time_elpased: 1.83
#iterations: 550
currently lose_sum: 0.5220364928245544
time_elpased: 1.871
#iterations: 551
currently lose_sum: 0.46477124094963074
time_elpased: 1.857
#iterations: 552
currently lose_sum: 0.4559800624847412
time_elpased: 1.947
#iterations: 553
currently lose_sum: 0.40155425667762756
time_elpased: 1.882
#iterations: 554
currently lose_sum: 0.513679563999176
time_elpased: 1.826
#iterations: 555
currently lose_sum: 0.5341247916221619
time_elpased: 1.82
#iterations: 556
currently lose_sum: 0.5973184108734131
time_elpased: 2.286
#iterations: 557
currently lose_sum: 0.5317894220352173
time_elpased: 2.113
#iterations: 558
currently lose_sum: 0.4598601460456848
time_elpased: 2.036
#iterations: 559
currently lose_sum: 0.382620245218277
time_elpased: 1.927
start validation test
0.6964
0.814356435644
0.519337016575
0.63421686747
0.698841257679
14.864
#iterations: 560
currently lose_sum: 0.42822128534317017
time_elpased: 2.042
#iterations: 561
currently lose_sum: 0.4538860023021698
time_elpased: 1.973
#iterations: 562
currently lose_sum: 0.4417247474193573
time_elpased: 2.078
#iterations: 563
currently lose_sum: 0.47501060366630554
time_elpased: 1.949
#iterations: 564
currently lose_sum: 0.5163154602050781
time_elpased: 1.816
#iterations: 565
currently lose_sum: 0.4347136616706848
time_elpased: 1.863
#iterations: 566
currently lose_sum: 0.48714911937713623
time_elpased: 1.81
#iterations: 567
currently lose_sum: 0.45801177620887756
time_elpased: 1.847
#iterations: 568
currently lose_sum: 0.5113015174865723
time_elpased: 1.919
#iterations: 569
currently lose_sum: 0.43022292852401733
time_elpased: 1.985
#iterations: 570
currently lose_sum: 0.4325900971889496
time_elpased: 2.307
#iterations: 571
currently lose_sum: 0.5082805156707764
time_elpased: 2.153
#iterations: 572
currently lose_sum: 0.4223126471042633
time_elpased: 1.818
#iterations: 573
currently lose_sum: 0.5557335019111633
time_elpased: 1.935
#iterations: 574
currently lose_sum: 0.4227018654346466
time_elpased: 1.998
#iterations: 575
currently lose_sum: 0.547339677810669
time_elpased: 1.89
#iterations: 576
currently lose_sum: 0.40507176518440247
time_elpased: 1.894
#iterations: 577
currently lose_sum: 0.561848521232605
time_elpased: 1.851
#iterations: 578
currently lose_sum: 0.4081732928752899
time_elpased: 2.217
#iterations: 579
currently lose_sum: 0.46944552659988403
time_elpased: 1.9
start validation test
0.7228
0.797717842324
0.606945540647
0.689376961004
0.724397344533
14.145
#iterations: 580
currently lose_sum: 0.5596712231636047
time_elpased: 1.85
#iterations: 581
currently lose_sum: 0.5227909684181213
time_elpased: 1.931
#iterations: 582
currently lose_sum: 0.44332846999168396
time_elpased: 2.129
#iterations: 583
currently lose_sum: 0.4793035089969635
time_elpased: 1.838
#iterations: 584
currently lose_sum: 0.4374750256538391
time_elpased: 1.874
#iterations: 585
currently lose_sum: 0.4739159047603607
time_elpased: 1.862
#iterations: 586
currently lose_sum: 0.49982452392578125
time_elpased: 1.991
#iterations: 587
currently lose_sum: 0.42249175906181335
time_elpased: 2.033
#iterations: 588
currently lose_sum: 0.43410980701446533
time_elpased: 1.907
#iterations: 589
currently lose_sum: 0.4904802739620209
time_elpased: 1.921
#iterations: 590
currently lose_sum: 0.4651235342025757
time_elpased: 1.785
#iterations: 591
currently lose_sum: 0.5592928528785706
time_elpased: 1.915
#iterations: 592
currently lose_sum: 0.5160839557647705
time_elpased: 2.05
#iterations: 593
currently lose_sum: 0.44483834505081177
time_elpased: 1.841
#iterations: 594
currently lose_sum: 0.5812303423881531
time_elpased: 2.214
#iterations: 595
currently lose_sum: 0.4756154716014862
time_elpased: 1.819
#iterations: 596
currently lose_sum: 0.3999944031238556
time_elpased: 2.0
#iterations: 597
currently lose_sum: 0.35966193675994873
time_elpased: 1.879
#iterations: 598
currently lose_sum: 0.421345978975296
time_elpased: 1.888
#iterations: 599
currently lose_sum: 0.436420202255249
time_elpased: 1.914
start validation test
0.7168
0.746690203001
0.66771902131
0.705
0.717476704491
13.871
acc: 0.729
pre: 0.740
rec: 0.717
F1: 0.728
auc: 0.729
