start to construct computing graph
graph construct over
3803
epochs start
#iterations: 0
currently lose_sum: 0.696560800075531
time_elpased: 4.747
#iterations: 1
currently lose_sum: 0.6897386312484741
time_elpased: 4.417
#iterations: 2
currently lose_sum: 0.6885316371917725
time_elpased: 4.23
#iterations: 3
currently lose_sum: 0.6942012310028076
time_elpased: 4.211
#iterations: 4
currently lose_sum: 0.6982138156890869
time_elpased: 4.263
#iterations: 5
currently lose_sum: 0.6903173923492432
time_elpased: 4.299
#iterations: 6
currently lose_sum: 0.6907620429992676
time_elpased: 4.303
#iterations: 7
currently lose_sum: 0.691556990146637
time_elpased: 4.843
#iterations: 8
currently lose_sum: 0.705913245677948
time_elpased: 4.192
#iterations: 9
currently lose_sum: 0.6886517405509949
time_elpased: 4.356
#iterations: 10
currently lose_sum: 0.6958888173103333
time_elpased: 4.382
#iterations: 11
currently lose_sum: 0.6990626454353333
time_elpased: 4.271
#iterations: 12
currently lose_sum: 0.6818533539772034
time_elpased: 4.454
#iterations: 13
currently lose_sum: 0.6805415153503418
time_elpased: 4.242
#iterations: 14
currently lose_sum: 0.6922563314437866
time_elpased: 4.189
#iterations: 15
currently lose_sum: 0.6935939192771912
time_elpased: 4.242
#iterations: 16
currently lose_sum: 0.6831411123275757
time_elpased: 4.286
#iterations: 17
currently lose_sum: 0.6902482509613037
time_elpased: 4.691
#iterations: 18
currently lose_sum: 0.690747082233429
time_elpased: 4.567
#iterations: 19
currently lose_sum: 0.6825616955757141
time_elpased: 5.402
start validation test
0.5276
0.609693877551
0.18863456985
0.288125376733
0.532273489305
17.293
#iterations: 20
currently lose_sum: 0.686520516872406
time_elpased: 4.15
#iterations: 21
currently lose_sum: 0.6986411809921265
time_elpased: 4.255
#iterations: 22
currently lose_sum: 0.6862388849258423
time_elpased: 4.265
#iterations: 23
currently lose_sum: 0.6830387115478516
time_elpased: 4.229
#iterations: 24
currently lose_sum: 0.6857395768165588
time_elpased: 4.55
#iterations: 25
currently lose_sum: 0.6759870052337646
time_elpased: 4.828
#iterations: 26
currently lose_sum: 0.6806286573410034
time_elpased: 4.313
#iterations: 27
currently lose_sum: 0.691061794757843
time_elpased: 4.903
#iterations: 28
currently lose_sum: 0.6859341263771057
time_elpased: 4.27
#iterations: 29
currently lose_sum: 0.7005636096000671
time_elpased: 4.488
#iterations: 30
currently lose_sum: 0.6758952140808105
time_elpased: 4.226
#iterations: 31
currently lose_sum: 0.6621282696723938
time_elpased: 4.299
#iterations: 32
currently lose_sum: 0.698342502117157
time_elpased: 4.643
#iterations: 33
currently lose_sum: 0.6645181179046631
time_elpased: 4.407
#iterations: 34
currently lose_sum: 0.6780134439468384
time_elpased: 4.348
#iterations: 35
currently lose_sum: 0.6959991455078125
time_elpased: 4.698
#iterations: 36
currently lose_sum: 0.6605873703956604
time_elpased: 4.142
#iterations: 37
currently lose_sum: 0.6823754906654358
time_elpased: 4.78
#iterations: 38
currently lose_sum: 0.6703639030456543
time_elpased: 4.213
#iterations: 39
currently lose_sum: 0.6804618835449219
time_elpased: 4.286
start validation test
0.5736
0.61978545888
0.410418310971
0.493827160494
0.575849869192
17.096
#iterations: 40
currently lose_sum: 0.6600778698921204
time_elpased: 4.186
#iterations: 41
currently lose_sum: 0.6836563348770142
time_elpased: 4.956
#iterations: 42
currently lose_sum: 0.6511453986167908
time_elpased: 4.057
#iterations: 43
currently lose_sum: 0.6799487471580505
time_elpased: 4.306
#iterations: 44
currently lose_sum: 0.6735057234764099
time_elpased: 5.304
#iterations: 45
currently lose_sum: 0.7156293988227844
time_elpased: 4.19
#iterations: 46
currently lose_sum: 0.6707661151885986
time_elpased: 4.439
#iterations: 47
currently lose_sum: 0.6565439105033875
time_elpased: 4.257
#iterations: 48
currently lose_sum: 0.6821837425231934
time_elpased: 4.438
#iterations: 49
currently lose_sum: 0.6765403747558594
time_elpased: 4.069
#iterations: 50
currently lose_sum: 0.673939049243927
time_elpased: 4.319
#iterations: 51
currently lose_sum: 0.6580364108085632
time_elpased: 4.147
#iterations: 52
currently lose_sum: 0.6469479203224182
time_elpased: 4.358
#iterations: 53
currently lose_sum: 0.6643351912498474
time_elpased: 4.113
#iterations: 54
currently lose_sum: 0.6658434867858887
time_elpased: 4.372
#iterations: 55
currently lose_sum: 0.6569070219993591
time_elpased: 4.314
#iterations: 56
currently lose_sum: 0.626923143863678
time_elpased: 4.328
#iterations: 57
currently lose_sum: 0.6744104623794556
time_elpased: 4.311
#iterations: 58
currently lose_sum: 0.6899991631507874
time_elpased: 5.355
#iterations: 59
currently lose_sum: 0.669790506362915
time_elpased: 4.316
start validation test
0.5992
0.609233305853
0.583267561168
0.595967741935
0.599419668662
16.400
#iterations: 60
currently lose_sum: 0.6415455341339111
time_elpased: 4.259
#iterations: 61
currently lose_sum: 0.6831033229827881
time_elpased: 4.413
#iterations: 62
currently lose_sum: 0.6427388191223145
time_elpased: 4.562
#iterations: 63
currently lose_sum: 0.6621696949005127
time_elpased: 4.446
#iterations: 64
currently lose_sum: 0.6512040495872498
time_elpased: 4.376
#iterations: 65
currently lose_sum: 0.6259492635726929
time_elpased: 4.413
#iterations: 66
currently lose_sum: 0.6621235609054565
time_elpased: 4.347
#iterations: 67
currently lose_sum: 0.6500681042671204
time_elpased: 4.252
#iterations: 68
currently lose_sum: 0.7360855340957642
time_elpased: 4.412
#iterations: 69
currently lose_sum: 0.6603339314460754
time_elpased: 4.392
#iterations: 70
currently lose_sum: 0.6614616513252258
time_elpased: 4.316
#iterations: 71
currently lose_sum: 0.6629219055175781
time_elpased: 4.27
#iterations: 72
currently lose_sum: 0.6480799913406372
time_elpased: 4.196
#iterations: 73
currently lose_sum: 0.6551733613014221
time_elpased: 4.256
#iterations: 74
currently lose_sum: 0.6186084151268005
time_elpased: 4.471
#iterations: 75
currently lose_sum: 0.6038295030593872
time_elpased: 4.73
#iterations: 76
currently lose_sum: 0.6620163917541504
time_elpased: 4.792
#iterations: 77
currently lose_sum: 0.7385207414627075
time_elpased: 4.308
#iterations: 78
currently lose_sum: 0.6462194919586182
time_elpased: 4.233
#iterations: 79
currently lose_sum: 0.6314613819122314
time_elpased: 4.825
start validation test
0.606
0.600427350427
0.665351223362
0.631224260577
0.605181694406
16.350
#iterations: 80
currently lose_sum: 0.6561339497566223
time_elpased: 4.206
#iterations: 81
currently lose_sum: 0.6551141142845154
time_elpased: 4.485
#iterations: 82
currently lose_sum: 0.6681831479072571
time_elpased: 4.43
#iterations: 83
currently lose_sum: 0.6400792598724365
time_elpased: 4.684
#iterations: 84
currently lose_sum: 0.6381264925003052
time_elpased: 4.562
#iterations: 85
currently lose_sum: 0.6188782453536987
time_elpased: 4.2
#iterations: 86
currently lose_sum: 0.7078644037246704
time_elpased: 4.743
#iterations: 87
currently lose_sum: 0.6399708390235901
time_elpased: 4.3
#iterations: 88
currently lose_sum: 0.643252432346344
time_elpased: 4.9
#iterations: 89
currently lose_sum: 0.6205209493637085
time_elpased: 4.494
#iterations: 90
currently lose_sum: 0.6507053375244141
time_elpased: 5.659
#iterations: 91
currently lose_sum: 0.6661174297332764
time_elpased: 4.321
#iterations: 92
currently lose_sum: 0.5998901724815369
time_elpased: 4.638
#iterations: 93
currently lose_sum: 0.659503161907196
time_elpased: 4.2
#iterations: 94
currently lose_sum: 0.6178460717201233
time_elpased: 4.353
#iterations: 95
currently lose_sum: 0.6783784627914429
time_elpased: 4.378
#iterations: 96
currently lose_sum: 0.6378092169761658
time_elpased: 4.32
#iterations: 97
currently lose_sum: 0.616219699382782
time_elpased: 4.295
#iterations: 98
currently lose_sum: 0.5768812298774719
time_elpased: 4.456
#iterations: 99
currently lose_sum: 0.6876621246337891
time_elpased: 4.216
start validation test
0.6228
0.65547024952
0.53906866614
0.591598094413
0.623954446614
16.153
#iterations: 100
currently lose_sum: 0.6890460848808289
time_elpased: 4.268
#iterations: 101
currently lose_sum: 0.5883868932723999
time_elpased: 4.227
#iterations: 102
currently lose_sum: 0.6486029028892517
time_elpased: 4.297
#iterations: 103
currently lose_sum: 0.6009910702705383
time_elpased: 4.211
#iterations: 104
currently lose_sum: 0.6403838992118835
time_elpased: 4.259
#iterations: 105
currently lose_sum: 0.5911930799484253
time_elpased: 4.201
#iterations: 106
currently lose_sum: 0.6005961894989014
time_elpased: 4.524
#iterations: 107
currently lose_sum: 0.5967124700546265
time_elpased: 4.176
#iterations: 108
currently lose_sum: 0.622303307056427
time_elpased: 4.283
#iterations: 109
currently lose_sum: 0.6632694005966187
time_elpased: 4.294
#iterations: 110
currently lose_sum: 0.6072962284088135
time_elpased: 4.216
#iterations: 111
currently lose_sum: 0.636920154094696
time_elpased: 4.244
#iterations: 112
currently lose_sum: 0.6308841705322266
time_elpased: 4.195
#iterations: 113
currently lose_sum: 0.6255323886871338
time_elpased: 4.241
#iterations: 114
currently lose_sum: 0.6096903085708618
time_elpased: 4.405
#iterations: 115
currently lose_sum: 0.6273248195648193
time_elpased: 4.918
#iterations: 116
currently lose_sum: 0.6251285076141357
time_elpased: 4.314
#iterations: 117
currently lose_sum: 0.548534631729126
time_elpased: 5.768
#iterations: 118
currently lose_sum: 0.6282769441604614
time_elpased: 4.562
#iterations: 119
currently lose_sum: 0.652031421661377
time_elpased: 4.626
start validation test
0.6468
0.675182481752
0.584056827151
0.626322471435
0.647665072132
15.714
#iterations: 120
currently lose_sum: 0.6421062350273132
time_elpased: 4.268
#iterations: 121
currently lose_sum: 0.6342580914497375
time_elpased: 4.356
#iterations: 122
currently lose_sum: 0.7166871428489685
time_elpased: 4.316
#iterations: 123
currently lose_sum: 0.6508511900901794
time_elpased: 4.558
#iterations: 124
currently lose_sum: 0.6354383230209351
time_elpased: 4.307
#iterations: 125
currently lose_sum: 0.614702045917511
time_elpased: 4.317
#iterations: 126
currently lose_sum: 0.7149178981781006
time_elpased: 4.363
#iterations: 127
currently lose_sum: 0.5900433659553528
time_elpased: 4.452
#iterations: 128
currently lose_sum: 0.6226642727851868
time_elpased: 4.369
#iterations: 129
currently lose_sum: 0.5743314623832703
time_elpased: 4.423
#iterations: 130
currently lose_sum: 0.5931333303451538
time_elpased: 4.474
#iterations: 131
currently lose_sum: 0.55247962474823
time_elpased: 4.425
#iterations: 132
currently lose_sum: 0.6283677816390991
time_elpased: 4.65
#iterations: 133
currently lose_sum: 0.6280487179756165
time_elpased: 5.07
#iterations: 134
currently lose_sum: 0.6329648494720459
time_elpased: 4.48
#iterations: 135
currently lose_sum: 0.716825544834137
time_elpased: 4.489
#iterations: 136
currently lose_sum: 0.5727797150611877
time_elpased: 4.347
#iterations: 137
currently lose_sum: 0.541292130947113
time_elpased: 4.457
#iterations: 138
currently lose_sum: 0.5880053043365479
time_elpased: 4.936
#iterations: 139
currently lose_sum: 0.5734543204307556
time_elpased: 4.424
start validation test
0.564
0.870292887029
0.164167324388
0.276228419655
0.569512697068
17.959
#iterations: 140
currently lose_sum: 0.6406795978546143
time_elpased: 4.689
#iterations: 141
currently lose_sum: 0.6496846675872803
time_elpased: 4.534
#iterations: 142
currently lose_sum: 0.585889458656311
time_elpased: 5.254
#iterations: 143
currently lose_sum: 0.7636743187904358
time_elpased: 4.816
#iterations: 144
currently lose_sum: 0.6417784690856934
time_elpased: 4.802
#iterations: 145
currently lose_sum: 0.5804907083511353
time_elpased: 4.307
#iterations: 146
currently lose_sum: 0.6021106243133545
time_elpased: 4.459
#iterations: 147
currently lose_sum: 0.5616140365600586
time_elpased: 4.956
#iterations: 148
currently lose_sum: 0.6421122550964355
time_elpased: 4.551
#iterations: 149
currently lose_sum: 0.5920271873474121
time_elpased: 4.577
#iterations: 150
currently lose_sum: 0.5543836355209351
time_elpased: 4.538
#iterations: 151
currently lose_sum: 0.49894675612449646
time_elpased: 4.478
#iterations: 152
currently lose_sum: 0.5365984439849854
time_elpased: 4.459
#iterations: 153
currently lose_sum: 0.5894715189933777
time_elpased: 4.502
#iterations: 154
currently lose_sum: 0.5597999691963196
time_elpased: 4.81
#iterations: 155
currently lose_sum: 0.6261521577835083
time_elpased: 4.515
#iterations: 156
currently lose_sum: 0.6006761193275452
time_elpased: 4.433
#iterations: 157
currently lose_sum: 0.48814642429351807
time_elpased: 4.676
#iterations: 158
currently lose_sum: 0.5353740453720093
time_elpased: 5.175
#iterations: 159
currently lose_sum: 0.6368138194084167
time_elpased: 4.687
start validation test
0.6772
0.72030651341
0.593528018942
0.650800519256
0.678353628287
15.110
#iterations: 160
currently lose_sum: 0.6494390964508057
time_elpased: 5.05
#iterations: 161
currently lose_sum: 0.7796429395675659
time_elpased: 4.283
#iterations: 162
currently lose_sum: 0.5419731736183167
time_elpased: 4.278
#iterations: 163
currently lose_sum: 0.6312339901924133
time_elpased: 4.214
#iterations: 164
currently lose_sum: 0.5480079054832458
time_elpased: 4.488
#iterations: 165
currently lose_sum: 0.5575220584869385
time_elpased: 4.284
#iterations: 166
currently lose_sum: 0.6036124229431152
time_elpased: 4.221
#iterations: 167
currently lose_sum: 0.6119571328163147
time_elpased: 4.242
#iterations: 168
currently lose_sum: 0.5160091519355774
time_elpased: 4.523
#iterations: 169
currently lose_sum: 0.6027223467826843
time_elpased: 4.249
#iterations: 170
currently lose_sum: 0.5545060038566589
time_elpased: 4.247
#iterations: 171
currently lose_sum: 0.5263835787773132
time_elpased: 4.28
#iterations: 172
currently lose_sum: 0.5324485301971436
time_elpased: 4.183
#iterations: 173
currently lose_sum: 0.5522732734680176
time_elpased: 4.251
#iterations: 174
currently lose_sum: 0.5884771347045898
time_elpased: 4.433
#iterations: 175
currently lose_sum: 0.6471293568611145
time_elpased: 4.206
#iterations: 176
currently lose_sum: 0.7222400903701782
time_elpased: 4.284
#iterations: 177
currently lose_sum: 0.6344952583312988
time_elpased: 4.299
#iterations: 178
currently lose_sum: 0.6603471636772156
time_elpased: 4.278
#iterations: 179
currently lose_sum: 0.5835434198379517
time_elpased: 4.385
start validation test
0.6748
0.647211413748
0.787687450671
0.710573157707
0.673243563129
14.936
#iterations: 180
currently lose_sum: 0.6229177713394165
time_elpased: 4.307
#iterations: 181
currently lose_sum: 0.6299446821212769
time_elpased: 5.07
#iterations: 182
currently lose_sum: 0.581722617149353
time_elpased: 4.383
#iterations: 183
currently lose_sum: 0.5858339667320251
time_elpased: 4.392
#iterations: 184
currently lose_sum: 0.5850411057472229
time_elpased: 4.337
#iterations: 185
currently lose_sum: 0.5805310010910034
time_elpased: 4.61
#iterations: 186
currently lose_sum: 0.5152668952941895
time_elpased: 4.418
#iterations: 187
currently lose_sum: 0.5396336913108826
time_elpased: 4.17
#iterations: 188
currently lose_sum: 0.540492832660675
time_elpased: 4.297
#iterations: 189
currently lose_sum: 0.5568159222602844
time_elpased: 4.436
#iterations: 190
currently lose_sum: 0.49622976779937744
time_elpased: 4.037
#iterations: 191
currently lose_sum: 0.5642773509025574
time_elpased: 4.57
#iterations: 192
currently lose_sum: 0.6156259775161743
time_elpased: 4.617
#iterations: 193
currently lose_sum: 0.5393996238708496
time_elpased: 4.496
#iterations: 194
currently lose_sum: 0.5638387203216553
time_elpased: 4.402
#iterations: 195
currently lose_sum: 0.5454849004745483
time_elpased: 4.297
#iterations: 196
currently lose_sum: 0.6377732157707214
time_elpased: 4.185
#iterations: 197
currently lose_sum: 0.6944265961647034
time_elpased: 4.261
#iterations: 198
currently lose_sum: 0.5515517592430115
time_elpased: 4.985
#iterations: 199
currently lose_sum: 0.5516661405563354
time_elpased: 4.322
start validation test
0.6796
0.73630831643
0.573007103394
0.644474034621
0.681069650643
14.717
#iterations: 200
currently lose_sum: 0.6247173547744751
time_elpased: 4.316
#iterations: 201
currently lose_sum: 0.5251410007476807
time_elpased: 4.169
#iterations: 202
currently lose_sum: 0.6313988566398621
time_elpased: 4.881
#iterations: 203
currently lose_sum: 0.5796587467193604
time_elpased: 4.319
#iterations: 204
currently lose_sum: 0.5823978185653687
time_elpased: 4.253
#iterations: 205
currently lose_sum: 0.5140655040740967
time_elpased: 4.655
#iterations: 206
currently lose_sum: 0.6014943718910217
time_elpased: 4.224
#iterations: 207
currently lose_sum: 0.49533408880233765
time_elpased: 4.829
#iterations: 208
currently lose_sum: 0.5400359630584717
time_elpased: 4.402
#iterations: 209
currently lose_sum: 0.5310782790184021
time_elpased: 4.548
#iterations: 210
currently lose_sum: 0.5577356815338135
time_elpased: 4.3
#iterations: 211
currently lose_sum: 0.5355515480041504
time_elpased: 4.343
#iterations: 212
currently lose_sum: 0.5878747701644897
time_elpased: 5.065
#iterations: 213
currently lose_sum: 0.5819648504257202
time_elpased: 4.441
#iterations: 214
currently lose_sum: 0.5443487763404846
time_elpased: 4.614
#iterations: 215
currently lose_sum: 0.554847240447998
time_elpased: 4.502
#iterations: 216
currently lose_sum: 0.5592862963676453
time_elpased: 4.696
#iterations: 217
currently lose_sum: 0.5410867929458618
time_elpased: 4.468
#iterations: 218
currently lose_sum: 0.5435129404067993
time_elpased: 4.626
#iterations: 219
currently lose_sum: 0.5876699686050415
time_elpased: 5.067
start validation test
0.6328
0.589076059214
0.910812943962
0.715437073776
0.628966893717
15.841
#iterations: 220
currently lose_sum: 0.5000312328338623
time_elpased: 5.041
#iterations: 221
currently lose_sum: 0.6014981269836426
time_elpased: 4.873
#iterations: 222
currently lose_sum: 0.5808660387992859
time_elpased: 4.263
#iterations: 223
currently lose_sum: 0.6166864633560181
time_elpased: 4.371
#iterations: 224
currently lose_sum: 0.5946052074432373
time_elpased: 4.195
#iterations: 225
currently lose_sum: 0.5072298049926758
time_elpased: 4.33
#iterations: 226
currently lose_sum: 0.5279802680015564
time_elpased: 4.382
#iterations: 227
currently lose_sum: 0.5930469036102295
time_elpased: 4.176
#iterations: 228
currently lose_sum: 0.533836841583252
time_elpased: 4.408
#iterations: 229
currently lose_sum: 0.6620433330535889
time_elpased: 4.231
#iterations: 230
currently lose_sum: 0.4896741211414337
time_elpased: 4.307
#iterations: 231
currently lose_sum: 0.5322052240371704
time_elpased: 4.297
#iterations: 232
currently lose_sum: 0.5092693567276001
time_elpased: 4.352
#iterations: 233
currently lose_sum: 0.5316259264945984
time_elpased: 4.281
#iterations: 234
currently lose_sum: 0.6576055884361267
time_elpased: 4.449
#iterations: 235
currently lose_sum: 0.5418753027915955
time_elpased: 4.371
#iterations: 236
currently lose_sum: 0.5058292150497437
time_elpased: 4.663
#iterations: 237
currently lose_sum: 0.5601195693016052
time_elpased: 4.562
#iterations: 238
currently lose_sum: 0.621315062046051
time_elpased: 4.302
#iterations: 239
currently lose_sum: 0.5280390977859497
time_elpased: 4.462
start validation test
0.5916
0.88679245283
0.222573007103
0.355835962145
0.596687963406
17.443
#iterations: 240
currently lose_sum: 0.5786467790603638
time_elpased: 4.77
#iterations: 241
currently lose_sum: 0.4857722520828247
time_elpased: 5.14
#iterations: 242
currently lose_sum: 0.5499981641769409
time_elpased: 4.424
#iterations: 243
currently lose_sum: 0.5337533354759216
time_elpased: 5.519
#iterations: 244
currently lose_sum: 0.5202013850212097
time_elpased: 4.761
#iterations: 245
currently lose_sum: 0.6003407835960388
time_elpased: 4.622
#iterations: 246
currently lose_sum: 0.5795775055885315
time_elpased: 4.681
#iterations: 247
currently lose_sum: 0.5713775157928467
time_elpased: 4.808
#iterations: 248
currently lose_sum: 0.5303995013237
time_elpased: 5.046
#iterations: 249
currently lose_sum: 0.5418605208396912
time_elpased: 4.991
#iterations: 250
currently lose_sum: 0.6699085831642151
time_elpased: 4.85
#iterations: 251
currently lose_sum: 0.6149143576622009
time_elpased: 4.714
#iterations: 252
currently lose_sum: 0.5586200952529907
time_elpased: 4.772
#iterations: 253
currently lose_sum: 0.5391587615013123
time_elpased: 4.671
#iterations: 254
currently lose_sum: 0.48839420080184937
time_elpased: 4.138
#iterations: 255
currently lose_sum: 0.5591059327125549
time_elpased: 4.286
#iterations: 256
currently lose_sum: 0.5322908759117126
time_elpased: 4.305
#iterations: 257
currently lose_sum: 0.5153460502624512
time_elpased: 4.334
#iterations: 258
currently lose_sum: 0.4446602761745453
time_elpased: 4.408
#iterations: 259
currently lose_sum: 0.564200758934021
time_elpased: 4.446
start validation test
0.6728
0.805442176871
0.467245461721
0.591408591409
0.67563408528
14.910
#iterations: 260
currently lose_sum: 0.5779221057891846
time_elpased: 4.613
#iterations: 261
currently lose_sum: 0.5302088856697083
time_elpased: 4.651
#iterations: 262
currently lose_sum: 0.5256921052932739
time_elpased: 4.547
#iterations: 263
currently lose_sum: 0.6042307019233704
time_elpased: 4.396
#iterations: 264
currently lose_sum: 0.48462939262390137
time_elpased: 4.779
#iterations: 265
currently lose_sum: 0.7475907206535339
time_elpased: 4.368
#iterations: 266
currently lose_sum: 0.5399541258811951
time_elpased: 4.45
#iterations: 267
currently lose_sum: 0.5299625992774963
time_elpased: 4.145
#iterations: 268
currently lose_sum: 0.4520455300807953
time_elpased: 4.418
#iterations: 269
currently lose_sum: 0.5374558568000793
time_elpased: 5.341
#iterations: 270
currently lose_sum: 0.6080319881439209
time_elpased: 5.426
#iterations: 271
currently lose_sum: 0.4661104679107666
time_elpased: 4.294
#iterations: 272
currently lose_sum: 0.5528268218040466
time_elpased: 4.613
#iterations: 273
currently lose_sum: 0.6242706775665283
time_elpased: 4.429
#iterations: 274
currently lose_sum: 0.48353710770606995
time_elpased: 4.75
#iterations: 275
currently lose_sum: 0.520169198513031
time_elpased: 4.433
#iterations: 276
currently lose_sum: 0.6022474765777588
time_elpased: 4.544
#iterations: 277
currently lose_sum: 0.635322630405426
time_elpased: 4.806
#iterations: 278
currently lose_sum: 0.5804524421691895
time_elpased: 4.33
#iterations: 279
currently lose_sum: 0.4484309256076813
time_elpased: 4.359
start validation test
0.6912
0.78612716763
0.536700868193
0.637898686679
0.693330158346
14.782
#iterations: 280
currently lose_sum: 0.5028653144836426
time_elpased: 5.525
#iterations: 281
currently lose_sum: 0.5256370306015015
time_elpased: 4.132
#iterations: 282
currently lose_sum: 0.590686023235321
time_elpased: 4.563
#iterations: 283
currently lose_sum: 0.44598543643951416
time_elpased: 4.328
#iterations: 284
currently lose_sum: 0.560238778591156
time_elpased: 5.16
#iterations: 285
currently lose_sum: 0.6653685569763184
time_elpased: 4.584
#iterations: 286
currently lose_sum: 0.45498597621917725
time_elpased: 4.442
#iterations: 287
currently lose_sum: 0.467715859413147
time_elpased: 4.835
#iterations: 288
currently lose_sum: 0.44643211364746094
time_elpased: 4.336
#iterations: 289
currently lose_sum: 0.572864294052124
time_elpased: 4.363
#iterations: 290
currently lose_sum: 0.4461382329463959
time_elpased: 4.366
#iterations: 291
currently lose_sum: 0.512241542339325
time_elpased: 5.075
#iterations: 292
currently lose_sum: 0.5342527627944946
time_elpased: 4.308
#iterations: 293
currently lose_sum: 0.41405877470970154
time_elpased: 4.81
#iterations: 294
currently lose_sum: 0.6167703866958618
time_elpased: 4.354
#iterations: 295
currently lose_sum: 0.4755480885505676
time_elpased: 4.429
#iterations: 296
currently lose_sum: 0.5637208819389343
time_elpased: 4.273
#iterations: 297
currently lose_sum: 0.4920656085014343
time_elpased: 4.397
#iterations: 298
currently lose_sum: 0.4876662790775299
time_elpased: 4.326
#iterations: 299
currently lose_sum: 0.6075047850608826
time_elpased: 4.537
start validation test
0.686
0.807397959184
0.499605367009
0.617259873233
0.688569917892
14.577
#iterations: 300
currently lose_sum: 0.4317663908004761
time_elpased: 4.389
#iterations: 301
currently lose_sum: 0.4850354790687561
time_elpased: 4.68
#iterations: 302
currently lose_sum: 0.49767082929611206
time_elpased: 5.893
#iterations: 303
currently lose_sum: 0.5896183252334595
time_elpased: 4.672
#iterations: 304
currently lose_sum: 0.5192873477935791
time_elpased: 4.617
#iterations: 305
currently lose_sum: 0.6007372736930847
time_elpased: 4.327
#iterations: 306
currently lose_sum: 0.47713562846183777
time_elpased: 4.36
#iterations: 307
currently lose_sum: 0.5148137807846069
time_elpased: 4.376
#iterations: 308
currently lose_sum: 0.5457792282104492
time_elpased: 4.782
#iterations: 309
currently lose_sum: 0.5887517333030701
time_elpased: 4.821
#iterations: 310
currently lose_sum: 0.535254716873169
time_elpased: 4.357
#iterations: 311
currently lose_sum: 0.4954719841480255
time_elpased: 4.659
#iterations: 312
currently lose_sum: 0.48950356245040894
time_elpased: 4.476
#iterations: 313
currently lose_sum: 0.5820862054824829
time_elpased: 4.803
#iterations: 314
currently lose_sum: 0.5382983684539795
time_elpased: 4.357
#iterations: 315
currently lose_sum: 0.5563724040985107
time_elpased: 4.304
#iterations: 316
currently lose_sum: 0.6203219890594482
time_elpased: 5.429
#iterations: 317
currently lose_sum: 0.5413088202476501
time_elpased: 4.312
#iterations: 318
currently lose_sum: 0.45157378911972046
time_elpased: 4.788
#iterations: 319
currently lose_sum: 0.6359511613845825
time_elpased: 4.23
start validation test
0.6784
0.638374178123
0.842936069455
0.726530612245
0.676131457274
14.717
#iterations: 320
currently lose_sum: 0.48439785838127136
time_elpased: 4.317
#iterations: 321
currently lose_sum: 0.4933685064315796
time_elpased: 4.19
#iterations: 322
currently lose_sum: 0.6116830706596375
time_elpased: 4.207
#iterations: 323
currently lose_sum: 0.47444671392440796
time_elpased: 4.466
#iterations: 324
currently lose_sum: 0.5203966498374939
time_elpased: 4.322
#iterations: 325
currently lose_sum: 0.43353357911109924
time_elpased: 4.248
#iterations: 326
currently lose_sum: 0.524675726890564
time_elpased: 4.264
#iterations: 327
currently lose_sum: 0.5831891894340515
time_elpased: 4.49
#iterations: 328
currently lose_sum: 0.5201134085655212
time_elpased: 4.651
#iterations: 329
currently lose_sum: 0.560558557510376
time_elpased: 4.132
#iterations: 330
currently lose_sum: 0.49924635887145996
time_elpased: 4.217
#iterations: 331
currently lose_sum: 0.6035930514335632
time_elpased: 4.645
#iterations: 332
currently lose_sum: 0.4444707930088043
time_elpased: 4.32
#iterations: 333
currently lose_sum: 0.6106522083282471
time_elpased: 4.387
#iterations: 334
currently lose_sum: 0.469356894493103
time_elpased: 4.463
#iterations: 335
currently lose_sum: 0.568923830986023
time_elpased: 4.229
#iterations: 336
currently lose_sum: 0.5498575568199158
time_elpased: 4.249
#iterations: 337
currently lose_sum: 0.5143568515777588
time_elpased: 5.993
#iterations: 338
currently lose_sum: 0.4806148409843445
time_elpased: 4.747
#iterations: 339
currently lose_sum: 0.5650716423988342
time_elpased: 5.183
start validation test
0.708
0.77370030581
0.599052880821
0.675266903915
0.70950210951
14.234
#iterations: 340
currently lose_sum: 0.48443248867988586
time_elpased: 4.301
#iterations: 341
currently lose_sum: 0.4730985760688782
time_elpased: 4.293
#iterations: 342
currently lose_sum: 0.5307416319847107
time_elpased: 4.419
#iterations: 343
currently lose_sum: 0.5207943916320801
time_elpased: 4.584
#iterations: 344
currently lose_sum: 0.4728942811489105
time_elpased: 4.349
#iterations: 345
currently lose_sum: 0.42744332551956177
time_elpased: 4.422
#iterations: 346
currently lose_sum: 0.5553540587425232
time_elpased: 4.359
#iterations: 347
currently lose_sum: 0.4440139830112457
time_elpased: 4.136
#iterations: 348
currently lose_sum: 0.47912758588790894
time_elpased: 4.175
#iterations: 349
currently lose_sum: 0.5396634936332703
time_elpased: 4.172
#iterations: 350
currently lose_sum: 0.491403192281723
time_elpased: 4.314
#iterations: 351
currently lose_sum: 0.4800131320953369
time_elpased: 4.186
#iterations: 352
currently lose_sum: 0.5701867938041687
time_elpased: 4.709
#iterations: 353
currently lose_sum: 0.4793531894683838
time_elpased: 4.183
#iterations: 354
currently lose_sum: 0.45245128870010376
time_elpased: 4.184
#iterations: 355
currently lose_sum: 0.4327777028083801
time_elpased: 4.262
#iterations: 356
currently lose_sum: 0.5565251708030701
time_elpased: 4.259
#iterations: 357
currently lose_sum: 0.4479793608188629
time_elpased: 4.464
#iterations: 358
currently lose_sum: 0.5411123633384705
time_elpased: 4.44
#iterations: 359
currently lose_sum: 0.5694057941436768
time_elpased: 4.387
start validation test
0.652
0.862888482633
0.372533543804
0.5203969129
0.655853146598
16.511
#iterations: 360
currently lose_sum: 0.4676913321018219
time_elpased: 4.394
#iterations: 361
currently lose_sum: 0.5128461718559265
time_elpased: 4.661
#iterations: 362
currently lose_sum: 0.3877478837966919
time_elpased: 4.544
#iterations: 363
currently lose_sum: 0.42615363001823425
time_elpased: 4.52
#iterations: 364
currently lose_sum: 0.45251819491386414
time_elpased: 4.23
#iterations: 365
currently lose_sum: 0.4065930247306824
time_elpased: 4.265
#iterations: 366
currently lose_sum: 0.4412476420402527
time_elpased: 4.731
#iterations: 367
currently lose_sum: 0.5252386331558228
time_elpased: 4.405
#iterations: 368
currently lose_sum: 0.5891110897064209
time_elpased: 4.163
#iterations: 369
currently lose_sum: 0.5605897903442383
time_elpased: 4.287
#iterations: 370
currently lose_sum: 0.7200396656990051
time_elpased: 4.244
#iterations: 371
currently lose_sum: 0.5628601312637329
time_elpased: 4.277
#iterations: 372
currently lose_sum: 0.7061923146247864
time_elpased: 4.241
#iterations: 373
currently lose_sum: 0.4959002733230591
time_elpased: 4.191
#iterations: 374
currently lose_sum: 0.5515287518501282
time_elpased: 4.151
#iterations: 375
currently lose_sum: 0.5479273200035095
time_elpased: 4.212
#iterations: 376
currently lose_sum: 0.46333780884742737
time_elpased: 4.331
#iterations: 377
currently lose_sum: 0.5210474729537964
time_elpased: 4.654
#iterations: 378
currently lose_sum: 0.4966811239719391
time_elpased: 4.875
#iterations: 379
currently lose_sum: 0.49286094307899475
time_elpased: 4.358
start validation test
0.6888
0.645103857567
0.857932123125
0.736449864499
0.686468089138
14.232
#iterations: 380
currently lose_sum: 0.6284815073013306
time_elpased: 4.67
#iterations: 381
currently lose_sum: 0.5402107238769531
time_elpased: 4.536
#iterations: 382
currently lose_sum: 0.500044047832489
time_elpased: 4.382
#iterations: 383
currently lose_sum: 0.4127735495567322
time_elpased: 4.471
#iterations: 384
currently lose_sum: 0.6037649512290955
time_elpased: 4.564
#iterations: 385
currently lose_sum: 0.5004165172576904
time_elpased: 4.517
#iterations: 386
currently lose_sum: 0.4037366211414337
time_elpased: 4.515
#iterations: 387
currently lose_sum: 0.5089035630226135
time_elpased: 4.346
#iterations: 388
currently lose_sum: 0.48952969908714294
time_elpased: 4.794
#iterations: 389
currently lose_sum: 0.49291789531707764
time_elpased: 4.358
#iterations: 390
currently lose_sum: 0.4825958013534546
time_elpased: 4.806
#iterations: 391
currently lose_sum: 0.47012344002723694
time_elpased: 4.212
#iterations: 392
currently lose_sum: 0.4665450155735016
time_elpased: 5.002
#iterations: 393
currently lose_sum: 0.5219788551330566
time_elpased: 4.52
#iterations: 394
currently lose_sum: 0.5599201321601868
time_elpased: 4.619
#iterations: 395
currently lose_sum: 0.49591484665870667
time_elpased: 4.575
#iterations: 396
currently lose_sum: 0.46462899446487427
time_elpased: 4.558
#iterations: 397
currently lose_sum: 0.48372361063957214
time_elpased: 4.558
#iterations: 398
currently lose_sum: 0.5525810122489929
time_elpased: 4.593
#iterations: 399
currently lose_sum: 0.5277407765388489
time_elpased: 4.349
start validation test
0.6964
0.660353535354
0.825572217837
0.733777621887
0.694619036737
14.840
#iterations: 400
currently lose_sum: 0.47829297184944153
time_elpased: 4.32
#iterations: 401
currently lose_sum: 0.44407472014427185
time_elpased: 4.403
#iterations: 402
currently lose_sum: 0.45723000168800354
time_elpased: 4.432
#iterations: 403
currently lose_sum: 0.46538466215133667
time_elpased: 4.309
#iterations: 404
currently lose_sum: 0.5189260840415955
time_elpased: 4.446
#iterations: 405
currently lose_sum: 0.4920997619628906
time_elpased: 4.202
#iterations: 406
currently lose_sum: 0.4178236126899719
time_elpased: 4.602
#iterations: 407
currently lose_sum: 0.4619844853878021
time_elpased: 4.194
#iterations: 408
currently lose_sum: 0.5195748805999756
time_elpased: 4.364
#iterations: 409
currently lose_sum: 0.4018414318561554
time_elpased: 4.525
#iterations: 410
currently lose_sum: 0.48374998569488525
time_elpased: 4.544
#iterations: 411
currently lose_sum: 0.5900608897209167
time_elpased: 4.675
#iterations: 412
currently lose_sum: 0.5213800668716431
time_elpased: 4.173
#iterations: 413
currently lose_sum: 0.5652517676353455
time_elpased: 4.258
#iterations: 414
currently lose_sum: 0.5879437923431396
time_elpased: 4.361
#iterations: 415
currently lose_sum: 0.5329405069351196
time_elpased: 4.281
#iterations: 416
currently lose_sum: 0.5367720127105713
time_elpased: 4.536
#iterations: 417
currently lose_sum: 0.5421752333641052
time_elpased: 4.562
#iterations: 418
currently lose_sum: 0.5422617197036743
time_elpased: 4.105
#iterations: 419
currently lose_sum: 0.4931076765060425
time_elpased: 4.268
start validation test
0.616
0.905013192612
0.270718232044
0.416767922236
0.620760575876
18.204
#iterations: 420
currently lose_sum: 0.54546058177948
time_elpased: 4.368
#iterations: 421
currently lose_sum: 0.503828763961792
time_elpased: 4.367
#iterations: 422
currently lose_sum: 0.5146033763885498
time_elpased: 4.552
#iterations: 423
currently lose_sum: 0.5043814182281494
time_elpased: 4.359
#iterations: 424
currently lose_sum: 0.7083574533462524
time_elpased: 4.889
#iterations: 425
currently lose_sum: 0.5405586361885071
time_elpased: 4.842
#iterations: 426
currently lose_sum: 0.5138406157493591
time_elpased: 4.535
#iterations: 427
currently lose_sum: 0.546842098236084
time_elpased: 4.202
#iterations: 428
currently lose_sum: 0.4924784004688263
time_elpased: 4.316
#iterations: 429
currently lose_sum: 0.46352675557136536
time_elpased: 4.436
#iterations: 430
currently lose_sum: 0.5240090489387512
time_elpased: 4.597
#iterations: 431
currently lose_sum: 0.47599709033966064
time_elpased: 5.205
#iterations: 432
currently lose_sum: 0.3937583863735199
time_elpased: 4.241
#iterations: 433
currently lose_sum: 0.4760265052318573
time_elpased: 4.437
#iterations: 434
currently lose_sum: 0.6171450614929199
time_elpased: 4.657
#iterations: 435
currently lose_sum: 0.44010409712791443
time_elpased: 4.637
#iterations: 436
currently lose_sum: 0.43914926052093506
time_elpased: 4.364
#iterations: 437
currently lose_sum: 0.5237634181976318
time_elpased: 4.439
#iterations: 438
currently lose_sum: 0.3813190758228302
time_elpased: 4.303
#iterations: 439
currently lose_sum: 0.5125524401664734
time_elpased: 4.64
start validation test
0.6736
0.83808095952
0.441199684294
0.578076525336
0.676804221709
14.914
#iterations: 440
currently lose_sum: 0.5452341437339783
time_elpased: 4.17
#iterations: 441
currently lose_sum: 0.4610888659954071
time_elpased: 4.451
#iterations: 442
currently lose_sum: 0.48556745052337646
time_elpased: 5.445
#iterations: 443
currently lose_sum: 0.5332551598548889
time_elpased: 4.374
#iterations: 444
currently lose_sum: 0.5040121078491211
time_elpased: 4.275
#iterations: 445
currently lose_sum: 0.5188512206077576
time_elpased: 4.455
#iterations: 446
currently lose_sum: 0.43465176224708557
time_elpased: 4.554
#iterations: 447
currently lose_sum: 0.48703375458717346
time_elpased: 4.65
#iterations: 448
currently lose_sum: 0.524132490158081
time_elpased: 4.391
#iterations: 449
currently lose_sum: 0.4353790283203125
time_elpased: 4.477
#iterations: 450
currently lose_sum: 0.6027794480323792
time_elpased: 4.39
#iterations: 451
currently lose_sum: 0.4886211156845093
time_elpased: 4.388
#iterations: 452
currently lose_sum: 0.47964465618133545
time_elpased: 4.636
#iterations: 453
currently lose_sum: 0.4272444248199463
time_elpased: 4.262
#iterations: 454
currently lose_sum: 0.5584293603897095
time_elpased: 4.31
#iterations: 455
currently lose_sum: 0.42428287863731384
time_elpased: 4.263
#iterations: 456
currently lose_sum: 0.588804304599762
time_elpased: 4.186
#iterations: 457
currently lose_sum: 0.5534758567810059
time_elpased: 4.341
#iterations: 458
currently lose_sum: 0.4343321621417999
time_elpased: 4.446
#iterations: 459
currently lose_sum: 0.5488166213035583
time_elpased: 4.948
start validation test
0.7172
0.707407407407
0.753749013418
0.72984333206
0.716696080107
13.846
#iterations: 460
currently lose_sum: 0.5215588212013245
time_elpased: 4.646
#iterations: 461
currently lose_sum: 0.370986670255661
time_elpased: 4.289
#iterations: 462
currently lose_sum: 0.5749351978302002
time_elpased: 5.307
#iterations: 463
currently lose_sum: 0.45747146010398865
time_elpased: 4.565
#iterations: 464
currently lose_sum: 0.44150611758232117
time_elpased: 4.409
#iterations: 465
currently lose_sum: 0.45710426568984985
time_elpased: 4.529
#iterations: 466
currently lose_sum: 0.40107205510139465
time_elpased: 4.488
#iterations: 467
currently lose_sum: 0.4911024868488312
time_elpased: 4.242
#iterations: 468
currently lose_sum: 0.47632908821105957
time_elpased: 4.303
#iterations: 469
currently lose_sum: 0.5276723504066467
time_elpased: 4.338
#iterations: 470
currently lose_sum: 0.4889739155769348
time_elpased: 4.383
#iterations: 471
currently lose_sum: 0.5025781393051147
time_elpased: 4.177
#iterations: 472
currently lose_sum: 0.45923343300819397
time_elpased: 4.216
#iterations: 473
currently lose_sum: 0.3880980312824249
time_elpased: 4.635
#iterations: 474
currently lose_sum: 0.4358022212982178
time_elpased: 4.345
#iterations: 475
currently lose_sum: 0.4340592920780182
time_elpased: 4.375
#iterations: 476
currently lose_sum: 0.4062824249267578
time_elpased: 4.349
#iterations: 477
currently lose_sum: 0.5312260985374451
time_elpased: 4.419
#iterations: 478
currently lose_sum: 0.45640915632247925
time_elpased: 4.266
#iterations: 479
currently lose_sum: 0.525344729423523
time_elpased: 4.445
start validation test
0.6948
0.788990825688
0.543014996054
0.643291257597
0.696892737281
15.025
#iterations: 480
currently lose_sum: 0.5174150466918945
time_elpased: 4.442
#iterations: 481
currently lose_sum: 0.6616608500480652
time_elpased: 4.493
#iterations: 482
currently lose_sum: 0.41761231422424316
time_elpased: 4.238
#iterations: 483
currently lose_sum: 0.46114876866340637
time_elpased: 4.323
#iterations: 484
currently lose_sum: 0.47077837586402893
time_elpased: 4.307
#iterations: 485
currently lose_sum: 0.5794548392295837
time_elpased: 4.312
#iterations: 486
currently lose_sum: 0.524641752243042
time_elpased: 4.882
#iterations: 487
currently lose_sum: 0.4976394772529602
time_elpased: 4.143
#iterations: 488
currently lose_sum: 0.4338585138320923
time_elpased: 4.42
#iterations: 489
currently lose_sum: 0.42469802498817444
time_elpased: 4.315
#iterations: 490
currently lose_sum: 0.4798906743526459
time_elpased: 4.361
#iterations: 491
currently lose_sum: 0.42928260564804077
time_elpased: 4.538
#iterations: 492
currently lose_sum: 0.5919073224067688
time_elpased: 4.523
#iterations: 493
currently lose_sum: 0.38964834809303284
time_elpased: 4.296
#iterations: 494
currently lose_sum: 0.5138910412788391
time_elpased: 4.308
#iterations: 495
currently lose_sum: 0.48088881373405457
time_elpased: 4.477
#iterations: 496
currently lose_sum: 0.40757015347480774
time_elpased: 4.678
#iterations: 497
currently lose_sum: 0.47625672817230225
time_elpased: 4.542
#iterations: 498
currently lose_sum: 0.49148017168045044
time_elpased: 4.466
#iterations: 499
currently lose_sum: 0.3595534563064575
time_elpased: 4.705
start validation test
0.6952
0.665791201576
0.800315706393
0.72688172043
0.693750716132
14.889
#iterations: 500
currently lose_sum: 0.42308029532432556
time_elpased: 4.513
#iterations: 501
currently lose_sum: 0.5786051750183105
time_elpased: 4.26
#iterations: 502
currently lose_sum: 0.5067351460456848
time_elpased: 4.748
#iterations: 503
currently lose_sum: 0.4050515294075012
time_elpased: 4.715
#iterations: 504
currently lose_sum: 0.40404030680656433
time_elpased: 4.733
#iterations: 505
currently lose_sum: 0.5632206201553345
time_elpased: 5.422
#iterations: 506
currently lose_sum: 0.4634072482585907
time_elpased: 4.899
#iterations: 507
currently lose_sum: 0.4891764521598816
time_elpased: 4.627
#iterations: 508
currently lose_sum: 0.47147637605667114
time_elpased: 4.515
#iterations: 509
currently lose_sum: 0.5663032531738281
time_elpased: 4.298
#iterations: 510
currently lose_sum: 0.40367835760116577
time_elpased: 4.263
#iterations: 511
currently lose_sum: 0.5073612332344055
time_elpased: 4.487
#iterations: 512
currently lose_sum: 0.4103342890739441
time_elpased: 4.257
#iterations: 513
currently lose_sum: 0.5078132748603821
time_elpased: 4.261
#iterations: 514
currently lose_sum: 0.5382692217826843
time_elpased: 4.21
#iterations: 515
currently lose_sum: 0.41349852085113525
time_elpased: 4.513
#iterations: 516
currently lose_sum: 0.49923819303512573
time_elpased: 4.764
#iterations: 517
currently lose_sum: 0.4246169924736023
time_elpased: 4.524
#iterations: 518
currently lose_sum: 0.4378244876861572
time_elpased: 5.606
#iterations: 519
currently lose_sum: 0.4726913869380951
time_elpased: 4.418
start validation test
0.6908
0.827586206897
0.492501973165
0.617516081148
0.693534036055
14.659
#iterations: 520
currently lose_sum: 0.4648522436618805
time_elpased: 4.416
#iterations: 521
currently lose_sum: 0.49535271525382996
time_elpased: 4.337
#iterations: 522
currently lose_sum: 0.41860443353652954
time_elpased: 5.004
#iterations: 523
currently lose_sum: 0.44290927052497864
time_elpased: 4.184
#iterations: 524
currently lose_sum: 0.48903900384902954
time_elpased: 4.446
#iterations: 525
currently lose_sum: 0.4925498962402344
time_elpased: 4.292
#iterations: 526
currently lose_sum: 0.4504649341106415
time_elpased: 4.353
#iterations: 527
currently lose_sum: 0.45658066868782043
time_elpased: 4.26
#iterations: 528
currently lose_sum: 0.4548507332801819
time_elpased: 4.415
#iterations: 529
currently lose_sum: 0.46375522017478943
time_elpased: 4.353
#iterations: 530
currently lose_sum: 0.4797554910182953
time_elpased: 4.319
#iterations: 531
currently lose_sum: 0.48879021406173706
time_elpased: 4.39
#iterations: 532
currently lose_sum: 0.53938889503479
time_elpased: 4.623
#iterations: 533
currently lose_sum: 0.40118446946144104
time_elpased: 4.654
#iterations: 534
currently lose_sum: 0.411192387342453
time_elpased: 4.327
#iterations: 535
currently lose_sum: 0.5073105096817017
time_elpased: 4.56
#iterations: 536
currently lose_sum: 0.5208491683006287
time_elpased: 4.587
#iterations: 537
currently lose_sum: 0.6076057553291321
time_elpased: 4.568
#iterations: 538
currently lose_sum: 0.44439980387687683
time_elpased: 4.359
#iterations: 539
currently lose_sum: 0.4335553050041199
time_elpased: 4.307
start validation test
0.7232
0.775119617225
0.639305445935
0.700692041522
0.724356697015
13.718
#iterations: 540
currently lose_sum: 0.4863041639328003
time_elpased: 4.439
#iterations: 541
currently lose_sum: 0.4582711160182953
time_elpased: 4.39
#iterations: 542
currently lose_sum: 0.4439358413219452
time_elpased: 4.331
#iterations: 543
currently lose_sum: 0.7004449963569641
time_elpased: 4.577
#iterations: 544
currently lose_sum: 0.46406105160713196
time_elpased: 4.546
#iterations: 545
currently lose_sum: 0.4291587769985199
time_elpased: 4.487
#iterations: 546
currently lose_sum: 0.4618651568889618
time_elpased: 4.482
#iterations: 547
currently lose_sum: 0.6548473834991455
time_elpased: 4.385
#iterations: 548
currently lose_sum: 0.5043377876281738
time_elpased: 4.418
#iterations: 549
currently lose_sum: 0.4575313627719879
time_elpased: 4.295
#iterations: 550
currently lose_sum: 0.5004510283470154
time_elpased: 4.411
#iterations: 551
currently lose_sum: 0.42578446865081787
time_elpased: 4.283
#iterations: 552
currently lose_sum: 0.4366931915283203
time_elpased: 4.575
#iterations: 553
currently lose_sum: 0.4203526973724365
time_elpased: 4.543
#iterations: 554
currently lose_sum: 0.5034510493278503
time_elpased: 4.38
#iterations: 555
currently lose_sum: 0.47720974683761597
time_elpased: 4.174
#iterations: 556
currently lose_sum: 0.5329593420028687
time_elpased: 5.568
#iterations: 557
currently lose_sum: 0.4582984149456024
time_elpased: 5.128
#iterations: 558
currently lose_sum: 0.42075276374816895
time_elpased: 4.764
#iterations: 559
currently lose_sum: 0.3404313623905182
time_elpased: 4.642
start validation test
0.7124
0.797180043384
0.580110497238
0.671539515761
0.71422394286
14.070
#iterations: 560
currently lose_sum: 0.4042625427246094
time_elpased: 5.008
#iterations: 561
currently lose_sum: 0.39459624886512756
time_elpased: 4.494
#iterations: 562
currently lose_sum: 0.5395211577415466
time_elpased: 4.843
#iterations: 563
currently lose_sum: 0.4427189230918884
time_elpased: 4.504
#iterations: 564
currently lose_sum: 0.4708267152309418
time_elpased: 4.364
#iterations: 565
currently lose_sum: 0.43826553225517273
time_elpased: 4.401
#iterations: 566
currently lose_sum: 0.5423721075057983
time_elpased: 4.233
#iterations: 567
currently lose_sum: 0.42340078949928284
time_elpased: 4.235
#iterations: 568
currently lose_sum: 0.5029672980308533
time_elpased: 4.364
#iterations: 569
currently lose_sum: 0.4270874857902527
time_elpased: 4.642
#iterations: 570
currently lose_sum: 0.44140341877937317
time_elpased: 5.125
#iterations: 571
currently lose_sum: 0.536615788936615
time_elpased: 4.106
#iterations: 572
currently lose_sum: 0.4232301414012909
time_elpased: 3.407
#iterations: 573
currently lose_sum: 0.4341399073600769
time_elpased: 3.49
#iterations: 574
currently lose_sum: 0.39996588230133057
time_elpased: 3.619
#iterations: 575
currently lose_sum: 0.4922525882720947
time_elpased: 3.496
#iterations: 576
currently lose_sum: 0.387964129447937
time_elpased: 3.495
#iterations: 577
currently lose_sum: 0.6737130880355835
time_elpased: 3.491
#iterations: 578
currently lose_sum: 0.4200054109096527
time_elpased: 4.111
#iterations: 579
currently lose_sum: 0.4482722878456116
time_elpased: 3.511
start validation test
0.7268
0.799180327869
0.615627466456
0.695497102095
0.728332792433
14.038
#iterations: 580
currently lose_sum: 0.47439438104629517
time_elpased: 3.448
#iterations: 581
currently lose_sum: 0.4894113838672638
time_elpased: 3.564
#iterations: 582
currently lose_sum: 0.36594849824905396
time_elpased: 3.887
#iterations: 583
currently lose_sum: 0.4374319911003113
time_elpased: 3.424
#iterations: 584
currently lose_sum: 0.4648941159248352
time_elpased: 3.483
#iterations: 585
currently lose_sum: 0.44006073474884033
time_elpased: 3.394
#iterations: 586
currently lose_sum: 0.5018304586410522
time_elpased: 3.613
#iterations: 587
currently lose_sum: 0.4393862187862396
time_elpased: 3.692
#iterations: 588
currently lose_sum: 0.43463975191116333
time_elpased: 3.494
#iterations: 589
currently lose_sum: 0.43529805541038513
time_elpased: 3.389
#iterations: 590
currently lose_sum: 0.45859870314598083
time_elpased: 3.449
#iterations: 591
currently lose_sum: 0.49807411432266235
time_elpased: 3.515
#iterations: 592
currently lose_sum: 0.6781068444252014
time_elpased: 3.791
#iterations: 593
currently lose_sum: 0.41821348667144775
time_elpased: 3.442
#iterations: 594
currently lose_sum: 0.5123193264007568
time_elpased: 4.03
#iterations: 595
currently lose_sum: 0.49500495195388794
time_elpased: 3.42
#iterations: 596
currently lose_sum: 0.39091309905052185
time_elpased: 3.742
#iterations: 597
currently lose_sum: 0.3219616413116455
time_elpased: 3.5
#iterations: 598
currently lose_sum: 0.3999629616737366
time_elpased: 3.51
#iterations: 599
currently lose_sum: 0.37538132071495056
time_elpased: 3.478
start validation test
0.7212
0.755834829443
0.66456195738
0.707265854683
0.721980897587
13.827
acc: 0.740
pre: 0.801
rec: 0.648
F1: 0.717
auc: 0.741
