start to construct computing graph
graph construct over
3804
epochs start
#iterations: 0
currently lose_sum: 0.6926591396331787
time_elpased: 2.655
#iterations: 1
currently lose_sum: 0.691781222820282
time_elpased: 2.713
#iterations: 2
currently lose_sum: 0.69349205493927
time_elpased: 2.758
#iterations: 3
currently lose_sum: 0.6942085027694702
time_elpased: 2.632
#iterations: 4
currently lose_sum: 0.6935398578643799
time_elpased: 2.691
#iterations: 5
currently lose_sum: 0.6931495070457458
time_elpased: 2.707
#iterations: 6
currently lose_sum: 0.7038925290107727
time_elpased: 2.712
#iterations: 7
currently lose_sum: 0.6934002041816711
time_elpased: 2.67
#iterations: 8
currently lose_sum: 0.6907177567481995
time_elpased: 2.675
#iterations: 9
currently lose_sum: 0.6901422142982483
time_elpased: 2.676
#iterations: 10
currently lose_sum: 0.6898669600486755
time_elpased: 2.668
#iterations: 11
currently lose_sum: 0.6900153160095215
time_elpased: 2.672
#iterations: 12
currently lose_sum: 0.6926246881484985
time_elpased: 2.617
#iterations: 13
currently lose_sum: 0.6907904148101807
time_elpased: 2.623
#iterations: 14
currently lose_sum: 0.6901432871818542
time_elpased: 2.644
#iterations: 15
currently lose_sum: 0.6843541860580444
time_elpased: 2.661
#iterations: 16
currently lose_sum: 0.6929693818092346
time_elpased: 2.619
#iterations: 17
currently lose_sum: 0.6887016296386719
time_elpased: 2.611
#iterations: 18
currently lose_sum: 0.6788772344589233
time_elpased: 2.621
#iterations: 19
currently lose_sum: 0.683437168598175
time_elpased: 2.63
start validation test
0.5436
0.572748267898
0.391475927388
0.465072667604
0.545697412193
17.202
#iterations: 20
currently lose_sum: 0.6957678198814392
time_elpased: 1.941
#iterations: 21
currently lose_sum: 0.6810975074768066
time_elpased: 2.032
#iterations: 22
currently lose_sum: 0.6680441498756409
time_elpased: 1.941
#iterations: 23
currently lose_sum: 0.7116497159004211
time_elpased: 1.966
#iterations: 24
currently lose_sum: 0.6825207471847534
time_elpased: 2.037
#iterations: 25
currently lose_sum: 0.6767881512641907
time_elpased: 1.951
#iterations: 26
currently lose_sum: 0.7139009237289429
time_elpased: 1.95
#iterations: 27
currently lose_sum: 0.6592018008232117
time_elpased: 2.042
#iterations: 28
currently lose_sum: 0.6793951392173767
time_elpased: 1.972
#iterations: 29
currently lose_sum: 0.7137722969055176
time_elpased: 1.906
#iterations: 30
currently lose_sum: 0.6753014922142029
time_elpased: 1.935
#iterations: 31
currently lose_sum: 0.6924862861633301
time_elpased: 1.934
#iterations: 32
currently lose_sum: 0.6829919219017029
time_elpased: 1.91
#iterations: 33
currently lose_sum: 0.6726459264755249
time_elpased: 1.988
#iterations: 34
currently lose_sum: 0.6942123174667358
time_elpased: 1.929
#iterations: 35
currently lose_sum: 0.7055740356445312
time_elpased: 1.957
#iterations: 36
currently lose_sum: 0.6868136525154114
time_elpased: 1.883
#iterations: 37
currently lose_sum: 0.6749104261398315
time_elpased: 1.95
#iterations: 38
currently lose_sum: 0.6769016981124878
time_elpased: 1.942
#iterations: 39
currently lose_sum: 0.6752810478210449
time_elpased: 1.95
start validation test
0.5872
0.592156862745
0.59589581689
0.594020456334
0.587080106336
16.854
#iterations: 40
currently lose_sum: 0.6666432023048401
time_elpased: 2.135
#iterations: 41
currently lose_sum: 0.670703113079071
time_elpased: 1.949
#iterations: 42
currently lose_sum: 0.6825255751609802
time_elpased: 1.958
#iterations: 43
currently lose_sum: 0.6465184092521667
time_elpased: 1.92
#iterations: 44
currently lose_sum: 0.6818817257881165
time_elpased: 1.917
#iterations: 45
currently lose_sum: 0.6692662835121155
time_elpased: 1.902
#iterations: 46
currently lose_sum: 0.6452663540840149
time_elpased: 1.964
#iterations: 47
currently lose_sum: 0.6997688412666321
time_elpased: 1.959
#iterations: 48
currently lose_sum: 0.6616689562797546
time_elpased: 1.934
#iterations: 49
currently lose_sum: 0.6925843954086304
time_elpased: 1.936
#iterations: 50
currently lose_sum: 0.6679291725158691
time_elpased: 1.909
#iterations: 51
currently lose_sum: 0.7400686740875244
time_elpased: 1.969
#iterations: 52
currently lose_sum: 0.6664766073226929
time_elpased: 2.021
#iterations: 53
currently lose_sum: 0.6682974100112915
time_elpased: 1.882
#iterations: 54
currently lose_sum: 0.6746039390563965
time_elpased: 1.965
#iterations: 55
currently lose_sum: 0.6345093250274658
time_elpased: 1.921
#iterations: 56
currently lose_sum: 0.6484533548355103
time_elpased: 1.936
#iterations: 57
currently lose_sum: 0.6478985548019409
time_elpased: 1.917
#iterations: 58
currently lose_sum: 0.6613799929618835
time_elpased: 1.905
#iterations: 59
currently lose_sum: 0.6700200438499451
time_elpased: 1.924
start validation test
0.6128
0.647873392681
0.516969218627
0.575065847234
0.61412126787
16.347
#iterations: 60
currently lose_sum: 0.6593185663223267
time_elpased: 1.961
#iterations: 61
currently lose_sum: 0.6576554179191589
time_elpased: 1.915
#iterations: 62
currently lose_sum: 0.6734249591827393
time_elpased: 1.971
#iterations: 63
currently lose_sum: 0.5802303552627563
time_elpased: 1.955
#iterations: 64
currently lose_sum: 0.6606831550598145
time_elpased: 1.991
#iterations: 65
currently lose_sum: 0.6458059549331665
time_elpased: 1.989
#iterations: 66
currently lose_sum: 0.6856323480606079
time_elpased: 1.994
#iterations: 67
currently lose_sum: 0.6358645558357239
time_elpased: 1.94
#iterations: 68
currently lose_sum: 0.6302735805511475
time_elpased: 1.934
#iterations: 69
currently lose_sum: 0.672450840473175
time_elpased: 1.898
#iterations: 70
currently lose_sum: 0.6180188655853271
time_elpased: 2.013
#iterations: 71
currently lose_sum: 0.6291149258613586
time_elpased: 1.936
#iterations: 72
currently lose_sum: 0.6588693261146545
time_elpased: 1.961
#iterations: 73
currently lose_sum: 0.6531826257705688
time_elpased: 1.976
#iterations: 74
currently lose_sum: 0.6179142594337463
time_elpased: 1.943
#iterations: 75
currently lose_sum: 0.6844165325164795
time_elpased: 2.008
#iterations: 76
currently lose_sum: 0.6652948260307312
time_elpased: 1.922
#iterations: 77
currently lose_sum: 0.7155572772026062
time_elpased: 1.968
#iterations: 78
currently lose_sum: 0.6588459014892578
time_elpased: 1.931
#iterations: 79
currently lose_sum: 0.6254826188087463
time_elpased: 1.976
start validation test
0.6332
0.687768240343
0.50591949487
0.582992269213
0.634954881255
16.158
#iterations: 80
currently lose_sum: 0.6385692358016968
time_elpased: 1.992
#iterations: 81
currently lose_sum: 0.6188554763793945
time_elpased: 2.003
#iterations: 82
currently lose_sum: 0.6266591548919678
time_elpased: 1.971
#iterations: 83
currently lose_sum: 0.6253973245620728
time_elpased: 1.957
#iterations: 84
currently lose_sum: 0.6135185360908508
time_elpased: 1.93
#iterations: 85
currently lose_sum: 0.6228220462799072
time_elpased: 1.979
#iterations: 86
currently lose_sum: 0.583577036857605
time_elpased: 1.935
#iterations: 87
currently lose_sum: 0.625091016292572
time_elpased: 1.918
#iterations: 88
currently lose_sum: 0.627082347869873
time_elpased: 1.935
#iterations: 89
currently lose_sum: 0.7064647078514099
time_elpased: 1.909
#iterations: 90
currently lose_sum: 0.6675350666046143
time_elpased: 1.905
#iterations: 91
currently lose_sum: 0.5721986293792725
time_elpased: 2.08
#iterations: 92
currently lose_sum: 0.6765983700752258
time_elpased: 2.002
#iterations: 93
currently lose_sum: 0.6204803586006165
time_elpased: 1.922
#iterations: 94
currently lose_sum: 0.7197263836860657
time_elpased: 1.928
#iterations: 95
currently lose_sum: 0.600608229637146
time_elpased: 1.954
#iterations: 96
currently lose_sum: 0.6751654148101807
time_elpased: 1.938
#iterations: 97
currently lose_sum: 0.5921751260757446
time_elpased: 1.962
#iterations: 98
currently lose_sum: 0.6210912466049194
time_elpased: 1.935
#iterations: 99
currently lose_sum: 0.5760881900787354
time_elpased: 1.925
start validation test
0.6188
0.733630952381
0.38910812944
0.508509541001
0.621966878994
16.389
#iterations: 100
currently lose_sum: 0.6469520330429077
time_elpased: 1.952
#iterations: 101
currently lose_sum: 0.5667654275894165
time_elpased: 2.047
#iterations: 102
currently lose_sum: 0.6739663481712341
time_elpased: 1.912
#iterations: 103
currently lose_sum: 0.6875492930412292
time_elpased: 1.92
#iterations: 104
currently lose_sum: 0.6485048532485962
time_elpased: 2.008
#iterations: 105
currently lose_sum: 0.6326329708099365
time_elpased: 1.977
#iterations: 106
currently lose_sum: 0.6264668107032776
time_elpased: 1.937
#iterations: 107
currently lose_sum: 0.6027848720550537
time_elpased: 1.964
#iterations: 108
currently lose_sum: 0.632294774055481
time_elpased: 1.996
#iterations: 109
currently lose_sum: 0.5937453508377075
time_elpased: 1.967
#iterations: 110
currently lose_sum: 0.615322470664978
time_elpased: 1.939
#iterations: 111
currently lose_sum: 0.618625283241272
time_elpased: 1.938
#iterations: 112
currently lose_sum: 0.6467707753181458
time_elpased: 1.938
#iterations: 113
currently lose_sum: 0.6056621074676514
time_elpased: 1.967
#iterations: 114
currently lose_sum: 0.5913481712341309
time_elpased: 2.044
#iterations: 115
currently lose_sum: 0.5794988870620728
time_elpased: 1.943
#iterations: 116
currently lose_sum: 0.6239386200904846
time_elpased: 2.009
#iterations: 117
currently lose_sum: 0.628711462020874
time_elpased: 1.942
#iterations: 118
currently lose_sum: 0.5370104908943176
time_elpased: 1.953
#iterations: 119
currently lose_sum: 0.6466426253318787
time_elpased: 1.918
start validation test
0.6608
0.642033898305
0.747434885556
0.690736688549
0.659605520637
15.239
#iterations: 120
currently lose_sum: 0.6268822550773621
time_elpased: 1.949
#iterations: 121
currently lose_sum: 0.5893657207489014
time_elpased: 1.999
#iterations: 122
currently lose_sum: 0.6104801297187805
time_elpased: 1.97
#iterations: 123
currently lose_sum: 0.6138797402381897
time_elpased: 1.912
#iterations: 124
currently lose_sum: 0.6179201602935791
time_elpased: 1.935
#iterations: 125
currently lose_sum: 0.7137653827667236
time_elpased: 2.007
#iterations: 126
currently lose_sum: 0.5841765403747559
time_elpased: 1.933
#iterations: 127
currently lose_sum: 0.6429982781410217
time_elpased: 1.958
#iterations: 128
currently lose_sum: 0.5445422530174255
time_elpased: 1.907
#iterations: 129
currently lose_sum: 0.5585581064224243
time_elpased: 1.927
#iterations: 130
currently lose_sum: 0.6127520799636841
time_elpased: 1.944
#iterations: 131
currently lose_sum: 0.49186745285987854
time_elpased: 1.958
#iterations: 132
currently lose_sum: 0.6040502786636353
time_elpased: 1.938
#iterations: 133
currently lose_sum: 0.6569791436195374
time_elpased: 1.946
#iterations: 134
currently lose_sum: 0.7309951186180115
time_elpased: 1.943
#iterations: 135
currently lose_sum: 0.6151337623596191
time_elpased: 1.98
#iterations: 136
currently lose_sum: 0.6369819045066833
time_elpased: 1.925
#iterations: 137
currently lose_sum: 0.5786111950874329
time_elpased: 1.952
#iterations: 138
currently lose_sum: 0.539299726486206
time_elpased: 1.964
#iterations: 139
currently lose_sum: 0.578076958656311
time_elpased: 1.927
start validation test
0.6624
0.734219269103
0.523283346488
0.611059907834
0.664318072271
15.385
#iterations: 140
currently lose_sum: 0.5808849930763245
time_elpased: 1.974
#iterations: 141
currently lose_sum: 0.5843062400817871
time_elpased: 1.952
#iterations: 142
currently lose_sum: 0.5944235324859619
time_elpased: 1.946
#iterations: 143
currently lose_sum: 0.5619747042655945
time_elpased: 1.983
#iterations: 144
currently lose_sum: 0.5689958930015564
time_elpased: 1.973
#iterations: 145
currently lose_sum: 0.6034794449806213
time_elpased: 1.922
#iterations: 146
currently lose_sum: 0.5153892040252686
time_elpased: 1.924
#iterations: 147
currently lose_sum: 0.5393204092979431
time_elpased: 1.933
#iterations: 148
currently lose_sum: 0.49311619997024536
time_elpased: 1.91
#iterations: 149
currently lose_sum: 0.6011661291122437
time_elpased: 1.986
#iterations: 150
currently lose_sum: 0.640574038028717
time_elpased: 1.927
#iterations: 151
currently lose_sum: 0.5778288841247559
time_elpased: 1.899
#iterations: 152
currently lose_sum: 0.6013774871826172
time_elpased: 1.944
#iterations: 153
currently lose_sum: 0.5774445533752441
time_elpased: 1.996
#iterations: 154
currently lose_sum: 0.5729175806045532
time_elpased: 2.001
#iterations: 155
currently lose_sum: 0.6313823461532593
time_elpased: 1.928
#iterations: 156
currently lose_sum: 0.6135790348052979
time_elpased: 1.934
#iterations: 157
currently lose_sum: 0.5569506287574768
time_elpased: 1.896
#iterations: 158
currently lose_sum: 0.5272842645645142
time_elpased: 1.926
#iterations: 159
currently lose_sum: 0.6154178380966187
time_elpased: 1.923
start validation test
0.6696
0.746920492721
0.526440410418
0.617592592593
0.671573814293
15.239
#iterations: 160
currently lose_sum: 0.5826889276504517
time_elpased: 1.92
#iterations: 161
currently lose_sum: 0.572063684463501
time_elpased: 1.988
#iterations: 162
currently lose_sum: 0.555310070514679
time_elpased: 1.981
#iterations: 163
currently lose_sum: 0.6122215390205383
time_elpased: 1.911
#iterations: 164
currently lose_sum: 0.6715023517608643
time_elpased: 2.173
#iterations: 165
currently lose_sum: 0.5777873396873474
time_elpased: 1.919
#iterations: 166
currently lose_sum: 0.5490446090698242
time_elpased: 1.936
#iterations: 167
currently lose_sum: 0.5400751233100891
time_elpased: 1.967
#iterations: 168
currently lose_sum: 0.7177029252052307
time_elpased: 1.959
#iterations: 169
currently lose_sum: 0.5953704714775085
time_elpased: 1.913
#iterations: 170
currently lose_sum: 0.6300714612007141
time_elpased: 1.984
#iterations: 171
currently lose_sum: 0.6668042540550232
time_elpased: 1.912
#iterations: 172
currently lose_sum: 0.5689200758934021
time_elpased: 2.017
#iterations: 173
currently lose_sum: 0.6343764662742615
time_elpased: 1.916
#iterations: 174
currently lose_sum: 0.6345483064651489
time_elpased: 1.897
#iterations: 175
currently lose_sum: 0.6061082482337952
time_elpased: 1.917
#iterations: 176
currently lose_sum: 0.62501460313797
time_elpased: 1.92
#iterations: 177
currently lose_sum: 0.5305960178375244
time_elpased: 1.932
#iterations: 178
currently lose_sum: 0.5218339562416077
time_elpased: 2.006
#iterations: 179
currently lose_sum: 0.5969923734664917
time_elpased: 1.968
start validation test
0.6824
0.761325966851
0.543804262036
0.634438305709
0.684310890142
14.962
#iterations: 180
currently lose_sum: 0.6063744425773621
time_elpased: 2.013
#iterations: 181
currently lose_sum: 0.6034253835678101
time_elpased: 1.891
#iterations: 182
currently lose_sum: 0.620257556438446
time_elpased: 1.966
#iterations: 183
currently lose_sum: 0.5632683038711548
time_elpased: 1.943
#iterations: 184
currently lose_sum: 0.557666003704071
time_elpased: 1.935
#iterations: 185
currently lose_sum: 0.5626944303512573
time_elpased: 1.927
#iterations: 186
currently lose_sum: 0.5334300398826599
time_elpased: 1.918
#iterations: 187
currently lose_sum: 0.6357439160346985
time_elpased: 1.947
#iterations: 188
currently lose_sum: 0.5873146057128906
time_elpased: 1.941
#iterations: 189
currently lose_sum: 0.5510490536689758
time_elpased: 1.945
#iterations: 190
currently lose_sum: 0.5054022073745728
time_elpased: 1.972
#iterations: 191
currently lose_sum: 0.5882198810577393
time_elpased: 1.965
#iterations: 192
currently lose_sum: 0.558219850063324
time_elpased: 1.999
#iterations: 193
currently lose_sum: 0.651613175868988
time_elpased: 1.89
#iterations: 194
currently lose_sum: 0.5483530163764954
time_elpased: 1.983
#iterations: 195
currently lose_sum: 0.5726383328437805
time_elpased: 1.926
#iterations: 196
currently lose_sum: 0.6335750818252563
time_elpased: 1.915
#iterations: 197
currently lose_sum: 0.5394337177276611
time_elpased: 1.964
#iterations: 198
currently lose_sum: 0.6938068866729736
time_elpased: 2.019
#iterations: 199
currently lose_sum: 0.5548073649406433
time_elpased: 1.888
start validation test
0.69
0.694312796209
0.693764798737
0.694038689301
0.689948092799
14.846
#iterations: 200
currently lose_sum: 0.5555310249328613
time_elpased: 1.943
#iterations: 201
currently lose_sum: 0.624115526676178
time_elpased: 1.906
#iterations: 202
currently lose_sum: 0.5906116962432861
time_elpased: 1.937
#iterations: 203
currently lose_sum: 0.5486571788787842
time_elpased: 1.925
#iterations: 204
currently lose_sum: 0.5641328692436218
time_elpased: 1.996
#iterations: 205
currently lose_sum: 0.5593060851097107
time_elpased: 1.973
#iterations: 206
currently lose_sum: 0.5104026794433594
time_elpased: 1.95
#iterations: 207
currently lose_sum: 0.6269747614860535
time_elpased: 2.141
#iterations: 208
currently lose_sum: 0.6441500782966614
time_elpased: 1.962
#iterations: 209
currently lose_sum: 0.5793866515159607
time_elpased: 1.926
#iterations: 210
currently lose_sum: 0.5259665846824646
time_elpased: 2.003
#iterations: 211
currently lose_sum: 0.5533256530761719
time_elpased: 1.936
#iterations: 212
currently lose_sum: 0.6217920184135437
time_elpased: 1.936
#iterations: 213
currently lose_sum: 0.48294541239738464
time_elpased: 1.921
#iterations: 214
currently lose_sum: 0.6423546075820923
time_elpased: 1.958
#iterations: 215
currently lose_sum: 0.5841301679611206
time_elpased: 1.939
#iterations: 216
currently lose_sum: 0.6081785559654236
time_elpased: 1.945
#iterations: 217
currently lose_sum: 0.589489221572876
time_elpased: 1.913
#iterations: 218
currently lose_sum: 0.6191818714141846
time_elpased: 2.077
#iterations: 219
currently lose_sum: 0.604206383228302
time_elpased: 1.919
start validation test
0.6876
0.765864332604
0.552486187845
0.641907381935
0.689462883055
15.106
#iterations: 220
currently lose_sum: 0.5692704916000366
time_elpased: 2.031
#iterations: 221
currently lose_sum: 0.6305313110351562
time_elpased: 2.013
#iterations: 222
currently lose_sum: 0.6155568957328796
time_elpased: 1.928
#iterations: 223
currently lose_sum: 0.6167057156562805
time_elpased: 1.931
#iterations: 224
currently lose_sum: 0.5609567165374756
time_elpased: 1.935
#iterations: 225
currently lose_sum: 0.5830786228179932
time_elpased: 1.95
#iterations: 226
currently lose_sum: 0.6288511753082275
time_elpased: 1.909
#iterations: 227
currently lose_sum: 0.5928624868392944
time_elpased: 1.961
#iterations: 228
currently lose_sum: 0.603515625
time_elpased: 1.944
#iterations: 229
currently lose_sum: 0.579938530921936
time_elpased: 1.935
#iterations: 230
currently lose_sum: 0.5421686768531799
time_elpased: 1.972
#iterations: 231
currently lose_sum: 0.6238380670547485
time_elpased: 1.879
#iterations: 232
currently lose_sum: 0.6011282205581665
time_elpased: 1.982
#iterations: 233
currently lose_sum: 0.5383865237236023
time_elpased: 1.929
#iterations: 234
currently lose_sum: 0.5562492609024048
time_elpased: 1.958
#iterations: 235
currently lose_sum: 0.5528266429901123
time_elpased: 1.93
#iterations: 236
currently lose_sum: 0.5331833958625793
time_elpased: 1.927
#iterations: 237
currently lose_sum: 0.5529798269271851
time_elpased: 1.933
#iterations: 238
currently lose_sum: 0.5322297811508179
time_elpased: 1.941
#iterations: 239
currently lose_sum: 0.5540099143981934
time_elpased: 2.059
start validation test
0.6808
0.66028708134
0.762430939227
0.707692307692
0.679674512598
15.079
#iterations: 240
currently lose_sum: 0.63162761926651
time_elpased: 1.978
#iterations: 241
currently lose_sum: 0.4946271777153015
time_elpased: 1.983
#iterations: 242
currently lose_sum: 0.5938315391540527
time_elpased: 1.953
#iterations: 243
currently lose_sum: 0.594316303730011
time_elpased: 2.027
#iterations: 244
currently lose_sum: 0.5852071642875671
time_elpased: 1.913
#iterations: 245
currently lose_sum: 0.5526490807533264
time_elpased: 1.929
#iterations: 246
currently lose_sum: 0.6215841174125671
time_elpased: 1.925
#iterations: 247
currently lose_sum: 0.5270184278488159
time_elpased: 1.918
#iterations: 248
currently lose_sum: 0.6154801845550537
time_elpased: 2.064
#iterations: 249
currently lose_sum: 0.5219204425811768
time_elpased: 1.993
#iterations: 250
currently lose_sum: 0.6006244421005249
time_elpased: 1.963
#iterations: 251
currently lose_sum: 0.5278193950653076
time_elpased: 1.933
#iterations: 252
currently lose_sum: 0.7677492499351501
time_elpased: 1.939
#iterations: 253
currently lose_sum: 0.6302589178085327
time_elpased: 1.996
#iterations: 254
currently lose_sum: 0.4861559569835663
time_elpased: 1.941
#iterations: 255
currently lose_sum: 0.505283534526825
time_elpased: 1.945
#iterations: 256
currently lose_sum: 0.5351319909095764
time_elpased: 1.916
#iterations: 257
currently lose_sum: 0.6175587177276611
time_elpased: 1.961
#iterations: 258
currently lose_sum: 0.6143194437026978
time_elpased: 1.969
#iterations: 259
currently lose_sum: 0.4968339502811432
time_elpased: 1.913
start validation test
0.6976
0.689399555226
0.734017363852
0.711009174312
0.697097895227
14.468
#iterations: 260
currently lose_sum: 0.5721080899238586
time_elpased: 1.96
#iterations: 261
currently lose_sum: 0.5891575813293457
time_elpased: 1.995
#iterations: 262
currently lose_sum: 0.5315069556236267
time_elpased: 1.962
#iterations: 263
currently lose_sum: 0.4537014663219452
time_elpased: 1.928
#iterations: 264
currently lose_sum: 0.5670269131660461
time_elpased: 1.936
#iterations: 265
currently lose_sum: 0.5037471055984497
time_elpased: 1.937
#iterations: 266
currently lose_sum: 0.5567148327827454
time_elpased: 1.987
#iterations: 267
currently lose_sum: 0.5351300239562988
time_elpased: 1.922
#iterations: 268
currently lose_sum: 0.5362954139709473
time_elpased: 1.915
#iterations: 269
currently lose_sum: 0.6321892142295837
time_elpased: 1.978
#iterations: 270
currently lose_sum: 0.5573054552078247
time_elpased: 1.942
#iterations: 271
currently lose_sum: 0.5321980714797974
time_elpased: 1.95
#iterations: 272
currently lose_sum: 0.5892536640167236
time_elpased: 1.94
#iterations: 273
currently lose_sum: 0.530646562576294
time_elpased: 1.958
#iterations: 274
currently lose_sum: 0.5925679206848145
time_elpased: 1.985
#iterations: 275
currently lose_sum: 0.648571789264679
time_elpased: 1.967
#iterations: 276
currently lose_sum: 0.5496315956115723
time_elpased: 1.902
#iterations: 277
currently lose_sum: 0.5442236661911011
time_elpased: 1.99
#iterations: 278
currently lose_sum: 0.5396432280540466
time_elpased: 1.907
#iterations: 279
currently lose_sum: 0.5798606872558594
time_elpased: 1.987
start validation test
0.6936
0.663405088063
0.802683504341
0.726428571429
0.692096010078
14.450
#iterations: 280
currently lose_sum: 0.5854927897453308
time_elpased: 1.882
#iterations: 281
currently lose_sum: 0.5431792140007019
time_elpased: 1.932
#iterations: 282
currently lose_sum: 0.6121714115142822
time_elpased: 1.933
#iterations: 283
currently lose_sum: 0.5096068382263184
time_elpased: 1.979
#iterations: 284
currently lose_sum: 0.529438853263855
time_elpased: 2.061
#iterations: 285
currently lose_sum: 0.532760739326477
time_elpased: 2.212
#iterations: 286
currently lose_sum: 0.5774198770523071
time_elpased: 2.126
#iterations: 287
currently lose_sum: 0.567028284072876
time_elpased: 2.135
#iterations: 288
currently lose_sum: 0.5943296551704407
time_elpased: 2.142
#iterations: 289
currently lose_sum: 0.48254695534706116
time_elpased: 2.154
#iterations: 290
currently lose_sum: 0.5750604867935181
time_elpased: 2.176
#iterations: 291
currently lose_sum: 0.5307783484458923
time_elpased: 2.143
#iterations: 292
currently lose_sum: 0.5433772802352905
time_elpased: 2.225
#iterations: 293
currently lose_sum: 0.5078932046890259
time_elpased: 2.237
#iterations: 294
currently lose_sum: 0.720491349697113
time_elpased: 2.2
#iterations: 295
currently lose_sum: 0.474051296710968
time_elpased: 2.328
#iterations: 296
currently lose_sum: 0.6201333403587341
time_elpased: 2.285
#iterations: 297
currently lose_sum: 0.54886794090271
time_elpased: 2.188
#iterations: 298
currently lose_sum: 0.5580922961235046
time_elpased: 2.192
#iterations: 299
currently lose_sum: 0.6200989484786987
time_elpased: 2.161
start validation test
0.6696
0.759717314488
0.5090765588
0.609640831758
0.671813218573
14.808
#iterations: 300
currently lose_sum: 0.5796560645103455
time_elpased: 2.227
#iterations: 301
currently lose_sum: 0.7513312697410583
time_elpased: 2.206
#iterations: 302
currently lose_sum: 0.49894431233406067
time_elpased: 2.051
#iterations: 303
currently lose_sum: 0.5799533724784851
time_elpased: 2.275
#iterations: 304
currently lose_sum: 0.5541523098945618
time_elpased: 2.99
#iterations: 305
currently lose_sum: 0.5318371653556824
time_elpased: 3.469
#iterations: 306
currently lose_sum: 0.494983971118927
time_elpased: 2.975
#iterations: 307
currently lose_sum: 0.5605678558349609
time_elpased: 3.395
#iterations: 308
currently lose_sum: 0.5431903600692749
time_elpased: 3.331
#iterations: 309
currently lose_sum: 0.5956659913063049
time_elpased: 3.163
#iterations: 310
currently lose_sum: 0.5263769030570984
time_elpased: 3.353
#iterations: 311
currently lose_sum: 0.5021302700042725
time_elpased: 3.436
#iterations: 312
currently lose_sum: 0.5545355081558228
time_elpased: 3.024
#iterations: 313
currently lose_sum: 0.5222920179367065
time_elpased: 3.543
#iterations: 314
currently lose_sum: 0.5111672878265381
time_elpased: 3.377
#iterations: 315
currently lose_sum: 0.5366455912590027
time_elpased: 3.172
#iterations: 316
currently lose_sum: 0.5125632286071777
time_elpased: 3.442
#iterations: 317
currently lose_sum: 0.5687299966812134
time_elpased: 3.266
#iterations: 318
currently lose_sum: 0.5137122273445129
time_elpased: 2.925
#iterations: 319
currently lose_sum: 0.6007591485977173
time_elpased: 2.735
start validation test
0.676
0.749726775956
0.541436464088
0.628780934922
0.677855296116
15.075
#iterations: 320
currently lose_sum: 0.49568212032318115
time_elpased: 2.599
#iterations: 321
currently lose_sum: 0.5231755375862122
time_elpased: 2.511
#iterations: 322
currently lose_sum: 0.5322308540344238
time_elpased: 2.447
#iterations: 323
currently lose_sum: 0.557456374168396
time_elpased: 2.711
#iterations: 324
currently lose_sum: 0.5942032337188721
time_elpased: 3.473
#iterations: 325
currently lose_sum: 0.5241239666938782
time_elpased: 3.606
#iterations: 326
currently lose_sum: 0.5138765573501587
time_elpased: 3.456
#iterations: 327
currently lose_sum: 0.5104970335960388
time_elpased: 3.311
#iterations: 328
currently lose_sum: 0.5154060125350952
time_elpased: 3.469
#iterations: 329
currently lose_sum: 0.5547685027122498
time_elpased: 3.354
#iterations: 330
currently lose_sum: 0.5105040669441223
time_elpased: 3.049
#iterations: 331
currently lose_sum: 0.5981086492538452
time_elpased: 2.387
#iterations: 332
currently lose_sum: 0.5435782670974731
time_elpased: 2.545
#iterations: 333
currently lose_sum: 0.5433564782142639
time_elpased: 2.98
#iterations: 334
currently lose_sum: 0.538712739944458
time_elpased: 3.093
#iterations: 335
currently lose_sum: 0.4678143560886383
time_elpased: 2.581
#iterations: 336
currently lose_sum: 0.6006013751029968
time_elpased: 2.473
#iterations: 337
currently lose_sum: 0.4692007005214691
time_elpased: 2.515
#iterations: 338
currently lose_sum: 0.6394336223602295
time_elpased: 2.533
#iterations: 339
currently lose_sum: 0.5127623677253723
time_elpased: 2.422
start validation test
0.6688
0.814020028612
0.44909234412
0.578840284842
0.671829221533
15.555
#iterations: 340
currently lose_sum: 0.5648954510688782
time_elpased: 2.43
#iterations: 341
currently lose_sum: 0.4737662374973297
time_elpased: 2.356
#iterations: 342
currently lose_sum: 0.5209821462631226
time_elpased: 2.041
#iterations: 343
currently lose_sum: 0.5592083930969238
time_elpased: 2.017
#iterations: 344
currently lose_sum: 0.5866929888725281
time_elpased: 2.018
#iterations: 345
currently lose_sum: 0.547973096370697
time_elpased: 2.009
#iterations: 346
currently lose_sum: 0.5572252869606018
time_elpased: 1.95
#iterations: 347
currently lose_sum: 0.5051429271697998
time_elpased: 1.974
#iterations: 348
currently lose_sum: 0.6888470649719238
time_elpased: 2.014
#iterations: 349
currently lose_sum: 0.4890933334827423
time_elpased: 2.01
#iterations: 350
currently lose_sum: 0.5749257802963257
time_elpased: 2.047
#iterations: 351
currently lose_sum: 0.4956531822681427
time_elpased: 1.949
#iterations: 352
currently lose_sum: 0.5325666069984436
time_elpased: 1.972
#iterations: 353
currently lose_sum: 0.5425874590873718
time_elpased: 1.964
#iterations: 354
currently lose_sum: 0.530210554599762
time_elpased: 2.066
#iterations: 355
currently lose_sum: 0.3970451354980469
time_elpased: 1.997
#iterations: 356
currently lose_sum: 0.5746062397956848
time_elpased: 1.962
#iterations: 357
currently lose_sum: 0.5786970257759094
time_elpased: 1.929
#iterations: 358
currently lose_sum: 0.48715656995773315
time_elpased: 1.935
#iterations: 359
currently lose_sum: 0.557067334651947
time_elpased: 1.904
start validation test
0.6956
0.759753593429
0.584056827151
0.6604194556
0.697137902626
14.278
#iterations: 360
currently lose_sum: 0.5130336284637451
time_elpased: 1.931
#iterations: 361
currently lose_sum: 0.45729655027389526
time_elpased: 1.959
#iterations: 362
currently lose_sum: 0.5820947289466858
time_elpased: 1.939
#iterations: 363
currently lose_sum: 0.5065178871154785
time_elpased: 1.962
#iterations: 364
currently lose_sum: 0.5034570097923279
time_elpased: 2.045
#iterations: 365
currently lose_sum: 0.5419284701347351
time_elpased: 1.939
#iterations: 366
currently lose_sum: 0.567329466342926
time_elpased: 1.934
#iterations: 367
currently lose_sum: 0.6409698724746704
time_elpased: 1.93
#iterations: 368
currently lose_sum: 0.4667523205280304
time_elpased: 1.932
#iterations: 369
currently lose_sum: 0.5227401256561279
time_elpased: 1.938
#iterations: 370
currently lose_sum: 0.5244239568710327
time_elpased: 2.043
#iterations: 371
currently lose_sum: 0.509265124797821
time_elpased: 1.944
#iterations: 372
currently lose_sum: 0.5963131189346313
time_elpased: 2.051
#iterations: 373
currently lose_sum: 0.49272942543029785
time_elpased: 2.898
#iterations: 374
currently lose_sum: 0.5242922902107239
time_elpased: 3.52
#iterations: 375
currently lose_sum: 0.600448727607727
time_elpased: 2.895
#iterations: 376
currently lose_sum: 0.5447340607643127
time_elpased: 3.407
#iterations: 377
currently lose_sum: 0.4658765494823456
time_elpased: 3.185
#iterations: 378
currently lose_sum: 0.4558943808078766
time_elpased: 3.213
#iterations: 379
currently lose_sum: 0.48685288429260254
time_elpased: 3.449
start validation test
0.7088
0.694304253785
0.760063141279
0.72569706104
0.70809320892
13.894
#iterations: 380
currently lose_sum: 0.5316897034645081
time_elpased: 3.091
#iterations: 381
currently lose_sum: 0.523714542388916
time_elpased: 3.216
#iterations: 382
currently lose_sum: 0.5069261789321899
time_elpased: 2.997
#iterations: 383
currently lose_sum: 0.5165467262268066
time_elpased: 3.203
#iterations: 384
currently lose_sum: 0.5087867975234985
time_elpased: 3.15
#iterations: 385
currently lose_sum: 0.414541631937027
time_elpased: 2.78
#iterations: 386
currently lose_sum: 0.4809379577636719
time_elpased: 2.949
#iterations: 387
currently lose_sum: 0.5156656503677368
time_elpased: 2.708
#iterations: 388
currently lose_sum: 0.5986056327819824
time_elpased: 2.549
#iterations: 389
currently lose_sum: 0.5977575778961182
time_elpased: 2.497
#iterations: 390
currently lose_sum: 0.4382755160331726
time_elpased: 2.568
#iterations: 391
currently lose_sum: 0.5997124910354614
time_elpased: 2.658
#iterations: 392
currently lose_sum: 0.5250683426856995
time_elpased: 3.571
#iterations: 393
currently lose_sum: 0.5322379469871521
time_elpased: 2.983
#iterations: 394
currently lose_sum: 0.5457815527915955
time_elpased: 3.345
#iterations: 395
currently lose_sum: 0.5013514161109924
time_elpased: 3.155
#iterations: 396
currently lose_sum: 0.46558091044425964
time_elpased: 3.098
#iterations: 397
currently lose_sum: 0.48808524012565613
time_elpased: 2.976
#iterations: 398
currently lose_sum: 0.5459173917770386
time_elpased: 2.981
#iterations: 399
currently lose_sum: 0.5479192137718201
time_elpased: 3.061
start validation test
0.6836
0.780660377358
0.522494080505
0.626004728132
0.685821249498
15.280
#iterations: 400
currently lose_sum: 0.5986641645431519
time_elpased: 3.25
#iterations: 401
currently lose_sum: 0.6515893340110779
time_elpased: 3.431
#iterations: 402
currently lose_sum: 0.5905598998069763
time_elpased: 3.173
#iterations: 403
currently lose_sum: 0.6420405507087708
time_elpased: 2.724
#iterations: 404
currently lose_sum: 0.4886574447154999
time_elpased: 2.778
#iterations: 405
currently lose_sum: 0.615431547164917
time_elpased: 2.39
#iterations: 406
currently lose_sum: 0.4951203465461731
time_elpased: 2.408
#iterations: 407
currently lose_sum: 0.5564121007919312
time_elpased: 2.199
#iterations: 408
currently lose_sum: 0.5302963852882385
time_elpased: 2.158
#iterations: 409
currently lose_sum: 0.47821640968322754
time_elpased: 1.917
#iterations: 410
currently lose_sum: 0.5922688841819763
time_elpased: 1.987
#iterations: 411
currently lose_sum: 0.7061331272125244
time_elpased: 1.964
#iterations: 412
currently lose_sum: 0.5314343571662903
time_elpased: 1.915
#iterations: 413
currently lose_sum: 0.4767012894153595
time_elpased: 1.972
#iterations: 414
currently lose_sum: 0.5271150469779968
time_elpased: 1.942
#iterations: 415
currently lose_sum: 0.5944824814796448
time_elpased: 2.002
#iterations: 416
currently lose_sum: 0.49249541759490967
time_elpased: 2.001
#iterations: 417
currently lose_sum: 0.4831826090812683
time_elpased: 1.997
#iterations: 418
currently lose_sum: 0.48440277576446533
time_elpased: 1.942
#iterations: 419
currently lose_sum: 0.4963437616825104
time_elpased: 2.035
start validation test
0.714
0.728855721393
0.693764798737
0.710877476749
0.714278993043
14.372
#iterations: 420
currently lose_sum: 0.46721482276916504
time_elpased: 2.009
#iterations: 421
currently lose_sum: 0.44130173325538635
time_elpased: 1.936
#iterations: 422
currently lose_sum: 0.5100916624069214
time_elpased: 1.904
#iterations: 423
currently lose_sum: 0.47911593317985535
time_elpased: 1.936
#iterations: 424
currently lose_sum: 0.505719780921936
time_elpased: 1.936
#iterations: 425
currently lose_sum: 0.6949257850646973
time_elpased: 1.961
#iterations: 426
currently lose_sum: 0.5839971303939819
time_elpased: 1.912
#iterations: 427
currently lose_sum: 0.4826042056083679
time_elpased: 1.937
#iterations: 428
currently lose_sum: 0.48446494340896606
time_elpased: 1.906
#iterations: 429
currently lose_sum: 0.5986078381538391
time_elpased: 1.93
#iterations: 430
currently lose_sum: 0.5993752479553223
time_elpased: 1.951
#iterations: 431
currently lose_sum: 0.4622670114040375
time_elpased: 1.946
#iterations: 432
currently lose_sum: 0.5105218291282654
time_elpased: 1.927
#iterations: 433
currently lose_sum: 0.6497024297714233
time_elpased: 1.893
#iterations: 434
currently lose_sum: 0.446752667427063
time_elpased: 1.953
#iterations: 435
currently lose_sum: 0.4494801461696625
time_elpased: 1.977
#iterations: 436
currently lose_sum: 0.6110491752624512
time_elpased: 1.913
#iterations: 437
currently lose_sum: 0.517733633518219
time_elpased: 1.957
#iterations: 438
currently lose_sum: 0.4686715006828308
time_elpased: 1.924
#iterations: 439
currently lose_sum: 0.5513120293617249
time_elpased: 1.988
start validation test
0.71
0.748623853211
0.644041041831
0.692405600339
0.710909409804
13.901
#iterations: 440
currently lose_sum: 0.5002907514572144
time_elpased: 1.917
#iterations: 441
currently lose_sum: 0.47414612770080566
time_elpased: 1.963
#iterations: 442
currently lose_sum: 0.6328302621841431
time_elpased: 1.938
#iterations: 443
currently lose_sum: 0.5750516057014465
time_elpased: 2.015
#iterations: 444
currently lose_sum: 0.5521370768547058
time_elpased: 1.9
#iterations: 445
currently lose_sum: 0.5047999024391174
time_elpased: 1.959
#iterations: 446
currently lose_sum: 0.5170959234237671
time_elpased: 1.976
#iterations: 447
currently lose_sum: 0.5408907532691956
time_elpased: 1.96
#iterations: 448
currently lose_sum: 0.45734626054763794
time_elpased: 1.942
#iterations: 449
currently lose_sum: 0.47256287932395935
time_elpased: 1.94
#iterations: 450
currently lose_sum: 0.56009441614151
time_elpased: 1.984
#iterations: 451
currently lose_sum: 0.49462929368019104
time_elpased: 1.925
#iterations: 452
currently lose_sum: 0.4441765248775482
time_elpased: 1.945
#iterations: 453
currently lose_sum: 0.48220276832580566
time_elpased: 1.946
#iterations: 454
currently lose_sum: 0.5452195405960083
time_elpased: 1.912
#iterations: 455
currently lose_sum: 0.5665192604064941
time_elpased: 1.967
#iterations: 456
currently lose_sum: 0.4591916799545288
time_elpased: 1.963
#iterations: 457
currently lose_sum: 0.5374428629875183
time_elpased: 1.946
#iterations: 458
currently lose_sum: 0.49239951372146606
time_elpased: 1.981
#iterations: 459
currently lose_sum: 0.5718497633934021
time_elpased: 1.997
start validation test
0.6908
0.64861612515
0.850828729282
0.736087401844
0.688593602273
15.024
#iterations: 460
currently lose_sum: 0.4313596785068512
time_elpased: 1.917
#iterations: 461
currently lose_sum: 0.48115530610084534
time_elpased: 1.923
#iterations: 462
currently lose_sum: 0.49925026297569275
time_elpased: 2.026
#iterations: 463
currently lose_sum: 0.5223528146743774
time_elpased: 1.988
#iterations: 464
currently lose_sum: 0.6663545370101929
time_elpased: 1.943
#iterations: 465
currently lose_sum: 0.5331849455833435
time_elpased: 2.034
#iterations: 466
currently lose_sum: 0.5123801827430725
time_elpased: 2.036
#iterations: 467
currently lose_sum: 0.5138062834739685
time_elpased: 1.967
#iterations: 468
currently lose_sum: 0.5810112953186035
time_elpased: 1.994
#iterations: 469
currently lose_sum: 0.5609003305435181
time_elpased: 2.068
#iterations: 470
currently lose_sum: 0.5140543580055237
time_elpased: 1.938
#iterations: 471
currently lose_sum: 0.4014125168323517
time_elpased: 1.972
#iterations: 472
currently lose_sum: 0.4630705714225769
time_elpased: 1.968
#iterations: 473
currently lose_sum: 0.4985133111476898
time_elpased: 1.976
#iterations: 474
currently lose_sum: 0.4752545952796936
time_elpased: 1.922
#iterations: 475
currently lose_sum: 0.5675671100616455
time_elpased: 1.938
#iterations: 476
currently lose_sum: 0.5287455916404724
time_elpased: 1.902
#iterations: 477
currently lose_sum: 0.5327392816543579
time_elpased: 1.95
#iterations: 478
currently lose_sum: 0.4824488162994385
time_elpased: 1.971
#iterations: 479
currently lose_sum: 0.517427921295166
time_elpased: 1.95
start validation test
0.7076
0.684573002755
0.78453038674
0.731151158514
0.706539321513
14.188
#iterations: 480
currently lose_sum: 0.5023119449615479
time_elpased: 1.964
#iterations: 481
currently lose_sum: 0.4436299204826355
time_elpased: 1.917
#iterations: 482
currently lose_sum: 0.5212368369102478
time_elpased: 1.903
#iterations: 483
currently lose_sum: 0.5405480861663818
time_elpased: 1.977
#iterations: 484
currently lose_sum: 0.508965253829956
time_elpased: 2.008
#iterations: 485
currently lose_sum: 0.5360661149024963
time_elpased: 1.967
#iterations: 486
currently lose_sum: 0.4978867471218109
time_elpased: 1.937
#iterations: 487
currently lose_sum: 0.46678048372268677
time_elpased: 1.947
#iterations: 488
currently lose_sum: 0.49994102120399475
time_elpased: 1.906
#iterations: 489
currently lose_sum: 0.47733595967292786
time_elpased: 1.985
#iterations: 490
currently lose_sum: 0.48276740312576294
time_elpased: 1.921
#iterations: 491
currently lose_sum: 0.5104796886444092
time_elpased: 1.937
#iterations: 492
currently lose_sum: 0.43213680386543274
time_elpased: 1.924
#iterations: 493
currently lose_sum: 0.44828468561172485
time_elpased: 1.985
#iterations: 494
currently lose_sum: 0.4641832411289215
time_elpased: 1.974
#iterations: 495
currently lose_sum: 0.5690294504165649
time_elpased: 1.991
#iterations: 496
currently lose_sum: 0.48162537813186646
time_elpased: 1.96
#iterations: 497
currently lose_sum: 0.44709351658821106
time_elpased: 1.974
#iterations: 498
currently lose_sum: 0.5207867622375488
time_elpased: 2.051
#iterations: 499
currently lose_sum: 0.5357709527015686
time_elpased: 1.923
start validation test
0.7196
0.736227045075
0.696132596685
0.715618661258
0.719923557061
13.728
#iterations: 500
currently lose_sum: 0.4347285330295563
time_elpased: 1.968
#iterations: 501
currently lose_sum: 0.565271258354187
time_elpased: 1.938
#iterations: 502
currently lose_sum: 0.5018396973609924
time_elpased: 2.029
#iterations: 503
currently lose_sum: 0.5305917263031006
time_elpased: 1.942
#iterations: 504
currently lose_sum: 0.4700884521007538
time_elpased: 1.956
#iterations: 505
currently lose_sum: 0.5036432147026062
time_elpased: 1.919
#iterations: 506
currently lose_sum: 0.6847752332687378
time_elpased: 1.921
#iterations: 507
currently lose_sum: 0.5045167803764343
time_elpased: 1.926
#iterations: 508
currently lose_sum: 0.4725247621536255
time_elpased: 1.919
#iterations: 509
currently lose_sum: 0.47123831510543823
time_elpased: 1.927
#iterations: 510
currently lose_sum: 0.5607668161392212
time_elpased: 1.956
#iterations: 511
currently lose_sum: 0.49952125549316406
time_elpased: 1.925
#iterations: 512
currently lose_sum: 0.4968875050544739
time_elpased: 1.944
#iterations: 513
currently lose_sum: 0.5102021098136902
time_elpased: 1.949
#iterations: 514
currently lose_sum: 0.43486031889915466
time_elpased: 1.914
#iterations: 515
currently lose_sum: 0.4580707550048828
time_elpased: 1.94
#iterations: 516
currently lose_sum: 0.4755393862724304
time_elpased: 1.925
#iterations: 517
currently lose_sum: 0.5653036236763
time_elpased: 1.925
#iterations: 518
currently lose_sum: 0.5405835509300232
time_elpased: 1.948
#iterations: 519
currently lose_sum: 0.4459938406944275
time_elpased: 1.921
start validation test
0.7184
0.722529644269
0.721389108129
0.72195892575
0.718358787641
13.782
#iterations: 520
currently lose_sum: 0.43494322896003723
time_elpased: 1.918
#iterations: 521
currently lose_sum: 0.474170982837677
time_elpased: 1.931
#iterations: 522
currently lose_sum: 0.555698812007904
time_elpased: 1.986
#iterations: 523
currently lose_sum: 0.37551677227020264
time_elpased: 1.998
#iterations: 524
currently lose_sum: 0.4240460693836212
time_elpased: 1.921
#iterations: 525
currently lose_sum: 0.5259303450584412
time_elpased: 2.045
#iterations: 526
currently lose_sum: 0.49479806423187256
time_elpased: 1.953
#iterations: 527
currently lose_sum: 0.5299929976463318
time_elpased: 1.959
#iterations: 528
currently lose_sum: 0.5387914180755615
time_elpased: 1.951
#iterations: 529
currently lose_sum: 0.4604344069957733
time_elpased: 1.936
#iterations: 530
currently lose_sum: 0.4682580232620239
time_elpased: 1.953
#iterations: 531
currently lose_sum: 0.45649537444114685
time_elpased: 1.931
#iterations: 532
currently lose_sum: 0.5380538702011108
time_elpased: 1.924
#iterations: 533
currently lose_sum: 0.5203424692153931
time_elpased: 1.937
#iterations: 534
currently lose_sum: 0.46535006165504456
time_elpased: 1.925
#iterations: 535
currently lose_sum: 0.6283539533615112
time_elpased: 1.977
#iterations: 536
currently lose_sum: 0.5171268582344055
time_elpased: 1.912
#iterations: 537
currently lose_sum: 0.4217298924922943
time_elpased: 1.965
#iterations: 538
currently lose_sum: 0.5162202715873718
time_elpased: 1.952
#iterations: 539
currently lose_sum: 0.45699283480644226
time_elpased: 1.95
start validation test
0.7076
0.691977077364
0.762430939227
0.725497559144
0.70684401787
13.959
#iterations: 540
currently lose_sum: 0.6372981667518616
time_elpased: 1.956
#iterations: 541
currently lose_sum: 0.46407586336135864
time_elpased: 2.066
#iterations: 542
currently lose_sum: 0.4163089394569397
time_elpased: 1.953
#iterations: 543
currently lose_sum: 0.5195154547691345
time_elpased: 1.945
#iterations: 544
currently lose_sum: 0.4676744043827057
time_elpased: 1.961
#iterations: 545
currently lose_sum: 0.4481472074985504
time_elpased: 1.957
#iterations: 546
currently lose_sum: 0.46029090881347656
time_elpased: 1.959
#iterations: 547
currently lose_sum: 0.5706008672714233
time_elpased: 1.949
#iterations: 548
currently lose_sum: 0.4713824987411499
time_elpased: 2.062
#iterations: 549
currently lose_sum: 0.496694415807724
time_elpased: 1.945
#iterations: 550
currently lose_sum: 0.42125895619392395
time_elpased: 1.936
#iterations: 551
currently lose_sum: 0.4960256814956665
time_elpased: 1.979
#iterations: 552
currently lose_sum: 0.5051628351211548
time_elpased: 1.971
#iterations: 553
currently lose_sum: 0.5385805368423462
time_elpased: 1.957
#iterations: 554
currently lose_sum: 0.5657322406768799
time_elpased: 1.927
#iterations: 555
currently lose_sum: 0.5428078770637512
time_elpased: 1.973
#iterations: 556
currently lose_sum: 0.44840720295906067
time_elpased: 2.033
#iterations: 557
currently lose_sum: 0.5827538967132568
time_elpased: 2.107
#iterations: 558
currently lose_sum: 0.4941098093986511
time_elpased: 1.959
#iterations: 559
currently lose_sum: 0.5023842453956604
time_elpased: 1.941
start validation test
0.7072
0.781875658588
0.585635359116
0.669675090253
0.708876073719
14.611
#iterations: 560
currently lose_sum: 0.545326292514801
time_elpased: 1.982
#iterations: 561
currently lose_sum: 0.5416486263275146
time_elpased: 1.973
#iterations: 562
currently lose_sum: 0.42438507080078125
time_elpased: 2.072
#iterations: 563
currently lose_sum: 0.4806326925754547
time_elpased: 1.918
#iterations: 564
currently lose_sum: 0.47382694482803345
time_elpased: 2.069
#iterations: 565
currently lose_sum: 0.3908576965332031
time_elpased: 1.963
#iterations: 566
currently lose_sum: 0.44370049238204956
time_elpased: 1.928
#iterations: 567
currently lose_sum: 0.5383973717689514
time_elpased: 1.991
#iterations: 568
currently lose_sum: 0.5181840062141418
time_elpased: 2.091
#iterations: 569
currently lose_sum: 0.5053714513778687
time_elpased: 1.927
#iterations: 570
currently lose_sum: 0.5230834484100342
time_elpased: 1.891
#iterations: 571
currently lose_sum: 0.45780929923057556
time_elpased: 1.988
#iterations: 572
currently lose_sum: 0.6212143301963806
time_elpased: 1.929
#iterations: 573
currently lose_sum: 0.3730880320072174
time_elpased: 1.969
#iterations: 574
currently lose_sum: 0.4239408075809479
time_elpased: 1.971
#iterations: 575
currently lose_sum: 0.4918253719806671
time_elpased: 1.984
#iterations: 576
currently lose_sum: 0.5157673358917236
time_elpased: 1.948
#iterations: 577
currently lose_sum: 0.4970044195652008
time_elpased: 1.906
#iterations: 578
currently lose_sum: 0.39278408885002136
time_elpased: 2.073
#iterations: 579
currently lose_sum: 0.44066813588142395
time_elpased: 1.922
start validation test
0.726
0.760286225403
0.670876085241
0.712788259958
0.726760021534
13.873
#iterations: 580
currently lose_sum: 0.5274353623390198
time_elpased: 1.939
#iterations: 581
currently lose_sum: 0.45531490445137024
time_elpased: 1.954
#iterations: 582
currently lose_sum: 0.43407729268074036
time_elpased: 1.94
#iterations: 583
currently lose_sum: 0.46393051743507385
time_elpased: 1.961
#iterations: 584
currently lose_sum: 0.43268895149230957
time_elpased: 1.936
#iterations: 585
currently lose_sum: 0.49314650893211365
time_elpased: 1.993
#iterations: 586
currently lose_sum: 0.4735087454319
time_elpased: 2.022
#iterations: 587
currently lose_sum: 0.4683777987957001
time_elpased: 1.901
#iterations: 588
currently lose_sum: 0.5040542483329773
time_elpased: 1.925
#iterations: 589
currently lose_sum: 0.48972922563552856
time_elpased: 1.986
#iterations: 590
currently lose_sum: 0.5797088146209717
time_elpased: 1.933
#iterations: 591
currently lose_sum: 0.4761781394481659
time_elpased: 1.92
#iterations: 592
currently lose_sum: 0.3817921578884125
time_elpased: 1.93
#iterations: 593
currently lose_sum: 0.5000632405281067
time_elpased: 1.954
#iterations: 594
currently lose_sum: 0.5044839382171631
time_elpased: 2.044
#iterations: 595
currently lose_sum: 0.36522385478019714
time_elpased: 1.988
#iterations: 596
currently lose_sum: 0.5216569304466248
time_elpased: 2.044
#iterations: 597
currently lose_sum: 0.5276006460189819
time_elpased: 1.975
#iterations: 598
currently lose_sum: 0.5215804576873779
time_elpased: 1.944
#iterations: 599
currently lose_sum: 0.522583544254303
time_elpased: 1.945
start validation test
0.6992
0.665808113329
0.816101026046
0.733333333333
0.697588225918
14.127
acc: 0.709
pre: 0.727
rec: 0.684
F1: 0.704
auc: 0.710
