start to construct computing graph
graph construct over
3373
epochs start
#iterations: 0
currently lose_sum: 0.6784370541572571
time_elpased: 9.429
#iterations: 1
currently lose_sum: 0.6727172136306763
time_elpased: 9.434
#iterations: 2
currently lose_sum: 0.48911362886428833
time_elpased: 9.367
#iterations: 3
currently lose_sum: 0.626264214515686
time_elpased: 9.429
#iterations: 4
currently lose_sum: 0.6744979619979858
time_elpased: 9.792
#iterations: 5
currently lose_sum: 0.38871464133262634
time_elpased: 9.428
#iterations: 6
currently lose_sum: 0.538378119468689
time_elpased: 9.495
#iterations: 7
currently lose_sum: 0.4344004690647125
time_elpased: 9.442
#iterations: 8
currently lose_sum: 0.4709394574165344
time_elpased: 9.758
#iterations: 9
currently lose_sum: 0.3870982229709625
time_elpased: 9.395
#iterations: 10
currently lose_sum: 0.34850239753723145
time_elpased: 9.418
#iterations: 11
currently lose_sum: 0.4708799719810486
time_elpased: 9.453
#iterations: 12
currently lose_sum: 0.30362576246261597
time_elpased: 9.388
#iterations: 13
currently lose_sum: 0.33621230721473694
time_elpased: 9.413
#iterations: 14
currently lose_sum: 0.40948837995529175
time_elpased: 9.439
#iterations: 15
currently lose_sum: 0.3380778431892395
time_elpased: 9.372
#iterations: 16
currently lose_sum: 0.3602820932865143
time_elpased: 9.527
#iterations: 17
currently lose_sum: 0.39696452021598816
time_elpased: 9.459
#iterations: 18
currently lose_sum: 0.3955787122249603
time_elpased: 9.399
#iterations: 19
currently lose_sum: 0.4091992974281311
time_elpased: 9.407
start validation test
0.732589285714
0.788778877888
0.637900355872
0.705361534678
0.73292867256
33.481
#iterations: 20
currently lose_sum: 0.6050587892532349
time_elpased: 9.42
#iterations: 21
currently lose_sum: 0.2461603879928589
time_elpased: 9.038
#iterations: 22
currently lose_sum: 0.5243979692459106
time_elpased: 9.124
#iterations: 23
currently lose_sum: 0.2376236468553543
time_elpased: 9.1
#iterations: 24
currently lose_sum: 0.30899578332901
time_elpased: 9.07
#iterations: 25
currently lose_sum: 0.30333298444747925
time_elpased: 9.038
#iterations: 26
currently lose_sum: 0.21717151999473572
time_elpased: 9.134
#iterations: 27
currently lose_sum: 0.23374156653881073
time_elpased: 9.256
#iterations: 28
currently lose_sum: 0.3564012050628662
time_elpased: 9.042
#iterations: 29
currently lose_sum: 0.27077189087867737
time_elpased: 9.101
#iterations: 30
currently lose_sum: 0.36605262756347656
time_elpased: 9.026
#iterations: 31
currently lose_sum: 0.47036176919937134
time_elpased: 9.173
#iterations: 32
currently lose_sum: 0.3651544451713562
time_elpased: 8.969
#iterations: 33
currently lose_sum: 0.2878682613372803
time_elpased: 9.473
#iterations: 34
currently lose_sum: 0.34350642561912537
time_elpased: 9.006
#iterations: 35
currently lose_sum: 0.20365309715270996
time_elpased: 9.136
#iterations: 36
currently lose_sum: 0.1887177973985672
time_elpased: 9.105
#iterations: 37
currently lose_sum: 0.3506915867328644
time_elpased: 9.117
#iterations: 38
currently lose_sum: 0.21553084254264832
time_elpased: 9.003
#iterations: 39
currently lose_sum: 0.22885847091674805
time_elpased: 9.023
start validation test
0.744642857143
0.850253807107
0.596085409253
0.700836820084
0.745175321114
39.373
#iterations: 40
currently lose_sum: 0.19525787234306335
time_elpased: 8.969
#iterations: 41
currently lose_sum: 0.2813190817832947
time_elpased: 9.008
#iterations: 42
currently lose_sum: 0.16860070824623108
time_elpased: 9.35
#iterations: 43
currently lose_sum: 0.29348915815353394
time_elpased: 9.149
#iterations: 44
currently lose_sum: 0.3519749641418457
time_elpased: 9.205
#iterations: 45
currently lose_sum: 0.2807391285896301
time_elpased: 9.014
#iterations: 46
currently lose_sum: 0.23026175796985626
time_elpased: 9.099
#iterations: 47
currently lose_sum: 0.2994982898235321
time_elpased: 9.104
#iterations: 48
currently lose_sum: 0.26021280884742737
time_elpased: 9.062
#iterations: 49
currently lose_sum: 0.2418290376663208
time_elpased: 9.026
#iterations: 50
currently lose_sum: 0.3147585391998291
time_elpased: 9.088
#iterations: 51
currently lose_sum: 0.11916108429431915
time_elpased: 9.115
#iterations: 52
currently lose_sum: 0.2671380639076233
time_elpased: 9.238
#iterations: 53
currently lose_sum: 0.17391294240951538
time_elpased: 9.039
#iterations: 54
currently lose_sum: 0.3369046747684479
time_elpased: 8.986
#iterations: 55
currently lose_sum: 0.3358379006385803
time_elpased: 9.121
#iterations: 56
currently lose_sum: 0.1674264371395111
time_elpased: 9.169
#iterations: 57
currently lose_sum: 0.381113201379776
time_elpased: 8.985
#iterations: 58
currently lose_sum: 0.14300653338432312
time_elpased: 9.315
#iterations: 59
currently lose_sum: 0.2269643098115921
time_elpased: 9.064
start validation test
0.766517857143
0.806320081549
0.703736654804
0.751543942993
0.766742879373
41.643
#iterations: 60
currently lose_sum: 0.28978562355041504
time_elpased: 9.184
#iterations: 61
currently lose_sum: 0.30648037791252136
time_elpased: 9.109
#iterations: 62
currently lose_sum: 0.3199947774410248
time_elpased: 8.977
#iterations: 63
currently lose_sum: 0.303571879863739
time_elpased: 9.024
#iterations: 64
currently lose_sum: 0.27878838777542114
time_elpased: 9.218
#iterations: 65
currently lose_sum: 0.18921150267124176
time_elpased: 9.02
#iterations: 66
currently lose_sum: 0.35300034284591675
time_elpased: 9.025
#iterations: 67
currently lose_sum: 0.1884002983570099
time_elpased: 9.01
#iterations: 68
currently lose_sum: 0.3199903964996338
time_elpased: 9.034
#iterations: 69
currently lose_sum: 0.3169926702976227
time_elpased: 9.046
#iterations: 70
currently lose_sum: 0.19696104526519775
time_elpased: 9.073
#iterations: 71
currently lose_sum: 0.14127114415168762
time_elpased: 9.17
#iterations: 72
currently lose_sum: 0.08309128880500793
time_elpased: 9.243
#iterations: 73
currently lose_sum: 0.4035142958164215
time_elpased: 9.021
#iterations: 74
currently lose_sum: 0.27903905510902405
time_elpased: 9.204
#iterations: 75
currently lose_sum: 0.41650789976119995
time_elpased: 9.086
#iterations: 76
currently lose_sum: 0.18582001328468323
time_elpased: 9.197
#iterations: 77
currently lose_sum: 0.12640979886054993
time_elpased: 9.023
#iterations: 78
currently lose_sum: 0.5585126876831055
time_elpased: 9.083
#iterations: 79
currently lose_sum: 0.46730098128318787
time_elpased: 9.069
start validation test
0.756696428571
0.801876955162
0.684163701068
0.738358137302
0.756956402505
43.852
#iterations: 80
currently lose_sum: 0.05002015829086304
time_elpased: 8.998
#iterations: 81
currently lose_sum: 0.1789661943912506
time_elpased: 8.996
#iterations: 82
currently lose_sum: 0.2529906630516052
time_elpased: 9.049
#iterations: 83
currently lose_sum: 0.31589722633361816
time_elpased: 9.06
#iterations: 84
currently lose_sum: 0.21722765266895294
time_elpased: 9.041
#iterations: 85
currently lose_sum: 0.14224258065223694
time_elpased: 8.97
#iterations: 86
currently lose_sum: 0.3491596579551697
time_elpased: 9.036
#iterations: 87
currently lose_sum: 0.1883901059627533
time_elpased: 9.093
#iterations: 88
currently lose_sum: 0.15871354937553406
time_elpased: 9.032
#iterations: 89
currently lose_sum: 0.2145954668521881
time_elpased: 9.077
#iterations: 90
currently lose_sum: 0.24478855729103088
time_elpased: 9.001
#iterations: 91
currently lose_sum: 0.12190499156713486
time_elpased: 9.304
#iterations: 92
currently lose_sum: 0.15398450195789337
time_elpased: 9.097
#iterations: 93
currently lose_sum: 0.13337121903896332
time_elpased: 9.01
#iterations: 94
currently lose_sum: 0.24282383918762207
time_elpased: 9.071
#iterations: 95
currently lose_sum: 0.1533951312303543
time_elpased: 9.025
#iterations: 96
currently lose_sum: 0.13109900057315826
time_elpased: 8.99
#iterations: 97
currently lose_sum: 0.4882581830024719
time_elpased: 9.03
#iterations: 98
currently lose_sum: 0.1616027057170868
time_elpased: 9.369
#iterations: 99
currently lose_sum: 0.2776835858821869
time_elpased: 9.021
start validation test
0.736607142857
0.861788617886
0.565836298932
0.68313641246
0.737219224735
57.896
#iterations: 100
currently lose_sum: 0.28377366065979004
time_elpased: 8.941
#iterations: 101
currently lose_sum: 0.17564436793327332
time_elpased: 9.048
#iterations: 102
currently lose_sum: 0.03217298164963722
time_elpased: 9.046
#iterations: 103
currently lose_sum: 0.2569507956504822
time_elpased: 9.043
#iterations: 104
currently lose_sum: 0.2856188714504242
time_elpased: 9.036
#iterations: 105
currently lose_sum: 0.17550966143608093
time_elpased: 9.045
#iterations: 106
currently lose_sum: 0.2506069540977478
time_elpased: 9.149
#iterations: 107
currently lose_sum: 0.14382031559944153
time_elpased: 9.01
#iterations: 108
currently lose_sum: 0.3036535382270813
time_elpased: 9.146
#iterations: 109
currently lose_sum: 0.28227490186691284
time_elpased: 8.956
#iterations: 110
currently lose_sum: 0.12685170769691467
time_elpased: 9.181
#iterations: 111
currently lose_sum: 0.13183440268039703
time_elpased: 9.025
#iterations: 112
currently lose_sum: 0.10857826471328735
time_elpased: 8.995
#iterations: 113
currently lose_sum: 0.10948503017425537
time_elpased: 9.035
#iterations: 114
currently lose_sum: 0.11970289051532745
time_elpased: 9.067
#iterations: 115
currently lose_sum: 0.15692827105522156
time_elpased: 8.995
#iterations: 116
currently lose_sum: 0.13271686434745789
time_elpased: 8.966
#iterations: 117
currently lose_sum: 0.1352986991405487
time_elpased: 9.015
#iterations: 118
currently lose_sum: 0.15841692686080933
time_elpased: 9.056
#iterations: 119
currently lose_sum: 0.1679408997297287
time_elpased: 9.203
start validation test
0.747321428571
0.834532374101
0.619217081851
0.710929519918
0.747780583936
54.040
#iterations: 120
currently lose_sum: 0.28603893518447876
time_elpased: 9.164
#iterations: 121
currently lose_sum: 0.13389870524406433
time_elpased: 9.38
#iterations: 122
currently lose_sum: 0.05751002952456474
time_elpased: 8.992
#iterations: 123
currently lose_sum: 0.16520020365715027
time_elpased: 8.991
#iterations: 124
currently lose_sum: 0.15773165225982666
time_elpased: 8.997
#iterations: 125
currently lose_sum: 0.2757665514945984
time_elpased: 8.98
#iterations: 126
currently lose_sum: 0.07883113622665405
time_elpased: 8.952
#iterations: 127
currently lose_sum: 0.30314117670059204
time_elpased: 9.007
#iterations: 128
currently lose_sum: 0.1365577131509781
time_elpased: 9.009
#iterations: 129
currently lose_sum: 0.17703351378440857
time_elpased: 9.082
#iterations: 130
currently lose_sum: 0.20776601135730743
time_elpased: 8.99
#iterations: 131
currently lose_sum: 0.2326827049255371
time_elpased: 9.003
#iterations: 132
currently lose_sum: 0.10261671245098114
time_elpased: 9.306
#iterations: 133
currently lose_sum: 0.17658007144927979
time_elpased: 9.052
#iterations: 134
currently lose_sum: 0.19763614237308502
time_elpased: 9.101
#iterations: 135
currently lose_sum: 0.10821039974689484
time_elpased: 8.983
#iterations: 136
currently lose_sum: 0.17170350253582
time_elpased: 9.213
#iterations: 137
currently lose_sum: 0.2793257534503937
time_elpased: 9.298
#iterations: 138
currently lose_sum: 0.26183372735977173
time_elpased: 8.997
#iterations: 139
currently lose_sum: 0.2681626081466675
time_elpased: 9.064
start validation test
0.733035714286
0.875714285714
0.54537366548
0.672149122807
0.733708338117
64.687
#iterations: 140
currently lose_sum: 0.12699688971042633
time_elpased: 9.059
#iterations: 141
currently lose_sum: 0.08518670499324799
time_elpased: 9.198
#iterations: 142
currently lose_sum: 0.0960041806101799
time_elpased: 9.036
#iterations: 143
currently lose_sum: 0.05340611934661865
time_elpased: 9.13
#iterations: 144
currently lose_sum: 0.08454065769910812
time_elpased: 9.227
#iterations: 145
currently lose_sum: 0.1490972936153412
time_elpased: 9.063
#iterations: 146
currently lose_sum: 0.2210712879896164
time_elpased: 9.029
#iterations: 147
currently lose_sum: 0.10730278491973877
time_elpased: 8.988
#iterations: 148
currently lose_sum: 0.2446693480014801
time_elpased: 9.023
#iterations: 149
currently lose_sum: 0.10456021875143051
time_elpased: 9.075
#iterations: 150
currently lose_sum: 0.16585364937782288
time_elpased: 9.024
#iterations: 151
currently lose_sum: 0.2829276919364929
time_elpased: 9.027
#iterations: 152
currently lose_sum: 0.08606310933828354
time_elpased: 9.213
#iterations: 153
currently lose_sum: 0.24807849526405334
time_elpased: 9.107
#iterations: 154
currently lose_sum: 0.06219248101115227
time_elpased: 9.029
#iterations: 155
currently lose_sum: 0.1517784297466278
time_elpased: 8.975
#iterations: 156
currently lose_sum: 0.2766205966472626
time_elpased: 8.985
#iterations: 157
currently lose_sum: 0.2404624968767166
time_elpased: 9.087
#iterations: 158
currently lose_sum: 0.048328250646591187
time_elpased: 9.094
#iterations: 159
currently lose_sum: 0.06071719527244568
time_elpased: 9.058
start validation test
0.733482142857
0.857530529172
0.562277580071
0.679204728641
0.734095779283
68.331
#iterations: 160
currently lose_sum: 0.049883220344781876
time_elpased: 9.043
#iterations: 161
currently lose_sum: 0.13853999972343445
time_elpased: 9.045
#iterations: 162
currently lose_sum: 0.16381080448627472
time_elpased: 9.063
#iterations: 163
currently lose_sum: 0.11707326024770737
time_elpased: 8.992
#iterations: 164
currently lose_sum: 0.12247712910175323
time_elpased: 9.136
#iterations: 165
currently lose_sum: 0.07763197273015976
time_elpased: 9.046
#iterations: 166
currently lose_sum: 0.3829517960548401
time_elpased: 9.111
#iterations: 167
currently lose_sum: 0.08159221708774567
time_elpased: 9.133
#iterations: 168
currently lose_sum: 0.1454695165157318
time_elpased: 9.022
#iterations: 169
currently lose_sum: 0.09608861058950424
time_elpased: 9.058
#iterations: 170
currently lose_sum: 0.18730290234088898
time_elpased: 9.095
#iterations: 171
currently lose_sum: 0.11497099697589874
time_elpased: 8.933
#iterations: 172
currently lose_sum: 0.12189634889364243
time_elpased: 9.143
#iterations: 173
currently lose_sum: 0.17949439585208893
time_elpased: 9.016
#iterations: 174
currently lose_sum: 0.23209147155284882
time_elpased: 9.087
#iterations: 175
currently lose_sum: 0.12839984893798828
time_elpased: 9.094
#iterations: 176
currently lose_sum: 0.060021061450242996
time_elpased: 9.128
#iterations: 177
currently lose_sum: 0.013124378398060799
time_elpased: 9.049
#iterations: 178
currently lose_sum: 0.2775563597679138
time_elpased: 9.075
#iterations: 179
currently lose_sum: 0.12618239223957062
time_elpased: 9.14
start validation test
0.724107142857
0.846575342466
0.549822064057
0.666666666667
0.724731820559
74.723
#iterations: 180
currently lose_sum: 0.03817259520292282
time_elpased: 9.049
#iterations: 181
currently lose_sum: 0.3035048842430115
time_elpased: 9.028
#iterations: 182
currently lose_sum: 0.1156550794839859
time_elpased: 8.988
#iterations: 183
currently lose_sum: 0.14295145869255066
time_elpased: 9.505
#iterations: 184
currently lose_sum: 0.18599118292331696
time_elpased: 9.018
#iterations: 185
currently lose_sum: 0.09663043171167374
time_elpased: 8.993
#iterations: 186
currently lose_sum: 0.11988808959722519
time_elpased: 8.991
#iterations: 187
currently lose_sum: 0.03548653423786163
time_elpased: 9.106
#iterations: 188
currently lose_sum: 0.14043302834033966
time_elpased: 8.974
#iterations: 189
currently lose_sum: 0.14897184073925018
time_elpased: 9.155
#iterations: 190
currently lose_sum: 0.38787591457366943
time_elpased: 8.998
#iterations: 191
currently lose_sum: 0.1161789670586586
time_elpased: 9.011
#iterations: 192
currently lose_sum: 0.15725508332252502
time_elpased: 9.036
#iterations: 193
currently lose_sum: 0.011572952382266521
time_elpased: 9.115
#iterations: 194
currently lose_sum: 0.09491194784641266
time_elpased: 8.988
#iterations: 195
currently lose_sum: 0.10461308062076569
time_elpased: 8.986
#iterations: 196
currently lose_sum: 0.0651237815618515
time_elpased: 9.092
#iterations: 197
currently lose_sum: 0.2472209930419922
time_elpased: 9.018
#iterations: 198
currently lose_sum: 0.1421496421098709
time_elpased: 9.087
#iterations: 199
currently lose_sum: 0.1051190122961998
time_elpased: 9.081
start validation test
0.728125
0.848443843031
0.557829181495
0.673107890499
0.728735379278
75.730
#iterations: 200
currently lose_sum: 0.10399852693080902
time_elpased: 9.064
#iterations: 201
currently lose_sum: 0.09267627447843552
time_elpased: 9.072
#iterations: 202
currently lose_sum: 0.048003118485212326
time_elpased: 9.073
#iterations: 203
currently lose_sum: 0.13088800013065338
time_elpased: 8.986
#iterations: 204
currently lose_sum: 0.1128440871834755
time_elpased: 9.041
#iterations: 205
currently lose_sum: 0.08349154144525528
time_elpased: 8.999
#iterations: 206
currently lose_sum: 0.08046306669712067
time_elpased: 9.022
#iterations: 207
currently lose_sum: 0.22475004196166992
time_elpased: 9.022
#iterations: 208
currently lose_sum: 0.2533399760723114
time_elpased: 9.166
#iterations: 209
currently lose_sum: 0.20697090029716492
time_elpased: 9.035
#iterations: 210
currently lose_sum: 0.2021944522857666
time_elpased: 9.258
#iterations: 211
currently lose_sum: 0.08014816045761108
time_elpased: 9.209
#iterations: 212
currently lose_sum: 0.17635658383369446
time_elpased: 9.019
#iterations: 213
currently lose_sum: 0.1343563199043274
time_elpased: 9.028
#iterations: 214
currently lose_sum: 0.17484378814697266
time_elpased: 8.986
#iterations: 215
currently lose_sum: 0.0499277301132679
time_elpased: 9.022
#iterations: 216
currently lose_sum: 0.14118091762065887
time_elpased: 9.036
#iterations: 217
currently lose_sum: 0.07871297746896744
time_elpased: 9.072
#iterations: 218
currently lose_sum: 0.1629951298236847
time_elpased: 8.996
#iterations: 219
currently lose_sum: 0.07438244670629501
time_elpased: 9.054
start validation test
0.720982142857
0.860028860029
0.53024911032
0.656026417171
0.721665773798
77.772
#iterations: 220
currently lose_sum: 0.08961572498083115
time_elpased: 9.016
#iterations: 221
currently lose_sum: 0.044382959604263306
time_elpased: 9.169
#iterations: 222
currently lose_sum: 0.15023809671401978
time_elpased: 9.228
#iterations: 223
currently lose_sum: 0.13778039813041687
time_elpased: 9.013
#iterations: 224
currently lose_sum: 0.20733848214149475
time_elpased: 9.137
#iterations: 225
currently lose_sum: 0.29539328813552856
time_elpased: 9.042
#iterations: 226
currently lose_sum: 0.051078397780656815
time_elpased: 9.038
#iterations: 227
currently lose_sum: 0.11857316642999649
time_elpased: 8.996
#iterations: 228
currently lose_sum: 0.08073686808347702
time_elpased: 9.058
#iterations: 229
currently lose_sum: 0.0551336333155632
time_elpased: 9.005
#iterations: 230
currently lose_sum: 0.16875889897346497
time_elpased: 9.07
#iterations: 231
currently lose_sum: 0.10434041917324066
time_elpased: 9.077
#iterations: 232
currently lose_sum: 0.10959861427545547
time_elpased: 9.001
#iterations: 233
currently lose_sum: 0.14843960106372833
time_elpased: 9.004
#iterations: 234
currently lose_sum: 0.15486636757850647
time_elpased: 9.046
#iterations: 235
currently lose_sum: 0.06612293422222137
time_elpased: 9.019
#iterations: 236
currently lose_sum: 0.14421376585960388
time_elpased: 9.024
#iterations: 237
currently lose_sum: 0.04601270705461502
time_elpased: 9.181
#iterations: 238
currently lose_sum: 0.12228035926818848
time_elpased: 9.029
#iterations: 239
currently lose_sum: 0.16866172850131989
time_elpased: 9.05
start validation test
0.716071428571
0.873088685015
0.508007117438
0.642294713161
0.716817178791
89.378
#iterations: 240
currently lose_sum: 0.2100730687379837
time_elpased: 8.953
#iterations: 241
currently lose_sum: 0.021737856790423393
time_elpased: 9.124
#iterations: 242
currently lose_sum: 0.23279300332069397
time_elpased: 9.064
#iterations: 243
currently lose_sum: 0.04207325726747513
time_elpased: 9.019
#iterations: 244
currently lose_sum: 0.05383092164993286
time_elpased: 9.043
#iterations: 245
currently lose_sum: 0.11632710695266724
time_elpased: 9.082
#iterations: 246
currently lose_sum: 0.20919446647167206
time_elpased: 9.169
#iterations: 247
currently lose_sum: 0.1072460189461708
time_elpased: 9.208
#iterations: 248
currently lose_sum: 0.18749269843101501
time_elpased: 9.066
#iterations: 249
currently lose_sum: 0.12218103557825089
time_elpased: 9.036
#iterations: 250
currently lose_sum: 0.32689785957336426
time_elpased: 9.19
#iterations: 251
currently lose_sum: 0.2947801947593689
time_elpased: 9.01
#iterations: 252
currently lose_sum: 0.20405085384845734
time_elpased: 9.158
#iterations: 253
currently lose_sum: 0.11287343502044678
time_elpased: 9.074
#iterations: 254
currently lose_sum: 0.08843931555747986
time_elpased: 9.318
#iterations: 255
currently lose_sum: 0.06974848359823227
time_elpased: 8.98
#iterations: 256
currently lose_sum: 0.0724911093711853
time_elpased: 9.051
#iterations: 257
currently lose_sum: 0.11515317112207413
time_elpased: 9.049
#iterations: 258
currently lose_sum: 0.052922677248716354
time_elpased: 9.081
#iterations: 259
currently lose_sum: 0.06246376037597656
time_elpased: 8.971
start validation test
0.706696428571
0.88341543514
0.478647686833
0.620888632429
0.707513807574
95.922
#iterations: 260
currently lose_sum: 0.1144627183675766
time_elpased: 9.244
#iterations: 261
currently lose_sum: 0.1544574797153473
time_elpased: 9.074
#iterations: 262
currently lose_sum: 0.11587566137313843
time_elpased: 9.17
#iterations: 263
currently lose_sum: 0.09101011604070663
time_elpased: 9.102
#iterations: 264
currently lose_sum: 0.11297643184661865
time_elpased: 8.974
#iterations: 265
currently lose_sum: 0.11016593873500824
time_elpased: 8.996
#iterations: 266
currently lose_sum: 0.0471600666642189
time_elpased: 9.118
#iterations: 267
currently lose_sum: 0.17022421956062317
time_elpased: 9.035
#iterations: 268
currently lose_sum: 0.11339104175567627
time_elpased: 9.113
#iterations: 269
currently lose_sum: 0.07908942550420761
time_elpased: 9.03
#iterations: 270
currently lose_sum: 0.1125483512878418
time_elpased: 9.175
#iterations: 271
currently lose_sum: 0.02033834159374237
time_elpased: 9.044
#iterations: 272
currently lose_sum: 0.08864275366067886
time_elpased: 8.976
#iterations: 273
currently lose_sum: 0.1315302848815918
time_elpased: 8.968
#iterations: 274
currently lose_sum: 0.049001544713974
time_elpased: 9.343
#iterations: 275
currently lose_sum: 0.047753673046827316
time_elpased: 9.01
#iterations: 276
currently lose_sum: 0.2582774758338928
time_elpased: 9.067
#iterations: 277
currently lose_sum: 0.25137823820114136
time_elpased: 9.026
#iterations: 278
currently lose_sum: 0.09794920682907104
time_elpased: 9.115
#iterations: 279
currently lose_sum: 0.03064829111099243
time_elpased: 9.461
start validation test
0.702678571429
0.86935483871
0.479537366548
0.618119266055
0.703478360693
97.521
#iterations: 280
currently lose_sum: 0.10779824107885361
time_elpased: 9.024
#iterations: 281
currently lose_sum: 0.05108318850398064
time_elpased: 9.023
#iterations: 282
currently lose_sum: 0.15145018696784973
time_elpased: 8.991
#iterations: 283
currently lose_sum: 0.03441932052373886
time_elpased: 9.448
#iterations: 284
currently lose_sum: 0.1592353880405426
time_elpased: 8.995
#iterations: 285
currently lose_sum: 0.10584702342748642
time_elpased: 9.123
#iterations: 286
currently lose_sum: 0.0448545403778553
time_elpased: 9.033
#iterations: 287
currently lose_sum: 0.1559741348028183
time_elpased: 9.03
#iterations: 288
currently lose_sum: 0.27265483140945435
time_elpased: 8.979
#iterations: 289
currently lose_sum: 0.04988697171211243
time_elpased: 9.085
#iterations: 290
currently lose_sum: 0.10282354056835175
time_elpased: 9.023
#iterations: 291
currently lose_sum: 0.09229335188865662
time_elpased: 9.091
#iterations: 292
currently lose_sum: 0.1123388409614563
time_elpased: 9.267
#iterations: 293
currently lose_sum: 0.11605183780193329
time_elpased: 9.007
#iterations: 294
currently lose_sum: 0.01869278773665428
time_elpased: 9.074
#iterations: 295
currently lose_sum: 0.05042935535311699
time_elpased: 9.471
#iterations: 296
currently lose_sum: 0.09167583286762238
time_elpased: 9.287
#iterations: 297
currently lose_sum: 0.07131068408489227
time_elpased: 9.025
#iterations: 298
currently lose_sum: 0.052434831857681274
time_elpased: 9.014
#iterations: 299
currently lose_sum: 0.04526578262448311
time_elpased: 9.058
start validation test
0.701785714286
0.872549019608
0.475088967972
0.615207373272
0.702598247427
94.573
#iterations: 300
currently lose_sum: 0.16912855207920074
time_elpased: 8.992
#iterations: 301
currently lose_sum: 0.0947226956486702
time_elpased: 9.058
#iterations: 302
currently lose_sum: 0.1323179304599762
time_elpased: 9.197
#iterations: 303
currently lose_sum: 0.2530454695224762
time_elpased: 9.059
#iterations: 304
currently lose_sum: 0.05320968106389046
time_elpased: 9.027
#iterations: 305
currently lose_sum: 0.030209844931960106
time_elpased: 9.058
#iterations: 306
currently lose_sum: 0.08314826339483261
time_elpased: 9.088
#iterations: 307
currently lose_sum: 0.12476485967636108
time_elpased: 9.025
#iterations: 308
currently lose_sum: 0.018451998010277748
time_elpased: 9.056
#iterations: 309
currently lose_sum: 0.0816517174243927
time_elpased: 9.037
#iterations: 310
currently lose_sum: 0.06365423649549484
time_elpased: 9.35
#iterations: 311
currently lose_sum: 0.03688269853591919
time_elpased: 9.009
#iterations: 312
currently lose_sum: 0.04896969720721245
time_elpased: 9.283
#iterations: 313
currently lose_sum: 0.021810252219438553
time_elpased: 9.067
#iterations: 314
currently lose_sum: 0.0658898800611496
time_elpased: 9.037
#iterations: 315
currently lose_sum: 0.01721571385860443
time_elpased: 9.105
#iterations: 316
currently lose_sum: 0.0479375422000885
time_elpased: 9.108
#iterations: 317
currently lose_sum: 0.09864964336156845
time_elpased: 9.121
#iterations: 318
currently lose_sum: 0.05698274448513985
time_elpased: 9.042
#iterations: 319
currently lose_sum: 0.042392753064632416
time_elpased: 8.973
start validation test
0.686160714286
0.889094269871
0.42793594306
0.577777777778
0.6870862511
112.071
#iterations: 320
currently lose_sum: 0.17044202983379364
time_elpased: 8.999
#iterations: 321
currently lose_sum: 0.1950281411409378
time_elpased: 9.209
#iterations: 322
currently lose_sum: 0.15591339766979218
time_elpased: 9.006
#iterations: 323
currently lose_sum: 0.1484519988298416
time_elpased: 9.029
#iterations: 324
currently lose_sum: 0.03669746592640877
time_elpased: 8.985
#iterations: 325
currently lose_sum: 0.048532988876104355
time_elpased: 8.999
#iterations: 326
currently lose_sum: 0.10456478595733643
time_elpased: 9.066
#iterations: 327
currently lose_sum: 0.07902729511260986
time_elpased: 9.04
#iterations: 328
currently lose_sum: 0.03386237472295761
time_elpased: 9.072
#iterations: 329
currently lose_sum: 0.1376556158065796
time_elpased: 9.262
#iterations: 330
currently lose_sum: 0.04755375161767006
time_elpased: 9.044
#iterations: 331
currently lose_sum: 0.09510038793087006
time_elpased: 8.991
#iterations: 332
currently lose_sum: 0.05995998531579971
time_elpased: 9.027
#iterations: 333
currently lose_sum: 0.05474928766489029
time_elpased: 8.989
#iterations: 334
currently lose_sum: 0.13242168724536896
time_elpased: 9.012
#iterations: 335
currently lose_sum: 0.03625611215829849
time_elpased: 9.046
#iterations: 336
currently lose_sum: 0.021573008969426155
time_elpased: 8.996
#iterations: 337
currently lose_sum: 0.038833603262901306
time_elpased: 9.028
#iterations: 338
currently lose_sum: 0.023913905024528503
time_elpased: 9.141
#iterations: 339
currently lose_sum: 0.057328175753355026
time_elpased: 9.253
start validation test
0.689285714286
0.886281588448
0.436832740214
0.585220500596
0.690190563655
108.516
#iterations: 340
currently lose_sum: 0.15424087643623352
time_elpased: 9.04
#iterations: 341
currently lose_sum: 0.15734907984733582
time_elpased: 9.148
#iterations: 342
currently lose_sum: 0.022475590929389
time_elpased: 9.102
#iterations: 343
currently lose_sum: 0.036689016968011856
time_elpased: 9.057
#iterations: 344
currently lose_sum: 0.047247424721717834
time_elpased: 9.046
#iterations: 345
currently lose_sum: 0.04645649343729019
time_elpased: 8.998
#iterations: 346
currently lose_sum: 0.07008270919322968
time_elpased: 9.175
#iterations: 347
currently lose_sum: 0.05772121995687485
time_elpased: 9.187
#iterations: 348
currently lose_sum: 0.04555419832468033
time_elpased: 9.064
#iterations: 349
currently lose_sum: 0.19977200031280518
time_elpased: 9.018
#iterations: 350
currently lose_sum: 0.1858997642993927
time_elpased: 9.038
#iterations: 351
currently lose_sum: 0.01837826333940029
time_elpased: 8.967
#iterations: 352
currently lose_sum: 0.19546666741371155
time_elpased: 9.074
#iterations: 353
currently lose_sum: 0.14959533512592316
time_elpased: 9.009
#iterations: 354
currently lose_sum: 0.04609798267483711
time_elpased: 9.112
#iterations: 355
currently lose_sum: 0.1675598919391632
time_elpased: 9.115
#iterations: 356
currently lose_sum: 0.06326580047607422
time_elpased: 9.086
#iterations: 357
currently lose_sum: 0.20645347237586975
time_elpased: 9.095
#iterations: 358
currently lose_sum: 0.024619514122605324
time_elpased: 9.009
#iterations: 359
currently lose_sum: 0.06544744968414307
time_elpased: 9.051
start validation test
0.691071428571
0.885714285714
0.44128113879
0.589073634204
0.69196673427
106.016
#iterations: 360
currently lose_sum: 0.05604647472500801
time_elpased: 9.195
#iterations: 361
currently lose_sum: 0.020318355411291122
time_elpased: 9.008
#iterations: 362
currently lose_sum: 0.03840997815132141
time_elpased: 9.014
#iterations: 363
currently lose_sum: 0.1779908686876297
time_elpased: 9.06
#iterations: 364
currently lose_sum: 0.051053237169981
time_elpased: 9.025
#iterations: 365
currently lose_sum: 0.2151993066072464
time_elpased: 9.051
#iterations: 366
currently lose_sum: 0.1202407106757164
time_elpased: 9.018
#iterations: 367
currently lose_sum: 0.10577353090047836
time_elpased: 9.008
#iterations: 368
currently lose_sum: 0.11615059524774551
time_elpased: 9.116
#iterations: 369
currently lose_sum: 0.019105935469269753
time_elpased: 8.993
#iterations: 370
currently lose_sum: 0.12000968307256699
time_elpased: 9.031
#iterations: 371
currently lose_sum: 0.04424506798386574
time_elpased: 9.141
#iterations: 372
currently lose_sum: 0.10080777108669281
time_elpased: 9.053
#iterations: 373
currently lose_sum: 0.04749477654695511
time_elpased: 9.017
#iterations: 374
currently lose_sum: 0.06999462842941284
time_elpased: 8.995
#iterations: 375
currently lose_sum: 0.1374964416027069
time_elpased: 9.07
#iterations: 376
currently lose_sum: 0.03745071962475777
time_elpased: 8.975
#iterations: 377
currently lose_sum: 0.15820007026195526
time_elpased: 9.081
#iterations: 378
currently lose_sum: 0.023468749597668648
time_elpased: 9.009
#iterations: 379
currently lose_sum: 0.042572129517793655
time_elpased: 9.025
start validation test
0.692857142857
0.893501805054
0.440391459075
0.589988081049
0.693762037781
113.185
#iterations: 380
currently lose_sum: 0.07003439962863922
time_elpased: 9.141
#iterations: 381
currently lose_sum: 0.13816753029823303
time_elpased: 9.047
#iterations: 382
currently lose_sum: 0.08275721222162247
time_elpased: 9.136
#iterations: 383
currently lose_sum: 0.07815289497375488
time_elpased: 9.068
#iterations: 384
currently lose_sum: 0.07907312363386154
time_elpased: 8.976
#iterations: 385
currently lose_sum: 0.11868731677532196
time_elpased: 9.062
#iterations: 386
currently lose_sum: 0.13501480221748352
time_elpased: 9.01
#iterations: 387
currently lose_sum: 0.01984248124063015
time_elpased: 9.135
#iterations: 388
currently lose_sum: 0.03575601056218147
time_elpased: 9.044
#iterations: 389
currently lose_sum: 0.08622399717569351
time_elpased: 9.124
#iterations: 390
currently lose_sum: 0.12821534276008606
time_elpased: 9.17
#iterations: 391
currently lose_sum: 0.078311026096344
time_elpased: 9.054
#iterations: 392
currently lose_sum: 0.15627141296863556
time_elpased: 9.098
#iterations: 393
currently lose_sum: 0.03110116720199585
time_elpased: 9.193
#iterations: 394
currently lose_sum: 0.1383046954870224
time_elpased: 9.009
#iterations: 395
currently lose_sum: 0.07006476819515228
time_elpased: 9.1
#iterations: 396
currently lose_sum: 0.054175280034542084
time_elpased: 9.031
#iterations: 397
currently lose_sum: 0.18519243597984314
time_elpased: 9.006
#iterations: 398
currently lose_sum: 0.0976053774356842
time_elpased: 9.131
#iterations: 399
currently lose_sum: 0.07200624793767929
time_elpased: 9.074
start validation test
0.691517857143
0.894353369763
0.436832740214
0.58696951584
0.692430707024
113.943
#iterations: 400
currently lose_sum: 0.08961893618106842
time_elpased: 8.971
#iterations: 401
currently lose_sum: 0.071306511759758
time_elpased: 9.05
#iterations: 402
currently lose_sum: 0.181674525141716
time_elpased: 9.13
#iterations: 403
currently lose_sum: 0.014650022611021996
time_elpased: 9.07
#iterations: 404
currently lose_sum: 0.015219906345009804
time_elpased: 8.996
#iterations: 405
currently lose_sum: 0.01965741626918316
time_elpased: 9.298
#iterations: 406
currently lose_sum: 0.05455014854669571
time_elpased: 9.161
#iterations: 407
currently lose_sum: 0.17389389872550964
time_elpased: 8.993
#iterations: 408
currently lose_sum: 0.019159432500600815
time_elpased: 9.086
#iterations: 409
currently lose_sum: 0.017902793362736702
time_elpased: 9.017
#iterations: 410
currently lose_sum: 0.049950115382671356
time_elpased: 8.981
#iterations: 411
currently lose_sum: 0.14994880557060242
time_elpased: 8.988
#iterations: 412
currently lose_sum: 0.1257639080286026
time_elpased: 9.041
#iterations: 413
currently lose_sum: 0.07546877861022949
time_elpased: 9.145
#iterations: 414
currently lose_sum: 0.031921833753585815
time_elpased: 8.993
#iterations: 415
currently lose_sum: 0.11152245849370956
time_elpased: 9.008
#iterations: 416
currently lose_sum: 0.1799878180027008
time_elpased: 9.06
#iterations: 417
currently lose_sum: 0.03164467215538025
time_elpased: 9.043
#iterations: 418
currently lose_sum: 0.050259195268154144
time_elpased: 9.079
#iterations: 419
currently lose_sum: 0.036967068910598755
time_elpased: 8.957
start validation test
0.691964285714
0.893115942029
0.438612099644
0.58830548926
0.692872358066
120.936
#iterations: 420
currently lose_sum: 0.17338596284389496
time_elpased: 8.946
#iterations: 421
currently lose_sum: 0.014729899354279041
time_elpased: 9.012
#iterations: 422
currently lose_sum: 0.1288144588470459
time_elpased: 9.023
#iterations: 423
currently lose_sum: 0.07189835608005524
time_elpased: 9.029
#iterations: 424
currently lose_sum: 0.22031791508197784
time_elpased: 9.024
#iterations: 425
currently lose_sum: 0.04116331413388252
time_elpased: 9.117
#iterations: 426
currently lose_sum: 0.13551422953605652
time_elpased: 9.098
#iterations: 427
currently lose_sum: 0.11043109744787216
time_elpased: 9.008
#iterations: 428
currently lose_sum: 0.014585407450795174
time_elpased: 9.222
#iterations: 429
currently lose_sum: 0.047379158437252045
time_elpased: 9.039
#iterations: 430
currently lose_sum: 0.07876576483249664
time_elpased: 8.988
#iterations: 431
currently lose_sum: 0.18518786132335663
time_elpased: 9.18
#iterations: 432
currently lose_sum: 0.2894427478313446
time_elpased: 9.18
#iterations: 433
currently lose_sum: 0.039793528616428375
time_elpased: 9.001
#iterations: 434
currently lose_sum: 0.030672982335090637
time_elpased: 9.154
#iterations: 435
currently lose_sum: 0.03175539895892143
time_elpased: 9.08
#iterations: 436
currently lose_sum: 0.012965056113898754
time_elpased: 9.007
#iterations: 437
currently lose_sum: 0.04439779371023178
time_elpased: 9.062
#iterations: 438
currently lose_sum: 0.043659232556819916
time_elpased: 9.06
#iterations: 439
currently lose_sum: 0.07215800136327744
time_elpased: 9.02
start validation test
0.674107142857
0.895582329317
0.396797153025
0.549938347719
0.675101085473
132.883
#iterations: 440
currently lose_sum: 0.06721021234989166
time_elpased: 9.058
#iterations: 441
currently lose_sum: 0.022018373012542725
time_elpased: 9.014
#iterations: 442
currently lose_sum: 0.05946740508079529
time_elpased: 9.001
#iterations: 443
currently lose_sum: 0.13161297142505646
time_elpased: 9.009
#iterations: 444
currently lose_sum: 0.031525105237960815
time_elpased: 9.068
#iterations: 445
currently lose_sum: 0.11269988864660263
time_elpased: 9.343
#iterations: 446
currently lose_sum: 0.021689757704734802
time_elpased: 9.062
#iterations: 447
currently lose_sum: 0.07740985602140427
time_elpased: 9.021
#iterations: 448
currently lose_sum: 0.04174071550369263
time_elpased: 9.023
#iterations: 449
currently lose_sum: 0.08785883337259293
time_elpased: 9.014
#iterations: 450
currently lose_sum: 0.14506979286670685
time_elpased: 8.931
#iterations: 451
currently lose_sum: 0.08011160790920258
time_elpased: 8.964
#iterations: 452
currently lose_sum: 0.060484379529953
time_elpased: 9.009
#iterations: 453
currently lose_sum: 0.07675358653068542
time_elpased: 9.028
#iterations: 454
currently lose_sum: 0.07064119726419449
time_elpased: 9.237
#iterations: 455
currently lose_sum: 0.05662667751312256
time_elpased: 9.005
#iterations: 456
currently lose_sum: 0.010840712115168571
time_elpased: 9.099
#iterations: 457
currently lose_sum: 0.012100634165108204
time_elpased: 9.026
#iterations: 458
currently lose_sum: 0.03779595345258713
time_elpased: 8.963
#iterations: 459
currently lose_sum: 0.11788929998874664
time_elpased: 9.058
start validation test
0.692410714286
0.894736842105
0.438612099644
0.588656716418
0.69332038674
124.462
#iterations: 460
currently lose_sum: 0.1164301410317421
time_elpased: 8.998
#iterations: 461
currently lose_sum: 0.06331770122051239
time_elpased: 9.038
#iterations: 462
currently lose_sum: 0.19210104644298553
time_elpased: 9.101
#iterations: 463
currently lose_sum: 0.09477982670068741
time_elpased: 9.221
#iterations: 464
currently lose_sum: 0.03553907945752144
time_elpased: 9.02
#iterations: 465
currently lose_sum: 0.20385794341564178
time_elpased: 8.981
#iterations: 466
currently lose_sum: 0.09400172531604767
time_elpased: 9.002
#iterations: 467
currently lose_sum: 0.22508187592029572
time_elpased: 9.02
#iterations: 468
currently lose_sum: 0.09034021943807602
time_elpased: 9.072
#iterations: 469
currently lose_sum: 0.19620093703269958
time_elpased: 9.243
#iterations: 470
currently lose_sum: 0.07655894011259079
time_elpased: 9.0
#iterations: 471
currently lose_sum: 0.03653205558657646
time_elpased: 9.016
#iterations: 472
currently lose_sum: 0.1291120946407318
time_elpased: 9.04
#iterations: 473
currently lose_sum: 0.017685094848275185
time_elpased: 9.008
#iterations: 474
currently lose_sum: 0.04143591970205307
time_elpased: 9.108
#iterations: 475
currently lose_sum: 0.09282054752111435
time_elpased: 9.338
#iterations: 476
currently lose_sum: 0.10079209506511688
time_elpased: 9.032
#iterations: 477
currently lose_sum: 0.01616966351866722
time_elpased: 9.066
#iterations: 478
currently lose_sum: 0.06226245313882828
time_elpased: 8.97
#iterations: 479
currently lose_sum: 0.13353849947452545
time_elpased: 9.023
start validation test
0.674107142857
0.895582329317
0.396797153025
0.549938347719
0.675101085473
136.136
#iterations: 480
currently lose_sum: 0.18708157539367676
time_elpased: 9.223
#iterations: 481
currently lose_sum: 0.04282129555940628
time_elpased: 9.015
#iterations: 482
currently lose_sum: 0.16360881924629211
time_elpased: 8.99
#iterations: 483
currently lose_sum: 0.17968764901161194
time_elpased: 8.98
#iterations: 484
currently lose_sum: 0.013813117519021034
time_elpased: 9.059
#iterations: 485
currently lose_sum: 0.09634286165237427
time_elpased: 9.018
#iterations: 486
currently lose_sum: 0.012373873963952065
time_elpased: 8.998
#iterations: 487
currently lose_sum: 0.046573128551244736
time_elpased: 9.025
#iterations: 488
currently lose_sum: 0.009567203000187874
time_elpased: 9.068
#iterations: 489
currently lose_sum: 0.05154470354318619
time_elpased: 8.971
#iterations: 490
currently lose_sum: 0.08620625734329224
time_elpased: 8.997
#iterations: 491
currently lose_sum: 0.07846523821353912
time_elpased: 9.061
#iterations: 492
currently lose_sum: 0.06915892660617828
time_elpased: 9.031
#iterations: 493
currently lose_sum: 0.12812402844429016
time_elpased: 9.038
#iterations: 494
currently lose_sum: 0.06599844992160797
time_elpased: 8.972
#iterations: 495
currently lose_sum: 0.04802144318819046
time_elpased: 8.993
#iterations: 496
currently lose_sum: 0.017566591501235962
time_elpased: 8.976
#iterations: 497
currently lose_sum: 0.019285498186945915
time_elpased: 9.094
#iterations: 498
currently lose_sum: 0.03605799376964569
time_elpased: 8.994
#iterations: 499
currently lose_sum: 0.08914152532815933
time_elpased: 9.068
start validation test
0.669196428571
0.899791231733
0.383451957295
0.537741734248
0.670220602304
145.449
#iterations: 500
currently lose_sum: 0.19622008502483368
time_elpased: 8.97
#iterations: 501
currently lose_sum: 0.16814649105072021
time_elpased: 9.054
#iterations: 502
currently lose_sum: 0.07496903836727142
time_elpased: 9.031
#iterations: 503
currently lose_sum: 0.06423161178827286
time_elpased: 9.05
#iterations: 504
currently lose_sum: 0.04918058589100838
time_elpased: 8.992
#iterations: 505
currently lose_sum: 0.040052738040685654
time_elpased: 9.068
#iterations: 506
currently lose_sum: 0.06278584897518158
time_elpased: 9.334
#iterations: 507
currently lose_sum: 0.04999709501862526
time_elpased: 9.09
#iterations: 508
currently lose_sum: 0.03704383224248886
time_elpased: 9.031
#iterations: 509
currently lose_sum: 0.03748681768774986
time_elpased: 9.015
#iterations: 510
currently lose_sum: 0.2612497806549072
time_elpased: 9.013
#iterations: 511
currently lose_sum: 0.01117080170661211
time_elpased: 9.064
#iterations: 512
currently lose_sum: 0.05610983818769455
time_elpased: 8.99
#iterations: 513
currently lose_sum: 0.05998803302645683
time_elpased: 8.929
#iterations: 514
currently lose_sum: 0.02143630012869835
time_elpased: 9.059
#iterations: 515
currently lose_sum: 0.02414865419268608
time_elpased: 9.09
#iterations: 516
currently lose_sum: 0.06925855576992035
time_elpased: 9.066
#iterations: 517
currently lose_sum: 0.07220394909381866
time_elpased: 8.973
#iterations: 518
currently lose_sum: 0.04867411404848099
time_elpased: 9.027
#iterations: 519
currently lose_sum: 0.1040150374174118
time_elpased: 8.992
start validation test
0.675892857143
0.901209677419
0.39768683274
0.551851851852
0.676890011352
137.716
#iterations: 520
currently lose_sum: 0.03413612022995949
time_elpased: 9.253
#iterations: 521
currently lose_sum: 0.10818125307559967
time_elpased: 9.218
#iterations: 522
currently lose_sum: 0.10839653015136719
time_elpased: 9.079
#iterations: 523
currently lose_sum: 0.121172234416008
time_elpased: 9.093
#iterations: 524
currently lose_sum: 0.008680724538862705
time_elpased: 9.137
#iterations: 525
currently lose_sum: 0.059813667088747025
time_elpased: 8.991
#iterations: 526
currently lose_sum: 0.03567786514759064
time_elpased: 9.124
#iterations: 527
currently lose_sum: 0.1563831865787506
time_elpased: 9.013
#iterations: 528
currently lose_sum: 0.04562024027109146
time_elpased: 9.004
#iterations: 529
currently lose_sum: 0.041945844888687134
time_elpased: 9.023
#iterations: 530
currently lose_sum: 0.15281236171722412
time_elpased: 9.014
#iterations: 531
currently lose_sum: 0.21015498042106628
time_elpased: 9.037
#iterations: 532
currently lose_sum: 0.035153429955244064
time_elpased: 9.447
#iterations: 533
currently lose_sum: 0.14982107281684875
time_elpased: 9.085
#iterations: 534
currently lose_sum: 0.2217472791671753
time_elpased: 8.997
#iterations: 535
currently lose_sum: 0.024718400090932846
time_elpased: 9.135
#iterations: 536
currently lose_sum: 0.08063486963510513
time_elpased: 8.989
#iterations: 537
currently lose_sum: 0.15912720561027527
time_elpased: 9.038
#iterations: 538
currently lose_sum: 0.016179516911506653
time_elpased: 9.28
#iterations: 539
currently lose_sum: 0.025793790817260742
time_elpased: 8.998
start validation test
0.670982142857
0.902286902287
0.386120996441
0.540809968847
0.67200315055
146.469
#iterations: 540
currently lose_sum: 0.07624316215515137
time_elpased: 9.044
#iterations: 541
currently lose_sum: 0.09400461614131927
time_elpased: 9.17
#iterations: 542
currently lose_sum: 0.12456796318292618
time_elpased: 9.09
#iterations: 543
currently lose_sum: 0.014139900915324688
time_elpased: 9.026
#iterations: 544
currently lose_sum: 0.016022708266973495
time_elpased: 8.984
#iterations: 545
currently lose_sum: 0.031054580584168434
time_elpased: 9.2
#iterations: 546
currently lose_sum: 0.0883045569062233
time_elpased: 9.065
#iterations: 547
currently lose_sum: 0.07822822034358978
time_elpased: 9.302
#iterations: 548
currently lose_sum: 0.07831806689500809
time_elpased: 9.061
#iterations: 549
currently lose_sum: 0.015176529064774513
time_elpased: 9.039
#iterations: 550
currently lose_sum: 0.030260439962148666
time_elpased: 9.042
#iterations: 551
currently lose_sum: 0.20103958249092102
time_elpased: 9.03
#iterations: 552
currently lose_sum: 0.003824938088655472
time_elpased: 8.967
#iterations: 553
currently lose_sum: 0.06152256578207016
time_elpased: 8.946
#iterations: 554
currently lose_sum: 0.022824089974164963
time_elpased: 9.069
#iterations: 555
currently lose_sum: 0.09959014505147934
time_elpased: 9.052
#iterations: 556
currently lose_sum: 0.151666522026062
time_elpased: 9.057
#iterations: 557
currently lose_sum: 0.014256125316023827
time_elpased: 9.013
#iterations: 558
currently lose_sum: 0.13647735118865967
time_elpased: 9.054
#iterations: 559
currently lose_sum: 0.03963390737771988
time_elpased: 9.049
start validation test
0.663392857143
0.902173913043
0.369217081851
0.52398989899
0.664447250603
150.664
#iterations: 560
currently lose_sum: 0.054606080055236816
time_elpased: 9.073
#iterations: 561
currently lose_sum: 0.07191430777311325
time_elpased: 9.053
#iterations: 562
currently lose_sum: 0.08076652884483337
time_elpased: 9.144
#iterations: 563
currently lose_sum: 0.01890464499592781
time_elpased: 9.019
#iterations: 564
currently lose_sum: 0.015446946024894714
time_elpased: 9.072
#iterations: 565
currently lose_sum: 0.10327406972646713
time_elpased: 8.994
#iterations: 566
currently lose_sum: 0.13200315833091736
time_elpased: 9.057
#iterations: 567
currently lose_sum: 0.011866346001625061
time_elpased: 9.12
#iterations: 568
currently lose_sum: 0.038218624889850616
time_elpased: 9.057
#iterations: 569
currently lose_sum: 0.004253111779689789
time_elpased: 9.153
#iterations: 570
currently lose_sum: 0.07990207523107529
time_elpased: 8.995
#iterations: 571
currently lose_sum: 0.006318037398159504
time_elpased: 9.303
#iterations: 572
currently lose_sum: 0.09841762483119965
time_elpased: 9.23
#iterations: 573
currently lose_sum: 0.02081362158060074
time_elpased: 8.991
#iterations: 574
currently lose_sum: 0.014500709250569344
time_elpased: 9.021
#iterations: 575
currently lose_sum: 0.04722251743078232
time_elpased: 9.188
#iterations: 576
currently lose_sum: 0.02925175428390503
time_elpased: 8.949
#iterations: 577
currently lose_sum: 0.021432096138596535
time_elpased: 9.326
#iterations: 578
currently lose_sum: 0.04607117921113968
time_elpased: 9.144
#iterations: 579
currently lose_sum: 0.1167190819978714
time_elpased: 9.169
start validation test
0.669642857143
0.910256410256
0.379003558719
0.535175879397
0.670684575058
152.083
#iterations: 580
currently lose_sum: 0.026310432702302933
time_elpased: 9.089
#iterations: 581
currently lose_sum: 0.023617174476385117
time_elpased: 8.962
#iterations: 582
currently lose_sum: 0.02539600059390068
time_elpased: 9.049
#iterations: 583
currently lose_sum: 0.06321259588003159
time_elpased: 8.97
#iterations: 584
currently lose_sum: 0.04988930746912956
time_elpased: 9.066
#iterations: 585
currently lose_sum: 0.11411897838115692
time_elpased: 9.008
#iterations: 586
currently lose_sum: 0.020360907539725304
time_elpased: 9.127
#iterations: 587
currently lose_sum: 0.008303561247885227
time_elpased: 9.334
#iterations: 588
currently lose_sum: 0.014393797144293785
time_elpased: 8.985
#iterations: 589
currently lose_sum: 0.0689457431435585
time_elpased: 9.191
#iterations: 590
currently lose_sum: 0.021493809297680855
time_elpased: 9.467
#iterations: 591
currently lose_sum: 0.04781201481819153
time_elpased: 9.226
#iterations: 592
currently lose_sum: 0.04935002699494362
time_elpased: 9.062
#iterations: 593
currently lose_sum: 0.018916694447398186
time_elpased: 8.985
#iterations: 594
currently lose_sum: 0.0083471043035388
time_elpased: 9.008
#iterations: 595
currently lose_sum: 0.026107337325811386
time_elpased: 9.001
#iterations: 596
currently lose_sum: 0.011628028936684132
time_elpased: 9.048
#iterations: 597
currently lose_sum: 0.014058646745979786
time_elpased: 8.972
#iterations: 598
currently lose_sum: 0.009536683559417725
time_elpased: 9.052
#iterations: 599
currently lose_sum: 0.13050082325935364
time_elpased: 9.004
start validation test
0.656696428571
0.893569844789
0.358540925267
0.511746031746
0.657765086289
158.540
acc: 0.737
pre: 0.795
rec: 0.640
F1: 0.709
auc: 0.737
