start to construct computing graph
graph construct over
3373
epochs start
#iterations: 0
currently lose_sum: 0.6348683834075928
time_elpased: 2.173
#iterations: 1
currently lose_sum: 0.6382721662521362
time_elpased: 2.184
#iterations: 2
currently lose_sum: 0.6027337908744812
time_elpased: 2.14
#iterations: 3
currently lose_sum: 0.593799889087677
time_elpased: 2.273
#iterations: 4
currently lose_sum: 0.5269049406051636
time_elpased: 2.412
#iterations: 5
currently lose_sum: 0.5309150815010071
time_elpased: 2.158
#iterations: 6
currently lose_sum: 0.4275941848754883
time_elpased: 2.235
#iterations: 7
currently lose_sum: 0.4481840133666992
time_elpased: 2.15
#iterations: 8
currently lose_sum: 0.36626729369163513
time_elpased: 2.281
#iterations: 9
currently lose_sum: 0.3294220566749573
time_elpased: 2.191
#iterations: 10
currently lose_sum: 0.6147671937942505
time_elpased: 2.153
#iterations: 11
currently lose_sum: 0.47723227739334106
time_elpased: 2.326
#iterations: 12
currently lose_sum: 0.45093607902526855
time_elpased: 2.124
#iterations: 13
currently lose_sum: 0.4765464663505554
time_elpased: 2.08
#iterations: 14
currently lose_sum: 0.41703447699546814
time_elpased: 2.172
#iterations: 15
currently lose_sum: 0.4180946946144104
time_elpased: 2.096
#iterations: 16
currently lose_sum: 0.3709798753261566
time_elpased: 2.191
#iterations: 17
currently lose_sum: 0.3947041630744934
time_elpased: 2.189
#iterations: 18
currently lose_sum: 0.27120643854141235
time_elpased: 2.111
#iterations: 19
currently lose_sum: 0.36178532242774963
time_elpased: 2.118
start validation test
0.746428571429
0.789583333333
0.674377224199
0.727447216891
0.746686819985
30.129
#iterations: 20
currently lose_sum: 0.49699991941452026
time_elpased: 1.923
#iterations: 21
currently lose_sum: 0.36984413862228394
time_elpased: 1.64
#iterations: 22
currently lose_sum: 0.3320097029209137
time_elpased: 1.66
#iterations: 23
currently lose_sum: 0.22998662292957306
time_elpased: 1.649
#iterations: 24
currently lose_sum: 0.19556036591529846
time_elpased: 1.628
#iterations: 25
currently lose_sum: 0.5453870892524719
time_elpased: 1.638
#iterations: 26
currently lose_sum: 0.30666667222976685
time_elpased: 1.655
#iterations: 27
currently lose_sum: 0.41893714666366577
time_elpased: 1.659
#iterations: 28
currently lose_sum: 0.29464858770370483
time_elpased: 1.621
#iterations: 29
currently lose_sum: 0.2541499733924866
time_elpased: 1.622
#iterations: 30
currently lose_sum: 0.29376474022865295
time_elpased: 1.65
#iterations: 31
currently lose_sum: 0.3956366181373596
time_elpased: 1.725
#iterations: 32
currently lose_sum: 0.41550523042678833
time_elpased: 1.635
#iterations: 33
currently lose_sum: 0.2588478922843933
time_elpased: 1.678
#iterations: 34
currently lose_sum: 0.3524314761161804
time_elpased: 1.63
#iterations: 35
currently lose_sum: 0.35904011130332947
time_elpased: 1.71
#iterations: 36
currently lose_sum: 0.26154714822769165
time_elpased: 1.672
#iterations: 37
currently lose_sum: 0.3808977007865906
time_elpased: 1.722
#iterations: 38
currently lose_sum: 0.27307742834091187
time_elpased: 1.646
#iterations: 39
currently lose_sum: 0.26633456349372864
time_elpased: 1.657
start validation test
0.75625
0.808102345416
0.674377224199
0.735208535403
0.756543450809
34.562
#iterations: 40
currently lose_sum: 0.23041856288909912
time_elpased: 1.637
#iterations: 41
currently lose_sum: 0.32362601161003113
time_elpased: 1.614
#iterations: 42
currently lose_sum: 0.32113784551620483
time_elpased: 1.717
#iterations: 43
currently lose_sum: 0.30874866247177124
time_elpased: 1.677
#iterations: 44
currently lose_sum: 0.3165360689163208
time_elpased: 1.705
#iterations: 45
currently lose_sum: 0.43030110001564026
time_elpased: 1.666
#iterations: 46
currently lose_sum: 0.35205817222595215
time_elpased: 1.712
#iterations: 47
currently lose_sum: 0.2812132239341736
time_elpased: 1.628
#iterations: 48
currently lose_sum: 0.2799111306667328
time_elpased: 1.674
#iterations: 49
currently lose_sum: 0.5141750574111938
time_elpased: 1.676
#iterations: 50
currently lose_sum: 0.3526579737663269
time_elpased: 1.787
#iterations: 51
currently lose_sum: 0.1609334498643875
time_elpased: 1.64
#iterations: 52
currently lose_sum: 0.3516218662261963
time_elpased: 1.808
#iterations: 53
currently lose_sum: 0.2619808316230774
time_elpased: 1.712
#iterations: 54
currently lose_sum: 0.4854603409767151
time_elpased: 1.639
#iterations: 55
currently lose_sum: 0.3583191931247711
time_elpased: 1.665
#iterations: 56
currently lose_sum: 0.166655033826828
time_elpased: 1.662
#iterations: 57
currently lose_sum: 0.27043336629867554
time_elpased: 1.642
#iterations: 58
currently lose_sum: 0.37345248460769653
time_elpased: 1.85
#iterations: 59
currently lose_sum: 0.2764415740966797
time_elpased: 1.659
start validation test
0.753125
0.796469366563
0.682384341637
0.735026353618
0.753378550747
38.093
#iterations: 60
currently lose_sum: 0.20252247154712677
time_elpased: 1.684
#iterations: 61
currently lose_sum: 0.2657882273197174
time_elpased: 1.626
#iterations: 62
currently lose_sum: 0.3315882682800293
time_elpased: 1.621
#iterations: 63
currently lose_sum: 0.3855540454387665
time_elpased: 1.655
#iterations: 64
currently lose_sum: 0.22911739349365234
time_elpased: 1.667
#iterations: 65
currently lose_sum: 0.3562176525592804
time_elpased: 1.639
#iterations: 66
currently lose_sum: 0.35845333337783813
time_elpased: 1.634
#iterations: 67
currently lose_sum: 0.4222324788570404
time_elpased: 1.646
#iterations: 68
currently lose_sum: 0.2818249762058258
time_elpased: 1.638
#iterations: 69
currently lose_sum: 0.3924247622489929
time_elpased: 1.61
#iterations: 70
currently lose_sum: 0.21171216666698456
time_elpased: 1.664
#iterations: 71
currently lose_sum: 0.41615742444992065
time_elpased: 1.689
#iterations: 72
currently lose_sum: 0.24560022354125977
time_elpased: 1.69
#iterations: 73
currently lose_sum: 0.2954339385032654
time_elpased: 1.614
#iterations: 74
currently lose_sum: 0.2235088348388672
time_elpased: 1.686
#iterations: 75
currently lose_sum: 0.2032533437013626
time_elpased: 1.716
#iterations: 76
currently lose_sum: 0.17217525839805603
time_elpased: 1.8
#iterations: 77
currently lose_sum: 0.3178636133670807
time_elpased: 1.651
#iterations: 78
currently lose_sum: 0.18899036943912506
time_elpased: 1.697
#iterations: 79
currently lose_sum: 0.15111000835895538
time_elpased: 1.731
start validation test
0.741517857143
0.845373891001
0.593416370107
0.697334030319
0.742048686845
49.677
#iterations: 80
currently lose_sum: 0.1691928207874298
time_elpased: 1.649
#iterations: 81
currently lose_sum: 0.2694393992424011
time_elpased: 1.657
#iterations: 82
currently lose_sum: 0.12640883028507233
time_elpased: 1.642
#iterations: 83
currently lose_sum: 0.23320479691028595
time_elpased: 1.721
#iterations: 84
currently lose_sum: 0.3937150835990906
time_elpased: 1.642
#iterations: 85
currently lose_sum: 0.21950586140155792
time_elpased: 1.67
#iterations: 86
currently lose_sum: 0.342696875333786
time_elpased: 1.651
#iterations: 87
currently lose_sum: 0.28670281171798706
time_elpased: 1.66
#iterations: 88
currently lose_sum: 0.35569292306900024
time_elpased: 1.643
#iterations: 89
currently lose_sum: 0.3224983215332031
time_elpased: 1.652
#iterations: 90
currently lose_sum: 0.15572187304496765
time_elpased: 1.649
#iterations: 91
currently lose_sum: 0.30720874667167664
time_elpased: 1.768
#iterations: 92
currently lose_sum: 0.1310388743877411
time_elpased: 1.737
#iterations: 93
currently lose_sum: 0.24916009604930878
time_elpased: 1.644
#iterations: 94
currently lose_sum: 0.19059458374977112
time_elpased: 1.801
#iterations: 95
currently lose_sum: 0.16423426568508148
time_elpased: 1.64
#iterations: 96
currently lose_sum: 0.23094196617603302
time_elpased: 1.673
#iterations: 97
currently lose_sum: 0.21498684585094452
time_elpased: 1.636
#iterations: 98
currently lose_sum: 0.2357761114835739
time_elpased: 1.741
#iterations: 99
currently lose_sum: 0.31012865900993347
time_elpased: 1.616
start validation test
0.742410714286
0.829121540313
0.612989323843
0.704859335038
0.742874590237
52.489
#iterations: 100
currently lose_sum: 0.17415061593055725
time_elpased: 1.637
#iterations: 101
currently lose_sum: 0.19220931828022003
time_elpased: 1.655
#iterations: 102
currently lose_sum: 0.2485407292842865
time_elpased: 1.687
#iterations: 103
currently lose_sum: 0.19642484188079834
time_elpased: 1.637
#iterations: 104
currently lose_sum: 0.289747953414917
time_elpased: 1.607
#iterations: 105
currently lose_sum: 0.2703284025192261
time_elpased: 1.699
#iterations: 106
currently lose_sum: 0.169789120554924
time_elpased: 1.714
#iterations: 107
currently lose_sum: 0.11643326282501221
time_elpased: 1.637
#iterations: 108
currently lose_sum: 0.13144414126873016
time_elpased: 1.628
#iterations: 109
currently lose_sum: 0.29305514693260193
time_elpased: 1.618
#iterations: 110
currently lose_sum: 0.14259980618953705
time_elpased: 1.733
#iterations: 111
currently lose_sum: 0.24835705757141113
time_elpased: 1.78
#iterations: 112
currently lose_sum: 0.27835363149642944
time_elpased: 1.696
#iterations: 113
currently lose_sum: 0.2359086275100708
time_elpased: 1.664
#iterations: 114
currently lose_sum: 0.29674848914146423
time_elpased: 1.821
#iterations: 115
currently lose_sum: 0.25971490144729614
time_elpased: 1.723
#iterations: 116
currently lose_sum: 0.22729763388633728
time_elpased: 1.647
#iterations: 117
currently lose_sum: 0.3148513734340668
time_elpased: 1.643
#iterations: 118
currently lose_sum: 0.15079531073570251
time_elpased: 1.848
#iterations: 119
currently lose_sum: 0.1777307540178299
time_elpased: 1.658
start validation test
0.732589285714
0.823674475956
0.594306049822
0.690439276486
0.733084924553
55.350
#iterations: 120
currently lose_sum: 0.19199618697166443
time_elpased: 1.752
#iterations: 121
currently lose_sum: 0.11549069732427597
time_elpased: 1.908
#iterations: 122
currently lose_sum: 0.1869356632232666
time_elpased: 1.649
#iterations: 123
currently lose_sum: 0.11221971362829208
time_elpased: 1.624
#iterations: 124
currently lose_sum: 0.26413628458976746
time_elpased: 1.741
#iterations: 125
currently lose_sum: 0.2153870314359665
time_elpased: 1.652
#iterations: 126
currently lose_sum: 0.17895814776420593
time_elpased: 1.621
#iterations: 127
currently lose_sum: 0.22215533256530762
time_elpased: 1.611
#iterations: 128
currently lose_sum: 0.13402172923088074
time_elpased: 1.62
#iterations: 129
currently lose_sum: 0.25433847308158875
time_elpased: 1.635
#iterations: 130
currently lose_sum: 0.15382948517799377
time_elpased: 1.648
#iterations: 131
currently lose_sum: 0.09958904981613159
time_elpased: 1.663
#iterations: 132
currently lose_sum: 0.3366760015487671
time_elpased: 1.714
#iterations: 133
currently lose_sum: 0.17104029655456543
time_elpased: 1.646
#iterations: 134
currently lose_sum: 0.22263126075267792
time_elpased: 1.714
#iterations: 135
currently lose_sum: 0.33281540870666504
time_elpased: 1.633
#iterations: 136
currently lose_sum: 0.2227632999420166
time_elpased: 1.647
#iterations: 137
currently lose_sum: 0.12712791562080383
time_elpased: 1.758
#iterations: 138
currently lose_sum: 0.09601058065891266
time_elpased: 1.621
#iterations: 139
currently lose_sum: 0.22860422730445862
time_elpased: 1.649
start validation test
0.739285714286
0.854330708661
0.579181494662
0.690349946978
0.739859564535
58.509
#iterations: 140
currently lose_sum: 0.19544199109077454
time_elpased: 1.655
#iterations: 141
currently lose_sum: 0.23038282990455627
time_elpased: 1.681
#iterations: 142
currently lose_sum: 0.1503056138753891
time_elpased: 1.613
#iterations: 143
currently lose_sum: 0.24621233344078064
time_elpased: 1.693
#iterations: 144
currently lose_sum: 0.21677115559577942
time_elpased: 1.72
#iterations: 145
currently lose_sum: 0.22118163108825684
time_elpased: 1.626
#iterations: 146
currently lose_sum: 0.35585781931877136
time_elpased: 1.655
#iterations: 147
currently lose_sum: 0.1374029666185379
time_elpased: 1.639
#iterations: 148
currently lose_sum: 0.17069849371910095
time_elpased: 1.625
#iterations: 149
currently lose_sum: 0.14579349756240845
time_elpased: 1.615
#iterations: 150
currently lose_sum: 0.18817020952701569
time_elpased: 1.666
#iterations: 151
currently lose_sum: 0.238433837890625
time_elpased: 1.627
#iterations: 152
currently lose_sum: 0.15921831130981445
time_elpased: 1.886
#iterations: 153
currently lose_sum: 0.24438640475273132
time_elpased: 1.691
#iterations: 154
currently lose_sum: 0.11575969308614731
time_elpased: 1.65
#iterations: 155
currently lose_sum: 0.1255774050951004
time_elpased: 1.671
#iterations: 156
currently lose_sum: 0.21132342517375946
time_elpased: 1.671
#iterations: 157
currently lose_sum: 0.2377929985523224
time_elpased: 1.675
#iterations: 158
currently lose_sum: 0.23984305560588837
time_elpased: 1.721
#iterations: 159
currently lose_sum: 0.14935755729675293
time_elpased: 1.628
start validation test
0.723214285714
0.865217391304
0.531138790036
0.658213891951
0.723902728351
69.744
#iterations: 160
currently lose_sum: 0.15826544165611267
time_elpased: 1.684
#iterations: 161
currently lose_sum: 0.26847243309020996
time_elpased: 1.661
#iterations: 162
currently lose_sum: 0.41817355155944824
time_elpased: 1.696
#iterations: 163
currently lose_sum: 0.18110640347003937
time_elpased: 1.647
#iterations: 164
currently lose_sum: 0.1763506680727005
time_elpased: 1.683
#iterations: 165
currently lose_sum: 0.14920271933078766
time_elpased: 1.671
#iterations: 166
currently lose_sum: 0.2653404772281647
time_elpased: 1.7
#iterations: 167
currently lose_sum: 0.28198790550231934
time_elpased: 1.68
#iterations: 168
currently lose_sum: 0.36165642738342285
time_elpased: 1.666
#iterations: 169
currently lose_sum: 0.18390291929244995
time_elpased: 1.675
#iterations: 170
currently lose_sum: 0.2597275674343109
time_elpased: 1.799
#iterations: 171
currently lose_sum: 0.14070600271224976
time_elpased: 1.607
#iterations: 172
currently lose_sum: 0.17297688126564026
time_elpased: 1.746
#iterations: 173
currently lose_sum: 0.15634939074516296
time_elpased: 1.621
#iterations: 174
currently lose_sum: 0.14223003387451172
time_elpased: 1.632
#iterations: 175
currently lose_sum: 0.13873501121997833
time_elpased: 1.642
#iterations: 176
currently lose_sum: 0.29161304235458374
time_elpased: 1.845
#iterations: 177
currently lose_sum: 0.25089311599731445
time_elpased: 1.774
#iterations: 178
currently lose_sum: 0.2503267526626587
time_elpased: 1.691
#iterations: 179
currently lose_sum: 0.18565145134925842
time_elpased: 1.686
start validation test
0.730357142857
0.849462365591
0.562277580071
0.676659528908
0.730959578566
66.858
#iterations: 180
currently lose_sum: 0.10535909980535507
time_elpased: 1.639
#iterations: 181
currently lose_sum: 0.2677707076072693
time_elpased: 1.628
#iterations: 182
currently lose_sum: 0.1975906938314438
time_elpased: 1.653
#iterations: 183
currently lose_sum: 0.11826757341623306
time_elpased: 1.797
#iterations: 184
currently lose_sum: 0.1601397693157196
time_elpased: 1.641
#iterations: 185
currently lose_sum: 0.1449110507965088
time_elpased: 1.655
#iterations: 186
currently lose_sum: 0.2950803339481354
time_elpased: 1.665
#iterations: 187
currently lose_sum: 0.15696348249912262
time_elpased: 1.659
#iterations: 188
currently lose_sum: 0.2732697129249573
time_elpased: 1.622
#iterations: 189
currently lose_sum: 0.14310936629772186
time_elpased: 1.708
#iterations: 190
currently lose_sum: 0.2727855145931244
time_elpased: 1.668
#iterations: 191
currently lose_sum: 0.11533348262310028
time_elpased: 1.654
#iterations: 192
currently lose_sum: 0.13827374577522278
time_elpased: 1.609
#iterations: 193
currently lose_sum: 0.2913915514945984
time_elpased: 1.628
#iterations: 194
currently lose_sum: 0.09586849808692932
time_elpased: 1.673
#iterations: 195
currently lose_sum: 0.19754403829574585
time_elpased: 1.664
#iterations: 196
currently lose_sum: 0.2740146517753601
time_elpased: 1.637
#iterations: 197
currently lose_sum: 0.07209952175617218
time_elpased: 1.652
#iterations: 198
currently lose_sum: 0.21782925724983215
time_elpased: 1.652
#iterations: 199
currently lose_sum: 0.18372544646263123
time_elpased: 1.602
start validation test
0.712946428571
0.859491778774
0.511565836299
0.641383156721
0.713668222809
75.893
#iterations: 200
currently lose_sum: 0.14328642189502716
time_elpased: 1.685
#iterations: 201
currently lose_sum: 0.10656209290027618
time_elpased: 1.715
#iterations: 202
currently lose_sum: 0.1885402500629425
time_elpased: 1.819
#iterations: 203
currently lose_sum: 0.20506465435028076
time_elpased: 1.666
#iterations: 204
currently lose_sum: 0.2357916384935379
time_elpased: 1.621
#iterations: 205
currently lose_sum: 0.05540550872683525
time_elpased: 1.778
#iterations: 206
currently lose_sum: 0.11728658527135849
time_elpased: 1.631
#iterations: 207
currently lose_sum: 0.26383286714553833
time_elpased: 1.684
#iterations: 208
currently lose_sum: 0.1829122006893158
time_elpased: 1.861
#iterations: 209
currently lose_sum: 0.25587430596351624
time_elpased: 1.646
#iterations: 210
currently lose_sum: 0.2541254460811615
time_elpased: 1.838
#iterations: 211
currently lose_sum: 0.2562718689441681
time_elpased: 1.621
#iterations: 212
currently lose_sum: 0.15958057343959808
time_elpased: 1.634
#iterations: 213
currently lose_sum: 0.1300029456615448
time_elpased: 1.642
#iterations: 214
currently lose_sum: 0.2746208608150482
time_elpased: 1.688
#iterations: 215
currently lose_sum: 0.12798543274402618
time_elpased: 1.822
#iterations: 216
currently lose_sum: 0.2574657201766968
time_elpased: 1.619
#iterations: 217
currently lose_sum: 0.16579528152942657
time_elpased: 1.607
#iterations: 218
currently lose_sum: 0.26933765411376953
time_elpased: 1.684
#iterations: 219
currently lose_sum: 0.1653050035238266
time_elpased: 1.68
start validation test
0.713839285714
0.856720827179
0.516014234875
0.644086618545
0.714548336076
79.347
#iterations: 220
currently lose_sum: 0.12007749080657959
time_elpased: 1.627
#iterations: 221
currently lose_sum: 0.20758800208568573
time_elpased: 1.774
#iterations: 222
currently lose_sum: 0.25185760855674744
time_elpased: 1.814
#iterations: 223
currently lose_sum: 0.1250346153974533
time_elpased: 1.669
#iterations: 224
currently lose_sum: 0.23955181241035461
time_elpased: 1.699
#iterations: 225
currently lose_sum: 0.10304467380046844
time_elpased: 1.69
#iterations: 226
currently lose_sum: 0.16748176515102386
time_elpased: 1.667
#iterations: 227
currently lose_sum: 0.09423543512821198
time_elpased: 1.658
#iterations: 228
currently lose_sum: 0.2072535753250122
time_elpased: 1.626
#iterations: 229
currently lose_sum: 0.16901099681854248
time_elpased: 1.653
#iterations: 230
currently lose_sum: 0.15930961072444916
time_elpased: 1.702
#iterations: 231
currently lose_sum: 0.20521888136863708
time_elpased: 1.67
#iterations: 232
currently lose_sum: 0.17010608315467834
time_elpased: 1.672
#iterations: 233
currently lose_sum: 0.08955319970846176
time_elpased: 1.637
#iterations: 234
currently lose_sum: 0.14554084837436676
time_elpased: 1.935
#iterations: 235
currently lose_sum: 0.10324804484844208
time_elpased: 1.649
#iterations: 236
currently lose_sum: 0.12665262818336487
time_elpased: 1.618
#iterations: 237
currently lose_sum: 0.1426326334476471
time_elpased: 1.69
#iterations: 238
currently lose_sum: 0.21826478838920593
time_elpased: 1.653
#iterations: 239
currently lose_sum: 0.23227722942829132
time_elpased: 1.683
start validation test
0.729910714286
0.855967078189
0.555160142349
0.673502428494
0.730537060422
74.601
#iterations: 240
currently lose_sum: 0.05106813833117485
time_elpased: 1.627
#iterations: 241
currently lose_sum: 0.18618233501911163
time_elpased: 1.785
#iterations: 242
currently lose_sum: 0.07038579881191254
time_elpased: 1.671
#iterations: 243
currently lose_sum: 0.24557164311408997
time_elpased: 1.638
#iterations: 244
currently lose_sum: 0.08597365021705627
time_elpased: 1.671
#iterations: 245
currently lose_sum: 0.21885542571544647
time_elpased: 1.734
#iterations: 246
currently lose_sum: 0.20529265701770782
time_elpased: 1.704
#iterations: 247
currently lose_sum: 0.1632947027683258
time_elpased: 1.745
#iterations: 248
currently lose_sum: 0.2930867671966553
time_elpased: 1.676
#iterations: 249
currently lose_sum: 0.03790837153792381
time_elpased: 1.649
#iterations: 250
currently lose_sum: 0.07092463970184326
time_elpased: 1.66
#iterations: 251
currently lose_sum: 0.20321336388587952
time_elpased: 1.665
#iterations: 252
currently lose_sum: 0.02753707766532898
time_elpased: 1.657
#iterations: 253
currently lose_sum: 0.19406548142433167
time_elpased: 1.82
#iterations: 254
currently lose_sum: 0.15690913796424866
time_elpased: 1.714
#iterations: 255
currently lose_sum: 0.18175944685935974
time_elpased: 1.663
#iterations: 256
currently lose_sum: 0.19213883578777313
time_elpased: 1.622
#iterations: 257
currently lose_sum: 0.08471325039863586
time_elpased: 1.635
#iterations: 258
currently lose_sum: 0.22641995549201965
time_elpased: 1.609
#iterations: 259
currently lose_sum: 0.16293159127235413
time_elpased: 1.658
start validation test
0.722767857143
0.874813710879
0.522241992883
0.654038997214
0.723486587839
84.385
#iterations: 260
currently lose_sum: 0.1278817355632782
time_elpased: 1.704
#iterations: 261
currently lose_sum: 0.099217988550663
time_elpased: 1.671
#iterations: 262
currently lose_sum: 0.07712707668542862
time_elpased: 1.663
#iterations: 263
currently lose_sum: 0.14382117986679077
time_elpased: 1.701
#iterations: 264
currently lose_sum: 0.09685735404491425
time_elpased: 1.667
#iterations: 265
currently lose_sum: 0.09445688873529434
time_elpased: 1.642
#iterations: 266
currently lose_sum: 0.06756331771612167
time_elpased: 1.777
#iterations: 267
currently lose_sum: 0.21978183090686798
time_elpased: 1.671
#iterations: 268
currently lose_sum: 0.11812496185302734
time_elpased: 1.667
#iterations: 269
currently lose_sum: 0.18727949261665344
time_elpased: 1.664
#iterations: 270
currently lose_sum: 0.11589701473712921
time_elpased: 1.704
#iterations: 271
currently lose_sum: 0.12459273636341095
time_elpased: 1.686
#iterations: 272
currently lose_sum: 0.41022348403930664
time_elpased: 1.685
#iterations: 273
currently lose_sum: 0.060600120574235916
time_elpased: 1.635
#iterations: 274
currently lose_sum: 0.21696455776691437
time_elpased: 1.725
#iterations: 275
currently lose_sum: 0.15213099122047424
time_elpased: 1.654
#iterations: 276
currently lose_sum: 0.1230664998292923
time_elpased: 1.643
#iterations: 277
currently lose_sum: 0.18506574630737305
time_elpased: 1.627
#iterations: 278
currently lose_sum: 0.0867110937833786
time_elpased: 1.681
#iterations: 279
currently lose_sum: 0.22700604796409607
time_elpased: 1.735
start validation test
0.726785714286
0.863636363636
0.540925266904
0.665207877462
0.727451880764
83.527
#iterations: 280
currently lose_sum: 0.06682634353637695
time_elpased: 1.626
#iterations: 281
currently lose_sum: 0.13850612938404083
time_elpased: 1.646
#iterations: 282
currently lose_sum: 0.28713735938072205
time_elpased: 1.651
#iterations: 283
currently lose_sum: 0.07950124889612198
time_elpased: 1.866
#iterations: 284
currently lose_sum: 0.12699255347251892
time_elpased: 1.635
#iterations: 285
currently lose_sum: 0.16969791054725647
time_elpased: 1.769
#iterations: 286
currently lose_sum: 0.20916149020195007
time_elpased: 1.706
#iterations: 287
currently lose_sum: 0.16109144687652588
time_elpased: 1.625
#iterations: 288
currently lose_sum: 0.18543756008148193
time_elpased: 1.675
#iterations: 289
currently lose_sum: 0.1339949667453766
time_elpased: 1.669
#iterations: 290
currently lose_sum: 0.15378794074058533
time_elpased: 1.632
#iterations: 291
currently lose_sum: 0.158670574426651
time_elpased: 1.676
#iterations: 292
currently lose_sum: 0.1915246695280075
time_elpased: 1.777
#iterations: 293
currently lose_sum: 0.15512745082378387
time_elpased: 1.666
#iterations: 294
currently lose_sum: 0.17882513999938965
time_elpased: 1.634
#iterations: 295
currently lose_sum: 0.121479332447052
time_elpased: 1.737
#iterations: 296
currently lose_sum: 0.1583450734615326
time_elpased: 2.055
#iterations: 297
currently lose_sum: 0.22260761260986328
time_elpased: 1.651
#iterations: 298
currently lose_sum: 0.12857185304164886
time_elpased: 1.644
#iterations: 299
currently lose_sum: 0.0923391729593277
time_elpased: 1.702
start validation test
0.716071428571
0.860946745562
0.517793594306
0.646666666667
0.716782101813
89.486
#iterations: 300
currently lose_sum: 0.09299592673778534
time_elpased: 1.686
#iterations: 301
currently lose_sum: 0.19724389910697937
time_elpased: 1.635
#iterations: 302
currently lose_sum: 0.38392436504364014
time_elpased: 1.791
#iterations: 303
currently lose_sum: 0.16449995338916779
time_elpased: 1.614
#iterations: 304
currently lose_sum: 0.08802088350057602
time_elpased: 1.711
#iterations: 305
currently lose_sum: 0.19315218925476074
time_elpased: 1.662
#iterations: 306
currently lose_sum: 0.07166916131973267
time_elpased: 1.667
#iterations: 307
currently lose_sum: 0.052876271307468414
time_elpased: 1.687
#iterations: 308
currently lose_sum: 0.03947361931204796
time_elpased: 1.671
#iterations: 309
currently lose_sum: 0.18308769166469574
time_elpased: 1.628
#iterations: 310
currently lose_sum: 0.08506598323583603
time_elpased: 1.846
#iterations: 311
currently lose_sum: 0.13327419757843018
time_elpased: 1.658
#iterations: 312
currently lose_sum: 0.07921355217695236
time_elpased: 1.763
#iterations: 313
currently lose_sum: 0.08082862198352814
time_elpased: 1.713
#iterations: 314
currently lose_sum: 0.11624586582183838
time_elpased: 1.643
#iterations: 315
currently lose_sum: 0.12474904954433441
time_elpased: 1.733
#iterations: 316
currently lose_sum: 0.18388941884040833
time_elpased: 1.65
#iterations: 317
currently lose_sum: 0.25786474347114563
time_elpased: 1.662
#iterations: 318
currently lose_sum: 0.07947927713394165
time_elpased: 1.679
#iterations: 319
currently lose_sum: 0.22704629600048065
time_elpased: 1.626
start validation test
0.714285714286
0.841807909605
0.53024911032
0.650655021834
0.714945343691
86.415
#iterations: 320
currently lose_sum: 0.14596810936927795
time_elpased: 1.649
#iterations: 321
currently lose_sum: 0.20777198672294617
time_elpased: 1.741
#iterations: 322
currently lose_sum: 0.23949579894542694
time_elpased: 1.604
#iterations: 323
currently lose_sum: 0.062165357172489166
time_elpased: 1.642
#iterations: 324
currently lose_sum: 0.22343361377716064
time_elpased: 1.77
#iterations: 325
currently lose_sum: 0.15275558829307556
time_elpased: 1.618
#iterations: 326
currently lose_sum: 0.08250512182712555
time_elpased: 1.773
#iterations: 327
currently lose_sum: 0.14665275812149048
time_elpased: 1.631
#iterations: 328
currently lose_sum: 0.09242390096187592
time_elpased: 1.654
#iterations: 329
currently lose_sum: 0.0676080733537674
time_elpased: 1.76
#iterations: 330
currently lose_sum: 0.2450135052204132
time_elpased: 1.669
#iterations: 331
currently lose_sum: 0.1833813488483429
time_elpased: 1.786
#iterations: 332
currently lose_sum: 0.22103199362754822
time_elpased: 1.737
#iterations: 333
currently lose_sum: 0.10886865854263306
time_elpased: 1.641
#iterations: 334
currently lose_sum: 0.28430116176605225
time_elpased: 1.654
#iterations: 335
currently lose_sum: 0.0556408055126667
time_elpased: 1.628
#iterations: 336
currently lose_sum: 0.18649053573608398
time_elpased: 1.656
#iterations: 337
currently lose_sum: 0.0828176885843277
time_elpased: 1.662
#iterations: 338
currently lose_sum: 0.11629121005535126
time_elpased: 1.671
#iterations: 339
currently lose_sum: 0.1987464874982834
time_elpased: 1.692
start validation test
0.709821428571
0.856927710843
0.506227758007
0.636465324385
0.710551154989
95.459
#iterations: 340
currently lose_sum: 0.11886823177337646
time_elpased: 1.662
#iterations: 341
currently lose_sum: 0.13905012607574463
time_elpased: 1.733
#iterations: 342
currently lose_sum: 0.13803747296333313
time_elpased: 1.772
#iterations: 343
currently lose_sum: 0.12177915871143341
time_elpased: 1.641
#iterations: 344
currently lose_sum: 0.11259885132312775
time_elpased: 1.588
#iterations: 345
currently lose_sum: 0.16212356090545654
time_elpased: 1.625
#iterations: 346
currently lose_sum: 0.16034261882305145
time_elpased: 1.626
#iterations: 347
currently lose_sum: 0.1493317186832428
time_elpased: 1.685
#iterations: 348
currently lose_sum: 0.24380627274513245
time_elpased: 1.712
#iterations: 349
currently lose_sum: 0.0784110352396965
time_elpased: 1.645
#iterations: 350
currently lose_sum: 0.058679960668087006
time_elpased: 1.675
#iterations: 351
currently lose_sum: 0.058569539338350296
time_elpased: 1.634
#iterations: 352
currently lose_sum: 0.10507545620203018
time_elpased: 1.757
#iterations: 353
currently lose_sum: 0.16939254105091095
time_elpased: 1.657
#iterations: 354
currently lose_sum: 0.17398211359977722
time_elpased: 1.735
#iterations: 355
currently lose_sum: 0.12651099264621735
time_elpased: 1.665
#iterations: 356
currently lose_sum: 0.08977407217025757
time_elpased: 1.681
#iterations: 357
currently lose_sum: 0.1178666353225708
time_elpased: 1.628
#iterations: 358
currently lose_sum: 0.14657482504844666
time_elpased: 1.685
#iterations: 359
currently lose_sum: 0.064793162047863
time_elpased: 1.635
start validation test
0.7
0.86569579288
0.475978647687
0.614236509759
0.700802943915
103.287
#iterations: 360
currently lose_sum: 0.14454591274261475
time_elpased: 1.634
#iterations: 361
currently lose_sum: 0.028504613786935806
time_elpased: 1.647
#iterations: 362
currently lose_sum: 0.15185245871543884
time_elpased: 1.677
#iterations: 363
currently lose_sum: 0.10050121694803238
time_elpased: 1.646
#iterations: 364
currently lose_sum: 0.22495894134044647
time_elpased: 1.602
#iterations: 365
currently lose_sum: 0.068588986992836
time_elpased: 1.656
#iterations: 366
currently lose_sum: 0.056940656155347824
time_elpased: 1.608
#iterations: 367
currently lose_sum: 0.048611119389534
time_elpased: 1.62
#iterations: 368
currently lose_sum: 0.18560437858104706
time_elpased: 1.803
#iterations: 369
currently lose_sum: 0.034098487347364426
time_elpased: 1.63
#iterations: 370
currently lose_sum: 0.17492684721946716
time_elpased: 1.627
#iterations: 371
currently lose_sum: 0.12256503105163574
time_elpased: 1.84
#iterations: 372
currently lose_sum: 0.07993586361408234
time_elpased: 1.712
#iterations: 373
currently lose_sum: 0.10358176380395889
time_elpased: 1.649
#iterations: 374
currently lose_sum: 0.16031408309936523
time_elpased: 1.627
#iterations: 375
currently lose_sum: 0.14056149125099182
time_elpased: 1.656
#iterations: 376
currently lose_sum: 0.06514476239681244
time_elpased: 1.67
#iterations: 377
currently lose_sum: 0.14278806746006012
time_elpased: 1.666
#iterations: 378
currently lose_sum: 0.16832976043224335
time_elpased: 1.65
#iterations: 379
currently lose_sum: 0.18459078669548035
time_elpased: 1.635
start validation test
0.708482142857
0.867394695788
0.494661921708
0.630028328612
0.709248523578
103.808
#iterations: 380
currently lose_sum: 0.18412406742572784
time_elpased: 1.663
#iterations: 381
currently lose_sum: 0.21817679703235626
time_elpased: 1.682
#iterations: 382
currently lose_sum: 0.09812045097351074
time_elpased: 1.649
#iterations: 383
currently lose_sum: 0.0680609941482544
time_elpased: 1.703
#iterations: 384
currently lose_sum: 0.06374310702085495
time_elpased: 1.603
#iterations: 385
currently lose_sum: 0.18691065907478333
time_elpased: 1.713
#iterations: 386
currently lose_sum: 0.1387699842453003
time_elpased: 1.62
#iterations: 387
currently lose_sum: 0.10062730312347412
time_elpased: 1.709
#iterations: 388
currently lose_sum: 0.06572340428829193
time_elpased: 1.704
#iterations: 389
currently lose_sum: 0.19552427530288696
time_elpased: 1.692
#iterations: 390
currently lose_sum: 0.049608126282691956
time_elpased: 2.007
#iterations: 391
currently lose_sum: 0.0389251783490181
time_elpased: 1.659
#iterations: 392
currently lose_sum: 0.05211309343576431
time_elpased: 1.658
#iterations: 393
currently lose_sum: 0.3082149624824524
time_elpased: 2.041
#iterations: 394
currently lose_sum: 0.2448582947254181
time_elpased: 1.599
#iterations: 395
currently lose_sum: 0.0980997085571289
time_elpased: 1.751
#iterations: 396
currently lose_sum: 0.07737874984741211
time_elpased: 1.745
#iterations: 397
currently lose_sum: 0.10636240243911743
time_elpased: 1.692
#iterations: 398
currently lose_sum: 0.059168536216020584
time_elpased: 1.774
#iterations: 399
currently lose_sum: 0.10240628570318222
time_elpased: 1.684
start validation test
0.712946428571
0.877551020408
0.497330960854
0.634866553095
0.713719243868
103.264
#iterations: 400
currently lose_sum: 0.132761150598526
time_elpased: 1.642
#iterations: 401
currently lose_sum: 0.16105541586875916
time_elpased: 1.622
#iterations: 402
currently lose_sum: 0.25472337007522583
time_elpased: 1.915
#iterations: 403
currently lose_sum: 0.054004181176424026
time_elpased: 1.873
#iterations: 404
currently lose_sum: 0.03477833420038223
time_elpased: 1.649
#iterations: 405
currently lose_sum: 0.030048441141843796
time_elpased: 1.771
#iterations: 406
currently lose_sum: 0.2980702519416809
time_elpased: 1.702
#iterations: 407
currently lose_sum: 0.15606331825256348
time_elpased: 1.71
#iterations: 408
currently lose_sum: 0.037950046360492706
time_elpased: 1.683
#iterations: 409
currently lose_sum: 0.07295627892017365
time_elpased: 1.653
#iterations: 410
currently lose_sum: 0.06986608356237411
time_elpased: 1.637
#iterations: 411
currently lose_sum: 0.09038884937763214
time_elpased: 1.663
#iterations: 412
currently lose_sum: 0.1368984580039978
time_elpased: 1.684
#iterations: 413
currently lose_sum: 0.05621685832738876
time_elpased: 1.624
#iterations: 414
currently lose_sum: 0.02379121072590351
time_elpased: 1.654
#iterations: 415
currently lose_sum: 0.037552036345005035
time_elpased: 1.693
#iterations: 416
currently lose_sum: 0.1013229489326477
time_elpased: 1.611
#iterations: 417
currently lose_sum: 0.2163197249174118
time_elpased: 1.643
#iterations: 418
currently lose_sum: 0.04860442131757736
time_elpased: 1.783
#iterations: 419
currently lose_sum: 0.1140822172164917
time_elpased: 1.644
start validation test
0.700892857143
0.880872483221
0.467081850534
0.610465116279
0.701730889425
112.624
#iterations: 420
currently lose_sum: 0.09875845164060593
time_elpased: 1.646
#iterations: 421
currently lose_sum: 0.3175867795944214
time_elpased: 1.617
#iterations: 422
currently lose_sum: 0.1898338496685028
time_elpased: 1.637
#iterations: 423
currently lose_sum: 0.31969738006591797
time_elpased: 1.632
#iterations: 424
currently lose_sum: 0.1902623474597931
time_elpased: 1.667
#iterations: 425
currently lose_sum: 0.15084782242774963
time_elpased: 1.87
#iterations: 426
currently lose_sum: 0.1667545735836029
time_elpased: 1.643
#iterations: 427
currently lose_sum: 0.172758549451828
time_elpased: 1.641
#iterations: 428
currently lose_sum: 0.2844996154308319
time_elpased: 1.669
#iterations: 429
currently lose_sum: 0.10694099962711334
time_elpased: 1.649
#iterations: 430
currently lose_sum: 0.09199517965316772
time_elpased: 1.68
#iterations: 431
currently lose_sum: 0.054970789700746536
time_elpased: 1.599
#iterations: 432
currently lose_sum: 0.09439308941364288
time_elpased: 1.778
#iterations: 433
currently lose_sum: 0.15495915710926056
time_elpased: 1.666
#iterations: 434
currently lose_sum: 0.07502720504999161
time_elpased: 1.78
#iterations: 435
currently lose_sum: 0.03562431037425995
time_elpased: 1.702
#iterations: 436
currently lose_sum: 0.20036959648132324
time_elpased: 1.633
#iterations: 437
currently lose_sum: 0.07094699144363403
time_elpased: 2.01
#iterations: 438
currently lose_sum: 0.27367210388183594
time_elpased: 1.668
#iterations: 439
currently lose_sum: 0.06662575155496597
time_elpased: 1.725
start validation test
0.695535714286
0.862295081967
0.467971530249
0.606689734717
0.696351356522
113.783
#iterations: 440
currently lose_sum: 0.19325527548789978
time_elpased: 1.661
#iterations: 441
currently lose_sum: 0.04252483323216438
time_elpased: 1.69
#iterations: 442
currently lose_sum: 0.06255708634853363
time_elpased: 1.67
#iterations: 443
currently lose_sum: 0.2032027244567871
time_elpased: 1.69
#iterations: 444
currently lose_sum: 0.09914764016866684
time_elpased: 1.736
#iterations: 445
currently lose_sum: 0.06682891398668289
time_elpased: 1.689
#iterations: 446
currently lose_sum: 0.31011873483657837
time_elpased: 1.802
#iterations: 447
currently lose_sum: 0.04743286222219467
time_elpased: 1.612
#iterations: 448
currently lose_sum: 0.17388348281383514
time_elpased: 1.656
#iterations: 449
currently lose_sum: 0.06341738998889923
time_elpased: 1.669
#iterations: 450
currently lose_sum: 0.08951172232627869
time_elpased: 1.634
#iterations: 451
currently lose_sum: 0.05025792121887207
time_elpased: 1.621
#iterations: 452
currently lose_sum: 0.1271938532590866
time_elpased: 1.733
#iterations: 453
currently lose_sum: 0.0752972811460495
time_elpased: 1.894
#iterations: 454
currently lose_sum: 0.10846726596355438
time_elpased: 1.629
#iterations: 455
currently lose_sum: 0.18190333247184753
time_elpased: 1.671
#iterations: 456
currently lose_sum: 0.12364673614501953
time_elpased: 1.663
#iterations: 457
currently lose_sum: 0.18119993805885315
time_elpased: 1.618
#iterations: 458
currently lose_sum: 0.15493658185005188
time_elpased: 1.647
#iterations: 459
currently lose_sum: 0.0976964682340622
time_elpased: 1.651
start validation test
0.698660714286
0.868637110016
0.470640569395
0.610502019619
0.699477990791
114.351
#iterations: 460
currently lose_sum: 0.2643393874168396
time_elpased: 1.641
#iterations: 461
currently lose_sum: 0.10116522014141083
time_elpased: 1.841
#iterations: 462
currently lose_sum: 0.16451898217201233
time_elpased: 1.652
#iterations: 463
currently lose_sum: 0.05954067036509514
time_elpased: 1.724
#iterations: 464
currently lose_sum: 0.19066734611988068
time_elpased: 1.666
#iterations: 465
currently lose_sum: 0.13587452471256256
time_elpased: 1.647
#iterations: 466
currently lose_sum: 0.15613533556461334
time_elpased: 1.631
#iterations: 467
currently lose_sum: 0.05576368048787117
time_elpased: 1.875
#iterations: 468
currently lose_sum: 0.26045921444892883
time_elpased: 1.607
#iterations: 469
currently lose_sum: 0.1764712929725647
time_elpased: 1.78
#iterations: 470
currently lose_sum: 0.03538854420185089
time_elpased: 1.63
#iterations: 471
currently lose_sum: 0.18948812782764435
time_elpased: 1.628
#iterations: 472
currently lose_sum: 0.11561074107885361
time_elpased: 1.655
#iterations: 473
currently lose_sum: 0.11517421156167984
time_elpased: 1.681
#iterations: 474
currently lose_sum: 0.1403583288192749
time_elpased: 1.65
#iterations: 475
currently lose_sum: 0.11147253215312958
time_elpased: 1.759
#iterations: 476
currently lose_sum: 0.05313459783792496
time_elpased: 1.602
#iterations: 477
currently lose_sum: 0.06647409498691559
time_elpased: 1.658
#iterations: 478
currently lose_sum: 0.23745116591453552
time_elpased: 1.655
#iterations: 479
currently lose_sum: 0.041777342557907104
time_elpased: 1.685
start validation test
0.691517857143
0.872633390706
0.451067615658
0.594721407625
0.692379685965
118.637
#iterations: 480
currently lose_sum: 0.02863832376897335
time_elpased: 1.862
#iterations: 481
currently lose_sum: 0.0791877955198288
time_elpased: 1.692
#iterations: 482
currently lose_sum: 0.22841933369636536
time_elpased: 1.656
#iterations: 483
currently lose_sum: 0.16986501216888428
time_elpased: 1.665
#iterations: 484
currently lose_sum: 0.12074591219425201
time_elpased: 1.67
#iterations: 485
currently lose_sum: 0.05122963339090347
time_elpased: 1.628
#iterations: 486
currently lose_sum: 0.11750274896621704
time_elpased: 1.624
#iterations: 487
currently lose_sum: 0.13327865302562714
time_elpased: 1.688
#iterations: 488
currently lose_sum: 0.07729439437389374
time_elpased: 1.65
#iterations: 489
currently lose_sum: 0.04444164037704468
time_elpased: 1.651
#iterations: 490
currently lose_sum: 0.052161239087581635
time_elpased: 1.676
#iterations: 491
currently lose_sum: 0.030148928984999657
time_elpased: 1.632
#iterations: 492
currently lose_sum: 0.05026761814951897
time_elpased: 1.679
#iterations: 493
currently lose_sum: 0.10115774720907211
time_elpased: 1.686
#iterations: 494
currently lose_sum: 0.18751631677150726
time_elpased: 1.64
#iterations: 495
currently lose_sum: 0.1559932976961136
time_elpased: 1.64
#iterations: 496
currently lose_sum: 0.03016609512269497
time_elpased: 1.652
#iterations: 497
currently lose_sum: 0.06528671085834503
time_elpased: 1.703
#iterations: 498
currently lose_sum: 0.22199758887290955
time_elpased: 1.685
#iterations: 499
currently lose_sum: 0.08962385356426239
time_elpased: 1.664
start validation test
0.695089285714
0.869346733668
0.461743772242
0.603137710633
0.695925649562
120.363
#iterations: 500
currently lose_sum: 0.0914778858423233
time_elpased: 1.635
#iterations: 501
currently lose_sum: 0.11459598690271378
time_elpased: 1.692
#iterations: 502
currently lose_sum: 0.023938721045851707
time_elpased: 1.643
#iterations: 503
currently lose_sum: 0.1779588758945465
time_elpased: 1.649
#iterations: 504
currently lose_sum: 0.16321922838687897
time_elpased: 1.69
#iterations: 505
currently lose_sum: 0.2020253837108612
time_elpased: 1.661
#iterations: 506
currently lose_sum: 0.09062739461660385
time_elpased: 1.741
#iterations: 507
currently lose_sum: 0.06995408982038498
time_elpased: 1.652
#iterations: 508
currently lose_sum: 0.17011472582817078
time_elpased: 1.598
#iterations: 509
currently lose_sum: 0.10545875132083893
time_elpased: 1.656
#iterations: 510
currently lose_sum: 0.06495185196399689
time_elpased: 1.68
#iterations: 511
currently lose_sum: 0.14537879824638367
time_elpased: 1.63
#iterations: 512
currently lose_sum: 0.23443415760993958
time_elpased: 1.633
#iterations: 513
currently lose_sum: 0.16773667931556702
time_elpased: 1.694
#iterations: 514
currently lose_sum: 0.06875552982091904
time_elpased: 1.617
#iterations: 515
currently lose_sum: 0.29598602652549744
time_elpased: 1.731
#iterations: 516
currently lose_sum: 0.07339172065258026
time_elpased: 1.67
#iterations: 517
currently lose_sum: 0.09857054799795151
time_elpased: 1.651
#iterations: 518
currently lose_sum: 0.08584138005971909
time_elpased: 1.672
#iterations: 519
currently lose_sum: 0.13764801621437073
time_elpased: 1.681
start validation test
0.691071428571
0.868600682594
0.452846975089
0.595321637427
0.691925279659
123.249
#iterations: 520
currently lose_sum: 0.0847921147942543
time_elpased: 1.77
#iterations: 521
currently lose_sum: 0.22639748454093933
time_elpased: 1.652
#iterations: 522
currently lose_sum: 0.08285479992628098
time_elpased: 1.649
#iterations: 523
currently lose_sum: 0.03810607269406319
time_elpased: 1.652
#iterations: 524
currently lose_sum: 0.10992749780416489
time_elpased: 1.686
#iterations: 525
currently lose_sum: 0.14422884583473206
time_elpased: 1.652
#iterations: 526
currently lose_sum: 0.18052271008491516
time_elpased: 1.668
#iterations: 527
currently lose_sum: 0.1110961064696312
time_elpased: 1.647
#iterations: 528
currently lose_sum: 0.10274455696344376
time_elpased: 1.668
#iterations: 529
currently lose_sum: 0.11167404800653458
time_elpased: 1.635
#iterations: 530
currently lose_sum: 0.033258188515901566
time_elpased: 1.909
#iterations: 531
currently lose_sum: 0.2615985572338104
time_elpased: 1.677
#iterations: 532
currently lose_sum: 0.11259615421295166
time_elpased: 1.624
#iterations: 533
currently lose_sum: 0.19880899786949158
time_elpased: 1.7
#iterations: 534
currently lose_sum: 0.1597205102443695
time_elpased: 1.687
#iterations: 535
currently lose_sum: 0.15774020552635193
time_elpased: 1.671
#iterations: 536
currently lose_sum: 0.06585922837257385
time_elpased: 1.669
#iterations: 537
currently lose_sum: 0.12604713439941406
time_elpased: 1.662
#iterations: 538
currently lose_sum: 0.0730622261762619
time_elpased: 1.749
#iterations: 539
currently lose_sum: 0.08755306899547577
time_elpased: 1.655
start validation test
0.685267857143
0.877477477477
0.433274021352
0.580107206671
0.686171060855
130.979
#iterations: 540
currently lose_sum: 0.07583538442850113
time_elpased: 1.638
#iterations: 541
currently lose_sum: 0.2705572247505188
time_elpased: 1.795
#iterations: 542
currently lose_sum: 0.08408193290233612
time_elpased: 1.646
#iterations: 543
currently lose_sum: 0.06972695887088776
time_elpased: 1.646
#iterations: 544
currently lose_sum: 0.12212944030761719
time_elpased: 1.632
#iterations: 545
currently lose_sum: 0.13519549369812012
time_elpased: 1.675
#iterations: 546
currently lose_sum: 0.08978112041950226
time_elpased: 1.788
#iterations: 547
currently lose_sum: 0.25797122716903687
time_elpased: 1.776
#iterations: 548
currently lose_sum: 0.18449489772319794
time_elpased: 1.621
#iterations: 549
currently lose_sum: 0.12497831881046295
time_elpased: 1.625
#iterations: 550
currently lose_sum: 0.06900831311941147
time_elpased: 1.665
#iterations: 551
currently lose_sum: 0.1489305943250656
time_elpased: 1.638
#iterations: 552
currently lose_sum: 0.3088650107383728
time_elpased: 1.676
#iterations: 553
currently lose_sum: 0.026027660816907883
time_elpased: 1.649
#iterations: 554
currently lose_sum: 0.11274883896112442
time_elpased: 1.65
#iterations: 555
currently lose_sum: 0.16613736748695374
time_elpased: 1.745
#iterations: 556
currently lose_sum: 0.21310536563396454
time_elpased: 1.618
#iterations: 557
currently lose_sum: 0.09528955072164536
time_elpased: 1.689
#iterations: 558
currently lose_sum: 0.08918005228042603
time_elpased: 1.758
#iterations: 559
currently lose_sum: 0.25952211022377014
time_elpased: 1.613
start validation test
0.699107142857
0.882653061224
0.461743772242
0.606308411215
0.699957907626
125.181
#iterations: 560
currently lose_sum: 0.11155255883932114
time_elpased: 1.671
#iterations: 561
currently lose_sum: 0.07077273726463318
time_elpased: 1.628
#iterations: 562
currently lose_sum: 0.09403501451015472
time_elpased: 1.627
#iterations: 563
currently lose_sum: 0.18507538735866547
time_elpased: 1.653
#iterations: 564
currently lose_sum: 0.04811612889170647
time_elpased: 1.659
#iterations: 565
currently lose_sum: 0.03501034900546074
time_elpased: 1.663
#iterations: 566
currently lose_sum: 0.04922474920749664
time_elpased: 1.657
#iterations: 567
currently lose_sum: 0.15003779530525208
time_elpased: 1.688
#iterations: 568
currently lose_sum: 0.04821718484163284
time_elpased: 1.66
#iterations: 569
currently lose_sum: 0.2644350826740265
time_elpased: 1.731
#iterations: 570
currently lose_sum: 0.08155234903097153
time_elpased: 1.808
#iterations: 571
currently lose_sum: 0.028417235240340233
time_elpased: 1.743
#iterations: 572
currently lose_sum: 0.06274695694446564
time_elpased: 1.681
#iterations: 573
currently lose_sum: 0.05315988138318062
time_elpased: 1.614
#iterations: 574
currently lose_sum: 0.14976157248020172
time_elpased: 1.646
#iterations: 575
currently lose_sum: 0.19683586061000824
time_elpased: 1.831
#iterations: 576
currently lose_sum: 0.10098147392272949
time_elpased: 1.631
#iterations: 577
currently lose_sum: 0.03588451072573662
time_elpased: 1.803
#iterations: 578
currently lose_sum: 0.12434367835521698
time_elpased: 1.964
#iterations: 579
currently lose_sum: 0.02860932983458042
time_elpased: 1.718
start validation test
0.6875
0.877224199288
0.438612099644
0.584816132859
0.688392071327
132.086
#iterations: 580
currently lose_sum: 0.09131641685962677
time_elpased: 1.645
#iterations: 581
currently lose_sum: 0.026198357343673706
time_elpased: 1.673
#iterations: 582
currently lose_sum: 0.08866177499294281
time_elpased: 1.7
#iterations: 583
currently lose_sum: 0.04376884549856186
time_elpased: 1.685
#iterations: 584
currently lose_sum: 0.04802428185939789
time_elpased: 1.647
#iterations: 585
currently lose_sum: 0.12214826047420502
time_elpased: 1.661
#iterations: 586
currently lose_sum: 0.027225863188505173
time_elpased: 1.602
#iterations: 587
currently lose_sum: 0.1387278139591217
time_elpased: 1.647
#iterations: 588
currently lose_sum: 0.24472995102405548
time_elpased: 1.624
#iterations: 589
currently lose_sum: 0.12874560058116913
time_elpased: 1.741
#iterations: 590
currently lose_sum: 0.3381580114364624
time_elpased: 1.884
#iterations: 591
currently lose_sum: 0.09928475320339203
time_elpased: 1.732
#iterations: 592
currently lose_sum: 0.12500250339508057
time_elpased: 1.649
#iterations: 593
currently lose_sum: 0.09167895466089249
time_elpased: 1.714
#iterations: 594
currently lose_sum: 0.20567207038402557
time_elpased: 1.648
#iterations: 595
currently lose_sum: 0.219577357172966
time_elpased: 1.633
#iterations: 596
currently lose_sum: 0.052689921110868454
time_elpased: 1.694
#iterations: 597
currently lose_sum: 0.08579255640506744
time_elpased: 1.597
#iterations: 598
currently lose_sum: 0.17642511427402496
time_elpased: 1.673
#iterations: 599
currently lose_sum: 0.2173047512769699
time_elpased: 1.633
start validation test
0.684375
0.872987477639
0.434163701068
0.579916815211
0.685271814692
132.968
acc: 0.743
pre: 0.785
rec: 0.672
F1: 0.724
auc: 0.743
