start to construct computing graph
graph construct over
3373
epochs start
#iterations: 0
currently lose_sum: 0.6462494730949402
time_elpased: 3.715
#iterations: 1
currently lose_sum: 0.6118725538253784
time_elpased: 3.639
#iterations: 2
currently lose_sum: 0.6066765785217285
time_elpased: 3.7
#iterations: 3
currently lose_sum: 0.6494675278663635
time_elpased: 3.824
#iterations: 4
currently lose_sum: 0.5484395027160645
time_elpased: 4.021
#iterations: 5
currently lose_sum: 0.5585240125656128
time_elpased: 3.748
#iterations: 6
currently lose_sum: 0.3517892360687256
time_elpased: 3.73
#iterations: 7
currently lose_sum: 0.46288996934890747
time_elpased: 3.674
#iterations: 8
currently lose_sum: 0.3215337097644806
time_elpased: 3.796
#iterations: 9
currently lose_sum: 0.2460910528898239
time_elpased: 3.697
#iterations: 10
currently lose_sum: 0.5635243654251099
time_elpased: 3.661
#iterations: 11
currently lose_sum: 0.5298550724983215
time_elpased: 3.929
#iterations: 12
currently lose_sum: 0.45264530181884766
time_elpased: 3.671
#iterations: 13
currently lose_sum: 0.5025547742843628
time_elpased: 3.753
#iterations: 14
currently lose_sum: 0.33285242319107056
time_elpased: 3.667
#iterations: 15
currently lose_sum: 0.44455233216285706
time_elpased: 3.679
#iterations: 16
currently lose_sum: 0.3663509488105774
time_elpased: 3.685
#iterations: 17
currently lose_sum: 0.37467458844184875
time_elpased: 3.788
#iterations: 18
currently lose_sum: 0.31241995096206665
time_elpased: 3.746
#iterations: 19
currently lose_sum: 0.2547278106212616
time_elpased: 3.692
start validation test
0.749553571429
0.827706635623
0.63256227758
0.717095310136
0.749972895062
33.945
#iterations: 20
currently lose_sum: 0.5160410404205322
time_elpased: 3.486
#iterations: 21
currently lose_sum: 0.33550289273262024
time_elpased: 3.137
#iterations: 22
currently lose_sum: 0.3134464919567108
time_elpased: 3.23
#iterations: 23
currently lose_sum: 0.15186424553394318
time_elpased: 3.193
#iterations: 24
currently lose_sum: 0.2420310080051422
time_elpased: 3.238
#iterations: 25
currently lose_sum: 0.4442618489265442
time_elpased: 3.164
#iterations: 26
currently lose_sum: 0.27511507272720337
time_elpased: 3.152
#iterations: 27
currently lose_sum: 0.39769822359085083
time_elpased: 3.335
#iterations: 28
currently lose_sum: 0.3067910671234131
time_elpased: 3.21
#iterations: 29
currently lose_sum: 0.1994008868932724
time_elpased: 3.187
#iterations: 30
currently lose_sum: 0.21802525222301483
time_elpased: 3.12
#iterations: 31
currently lose_sum: 0.3017445206642151
time_elpased: 3.19
#iterations: 32
currently lose_sum: 0.45094889402389526
time_elpased: 3.192
#iterations: 33
currently lose_sum: 0.21701593697071075
time_elpased: 3.291
#iterations: 34
currently lose_sum: 0.2813943028450012
time_elpased: 3.169
#iterations: 35
currently lose_sum: 0.3020492196083069
time_elpased: 3.241
#iterations: 36
currently lose_sum: 0.24041526019573212
time_elpased: 3.268
#iterations: 37
currently lose_sum: 0.36065664887428284
time_elpased: 3.305
#iterations: 38
currently lose_sum: 0.333543062210083
time_elpased: 3.243
#iterations: 39
currently lose_sum: 0.2766028046607971
time_elpased: 3.242
start validation test
0.766071428571
0.8125
0.693950177936
0.748560460653
0.766329927678
35.582
#iterations: 40
currently lose_sum: 0.3114277124404907
time_elpased: 3.217
#iterations: 41
currently lose_sum: 0.37159591913223267
time_elpased: 3.178
#iterations: 42
currently lose_sum: 0.2683120369911194
time_elpased: 3.193
#iterations: 43
currently lose_sum: 0.2404671609401703
time_elpased: 3.284
#iterations: 44
currently lose_sum: 0.3662974238395691
time_elpased: 3.277
#iterations: 45
currently lose_sum: 0.2638990879058838
time_elpased: 3.215
#iterations: 46
currently lose_sum: 0.28234219551086426
time_elpased: 3.279
#iterations: 47
currently lose_sum: 0.25297969579696655
time_elpased: 3.262
#iterations: 48
currently lose_sum: 0.20663055777549744
time_elpased: 3.162
#iterations: 49
currently lose_sum: 0.3023570775985718
time_elpased: 3.22
#iterations: 50
currently lose_sum: 0.26592063903808594
time_elpased: 3.387
#iterations: 51
currently lose_sum: 0.1686794012784958
time_elpased: 3.226
#iterations: 52
currently lose_sum: 0.32473263144493103
time_elpased: 3.364
#iterations: 53
currently lose_sum: 0.2215464562177658
time_elpased: 3.205
#iterations: 54
currently lose_sum: 0.42287319898605347
time_elpased: 3.203
#iterations: 55
currently lose_sum: 0.3167835772037506
time_elpased: 3.182
#iterations: 56
currently lose_sum: 0.17515692114830017
time_elpased: 3.227
#iterations: 57
currently lose_sum: 0.1769842803478241
time_elpased: 3.182
#iterations: 58
currently lose_sum: 0.3386610448360443
time_elpased: 3.359
#iterations: 59
currently lose_sum: 0.26469606161117554
time_elpased: 3.174
start validation test
0.745982142857
0.810055865922
0.645017793594
0.718177315503
0.746344022245
43.795
#iterations: 60
currently lose_sum: 0.12021777778863907
time_elpased: 3.189
#iterations: 61
currently lose_sum: 0.3995771110057831
time_elpased: 3.159
#iterations: 62
currently lose_sum: 0.252562016248703
time_elpased: 3.247
#iterations: 63
currently lose_sum: 0.3678087294101715
time_elpased: 3.121
#iterations: 64
currently lose_sum: 0.1740143597126007
time_elpased: 3.233
#iterations: 65
currently lose_sum: 0.2629121243953705
time_elpased: 3.212
#iterations: 66
currently lose_sum: 0.3061763644218445
time_elpased: 3.17
#iterations: 67
currently lose_sum: 0.17288896441459656
time_elpased: 3.195
#iterations: 68
currently lose_sum: 0.280966579914093
time_elpased: 3.209
#iterations: 69
currently lose_sum: 0.3594105839729309
time_elpased: 3.241
#iterations: 70
currently lose_sum: 0.19317317008972168
time_elpased: 3.233
#iterations: 71
currently lose_sum: 0.38775402307510376
time_elpased: 3.24
#iterations: 72
currently lose_sum: 0.24716635048389435
time_elpased: 3.211
#iterations: 73
currently lose_sum: 0.2238154113292694
time_elpased: 3.195
#iterations: 74
currently lose_sum: 0.3778592646121979
time_elpased: 3.266
#iterations: 75
currently lose_sum: 0.2620050609111786
time_elpased: 3.259
#iterations: 76
currently lose_sum: 0.14879028499126434
time_elpased: 3.408
#iterations: 77
currently lose_sum: 0.3035828769207001
time_elpased: 3.125
#iterations: 78
currently lose_sum: 0.11952231079339981
time_elpased: 3.29
#iterations: 79
currently lose_sum: 0.12152685970067978
time_elpased: 3.217
start validation test
0.744196428571
0.837209302326
0.608540925267
0.704791344668
0.744682649013
54.997
#iterations: 80
currently lose_sum: 0.25022655725479126
time_elpased: 3.279
#iterations: 81
currently lose_sum: 0.22701933979988098
time_elpased: 3.188
#iterations: 82
currently lose_sum: 0.17382611334323883
time_elpased: 3.152
#iterations: 83
currently lose_sum: 0.2161017209291458
time_elpased: 3.199
#iterations: 84
currently lose_sum: 0.21478085219860077
time_elpased: 3.185
#iterations: 85
currently lose_sum: 0.1516588181257248
time_elpased: 3.177
#iterations: 86
currently lose_sum: 0.2536376118659973
time_elpased: 3.158
#iterations: 87
currently lose_sum: 0.18978102505207062
time_elpased: 3.216
#iterations: 88
currently lose_sum: 0.18215347826480865
time_elpased: 3.243
#iterations: 89
currently lose_sum: 0.20300154387950897
time_elpased: 3.294
#iterations: 90
currently lose_sum: 0.15593105554580688
time_elpased: 3.164
#iterations: 91
currently lose_sum: 0.2461910992860794
time_elpased: 3.34
#iterations: 92
currently lose_sum: 0.11701206862926483
time_elpased: 3.31
#iterations: 93
currently lose_sum: 0.20260314643383026
time_elpased: 3.21
#iterations: 94
currently lose_sum: 0.140872061252594
time_elpased: 3.336
#iterations: 95
currently lose_sum: 0.2111671417951584
time_elpased: 3.156
#iterations: 96
currently lose_sum: 0.1882139891386032
time_elpased: 3.119
#iterations: 97
currently lose_sum: 0.2063080370426178
time_elpased: 3.24
#iterations: 98
currently lose_sum: 0.20008563995361328
time_elpased: 3.325
#iterations: 99
currently lose_sum: 0.27419760823249817
time_elpased: 3.183
start validation test
0.720535714286
0.841095890411
0.546263345196
0.66235167206
0.721160346433
65.998
#iterations: 100
currently lose_sum: 0.16798527538776398
time_elpased: 3.168
#iterations: 101
currently lose_sum: 0.1400952786207199
time_elpased: 3.225
#iterations: 102
currently lose_sum: 0.2751026749610901
time_elpased: 3.182
#iterations: 103
currently lose_sum: 0.06288045644760132
time_elpased: 3.154
#iterations: 104
currently lose_sum: 0.17541727423667908
time_elpased: 3.213
#iterations: 105
currently lose_sum: 0.0939830094575882
time_elpased: 3.242
#iterations: 106
currently lose_sum: 0.1796087622642517
time_elpased: 3.285
#iterations: 107
currently lose_sum: 0.06776868551969528
time_elpased: 3.165
#iterations: 108
currently lose_sum: 0.05632263422012329
time_elpased: 3.243
#iterations: 109
currently lose_sum: 0.36581316590309143
time_elpased: 3.189
#iterations: 110
currently lose_sum: 0.14811702072620392
time_elpased: 3.232
#iterations: 111
currently lose_sum: 0.167376309633255
time_elpased: 3.363
#iterations: 112
currently lose_sum: 0.1700839102268219
time_elpased: 3.216
#iterations: 113
currently lose_sum: 0.22102010250091553
time_elpased: 3.14
#iterations: 114
currently lose_sum: 0.4469413757324219
time_elpased: 3.337
#iterations: 115
currently lose_sum: 0.1876164674758911
time_elpased: 3.293
#iterations: 116
currently lose_sum: 0.15873119235038757
time_elpased: 3.16
#iterations: 117
currently lose_sum: 0.23934872448444366
time_elpased: 3.214
#iterations: 118
currently lose_sum: 0.12505188584327698
time_elpased: 3.45
#iterations: 119
currently lose_sum: 0.19814743101596832
time_elpased: 3.296
start validation test
0.745535714286
0.841133004926
0.607651245552
0.705578512397
0.746029923851
59.994
#iterations: 120
currently lose_sum: 0.20952948927879333
time_elpased: 3.356
#iterations: 121
currently lose_sum: 0.06491818279027939
time_elpased: 3.579
#iterations: 122
currently lose_sum: 0.14697030186653137
time_elpased: 3.209
#iterations: 123
currently lose_sum: 0.18473432958126068
time_elpased: 3.164
#iterations: 124
currently lose_sum: 0.17097750306129456
time_elpased: 3.296
#iterations: 125
currently lose_sum: 0.16367369890213013
time_elpased: 3.23
#iterations: 126
currently lose_sum: 0.09947605431079865
time_elpased: 3.188
#iterations: 127
currently lose_sum: 0.14432665705680847
time_elpased: 3.218
#iterations: 128
currently lose_sum: 0.15316125750541687
time_elpased: 3.216
#iterations: 129
currently lose_sum: 0.06275088340044022
time_elpased: 3.185
#iterations: 130
currently lose_sum: 0.07773343473672867
time_elpased: 3.215
#iterations: 131
currently lose_sum: 0.09515906870365143
time_elpased: 3.244
#iterations: 132
currently lose_sum: 0.141486257314682
time_elpased: 3.258
#iterations: 133
currently lose_sum: 0.12206204235553741
time_elpased: 3.27
#iterations: 134
currently lose_sum: 0.23882253468036652
time_elpased: 3.275
#iterations: 135
currently lose_sum: 0.26326602697372437
time_elpased: 3.175
#iterations: 136
currently lose_sum: 0.20488715171813965
time_elpased: 3.159
#iterations: 137
currently lose_sum: 0.1708541363477707
time_elpased: 3.255
#iterations: 138
currently lose_sum: 0.09790825843811035
time_elpased: 3.25
#iterations: 139
currently lose_sum: 0.13935747742652893
time_elpased: 3.183
start validation test
0.71875
0.84691011236
0.536476868327
0.656862745098
0.719403308716
71.393
#iterations: 140
currently lose_sum: 0.14126324653625488
time_elpased: 3.219
#iterations: 141
currently lose_sum: 0.1234254390001297
time_elpased: 3.296
#iterations: 142
currently lose_sum: 0.16476154327392578
time_elpased: 3.285
#iterations: 143
currently lose_sum: 0.25049495697021484
time_elpased: 3.265
#iterations: 144
currently lose_sum: 0.10635782778263092
time_elpased: 3.212
#iterations: 145
currently lose_sum: 0.29660773277282715
time_elpased: 3.164
#iterations: 146
currently lose_sum: 0.23474009335041046
time_elpased: 3.159
#iterations: 147
currently lose_sum: 0.13299278914928436
time_elpased: 3.22
#iterations: 148
currently lose_sum: 0.08152274787425995
time_elpased: 3.2
#iterations: 149
currently lose_sum: 0.18392422795295715
time_elpased: 3.177
#iterations: 150
currently lose_sum: 0.11568774282932281
time_elpased: 3.218
#iterations: 151
currently lose_sum: 0.12312817573547363
time_elpased: 3.216
#iterations: 152
currently lose_sum: 0.09566390514373779
time_elpased: 3.471
#iterations: 153
currently lose_sum: 0.1425946056842804
time_elpased: 3.155
#iterations: 154
currently lose_sum: 0.11025172472000122
time_elpased: 3.198
#iterations: 155
currently lose_sum: 0.04402673989534378
time_elpased: 3.129
#iterations: 156
currently lose_sum: 0.09816329181194305
time_elpased: 3.209
#iterations: 157
currently lose_sum: 0.23552453517913818
time_elpased: 3.181
#iterations: 158
currently lose_sum: 0.24521836638450623
time_elpased: 3.28
#iterations: 159
currently lose_sum: 0.11689390987157822
time_elpased: 3.226
start validation test
0.724107142857
0.856338028169
0.540925266904
0.663031624864
0.724763708721
66.029
#iterations: 160
currently lose_sum: 0.24193868041038513
time_elpased: 3.222
#iterations: 161
currently lose_sum: 0.37731802463531494
time_elpased: 3.254
#iterations: 162
currently lose_sum: 0.19576318562030792
time_elpased: 3.179
#iterations: 163
currently lose_sum: 0.09887439012527466
time_elpased: 3.18
#iterations: 164
currently lose_sum: 0.11735327541828156
time_elpased: 3.252
#iterations: 165
currently lose_sum: 0.1250266581773758
time_elpased: 3.233
#iterations: 166
currently lose_sum: 0.09154192358255386
time_elpased: 3.245
#iterations: 167
currently lose_sum: 0.22003181278705597
time_elpased: 3.283
#iterations: 168
currently lose_sum: 0.20933637022972107
time_elpased: 3.215
#iterations: 169
currently lose_sum: 0.2740037441253662
time_elpased: 3.139
#iterations: 170
currently lose_sum: 0.17344772815704346
time_elpased: 3.399
#iterations: 171
currently lose_sum: 0.08576782047748566
time_elpased: 3.242
#iterations: 172
currently lose_sum: 0.13959190249443054
time_elpased: 3.32
#iterations: 173
currently lose_sum: 0.15319092571735382
time_elpased: 3.174
#iterations: 174
currently lose_sum: 0.09162624925374985
time_elpased: 3.193
#iterations: 175
currently lose_sum: 0.12249493598937988
time_elpased: 3.189
#iterations: 176
currently lose_sum: 0.16245076060295105
time_elpased: 3.443
#iterations: 177
currently lose_sum: 0.16030098497867584
time_elpased: 3.232
#iterations: 178
currently lose_sum: 0.19831016659736633
time_elpased: 3.309
#iterations: 179
currently lose_sum: 0.17121712863445282
time_elpased: 3.296
start validation test
0.719196428571
0.859216255443
0.526690391459
0.65306122449
0.719886414368
72.224
#iterations: 180
currently lose_sum: 0.0740521103143692
time_elpased: 3.23
#iterations: 181
currently lose_sum: 0.2599549889564514
time_elpased: 3.176
#iterations: 182
currently lose_sum: 0.3824305534362793
time_elpased: 3.16
#iterations: 183
currently lose_sum: 0.15622222423553467
time_elpased: 3.365
#iterations: 184
currently lose_sum: 0.03218851238489151
time_elpased: 3.266
#iterations: 185
currently lose_sum: 0.04894082248210907
time_elpased: 3.124
#iterations: 186
currently lose_sum: 0.2666255533695221
time_elpased: 3.247
#iterations: 187
currently lose_sum: 0.21333613991737366
time_elpased: 3.2
#iterations: 188
currently lose_sum: 0.23359505832195282
time_elpased: 3.195
#iterations: 189
currently lose_sum: 0.05093059688806534
time_elpased: 3.283
#iterations: 190
currently lose_sum: 0.1878206431865692
time_elpased: 3.195
#iterations: 191
currently lose_sum: 0.1314810812473297
time_elpased: 3.153
#iterations: 192
currently lose_sum: 0.1700282245874405
time_elpased: 3.279
#iterations: 193
currently lose_sum: 0.21797659993171692
time_elpased: 3.194
#iterations: 194
currently lose_sum: 0.06098271161317825
time_elpased: 3.209
#iterations: 195
currently lose_sum: 0.14075987040996552
time_elpased: 3.196
#iterations: 196
currently lose_sum: 0.1606246829032898
time_elpased: 3.187
#iterations: 197
currently lose_sum: 0.07256239652633667
time_elpased: 3.14
#iterations: 198
currently lose_sum: 0.07616959512233734
time_elpased: 3.113
#iterations: 199
currently lose_sum: 0.09731049835681915
time_elpased: 3.228
start validation test
0.712946428571
0.860569715142
0.510676156584
0.640982691234
0.713671411625
81.111
#iterations: 200
currently lose_sum: 0.05989327281713486
time_elpased: 3.28
#iterations: 201
currently lose_sum: 0.07060397416353226
time_elpased: 3.324
#iterations: 202
currently lose_sum: 0.20222239196300507
time_elpased: 3.404
#iterations: 203
currently lose_sum: 0.1717929244041443
time_elpased: 3.198
#iterations: 204
currently lose_sum: 0.1237124353647232
time_elpased: 3.247
#iterations: 205
currently lose_sum: 0.0337710939347744
time_elpased: 3.411
#iterations: 206
currently lose_sum: 0.1481245905160904
time_elpased: 3.2
#iterations: 207
currently lose_sum: 0.27920979261398315
time_elpased: 3.223
#iterations: 208
currently lose_sum: 0.04998895525932312
time_elpased: 3.407
#iterations: 209
currently lose_sum: 0.19902275502681732
time_elpased: 3.151
#iterations: 210
currently lose_sum: 0.1893274039030075
time_elpased: 3.335
#iterations: 211
currently lose_sum: 0.13341982662677765
time_elpased: 3.156
#iterations: 212
currently lose_sum: 0.10622341930866241
time_elpased: 3.181
#iterations: 213
currently lose_sum: 0.11484517902135849
time_elpased: 3.136
#iterations: 214
currently lose_sum: 0.18532629311084747
time_elpased: 3.228
#iterations: 215
currently lose_sum: 0.05014766380190849
time_elpased: 3.279
#iterations: 216
currently lose_sum: 0.16712471842765808
time_elpased: 3.167
#iterations: 217
currently lose_sum: 0.11798383295536041
time_elpased: 3.21
#iterations: 218
currently lose_sum: 0.3554500937461853
time_elpased: 3.193
#iterations: 219
currently lose_sum: 0.10451124608516693
time_elpased: 3.135
start validation test
0.707142857143
0.862229102167
0.495551601423
0.629378531073
0.70790124874
88.371
#iterations: 220
currently lose_sum: 0.034363873302936554
time_elpased: 3.157
#iterations: 221
currently lose_sum: 0.16805148124694824
time_elpased: 3.317
#iterations: 222
currently lose_sum: 0.2139994204044342
time_elpased: 3.396
#iterations: 223
currently lose_sum: 0.09106921404600143
time_elpased: 3.205
#iterations: 224
currently lose_sum: 0.18039962649345398
time_elpased: 3.272
#iterations: 225
currently lose_sum: 0.059652458876371384
time_elpased: 3.243
#iterations: 226
currently lose_sum: 0.03505359962582588
time_elpased: 3.202
#iterations: 227
currently lose_sum: 0.10160008817911148
time_elpased: 3.118
#iterations: 228
currently lose_sum: 0.10979776084423065
time_elpased: 3.193
#iterations: 229
currently lose_sum: 0.13553465902805328
time_elpased: 3.178
#iterations: 230
currently lose_sum: 0.12845924496650696
time_elpased: 3.173
#iterations: 231
currently lose_sum: 0.2436249703168869
time_elpased: 3.168
#iterations: 232
currently lose_sum: 0.14585259556770325
time_elpased: 3.199
#iterations: 233
currently lose_sum: 0.06737301498651505
time_elpased: 3.168
#iterations: 234
currently lose_sum: 0.1035839095711708
time_elpased: 3.493
#iterations: 235
currently lose_sum: 0.031011763960123062
time_elpased: 3.165
#iterations: 236
currently lose_sum: 0.1360468864440918
time_elpased: 3.194
#iterations: 237
currently lose_sum: 0.05601115897297859
time_elpased: 3.351
#iterations: 238
currently lose_sum: 0.07355039566755295
time_elpased: 3.242
#iterations: 239
currently lose_sum: 0.1792893409729004
time_elpased: 3.208
start validation test
0.711607142857
0.855654761905
0.511565836299
0.640311804009
0.712324136787
78.817
#iterations: 240
currently lose_sum: 0.018882691860198975
time_elpased: 3.176
#iterations: 241
currently lose_sum: 0.07294326275587082
time_elpased: 3.313
#iterations: 242
currently lose_sum: 0.03658665344119072
time_elpased: 3.252
#iterations: 243
currently lose_sum: 0.09345449507236481
time_elpased: 3.163
#iterations: 244
currently lose_sum: 0.10874893516302109
time_elpased: 3.196
#iterations: 245
currently lose_sum: 0.20888999104499817
time_elpased: 3.254
#iterations: 246
currently lose_sum: 0.11521019786596298
time_elpased: 3.234
#iterations: 247
currently lose_sum: 0.1551075428724289
time_elpased: 3.201
#iterations: 248
currently lose_sum: 0.18074384331703186
time_elpased: 3.245
#iterations: 249
currently lose_sum: 0.03043174184858799
time_elpased: 3.182
#iterations: 250
currently lose_sum: 0.03396010771393776
time_elpased: 3.173
#iterations: 251
currently lose_sum: 0.229997918009758
time_elpased: 3.221
#iterations: 252
currently lose_sum: 0.019728507846593857
time_elpased: 3.231
#iterations: 253
currently lose_sum: 0.1857428252696991
time_elpased: 3.391
#iterations: 254
currently lose_sum: 0.11320986598730087
time_elpased: 3.27
#iterations: 255
currently lose_sum: 0.07363384962081909
time_elpased: 3.151
#iterations: 256
currently lose_sum: 0.13273313641548157
time_elpased: 3.208
#iterations: 257
currently lose_sum: 0.1248650997877121
time_elpased: 3.29
#iterations: 258
currently lose_sum: 0.06524990499019623
time_elpased: 3.163
#iterations: 259
currently lose_sum: 0.0695018619298935
time_elpased: 3.155
start validation test
0.706696428571
0.870047543582
0.488434163701
0.625641025641
0.707478730596
96.589
#iterations: 260
currently lose_sum: 0.20974111557006836
time_elpased: 3.236
#iterations: 261
currently lose_sum: 0.1120547503232956
time_elpased: 3.267
#iterations: 262
currently lose_sum: 0.03900880366563797
time_elpased: 3.275
#iterations: 263
currently lose_sum: 0.24855980277061462
time_elpased: 3.294
#iterations: 264
currently lose_sum: 0.048772066831588745
time_elpased: 3.232
#iterations: 265
currently lose_sum: 0.07951603829860687
time_elpased: 3.221
#iterations: 266
currently lose_sum: 0.10998207330703735
time_elpased: 3.362
#iterations: 267
currently lose_sum: 0.28191977739334106
time_elpased: 3.171
#iterations: 268
currently lose_sum: 0.05539945513010025
time_elpased: 3.171
#iterations: 269
currently lose_sum: 0.12358014285564423
time_elpased: 3.213
#iterations: 270
currently lose_sum: 0.09071808308362961
time_elpased: 3.216
#iterations: 271
currently lose_sum: 0.0741516575217247
time_elpased: 3.154
#iterations: 272
currently lose_sum: 0.28683236241340637
time_elpased: 3.169
#iterations: 273
currently lose_sum: 0.0772632583975792
time_elpased: 3.124
#iterations: 274
currently lose_sum: 0.14402124285697937
time_elpased: 3.281
#iterations: 275
currently lose_sum: 0.08842195570468903
time_elpased: 3.222
#iterations: 276
currently lose_sum: 0.040243472903966904
time_elpased: 3.235
#iterations: 277
currently lose_sum: 0.2624574303627014
time_elpased: 3.22
#iterations: 278
currently lose_sum: 0.05251583456993103
time_elpased: 3.266
#iterations: 279
currently lose_sum: 0.426445871591568
time_elpased: 3.312
start validation test
0.708035714286
0.869496855346
0.491992882562
0.628409090909
0.708810061353
97.322
#iterations: 280
currently lose_sum: 0.044125378131866455
time_elpased: 3.223
#iterations: 281
currently lose_sum: 0.056328583508729935
time_elpased: 3.161
#iterations: 282
currently lose_sum: 0.22263260185718536
time_elpased: 3.28
#iterations: 283
currently lose_sum: 0.11181752383708954
time_elpased: 3.472
#iterations: 284
currently lose_sum: 0.07586988806724548
time_elpased: 3.223
#iterations: 285
currently lose_sum: 0.14149333536624908
time_elpased: 3.303
#iterations: 286
currently lose_sum: 0.1935434490442276
time_elpased: 3.252
#iterations: 287
currently lose_sum: 0.07662530243396759
time_elpased: 3.249
#iterations: 288
currently lose_sum: 0.13925155997276306
time_elpased: 3.142
#iterations: 289
currently lose_sum: 0.0694958046078682
time_elpased: 3.193
#iterations: 290
currently lose_sum: 0.06191438436508179
time_elpased: 3.223
#iterations: 291
currently lose_sum: 0.06096456199884415
time_elpased: 3.139
#iterations: 292
currently lose_sum: 0.14961473643779755
time_elpased: 3.331
#iterations: 293
currently lose_sum: 0.01360852736979723
time_elpased: 3.224
#iterations: 294
currently lose_sum: 0.06315670162439346
time_elpased: 3.176
#iterations: 295
currently lose_sum: 0.20663797855377197
time_elpased: 3.276
#iterations: 296
currently lose_sum: 0.1748756766319275
time_elpased: 3.736
#iterations: 297
currently lose_sum: 0.2141588032245636
time_elpased: 3.197
#iterations: 298
currently lose_sum: 0.14699088037014008
time_elpased: 3.161
#iterations: 299
currently lose_sum: 0.09079382568597794
time_elpased: 3.223
start validation test
0.700892857143
0.878333333333
0.468861209964
0.611368909513
0.701724511792
100.969
#iterations: 300
currently lose_sum: 0.09601214528083801
time_elpased: 3.241
#iterations: 301
currently lose_sum: 0.08319580554962158
time_elpased: 3.192
#iterations: 302
currently lose_sum: 0.2249036282300949
time_elpased: 3.311
#iterations: 303
currently lose_sum: 0.07791708409786224
time_elpased: 3.148
#iterations: 304
currently lose_sum: 0.09165928512811661
time_elpased: 3.275
#iterations: 305
currently lose_sum: 0.08037833124399185
time_elpased: 3.242
#iterations: 306
currently lose_sum: 0.09893270581960678
time_elpased: 3.261
#iterations: 307
currently lose_sum: 0.11540527641773224
time_elpased: 3.229
#iterations: 308
currently lose_sum: 0.02600564993917942
time_elpased: 3.143
#iterations: 309
currently lose_sum: 0.07301802933216095
time_elpased: 3.239
#iterations: 310
currently lose_sum: 0.06765224039554596
time_elpased: 3.456
#iterations: 311
currently lose_sum: 0.025542154908180237
time_elpased: 3.254
#iterations: 312
currently lose_sum: 0.07771214097738266
time_elpased: 3.241
#iterations: 313
currently lose_sum: 0.029651522636413574
time_elpased: 3.153
#iterations: 314
currently lose_sum: 0.10570792853832245
time_elpased: 3.196
#iterations: 315
currently lose_sum: 0.1038421168923378
time_elpased: 3.224
#iterations: 316
currently lose_sum: 0.05442067235708237
time_elpased: 3.183
#iterations: 317
currently lose_sum: 0.22605010867118835
time_elpased: 3.229
#iterations: 318
currently lose_sum: 0.02846623957157135
time_elpased: 3.178
#iterations: 319
currently lose_sum: 0.2146987020969391
time_elpased: 3.219
start validation test
0.696428571429
0.88275862069
0.455516014235
0.600938967136
0.697292057297
104.036
#iterations: 320
currently lose_sum: 0.11905474960803986
time_elpased: 3.206
#iterations: 321
currently lose_sum: 0.22055992484092712
time_elpased: 3.256
#iterations: 322
currently lose_sum: 0.3333629071712494
time_elpased: 3.213
#iterations: 323
currently lose_sum: 0.05143136903643608
time_elpased: 3.201
#iterations: 324
currently lose_sum: 0.168361634016037
time_elpased: 3.306
#iterations: 325
currently lose_sum: 0.08699989318847656
time_elpased: 3.195
#iterations: 326
currently lose_sum: 0.06400603801012039
time_elpased: 3.295
#iterations: 327
currently lose_sum: 0.0765453577041626
time_elpased: 3.214
#iterations: 328
currently lose_sum: 0.11050046980381012
time_elpased: 3.207
#iterations: 329
currently lose_sum: 0.05919297784566879
time_elpased: 3.254
#iterations: 330
currently lose_sum: 0.13683941960334778
time_elpased: 3.228
#iterations: 331
currently lose_sum: 0.07930684089660645
time_elpased: 3.367
#iterations: 332
currently lose_sum: 0.08792416006326675
time_elpased: 3.31
#iterations: 333
currently lose_sum: 0.19092044234275818
time_elpased: 3.142
#iterations: 334
currently lose_sum: 0.30742210149765015
time_elpased: 3.204
#iterations: 335
currently lose_sum: 0.037201933562755585
time_elpased: 3.239
#iterations: 336
currently lose_sum: 0.1013299971818924
time_elpased: 3.174
#iterations: 337
currently lose_sum: 0.09609842300415039
time_elpased: 3.207
#iterations: 338
currently lose_sum: 0.09209954738616943
time_elpased: 3.151
#iterations: 339
currently lose_sum: 0.02920493483543396
time_elpased: 3.229
start validation test
0.679910714286
0.892100192678
0.411921708185
0.563603164942
0.680871248358
117.138
#iterations: 340
currently lose_sum: 0.10171220451593399
time_elpased: 3.191
#iterations: 341
currently lose_sum: 0.10965012013912201
time_elpased: 3.323
#iterations: 342
currently lose_sum: 0.09363992512226105
time_elpased: 3.389
#iterations: 343
currently lose_sum: 0.10179871320724487
time_elpased: 3.189
#iterations: 344
currently lose_sum: 0.07278680801391602
time_elpased: 3.181
#iterations: 345
currently lose_sum: 0.1677386462688446
time_elpased: 3.145
#iterations: 346
currently lose_sum: 0.1449832022190094
time_elpased: 3.246
#iterations: 347
currently lose_sum: 0.14804372191429138
time_elpased: 3.206
#iterations: 348
currently lose_sum: 0.10745904594659805
time_elpased: 3.185
#iterations: 349
currently lose_sum: 0.05714204162359238
time_elpased: 3.214
#iterations: 350
currently lose_sum: 0.04875129461288452
time_elpased: 3.194
#iterations: 351
currently lose_sum: 0.0242830291390419
time_elpased: 3.135
#iterations: 352
currently lose_sum: 0.07919304072856903
time_elpased: 3.306
#iterations: 353
currently lose_sum: 0.13670316338539124
time_elpased: 3.247
#iterations: 354
currently lose_sum: 0.15445920825004578
time_elpased: 3.257
#iterations: 355
currently lose_sum: 0.20211751759052277
time_elpased: 3.199
#iterations: 356
currently lose_sum: 0.09362512826919556
time_elpased: 3.16
#iterations: 357
currently lose_sum: 0.01863861456513405
time_elpased: 3.24
#iterations: 358
currently lose_sum: 0.02596677467226982
time_elpased: 3.212
#iterations: 359
currently lose_sum: 0.10704483836889267
time_elpased: 3.249
start validation test
0.687946428571
0.87610619469
0.440391459075
0.586145648313
0.688833722369
112.330
#iterations: 360
currently lose_sum: 0.20170307159423828
time_elpased: 3.277
#iterations: 361
currently lose_sum: 0.037028390914201736
time_elpased: 3.234
#iterations: 362
currently lose_sum: 0.17847834527492523
time_elpased: 3.166
#iterations: 363
currently lose_sum: 0.029164735227823257
time_elpased: 3.21
#iterations: 364
currently lose_sum: 0.13063348829746246
time_elpased: 3.185
#iterations: 365
currently lose_sum: 0.03195389732718468
time_elpased: 3.167
#iterations: 366
currently lose_sum: 0.026525091379880905
time_elpased: 3.2
#iterations: 367
currently lose_sum: 0.01475832425057888
time_elpased: 3.241
#iterations: 368
currently lose_sum: 0.17663094401359558
time_elpased: 3.396
#iterations: 369
currently lose_sum: 0.016839617863297462
time_elpased: 3.164
#iterations: 370
currently lose_sum: 0.15596263110637665
time_elpased: 3.248
#iterations: 371
currently lose_sum: 0.07996787130832672
time_elpased: 3.393
#iterations: 372
currently lose_sum: 0.06448070704936981
time_elpased: 3.153
#iterations: 373
currently lose_sum: 0.043189071118831635
time_elpased: 3.188
#iterations: 374
currently lose_sum: 0.12958306074142456
time_elpased: 3.226
#iterations: 375
currently lose_sum: 0.12168338149785995
time_elpased: 3.198
#iterations: 376
currently lose_sum: 0.02755986526608467
time_elpased: 3.171
#iterations: 377
currently lose_sum: 0.039833858609199524
time_elpased: 3.184
#iterations: 378
currently lose_sum: 0.08067194372415543
time_elpased: 3.177
#iterations: 379
currently lose_sum: 0.1760561168193817
time_elpased: 3.206
start validation test
0.692857142857
0.893501805054
0.440391459075
0.589988081049
0.693762037781
115.295
#iterations: 380
currently lose_sum: 0.15411418676376343
time_elpased: 3.299
#iterations: 381
currently lose_sum: 0.21990707516670227
time_elpased: 3.139
#iterations: 382
currently lose_sum: 0.06780524551868439
time_elpased: 3.2
#iterations: 383
currently lose_sum: 0.10806838423013687
time_elpased: 3.233
#iterations: 384
currently lose_sum: 0.029721487313508987
time_elpased: 3.176
#iterations: 385
currently lose_sum: 0.16913756728172302
time_elpased: 3.216
#iterations: 386
currently lose_sum: 0.048271335661411285
time_elpased: 3.198
#iterations: 387
currently lose_sum: 0.042030517011880875
time_elpased: 3.224
#iterations: 388
currently lose_sum: 0.02734154835343361
time_elpased: 3.311
#iterations: 389
currently lose_sum: 0.13153144717216492
time_elpased: 3.233
#iterations: 390
currently lose_sum: 0.034619320183992386
time_elpased: 3.573
#iterations: 391
currently lose_sum: 0.03900688886642456
time_elpased: 3.194
#iterations: 392
currently lose_sum: 0.019405368715524673
time_elpased: 3.263
#iterations: 393
currently lose_sum: 0.22191253304481506
time_elpased: 3.551
#iterations: 394
currently lose_sum: 0.08691161125898361
time_elpased: 3.244
#iterations: 395
currently lose_sum: 0.028831958770751953
time_elpased: 3.34
#iterations: 396
currently lose_sum: 0.042978618294000626
time_elpased: 3.217
#iterations: 397
currently lose_sum: 0.04427284374833107
time_elpased: 3.156
#iterations: 398
currently lose_sum: 0.031192472204566002
time_elpased: 3.33
#iterations: 399
currently lose_sum: 0.03469064086675644
time_elpased: 3.186
start validation test
0.680803571429
0.901768172888
0.408362989324
0.562155541947
0.68178006097
128.828
#iterations: 400
currently lose_sum: 0.1166355162858963
time_elpased: 3.238
#iterations: 401
currently lose_sum: 0.07159270346164703
time_elpased: 3.181
#iterations: 402
currently lose_sum: 0.1481555551290512
time_elpased: 3.459
#iterations: 403
currently lose_sum: 0.009419942274689674
time_elpased: 3.399
#iterations: 404
currently lose_sum: 0.0070964498445391655
time_elpased: 3.228
#iterations: 405
currently lose_sum: 0.034868210554122925
time_elpased: 3.385
#iterations: 406
currently lose_sum: 0.19068163633346558
time_elpased: 3.218
#iterations: 407
currently lose_sum: 0.15781913697719574
time_elpased: 3.193
#iterations: 408
currently lose_sum: 0.0429849699139595
time_elpased: 3.187
#iterations: 409
currently lose_sum: 0.04071502760052681
time_elpased: 3.226
#iterations: 410
currently lose_sum: 0.03279081732034683
time_elpased: 3.231
#iterations: 411
currently lose_sum: 0.13268166780471802
time_elpased: 3.188
#iterations: 412
currently lose_sum: 0.06084848567843437
time_elpased: 3.223
#iterations: 413
currently lose_sum: 0.0904352217912674
time_elpased: 3.259
#iterations: 414
currently lose_sum: 0.012684717774391174
time_elpased: 3.152
#iterations: 415
currently lose_sum: 0.021570388227701187
time_elpased: 3.161
#iterations: 416
currently lose_sum: 0.02844814956188202
time_elpased: 3.121
#iterations: 417
currently lose_sum: 0.044842466711997986
time_elpased: 3.185
#iterations: 418
currently lose_sum: 0.03823813423514366
time_elpased: 3.398
#iterations: 419
currently lose_sum: 0.048367004841566086
time_elpased: 3.217
start validation test
0.684375
0.897142857143
0.419039145907
0.571255306246
0.685326024567
126.996
#iterations: 420
currently lose_sum: 0.10836269706487656
time_elpased: 3.21
#iterations: 421
currently lose_sum: 0.3176443576812744
time_elpased: 3.185
#iterations: 422
currently lose_sum: 0.1043694019317627
time_elpased: 3.256
#iterations: 423
currently lose_sum: 0.07203071564435959
time_elpased: 3.167
#iterations: 424
currently lose_sum: 0.13435032963752747
time_elpased: 3.236
#iterations: 425
currently lose_sum: 0.1291290819644928
time_elpased: 3.398
#iterations: 426
currently lose_sum: 0.15240378677845
time_elpased: 3.248
#iterations: 427
currently lose_sum: 0.0646771490573883
time_elpased: 3.214
#iterations: 428
currently lose_sum: 0.15394794940948486
time_elpased: 3.215
#iterations: 429
currently lose_sum: 0.10233813524246216
time_elpased: 3.245
#iterations: 430
currently lose_sum: 0.04379481077194214
time_elpased: 3.153
#iterations: 431
currently lose_sum: 0.0274307020008564
time_elpased: 3.251
#iterations: 432
currently lose_sum: 0.0799650028347969
time_elpased: 3.334
#iterations: 433
currently lose_sum: 0.11103253066539764
time_elpased: 3.245
#iterations: 434
currently lose_sum: 0.03392219915986061
time_elpased: 3.421
#iterations: 435
currently lose_sum: 0.01616734266281128
time_elpased: 3.296
#iterations: 436
currently lose_sum: 0.0994752049446106
time_elpased: 3.217
#iterations: 437
currently lose_sum: 0.04339431971311569
time_elpased: 3.546
#iterations: 438
currently lose_sum: 0.021979739889502525
time_elpased: 3.291
#iterations: 439
currently lose_sum: 0.028815751895308495
time_elpased: 3.181
start validation test
0.676339285714
0.885880077369
0.407473309609
0.558196221816
0.677302963048
133.609
#iterations: 440
currently lose_sum: 0.013824613764882088
time_elpased: 3.264
#iterations: 441
currently lose_sum: 0.03069300577044487
time_elpased: 3.203
#iterations: 442
currently lose_sum: 0.05072742700576782
time_elpased: 3.157
#iterations: 443
currently lose_sum: 0.18190765380859375
time_elpased: 3.104
#iterations: 444
currently lose_sum: 0.075049489736557
time_elpased: 3.196
#iterations: 445
currently lose_sum: 0.07350848615169525
time_elpased: 3.17
#iterations: 446
currently lose_sum: 0.2356928586959839
time_elpased: 3.401
#iterations: 447
currently lose_sum: 0.007639843039214611
time_elpased: 3.206
#iterations: 448
currently lose_sum: 0.25674253702163696
time_elpased: 3.151
#iterations: 449
currently lose_sum: 0.07934592664241791
time_elpased: 3.21
#iterations: 450
currently lose_sum: 0.05058025196194649
time_elpased: 3.158
#iterations: 451
currently lose_sum: 0.11503219604492188
time_elpased: 3.179
#iterations: 452
currently lose_sum: 0.060497649013996124
time_elpased: 3.17
#iterations: 453
currently lose_sum: 0.04210318997502327
time_elpased: 3.413
#iterations: 454
currently lose_sum: 0.023679789155721664
time_elpased: 3.299
#iterations: 455
currently lose_sum: 0.07111215591430664
time_elpased: 3.205
#iterations: 456
currently lose_sum: 0.11704190820455551
time_elpased: 3.186
#iterations: 457
currently lose_sum: 0.08453141152858734
time_elpased: 3.169
#iterations: 458
currently lose_sum: 0.02060702070593834
time_elpased: 3.206
#iterations: 459
currently lose_sum: 0.08803850412368774
time_elpased: 3.17
start validation test
0.676339285714
0.89504950495
0.402135231317
0.554941682014
0.677322095945
135.570
#iterations: 460
currently lose_sum: 0.1930059939622879
time_elpased: 3.188
#iterations: 461
currently lose_sum: 0.031214898452162743
time_elpased: 3.319
#iterations: 462
currently lose_sum: 0.1311928778886795
time_elpased: 3.219
#iterations: 463
currently lose_sum: 0.03241652995347977
time_elpased: 3.219
#iterations: 464
currently lose_sum: 0.05432848259806633
time_elpased: 3.246
#iterations: 465
currently lose_sum: 0.06720204651355743
time_elpased: 3.176
#iterations: 466
currently lose_sum: 0.12126008421182632
time_elpased: 3.23
#iterations: 467
currently lose_sum: 0.024393584579229355
time_elpased: 3.374
#iterations: 468
currently lose_sum: 0.15353678166866302
time_elpased: 3.166
#iterations: 469
currently lose_sum: 0.05584149807691574
time_elpased: 3.329
#iterations: 470
currently lose_sum: 0.01965898461639881
time_elpased: 3.209
#iterations: 471
currently lose_sum: 0.1306280493736267
time_elpased: 3.13
#iterations: 472
currently lose_sum: 0.0611729733645916
time_elpased: 3.193
#iterations: 473
currently lose_sum: 0.12791520357131958
time_elpased: 3.231
#iterations: 474
currently lose_sum: 0.02258765697479248
time_elpased: 3.162
#iterations: 475
currently lose_sum: 0.0700511485338211
time_elpased: 3.276
#iterations: 476
currently lose_sum: 0.026227712631225586
time_elpased: 3.216
#iterations: 477
currently lose_sum: 0.13562200963497162
time_elpased: 3.332
#iterations: 478
currently lose_sum: 0.08584354817867279
time_elpased: 3.114
#iterations: 479
currently lose_sum: 0.014000351540744305
time_elpased: 3.254
start validation test
0.675892857143
0.893280632411
0.402135231317
0.554601226994
0.676874067271
135.904
#iterations: 480
currently lose_sum: 0.018443066626787186
time_elpased: 3.321
#iterations: 481
currently lose_sum: 0.0718291699886322
time_elpased: 3.222
#iterations: 482
currently lose_sum: 0.12290589511394501
time_elpased: 3.186
#iterations: 483
currently lose_sum: 0.13156157732009888
time_elpased: 3.163
#iterations: 484
currently lose_sum: 0.033645905554294586
time_elpased: 3.139
#iterations: 485
currently lose_sum: 0.05275037884712219
time_elpased: 3.158
#iterations: 486
currently lose_sum: 0.2023831307888031
time_elpased: 3.169
#iterations: 487
currently lose_sum: 0.1379733383655548
time_elpased: 3.205
#iterations: 488
currently lose_sum: 0.035417892038822174
time_elpased: 3.181
#iterations: 489
currently lose_sum: 0.013384049758315086
time_elpased: 3.158
#iterations: 490
currently lose_sum: 0.03925047069787979
time_elpased: 3.211
#iterations: 491
currently lose_sum: 0.01939793862402439
time_elpased: 3.193
#iterations: 492
currently lose_sum: 0.0166193675249815
time_elpased: 3.259
#iterations: 493
currently lose_sum: 0.05962799862027168
time_elpased: 3.153
#iterations: 494
currently lose_sum: 0.10978774726390839
time_elpased: 3.169
#iterations: 495
currently lose_sum: 0.18084147572517395
time_elpased: 3.187
#iterations: 496
currently lose_sum: 0.016030624508857727
time_elpased: 3.193
#iterations: 497
currently lose_sum: 0.009236780926585197
time_elpased: 3.266
#iterations: 498
currently lose_sum: 0.0980936735868454
time_elpased: 3.227
#iterations: 499
currently lose_sum: 0.03148480877280235
time_elpased: 3.161
start validation test
0.658482142857
0.896247240618
0.361209964413
0.514901712112
0.659547634536
147.008
#iterations: 500
currently lose_sum: 0.07747157663106918
time_elpased: 3.179
#iterations: 501
currently lose_sum: 0.08655104786157608
time_elpased: 3.162
#iterations: 502
currently lose_sum: 0.01388512272387743
time_elpased: 3.24
#iterations: 503
currently lose_sum: 0.14465868473052979
time_elpased: 3.182
#iterations: 504
currently lose_sum: 0.06313983350992203
time_elpased: 3.141
#iterations: 505
currently lose_sum: 0.021398257464170456
time_elpased: 3.214
#iterations: 506
currently lose_sum: 0.06383407115936279
time_elpased: 3.285
#iterations: 507
currently lose_sum: 0.00915774516761303
time_elpased: 3.203
#iterations: 508
currently lose_sum: 0.1904623806476593
time_elpased: 3.261
#iterations: 509
currently lose_sum: 0.0806436687707901
time_elpased: 3.174
#iterations: 510
currently lose_sum: 0.035335641354322433
time_elpased: 3.212
#iterations: 511
currently lose_sum: 0.014280331321060658
time_elpased: 3.109
#iterations: 512
currently lose_sum: 0.06797551363706589
time_elpased: 3.2
#iterations: 513
currently lose_sum: 0.15770526230335236
time_elpased: 3.236
#iterations: 514
currently lose_sum: 0.03633160889148712
time_elpased: 3.137
#iterations: 515
currently lose_sum: 0.016740282997488976
time_elpased: 3.206
#iterations: 516
currently lose_sum: 0.005916041322052479
time_elpased: 3.214
#iterations: 517
currently lose_sum: 0.08656986057758331
time_elpased: 3.153
#iterations: 518
currently lose_sum: 0.05999203398823738
time_elpased: 3.171
#iterations: 519
currently lose_sum: 0.12945018708705902
time_elpased: 3.256
start validation test
0.658035714286
0.892543859649
0.362099644128
0.515189873418
0.659096417046
148.668
#iterations: 520
currently lose_sum: 0.05453028157353401
time_elpased: 3.344
#iterations: 521
currently lose_sum: 0.12797796726226807
time_elpased: 3.265
#iterations: 522
currently lose_sum: 0.08138267695903778
time_elpased: 3.155
#iterations: 523
currently lose_sum: 0.02613794431090355
time_elpased: 3.255
#iterations: 524
currently lose_sum: 0.061593372374773026
time_elpased: 3.221
#iterations: 525
currently lose_sum: 0.06418175995349884
time_elpased: 3.2
#iterations: 526
currently lose_sum: 0.14478108286857605
time_elpased: 3.164
#iterations: 527
currently lose_sum: 0.003490020288154483
time_elpased: 3.229
#iterations: 528
currently lose_sum: 0.043313272297382355
time_elpased: 3.147
#iterations: 529
currently lose_sum: 0.14889177680015564
time_elpased: 3.262
#iterations: 530
currently lose_sum: 0.022174138575792313
time_elpased: 3.513
#iterations: 531
currently lose_sum: 0.11860974133014679
time_elpased: 3.233
#iterations: 532
currently lose_sum: 0.09793315827846527
time_elpased: 3.195
#iterations: 533
currently lose_sum: 0.010051801800727844
time_elpased: 3.222
#iterations: 534
currently lose_sum: 0.1437317132949829
time_elpased: 3.213
#iterations: 535
currently lose_sum: 0.0684337466955185
time_elpased: 3.194
#iterations: 536
currently lose_sum: 0.027778297662734985
time_elpased: 3.186
#iterations: 537
currently lose_sum: 0.08841225504875183
time_elpased: 3.247
#iterations: 538
currently lose_sum: 0.20970256626605988
time_elpased: 3.366
#iterations: 539
currently lose_sum: 0.024138271808624268
time_elpased: 3.136
start validation test
0.655803571429
0.893095768374
0.356761565836
0.509853782581
0.656875406574
148.218
#iterations: 540
currently lose_sum: 0.01412841398268938
time_elpased: 3.175
#iterations: 541
currently lose_sum: 0.06635386496782303
time_elpased: 3.308
#iterations: 542
currently lose_sum: 0.008072872646152973
time_elpased: 3.25
#iterations: 543
currently lose_sum: 0.022581614553928375
time_elpased: 3.149
#iterations: 544
currently lose_sum: 0.09921833127737045
time_elpased: 3.165
#iterations: 545
currently lose_sum: 0.04446740448474884
time_elpased: 3.201
#iterations: 546
currently lose_sum: 0.03702177479863167
time_elpased: 3.368
#iterations: 547
currently lose_sum: 0.22318513691425323
time_elpased: 3.383
#iterations: 548
currently lose_sum: 0.17932090163230896
time_elpased: 3.198
#iterations: 549
currently lose_sum: 0.08147668093442917
time_elpased: 3.19
#iterations: 550
currently lose_sum: 0.06421983987092972
time_elpased: 3.176
#iterations: 551
currently lose_sum: 0.12253706157207489
time_elpased: 3.256
#iterations: 552
currently lose_sum: 0.10355903953313828
time_elpased: 3.234
#iterations: 553
currently lose_sum: 0.009982237592339516
time_elpased: 3.142
#iterations: 554
currently lose_sum: 0.050641756504774094
time_elpased: 3.181
#iterations: 555
currently lose_sum: 0.21664662659168243
time_elpased: 3.242
#iterations: 556
currently lose_sum: 0.07584905624389648
time_elpased: 3.197
#iterations: 557
currently lose_sum: 0.10022272914648056
time_elpased: 3.256
#iterations: 558
currently lose_sum: 0.05025400593876839
time_elpased: 3.301
#iterations: 559
currently lose_sum: 0.15466320514678955
time_elpased: 3.123
start validation test
0.661160714286
0.908277404922
0.361209964413
0.516868236792
0.662235806579
153.590
#iterations: 560
currently lose_sum: 0.09933377802371979
time_elpased: 3.146
#iterations: 561
currently lose_sum: 0.06271018087863922
time_elpased: 3.218
#iterations: 562
currently lose_sum: 0.05324466899037361
time_elpased: 3.194
#iterations: 563
currently lose_sum: 0.21560344099998474
time_elpased: 3.184
#iterations: 564
currently lose_sum: 0.025548577308654785
time_elpased: 3.284
#iterations: 565
currently lose_sum: 0.02372065559029579
time_elpased: 3.16
#iterations: 566
currently lose_sum: 0.015295741148293018
time_elpased: 3.131
#iterations: 567
currently lose_sum: 0.12763731181621552
time_elpased: 3.215
#iterations: 568
currently lose_sum: 0.008559465408325195
time_elpased: 3.168
#iterations: 569
currently lose_sum: 0.11778461933135986
time_elpased: 3.28
#iterations: 570
currently lose_sum: 0.02695121243596077
time_elpased: 3.386
#iterations: 571
currently lose_sum: 0.0159487072378397
time_elpased: 3.324
#iterations: 572
currently lose_sum: 0.06881525367498398
time_elpased: 3.234
#iterations: 573
currently lose_sum: 0.006642819847911596
time_elpased: 3.204
#iterations: 574
currently lose_sum: 0.09386203438043594
time_elpased: 3.214
#iterations: 575
currently lose_sum: 0.07397737354040146
time_elpased: 3.471
#iterations: 576
currently lose_sum: 0.05439566820859909
time_elpased: 3.197
#iterations: 577
currently lose_sum: 0.03722477704286575
time_elpased: 3.329
#iterations: 578
currently lose_sum: 0.023465650156140327
time_elpased: 3.481
#iterations: 579
currently lose_sum: 0.015436472371220589
time_elpased: 3.272
start validation test
0.654464285714
0.899543378995
0.350533807829
0.504481434059
0.655553642266
155.111
#iterations: 580
currently lose_sum: 0.04561846703290939
time_elpased: 3.178
#iterations: 581
currently lose_sum: 0.010348689742386341
time_elpased: 3.226
#iterations: 582
currently lose_sum: 0.007655648980289698
time_elpased: 3.267
#iterations: 583
currently lose_sum: 0.028165388852357864
time_elpased: 3.131
#iterations: 584
currently lose_sum: 0.025197124108672142
time_elpased: 3.288
#iterations: 585
currently lose_sum: 0.023968195542693138
time_elpased: 3.158
#iterations: 586
currently lose_sum: 0.02463512495160103
time_elpased: 3.199
#iterations: 587
currently lose_sum: 0.1171761304140091
time_elpased: 3.175
#iterations: 588
currently lose_sum: 0.06399305164813995
time_elpased: 3.239
#iterations: 589
currently lose_sum: 0.14960703253746033
time_elpased: 3.24
#iterations: 590
currently lose_sum: 0.13207778334617615
time_elpased: 3.43
#iterations: 591
currently lose_sum: 0.028104418888688087
time_elpased: 3.294
#iterations: 592
currently lose_sum: 0.08621817827224731
time_elpased: 3.201
#iterations: 593
currently lose_sum: 0.08102284371852875
time_elpased: 3.236
#iterations: 594
currently lose_sum: 0.04881249740719795
time_elpased: 3.233
#iterations: 595
currently lose_sum: 0.18531779944896698
time_elpased: 3.171
#iterations: 596
currently lose_sum: 0.12444700300693512
time_elpased: 3.201
#iterations: 597
currently lose_sum: 0.06865206360816956
time_elpased: 3.239
#iterations: 598
currently lose_sum: 0.11979693174362183
time_elpased: 3.203
#iterations: 599
currently lose_sum: 0.19029681384563446
time_elpased: 3.216
start validation test
0.651339285714
0.901639344262
0.342526690391
0.496453900709
0.652446140895
162.326
acc: 0.748
pre: 0.828
rec: 0.629
F1: 0.715
auc: 0.749
