start to construct computing graph
graph construct over
3373
epochs start
#iterations: 0
currently lose_sum: 0.6699933409690857
time_elpased: 2.007
#iterations: 1
currently lose_sum: 0.6306750178337097
time_elpased: 1.939
#iterations: 2
currently lose_sum: 0.5771068334579468
time_elpased: 2.036
#iterations: 3
currently lose_sum: 0.6388288736343384
time_elpased: 2.039
#iterations: 4
currently lose_sum: 0.5480391383171082
time_elpased: 2.329
#iterations: 5
currently lose_sum: 0.42838114500045776
time_elpased: 2.009
#iterations: 6
currently lose_sum: 0.5130685567855835
time_elpased: 2.044
#iterations: 7
currently lose_sum: 0.460823118686676
time_elpased: 1.999
#iterations: 8
currently lose_sum: 0.4678876996040344
time_elpased: 2.33
#iterations: 9
currently lose_sum: 0.411421000957489
time_elpased: 1.971
#iterations: 10
currently lose_sum: 0.4636131823062897
time_elpased: 2.007
#iterations: 11
currently lose_sum: 0.5200170278549194
time_elpased: 2.023
#iterations: 12
currently lose_sum: 0.3753785789012909
time_elpased: 1.994
#iterations: 13
currently lose_sum: 0.4692601263523102
time_elpased: 1.997
#iterations: 14
currently lose_sum: 0.40768080949783325
time_elpased: 1.957
#iterations: 15
currently lose_sum: 0.3791333734989166
time_elpased: 1.964
#iterations: 16
currently lose_sum: 0.4076763987541199
time_elpased: 1.962
#iterations: 17
currently lose_sum: 0.47885122895240784
time_elpased: 2.01
#iterations: 18
currently lose_sum: 0.3794124126434326
time_elpased: 1.972
#iterations: 19
currently lose_sum: 0.3915770947933197
time_elpased: 1.951
start validation test
0.752232142857
0.7565374211
0.746441281139
0.751455441111
0.752252898634
28.996
#iterations: 20
currently lose_sum: 0.5729416608810425
time_elpased: 1.965
#iterations: 21
currently lose_sum: 0.37357059121131897
time_elpased: 1.595
#iterations: 22
currently lose_sum: 0.5125882029533386
time_elpased: 1.599
#iterations: 23
currently lose_sum: 0.27778178453445435
time_elpased: 1.672
#iterations: 24
currently lose_sum: 0.32823196053504944
time_elpased: 1.577
#iterations: 25
currently lose_sum: 0.34294694662094116
time_elpased: 1.6
#iterations: 26
currently lose_sum: 0.3065718412399292
time_elpased: 1.639
#iterations: 27
currently lose_sum: 0.2731526792049408
time_elpased: 1.736
#iterations: 28
currently lose_sum: 0.46679478883743286
time_elpased: 1.609
#iterations: 29
currently lose_sum: 0.3079509437084198
time_elpased: 1.642
#iterations: 30
currently lose_sum: 0.43786850571632385
time_elpased: 1.613
#iterations: 31
currently lose_sum: 0.4807327389717102
time_elpased: 1.721
#iterations: 32
currently lose_sum: 0.33985787630081177
time_elpased: 1.588
#iterations: 33
currently lose_sum: 0.3910810351371765
time_elpased: 1.992
#iterations: 34
currently lose_sum: 0.2945648729801178
time_elpased: 1.597
#iterations: 35
currently lose_sum: 0.1996777057647705
time_elpased: 1.675
#iterations: 36
currently lose_sum: 0.21509650349617004
time_elpased: 1.639
#iterations: 37
currently lose_sum: 0.405601441860199
time_elpased: 1.63
#iterations: 38
currently lose_sum: 0.2283799648284912
time_elpased: 1.621
#iterations: 39
currently lose_sum: 0.23052820563316345
time_elpased: 1.558
start validation test
0.756696428571
0.803777544596
0.681494661922
0.737602311026
0.756965968954
30.425
#iterations: 40
currently lose_sum: 0.2941611111164093
time_elpased: 1.558
#iterations: 41
currently lose_sum: 0.28674378991127014
time_elpased: 1.587
#iterations: 42
currently lose_sum: 0.25011110305786133
time_elpased: 1.791
#iterations: 43
currently lose_sum: 0.3101935088634491
time_elpased: 1.634
#iterations: 44
currently lose_sum: 0.3110313415527344
time_elpased: 1.706
#iterations: 45
currently lose_sum: 0.3045003116130829
time_elpased: 1.629
#iterations: 46
currently lose_sum: 0.37977734208106995
time_elpased: 1.588
#iterations: 47
currently lose_sum: 0.4041512906551361
time_elpased: 1.551
#iterations: 48
currently lose_sum: 0.30862727761268616
time_elpased: 1.556
#iterations: 49
currently lose_sum: 0.23351474106311798
time_elpased: 1.555
#iterations: 50
currently lose_sum: 0.36762019991874695
time_elpased: 1.67
#iterations: 51
currently lose_sum: 0.2571622133255005
time_elpased: 1.617
#iterations: 52
currently lose_sum: 0.35850340127944946
time_elpased: 1.75
#iterations: 53
currently lose_sum: 0.26707345247268677
time_elpased: 1.618
#iterations: 54
currently lose_sum: 0.4049185812473297
time_elpased: 1.628
#iterations: 55
currently lose_sum: 0.3009244501590729
time_elpased: 1.676
#iterations: 56
currently lose_sum: 0.24661950767040253
time_elpased: 1.716
#iterations: 57
currently lose_sum: 0.40945911407470703
time_elpased: 1.591
#iterations: 58
currently lose_sum: 0.24152696132659912
time_elpased: 1.831
#iterations: 59
currently lose_sum: 0.3319896459579468
time_elpased: 1.597
start validation test
0.757142857143
0.811827956989
0.671708185053
0.735150925024
0.757449074606
32.046
#iterations: 60
currently lose_sum: 0.37300699949264526
time_elpased: 1.704
#iterations: 61
currently lose_sum: 0.35399213433265686
time_elpased: 1.57
#iterations: 62
currently lose_sum: 0.3389599919319153
time_elpased: 1.576
#iterations: 63
currently lose_sum: 0.34779149293899536
time_elpased: 1.585
#iterations: 64
currently lose_sum: 0.2298230677843094
time_elpased: 1.729
#iterations: 65
currently lose_sum: 0.3073490560054779
time_elpased: 1.575
#iterations: 66
currently lose_sum: 0.3036750853061676
time_elpased: 1.581
#iterations: 67
currently lose_sum: 0.3281462788581848
time_elpased: 1.6
#iterations: 68
currently lose_sum: 0.38595080375671387
time_elpased: 1.605
#iterations: 69
currently lose_sum: 0.28985971212387085
time_elpased: 1.595
#iterations: 70
currently lose_sum: 0.3260134756565094
time_elpased: 1.557
#iterations: 71
currently lose_sum: 0.24719175696372986
time_elpased: 1.808
#iterations: 72
currently lose_sum: 0.1941429078578949
time_elpased: 1.756
#iterations: 73
currently lose_sum: 0.3549480438232422
time_elpased: 1.562
#iterations: 74
currently lose_sum: 0.17941468954086304
time_elpased: 1.741
#iterations: 75
currently lose_sum: 0.3381768465042114
time_elpased: 1.633
#iterations: 76
currently lose_sum: 0.3417723774909973
time_elpased: 1.736
#iterations: 77
currently lose_sum: 0.17439988255500793
time_elpased: 1.575
#iterations: 78
currently lose_sum: 0.34536319971084595
time_elpased: 1.64
#iterations: 79
currently lose_sum: 0.33767640590667725
time_elpased: 1.589
start validation test
0.754910714286
0.822671156004
0.652135231317
0.727543424318
0.755279085192
34.780
#iterations: 80
currently lose_sum: 0.15847404301166534
time_elpased: 1.566
#iterations: 81
currently lose_sum: 0.42151451110839844
time_elpased: 1.579
#iterations: 82
currently lose_sum: 0.26238274574279785
time_elpased: 1.556
#iterations: 83
currently lose_sum: 0.4601057469844818
time_elpased: 1.691
#iterations: 84
currently lose_sum: 0.17064669728279114
time_elpased: 1.598
#iterations: 85
currently lose_sum: 0.14105352759361267
time_elpased: 1.562
#iterations: 86
currently lose_sum: 0.3541000485420227
time_elpased: 1.581
#iterations: 87
currently lose_sum: 0.2149103432893753
time_elpased: 1.646
#iterations: 88
currently lose_sum: 0.18663132190704346
time_elpased: 1.641
#iterations: 89
currently lose_sum: 0.3606436848640442
time_elpased: 1.588
#iterations: 90
currently lose_sum: 0.33861202001571655
time_elpased: 1.608
#iterations: 91
currently lose_sum: 0.1868853121995926
time_elpased: 1.814
#iterations: 92
currently lose_sum: 0.17784573137760162
time_elpased: 1.663
#iterations: 93
currently lose_sum: 0.15823638439178467
time_elpased: 1.616
#iterations: 94
currently lose_sum: 0.3142155408859253
time_elpased: 1.643
#iterations: 95
currently lose_sum: 0.29875099658966064
time_elpased: 1.604
#iterations: 96
currently lose_sum: 0.15124398469924927
time_elpased: 1.605
#iterations: 97
currently lose_sum: 0.3377281725406647
time_elpased: 1.611
#iterations: 98
currently lose_sum: 0.1855335533618927
time_elpased: 1.874
#iterations: 99
currently lose_sum: 0.2895195782184601
time_elpased: 1.621
start validation test
0.746875
0.838396111786
0.613879003559
0.708782742681
0.747351688159
38.509
#iterations: 100
currently lose_sum: 0.32342129945755005
time_elpased: 1.609
#iterations: 101
currently lose_sum: 0.17078523337841034
time_elpased: 1.557
#iterations: 102
currently lose_sum: 0.14150401949882507
time_elpased: 1.589
#iterations: 103
currently lose_sum: 0.3015536665916443
time_elpased: 1.6
#iterations: 104
currently lose_sum: 0.4935070872306824
time_elpased: 1.565
#iterations: 105
currently lose_sum: 0.1780320405960083
time_elpased: 1.595
#iterations: 106
currently lose_sum: 0.27357378602027893
time_elpased: 1.65
#iterations: 107
currently lose_sum: 0.3068181574344635
time_elpased: 1.588
#iterations: 108
currently lose_sum: 0.34265977144241333
time_elpased: 1.574
#iterations: 109
currently lose_sum: 0.2916049063205719
time_elpased: 1.605
#iterations: 110
currently lose_sum: 0.1717262715101242
time_elpased: 1.768
#iterations: 111
currently lose_sum: 0.19296029210090637
time_elpased: 1.591
#iterations: 112
currently lose_sum: 0.18925994634628296
time_elpased: 1.526
#iterations: 113
currently lose_sum: 0.12689252197742462
time_elpased: 1.567
#iterations: 114
currently lose_sum: 0.22935724258422852
time_elpased: 1.647
#iterations: 115
currently lose_sum: 0.23394989967346191
time_elpased: 1.616
#iterations: 116
currently lose_sum: 0.22540728747844696
time_elpased: 1.607
#iterations: 117
currently lose_sum: 0.1702192723751068
time_elpased: 1.586
#iterations: 118
currently lose_sum: 0.18396547436714172
time_elpased: 1.604
#iterations: 119
currently lose_sum: 0.14377328753471375
time_elpased: 1.728
start validation test
0.736160714286
0.851119894598
0.574733096085
0.686139139671
0.736739307899
43.151
#iterations: 120
currently lose_sum: 0.24179181456565857
time_elpased: 1.686
#iterations: 121
currently lose_sum: 0.11549927294254303
time_elpased: 1.892
#iterations: 122
currently lose_sum: 0.2317419797182083
time_elpased: 1.584
#iterations: 123
currently lose_sum: 0.19498363137245178
time_elpased: 1.604
#iterations: 124
currently lose_sum: 0.22428250312805176
time_elpased: 1.595
#iterations: 125
currently lose_sum: 0.2701770067214966
time_elpased: 1.584
#iterations: 126
currently lose_sum: 0.202961727976799
time_elpased: 1.599
#iterations: 127
currently lose_sum: 0.41554778814315796
time_elpased: 1.596
#iterations: 128
currently lose_sum: 0.24868503212928772
time_elpased: 1.626
#iterations: 129
currently lose_sum: 0.16460633277893066
time_elpased: 1.659
#iterations: 130
currently lose_sum: 0.2174033373594284
time_elpased: 1.628
#iterations: 131
currently lose_sum: 0.3672993779182434
time_elpased: 1.588
#iterations: 132
currently lose_sum: 0.14041253924369812
time_elpased: 1.769
#iterations: 133
currently lose_sum: 0.31653234362602234
time_elpased: 1.597
#iterations: 134
currently lose_sum: 0.3913624882698059
time_elpased: 1.669
#iterations: 135
currently lose_sum: 0.14965008199214935
time_elpased: 1.566
#iterations: 136
currently lose_sum: 0.2752113342285156
time_elpased: 1.753
#iterations: 137
currently lose_sum: 0.28878292441368103
time_elpased: 1.828
#iterations: 138
currently lose_sum: 0.3910018503665924
time_elpased: 1.575
#iterations: 139
currently lose_sum: 0.4405197203159332
time_elpased: 1.574
start validation test
0.749107142857
0.836124401914
0.621886120996
0.713265306122
0.749563132183
42.596
#iterations: 140
currently lose_sum: 0.21408522129058838
time_elpased: 1.591
#iterations: 141
currently lose_sum: 0.3218521475791931
time_elpased: 1.719
#iterations: 142
currently lose_sum: 0.13923528790473938
time_elpased: 1.609
#iterations: 143
currently lose_sum: 0.16274772584438324
time_elpased: 1.625
#iterations: 144
currently lose_sum: 0.10804398357868195
time_elpased: 1.895
#iterations: 145
currently lose_sum: 0.26214730739593506
time_elpased: 1.564
#iterations: 146
currently lose_sum: 0.36473754048347473
time_elpased: 1.538
#iterations: 147
currently lose_sum: 0.22641555964946747
time_elpased: 1.622
#iterations: 148
currently lose_sum: 0.3079901337623596
time_elpased: 1.588
#iterations: 149
currently lose_sum: 0.3579609990119934
time_elpased: 1.648
#iterations: 150
currently lose_sum: 0.21751293540000916
time_elpased: 1.631
#iterations: 151
currently lose_sum: 0.26964378356933594
time_elpased: 1.628
#iterations: 152
currently lose_sum: 0.19345128536224365
time_elpased: 1.797
#iterations: 153
currently lose_sum: 0.4147642254829407
time_elpased: 1.603
#iterations: 154
currently lose_sum: 0.23342852294445038
time_elpased: 1.584
#iterations: 155
currently lose_sum: 0.2812221944332123
time_elpased: 1.596
#iterations: 156
currently lose_sum: 0.2138492614030838
time_elpased: 1.567
#iterations: 157
currently lose_sum: 0.2373451292514801
time_elpased: 1.64
#iterations: 158
currently lose_sum: 0.1258092224597931
time_elpased: 1.619
#iterations: 159
currently lose_sum: 0.11902129650115967
time_elpased: 1.604
start validation test
0.733928571429
0.83
0.590747330961
0.690228690229
0.734441765839
45.932
#iterations: 160
currently lose_sum: 0.10076320171356201
time_elpased: 1.564
#iterations: 161
currently lose_sum: 0.16444382071495056
time_elpased: 1.598
#iterations: 162
currently lose_sum: 0.14439508318901062
time_elpased: 1.588
#iterations: 163
currently lose_sum: 0.19474028050899506
time_elpased: 1.607
#iterations: 164
currently lose_sum: 0.24185040593147278
time_elpased: 1.675
#iterations: 165
currently lose_sum: 0.17016670107841492
time_elpased: 1.627
#iterations: 166
currently lose_sum: 0.3177671432495117
time_elpased: 1.721
#iterations: 167
currently lose_sum: 0.23869749903678894
time_elpased: 1.658
#iterations: 168
currently lose_sum: 0.1522662192583084
time_elpased: 1.587
#iterations: 169
currently lose_sum: 0.24570472538471222
time_elpased: 1.558
#iterations: 170
currently lose_sum: 0.25971347093582153
time_elpased: 1.682
#iterations: 171
currently lose_sum: 0.17028585076332092
time_elpased: 1.575
#iterations: 172
currently lose_sum: 0.1879921555519104
time_elpased: 1.676
#iterations: 173
currently lose_sum: 0.15223443508148193
time_elpased: 1.571
#iterations: 174
currently lose_sum: 0.2200644314289093
time_elpased: 1.6
#iterations: 175
currently lose_sum: 0.21587221324443817
time_elpased: 1.637
#iterations: 176
currently lose_sum: 0.1769181489944458
time_elpased: 1.752
#iterations: 177
currently lose_sum: 0.08625465631484985
time_elpased: 1.657
#iterations: 178
currently lose_sum: 0.26529520750045776
time_elpased: 1.602
#iterations: 179
currently lose_sum: 0.3244294822216034
time_elpased: 1.742
start validation test
0.739285714286
0.826876513317
0.607651245552
0.700512820513
0.739757522417
45.920
#iterations: 180
currently lose_sum: 0.16185232996940613
time_elpased: 1.581
#iterations: 181
currently lose_sum: 0.26831376552581787
time_elpased: 1.547
#iterations: 182
currently lose_sum: 0.2548949718475342
time_elpased: 1.557
#iterations: 183
currently lose_sum: 0.24367742240428925
time_elpased: 2.049
#iterations: 184
currently lose_sum: 0.27556881308555603
time_elpased: 1.61
#iterations: 185
currently lose_sum: 0.1556396633386612
time_elpased: 1.626
#iterations: 186
currently lose_sum: 0.2653919458389282
time_elpased: 1.618
#iterations: 187
currently lose_sum: 0.19949741661548615
time_elpased: 1.606
#iterations: 188
currently lose_sum: 0.19224925339221954
time_elpased: 1.633
#iterations: 189
currently lose_sum: 0.15801355242729187
time_elpased: 1.692
#iterations: 190
currently lose_sum: 0.35451540350914
time_elpased: 1.599
#iterations: 191
currently lose_sum: 0.20907115936279297
time_elpased: 1.573
#iterations: 192
currently lose_sum: 0.28742578625679016
time_elpased: 1.548
#iterations: 193
currently lose_sum: 0.06296104937791824
time_elpased: 1.616
#iterations: 194
currently lose_sum: 0.2742299437522888
time_elpased: 1.571
#iterations: 195
currently lose_sum: 0.1260712444782257
time_elpased: 1.672
#iterations: 196
currently lose_sum: 0.2096082717180252
time_elpased: 1.662
#iterations: 197
currently lose_sum: 0.09589479863643646
time_elpased: 1.566
#iterations: 198
currently lose_sum: 0.189614400267601
time_elpased: 1.579
#iterations: 199
currently lose_sum: 0.18872566521167755
time_elpased: 1.567
start validation test
0.732142857143
0.83676092545
0.579181494662
0.684542586751
0.732691105754
50.358
#iterations: 200
currently lose_sum: 0.13919417560100555
time_elpased: 1.558
#iterations: 201
currently lose_sum: 0.23565880954265594
time_elpased: 1.647
#iterations: 202
currently lose_sum: 0.1241917759180069
time_elpased: 1.685
#iterations: 203
currently lose_sum: 0.17762558162212372
time_elpased: 1.548
#iterations: 204
currently lose_sum: 0.17628967761993408
time_elpased: 1.576
#iterations: 205
currently lose_sum: 0.1707923710346222
time_elpased: 1.62
#iterations: 206
currently lose_sum: 0.12395626306533813
time_elpased: 1.616
#iterations: 207
currently lose_sum: 0.18578198552131653
time_elpased: 1.57
#iterations: 208
currently lose_sum: 0.2053096741437912
time_elpased: 1.651
#iterations: 209
currently lose_sum: 0.21660633385181427
time_elpased: 1.582
#iterations: 210
currently lose_sum: 0.3928772211074829
time_elpased: 1.806
#iterations: 211
currently lose_sum: 0.11665940284729004
time_elpased: 1.75
#iterations: 212
currently lose_sum: 0.3604721128940582
time_elpased: 1.58
#iterations: 213
currently lose_sum: 0.2499525099992752
time_elpased: 1.543
#iterations: 214
currently lose_sum: 0.30829986929893494
time_elpased: 1.585
#iterations: 215
currently lose_sum: 0.09844933450222015
time_elpased: 1.618
#iterations: 216
currently lose_sum: 0.20922765135765076
time_elpased: 1.592
#iterations: 217
currently lose_sum: 0.1269528865814209
time_elpased: 1.61
#iterations: 218
currently lose_sum: 0.18438467383384705
time_elpased: 1.594
#iterations: 219
currently lose_sum: 0.15780200064182281
time_elpased: 1.579
start validation test
0.724553571429
0.839357429719
0.557829181495
0.670229823624
0.725151149887
54.072
#iterations: 220
currently lose_sum: 0.15293103456497192
time_elpased: 1.598
#iterations: 221
currently lose_sum: 0.19500261545181274
time_elpased: 1.694
#iterations: 222
currently lose_sum: 0.13249285519123077
time_elpased: 1.707
#iterations: 223
currently lose_sum: 0.17830955982208252
time_elpased: 1.614
#iterations: 224
currently lose_sum: 0.21901336312294006
time_elpased: 1.738
#iterations: 225
currently lose_sum: 0.3146457076072693
time_elpased: 1.547
#iterations: 226
currently lose_sum: 0.08248651027679443
time_elpased: 1.611
#iterations: 227
currently lose_sum: 0.21785064041614532
time_elpased: 1.538
#iterations: 228
currently lose_sum: 0.14223170280456543
time_elpased: 1.578
#iterations: 229
currently lose_sum: 0.14169107377529144
time_elpased: 1.612
#iterations: 230
currently lose_sum: 0.21565738320350647
time_elpased: 1.624
#iterations: 231
currently lose_sum: 0.296898752450943
time_elpased: 1.524
#iterations: 232
currently lose_sum: 0.1599198579788208
time_elpased: 1.551
#iterations: 233
currently lose_sum: 0.13620583713054657
time_elpased: 1.603
#iterations: 234
currently lose_sum: 0.12466738373041153
time_elpased: 1.672
#iterations: 235
currently lose_sum: 0.10843014717102051
time_elpased: 1.598
#iterations: 236
currently lose_sum: 0.25552016496658325
time_elpased: 1.609
#iterations: 237
currently lose_sum: 0.1512473076581955
time_elpased: 1.739
#iterations: 238
currently lose_sum: 0.17559729516506195
time_elpased: 1.621
#iterations: 239
currently lose_sum: 0.13705512881278992
time_elpased: 1.58
start validation test
0.732142857143
0.852150537634
0.564056939502
0.678800856531
0.732745315629
55.114
#iterations: 240
currently lose_sum: 0.4846158027648926
time_elpased: 1.567
#iterations: 241
currently lose_sum: 0.08449367433786392
time_elpased: 1.717
#iterations: 242
currently lose_sum: 0.3348940312862396
time_elpased: 1.592
#iterations: 243
currently lose_sum: 0.0970129519701004
time_elpased: 1.561
#iterations: 244
currently lose_sum: 0.09628554433584213
time_elpased: 1.601
#iterations: 245
currently lose_sum: 0.15330611169338226
time_elpased: 1.626
#iterations: 246
currently lose_sum: 0.18059806525707245
time_elpased: 1.707
#iterations: 247
currently lose_sum: 0.1926158368587494
time_elpased: 1.735
#iterations: 248
currently lose_sum: 0.14222681522369385
time_elpased: 1.676
#iterations: 249
currently lose_sum: 0.2499811351299286
time_elpased: 1.576
#iterations: 250
currently lose_sum: 0.3020785450935364
time_elpased: 1.725
#iterations: 251
currently lose_sum: 0.355896532535553
time_elpased: 1.596
#iterations: 252
currently lose_sum: 0.28297725319862366
time_elpased: 1.637
#iterations: 253
currently lose_sum: 0.18108442425727844
time_elpased: 1.615
#iterations: 254
currently lose_sum: 0.18786732852458954
time_elpased: 1.876
#iterations: 255
currently lose_sum: 0.15618091821670532
time_elpased: 1.647
#iterations: 256
currently lose_sum: 0.10647306591272354
time_elpased: 1.617
#iterations: 257
currently lose_sum: 0.36666664481163025
time_elpased: 1.575
#iterations: 258
currently lose_sum: 0.16057707369327545
time_elpased: 1.597
#iterations: 259
currently lose_sum: 0.1771201640367508
time_elpased: 1.587
start validation test
0.729464285714
0.831202046036
0.578291814947
0.682056663169
0.730006122527
56.149
#iterations: 260
currently lose_sum: 0.2082097828388214
time_elpased: 1.717
#iterations: 261
currently lose_sum: 0.2449040710926056
time_elpased: 1.617
#iterations: 262
currently lose_sum: 0.17629411816596985
time_elpased: 1.689
#iterations: 263
currently lose_sum: 0.13294710218906403
time_elpased: 1.579
#iterations: 264
currently lose_sum: 0.269761860370636
time_elpased: 1.635
#iterations: 265
currently lose_sum: 0.22648224234580994
time_elpased: 1.564
#iterations: 266
currently lose_sum: 0.09727267920970917
time_elpased: 1.607
#iterations: 267
currently lose_sum: 0.21502931416034698
time_elpased: 1.591
#iterations: 268
currently lose_sum: 0.2848191559314728
time_elpased: 1.561
#iterations: 269
currently lose_sum: 0.12082786858081818
time_elpased: 1.58
#iterations: 270
currently lose_sum: 0.19891837239265442
time_elpased: 1.753
#iterations: 271
currently lose_sum: 0.16802474856376648
time_elpased: 1.593
#iterations: 272
currently lose_sum: 0.165723979473114
time_elpased: 1.617
#iterations: 273
currently lose_sum: 0.28125011920928955
time_elpased: 1.556
#iterations: 274
currently lose_sum: 0.31127843260765076
time_elpased: 1.87
#iterations: 275
currently lose_sum: 0.07899206131696701
time_elpased: 1.584
#iterations: 276
currently lose_sum: 0.39099064469337463
time_elpased: 1.58
#iterations: 277
currently lose_sum: 0.2859417796134949
time_elpased: 1.637
#iterations: 278
currently lose_sum: 0.13994674384593964
time_elpased: 1.627
#iterations: 279
currently lose_sum: 0.15420173108577728
time_elpased: 2.033
start validation test
0.721875
0.846473029046
0.544483985765
0.662696264212
0.722510810087
59.193
#iterations: 280
currently lose_sum: 0.18395894765853882
time_elpased: 1.573
#iterations: 281
currently lose_sum: 0.15489821135997772
time_elpased: 1.577
#iterations: 282
currently lose_sum: 0.21656186878681183
time_elpased: 1.606
#iterations: 283
currently lose_sum: 0.1916859894990921
time_elpased: 1.968
#iterations: 284
currently lose_sum: 0.18588991463184357
time_elpased: 1.584
#iterations: 285
currently lose_sum: 0.27506160736083984
time_elpased: 1.727
#iterations: 286
currently lose_sum: 0.14389650523662567
time_elpased: 1.603
#iterations: 287
currently lose_sum: 0.13439877331256866
time_elpased: 1.53
#iterations: 288
currently lose_sum: 0.3779424726963043
time_elpased: 1.584
#iterations: 289
currently lose_sum: 0.10883356630802155
time_elpased: 1.585
#iterations: 290
currently lose_sum: 0.1313304603099823
time_elpased: 1.605
#iterations: 291
currently lose_sum: 0.1781735122203827
time_elpased: 1.703
#iterations: 292
currently lose_sum: 0.16247108578681946
time_elpased: 1.846
#iterations: 293
currently lose_sum: 0.16217085719108582
time_elpased: 1.577
#iterations: 294
currently lose_sum: 0.07644875347614288
time_elpased: 1.537
#iterations: 295
currently lose_sum: 0.08013368397951126
time_elpased: 1.921
#iterations: 296
currently lose_sum: 0.16057968139648438
time_elpased: 1.878
#iterations: 297
currently lose_sum: 0.20444250106811523
time_elpased: 1.582
#iterations: 298
currently lose_sum: 0.1933073252439499
time_elpased: 1.542
#iterations: 299
currently lose_sum: 0.12513108551502228
time_elpased: 1.538
start validation test
0.723660714286
0.843537414966
0.551601423488
0.66702528241
0.724277414253
60.688
#iterations: 300
currently lose_sum: 0.2589501738548279
time_elpased: 1.564
#iterations: 301
currently lose_sum: 0.14248912036418915
time_elpased: 1.569
#iterations: 302
currently lose_sum: 0.2371416836977005
time_elpased: 1.671
#iterations: 303
currently lose_sum: 0.30204111337661743
time_elpased: 1.542
#iterations: 304
currently lose_sum: 0.19979842007160187
time_elpased: 1.611
#iterations: 305
currently lose_sum: 0.15181581676006317
time_elpased: 1.576
#iterations: 306
currently lose_sum: 0.23688511550426483
time_elpased: 1.646
#iterations: 307
currently lose_sum: 0.17075452208518982
time_elpased: 1.603
#iterations: 308
currently lose_sum: 0.044702522456645966
time_elpased: 1.548
#iterations: 309
currently lose_sum: 0.22651155292987823
time_elpased: 1.598
#iterations: 310
currently lose_sum: 0.09221556037664413
time_elpased: 1.874
#iterations: 311
currently lose_sum: 0.0889068990945816
time_elpased: 1.584
#iterations: 312
currently lose_sum: 0.15441882610321045
time_elpased: 1.82
#iterations: 313
currently lose_sum: 0.17815431952476501
time_elpased: 1.594
#iterations: 314
currently lose_sum: 0.2480812966823578
time_elpased: 1.583
#iterations: 315
currently lose_sum: 0.12737581133842468
time_elpased: 1.69
#iterations: 316
currently lose_sum: 0.1576712429523468
time_elpased: 1.7
#iterations: 317
currently lose_sum: 0.11838354170322418
time_elpased: 1.766
#iterations: 318
currently lose_sum: 0.1100277453660965
time_elpased: 1.631
#iterations: 319
currently lose_sum: 0.1509314328432083
time_elpased: 1.537
start validation test
0.721875
0.854314002829
0.537366548043
0.659748771163
0.722536320616
62.666
#iterations: 320
currently lose_sum: 0.21629834175109863
time_elpased: 1.568
#iterations: 321
currently lose_sum: 0.27895671129226685
time_elpased: 1.8
#iterations: 322
currently lose_sum: 0.15455147624015808
time_elpased: 1.553
#iterations: 323
currently lose_sum: 0.36787572503089905
time_elpased: 1.583
#iterations: 324
currently lose_sum: 0.13982711732387543
time_elpased: 1.564
#iterations: 325
currently lose_sum: 0.1099814921617508
time_elpased: 1.608
#iterations: 326
currently lose_sum: 0.22510424256324768
time_elpased: 1.799
#iterations: 327
currently lose_sum: 0.17300370335578918
time_elpased: 1.599
#iterations: 328
currently lose_sum: 0.12405557930469513
time_elpased: 1.674
#iterations: 329
currently lose_sum: 0.23070666193962097
time_elpased: 1.825
#iterations: 330
currently lose_sum: 0.12734070420265198
time_elpased: 1.533
#iterations: 331
currently lose_sum: 0.06443873047828674
time_elpased: 1.582
#iterations: 332
currently lose_sum: 0.10370608419179916
time_elpased: 1.64
#iterations: 333
currently lose_sum: 0.10748598724603653
time_elpased: 1.586
#iterations: 334
currently lose_sum: 0.205104261636734
time_elpased: 1.576
#iterations: 335
currently lose_sum: 0.1661531776189804
time_elpased: 1.635
#iterations: 336
currently lose_sum: 0.0894550234079361
time_elpased: 1.55
#iterations: 337
currently lose_sum: 0.06214100122451782
time_elpased: 1.555
#iterations: 338
currently lose_sum: 0.12378919124603271
time_elpased: 1.582
#iterations: 339
currently lose_sum: 0.13564381003379822
time_elpased: 1.764
start validation test
0.719196428571
0.834912043302
0.548932384342
0.662372517445
0.719806693963
61.970
#iterations: 340
currently lose_sum: 0.1384451687335968
time_elpased: 1.55
#iterations: 341
currently lose_sum: 0.3347485661506653
time_elpased: 1.685
#iterations: 342
currently lose_sum: 0.13814018666744232
time_elpased: 1.574
#iterations: 343
currently lose_sum: 0.09648820012807846
time_elpased: 1.564
#iterations: 344
currently lose_sum: 0.1036338210105896
time_elpased: 1.589
#iterations: 345
currently lose_sum: 0.11239620298147202
time_elpased: 1.572
#iterations: 346
currently lose_sum: 0.15128597617149353
time_elpased: 1.74
#iterations: 347
currently lose_sum: 0.23108091950416565
time_elpased: 1.723
#iterations: 348
currently lose_sum: 0.09665989875793457
time_elpased: 1.643
#iterations: 349
currently lose_sum: 0.1639951765537262
time_elpased: 1.54
#iterations: 350
currently lose_sum: 0.2431497573852539
time_elpased: 1.541
#iterations: 351
currently lose_sum: 0.11036525666713715
time_elpased: 1.603
#iterations: 352
currently lose_sum: 0.3569512367248535
time_elpased: 1.694
#iterations: 353
currently lose_sum: 0.16636338829994202
time_elpased: 1.631
#iterations: 354
currently lose_sum: 0.21800097823143005
time_elpased: 1.65
#iterations: 355
currently lose_sum: 0.18062657117843628
time_elpased: 1.56
#iterations: 356
currently lose_sum: 0.06772786378860474
time_elpased: 1.616
#iterations: 357
currently lose_sum: 0.220981627702713
time_elpased: 1.657
#iterations: 358
currently lose_sum: 0.07964570075273514
time_elpased: 1.627
#iterations: 359
currently lose_sum: 0.1189112663269043
time_elpased: 1.652
start validation test
0.725892857143
0.860169491525
0.541814946619
0.664847161572
0.7265526346
65.875
#iterations: 360
currently lose_sum: 0.09964237362146378
time_elpased: 1.714
#iterations: 361
currently lose_sum: 0.09245951473712921
time_elpased: 1.602
#iterations: 362
currently lose_sum: 0.10395662486553192
time_elpased: 1.596
#iterations: 363
currently lose_sum: 0.21709191799163818
time_elpased: 1.655
#iterations: 364
currently lose_sum: 0.0878208577632904
time_elpased: 1.575
#iterations: 365
currently lose_sum: 0.3529755473136902
time_elpased: 1.56
#iterations: 366
currently lose_sum: 0.16847047209739685
time_elpased: 1.56
#iterations: 367
currently lose_sum: 0.22267329692840576
time_elpased: 1.548
#iterations: 368
currently lose_sum: 0.21364310383796692
time_elpased: 1.692
#iterations: 369
currently lose_sum: 0.06271938234567642
time_elpased: 1.609
#iterations: 370
currently lose_sum: 0.25265347957611084
time_elpased: 1.623
#iterations: 371
currently lose_sum: 0.06614275276660919
time_elpased: 1.671
#iterations: 372
currently lose_sum: 0.2339431345462799
time_elpased: 1.546
#iterations: 373
currently lose_sum: 0.1245809942483902
time_elpased: 1.582
#iterations: 374
currently lose_sum: 0.1314653903245926
time_elpased: 1.63
#iterations: 375
currently lose_sum: 0.25406044721603394
time_elpased: 1.608
#iterations: 376
currently lose_sum: 0.090098537504673
time_elpased: 1.57
#iterations: 377
currently lose_sum: 0.15772013366222382
time_elpased: 1.613
#iterations: 378
currently lose_sum: 0.19638624787330627
time_elpased: 1.613
#iterations: 379
currently lose_sum: 0.08343575149774551
time_elpased: 1.577
start validation test
0.71875
0.851851851852
0.532028469751
0.654983570646
0.719419252797
67.033
#iterations: 380
currently lose_sum: 0.08830414712429047
time_elpased: 1.689
#iterations: 381
currently lose_sum: 0.2935434877872467
time_elpased: 1.611
#iterations: 382
currently lose_sum: 0.26141786575317383
time_elpased: 1.697
#iterations: 383
currently lose_sum: 0.1480875164270401
time_elpased: 1.634
#iterations: 384
currently lose_sum: 0.14855000376701355
time_elpased: 1.591
#iterations: 385
currently lose_sum: 0.1833920180797577
time_elpased: 1.552
#iterations: 386
currently lose_sum: 0.17707662284374237
time_elpased: 1.629
#iterations: 387
currently lose_sum: 0.12828905880451202
time_elpased: 1.743
#iterations: 388
currently lose_sum: 0.20234274864196777
time_elpased: 1.613
#iterations: 389
currently lose_sum: 0.16517114639282227
time_elpased: 1.735
#iterations: 390
currently lose_sum: 0.1264857053756714
time_elpased: 1.692
#iterations: 391
currently lose_sum: 0.210930734872818
time_elpased: 1.624
#iterations: 392
currently lose_sum: 0.14277252554893494
time_elpased: 1.581
#iterations: 393
currently lose_sum: 0.17597052454948425
time_elpased: 1.705
#iterations: 394
currently lose_sum: 0.2443496286869049
time_elpased: 1.574
#iterations: 395
currently lose_sum: 0.2607247233390808
time_elpased: 1.714
#iterations: 396
currently lose_sum: 0.3056032657623291
time_elpased: 1.566
#iterations: 397
currently lose_sum: 0.24242110550403595
time_elpased: 1.615
#iterations: 398
currently lose_sum: 0.1997750997543335
time_elpased: 1.672
#iterations: 399
currently lose_sum: 0.09507602453231812
time_elpased: 1.59
start validation test
0.716964285714
0.85100286533
0.52846975089
0.652030735456
0.717639893366
67.354
#iterations: 400
currently lose_sum: 0.291512668132782
time_elpased: 1.56
#iterations: 401
currently lose_sum: 0.24495582282543182
time_elpased: 1.607
#iterations: 402
currently lose_sum: 0.3772052824497223
time_elpased: 1.671
#iterations: 403
currently lose_sum: 0.10284771770238876
time_elpased: 1.615
#iterations: 404
currently lose_sum: 0.09127705544233322
time_elpased: 1.583
#iterations: 405
currently lose_sum: 0.12513837218284607
time_elpased: 1.822
#iterations: 406
currently lose_sum: 0.21405406296253204
time_elpased: 1.666
#iterations: 407
currently lose_sum: 0.27290886640548706
time_elpased: 1.567
#iterations: 408
currently lose_sum: 0.0795677974820137
time_elpased: 1.572
#iterations: 409
currently lose_sum: 0.07666164636611938
time_elpased: 1.589
#iterations: 410
currently lose_sum: 0.25057417154312134
time_elpased: 1.602
#iterations: 411
currently lose_sum: 0.24654221534729004
time_elpased: 1.572
#iterations: 412
currently lose_sum: 0.2677246630191803
time_elpased: 1.61
#iterations: 413
currently lose_sum: 0.16275127232074738
time_elpased: 1.552
#iterations: 414
currently lose_sum: 0.12745901942253113
time_elpased: 1.602
#iterations: 415
currently lose_sum: 0.2443586140871048
time_elpased: 1.607
#iterations: 416
currently lose_sum: 0.20974978804588318
time_elpased: 1.558
#iterations: 417
currently lose_sum: 0.25263258814811707
time_elpased: 1.601
#iterations: 418
currently lose_sum: 0.15878832340240479
time_elpased: 1.647
#iterations: 419
currently lose_sum: 0.19766822457313538
time_elpased: 1.604
start validation test
0.719196428571
0.843273231623
0.540925266904
0.659078590786
0.719835393309
66.048
#iterations: 420
currently lose_sum: 0.12074512243270874
time_elpased: 1.564
#iterations: 421
currently lose_sum: 0.07275734841823578
time_elpased: 1.609
#iterations: 422
currently lose_sum: 0.20142507553100586
time_elpased: 1.616
#iterations: 423
currently lose_sum: 0.11318554729223251
time_elpased: 1.609
#iterations: 424
currently lose_sum: 0.2332712709903717
time_elpased: 1.613
#iterations: 425
currently lose_sum: 0.1386147439479828
time_elpased: 1.612
#iterations: 426
currently lose_sum: 0.3799148201942444
time_elpased: 1.59
#iterations: 427
currently lose_sum: 0.14559388160705566
time_elpased: 1.553
#iterations: 428
currently lose_sum: 0.1198737621307373
time_elpased: 1.727
#iterations: 429
currently lose_sum: 0.09575679153203964
time_elpased: 1.579
#iterations: 430
currently lose_sum: 0.08263714611530304
time_elpased: 1.592
#iterations: 431
currently lose_sum: 0.2822290062904358
time_elpased: 1.675
#iterations: 432
currently lose_sum: 0.5385921597480774
time_elpased: 1.682
#iterations: 433
currently lose_sum: 0.13745273649692535
time_elpased: 1.603
#iterations: 434
currently lose_sum: 0.09877003729343414
time_elpased: 1.718
#iterations: 435
currently lose_sum: 0.08379746973514557
time_elpased: 1.733
#iterations: 436
currently lose_sum: 0.10382328927516937
time_elpased: 1.596
#iterations: 437
currently lose_sum: 0.10615205764770508
time_elpased: 1.675
#iterations: 438
currently lose_sum: 0.2115020751953125
time_elpased: 1.64
#iterations: 439
currently lose_sum: 0.1398056298494339
time_elpased: 1.62
start validation test
0.720535714286
0.838315217391
0.548932384342
0.663440860215
0.721150779984
67.114
#iterations: 440
currently lose_sum: 0.17855143547058105
time_elpased: 1.588
#iterations: 441
currently lose_sum: 0.09092583507299423
time_elpased: 1.57
#iterations: 442
currently lose_sum: 0.09592872858047485
time_elpased: 1.591
#iterations: 443
currently lose_sum: 0.30142942070961
time_elpased: 1.585
#iterations: 444
currently lose_sum: 0.08545737713575363
time_elpased: 1.654
#iterations: 445
currently lose_sum: 0.38771432638168335
time_elpased: 1.863
#iterations: 446
currently lose_sum: 0.16437728703022003
time_elpased: 1.632
#iterations: 447
currently lose_sum: 0.19899225234985352
time_elpased: 1.561
#iterations: 448
currently lose_sum: 0.09096693247556686
time_elpased: 1.588
#iterations: 449
currently lose_sum: 0.19019123911857605
time_elpased: 1.586
#iterations: 450
currently lose_sum: 0.2993848919868469
time_elpased: 1.62
#iterations: 451
currently lose_sum: 0.09458807110786438
time_elpased: 1.603
#iterations: 452
currently lose_sum: 0.12432412803173065
time_elpased: 1.581
#iterations: 453
currently lose_sum: 0.13644099235534668
time_elpased: 1.642
#iterations: 454
currently lose_sum: 0.2775283455848694
time_elpased: 1.741
#iterations: 455
currently lose_sum: 0.08657705038785934
time_elpased: 1.574
#iterations: 456
currently lose_sum: 0.12731480598449707
time_elpased: 1.66
#iterations: 457
currently lose_sum: 0.09138462692499161
time_elpased: 1.635
#iterations: 458
currently lose_sum: 0.194451242685318
time_elpased: 1.614
#iterations: 459
currently lose_sum: 0.2876947522163391
time_elpased: 1.677
start validation test
0.720089285714
0.846582984658
0.540035587189
0.659424225964
0.720734639472
69.464
#iterations: 460
currently lose_sum: 0.18442529439926147
time_elpased: 1.588
#iterations: 461
currently lose_sum: 0.12869694828987122
time_elpased: 1.599
#iterations: 462
currently lose_sum: 0.19715437293052673
time_elpased: 1.586
#iterations: 463
currently lose_sum: 0.07131507247686386
time_elpased: 1.819
#iterations: 464
currently lose_sum: 0.08834787458181381
time_elpased: 1.601
#iterations: 465
currently lose_sum: 0.27903297543525696
time_elpased: 1.571
#iterations: 466
currently lose_sum: 0.12704548239707947
time_elpased: 1.631
#iterations: 467
currently lose_sum: 0.19997364282608032
time_elpased: 1.644
#iterations: 468
currently lose_sum: 0.21752576529979706
time_elpased: 1.621
#iterations: 469
currently lose_sum: 0.16506405174732208
time_elpased: 1.791
#iterations: 470
currently lose_sum: 0.10652275383472443
time_elpased: 1.655
#iterations: 471
currently lose_sum: 0.19881504774093628
time_elpased: 1.572
#iterations: 472
currently lose_sum: 0.19081653654575348
time_elpased: 1.578
#iterations: 473
currently lose_sum: 0.13179609179496765
time_elpased: 1.575
#iterations: 474
currently lose_sum: 0.2610538601875305
time_elpased: 1.608
#iterations: 475
currently lose_sum: 0.0813298374414444
time_elpased: 1.931
#iterations: 476
currently lose_sum: 0.1874711811542511
time_elpased: 1.601
#iterations: 477
currently lose_sum: 0.17311029136180878
time_elpased: 1.614
#iterations: 478
currently lose_sum: 0.09246838092803955
time_elpased: 1.572
#iterations: 479
currently lose_sum: 0.2133062183856964
time_elpased: 1.571
start validation test
0.718303571429
0.848656294201
0.533807829181
0.655379574003
0.71896484649
70.406
#iterations: 480
currently lose_sum: 0.19677409529685974
time_elpased: 1.786
#iterations: 481
currently lose_sum: 0.11120684444904327
time_elpased: 1.593
#iterations: 482
currently lose_sum: 0.3289739191532135
time_elpased: 1.571
#iterations: 483
currently lose_sum: 0.29925090074539185
time_elpased: 1.588
#iterations: 484
currently lose_sum: 0.055161815136671066
time_elpased: 1.569
#iterations: 485
currently lose_sum: 0.28116852045059204
time_elpased: 1.614
#iterations: 486
currently lose_sum: 0.058746181428432465
time_elpased: 1.58
#iterations: 487
currently lose_sum: 0.12987542152404785
time_elpased: 1.647
#iterations: 488
currently lose_sum: 0.03339366614818573
time_elpased: 1.557
#iterations: 489
currently lose_sum: 0.13503609597682953
time_elpased: 1.566
#iterations: 490
currently lose_sum: 0.15739431977272034
time_elpased: 1.604
#iterations: 491
currently lose_sum: 0.14011424779891968
time_elpased: 1.564
#iterations: 492
currently lose_sum: 0.09505973011255264
time_elpased: 1.608
#iterations: 493
currently lose_sum: 0.18979224562644958
time_elpased: 1.574
#iterations: 494
currently lose_sum: 0.08632844686508179
time_elpased: 1.561
#iterations: 495
currently lose_sum: 0.09008368104696274
time_elpased: 1.554
#iterations: 496
currently lose_sum: 0.06194505840539932
time_elpased: 1.572
#iterations: 497
currently lose_sum: 0.1183416098356247
time_elpased: 1.648
#iterations: 498
currently lose_sum: 0.08836247026920319
time_elpased: 1.576
#iterations: 499
currently lose_sum: 0.12873771786689758
time_elpased: 1.625
start validation test
0.710714285714
0.852071005917
0.512455516014
0.64
0.711424890624
74.372
#iterations: 500
currently lose_sum: 0.16637606918811798
time_elpased: 1.547
#iterations: 501
currently lose_sum: 0.31151995062828064
time_elpased: 1.609
#iterations: 502
currently lose_sum: 0.11992006003856659
time_elpased: 1.608
#iterations: 503
currently lose_sum: 0.17875629663467407
time_elpased: 1.625
#iterations: 504
currently lose_sum: 0.13813307881355286
time_elpased: 1.582
#iterations: 505
currently lose_sum: 0.07627017796039581
time_elpased: 1.578
#iterations: 506
currently lose_sum: 0.20642217993736267
time_elpased: 1.925
#iterations: 507
currently lose_sum: 0.1814819574356079
time_elpased: 1.599
#iterations: 508
currently lose_sum: 0.08310966193675995
time_elpased: 1.589
#iterations: 509
currently lose_sum: 0.12754666805267334
time_elpased: 1.591
#iterations: 510
currently lose_sum: 0.3157762885093689
time_elpased: 1.579
#iterations: 511
currently lose_sum: 0.05620186775922775
time_elpased: 1.57
#iterations: 512
currently lose_sum: 0.10212378203868866
time_elpased: 1.644
#iterations: 513
currently lose_sum: 0.17006219923496246
time_elpased: 1.607
#iterations: 514
currently lose_sum: 0.037441570311784744
time_elpased: 1.617
#iterations: 515
currently lose_sum: 0.05282555893063545
time_elpased: 1.671
#iterations: 516
currently lose_sum: 0.3584257662296295
time_elpased: 1.539
#iterations: 517
currently lose_sum: 0.08964070677757263
time_elpased: 1.56
#iterations: 518
currently lose_sum: 0.25936228036880493
time_elpased: 1.579
#iterations: 519
currently lose_sum: 0.246955007314682
time_elpased: 1.543
start validation test
0.7125
0.858208955224
0.511565836299
0.641025641026
0.713220194135
76.701
#iterations: 520
currently lose_sum: 0.08942601829767227
time_elpased: 1.857
#iterations: 521
currently lose_sum: 0.18416748940944672
time_elpased: 1.787
#iterations: 522
currently lose_sum: 0.18402978777885437
time_elpased: 1.59
#iterations: 523
currently lose_sum: 0.14808155596256256
time_elpased: 1.582
#iterations: 524
currently lose_sum: 0.09124095737934113
time_elpased: 1.646
#iterations: 525
currently lose_sum: 0.3229750394821167
time_elpased: 1.565
#iterations: 526
currently lose_sum: 0.25140994787216187
time_elpased: 1.742
#iterations: 527
currently lose_sum: 0.22715052962303162
time_elpased: 1.635
#iterations: 528
currently lose_sum: 0.07671833038330078
time_elpased: 1.574
#iterations: 529
currently lose_sum: 0.1355920135974884
time_elpased: 1.6
#iterations: 530
currently lose_sum: 0.23121201992034912
time_elpased: 1.583
#iterations: 531
currently lose_sum: 0.2084856480360031
time_elpased: 1.589
#iterations: 532
currently lose_sum: 0.2143835574388504
time_elpased: 1.898
#iterations: 533
currently lose_sum: 0.26207470893859863
time_elpased: 1.645
#iterations: 534
currently lose_sum: 0.36149322986602783
time_elpased: 1.57
#iterations: 535
currently lose_sum: 0.14886094629764557
time_elpased: 1.587
#iterations: 536
currently lose_sum: 0.17515747249126434
time_elpased: 1.568
#iterations: 537
currently lose_sum: 0.23107528686523438
time_elpased: 1.562
#iterations: 538
currently lose_sum: 0.17285208404064178
time_elpased: 1.838
#iterations: 539
currently lose_sum: 0.14615944027900696
time_elpased: 1.579
start validation test
0.716964285714
0.854046242775
0.525800711744
0.650881057269
0.717649459815
73.659
#iterations: 540
currently lose_sum: 0.1998647004365921
time_elpased: 1.602
#iterations: 541
currently lose_sum: 0.23492708802223206
time_elpased: 1.736
#iterations: 542
currently lose_sum: 0.23184029757976532
time_elpased: 1.603
#iterations: 543
currently lose_sum: 0.14819343388080597
time_elpased: 1.616
#iterations: 544
currently lose_sum: 0.10338802635669708
time_elpased: 1.555
#iterations: 545
currently lose_sum: 0.07729853689670563
time_elpased: 1.758
#iterations: 546
currently lose_sum: 0.23527702689170837
time_elpased: 1.619
#iterations: 547
currently lose_sum: 0.18242265284061432
time_elpased: 1.9
#iterations: 548
currently lose_sum: 0.2148253619670868
time_elpased: 1.596
#iterations: 549
currently lose_sum: 0.15881416201591492
time_elpased: 1.586
#iterations: 550
currently lose_sum: 0.14358915388584137
time_elpased: 1.593
#iterations: 551
currently lose_sum: 0.20009374618530273
time_elpased: 1.565
#iterations: 552
currently lose_sum: 0.0469241626560688
time_elpased: 1.588
#iterations: 553
currently lose_sum: 0.1663394421339035
time_elpased: 1.596
#iterations: 554
currently lose_sum: 0.08321290463209152
time_elpased: 1.598
#iterations: 555
currently lose_sum: 0.2573179602622986
time_elpased: 1.616
#iterations: 556
currently lose_sum: 0.3003774881362915
time_elpased: 1.6
#iterations: 557
currently lose_sum: 0.12042807042598724
time_elpased: 1.556
#iterations: 558
currently lose_sum: 0.26029106974601746
time_elpased: 1.635
#iterations: 559
currently lose_sum: 0.10720793902873993
time_elpased: 1.555
start validation test
0.718303571429
0.852646638054
0.53024911032
0.653867251783
0.718977601755
74.388
#iterations: 560
currently lose_sum: 0.0991242527961731
time_elpased: 1.591
#iterations: 561
currently lose_sum: 0.0914674773812294
time_elpased: 1.567
#iterations: 562
currently lose_sum: 0.18832708895206451
time_elpased: 1.563
#iterations: 563
currently lose_sum: 0.07529617846012115
time_elpased: 1.56
#iterations: 564
currently lose_sum: 0.14132806658744812
time_elpased: 1.586
#iterations: 565
currently lose_sum: 0.12873853743076324
time_elpased: 1.608
#iterations: 566
currently lose_sum: 0.1843147575855255
time_elpased: 1.598
#iterations: 567
currently lose_sum: 0.09630988538265228
time_elpased: 1.765
#iterations: 568
currently lose_sum: 0.20017114281654358
time_elpased: 1.596
#iterations: 569
currently lose_sum: 0.21907691657543182
time_elpased: 1.706
#iterations: 570
currently lose_sum: 0.21926255524158478
time_elpased: 1.62
#iterations: 571
currently lose_sum: 0.2693496644496918
time_elpased: 1.858
#iterations: 572
currently lose_sum: 0.15131767094135284
time_elpased: 1.847
#iterations: 573
currently lose_sum: 0.20096926391124725
time_elpased: 1.571
#iterations: 574
currently lose_sum: 0.08963565528392792
time_elpased: 1.59
#iterations: 575
currently lose_sum: 0.12372243404388428
time_elpased: 1.772
#iterations: 576
currently lose_sum: 0.09353398531675339
time_elpased: 1.61
#iterations: 577
currently lose_sum: 0.0606054961681366
time_elpased: 1.887
#iterations: 578
currently lose_sum: 0.11044229567050934
time_elpased: 1.727
#iterations: 579
currently lose_sum: 0.13671965897083282
time_elpased: 1.711
start validation test
0.710267857143
0.860394537178
0.504448398577
0.63600673023
0.711005561295
78.340
#iterations: 580
currently lose_sum: 0.08691395074129105
time_elpased: 1.61
#iterations: 581
currently lose_sum: 0.1476210355758667
time_elpased: 1.617
#iterations: 582
currently lose_sum: 0.19373120367527008
time_elpased: 1.589
#iterations: 583
currently lose_sum: 0.14162278175354004
time_elpased: 1.617
#iterations: 584
currently lose_sum: 0.14911679923534393
time_elpased: 1.687
#iterations: 585
currently lose_sum: 0.16542944312095642
time_elpased: 1.568
#iterations: 586
currently lose_sum: 0.18221525847911835
time_elpased: 1.59
#iterations: 587
currently lose_sum: 0.12426143884658813
time_elpased: 1.919
#iterations: 588
currently lose_sum: 0.10975675284862518
time_elpased: 1.614
#iterations: 589
currently lose_sum: 0.2984355390071869
time_elpased: 1.731
#iterations: 590
currently lose_sum: 0.1060238927602768
time_elpased: 2.07
#iterations: 591
currently lose_sum: 0.11006748676300049
time_elpased: 1.738
#iterations: 592
currently lose_sum: 0.12067116796970367
time_elpased: 1.587
#iterations: 593
currently lose_sum: 0.09848988056182861
time_elpased: 1.584
#iterations: 594
currently lose_sum: 0.07861366122961044
time_elpased: 1.591
#iterations: 595
currently lose_sum: 0.11295151710510254
time_elpased: 1.579
#iterations: 596
currently lose_sum: 0.0344146266579628
time_elpased: 1.657
#iterations: 597
currently lose_sum: 0.19251450896263123
time_elpased: 1.624
#iterations: 598
currently lose_sum: 0.22315339744091034
time_elpased: 1.616
#iterations: 599
currently lose_sum: 0.12254248559474945
time_elpased: 1.531
start validation test
0.70625
0.85626911315
0.498220640569
0.629921259843
0.706995624944
79.072
acc: 0.765
pre: 0.768
rec: 0.761
F1: 0.764
auc: 0.765
