start to construct computing graph
graph construct over
3372
epochs start
#iterations: 0
currently lose_sum: 0.652450442314148
time_elpased: 2.722
#iterations: 1
currently lose_sum: 0.6757081747055054
time_elpased: 2.667
#iterations: 2
currently lose_sum: 0.5455643534660339
time_elpased: 2.658
#iterations: 3
currently lose_sum: 0.6521972417831421
time_elpased: 2.657
#iterations: 4
currently lose_sum: 0.69712233543396
time_elpased: 2.603
#iterations: 5
currently lose_sum: 0.5407198667526245
time_elpased: 2.653
#iterations: 6
currently lose_sum: 0.4321068823337555
time_elpased: 2.665
#iterations: 7
currently lose_sum: 0.4488958418369293
time_elpased: 2.608
#iterations: 8
currently lose_sum: 0.5141512155532837
time_elpased: 2.634
#iterations: 9
currently lose_sum: 0.39860934019088745
time_elpased: 2.698
#iterations: 10
currently lose_sum: 0.3628613352775574
time_elpased: 2.703
#iterations: 11
currently lose_sum: 0.5261780619621277
time_elpased: 2.637
#iterations: 12
currently lose_sum: 0.4955092966556549
time_elpased: 2.636
#iterations: 13
currently lose_sum: 0.46379566192626953
time_elpased: 2.648
#iterations: 14
currently lose_sum: 0.454155832529068
time_elpased: 2.662
#iterations: 15
currently lose_sum: 0.37436193227767944
time_elpased: 2.634
#iterations: 16
currently lose_sum: 0.3613108694553375
time_elpased: 2.651
#iterations: 17
currently lose_sum: 0.3061527609825134
time_elpased: 2.651
#iterations: 18
currently lose_sum: 0.5142115950584412
time_elpased: 2.66
#iterations: 19
currently lose_sum: 0.4497947692871094
time_elpased: 2.651
start validation test
0.745982142857
0.809364548495
0.64590747331
0.718456209797
0.746340833429
31.073
#iterations: 20
currently lose_sum: 0.5394846796989441
time_elpased: 2.154
#iterations: 21
currently lose_sum: 0.3576371669769287
time_elpased: 2.138
#iterations: 22
currently lose_sum: 0.541061520576477
time_elpased: 2.171
#iterations: 23
currently lose_sum: 0.3747609555721283
time_elpased: 2.201
#iterations: 24
currently lose_sum: 0.4020179808139801
time_elpased: 2.148
#iterations: 25
currently lose_sum: 0.34090808033943176
time_elpased: 2.234
#iterations: 26
currently lose_sum: 0.21082529425621033
time_elpased: 2.142
#iterations: 27
currently lose_sum: 0.2029472142457962
time_elpased: 2.131
#iterations: 28
currently lose_sum: 0.26923662424087524
time_elpased: 2.139
#iterations: 29
currently lose_sum: 0.5688039660453796
time_elpased: 2.135
#iterations: 30
currently lose_sum: 0.35577788949012756
time_elpased: 2.136
#iterations: 31
currently lose_sum: 0.37241482734680176
time_elpased: 2.189
#iterations: 32
currently lose_sum: 0.478114515542984
time_elpased: 2.145
#iterations: 33
currently lose_sum: 0.315945565700531
time_elpased: 2.159
#iterations: 34
currently lose_sum: 0.31783217191696167
time_elpased: 2.112
#iterations: 35
currently lose_sum: 0.3411780595779419
time_elpased: 2.081
#iterations: 36
currently lose_sum: 0.375836044549942
time_elpased: 2.125
#iterations: 37
currently lose_sum: 0.31851500272750854
time_elpased: 2.166
#iterations: 38
currently lose_sum: 0.24165454506874084
time_elpased: 2.154
#iterations: 39
currently lose_sum: 0.2856861650943756
time_elpased: 2.15
start validation test
0.769642857143
0.842342342342
0.665480427046
0.743538767396
0.770016199186
36.533
#iterations: 40
currently lose_sum: 0.36642858386039734
time_elpased: 2.152
#iterations: 41
currently lose_sum: 0.38233694434165955
time_elpased: 2.177
#iterations: 42
currently lose_sum: 0.3289283215999603
time_elpased: 2.098
#iterations: 43
currently lose_sum: 0.2965156137943268
time_elpased: 2.168
#iterations: 44
currently lose_sum: 0.20272395014762878
time_elpased: 2.158
#iterations: 45
currently lose_sum: 0.23936507105827332
time_elpased: 2.111
#iterations: 46
currently lose_sum: 0.23905400931835175
time_elpased: 2.094
#iterations: 47
currently lose_sum: 0.17682401835918427
time_elpased: 2.151
#iterations: 48
currently lose_sum: 0.2997193932533264
time_elpased: 2.1
#iterations: 49
currently lose_sum: 0.16278061270713806
time_elpased: 2.123
#iterations: 50
currently lose_sum: 0.2515559196472168
time_elpased: 2.15
#iterations: 51
currently lose_sum: 0.2978251576423645
time_elpased: 2.168
#iterations: 52
currently lose_sum: 0.18518848717212677
time_elpased: 2.155
#iterations: 53
currently lose_sum: 0.25610050559043884
time_elpased: 2.155
#iterations: 54
currently lose_sum: 0.424151748418808
time_elpased: 2.166
#iterations: 55
currently lose_sum: 0.3891211450099945
time_elpased: 2.166
#iterations: 56
currently lose_sum: 0.2654170095920563
time_elpased: 2.219
#iterations: 57
currently lose_sum: 0.12879623472690582
time_elpased: 2.145
#iterations: 58
currently lose_sum: 0.3330085575580597
time_elpased: 2.119
#iterations: 59
currently lose_sum: 0.20329447090625763
time_elpased: 2.146
start validation test
0.754464285714
0.818888888889
0.655693950178
0.728260869565
0.754818301254
38.733
#iterations: 60
currently lose_sum: 0.3521762490272522
time_elpased: 2.133
#iterations: 61
currently lose_sum: 0.26702412962913513
time_elpased: 2.179
#iterations: 62
currently lose_sum: 0.17590934038162231
time_elpased: 2.191
#iterations: 63
currently lose_sum: 0.25647640228271484
time_elpased: 2.171
#iterations: 64
currently lose_sum: 0.2509271502494812
time_elpased: 2.121
#iterations: 65
currently lose_sum: 0.17451982200145721
time_elpased: 2.191
#iterations: 66
currently lose_sum: 0.41194581985473633
time_elpased: 2.199
#iterations: 67
currently lose_sum: 0.36798614263534546
time_elpased: 2.109
#iterations: 68
currently lose_sum: 0.21485790610313416
time_elpased: 2.137
#iterations: 69
currently lose_sum: 0.26932886242866516
time_elpased: 2.111
#iterations: 70
currently lose_sum: 0.1725725680589676
time_elpased: 2.164
#iterations: 71
currently lose_sum: 0.14019882678985596
time_elpased: 2.179
#iterations: 72
currently lose_sum: 0.1300428956747055
time_elpased: 2.142
#iterations: 73
currently lose_sum: 0.12250661849975586
time_elpased: 2.213
#iterations: 74
currently lose_sum: 0.2399519681930542
time_elpased: 2.169
#iterations: 75
currently lose_sum: 0.3242896795272827
time_elpased: 2.152
#iterations: 76
currently lose_sum: 0.22775907814502716
time_elpased: 2.166
#iterations: 77
currently lose_sum: 0.12127330154180527
time_elpased: 2.108
#iterations: 78
currently lose_sum: 0.13843198120594025
time_elpased: 2.147
#iterations: 79
currently lose_sum: 0.12632565200328827
time_elpased: 2.123
start validation test
0.743303571429
0.853281853282
0.589857651246
0.697527617044
0.743853556806
51.896
#iterations: 80
currently lose_sum: 0.3895218074321747
time_elpased: 2.148
#iterations: 81
currently lose_sum: 0.22094497084617615
time_elpased: 2.176
#iterations: 82
currently lose_sum: 0.1703949123620987
time_elpased: 2.126
#iterations: 83
currently lose_sum: 0.16468743979930878
time_elpased: 2.181
#iterations: 84
currently lose_sum: 0.24016161262989044
time_elpased: 2.091
#iterations: 85
currently lose_sum: 0.25310906767845154
time_elpased: 2.156
#iterations: 86
currently lose_sum: 0.22010071575641632
time_elpased: 2.14
#iterations: 87
currently lose_sum: 0.05978887528181076
time_elpased: 2.142
#iterations: 88
currently lose_sum: 0.2654877305030823
time_elpased: 2.116
#iterations: 89
currently lose_sum: 0.3138751685619354
time_elpased: 2.127
#iterations: 90
currently lose_sum: 0.082493357360363
time_elpased: 2.139
#iterations: 91
currently lose_sum: 0.19982779026031494
time_elpased: 2.16
#iterations: 92
currently lose_sum: 0.19676050543785095
time_elpased: 2.143
#iterations: 93
currently lose_sum: 0.29420357942581177
time_elpased: 2.124
#iterations: 94
currently lose_sum: 0.3100883364677429
time_elpased: 2.154
#iterations: 95
currently lose_sum: 0.1665181815624237
time_elpased: 2.105
#iterations: 96
currently lose_sum: 0.10797228664159775
time_elpased: 2.182
#iterations: 97
currently lose_sum: 0.22176146507263184
time_elpased: 2.208
#iterations: 98
currently lose_sum: 0.11320104449987411
time_elpased: 2.149
#iterations: 99
currently lose_sum: 0.23259051144123077
time_elpased: 2.12
start validation test
0.753125
0.844390832328
0.622775800712
0.716845878136
0.753592201431
56.725
#iterations: 100
currently lose_sum: 0.2628498077392578
time_elpased: 2.198
#iterations: 101
currently lose_sum: 0.2919854521751404
time_elpased: 2.132
#iterations: 102
currently lose_sum: 0.17562365531921387
time_elpased: 2.101
#iterations: 103
currently lose_sum: 0.345376193523407
time_elpased: 2.131
#iterations: 104
currently lose_sum: 0.11438015848398209
time_elpased: 2.156
#iterations: 105
currently lose_sum: 0.08448655903339386
time_elpased: 2.138
#iterations: 106
currently lose_sum: 0.24920816719532013
time_elpased: 2.176
#iterations: 107
currently lose_sum: 0.1698782742023468
time_elpased: 2.146
#iterations: 108
currently lose_sum: 0.11499186605215073
time_elpased: 2.164
#iterations: 109
currently lose_sum: 0.17921295762062073
time_elpased: 2.241
#iterations: 110
currently lose_sum: 0.2562468647956848
time_elpased: 2.091
#iterations: 111
currently lose_sum: 0.07818152755498886
time_elpased: 2.129
#iterations: 112
currently lose_sum: 0.16751916706562042
time_elpased: 2.124
#iterations: 113
currently lose_sum: 0.24583086371421814
time_elpased: 2.15
#iterations: 114
currently lose_sum: 0.4546165466308594
time_elpased: 2.153
#iterations: 115
currently lose_sum: 0.33105745911598206
time_elpased: 2.083
#iterations: 116
currently lose_sum: 0.2320714294910431
time_elpased: 2.12
#iterations: 117
currently lose_sum: 0.20580895245075226
time_elpased: 2.195
#iterations: 118
currently lose_sum: 0.20222528278827667
time_elpased: 2.133
#iterations: 119
currently lose_sum: 0.26645249128341675
time_elpased: 2.128
start validation test
0.738839285714
0.829865361077
0.603202846975
0.698608964451
0.739325437824
63.996
#iterations: 120
currently lose_sum: 0.12526759505271912
time_elpased: 2.143
#iterations: 121
currently lose_sum: 0.2615792453289032
time_elpased: 2.206
#iterations: 122
currently lose_sum: 0.34038791060447693
time_elpased: 2.115
#iterations: 123
currently lose_sum: 0.1342860460281372
time_elpased: 2.143
#iterations: 124
currently lose_sum: 0.11730842292308807
time_elpased: 2.171
#iterations: 125
currently lose_sum: 0.15386906266212463
time_elpased: 2.213
#iterations: 126
currently lose_sum: 0.33801332116127014
time_elpased: 2.136
#iterations: 127
currently lose_sum: 0.14808222651481628
time_elpased: 2.149
#iterations: 128
currently lose_sum: 0.2879144251346588
time_elpased: 2.156
#iterations: 129
currently lose_sum: 0.1027761697769165
time_elpased: 2.159
#iterations: 130
currently lose_sum: 0.2171943485736847
time_elpased: 2.142
#iterations: 131
currently lose_sum: 0.1050698533654213
time_elpased: 2.186
#iterations: 132
currently lose_sum: 0.3010980486869812
time_elpased: 2.126
#iterations: 133
currently lose_sum: 0.15256892144680023
time_elpased: 2.168
#iterations: 134
currently lose_sum: 0.2895163595676422
time_elpased: 2.127
#iterations: 135
currently lose_sum: 0.1698804795742035
time_elpased: 2.148
#iterations: 136
currently lose_sum: 0.1651681661605835
time_elpased: 2.154
#iterations: 137
currently lose_sum: 0.11502452939748764
time_elpased: 2.144
#iterations: 138
currently lose_sum: 0.17176882922649384
time_elpased: 2.219
#iterations: 139
currently lose_sum: 0.08545432239770889
time_elpased: 2.119
start validation test
0.735714285714
0.864383561644
0.561387900356
0.680690399137
0.736339111468
68.517
#iterations: 140
currently lose_sum: 0.12415506690740585
time_elpased: 2.176
#iterations: 141
currently lose_sum: 0.1667044460773468
time_elpased: 2.141
#iterations: 142
currently lose_sum: 0.1326160877943039
time_elpased: 2.15
#iterations: 143
currently lose_sum: 0.21004624664783478
time_elpased: 2.14
#iterations: 144
currently lose_sum: 0.1751062124967575
time_elpased: 2.139
#iterations: 145
currently lose_sum: 0.29007065296173096
time_elpased: 2.171
#iterations: 146
currently lose_sum: 0.17956049740314484
time_elpased: 2.139
#iterations: 147
currently lose_sum: 0.24879033863544464
time_elpased: 2.092
#iterations: 148
currently lose_sum: 0.2784382700920105
time_elpased: 2.117
#iterations: 149
currently lose_sum: 0.19622068107128143
time_elpased: 2.164
#iterations: 150
currently lose_sum: 0.041950274258852005
time_elpased: 2.135
#iterations: 151
currently lose_sum: 0.03982082009315491
time_elpased: 2.134
#iterations: 152
currently lose_sum: 0.0785852000117302
time_elpased: 2.147
#iterations: 153
currently lose_sum: 0.29847970604896545
time_elpased: 2.079
#iterations: 154
currently lose_sum: 0.21834926307201385
time_elpased: 2.15
#iterations: 155
currently lose_sum: 0.20140302181243896
time_elpased: 2.109
#iterations: 156
currently lose_sum: 0.10678444057703018
time_elpased: 2.158
#iterations: 157
currently lose_sum: 0.20231325924396515
time_elpased: 2.151
#iterations: 158
currently lose_sum: 0.1674138307571411
time_elpased: 2.143
#iterations: 159
currently lose_sum: 0.14217925071716309
time_elpased: 2.175
start validation test
0.714285714286
0.856932153392
0.516903914591
0.644839067703
0.714993175933
72.510
#iterations: 160
currently lose_sum: 0.2761176526546478
time_elpased: 2.166
#iterations: 161
currently lose_sum: 0.0695355162024498
time_elpased: 2.128
#iterations: 162
currently lose_sum: 0.23771245777606964
time_elpased: 2.131
#iterations: 163
currently lose_sum: 0.14304132759571075
time_elpased: 2.167
#iterations: 164
currently lose_sum: 0.07915917783975601
time_elpased: 2.16
#iterations: 165
currently lose_sum: 0.13180124759674072
time_elpased: 2.154
#iterations: 166
currently lose_sum: 0.18338191509246826
time_elpased: 2.167
#iterations: 167
currently lose_sum: 0.18736335635185242
time_elpased: 2.172
#iterations: 168
currently lose_sum: 0.060459814965724945
time_elpased: 2.185
#iterations: 169
currently lose_sum: 0.22954706847667694
time_elpased: 2.118
#iterations: 170
currently lose_sum: 0.22360792756080627
time_elpased: 2.161
#iterations: 171
currently lose_sum: 0.0807681679725647
time_elpased: 2.139
#iterations: 172
currently lose_sum: 0.16694824397563934
time_elpased: 2.111
#iterations: 173
currently lose_sum: 0.2657458782196045
time_elpased: 2.188
#iterations: 174
currently lose_sum: 0.2368699610233307
time_elpased: 2.129
#iterations: 175
currently lose_sum: 0.12617860734462738
time_elpased: 2.185
#iterations: 176
currently lose_sum: 0.11532296985387802
time_elpased: 2.16
#iterations: 177
currently lose_sum: 0.06911853700876236
time_elpased: 2.189
#iterations: 178
currently lose_sum: 0.13111115992069244
time_elpased: 2.172
#iterations: 179
currently lose_sum: 0.1977320909500122
time_elpased: 2.169
start validation test
0.744642857143
0.856589147287
0.589857651246
0.698630136986
0.745197642827
69.901
#iterations: 180
currently lose_sum: 0.1621207296848297
time_elpased: 2.165
#iterations: 181
currently lose_sum: 0.1429152935743332
time_elpased: 2.149
#iterations: 182
currently lose_sum: 0.1420108824968338
time_elpased: 2.105
#iterations: 183
currently lose_sum: 0.11971628665924072
time_elpased: 2.178
#iterations: 184
currently lose_sum: 0.16101941466331482
time_elpased: 2.153
#iterations: 185
currently lose_sum: 0.12537631392478943
time_elpased: 2.09
#iterations: 186
currently lose_sum: 0.1481698900461197
time_elpased: 2.118
#iterations: 187
currently lose_sum: 0.17149579524993896
time_elpased: 2.135
#iterations: 188
currently lose_sum: 0.09004558622837067
time_elpased: 2.17
#iterations: 189
currently lose_sum: 0.10323174297809601
time_elpased: 2.118
#iterations: 190
currently lose_sum: 0.148352712392807
time_elpased: 2.206
#iterations: 191
currently lose_sum: 0.23190510272979736
time_elpased: 2.125
#iterations: 192
currently lose_sum: 0.2671840786933899
time_elpased: 2.12
#iterations: 193
currently lose_sum: 0.13013538718223572
time_elpased: 2.185
#iterations: 194
currently lose_sum: 0.22261562943458557
time_elpased: 2.187
#iterations: 195
currently lose_sum: 0.08368869870901108
time_elpased: 2.135
#iterations: 196
currently lose_sum: 0.2735298275947571
time_elpased: 2.117
#iterations: 197
currently lose_sum: 0.3061184883117676
time_elpased: 2.155
#iterations: 198
currently lose_sum: 0.2588264048099518
time_elpased: 2.115
#iterations: 199
currently lose_sum: 0.1388416588306427
time_elpased: 2.105
start validation test
0.714285714286
0.855882352941
0.517793594306
0.645232815965
0.714989987117
86.204
#iterations: 200
currently lose_sum: 0.18932156264781952
time_elpased: 2.14
#iterations: 201
currently lose_sum: 0.10137982666492462
time_elpased: 2.15
#iterations: 202
currently lose_sum: 0.05763394758105278
time_elpased: 2.163
#iterations: 203
currently lose_sum: 0.03780847042798996
time_elpased: 2.154
#iterations: 204
currently lose_sum: 0.21904537081718445
time_elpased: 2.108
#iterations: 205
currently lose_sum: 0.3612458407878876
time_elpased: 2.178
#iterations: 206
currently lose_sum: 0.25053155422210693
time_elpased: 2.105
#iterations: 207
currently lose_sum: 0.15360519289970398
time_elpased: 2.157
#iterations: 208
currently lose_sum: 0.058290995657444
time_elpased: 2.146
#iterations: 209
currently lose_sum: 0.18732278048992157
time_elpased: 2.169
#iterations: 210
currently lose_sum: 0.17553824186325073
time_elpased: 2.152
#iterations: 211
currently lose_sum: 0.059513531625270844
time_elpased: 2.133
#iterations: 212
currently lose_sum: 0.1964050829410553
time_elpased: 2.135
#iterations: 213
currently lose_sum: 0.10610675811767578
time_elpased: 2.163
#iterations: 214
currently lose_sum: 0.1999376267194748
time_elpased: 2.166
#iterations: 215
currently lose_sum: 0.08697476238012314
time_elpased: 2.159
#iterations: 216
currently lose_sum: 0.13598540425300598
time_elpased: 2.115
#iterations: 217
currently lose_sum: 0.12134964764118195
time_elpased: 2.139
#iterations: 218
currently lose_sum: 0.07556161284446716
time_elpased: 2.117
#iterations: 219
currently lose_sum: 0.14491109549999237
time_elpased: 2.137
start validation test
0.720535714286
0.854700854701
0.533807829181
0.65717415115
0.72120498986
86.472
#iterations: 220
currently lose_sum: 0.24665121734142303
time_elpased: 2.127
#iterations: 221
currently lose_sum: 0.22204551100730896
time_elpased: 2.138
#iterations: 222
currently lose_sum: 0.11654261499643326
time_elpased: 2.125
#iterations: 223
currently lose_sum: 0.06656116247177124
time_elpased: 2.131
#iterations: 224
currently lose_sum: 0.10425324738025665
time_elpased: 2.129
#iterations: 225
currently lose_sum: 0.26029738783836365
time_elpased: 2.169
#iterations: 226
currently lose_sum: 0.05218226835131645
time_elpased: 2.14
#iterations: 227
currently lose_sum: 0.18418172001838684
time_elpased: 2.145
#iterations: 228
currently lose_sum: 0.07605677843093872
time_elpased: 2.165
#iterations: 229
currently lose_sum: 0.15851370990276337
time_elpased: 2.155
#iterations: 230
currently lose_sum: 0.2557660639286041
time_elpased: 2.128
#iterations: 231
currently lose_sum: 0.310403048992157
time_elpased: 2.197
#iterations: 232
currently lose_sum: 0.11625337600708008
time_elpased: 2.15
#iterations: 233
currently lose_sum: 0.196980819106102
time_elpased: 2.133
#iterations: 234
currently lose_sum: 0.39193376898765564
time_elpased: 2.197
#iterations: 235
currently lose_sum: 0.11583936214447021
time_elpased: 2.139
#iterations: 236
currently lose_sum: 0.10210476070642471
time_elpased: 2.186
#iterations: 237
currently lose_sum: 0.33342641592025757
time_elpased: 2.154
#iterations: 238
currently lose_sum: 0.19013234972953796
time_elpased: 2.155
#iterations: 239
currently lose_sum: 0.15217407047748566
time_elpased: 2.163
start validation test
0.713839285714
0.858841010401
0.514234875445
0.643294379521
0.714554713708
87.245
#iterations: 240
currently lose_sum: 0.10068820416927338
time_elpased: 2.169
#iterations: 241
currently lose_sum: 0.15006756782531738
time_elpased: 2.151
#iterations: 242
currently lose_sum: 0.04137756675481796
time_elpased: 2.152
#iterations: 243
currently lose_sum: 0.0734567940235138
time_elpased: 2.159
#iterations: 244
currently lose_sum: 0.10556253045797348
time_elpased: 2.221
#iterations: 245
currently lose_sum: 0.10607323795557022
time_elpased: 2.139
#iterations: 246
currently lose_sum: 0.19287411868572235
time_elpased: 2.138
#iterations: 247
currently lose_sum: 0.15792901813983917
time_elpased: 2.134
#iterations: 248
currently lose_sum: 0.14243200421333313
time_elpased: 2.163
#iterations: 249
currently lose_sum: 0.069077268242836
time_elpased: 2.119
#iterations: 250
currently lose_sum: 0.04618842154741287
time_elpased: 2.141
#iterations: 251
currently lose_sum: 0.17681047320365906
time_elpased: 2.104
#iterations: 252
currently lose_sum: 0.23855078220367432
time_elpased: 2.146
#iterations: 253
currently lose_sum: 0.07554501295089722
time_elpased: 2.141
#iterations: 254
currently lose_sum: 0.2649454176425934
time_elpased: 2.21
#iterations: 255
currently lose_sum: 0.19245758652687073
time_elpased: 2.186
#iterations: 256
currently lose_sum: 0.05468869209289551
time_elpased: 2.149
#iterations: 257
currently lose_sum: 0.06751272827386856
time_elpased: 2.095
#iterations: 258
currently lose_sum: 0.14113959670066833
time_elpased: 2.168
#iterations: 259
currently lose_sum: 0.06495465338230133
time_elpased: 2.126
start validation test
0.718303571429
0.869565217391
0.516014234875
0.647682858738
0.719028622814
87.318
#iterations: 260
currently lose_sum: 0.12234000861644745
time_elpased: 2.106
#iterations: 261
currently lose_sum: 0.1401229202747345
time_elpased: 2.116
#iterations: 262
currently lose_sum: 0.0666273981332779
time_elpased: 2.152
#iterations: 263
currently lose_sum: 0.06673331558704376
time_elpased: 2.11
#iterations: 264
currently lose_sum: 0.11475647985935211
time_elpased: 2.142
#iterations: 265
currently lose_sum: 0.09706612676382065
time_elpased: 2.114
#iterations: 266
currently lose_sum: 0.027614155784249306
time_elpased: 2.141
#iterations: 267
currently lose_sum: 0.06450849771499634
time_elpased: 2.125
#iterations: 268
currently lose_sum: 0.09468157589435577
time_elpased: 2.193
#iterations: 269
currently lose_sum: 0.10136927664279938
time_elpased: 2.126
#iterations: 270
currently lose_sum: 0.17571644484996796
time_elpased: 2.145
#iterations: 271
currently lose_sum: 0.04017757624387741
time_elpased: 2.148
#iterations: 272
currently lose_sum: 0.09393201768398285
time_elpased: 2.129
#iterations: 273
currently lose_sum: 0.09323053807020187
time_elpased: 2.144
#iterations: 274
currently lose_sum: 0.19061756134033203
time_elpased: 2.099
#iterations: 275
currently lose_sum: 0.15687716007232666
time_elpased: 2.134
#iterations: 276
currently lose_sum: 0.10029870271682739
time_elpased: 2.244
#iterations: 277
currently lose_sum: 0.11484334617853165
time_elpased: 2.109
#iterations: 278
currently lose_sum: 0.06539376080036163
time_elpased: 2.148
#iterations: 279
currently lose_sum: 0.10594675689935684
time_elpased: 2.15
start validation test
0.722767857143
0.859799713877
0.534697508897
0.659352715304
0.723441944413
90.839
#iterations: 280
currently lose_sum: 0.0451483353972435
time_elpased: 2.216
#iterations: 281
currently lose_sum: 0.059580616652965546
time_elpased: 2.169
#iterations: 282
currently lose_sum: 0.2345290631055832
time_elpased: 2.146
#iterations: 283
currently lose_sum: 0.15734200179576874
time_elpased: 2.161
#iterations: 284
currently lose_sum: 0.15336063504219055
time_elpased: 2.169
#iterations: 285
currently lose_sum: 0.20235519111156464
time_elpased: 2.171
#iterations: 286
currently lose_sum: 0.24984483420848846
time_elpased: 2.164
#iterations: 287
currently lose_sum: 0.09549768269062042
time_elpased: 2.149
#iterations: 288
currently lose_sum: 0.20637600123882294
time_elpased: 2.142
#iterations: 289
currently lose_sum: 0.1679167002439499
time_elpased: 2.158
#iterations: 290
currently lose_sum: 0.1861695945262909
time_elpased: 2.109
#iterations: 291
currently lose_sum: 0.06291459500789642
time_elpased: 2.194
#iterations: 292
currently lose_sum: 0.21089616417884827
time_elpased: 2.113
#iterations: 293
currently lose_sum: 0.1492827832698822
time_elpased: 2.125
#iterations: 294
currently lose_sum: 0.06821282207965851
time_elpased: 2.17
#iterations: 295
currently lose_sum: 0.03219366446137428
time_elpased: 2.182
#iterations: 296
currently lose_sum: 0.3095543384552002
time_elpased: 2.182
#iterations: 297
currently lose_sum: 0.08287272602319717
time_elpased: 2.223
#iterations: 298
currently lose_sum: 0.19469133019447327
time_elpased: 2.148
#iterations: 299
currently lose_sum: 0.06468909978866577
time_elpased: 2.14
start validation test
0.725
0.864942528736
0.535587188612
0.661538461538
0.725678898966
86.668
#iterations: 300
currently lose_sum: 0.02934150956571102
time_elpased: 2.173
#iterations: 301
currently lose_sum: 0.039025355130434036
time_elpased: 2.115
#iterations: 302
currently lose_sum: 0.15008212625980377
time_elpased: 2.177
#iterations: 303
currently lose_sum: 0.06572312116622925
time_elpased: 2.185
#iterations: 304
currently lose_sum: 0.23456649482250214
time_elpased: 2.098
#iterations: 305
currently lose_sum: 0.3654636740684509
time_elpased: 2.143
#iterations: 306
currently lose_sum: 0.1798814982175827
time_elpased: 2.121
#iterations: 307
currently lose_sum: 0.12312223762273788
time_elpased: 2.169
#iterations: 308
currently lose_sum: 0.14577370882034302
time_elpased: 2.116
#iterations: 309
currently lose_sum: 0.1993158757686615
time_elpased: 2.165
#iterations: 310
currently lose_sum: 0.25268274545669556
time_elpased: 2.16
#iterations: 311
currently lose_sum: 0.23758915066719055
time_elpased: 2.151
#iterations: 312
currently lose_sum: 0.23749375343322754
time_elpased: 2.181
#iterations: 313
currently lose_sum: 0.10904376208782196
time_elpased: 2.213
#iterations: 314
currently lose_sum: 0.09709914773702621
time_elpased: 2.152
#iterations: 315
currently lose_sum: 0.07854612171649933
time_elpased: 2.174
#iterations: 316
currently lose_sum: 0.05130196735262871
time_elpased: 2.1
#iterations: 317
currently lose_sum: 0.14085060358047485
time_elpased: 2.158
#iterations: 318
currently lose_sum: 0.15240244567394257
time_elpased: 2.194
#iterations: 319
currently lose_sum: 0.02455870434641838
time_elpased: 2.192
start validation test
0.712053571429
0.873634945398
0.498220640569
0.634560906516
0.712819997704
98.131
#iterations: 320
currently lose_sum: 0.095668263733387
time_elpased: 2.155
#iterations: 321
currently lose_sum: 0.1852925717830658
time_elpased: 2.096
#iterations: 322
currently lose_sum: 0.1784629076719284
time_elpased: 2.135
#iterations: 323
currently lose_sum: 0.025313621386885643
time_elpased: 2.111
#iterations: 324
currently lose_sum: 0.14715175330638885
time_elpased: 2.164
#iterations: 325
currently lose_sum: 0.12270025908946991
time_elpased: 2.2
#iterations: 326
currently lose_sum: 0.06393523514270782
time_elpased: 2.182
#iterations: 327
currently lose_sum: 0.10310904681682587
time_elpased: 2.172
#iterations: 328
currently lose_sum: 0.12699785828590393
time_elpased: 2.166
#iterations: 329
currently lose_sum: 0.03947215527296066
time_elpased: 2.133
#iterations: 330
currently lose_sum: 0.31790322065353394
time_elpased: 2.1
#iterations: 331
currently lose_sum: 0.03908729553222656
time_elpased: 2.137
#iterations: 332
currently lose_sum: 0.10026028007268906
time_elpased: 2.113
#iterations: 333
currently lose_sum: 0.10891447961330414
time_elpased: 2.105
#iterations: 334
currently lose_sum: 0.06944946944713593
time_elpased: 2.126
#iterations: 335
currently lose_sum: 0.05188596248626709
time_elpased: 2.116
#iterations: 336
currently lose_sum: 0.1266137659549713
time_elpased: 2.164
#iterations: 337
currently lose_sum: 0.07905088365077972
time_elpased: 2.102
#iterations: 338
currently lose_sum: 0.050436150282621384
time_elpased: 2.133
#iterations: 339
currently lose_sum: 0.06877118349075317
time_elpased: 2.19
start validation test
0.704464285714
0.875
0.479537366548
0.619540229885
0.705270475389
102.600
#iterations: 340
currently lose_sum: 0.2107599973678589
time_elpased: 2.158
#iterations: 341
currently lose_sum: 0.04000479727983475
time_elpased: 2.176
#iterations: 342
currently lose_sum: 0.19729843735694885
time_elpased: 2.153
#iterations: 343
currently lose_sum: 0.061493534594774246
time_elpased: 2.188
#iterations: 344
currently lose_sum: 0.26047709584236145
time_elpased: 2.105
#iterations: 345
currently lose_sum: 0.052416276186704636
time_elpased: 2.143
#iterations: 346
currently lose_sum: 0.09155308455228806
time_elpased: 2.128
#iterations: 347
currently lose_sum: 0.07215848565101624
time_elpased: 2.125
#iterations: 348
currently lose_sum: 0.03816026449203491
time_elpased: 2.147
#iterations: 349
currently lose_sum: 0.06812231987714767
time_elpased: 2.138
#iterations: 350
currently lose_sum: 0.08700687438249588
time_elpased: 2.143
#iterations: 351
currently lose_sum: 0.23922333121299744
time_elpased: 2.169
#iterations: 352
currently lose_sum: 0.09092952311038971
time_elpased: 2.153
#iterations: 353
currently lose_sum: 0.31612664461135864
time_elpased: 2.123
#iterations: 354
currently lose_sum: 0.09852497279644012
time_elpased: 2.178
#iterations: 355
currently lose_sum: 0.22523212432861328
time_elpased: 2.149
#iterations: 356
currently lose_sum: 0.16217926144599915
time_elpased: 2.141
#iterations: 357
currently lose_sum: 0.06048760563135147
time_elpased: 2.191
#iterations: 358
currently lose_sum: 0.09364493191242218
time_elpased: 2.184
#iterations: 359
currently lose_sum: 0.10471495240926743
time_elpased: 2.143
start validation test
0.699553571429
0.873963515755
0.468861209964
0.610306890562
0.700380425771
110.678
#iterations: 360
currently lose_sum: 0.06336989998817444
time_elpased: 2.163
#iterations: 361
currently lose_sum: 0.16909706592559814
time_elpased: 2.152
#iterations: 362
currently lose_sum: 0.2788139879703522
time_elpased: 2.19
#iterations: 363
currently lose_sum: 0.05396329611539841
time_elpased: 2.199
#iterations: 364
currently lose_sum: 0.05471270531415939
time_elpased: 2.151
#iterations: 365
currently lose_sum: 0.1437186300754547
time_elpased: 2.122
#iterations: 366
currently lose_sum: 0.15688775479793549
time_elpased: 2.13
#iterations: 367
currently lose_sum: 0.11676351726055145
time_elpased: 2.111
#iterations: 368
currently lose_sum: 0.151921808719635
time_elpased: 2.157
#iterations: 369
currently lose_sum: 0.11368823051452637
time_elpased: 2.194
#iterations: 370
currently lose_sum: 0.11224843561649323
time_elpased: 2.096
#iterations: 371
currently lose_sum: 0.12908723950386047
time_elpased: 2.147
#iterations: 372
currently lose_sum: 0.08978225290775299
time_elpased: 2.174
#iterations: 373
currently lose_sum: 0.05747190862894058
time_elpased: 2.158
#iterations: 374
currently lose_sum: 0.04826068878173828
time_elpased: 2.156
#iterations: 375
currently lose_sum: 0.09222927689552307
time_elpased: 2.195
#iterations: 376
currently lose_sum: 0.19801875948905945
time_elpased: 2.112
#iterations: 377
currently lose_sum: 0.03541421890258789
time_elpased: 2.162
#iterations: 378
currently lose_sum: 0.12327013909816742
time_elpased: 2.159
#iterations: 379
currently lose_sum: 0.06221843883395195
time_elpased: 2.139
start validation test
0.700446428571
0.874380165289
0.470640569395
0.611914401388
0.701270105486
107.327
#iterations: 380
currently lose_sum: 0.19410821795463562
time_elpased: 2.14
#iterations: 381
currently lose_sum: 0.022931311279535294
time_elpased: 2.114
#iterations: 382
currently lose_sum: 0.038541875779628754
time_elpased: 2.12
#iterations: 383
currently lose_sum: 0.0436692014336586
time_elpased: 2.175
#iterations: 384
currently lose_sum: 0.1308172345161438
time_elpased: 2.168
#iterations: 385
currently lose_sum: 0.06320393830537796
time_elpased: 2.16
#iterations: 386
currently lose_sum: 0.03496861830353737
time_elpased: 2.151
#iterations: 387
currently lose_sum: 0.07092030346393585
time_elpased: 2.154
#iterations: 388
currently lose_sum: 0.057450342923402786
time_elpased: 2.131
#iterations: 389
currently lose_sum: 0.09708113223314285
time_elpased: 2.157
#iterations: 390
currently lose_sum: 0.1374512016773224
time_elpased: 2.159
#iterations: 391
currently lose_sum: 0.10883595794439316
time_elpased: 2.17
#iterations: 392
currently lose_sum: 0.09244747459888458
time_elpased: 2.135
#iterations: 393
currently lose_sum: 0.15250249207019806
time_elpased: 2.121
#iterations: 394
currently lose_sum: 0.10572223365306854
time_elpased: 2.206
#iterations: 395
currently lose_sum: 0.07921531051397324
time_elpased: 2.16
#iterations: 396
currently lose_sum: 0.018705684691667557
time_elpased: 2.124
#iterations: 397
currently lose_sum: 0.23923075199127197
time_elpased: 2.149
#iterations: 398
currently lose_sum: 0.06121952459216118
time_elpased: 2.166
#iterations: 399
currently lose_sum: 0.035894040018320084
time_elpased: 2.192
start validation test
0.697767857143
0.882051282051
0.459074733096
0.603861907548
0.698623388053
111.960
#iterations: 400
currently lose_sum: 0.045351821929216385
time_elpased: 2.149
#iterations: 401
currently lose_sum: 0.07906138896942139
time_elpased: 2.16
#iterations: 402
currently lose_sum: 0.17418137192726135
time_elpased: 2.168
#iterations: 403
currently lose_sum: 0.24907700717449188
time_elpased: 2.223
#iterations: 404
currently lose_sum: 0.029121002182364464
time_elpased: 2.173
#iterations: 405
currently lose_sum: 0.13318653404712677
time_elpased: 2.149
#iterations: 406
currently lose_sum: 0.07530059665441513
time_elpased: 2.197
#iterations: 407
currently lose_sum: 0.04786481335759163
time_elpased: 2.169
#iterations: 408
currently lose_sum: 0.09273134917020798
time_elpased: 2.171
#iterations: 409
currently lose_sum: 0.09659937024116516
time_elpased: 2.142
#iterations: 410
currently lose_sum: 0.1015004888176918
time_elpased: 2.142
#iterations: 411
currently lose_sum: 0.06218183785676956
time_elpased: 2.191
#iterations: 412
currently lose_sum: 0.12643904983997345
time_elpased: 2.159
#iterations: 413
currently lose_sum: 0.18353049457073212
time_elpased: 2.142
#iterations: 414
currently lose_sum: 0.14499427378177643
time_elpased: 2.189
#iterations: 415
currently lose_sum: 0.103459432721138
time_elpased: 2.148
#iterations: 416
currently lose_sum: 0.015149397775530815
time_elpased: 2.182
#iterations: 417
currently lose_sum: 0.02982594631612301
time_elpased: 2.097
#iterations: 418
currently lose_sum: 0.05657275766134262
time_elpased: 2.15
#iterations: 419
currently lose_sum: 0.01988605037331581
time_elpased: 2.165
start validation test
0.695089285714
0.879518072289
0.45462633452
0.599413489736
0.695951160091
112.930
#iterations: 420
currently lose_sum: 0.022830571979284286
time_elpased: 2.114
#iterations: 421
currently lose_sum: 0.07991871982812881
time_elpased: 2.145
#iterations: 422
currently lose_sum: 0.05806732177734375
time_elpased: 2.107
#iterations: 423
currently lose_sum: 0.015118901617825031
time_elpased: 2.128
#iterations: 424
currently lose_sum: 0.0927078053355217
time_elpased: 2.134
#iterations: 425
currently lose_sum: 0.17424237728118896
time_elpased: 2.113
#iterations: 426
currently lose_sum: 0.14976279437541962
time_elpased: 2.175
#iterations: 427
currently lose_sum: 0.03347514569759369
time_elpased: 2.151
#iterations: 428
currently lose_sum: 0.13331595063209534
time_elpased: 2.153
#iterations: 429
currently lose_sum: 0.021343961358070374
time_elpased: 2.163
#iterations: 430
currently lose_sum: 0.03764946386218071
time_elpased: 2.132
#iterations: 431
currently lose_sum: 0.02821320854127407
time_elpased: 2.181
#iterations: 432
currently lose_sum: 0.07434245198965073
time_elpased: 2.174
#iterations: 433
currently lose_sum: 0.09079091995954514
time_elpased: 2.158
#iterations: 434
currently lose_sum: 0.028904080390930176
time_elpased: 2.171
#iterations: 435
currently lose_sum: 0.07212571799755096
time_elpased: 2.105
#iterations: 436
currently lose_sum: 0.0955779105424881
time_elpased: 2.134
#iterations: 437
currently lose_sum: 0.030683523043990135
time_elpased: 2.149
#iterations: 438
currently lose_sum: 0.13811162114143372
time_elpased: 2.195
#iterations: 439
currently lose_sum: 0.047865770757198334
time_elpased: 2.155
start validation test
0.688839285714
0.890310786106
0.433274021352
0.582884500299
0.689755290246
120.534
#iterations: 440
currently lose_sum: 0.01669459603726864
time_elpased: 2.138
#iterations: 441
currently lose_sum: 0.20212411880493164
time_elpased: 2.128
#iterations: 442
currently lose_sum: 0.14985765516757965
time_elpased: 2.114
#iterations: 443
currently lose_sum: 0.17141637206077576
time_elpased: 2.204
#iterations: 444
currently lose_sum: 0.12060916423797607
time_elpased: 2.157
#iterations: 445
currently lose_sum: 0.4071524143218994
time_elpased: 2.133
#iterations: 446
currently lose_sum: 0.03116375207901001
time_elpased: 2.173
#iterations: 447
currently lose_sum: 0.021708127111196518
time_elpased: 2.17
#iterations: 448
currently lose_sum: 0.06132650375366211
time_elpased: 2.119
#iterations: 449
currently lose_sum: 0.2592240571975708
time_elpased: 2.09
#iterations: 450
currently lose_sum: 0.1479063183069229
time_elpased: 2.203
#iterations: 451
currently lose_sum: 0.08275524526834488
time_elpased: 2.11
#iterations: 452
currently lose_sum: 0.15885773301124573
time_elpased: 2.187
#iterations: 453
currently lose_sum: 0.08802368491888046
time_elpased: 2.097
#iterations: 454
currently lose_sum: 0.12969441711902618
time_elpased: 2.158
#iterations: 455
currently lose_sum: 0.11550243943929672
time_elpased: 2.169
#iterations: 456
currently lose_sum: 0.09172896295785904
time_elpased: 2.168
#iterations: 457
currently lose_sum: 0.11170996725559235
time_elpased: 2.131
#iterations: 458
currently lose_sum: 0.12253578007221222
time_elpased: 2.137
#iterations: 459
currently lose_sum: 0.10253486782312393
time_elpased: 2.18
start validation test
0.685267857143
0.882998171846
0.429715302491
0.578096947935
0.68618381612
123.955
#iterations: 460
currently lose_sum: 0.0845748633146286
time_elpased: 2.125
#iterations: 461
currently lose_sum: 0.007998364977538586
time_elpased: 2.133
#iterations: 462
currently lose_sum: 0.02342628873884678
time_elpased: 2.178
#iterations: 463
currently lose_sum: 0.23402003943920135
time_elpased: 2.155
#iterations: 464
currently lose_sum: 0.22817666828632355
time_elpased: 2.11
#iterations: 465
currently lose_sum: 0.07397177815437317
time_elpased: 2.177
#iterations: 466
currently lose_sum: 0.03519204631447792
time_elpased: 2.123
#iterations: 467
currently lose_sum: 0.019086351618170738
time_elpased: 2.139
#iterations: 468
currently lose_sum: 0.04872739315032959
time_elpased: 2.175
#iterations: 469
currently lose_sum: 0.13550612330436707
time_elpased: 2.142
#iterations: 470
currently lose_sum: 0.08034086227416992
time_elpased: 2.228
#iterations: 471
currently lose_sum: 0.03076540306210518
time_elpased: 2.148
#iterations: 472
currently lose_sum: 0.02640712261199951
time_elpased: 2.125
#iterations: 473
currently lose_sum: 0.11283638328313828
time_elpased: 2.172
#iterations: 474
currently lose_sum: 0.05502714961767197
time_elpased: 2.129
#iterations: 475
currently lose_sum: 0.061439551413059235
time_elpased: 2.172
#iterations: 476
currently lose_sum: 0.12304172664880753
time_elpased: 2.134
#iterations: 477
currently lose_sum: 0.10890603065490723
time_elpased: 2.078
#iterations: 478
currently lose_sum: 0.11019711196422577
time_elpased: 2.127
#iterations: 479
currently lose_sum: 0.09794507920742035
time_elpased: 2.118
start validation test
0.6875
0.878571428571
0.437722419929
0.58432304038
0.688395260144
124.710
#iterations: 480
currently lose_sum: 0.04646531492471695
time_elpased: 2.166
#iterations: 481
currently lose_sum: 0.06473620235919952
time_elpased: 2.2
#iterations: 482
currently lose_sum: 0.03490882366895676
time_elpased: 2.163
#iterations: 483
currently lose_sum: 0.037275005131959915
time_elpased: 2.167
#iterations: 484
currently lose_sum: 0.036729682236909866
time_elpased: 2.19
#iterations: 485
currently lose_sum: 0.14076438546180725
time_elpased: 2.177
#iterations: 486
currently lose_sum: 0.016542602330446243
time_elpased: 2.163
#iterations: 487
currently lose_sum: 0.050415776669979095
time_elpased: 2.118
#iterations: 488
currently lose_sum: 0.16852238774299622
time_elpased: 2.169
#iterations: 489
currently lose_sum: 0.03522777557373047
time_elpased: 2.21
#iterations: 490
currently lose_sum: 0.03306833654642105
time_elpased: 2.138
#iterations: 491
currently lose_sum: 0.029315179213881493
time_elpased: 2.144
#iterations: 492
currently lose_sum: 0.06703882664442062
time_elpased: 2.181
#iterations: 493
currently lose_sum: 0.03060978651046753
time_elpased: 2.122
#iterations: 494
currently lose_sum: 0.20540985465049744
time_elpased: 2.168
#iterations: 495
currently lose_sum: 0.044187434017658234
time_elpased: 2.154
#iterations: 496
currently lose_sum: 0.05785822868347168
time_elpased: 2.127
#iterations: 497
currently lose_sum: 0.16544628143310547
time_elpased: 2.159
#iterations: 498
currently lose_sum: 0.08020435273647308
time_elpased: 2.093
#iterations: 499
currently lose_sum: 0.07824143767356873
time_elpased: 2.161
start validation test
0.689285714286
0.88768115942
0.435943060498
0.584725536993
0.690193752471
125.871
#iterations: 500
currently lose_sum: 0.1951606571674347
time_elpased: 2.143
#iterations: 501
currently lose_sum: 0.047039132565259933
time_elpased: 2.141
#iterations: 502
currently lose_sum: 0.03351479023694992
time_elpased: 2.119
#iterations: 503
currently lose_sum: 0.059555720537900925
time_elpased: 2.154
#iterations: 504
currently lose_sum: 0.05402437597513199
time_elpased: 2.171
#iterations: 505
currently lose_sum: 0.09966553747653961
time_elpased: 2.191
#iterations: 506
currently lose_sum: 0.07743261754512787
time_elpased: 2.133
#iterations: 507
currently lose_sum: 0.05875823646783829
time_elpased: 2.149
#iterations: 508
currently lose_sum: 0.03384978324174881
time_elpased: 2.112
#iterations: 509
currently lose_sum: 0.04338587075471878
time_elpased: 2.164
#iterations: 510
currently lose_sum: 0.22105400264263153
time_elpased: 2.117
#iterations: 511
currently lose_sum: 0.2064560353755951
time_elpased: 2.188
#iterations: 512
currently lose_sum: 0.13444408774375916
time_elpased: 2.15
#iterations: 513
currently lose_sum: 0.01330670528113842
time_elpased: 2.18
#iterations: 514
currently lose_sum: 0.03430326655507088
time_elpased: 2.164
#iterations: 515
currently lose_sum: 0.15776978433132172
time_elpased: 2.164
#iterations: 516
currently lose_sum: 0.0408400297164917
time_elpased: 2.162
#iterations: 517
currently lose_sum: 0.11299590766429901
time_elpased: 2.125
#iterations: 518
currently lose_sum: 0.03453271836042404
time_elpased: 2.183
#iterations: 519
currently lose_sum: 0.023623382672667503
time_elpased: 2.129
start validation test
0.678125
0.897435897436
0.404804270463
0.557939914163
0.679104644192
136.605
#iterations: 520
currently lose_sum: 0.0755961537361145
time_elpased: 2.16
#iterations: 521
currently lose_sum: 0.10625114291906357
time_elpased: 2.179
#iterations: 522
currently lose_sum: 0.0308513380587101
time_elpased: 2.127
#iterations: 523
currently lose_sum: 0.07664114981889725
time_elpased: 2.188
#iterations: 524
currently lose_sum: 0.11544577777385712
time_elpased: 2.191
#iterations: 525
currently lose_sum: 0.02504701539874077
time_elpased: 2.173
#iterations: 526
currently lose_sum: 0.022038012742996216
time_elpased: 2.191
#iterations: 527
currently lose_sum: 0.09961187094449997
time_elpased: 2.137
#iterations: 528
currently lose_sum: 0.04130975529551506
time_elpased: 2.126
#iterations: 529
currently lose_sum: 0.03190740942955017
time_elpased: 2.141
#iterations: 530
currently lose_sum: 0.07229210436344147
time_elpased: 2.167
#iterations: 531
currently lose_sum: 0.0942486822605133
time_elpased: 2.173
#iterations: 532
currently lose_sum: 0.018324945122003555
time_elpased: 2.183
#iterations: 533
currently lose_sum: 0.024574778974056244
time_elpased: 2.165
#iterations: 534
currently lose_sum: 0.1621554046869278
time_elpased: 2.138
#iterations: 535
currently lose_sum: 0.0220135897397995
time_elpased: 2.139
#iterations: 536
currently lose_sum: 0.0216413252055645
time_elpased: 2.137
#iterations: 537
currently lose_sum: 0.01920713298022747
time_elpased: 2.176
#iterations: 538
currently lose_sum: 0.18098576366901398
time_elpased: 2.151
#iterations: 539
currently lose_sum: 0.032913923263549805
time_elpased: 2.191
start validation test
0.683035714286
0.889097744361
0.420818505338
0.571256038647
0.683975560913
130.059
#iterations: 540
currently lose_sum: 0.14099371433258057
time_elpased: 2.178
#iterations: 541
currently lose_sum: 0.08221925795078278
time_elpased: 2.133
#iterations: 542
currently lose_sum: 0.05902457237243652
time_elpased: 2.167
#iterations: 543
currently lose_sum: 0.02306659147143364
time_elpased: 2.136
#iterations: 544
currently lose_sum: 0.04017576947808266
time_elpased: 2.136
#iterations: 545
currently lose_sum: 0.012798341922461987
time_elpased: 2.165
#iterations: 546
currently lose_sum: 0.04138471931219101
time_elpased: 2.149
#iterations: 547
currently lose_sum: 0.03063935600221157
time_elpased: 2.136
#iterations: 548
currently lose_sum: 0.1394267976284027
time_elpased: 2.106
#iterations: 549
currently lose_sum: 0.09207244962453842
time_elpased: 2.147
#iterations: 550
currently lose_sum: 0.06332020461559296
time_elpased: 2.188
#iterations: 551
currently lose_sum: 0.056949399411678314
time_elpased: 2.188
#iterations: 552
currently lose_sum: 0.06407161056995392
time_elpased: 2.181
#iterations: 553
currently lose_sum: 0.2243732213973999
time_elpased: 2.109
#iterations: 554
currently lose_sum: 0.0289471298456192
time_elpased: 2.189
#iterations: 555
currently lose_sum: 0.029467111453413963
time_elpased: 2.145
#iterations: 556
currently lose_sum: 0.12359194457530975
time_elpased: 2.14
#iterations: 557
currently lose_sum: 0.17874398827552795
time_elpased: 2.204
#iterations: 558
currently lose_sum: 0.09808948636054993
time_elpased: 2.17
#iterations: 559
currently lose_sum: 0.054396938532590866
time_elpased: 2.232
start validation test
0.674553571429
0.892644135189
0.399466192171
0.551936078672
0.675539547698
138.391
#iterations: 560
currently lose_sum: 0.07532098889350891
time_elpased: 2.125
#iterations: 561
currently lose_sum: 0.007783375680446625
time_elpased: 2.147
#iterations: 562
currently lose_sum: 0.051793456077575684
time_elpased: 2.187
#iterations: 563
currently lose_sum: 0.10116275399923325
time_elpased: 2.187
#iterations: 564
currently lose_sum: 0.19858522713184357
time_elpased: 2.165
#iterations: 565
currently lose_sum: 0.059141796082258224
time_elpased: 2.142
#iterations: 566
currently lose_sum: 0.034665316343307495
time_elpased: 2.118
#iterations: 567
currently lose_sum: 0.07553443312644958
time_elpased: 2.15
#iterations: 568
currently lose_sum: 0.05375248193740845
time_elpased: 2.121
#iterations: 569
currently lose_sum: 0.10976996272802353
time_elpased: 2.184
#iterations: 570
currently lose_sum: 0.04151984304189682
time_elpased: 2.157
#iterations: 571
currently lose_sum: 0.0823565348982811
time_elpased: 2.122
#iterations: 572
currently lose_sum: 0.13224908709526062
time_elpased: 2.116
#iterations: 573
currently lose_sum: 0.04915187135338783
time_elpased: 2.167
#iterations: 574
currently lose_sum: 0.10951574146747589
time_elpased: 2.12
#iterations: 575
currently lose_sum: 0.18467268347740173
time_elpased: 2.173
#iterations: 576
currently lose_sum: 0.13014258444309235
time_elpased: 2.131
#iterations: 577
currently lose_sum: 0.015313073992729187
time_elpased: 2.141
#iterations: 578
currently lose_sum: 0.03832044079899788
time_elpased: 2.174
#iterations: 579
currently lose_sum: 0.07565610855817795
time_elpased: 2.147
start validation test
0.675892857143
0.894841269841
0.401245551601
0.554054054054
0.676877256087
135.222
#iterations: 580
currently lose_sum: 0.03673631325364113
time_elpased: 2.175
#iterations: 581
currently lose_sum: 0.3041737973690033
time_elpased: 2.1
#iterations: 582
currently lose_sum: 0.08448491990566254
time_elpased: 2.162
#iterations: 583
currently lose_sum: 0.06862951815128326
time_elpased: 2.164
#iterations: 584
currently lose_sum: 0.03697805479168892
time_elpased: 2.177
#iterations: 585
currently lose_sum: 0.11708216369152069
time_elpased: 2.133
#iterations: 586
currently lose_sum: 0.05144298076629639
time_elpased: 2.15
#iterations: 587
currently lose_sum: 0.06330224871635437
time_elpased: 2.104
#iterations: 588
currently lose_sum: 0.07377316057682037
time_elpased: 2.165
#iterations: 589
currently lose_sum: 0.13937333226203918
time_elpased: 2.116
#iterations: 590
currently lose_sum: 0.033217139542102814
time_elpased: 2.164
#iterations: 591
currently lose_sum: 0.13947948813438416
time_elpased: 2.181
#iterations: 592
currently lose_sum: 0.018155086785554886
time_elpased: 2.168
#iterations: 593
currently lose_sum: 0.022958088666200638
time_elpased: 2.129
#iterations: 594
currently lose_sum: 0.04583749547600746
time_elpased: 2.12
#iterations: 595
currently lose_sum: 0.009591047652065754
time_elpased: 2.145
#iterations: 596
currently lose_sum: 0.07412658631801605
time_elpased: 2.161
#iterations: 597
currently lose_sum: 0.08763159811496735
time_elpased: 2.174
#iterations: 598
currently lose_sum: 0.13288861513137817
time_elpased: 2.12
#iterations: 599
currently lose_sum: 0.13730303943157196
time_elpased: 2.142
start validation test
0.678125
0.902195608782
0.402135231317
0.556307692308
0.67911421064
141.892
acc: 0.752
pre: 0.822
rec: 0.647
F1: 0.724
auc: 0.753
