start to construct computing graph
graph construct over
3373
epochs start
#iterations: 0
currently lose_sum: 0.5600980520248413
time_elpased: 5.534
#iterations: 1
currently lose_sum: 0.5525664687156677
time_elpased: 5.543
#iterations: 2
currently lose_sum: 0.5396965742111206
time_elpased: 5.504
#iterations: 3
currently lose_sum: 0.4732429087162018
time_elpased: 5.562
#iterations: 4
currently lose_sum: 0.5841333866119385
time_elpased: 5.651
#iterations: 5
currently lose_sum: 0.426220566034317
time_elpased: 5.522
#iterations: 6
currently lose_sum: 0.3735349178314209
time_elpased: 5.547
#iterations: 7
currently lose_sum: 0.3425010144710541
time_elpased: 5.471
#iterations: 8
currently lose_sum: 0.5247575640678406
time_elpased: 5.551
#iterations: 9
currently lose_sum: 0.3365258276462555
time_elpased: 5.493
#iterations: 10
currently lose_sum: 0.6285556554794312
time_elpased: 5.508
#iterations: 11
currently lose_sum: 0.4743598997592926
time_elpased: 5.514
#iterations: 12
currently lose_sum: 0.34964126348495483
time_elpased: 5.52
#iterations: 13
currently lose_sum: 0.48318618535995483
time_elpased: 5.532
#iterations: 14
currently lose_sum: 0.34252500534057617
time_elpased: 5.548
#iterations: 15
currently lose_sum: 0.2654927372932434
time_elpased: 5.532
#iterations: 16
currently lose_sum: 0.32697269320487976
time_elpased: 5.518
#iterations: 17
currently lose_sum: 0.3136183023452759
time_elpased: 5.542
#iterations: 18
currently lose_sum: 0.2678532004356384
time_elpased: 5.518
#iterations: 19
currently lose_sum: 0.2977782189846039
time_elpased: 5.484
start validation test
0.759821428571
0.7833655706
0.720640569395
0.750695088044
0.759961861758
30.275
#iterations: 20
currently lose_sum: 0.3781242072582245
time_elpased: 5.06
#iterations: 21
currently lose_sum: 0.3253679871559143
time_elpased: 4.949
#iterations: 22
currently lose_sum: 0.29003721475601196
time_elpased: 4.923
#iterations: 23
currently lose_sum: 0.35519522428512573
time_elpased: 4.996
#iterations: 24
currently lose_sum: 0.21199187636375427
time_elpased: 4.951
#iterations: 25
currently lose_sum: 0.5316541194915771
time_elpased: 4.939
#iterations: 26
currently lose_sum: 0.26886415481567383
time_elpased: 5.02
#iterations: 27
currently lose_sum: 0.2807617783546448
time_elpased: 4.952
#iterations: 28
currently lose_sum: 0.24270591139793396
time_elpased: 4.92
#iterations: 29
currently lose_sum: 0.22361883521080017
time_elpased: 4.949
#iterations: 30
currently lose_sum: 0.38533517718315125
time_elpased: 4.923
#iterations: 31
currently lose_sum: 0.3280712962150574
time_elpased: 5.036
#iterations: 32
currently lose_sum: 0.25413164496421814
time_elpased: 4.917
#iterations: 33
currently lose_sum: 0.15494975447654724
time_elpased: 5.309
#iterations: 34
currently lose_sum: 0.24724921584129333
time_elpased: 4.874
#iterations: 35
currently lose_sum: 0.407444566488266
time_elpased: 5.03
#iterations: 36
currently lose_sum: 0.22891488671302795
time_elpased: 5.014
#iterations: 37
currently lose_sum: 0.25858649611473083
time_elpased: 5.047
#iterations: 38
currently lose_sum: 0.21511173248291016
time_elpased: 5.041
#iterations: 39
currently lose_sum: 0.22100511193275452
time_elpased: 4.941
start validation test
0.775
0.842163355408
0.678825622776
0.751724137931
0.775344711029
35.822
#iterations: 40
currently lose_sum: 0.306865930557251
time_elpased: 4.896
#iterations: 41
currently lose_sum: 0.2377602607011795
time_elpased: 4.991
#iterations: 42
currently lose_sum: 0.5966561436653137
time_elpased: 5.031
#iterations: 43
currently lose_sum: 0.24150225520133972
time_elpased: 5.004
#iterations: 44
currently lose_sum: 0.34949612617492676
time_elpased: 5.006
#iterations: 45
currently lose_sum: 0.3393171727657318
time_elpased: 5.017
#iterations: 46
currently lose_sum: 0.24360144138336182
time_elpased: 5.003
#iterations: 47
currently lose_sum: 0.20522436499595642
time_elpased: 4.928
#iterations: 48
currently lose_sum: 0.19897213578224182
time_elpased: 4.936
#iterations: 49
currently lose_sum: 0.3989182412624359
time_elpased: 4.965
#iterations: 50
currently lose_sum: 0.33661311864852905
time_elpased: 4.962
#iterations: 51
currently lose_sum: 0.30359187722206116
time_elpased: 4.972
#iterations: 52
currently lose_sum: 0.1719159334897995
time_elpased: 5.017
#iterations: 53
currently lose_sum: 0.2917522192001343
time_elpased: 5.116
#iterations: 54
currently lose_sum: 0.21975688636302948
time_elpased: 4.972
#iterations: 55
currently lose_sum: 0.2510600686073303
time_elpased: 5.034
#iterations: 56
currently lose_sum: 0.36168232560157776
time_elpased: 5.107
#iterations: 57
currently lose_sum: 0.20243647694587708
time_elpased: 4.954
#iterations: 58
currently lose_sum: 0.22814345359802246
time_elpased: 5.036
#iterations: 59
currently lose_sum: 0.06843934208154678
time_elpased: 4.944
start validation test
0.779910714286
0.847850055127
0.684163701068
0.757262432299
0.780253893545
42.200
#iterations: 60
currently lose_sum: 0.20965322852134705
time_elpased: 5.08
#iterations: 61
currently lose_sum: 0.16706597805023193
time_elpased: 4.992
#iterations: 62
currently lose_sum: 0.17843183875083923
time_elpased: 4.981
#iterations: 63
currently lose_sum: 0.16117970645427704
time_elpased: 4.963
#iterations: 64
currently lose_sum: 0.1929636299610138
time_elpased: 5.029
#iterations: 65
currently lose_sum: 0.23416972160339355
time_elpased: 4.922
#iterations: 66
currently lose_sum: 0.17285874485969543
time_elpased: 4.984
#iterations: 67
currently lose_sum: 0.28191569447517395
time_elpased: 4.959
#iterations: 68
currently lose_sum: 0.2853757441043854
time_elpased: 5.053
#iterations: 69
currently lose_sum: 0.23832111060619354
time_elpased: 4.868
#iterations: 70
currently lose_sum: 0.1657116860151291
time_elpased: 4.992
#iterations: 71
currently lose_sum: 0.37968674302101135
time_elpased: 4.969
#iterations: 72
currently lose_sum: 0.33677056431770325
time_elpased: 5.097
#iterations: 73
currently lose_sum: 0.18625076115131378
time_elpased: 4.944
#iterations: 74
currently lose_sum: 0.20677423477172852
time_elpased: 5.091
#iterations: 75
currently lose_sum: 0.13452652096748352
time_elpased: 5.016
#iterations: 76
currently lose_sum: 0.29605069756507874
time_elpased: 5.092
#iterations: 77
currently lose_sum: 0.1490582823753357
time_elpased: 4.919
#iterations: 78
currently lose_sum: 0.2628382742404938
time_elpased: 4.971
#iterations: 79
currently lose_sum: 0.19991180300712585
time_elpased: 5.051
start validation test
0.758928571429
0.89566395664
0.588078291815
0.709989258861
0.759540938022
50.427
#iterations: 80
currently lose_sum: 0.21026888489723206
time_elpased: 4.985
#iterations: 81
currently lose_sum: 0.21225294470787048
time_elpased: 4.972
#iterations: 82
currently lose_sum: 0.2519020140171051
time_elpased: 4.921
#iterations: 83
currently lose_sum: 0.15584078431129456
time_elpased: 5.207
#iterations: 84
currently lose_sum: 0.19051799178123474
time_elpased: 4.99
#iterations: 85
currently lose_sum: 0.283852756023407
time_elpased: 4.972
#iterations: 86
currently lose_sum: 0.17606370151042938
time_elpased: 4.984
#iterations: 87
currently lose_sum: 0.11053188145160675
time_elpased: 4.897
#iterations: 88
currently lose_sum: 0.2783508598804474
time_elpased: 4.935
#iterations: 89
currently lose_sum: 0.3405413031578064
time_elpased: 4.917
#iterations: 90
currently lose_sum: 0.14719155430793762
time_elpased: 5.064
#iterations: 91
currently lose_sum: 0.19961537420749664
time_elpased: 5.245
#iterations: 92
currently lose_sum: 0.10525877773761749
time_elpased: 5.165
#iterations: 93
currently lose_sum: 0.1944543421268463
time_elpased: 5.109
#iterations: 94
currently lose_sum: 0.09991645812988281
time_elpased: 5.053
#iterations: 95
currently lose_sum: 0.09463664144277573
time_elpased: 4.969
#iterations: 96
currently lose_sum: 0.33487868309020996
time_elpased: 4.955
#iterations: 97
currently lose_sum: 0.17818498611450195
time_elpased: 4.942
#iterations: 98
currently lose_sum: 0.14174364507198334
time_elpased: 4.933
#iterations: 99
currently lose_sum: 0.066984161734581
time_elpased: 4.95
start validation test
0.754910714286
0.882822902796
0.589857651246
0.7072
0.755502302325
58.228
#iterations: 100
currently lose_sum: 0.06012860685586929
time_elpased: 4.968
#iterations: 101
currently lose_sum: 0.05973650887608528
time_elpased: 4.985
#iterations: 102
currently lose_sum: 0.20576567947864532
time_elpased: 5.006
#iterations: 103
currently lose_sum: 0.1716589480638504
time_elpased: 4.982
#iterations: 104
currently lose_sum: 0.14294882118701935
time_elpased: 5.004
#iterations: 105
currently lose_sum: 0.11535432189702988
time_elpased: 4.922
#iterations: 106
currently lose_sum: 0.23913395404815674
time_elpased: 5.036
#iterations: 107
currently lose_sum: 0.16726532578468323
time_elpased: 4.966
#iterations: 108
currently lose_sum: 0.2386837899684906
time_elpased: 4.974
#iterations: 109
currently lose_sum: 0.23858055472373962
time_elpased: 4.938
#iterations: 110
currently lose_sum: 0.13890573382377625
time_elpased: 4.992
#iterations: 111
currently lose_sum: 0.10328839719295502
time_elpased: 5.045
#iterations: 112
currently lose_sum: 0.2117290496826172
time_elpased: 4.966
#iterations: 113
currently lose_sum: 0.14554259181022644
time_elpased: 4.937
#iterations: 114
currently lose_sum: 0.23537802696228027
time_elpased: 5.202
#iterations: 115
currently lose_sum: 0.27030664682388306
time_elpased: 5.012
#iterations: 116
currently lose_sum: 0.17511309683322906
time_elpased: 4.95
#iterations: 117
currently lose_sum: 0.22104039788246155
time_elpased: 4.984
#iterations: 118
currently lose_sum: 0.2797216773033142
time_elpased: 5.089
#iterations: 119
currently lose_sum: 0.1010366827249527
time_elpased: 5.012
start validation test
0.757142857143
0.882585751979
0.595195729537
0.710945802338
0.757723312797
62.860
#iterations: 120
currently lose_sum: 0.19123563170433044
time_elpased: 4.98
#iterations: 121
currently lose_sum: 0.14004090428352356
time_elpased: 5.062
#iterations: 122
currently lose_sum: 0.15826070308685303
time_elpased: 5.045
#iterations: 123
currently lose_sum: 0.14138396084308624
time_elpased: 4.993
#iterations: 124
currently lose_sum: 0.11188845336437225
time_elpased: 5.082
#iterations: 125
currently lose_sum: 0.1513463705778122
time_elpased: 4.967
#iterations: 126
currently lose_sum: 0.06887242943048477
time_elpased: 4.957
#iterations: 127
currently lose_sum: 0.3786720335483551
time_elpased: 4.907
#iterations: 128
currently lose_sum: 0.19533348083496094
time_elpased: 4.953
#iterations: 129
currently lose_sum: 0.13715463876724243
time_elpased: 5.178
#iterations: 130
currently lose_sum: 0.07002881914377213
time_elpased: 4.98
#iterations: 131
currently lose_sum: 0.156134232878685
time_elpased: 4.994
#iterations: 132
currently lose_sum: 0.1384693831205368
time_elpased: 4.986
#iterations: 133
currently lose_sum: 0.15429849922657013
time_elpased: 4.958
#iterations: 134
currently lose_sum: 0.2016209363937378
time_elpased: 5.013
#iterations: 135
currently lose_sum: 0.07059229910373688
time_elpased: 4.912
#iterations: 136
currently lose_sum: 0.18841280043125153
time_elpased: 4.967
#iterations: 137
currently lose_sum: 0.10784640163183212
time_elpased: 5.083
#iterations: 138
currently lose_sum: 0.19030216336250305
time_elpased: 4.982
#iterations: 139
currently lose_sum: 0.2124853879213333
time_elpased: 4.922
start validation test
0.763392857143
0.889763779528
0.603202846975
0.718981972428
0.763967014885
58.965
#iterations: 140
currently lose_sum: 0.2447487860918045
time_elpased: 4.942
#iterations: 141
currently lose_sum: 0.04836953803896904
time_elpased: 4.999
#iterations: 142
currently lose_sum: 0.11340222507715225
time_elpased: 4.949
#iterations: 143
currently lose_sum: 0.053951799869537354
time_elpased: 5.065
#iterations: 144
currently lose_sum: 0.15298573672771454
time_elpased: 4.99
#iterations: 145
currently lose_sum: 0.13571995496749878
time_elpased: 4.949
#iterations: 146
currently lose_sum: 0.08583350479602814
time_elpased: 4.979
#iterations: 147
currently lose_sum: 0.09271413087844849
time_elpased: 5.066
#iterations: 148
currently lose_sum: 0.1099805235862732
time_elpased: 4.94
#iterations: 149
currently lose_sum: 0.22677326202392578
time_elpased: 4.957
#iterations: 150
currently lose_sum: 0.15591053664684296
time_elpased: 5.004
#iterations: 151
currently lose_sum: 0.1744612604379654
time_elpased: 4.996
#iterations: 152
currently lose_sum: 0.1178458109498024
time_elpased: 5.054
#iterations: 153
currently lose_sum: 0.09243433177471161
time_elpased: 4.982
#iterations: 154
currently lose_sum: 0.07661432772874832
time_elpased: 4.952
#iterations: 155
currently lose_sum: 0.04822983220219612
time_elpased: 4.89
#iterations: 156
currently lose_sum: 0.24514958262443542
time_elpased: 5.017
#iterations: 157
currently lose_sum: 0.09841105341911316
time_elpased: 5.025
#iterations: 158
currently lose_sum: 0.16113455593585968
time_elpased: 5.23
#iterations: 159
currently lose_sum: 0.1577853262424469
time_elpased: 4.973
start validation test
0.761607142857
0.885117493473
0.603202846975
0.71746031746
0.76217490019
66.311
#iterations: 160
currently lose_sum: 0.18181920051574707
time_elpased: 4.951
#iterations: 161
currently lose_sum: 0.16105401515960693
time_elpased: 4.979
#iterations: 162
currently lose_sum: 0.29524222016334534
time_elpased: 5.021
#iterations: 163
currently lose_sum: 0.2771866023540497
time_elpased: 4.935
#iterations: 164
currently lose_sum: 0.058862876147031784
time_elpased: 4.994
#iterations: 165
currently lose_sum: 0.16605587303638458
time_elpased: 4.977
#iterations: 166
currently lose_sum: 0.1308753490447998
time_elpased: 5.008
#iterations: 167
currently lose_sum: 0.06644473969936371
time_elpased: 4.953
#iterations: 168
currently lose_sum: 0.23868510127067566
time_elpased: 5.015
#iterations: 169
currently lose_sum: 0.059616751968860626
time_elpased: 4.947
#iterations: 170
currently lose_sum: 0.1199258342385292
time_elpased: 5.489
#iterations: 171
currently lose_sum: 0.04258177801966667
time_elpased: 4.958
#iterations: 172
currently lose_sum: 0.16573269665241241
time_elpased: 5.025
#iterations: 173
currently lose_sum: 0.18938563764095306
time_elpased: 5.02
#iterations: 174
currently lose_sum: 0.15895622968673706
time_elpased: 5.008
#iterations: 175
currently lose_sum: 0.1664467304944992
time_elpased: 4.946
#iterations: 176
currently lose_sum: 0.1431082934141159
time_elpased: 5.09
#iterations: 177
currently lose_sum: 0.118169404566288
time_elpased: 5.078
#iterations: 178
currently lose_sum: 0.13850602507591248
time_elpased: 5.032
#iterations: 179
currently lose_sum: 0.06561781466007233
time_elpased: 5.045
start validation test
0.745535714286
0.891242937853
0.561387900356
0.688864628821
0.746195742293
65.225
#iterations: 180
currently lose_sum: 0.04471150040626526
time_elpased: 4.947
#iterations: 181
currently lose_sum: 0.2683512568473816
time_elpased: 4.946
#iterations: 182
currently lose_sum: 0.10450438410043716
time_elpased: 4.952
#iterations: 183
currently lose_sum: 0.1168220043182373
time_elpased: 5.223
#iterations: 184
currently lose_sum: 0.0974915623664856
time_elpased: 5.025
#iterations: 185
currently lose_sum: 0.29461655020713806
time_elpased: 5.025
#iterations: 186
currently lose_sum: 0.19861404597759247
time_elpased: 4.97
#iterations: 187
currently lose_sum: 0.03259490057826042
time_elpased: 4.963
#iterations: 188
currently lose_sum: 0.11134405434131622
time_elpased: 4.977
#iterations: 189
currently lose_sum: 0.13590218126773834
time_elpased: 4.986
#iterations: 190
currently lose_sum: 0.11818448454141617
time_elpased: 4.989
#iterations: 191
currently lose_sum: 0.15765532851219177
time_elpased: 4.999
#iterations: 192
currently lose_sum: 0.08396036177873611
time_elpased: 4.981
#iterations: 193
currently lose_sum: 0.09494134038686752
time_elpased: 4.945
#iterations: 194
currently lose_sum: 0.31645554304122925
time_elpased: 4.962
#iterations: 195
currently lose_sum: 0.20520520210266113
time_elpased: 4.899
#iterations: 196
currently lose_sum: 0.16608887910842896
time_elpased: 4.965
#iterations: 197
currently lose_sum: 0.09369281679391861
time_elpased: 4.982
#iterations: 198
currently lose_sum: 0.03935227543115616
time_elpased: 4.962
#iterations: 199
currently lose_sum: 0.1257002055644989
time_elpased: 4.969
start validation test
0.750892857143
0.893055555556
0.57206405694
0.697396963124
0.751533820584
75.028
#iterations: 200
currently lose_sum: 0.0928058847784996
time_elpased: 5.079
#iterations: 201
currently lose_sum: 0.0366382859647274
time_elpased: 5.045
#iterations: 202
currently lose_sum: 0.15007826685905457
time_elpased: 4.994
#iterations: 203
currently lose_sum: 0.0871555507183075
time_elpased: 4.977
#iterations: 204
currently lose_sum: 0.03930356353521347
time_elpased: 4.959
#iterations: 205
currently lose_sum: 0.11941885948181152
time_elpased: 5.041
#iterations: 206
currently lose_sum: 0.10921601206064224
time_elpased: 4.923
#iterations: 207
currently lose_sum: 0.10736212879419327
time_elpased: 4.959
#iterations: 208
currently lose_sum: 0.04180204123258591
time_elpased: 5.018
#iterations: 209
currently lose_sum: 0.27007976174354553
time_elpased: 4.923
#iterations: 210
currently lose_sum: 0.05105622857809067
time_elpased: 4.958
#iterations: 211
currently lose_sum: 0.08350436389446259
time_elpased: 4.985
#iterations: 212
currently lose_sum: 0.22805321216583252
time_elpased: 4.96
#iterations: 213
currently lose_sum: 0.09045861661434174
time_elpased: 4.963
#iterations: 214
currently lose_sum: 0.20207035541534424
time_elpased: 4.973
#iterations: 215
currently lose_sum: 0.10420848429203033
time_elpased: 4.984
#iterations: 216
currently lose_sum: 0.08049328625202179
time_elpased: 4.954
#iterations: 217
currently lose_sum: 0.031395118683576584
time_elpased: 4.916
#iterations: 218
currently lose_sum: 0.10490234941244125
time_elpased: 4.944
#iterations: 219
currently lose_sum: 0.1357755959033966
time_elpased: 4.924
start validation test
0.731696428571
0.888558692422
0.532028469751
0.665553700612
0.732412084338
81.216
#iterations: 220
currently lose_sum: 0.029448146000504494
time_elpased: 4.989
#iterations: 221
currently lose_sum: 0.1356354057788849
time_elpased: 5.011
#iterations: 222
currently lose_sum: 0.1063297763466835
time_elpased: 5.227
#iterations: 223
currently lose_sum: 0.03624477982521057
time_elpased: 4.943
#iterations: 224
currently lose_sum: 0.15341225266456604
time_elpased: 5.188
#iterations: 225
currently lose_sum: 0.02464475855231285
time_elpased: 4.998
#iterations: 226
currently lose_sum: 0.08580994606018066
time_elpased: 4.969
#iterations: 227
currently lose_sum: 0.07541833817958832
time_elpased: 4.956
#iterations: 228
currently lose_sum: 0.09218718111515045
time_elpased: 4.978
#iterations: 229
currently lose_sum: 0.07356761395931244
time_elpased: 4.986
#iterations: 230
currently lose_sum: 0.05352914333343506
time_elpased: 5.01
#iterations: 231
currently lose_sum: 0.2198912799358368
time_elpased: 4.972
#iterations: 232
currently lose_sum: 0.10387903451919556
time_elpased: 4.96
#iterations: 233
currently lose_sum: 0.12794320285320282
time_elpased: 5.04
#iterations: 234
currently lose_sum: 0.04913360998034477
time_elpased: 4.981
#iterations: 235
currently lose_sum: 0.030846750363707542
time_elpased: 5.025
#iterations: 236
currently lose_sum: 0.08446232974529266
time_elpased: 4.963
#iterations: 237
currently lose_sum: 0.05378267168998718
time_elpased: 4.997
#iterations: 238
currently lose_sum: 0.04928808659315109
time_elpased: 4.951
#iterations: 239
currently lose_sum: 0.08133969455957413
time_elpased: 4.984
start validation test
0.726785714286
0.898753894081
0.51334519573
0.653454133635
0.727550734065
88.407
#iterations: 240
currently lose_sum: 0.06424954533576965
time_elpased: 4.991
#iterations: 241
currently lose_sum: 0.1086292490363121
time_elpased: 5.038
#iterations: 242
currently lose_sum: 0.07404182851314545
time_elpased: 4.979
#iterations: 243
currently lose_sum: 0.11447914689779282
time_elpased: 4.902
#iterations: 244
currently lose_sum: 0.14016802608966827
time_elpased: 4.869
#iterations: 245
currently lose_sum: 0.10525581985712051
time_elpased: 4.975
#iterations: 246
currently lose_sum: 0.04543126001954079
time_elpased: 5.113
#iterations: 247
currently lose_sum: 0.03732937574386597
time_elpased: 5.163
#iterations: 248
currently lose_sum: 0.12351491302251816
time_elpased: 5.066
#iterations: 249
currently lose_sum: 0.09979289025068283
time_elpased: 4.954
#iterations: 250
currently lose_sum: 0.08882475644350052
time_elpased: 5.108
#iterations: 251
currently lose_sum: 0.07797697186470032
time_elpased: 4.958
#iterations: 252
currently lose_sum: 0.10897304862737656
time_elpased: 5.073
#iterations: 253
currently lose_sum: 0.04091043397784233
time_elpased: 5.161
#iterations: 254
currently lose_sum: 0.20952585339546204
time_elpased: 5.154
#iterations: 255
currently lose_sum: 0.11437956243753433
time_elpased: 4.92
#iterations: 256
currently lose_sum: 0.03164238482713699
time_elpased: 4.993
#iterations: 257
currently lose_sum: 0.11426857858896255
time_elpased: 4.941
#iterations: 258
currently lose_sum: 0.049010567367076874
time_elpased: 5.028
#iterations: 259
currently lose_sum: 0.1621668040752411
time_elpased: 4.963
start validation test
0.733482142857
0.903522205207
0.524911032028
0.664040517727
0.734229709563
90.613
#iterations: 260
currently lose_sum: 0.06148481369018555
time_elpased: 5.2
#iterations: 261
currently lose_sum: 0.0197753868997097
time_elpased: 4.925
#iterations: 262
currently lose_sum: 0.10293755680322647
time_elpased: 5.066
#iterations: 263
currently lose_sum: 0.12709040939807892
time_elpased: 4.957
#iterations: 264
currently lose_sum: 0.19879308342933655
time_elpased: 4.968
#iterations: 265
currently lose_sum: 0.04820435494184494
time_elpased: 4.921
#iterations: 266
currently lose_sum: 0.06549693644046783
time_elpased: 5.157
#iterations: 267
currently lose_sum: 0.16276805102825165
time_elpased: 4.93
#iterations: 268
currently lose_sum: 0.03552335500717163
time_elpased: 4.934
#iterations: 269
currently lose_sum: 0.04893181473016739
time_elpased: 4.947
#iterations: 270
currently lose_sum: 0.12490793317556381
time_elpased: 5.053
#iterations: 271
currently lose_sum: 0.059270091354846954
time_elpased: 4.93
#iterations: 272
currently lose_sum: 0.13789978623390198
time_elpased: 4.993
#iterations: 273
currently lose_sum: 0.02018934302031994
time_elpased: 4.965
#iterations: 274
currently lose_sum: 0.08413659036159515
time_elpased: 5.063
#iterations: 275
currently lose_sum: 0.04191853478550911
time_elpased: 4.932
#iterations: 276
currently lose_sum: 0.03868305683135986
time_elpased: 4.96
#iterations: 277
currently lose_sum: 0.11276533454656601
time_elpased: 4.96
#iterations: 278
currently lose_sum: 0.06695984303951263
time_elpased: 4.989
#iterations: 279
currently lose_sum: 0.13086414337158203
time_elpased: 5.038
start validation test
0.704464285714
0.913978494624
0.453736654804
0.606420927467
0.705362951058
103.114
#iterations: 280
currently lose_sum: 0.07132378965616226
time_elpased: 4.967
#iterations: 281
currently lose_sum: 0.2015531361103058
time_elpased: 5.02
#iterations: 282
currently lose_sum: 0.012159229256212711
time_elpased: 5.001
#iterations: 283
currently lose_sum: 0.11798256635665894
time_elpased: 5.199
#iterations: 284
currently lose_sum: 0.0816856101155281
time_elpased: 4.965
#iterations: 285
currently lose_sum: 0.07740803807973862
time_elpased: 5.013
#iterations: 286
currently lose_sum: 0.04286095127463341
time_elpased: 4.922
#iterations: 287
currently lose_sum: 0.1423630714416504
time_elpased: 5.0
#iterations: 288
currently lose_sum: 0.12496210634708405
time_elpased: 4.934
#iterations: 289
currently lose_sum: 0.035511769354343414
time_elpased: 4.987
#iterations: 290
currently lose_sum: 0.11950807273387909
time_elpased: 4.997
#iterations: 291
currently lose_sum: 0.1084180623292923
time_elpased: 5.018
#iterations: 292
currently lose_sum: 0.09789224714040756
time_elpased: 4.904
#iterations: 293
currently lose_sum: 0.07430829852819443
time_elpased: 4.935
#iterations: 294
currently lose_sum: 0.013597125187516212
time_elpased: 4.912
#iterations: 295
currently lose_sum: 0.01274058222770691
time_elpased: 5.099
#iterations: 296
currently lose_sum: 0.020109396427869797
time_elpased: 5.164
#iterations: 297
currently lose_sum: 0.09220089018344879
time_elpased: 4.977
#iterations: 298
currently lose_sum: 0.09975206851959229
time_elpased: 5.0
#iterations: 299
currently lose_sum: 0.01983831077814102
time_elpased: 4.981
start validation test
0.720089285714
0.913477537438
0.488434163701
0.63652173913
0.720919590811
99.230
#iterations: 300
currently lose_sum: 0.14662840962409973
time_elpased: 5.024
#iterations: 301
currently lose_sum: 0.10057760775089264
time_elpased: 4.946
#iterations: 302
currently lose_sum: 0.15442292392253876
time_elpased: 5.056
#iterations: 303
currently lose_sum: 0.03119443729519844
time_elpased: 5.068
#iterations: 304
currently lose_sum: 0.030748924240469933
time_elpased: 4.943
#iterations: 305
currently lose_sum: 0.13195835053920746
time_elpased: 4.976
#iterations: 306
currently lose_sum: 0.012856694869697094
time_elpased: 5.001
#iterations: 307
currently lose_sum: 0.2824403941631317
time_elpased: 5.131
#iterations: 308
currently lose_sum: 0.0368892177939415
time_elpased: 5.013
#iterations: 309
currently lose_sum: 0.04952336847782135
time_elpased: 5.069
#iterations: 310
currently lose_sum: 0.09942446649074554
time_elpased: 5.269
#iterations: 311
currently lose_sum: 0.02147447131574154
time_elpased: 4.976
#iterations: 312
currently lose_sum: 0.025821704417467117
time_elpased: 5.1
#iterations: 313
currently lose_sum: 0.011436587199568748
time_elpased: 5.013
#iterations: 314
currently lose_sum: 0.049781329929828644
time_elpased: 4.928
#iterations: 315
currently lose_sum: 0.09876425564289093
time_elpased: 5.015
#iterations: 316
currently lose_sum: 0.06686292588710785
time_elpased: 5.056
#iterations: 317
currently lose_sum: 0.04688986763358116
time_elpased: 4.987
#iterations: 318
currently lose_sum: 0.11636656522750854
time_elpased: 4.97
#iterations: 319
currently lose_sum: 0.21924026310443878
time_elpased: 5.004
start validation test
0.708035714286
0.916666666667
0.459964412811
0.612559241706
0.708924858735
108.146
#iterations: 320
currently lose_sum: 0.07377086579799652
time_elpased: 5.031
#iterations: 321
currently lose_sum: 0.16502194106578827
time_elpased: 5.081
#iterations: 322
currently lose_sum: 0.01765027455985546
time_elpased: 4.944
#iterations: 323
currently lose_sum: 0.1471938192844391
time_elpased: 5.049
#iterations: 324
currently lose_sum: 0.06597353518009186
time_elpased: 5.014
#iterations: 325
currently lose_sum: 0.070742167532444
time_elpased: 4.93
#iterations: 326
currently lose_sum: 0.03957604616880417
time_elpased: 4.932
#iterations: 327
currently lose_sum: 0.06482308357954025
time_elpased: 5.027
#iterations: 328
currently lose_sum: 0.18946973979473114
time_elpased: 5.073
#iterations: 329
currently lose_sum: 0.06292222440242767
time_elpased: 5.117
#iterations: 330
currently lose_sum: 0.042710766196250916
time_elpased: 4.948
#iterations: 331
currently lose_sum: 0.05549224093556404
time_elpased: 4.986
#iterations: 332
currently lose_sum: 0.018703226000070572
time_elpased: 4.981
#iterations: 333
currently lose_sum: 0.1929687261581421
time_elpased: 4.966
#iterations: 334
currently lose_sum: 0.10734637081623077
time_elpased: 5.021
#iterations: 335
currently lose_sum: 0.025413542985916138
time_elpased: 4.991
#iterations: 336
currently lose_sum: 0.11590287834405899
time_elpased: 4.949
#iterations: 337
currently lose_sum: 0.05512991547584534
time_elpased: 5.062
#iterations: 338
currently lose_sum: 0.03185093775391579
time_elpased: 4.961
#iterations: 339
currently lose_sum: 0.0886170044541359
time_elpased: 5.049
start validation test
0.707142857143
0.917857142857
0.457295373665
0.610451306413
0.708038367836
115.737
#iterations: 340
currently lose_sum: 0.09736060351133347
time_elpased: 4.963
#iterations: 341
currently lose_sum: 0.09359906613826752
time_elpased: 5.087
#iterations: 342
currently lose_sum: 0.07075793296098709
time_elpased: 5.035
#iterations: 343
currently lose_sum: 0.040480684489011765
time_elpased: 4.979
#iterations: 344
currently lose_sum: 0.059857141226530075
time_elpased: 4.984
#iterations: 345
currently lose_sum: 0.1852768212556839
time_elpased: 4.936
#iterations: 346
currently lose_sum: 0.06553930044174194
time_elpased: 4.952
#iterations: 347
currently lose_sum: 0.08335758745670319
time_elpased: 4.979
#iterations: 348
currently lose_sum: 0.02529531717300415
time_elpased: 4.975
#iterations: 349
currently lose_sum: 0.14704886078834534
time_elpased: 4.949
#iterations: 350
currently lose_sum: 0.03804095834493637
time_elpased: 4.961
#iterations: 351
currently lose_sum: 0.02108415961265564
time_elpased: 4.972
#iterations: 352
currently lose_sum: 0.05295808985829353
time_elpased: 5.098
#iterations: 353
currently lose_sum: 0.06676719337701797
time_elpased: 4.983
#iterations: 354
currently lose_sum: 0.16478148102760315
time_elpased: 5.065
#iterations: 355
currently lose_sum: 0.03460756689310074
time_elpased: 4.917
#iterations: 356
currently lose_sum: 0.01599191501736641
time_elpased: 5.01
#iterations: 357
currently lose_sum: 0.061284810304641724
time_elpased: 5.13
#iterations: 358
currently lose_sum: 0.017815448343753815
time_elpased: 4.974
#iterations: 359
currently lose_sum: 0.053415991365909576
time_elpased: 5.011
start validation test
0.701339285714
0.915904936015
0.445729537367
0.599640933573
0.702255449687
118.989
#iterations: 360
currently lose_sum: 0.04571410268545151
time_elpased: 5.334
#iterations: 361
currently lose_sum: 0.1066054105758667
time_elpased: 4.995
#iterations: 362
currently lose_sum: 0.02217075601220131
time_elpased: 4.886
#iterations: 363
currently lose_sum: 0.07846950739622116
time_elpased: 4.942
#iterations: 364
currently lose_sum: 0.02205597795546055
time_elpased: 5.057
#iterations: 365
currently lose_sum: 0.19343674182891846
time_elpased: 4.934
#iterations: 366
currently lose_sum: 0.07161509245634079
time_elpased: 4.985
#iterations: 367
currently lose_sum: 0.11083617061376572
time_elpased: 5.027
#iterations: 368
currently lose_sum: 0.021847689524292946
time_elpased: 4.943
#iterations: 369
currently lose_sum: 0.010396945290267467
time_elpased: 5.018
#iterations: 370
currently lose_sum: 0.01335144229233265
time_elpased: 4.983
#iterations: 371
currently lose_sum: 0.1929645836353302
time_elpased: 5.007
#iterations: 372
currently lose_sum: 0.08405391871929169
time_elpased: 4.976
#iterations: 373
currently lose_sum: 0.030926531180739403
time_elpased: 4.921
#iterations: 374
currently lose_sum: 0.11517882347106934
time_elpased: 4.89
#iterations: 375
currently lose_sum: 0.22883744537830353
time_elpased: 4.97
#iterations: 376
currently lose_sum: 0.015088116750121117
time_elpased: 4.963
#iterations: 377
currently lose_sum: 0.019344603642821312
time_elpased: 5.011
#iterations: 378
currently lose_sum: 0.06322918832302094
time_elpased: 4.922
#iterations: 379
currently lose_sum: 0.21240083873271942
time_elpased: 5.34
start validation test
0.708035714286
0.918149466192
0.459074733096
0.612099644128
0.708928047552
112.641
#iterations: 380
currently lose_sum: 0.07985184341669083
time_elpased: 5.093
#iterations: 381
currently lose_sum: 0.11071731895208359
time_elpased: 4.957
#iterations: 382
currently lose_sum: 0.04597707837820053
time_elpased: 5.032
#iterations: 383
currently lose_sum: 0.016431394964456558
time_elpased: 4.932
#iterations: 384
currently lose_sum: 0.023750541731715202
time_elpased: 4.968
#iterations: 385
currently lose_sum: 0.06395427882671356
time_elpased: 5.061
#iterations: 386
currently lose_sum: 0.01155241671949625
time_elpased: 5.003
#iterations: 387
currently lose_sum: 0.03370191901922226
time_elpased: 5.066
#iterations: 388
currently lose_sum: 0.04577123001217842
time_elpased: 5.25
#iterations: 389
currently lose_sum: 0.045239340513944626
time_elpased: 4.982
#iterations: 390
currently lose_sum: 0.007832055911421776
time_elpased: 5.086
#iterations: 391
currently lose_sum: 0.07494133710861206
time_elpased: 4.959
#iterations: 392
currently lose_sum: 0.02147780731320381
time_elpased: 4.955
#iterations: 393
currently lose_sum: 0.10074114799499512
time_elpased: 4.984
#iterations: 394
currently lose_sum: 0.0543392077088356
time_elpased: 4.927
#iterations: 395
currently lose_sum: 0.10678113996982574
time_elpased: 5.082
#iterations: 396
currently lose_sum: 0.0261794775724411
time_elpased: 5.035
#iterations: 397
currently lose_sum: 0.16885218024253845
time_elpased: 5.027
#iterations: 398
currently lose_sum: 0.007626072969287634
time_elpased: 5.051
#iterations: 399
currently lose_sum: 0.02185431681573391
time_elpased: 4.976
start validation test
0.698660714286
0.925996204934
0.434163701068
0.591156874621
0.699608732254
124.091
#iterations: 400
currently lose_sum: 0.24747788906097412
time_elpased: 4.918
#iterations: 401
currently lose_sum: 0.12975163757801056
time_elpased: 4.982
#iterations: 402
currently lose_sum: 0.09012643992900848
time_elpased: 5.076
#iterations: 403
currently lose_sum: 0.010763020254671574
time_elpased: 4.972
#iterations: 404
currently lose_sum: 0.022097617387771606
time_elpased: 4.962
#iterations: 405
currently lose_sum: 0.013983244076371193
time_elpased: 5.139
#iterations: 406
currently lose_sum: 0.15627911686897278
time_elpased: 5.121
#iterations: 407
currently lose_sum: 0.015346655622124672
time_elpased: 4.98
#iterations: 408
currently lose_sum: 0.012369105592370033
time_elpased: 4.948
#iterations: 409
currently lose_sum: 0.06925314664840698
time_elpased: 4.937
#iterations: 410
currently lose_sum: 0.07805851101875305
time_elpased: 4.92
#iterations: 411
currently lose_sum: 0.09725180268287659
time_elpased: 4.95
#iterations: 412
currently lose_sum: 0.006496156565845013
time_elpased: 4.997
#iterations: 413
currently lose_sum: 0.12286190688610077
time_elpased: 4.985
#iterations: 414
currently lose_sum: 0.12161650508642197
time_elpased: 4.967
#iterations: 415
currently lose_sum: 0.0434841513633728
time_elpased: 4.966
#iterations: 416
currently lose_sum: 0.08378715813159943
time_elpased: 5.007
#iterations: 417
currently lose_sum: 0.021162811666727066
time_elpased: 4.922
#iterations: 418
currently lose_sum: 0.01870599389076233
time_elpased: 5.045
#iterations: 419
currently lose_sum: 0.0564049668610096
time_elpased: 5.0
start validation test
0.708482142857
0.922800718133
0.457295373665
0.611540749554
0.709382453858
119.991
#iterations: 420
currently lose_sum: 0.06592138856649399
time_elpased: 4.918
#iterations: 421
currently lose_sum: 0.009626386687159538
time_elpased: 4.975
#iterations: 422
currently lose_sum: 0.046299874782562256
time_elpased: 4.949
#iterations: 423
currently lose_sum: 0.051136214286088943
time_elpased: 4.99
#iterations: 424
currently lose_sum: 0.05052464082837105
time_elpased: 4.964
#iterations: 425
currently lose_sum: 0.053373806178569794
time_elpased: 4.977
#iterations: 426
currently lose_sum: 0.07957886904478073
time_elpased: 4.979
#iterations: 427
currently lose_sum: 0.09814030677080154
time_elpased: 4.957
#iterations: 428
currently lose_sum: 0.011083653196692467
time_elpased: 5.004
#iterations: 429
currently lose_sum: 0.06148228049278259
time_elpased: 4.956
#iterations: 430
currently lose_sum: 0.17125459015369415
time_elpased: 4.94
#iterations: 431
currently lose_sum: 0.014473778195679188
time_elpased: 5.149
#iterations: 432
currently lose_sum: 0.03717263042926788
time_elpased: 5.247
#iterations: 433
currently lose_sum: 0.16278472542762756
time_elpased: 4.973
#iterations: 434
currently lose_sum: 0.03573901578783989
time_elpased: 5.139
#iterations: 435
currently lose_sum: 0.1500656008720398
time_elpased: 5.147
#iterations: 436
currently lose_sum: 0.05395406484603882
time_elpased: 4.946
#iterations: 437
currently lose_sum: 0.009352974593639374
time_elpased: 5.039
#iterations: 438
currently lose_sum: 0.08381464332342148
time_elpased: 5.012
#iterations: 439
currently lose_sum: 0.03756026178598404
time_elpased: 4.907
start validation test
0.697767857143
0.922495274102
0.434163701068
0.590441621295
0.698712674907
127.351
#iterations: 440
currently lose_sum: 0.06524966657161713
time_elpased: 4.994
#iterations: 441
currently lose_sum: 0.029332568868994713
time_elpased: 4.952
#iterations: 442
currently lose_sum: 0.028709089383482933
time_elpased: 4.977
#iterations: 443
currently lose_sum: 0.0831550806760788
time_elpased: 4.924
#iterations: 444
currently lose_sum: 0.011545627377927303
time_elpased: 4.984
#iterations: 445
currently lose_sum: 0.08256290853023529
time_elpased: 4.991
#iterations: 446
currently lose_sum: 0.07644303143024445
time_elpased: 5.008
#iterations: 447
currently lose_sum: 0.06827926635742188
time_elpased: 4.955
#iterations: 448
currently lose_sum: 0.026466984301805496
time_elpased: 4.973
#iterations: 449
currently lose_sum: 0.04119670391082764
time_elpased: 4.971
#iterations: 450
currently lose_sum: 0.011090541258454323
time_elpased: 4.99
#iterations: 451
currently lose_sum: 0.01844920590519905
time_elpased: 4.968
#iterations: 452
currently lose_sum: 0.12657614052295685
time_elpased: 4.995
#iterations: 453
currently lose_sum: 0.10499360412359238
time_elpased: 5.024
#iterations: 454
currently lose_sum: 0.03541960567235947
time_elpased: 4.963
#iterations: 455
currently lose_sum: 0.06183934211730957
time_elpased: 4.954
#iterations: 456
currently lose_sum: 0.07308687269687653
time_elpased: 5.086
#iterations: 457
currently lose_sum: 0.1445874720811844
time_elpased: 4.947
#iterations: 458
currently lose_sum: 0.03842582926154137
time_elpased: 4.914
#iterations: 459
currently lose_sum: 0.03817185014486313
time_elpased: 4.894
start validation test
0.68125
0.913306451613
0.403024911032
0.559259259259
0.682247222541
140.511
#iterations: 460
currently lose_sum: 0.06859662383794785
time_elpased: 4.964
#iterations: 461
currently lose_sum: 0.010967531241476536
time_elpased: 5.058
#iterations: 462
currently lose_sum: 0.02915732003748417
time_elpased: 4.935
#iterations: 463
currently lose_sum: 0.05271470546722412
time_elpased: 5.111
#iterations: 464
currently lose_sum: 0.14189186692237854
time_elpased: 5.041
#iterations: 465
currently lose_sum: 0.02628481388092041
time_elpased: 4.887
#iterations: 466
currently lose_sum: 0.05331245809793472
time_elpased: 4.992
#iterations: 467
currently lose_sum: 0.07135351002216339
time_elpased: 5.029
#iterations: 468
currently lose_sum: 0.03609691187739372
time_elpased: 4.993
#iterations: 469
currently lose_sum: 0.12100579589605331
time_elpased: 5.106
#iterations: 470
currently lose_sum: 0.014610975980758667
time_elpased: 4.958
#iterations: 471
currently lose_sum: 0.1620018184185028
time_elpased: 4.998
#iterations: 472
currently lose_sum: 0.02036839909851551
time_elpased: 5.038
#iterations: 473
currently lose_sum: 0.0896725207567215
time_elpased: 4.895
#iterations: 474
currently lose_sum: 0.0324690006673336
time_elpased: 4.957
#iterations: 475
currently lose_sum: 0.11595673859119415
time_elpased: 5.009
#iterations: 476
currently lose_sum: 0.032059475779533386
time_elpased: 4.919
#iterations: 477
currently lose_sum: 0.066785529255867
time_elpased: 4.931
#iterations: 478
currently lose_sum: 0.03805529326200485
time_elpased: 4.902
#iterations: 479
currently lose_sum: 0.058628253638744354
time_elpased: 4.958
start validation test
0.678125
0.924210526316
0.390569395018
0.54909318324
0.679155665251
138.757
#iterations: 480
currently lose_sum: 0.165286123752594
time_elpased: 5.019
#iterations: 481
currently lose_sum: 0.017118927091360092
time_elpased: 5.025
#iterations: 482
currently lose_sum: 0.017859067767858505
time_elpased: 4.968
#iterations: 483
currently lose_sum: 0.06914469599723816
time_elpased: 4.972
#iterations: 484
currently lose_sum: 0.054641980677843094
time_elpased: 5.048
#iterations: 485
currently lose_sum: 0.014438274316489697
time_elpased: 4.913
#iterations: 486
currently lose_sum: 0.16804587841033936
time_elpased: 4.911
#iterations: 487
currently lose_sum: 0.13832740485668182
time_elpased: 4.978
#iterations: 488
currently lose_sum: 0.04746219143271446
time_elpased: 4.96
#iterations: 489
currently lose_sum: 0.0892992690205574
time_elpased: 4.96
#iterations: 490
currently lose_sum: 0.025770479813218117
time_elpased: 4.958
#iterations: 491
currently lose_sum: 0.04773065447807312
time_elpased: 4.987
#iterations: 492
currently lose_sum: 0.004856960382312536
time_elpased: 5.196
#iterations: 493
currently lose_sum: 0.07689551264047623
time_elpased: 4.939
#iterations: 494
currently lose_sum: 0.023321155458688736
time_elpased: 4.925
#iterations: 495
currently lose_sum: 0.05078146606683731
time_elpased: 4.994
#iterations: 496
currently lose_sum: 0.0625004693865776
time_elpased: 4.964
#iterations: 497
currently lose_sum: 0.024104353040456772
time_elpased: 5.067
#iterations: 498
currently lose_sum: 0.03103918954730034
time_elpased: 5.088
#iterations: 499
currently lose_sum: 0.031720906496047974
time_elpased: 4.91
start validation test
0.682142857143
0.917004048583
0.403024911032
0.559950556242
0.683143279889
131.917
#iterations: 500
currently lose_sum: 0.033747460693120956
time_elpased: 4.973
#iterations: 501
currently lose_sum: 0.019001221284270287
time_elpased: 5.016
#iterations: 502
currently lose_sum: 0.14092007279396057
time_elpased: 4.982
#iterations: 503
currently lose_sum: 0.19887249171733856
time_elpased: 4.937
#iterations: 504
currently lose_sum: 0.04488946869969368
time_elpased: 4.921
#iterations: 505
currently lose_sum: 0.014856678433716297
time_elpased: 4.983
#iterations: 506
currently lose_sum: 0.05615474656224251
time_elpased: 5.098
#iterations: 507
currently lose_sum: 0.0573076494038105
time_elpased: 4.936
#iterations: 508
currently lose_sum: 0.09108293056488037
time_elpased: 4.997
#iterations: 509
currently lose_sum: 0.2178783416748047
time_elpased: 4.979
#iterations: 510
currently lose_sum: 0.009630325250327587
time_elpased: 4.957
#iterations: 511
currently lose_sum: 0.038908448070287704
time_elpased: 4.906
#iterations: 512
currently lose_sum: 0.12259563058614731
time_elpased: 4.977
#iterations: 513
currently lose_sum: 0.015051436610519886
time_elpased: 5.061
#iterations: 514
currently lose_sum: 0.08389954268932343
time_elpased: 5.016
#iterations: 515
currently lose_sum: 0.025264009833335876
time_elpased: 5.296
#iterations: 516
currently lose_sum: 0.0905645340681076
time_elpased: 4.994
#iterations: 517
currently lose_sum: 0.01845773495733738
time_elpased: 4.98
#iterations: 518
currently lose_sum: 0.08917861431837082
time_elpased: 5.078
#iterations: 519
currently lose_sum: 0.022565646097064018
time_elpased: 4.954
start validation test
0.681696428571
0.923711340206
0.398576512456
0.55686761964
0.682711195296
138.764
#iterations: 520
currently lose_sum: 0.02988026663661003
time_elpased: 5.051
#iterations: 521
currently lose_sum: 0.0670042634010315
time_elpased: 4.972
#iterations: 522
currently lose_sum: 0.07075929641723633
time_elpased: 4.959
#iterations: 523
currently lose_sum: 0.06153672933578491
time_elpased: 4.965
#iterations: 524
currently lose_sum: 0.05201441049575806
time_elpased: 5.079
#iterations: 525
currently lose_sum: 0.08005771040916443
time_elpased: 5.0
#iterations: 526
currently lose_sum: 0.1025373712182045
time_elpased: 4.911
#iterations: 527
currently lose_sum: 0.009541683830320835
time_elpased: 4.994
#iterations: 528
currently lose_sum: 0.08081408590078354
time_elpased: 4.946
#iterations: 529
currently lose_sum: 0.0385298989713192
time_elpased: 4.922
#iterations: 530
currently lose_sum: 0.09719289094209671
time_elpased: 5.034
#iterations: 531
currently lose_sum: 0.009681006893515587
time_elpased: 4.975
#iterations: 532
currently lose_sum: 0.006361053325235844
time_elpased: 5.031
#iterations: 533
currently lose_sum: 0.09020209312438965
time_elpased: 5.015
#iterations: 534
currently lose_sum: 0.12085199356079102
time_elpased: 4.935
#iterations: 535
currently lose_sum: 0.14948880672454834
time_elpased: 4.962
#iterations: 536
currently lose_sum: 0.06732852011919022
time_elpased: 4.983
#iterations: 537
currently lose_sum: 0.14512966573238373
time_elpased: 4.979
#iterations: 538
currently lose_sum: 0.15010659396648407
time_elpased: 5.106
#iterations: 539
currently lose_sum: 0.36173656582832336
time_elpased: 4.957
start validation test
0.662053571429
0.916099773243
0.359430604982
0.516293929712
0.663138241559
149.819
#iterations: 540
currently lose_sum: 0.1513739377260208
time_elpased: 4.958
#iterations: 541
currently lose_sum: 0.039929620921611786
time_elpased: 5.203
#iterations: 542
currently lose_sum: 0.018132366240024567
time_elpased: 4.984
#iterations: 543
currently lose_sum: 0.16920140385627747
time_elpased: 4.978
#iterations: 544
currently lose_sum: 0.041130661964416504
time_elpased: 4.967
#iterations: 545
currently lose_sum: 0.015985842794179916
time_elpased: 5.288
#iterations: 546
currently lose_sum: 0.0716637670993805
time_elpased: 5.018
#iterations: 547
currently lose_sum: 0.15813133120536804
time_elpased: 4.933
#iterations: 548
currently lose_sum: 0.13662436604499817
time_elpased: 5.006
#iterations: 549
currently lose_sum: 0.13753439486026764
time_elpased: 4.956
#iterations: 550
currently lose_sum: 0.01879134215414524
time_elpased: 4.946
#iterations: 551
currently lose_sum: 0.026576513424515724
time_elpased: 4.99
#iterations: 552
currently lose_sum: 0.08006684482097626
time_elpased: 4.993
#iterations: 553
currently lose_sum: 0.06350094079971313
time_elpased: 4.931
#iterations: 554
currently lose_sum: 0.07593580335378647
time_elpased: 4.91
#iterations: 555
currently lose_sum: 0.07706956565380096
time_elpased: 4.936
#iterations: 556
currently lose_sum: 0.055385373532772064
time_elpased: 5.003
#iterations: 557
currently lose_sum: 0.017943892627954483
time_elpased: 4.96
#iterations: 558
currently lose_sum: 0.018759768456220627
time_elpased: 5.035
#iterations: 559
currently lose_sum: 0.023291144520044327
time_elpased: 4.944
start validation test
0.678571428571
0.922594142259
0.392348754448
0.550561797753
0.679597316292
146.978
#iterations: 560
currently lose_sum: 0.02475699596107006
time_elpased: 4.976
#iterations: 561
currently lose_sum: 0.04386291652917862
time_elpased: 4.963
#iterations: 562
currently lose_sum: 0.016098687425255775
time_elpased: 4.919
#iterations: 563
currently lose_sum: 0.10526108741760254
time_elpased: 4.994
#iterations: 564
currently lose_sum: 0.05967842414975166
time_elpased: 4.997
#iterations: 565
currently lose_sum: 0.028219297528266907
time_elpased: 5.145
#iterations: 566
currently lose_sum: 0.010234294459223747
time_elpased: 4.976
#iterations: 567
currently lose_sum: 0.06985360383987427
time_elpased: 5.039
#iterations: 568
currently lose_sum: 0.21436338126659393
time_elpased: 4.996
#iterations: 569
currently lose_sum: 0.04410476237535477
time_elpased: 5.031
#iterations: 570
currently lose_sum: 0.03738228976726532
time_elpased: 5.089
#iterations: 571
currently lose_sum: 0.07214434444904327
time_elpased: 5.031
#iterations: 572
currently lose_sum: 0.20840594172477722
time_elpased: 5.04
#iterations: 573
currently lose_sum: 0.011159086599946022
time_elpased: 5.022
#iterations: 574
currently lose_sum: 0.12039810419082642
time_elpased: 4.958
#iterations: 575
currently lose_sum: 0.025238368660211563
time_elpased: 5.339
#iterations: 576
currently lose_sum: 0.06868539750576019
time_elpased: 4.976
#iterations: 577
currently lose_sum: 0.09395080804824829
time_elpased: 5.283
#iterations: 578
currently lose_sum: 0.050442375242710114
time_elpased: 4.965
#iterations: 579
currently lose_sum: 0.04918929934501648
time_elpased: 4.912
start validation test
0.673214285714
0.920600858369
0.381672597865
0.539622641509
0.674259238
142.096
#iterations: 580
currently lose_sum: 0.03227505087852478
time_elpased: 4.995
#iterations: 581
currently lose_sum: 0.0348605252802372
time_elpased: 4.948
#iterations: 582
currently lose_sum: 0.07818596065044403
time_elpased: 5.028
#iterations: 583
currently lose_sum: 0.03295819088816643
time_elpased: 4.972
#iterations: 584
currently lose_sum: 0.04444611817598343
time_elpased: 4.98
#iterations: 585
currently lose_sum: 0.07689739018678665
time_elpased: 4.959
#iterations: 586
currently lose_sum: 0.08218177407979965
time_elpased: 4.949
#iterations: 587
currently lose_sum: 0.12629517912864685
time_elpased: 5.044
#iterations: 588
currently lose_sum: 0.021556338295340538
time_elpased: 4.968
#iterations: 589
currently lose_sum: 0.07013208419084549
time_elpased: 5.014
#iterations: 590
currently lose_sum: 0.08635921031236649
time_elpased: 5.395
#iterations: 591
currently lose_sum: 0.21029511094093323
time_elpased: 4.964
#iterations: 592
currently lose_sum: 0.09551528096199036
time_elpased: 4.989
#iterations: 593
currently lose_sum: 0.13373830914497375
time_elpased: 4.978
#iterations: 594
currently lose_sum: 0.06564370542764664
time_elpased: 5.014
#iterations: 595
currently lose_sum: 0.012764734216034412
time_elpased: 4.954
#iterations: 596
currently lose_sum: 0.05375886708498001
time_elpased: 5.056
#iterations: 597
currently lose_sum: 0.026720693334937096
time_elpased: 5.011
#iterations: 598
currently lose_sum: 0.043763838708400726
time_elpased: 4.928
#iterations: 599
currently lose_sum: 0.040677510201931
time_elpased: 4.952
start validation test
0.661160714286
0.9176201373
0.356761565836
0.513773222293
0.66225175066
152.161
acc: 0.755
pre: 0.794
rec: 0.690
F1: 0.739
auc: 0.755
