start to construct computing graph
graph construct over
3372
epochs start
#iterations: 0
currently lose_sum: 0.6431542634963989
time_elpased: 10.1
#iterations: 1
currently lose_sum: 0.6975139379501343
time_elpased: 10.177
#iterations: 2
currently lose_sum: 0.569708526134491
time_elpased: 10.055
#iterations: 3
currently lose_sum: 0.6682717800140381
time_elpased: 10.129
#iterations: 4
currently lose_sum: 0.5277601480484009
time_elpased: 10.046
#iterations: 5
currently lose_sum: 0.41716232895851135
time_elpased: 10.147
#iterations: 6
currently lose_sum: 0.6068567633628845
time_elpased: 10.068
#iterations: 7
currently lose_sum: 0.5287833213806152
time_elpased: 10.096
#iterations: 8
currently lose_sum: 0.5182280540466309
time_elpased: 10.106
#iterations: 9
currently lose_sum: 0.4964075982570648
time_elpased: 10.106
#iterations: 10
currently lose_sum: 0.26685917377471924
time_elpased: 10.069
#iterations: 11
currently lose_sum: 0.3625577390193939
time_elpased: 10.059
#iterations: 12
currently lose_sum: 0.3859127163887024
time_elpased: 10.038
#iterations: 13
currently lose_sum: 0.5866115689277649
time_elpased: 10.149
#iterations: 14
currently lose_sum: 0.3507450222969055
time_elpased: 10.16
#iterations: 15
currently lose_sum: 0.32977935671806335
time_elpased: 10.078
#iterations: 16
currently lose_sum: 0.3036952614784241
time_elpased: 10.088
#iterations: 17
currently lose_sum: 0.2583952248096466
time_elpased: 10.15
#iterations: 18
currently lose_sum: 0.4327893853187561
time_elpased: 10.125
#iterations: 19
currently lose_sum: 0.460310161113739
time_elpased: 10.049
start validation test
0.763392857143
0.789678675755
0.720888888889
0.753717472119
0.763583457897
29.313
#iterations: 20
currently lose_sum: 0.4156285226345062
time_elpased: 9.568
#iterations: 21
currently lose_sum: 0.4172508716583252
time_elpased: 9.61
#iterations: 22
currently lose_sum: 0.5308969020843506
time_elpased: 9.554
#iterations: 23
currently lose_sum: 0.3902479112148285
time_elpased: 9.617
#iterations: 24
currently lose_sum: 0.4092951714992523
time_elpased: 9.764
#iterations: 25
currently lose_sum: 0.3264602720737457
time_elpased: 9.887
#iterations: 26
currently lose_sum: 0.3972337543964386
time_elpased: 9.979
#iterations: 27
currently lose_sum: 0.3397952914237976
time_elpased: 9.677
#iterations: 28
currently lose_sum: 0.3104439973831177
time_elpased: 9.659
#iterations: 29
currently lose_sum: 0.296097993850708
time_elpased: 9.614
#iterations: 30
currently lose_sum: 0.4607320725917816
time_elpased: 9.676
#iterations: 31
currently lose_sum: 0.413337379693985
time_elpased: 9.687
#iterations: 32
currently lose_sum: 0.24909648299217224
time_elpased: 9.628
#iterations: 33
currently lose_sum: 0.4047151207923889
time_elpased: 9.526
#iterations: 34
currently lose_sum: 0.37501323223114014
time_elpased: 9.642
#iterations: 35
currently lose_sum: 0.29849258065223694
time_elpased: 9.601
#iterations: 36
currently lose_sum: 0.26194509863853455
time_elpased: 9.668
#iterations: 37
currently lose_sum: 0.3055626451969147
time_elpased: 9.596
#iterations: 38
currently lose_sum: 0.4954042434692383
time_elpased: 9.588
#iterations: 39
currently lose_sum: 0.4623856544494629
time_elpased: 9.618
start validation test
0.746428571429
0.816118047673
0.639111111111
0.716849451645
0.746909815645
33.349
#iterations: 40
currently lose_sum: 0.24753420054912567
time_elpased: 9.622
#iterations: 41
currently lose_sum: 0.4040360450744629
time_elpased: 9.57
#iterations: 42
currently lose_sum: 0.24884085357189178
time_elpased: 9.701
#iterations: 43
currently lose_sum: 0.6690853238105774
time_elpased: 9.664
#iterations: 44
currently lose_sum: 0.13994109630584717
time_elpased: 9.711
#iterations: 45
currently lose_sum: 0.4948248267173767
time_elpased: 9.616
#iterations: 46
currently lose_sum: 0.34762486815452576
time_elpased: 9.682
#iterations: 47
currently lose_sum: 0.3326371908187866
time_elpased: 9.567
#iterations: 48
currently lose_sum: 0.5500235557556152
time_elpased: 9.619
#iterations: 49
currently lose_sum: 0.4339800477027893
time_elpased: 9.635
#iterations: 50
currently lose_sum: 0.23975971341133118
time_elpased: 9.824
#iterations: 51
currently lose_sum: 0.43999162316322327
time_elpased: 9.735
#iterations: 52
currently lose_sum: 0.41946592926979065
time_elpased: 9.627
#iterations: 53
currently lose_sum: 0.42085179686546326
time_elpased: 9.668
#iterations: 54
currently lose_sum: 0.2589520812034607
time_elpased: 9.793
#iterations: 55
currently lose_sum: 0.3406910300254822
time_elpased: 9.683
#iterations: 56
currently lose_sum: 0.3465840518474579
time_elpased: 9.559
#iterations: 57
currently lose_sum: 0.25560688972473145
time_elpased: 9.713
#iterations: 58
currently lose_sum: 0.22040767967700958
time_elpased: 9.838
#iterations: 59
currently lose_sum: 0.2998952269554138
time_elpased: 9.741
start validation test
0.752232142857
0.832167832168
0.634666666667
0.720121028744
0.752759342302
37.589
#iterations: 60
currently lose_sum: 0.3125476837158203
time_elpased: 9.6
#iterations: 61
currently lose_sum: 0.45828479528427124
time_elpased: 9.588
#iterations: 62
currently lose_sum: 0.45843058824539185
time_elpased: 9.629
#iterations: 63
currently lose_sum: 0.5549605488777161
time_elpased: 9.706
#iterations: 64
currently lose_sum: 0.3003614544868469
time_elpased: 9.813
#iterations: 65
currently lose_sum: 0.21062597632408142
time_elpased: 9.682
#iterations: 66
currently lose_sum: 0.29631370306015015
time_elpased: 9.585
#iterations: 67
currently lose_sum: 0.41148456931114197
time_elpased: 9.681
#iterations: 68
currently lose_sum: 0.30333206057548523
time_elpased: 9.638
#iterations: 69
currently lose_sum: 0.14972202479839325
time_elpased: 9.858
#iterations: 70
currently lose_sum: 0.24983641505241394
time_elpased: 9.681
#iterations: 71
currently lose_sum: 0.42173367738723755
time_elpased: 9.613
#iterations: 72
currently lose_sum: 0.25686556100845337
time_elpased: 9.61
#iterations: 73
currently lose_sum: 0.1948167085647583
time_elpased: 9.583
#iterations: 74
currently lose_sum: 0.3195619285106659
time_elpased: 9.643
#iterations: 75
currently lose_sum: 0.3569663166999817
time_elpased: 9.596
#iterations: 76
currently lose_sum: 0.33028721809387207
time_elpased: 9.586
#iterations: 77
currently lose_sum: 0.42318129539489746
time_elpased: 9.761
#iterations: 78
currently lose_sum: 0.35006317496299744
time_elpased: 9.658
#iterations: 79
currently lose_sum: 0.29029589891433716
time_elpased: 9.614
start validation test
0.74375
0.833939393939
0.611555555556
0.705641025641
0.744342800199
37.152
#iterations: 80
currently lose_sum: 0.2959209084510803
time_elpased: 9.668
#iterations: 81
currently lose_sum: 0.3073750138282776
time_elpased: 9.736
#iterations: 82
currently lose_sum: 0.45118850469589233
time_elpased: 9.624
#iterations: 83
currently lose_sum: 0.2748688757419586
time_elpased: 9.551
#iterations: 84
currently lose_sum: 0.1135200709104538
time_elpased: 9.553
#iterations: 85
currently lose_sum: 0.3094610869884491
time_elpased: 9.59
#iterations: 86
currently lose_sum: 0.3120900094509125
time_elpased: 9.722
#iterations: 87
currently lose_sum: 0.15313920378684998
time_elpased: 9.735
#iterations: 88
currently lose_sum: 0.3738744556903839
time_elpased: 9.732
#iterations: 89
currently lose_sum: 0.4243013858795166
time_elpased: 9.638
#iterations: 90
currently lose_sum: 0.23928555846214294
time_elpased: 9.725
#iterations: 91
currently lose_sum: 0.23634977638721466
time_elpased: 9.669
#iterations: 92
currently lose_sum: 0.29370224475860596
time_elpased: 9.612
#iterations: 93
currently lose_sum: 0.2598668932914734
time_elpased: 9.645
#iterations: 94
currently lose_sum: 0.1552656590938568
time_elpased: 9.618
#iterations: 95
currently lose_sum: 0.3465091288089752
time_elpased: 9.7
#iterations: 96
currently lose_sum: 0.2251751869916916
time_elpased: 9.688
#iterations: 97
currently lose_sum: 0.36568373441696167
time_elpased: 9.659
#iterations: 98
currently lose_sum: 0.22193250060081482
time_elpased: 9.851
#iterations: 99
currently lose_sum: 0.27595973014831543
time_elpased: 9.606
start validation test
0.751785714286
0.819304152637
0.648888888889
0.724206349206
0.752247135027
36.377
#iterations: 100
currently lose_sum: 0.19779019057750702
time_elpased: 9.667
#iterations: 101
currently lose_sum: 0.2829839587211609
time_elpased: 9.616
#iterations: 102
currently lose_sum: 0.25736966729164124
time_elpased: 9.595
#iterations: 103
currently lose_sum: 0.29275044798851013
time_elpased: 9.606
#iterations: 104
currently lose_sum: 0.16485591232776642
time_elpased: 9.579
#iterations: 105
currently lose_sum: 0.17165063321590424
time_elpased: 9.647
#iterations: 106
currently lose_sum: 0.20528772473335266
time_elpased: 9.72
#iterations: 107
currently lose_sum: 0.3571607172489166
time_elpased: 9.645
#iterations: 108
currently lose_sum: 0.1804652214050293
time_elpased: 9.664
#iterations: 109
currently lose_sum: 0.1855039894580841
time_elpased: 9.623
#iterations: 110
currently lose_sum: 0.4048537313938141
time_elpased: 9.611
#iterations: 111
currently lose_sum: 0.12088160216808319
time_elpased: 9.601
#iterations: 112
currently lose_sum: 0.24892297387123108
time_elpased: 9.592
#iterations: 113
currently lose_sum: 0.20126518607139587
time_elpased: 9.623
#iterations: 114
currently lose_sum: 0.24974684417247772
time_elpased: 9.621
#iterations: 115
currently lose_sum: 0.09170675277709961
time_elpased: 9.575
#iterations: 116
currently lose_sum: 0.1714257448911667
time_elpased: 9.683
#iterations: 117
currently lose_sum: 0.4060540199279785
time_elpased: 9.652
#iterations: 118
currently lose_sum: 0.2355806827545166
time_elpased: 9.65
#iterations: 119
currently lose_sum: 0.29003897309303284
time_elpased: 9.624
start validation test
0.770535714286
0.82328042328
0.691555555556
0.751690821256
0.770889885401
42.266
#iterations: 120
currently lose_sum: 0.2081475555896759
time_elpased: 9.64
#iterations: 121
currently lose_sum: 0.27333909273147583
time_elpased: 9.593
#iterations: 122
currently lose_sum: 0.27043789625167847
time_elpased: 9.664
#iterations: 123
currently lose_sum: 0.2380986511707306
time_elpased: 9.803
#iterations: 124
currently lose_sum: 0.40154343843460083
time_elpased: 9.628
#iterations: 125
currently lose_sum: 0.3473075330257416
time_elpased: 9.626
#iterations: 126
currently lose_sum: 0.11669138818979263
time_elpased: 9.732
#iterations: 127
currently lose_sum: 0.2044541835784912
time_elpased: 9.635
#iterations: 128
currently lose_sum: 0.08438245207071304
time_elpased: 9.555
#iterations: 129
currently lose_sum: 0.3264535069465637
time_elpased: 9.57
#iterations: 130
currently lose_sum: 0.2982304096221924
time_elpased: 9.598
#iterations: 131
currently lose_sum: 0.10534653812646866
time_elpased: 9.626
#iterations: 132
currently lose_sum: 0.18927738070487976
time_elpased: 9.585
#iterations: 133
currently lose_sum: 0.1930495798587799
time_elpased: 9.594
#iterations: 134
currently lose_sum: 0.11332249641418457
time_elpased: 9.638
#iterations: 135
currently lose_sum: 0.1423862874507904
time_elpased: 9.592
#iterations: 136
currently lose_sum: 0.13810515403747559
time_elpased: 9.662
#iterations: 137
currently lose_sum: 0.17954716086387634
time_elpased: 9.588
#iterations: 138
currently lose_sum: 0.1994726061820984
time_elpased: 9.606
#iterations: 139
currently lose_sum: 0.30907487869262695
time_elpased: 9.621
start validation test
0.758928571429
0.842907385698
0.639111111111
0.726996966633
0.759465869457
47.253
#iterations: 140
currently lose_sum: 0.22275789082050323
time_elpased: 9.633
#iterations: 141
currently lose_sum: 0.2514023184776306
time_elpased: 9.634
#iterations: 142
currently lose_sum: 0.2066832035779953
time_elpased: 9.601
#iterations: 143
currently lose_sum: 0.30250924825668335
time_elpased: 9.608
#iterations: 144
currently lose_sum: 0.16329216957092285
time_elpased: 9.605
#iterations: 145
currently lose_sum: 0.1373634934425354
time_elpased: 9.634
#iterations: 146
currently lose_sum: 0.1438034027814865
time_elpased: 9.595
#iterations: 147
currently lose_sum: 0.10256465524435043
time_elpased: 9.587
#iterations: 148
currently lose_sum: 0.24830634891986847
time_elpased: 9.628
#iterations: 149
currently lose_sum: 0.18361854553222656
time_elpased: 9.606
#iterations: 150
currently lose_sum: 0.12681838870048523
time_elpased: 9.572
#iterations: 151
currently lose_sum: 0.2417205274105072
time_elpased: 9.855
#iterations: 152
currently lose_sum: 0.267376184463501
time_elpased: 9.712
#iterations: 153
currently lose_sum: 0.3164401054382324
time_elpased: 9.755
#iterations: 154
currently lose_sum: 0.26791444420814514
time_elpased: 9.636
#iterations: 155
currently lose_sum: 0.1556900143623352
time_elpased: 9.815
#iterations: 156
currently lose_sum: 0.32947468757629395
time_elpased: 9.559
#iterations: 157
currently lose_sum: 0.21625888347625732
time_elpased: 9.586
#iterations: 158
currently lose_sum: 0.21294789016246796
time_elpased: 9.682
#iterations: 159
currently lose_sum: 0.40170401334762573
time_elpased: 9.64
start validation test
0.750446428571
0.849382716049
0.611555555556
0.711111111111
0.751069257598
53.129
#iterations: 160
currently lose_sum: 0.2551923394203186
time_elpased: 9.703
#iterations: 161
currently lose_sum: 0.3023039400577545
time_elpased: 9.567
#iterations: 162
currently lose_sum: 0.27691107988357544
time_elpased: 9.703
#iterations: 163
currently lose_sum: 0.2920231819152832
time_elpased: 9.558
#iterations: 164
currently lose_sum: 0.22831618785858154
time_elpased: 9.619
#iterations: 165
currently lose_sum: 0.10613040626049042
time_elpased: 9.629
#iterations: 166
currently lose_sum: 0.21618270874023438
time_elpased: 9.591
#iterations: 167
currently lose_sum: 0.22893866896629333
time_elpased: 9.659
#iterations: 168
currently lose_sum: 0.20297908782958984
time_elpased: 9.763
#iterations: 169
currently lose_sum: 0.10470853000879288
time_elpased: 9.63
#iterations: 170
currently lose_sum: 0.21111956238746643
time_elpased: 9.588
#iterations: 171
currently lose_sum: 0.281694233417511
time_elpased: 9.932
#iterations: 172
currently lose_sum: 0.06354858726263046
time_elpased: 9.718
#iterations: 173
currently lose_sum: 0.3161700963973999
time_elpased: 9.568
#iterations: 174
currently lose_sum: 0.10509040206670761
time_elpased: 9.611
#iterations: 175
currently lose_sum: 0.13976112008094788
time_elpased: 9.9
#iterations: 176
currently lose_sum: 0.09293314069509506
time_elpased: 9.675
#iterations: 177
currently lose_sum: 0.1821204125881195
time_elpased: 9.597
#iterations: 178
currently lose_sum: 0.22500362992286682
time_elpased: 9.595
#iterations: 179
currently lose_sum: 0.13776421546936035
time_elpased: 9.612
start validation test
0.750446428571
0.865633074935
0.595555555556
0.705634544497
0.751141006477
51.843
#iterations: 180
currently lose_sum: 0.2127135694026947
time_elpased: 9.566
#iterations: 181
currently lose_sum: 0.1828201860189438
time_elpased: 9.628
#iterations: 182
currently lose_sum: 0.15953458845615387
time_elpased: 9.61
#iterations: 183
currently lose_sum: 0.053394149988889694
time_elpased: 9.57
#iterations: 184
currently lose_sum: 0.28402864933013916
time_elpased: 9.652
#iterations: 185
currently lose_sum: 0.15470735728740692
time_elpased: 9.625
#iterations: 186
currently lose_sum: 0.1631384938955307
time_elpased: 9.579
#iterations: 187
currently lose_sum: 0.2594795823097229
time_elpased: 9.614
#iterations: 188
currently lose_sum: 0.27683863043785095
time_elpased: 9.714
#iterations: 189
currently lose_sum: 0.06668739020824432
time_elpased: 9.583
#iterations: 190
currently lose_sum: 0.10424850136041641
time_elpased: 9.559
#iterations: 191
currently lose_sum: 0.1262398213148117
time_elpased: 9.578
#iterations: 192
currently lose_sum: 0.33080819249153137
time_elpased: 9.591
#iterations: 193
currently lose_sum: 0.15709614753723145
time_elpased: 9.63
#iterations: 194
currently lose_sum: 0.14896264672279358
time_elpased: 9.636
#iterations: 195
currently lose_sum: 0.2610478401184082
time_elpased: 9.601
#iterations: 196
currently lose_sum: 0.061509884893894196
time_elpased: 9.566
#iterations: 197
currently lose_sum: 0.06894727051258087
time_elpased: 9.598
#iterations: 198
currently lose_sum: 0.15522658824920654
time_elpased: 9.571
#iterations: 199
currently lose_sum: 0.22164669632911682
time_elpased: 9.595
start validation test
0.751339285714
0.860406091371
0.602666666667
0.708834291688
0.752005979073
52.842
#iterations: 200
currently lose_sum: 0.1170329600572586
time_elpased: 9.549
#iterations: 201
currently lose_sum: 0.15906819701194763
time_elpased: 9.573
#iterations: 202
currently lose_sum: 0.0641183853149414
time_elpased: 9.636
#iterations: 203
currently lose_sum: 0.13233187794685364
time_elpased: 9.585
#iterations: 204
currently lose_sum: 0.19393309950828552
time_elpased: 9.676
#iterations: 205
currently lose_sum: 0.15808303654193878
time_elpased: 9.716
#iterations: 206
currently lose_sum: 0.19263359904289246
time_elpased: 9.641
#iterations: 207
currently lose_sum: 0.11018343269824982
time_elpased: 9.588
#iterations: 208
currently lose_sum: 0.15197429060935974
time_elpased: 9.717
#iterations: 209
currently lose_sum: 0.16055458784103394
time_elpased: 9.865
#iterations: 210
currently lose_sum: 0.25394272804260254
time_elpased: 9.595
#iterations: 211
currently lose_sum: 0.09923498332500458
time_elpased: 9.725
#iterations: 212
currently lose_sum: 0.12904909253120422
time_elpased: 9.719
#iterations: 213
currently lose_sum: 0.10510442405939102
time_elpased: 9.716
#iterations: 214
currently lose_sum: 0.12197832018136978
time_elpased: 9.747
#iterations: 215
currently lose_sum: 0.06083953380584717
time_elpased: 9.575
#iterations: 216
currently lose_sum: 0.12543858587741852
time_elpased: 9.824
#iterations: 217
currently lose_sum: 0.1674194633960724
time_elpased: 9.732
#iterations: 218
currently lose_sum: 0.10829414427280426
time_elpased: 9.59
#iterations: 219
currently lose_sum: 0.22034212946891785
time_elpased: 9.637
start validation test
0.730357142857
0.86030428769
0.552888888889
0.67316017316
0.731152964624
64.269
#iterations: 220
currently lose_sum: 0.03556336089968681
time_elpased: 9.594
#iterations: 221
currently lose_sum: 0.18559487164020538
time_elpased: 9.553
#iterations: 222
currently lose_sum: 0.0850035771727562
time_elpased: 9.593
#iterations: 223
currently lose_sum: 0.24761752784252167
time_elpased: 9.591
#iterations: 224
currently lose_sum: 0.23939256370067596
time_elpased: 9.644
#iterations: 225
currently lose_sum: 0.13285982608795166
time_elpased: 9.619
#iterations: 226
currently lose_sum: 0.17743706703186035
time_elpased: 9.571
#iterations: 227
currently lose_sum: 0.239582821726799
time_elpased: 9.549
#iterations: 228
currently lose_sum: 0.19101062417030334
time_elpased: 9.638
#iterations: 229
currently lose_sum: 0.11762609332799911
time_elpased: 9.912
#iterations: 230
currently lose_sum: 0.3378758430480957
time_elpased: 9.607
#iterations: 231
currently lose_sum: 0.054254185408353806
time_elpased: 9.619
#iterations: 232
currently lose_sum: 0.27176541090011597
time_elpased: 9.604
#iterations: 233
currently lose_sum: 0.08549785614013672
time_elpased: 9.558
#iterations: 234
currently lose_sum: 0.25088533759117126
time_elpased: 9.598
#iterations: 235
currently lose_sum: 0.12462835013866425
time_elpased: 9.561
#iterations: 236
currently lose_sum: 0.188191756606102
time_elpased: 9.587
#iterations: 237
currently lose_sum: 0.2323683798313141
time_elpased: 9.572
#iterations: 238
currently lose_sum: 0.10562889277935028
time_elpased: 9.689
#iterations: 239
currently lose_sum: 0.15330079197883606
time_elpased: 9.66
start validation test
0.734821428571
0.88986784141
0.538666666667
0.671096345515
0.735701046338
68.061
#iterations: 240
currently lose_sum: 0.2545451521873474
time_elpased: 9.689
#iterations: 241
currently lose_sum: 0.18810757994651794
time_elpased: 9.589
#iterations: 242
currently lose_sum: 0.26558244228363037
time_elpased: 9.718
#iterations: 243
currently lose_sum: 0.08353725075721741
time_elpased: 9.641
#iterations: 244
currently lose_sum: 0.3554617464542389
time_elpased: 9.589
#iterations: 245
currently lose_sum: 0.17517852783203125
time_elpased: 9.624
#iterations: 246
currently lose_sum: 0.0984186977148056
time_elpased: 9.631
#iterations: 247
currently lose_sum: 0.0478777140378952
time_elpased: 9.584
#iterations: 248
currently lose_sum: 0.11620094627141953
time_elpased: 9.63
#iterations: 249
currently lose_sum: 0.2267790287733078
time_elpased: 9.579
#iterations: 250
currently lose_sum: 0.2667570114135742
time_elpased: 9.591
#iterations: 251
currently lose_sum: 0.07294539362192154
time_elpased: 9.93
#iterations: 252
currently lose_sum: 0.153143972158432
time_elpased: 9.738
#iterations: 253
currently lose_sum: 0.0773511752486229
time_elpased: 9.625
#iterations: 254
currently lose_sum: 0.10001318156719208
time_elpased: 9.661
#iterations: 255
currently lose_sum: 0.14745327830314636
time_elpased: 9.671
#iterations: 256
currently lose_sum: 0.11336193978786469
time_elpased: 9.716
#iterations: 257
currently lose_sum: 0.2031743824481964
time_elpased: 9.597
#iterations: 258
currently lose_sum: 0.05093374103307724
time_elpased: 9.632
#iterations: 259
currently lose_sum: 0.15562021732330322
time_elpased: 9.577
start validation test
0.734375
0.886297376093
0.540444444444
0.671452236334
0.735244643747
62.819
#iterations: 260
currently lose_sum: 0.19991615414619446
time_elpased: 9.658
#iterations: 261
currently lose_sum: 0.05118116736412048
time_elpased: 9.616
#iterations: 262
currently lose_sum: 0.10256675630807877
time_elpased: 9.6
#iterations: 263
currently lose_sum: 0.058546531945466995
time_elpased: 9.619
#iterations: 264
currently lose_sum: 0.08807233721017838
time_elpased: 9.602
#iterations: 265
currently lose_sum: 0.160188227891922
time_elpased: 9.598
#iterations: 266
currently lose_sum: 0.14966318011283875
time_elpased: 9.577
#iterations: 267
currently lose_sum: 0.11885812133550644
time_elpased: 9.574
#iterations: 268
currently lose_sum: 0.26934394240379333
time_elpased: 9.624
#iterations: 269
currently lose_sum: 0.08795104920864105
time_elpased: 9.883
#iterations: 270
currently lose_sum: 0.17605772614479065
time_elpased: 9.562
#iterations: 271
currently lose_sum: 0.14882954955101013
time_elpased: 9.682
#iterations: 272
currently lose_sum: 0.16372300684452057
time_elpased: 9.633
#iterations: 273
currently lose_sum: 0.09979312121868134
time_elpased: 9.608
#iterations: 274
currently lose_sum: 0.2201758325099945
time_elpased: 9.685
#iterations: 275
currently lose_sum: 0.25041109323501587
time_elpased: 9.669
#iterations: 276
currently lose_sum: 0.18840435147285461
time_elpased: 9.846
#iterations: 277
currently lose_sum: 0.1722867786884308
time_elpased: 9.595
#iterations: 278
currently lose_sum: 0.15761761367321014
time_elpased: 9.62
#iterations: 279
currently lose_sum: 0.05620157718658447
time_elpased: 9.667
start validation test
0.722767857143
0.896226415094
0.506666666667
0.647359454855
0.723736920777
69.096
#iterations: 280
currently lose_sum: 0.0979156494140625
time_elpased: 9.619
#iterations: 281
currently lose_sum: 0.05471615120768547
time_elpased: 9.605
#iterations: 282
currently lose_sum: 0.12454614788293839
time_elpased: 9.575
#iterations: 283
currently lose_sum: 0.22666163742542267
time_elpased: 9.61
#iterations: 284
currently lose_sum: 0.1320325881242752
time_elpased: 9.626
#iterations: 285
currently lose_sum: 0.22400780022144318
time_elpased: 9.605
#iterations: 286
currently lose_sum: 0.2120533436536789
time_elpased: 9.754
#iterations: 287
currently lose_sum: 0.09712834656238556
time_elpased: 9.598
#iterations: 288
currently lose_sum: 0.2813846468925476
time_elpased: 9.595
#iterations: 289
currently lose_sum: 0.10278292745351791
time_elpased: 9.559
#iterations: 290
currently lose_sum: 0.17107929289340973
time_elpased: 9.62
#iterations: 291
currently lose_sum: 0.24891197681427002
time_elpased: 9.599
#iterations: 292
currently lose_sum: 0.06871339678764343
time_elpased: 9.89
#iterations: 293
currently lose_sum: 0.1078929528594017
time_elpased: 9.752
#iterations: 294
currently lose_sum: 0.1891343891620636
time_elpased: 9.631
#iterations: 295
currently lose_sum: 0.13818466663360596
time_elpased: 9.6
#iterations: 296
currently lose_sum: 0.2183741331100464
time_elpased: 9.706
#iterations: 297
currently lose_sum: 0.13573846220970154
time_elpased: 9.637
#iterations: 298
currently lose_sum: 0.16490371525287628
time_elpased: 9.576
#iterations: 299
currently lose_sum: 0.1033937931060791
time_elpased: 9.592
start validation test
0.716071428571
0.886255924171
0.498666666667
0.638225255973
0.717046337818
68.424
#iterations: 300
currently lose_sum: 0.05702570080757141
time_elpased: 9.612
#iterations: 301
currently lose_sum: 0.039637576788663864
time_elpased: 9.565
#iterations: 302
currently lose_sum: 0.18099285662174225
time_elpased: 9.632
#iterations: 303
currently lose_sum: 0.06669916957616806
time_elpased: 9.682
#iterations: 304
currently lose_sum: 0.0395335778594017
time_elpased: 9.574
#iterations: 305
currently lose_sum: 0.05870660021901131
time_elpased: 9.631
#iterations: 306
currently lose_sum: 0.10039849579334259
time_elpased: 9.795
#iterations: 307
currently lose_sum: 0.10173940658569336
time_elpased: 9.668
#iterations: 308
currently lose_sum: 0.10694656521081924
time_elpased: 9.576
#iterations: 309
currently lose_sum: 0.1829971969127655
time_elpased: 9.567
#iterations: 310
currently lose_sum: 0.22131690382957458
time_elpased: 9.603
#iterations: 311
currently lose_sum: 0.19579751789569855
time_elpased: 9.565
#iterations: 312
currently lose_sum: 0.15058594942092896
time_elpased: 9.704
#iterations: 313
currently lose_sum: 0.10747532546520233
time_elpased: 9.575
#iterations: 314
currently lose_sum: 0.02823728881776333
time_elpased: 9.64
#iterations: 315
currently lose_sum: 0.06013406068086624
time_elpased: 9.601
#iterations: 316
currently lose_sum: 0.14175528287887573
time_elpased: 9.815
#iterations: 317
currently lose_sum: 0.027654528617858887
time_elpased: 9.74
#iterations: 318
currently lose_sum: 0.14834125339984894
time_elpased: 9.642
#iterations: 319
currently lose_sum: 0.33357006311416626
time_elpased: 9.614
start validation test
0.717857142857
0.877488514548
0.509333333333
0.644544431946
0.718792227205
72.718
#iterations: 320
currently lose_sum: 0.0483524389564991
time_elpased: 9.607
#iterations: 321
currently lose_sum: 0.1304427683353424
time_elpased: 9.657
#iterations: 322
currently lose_sum: 0.049630679190158844
time_elpased: 9.578
#iterations: 323
currently lose_sum: 0.17242488265037537
time_elpased: 9.656
#iterations: 324
currently lose_sum: 0.06699570268392563
time_elpased: 9.559
#iterations: 325
currently lose_sum: 0.14782503247261047
time_elpased: 9.637
#iterations: 326
currently lose_sum: 0.054341793060302734
time_elpased: 9.615
#iterations: 327
currently lose_sum: 0.1208677738904953
time_elpased: 9.595
#iterations: 328
currently lose_sum: 0.1897619068622589
time_elpased: 9.596
#iterations: 329
currently lose_sum: 0.10571348667144775
time_elpased: 9.702
#iterations: 330
currently lose_sum: 0.07078327983617783
time_elpased: 9.658
#iterations: 331
currently lose_sum: 0.02244027517735958
time_elpased: 9.621
#iterations: 332
currently lose_sum: 0.09440943598747253
time_elpased: 9.622
#iterations: 333
currently lose_sum: 0.20904302597045898
time_elpased: 9.6
#iterations: 334
currently lose_sum: 0.03924058377742767
time_elpased: 9.589
#iterations: 335
currently lose_sum: 0.08407239615917206
time_elpased: 9.614
#iterations: 336
currently lose_sum: 0.14525842666625977
time_elpased: 9.575
#iterations: 337
currently lose_sum: 0.037754494696855545
time_elpased: 9.59
#iterations: 338
currently lose_sum: 0.05579379200935364
time_elpased: 9.592
#iterations: 339
currently lose_sum: 0.14291329681873322
time_elpased: 9.557
start validation test
0.724553571429
0.895638629283
0.511111111111
0.650820599887
0.725510712506
81.780
#iterations: 340
currently lose_sum: 0.09381555020809174
time_elpased: 9.63
#iterations: 341
currently lose_sum: 0.09995732456445694
time_elpased: 9.61
#iterations: 342
currently lose_sum: 0.04550454765558243
time_elpased: 9.577
#iterations: 343
currently lose_sum: 0.03657696396112442
time_elpased: 9.719
#iterations: 344
currently lose_sum: 0.055499833077192307
time_elpased: 9.568
#iterations: 345
currently lose_sum: 0.082173652946949
time_elpased: 9.591
#iterations: 346
currently lose_sum: 0.09569818526506424
time_elpased: 9.66
#iterations: 347
currently lose_sum: 0.08900319784879684
time_elpased: 9.601
#iterations: 348
currently lose_sum: 0.08606672286987305
time_elpased: 9.651
#iterations: 349
currently lose_sum: 0.08296734094619751
time_elpased: 9.597
#iterations: 350
currently lose_sum: 0.042437635362148285
time_elpased: 9.574
#iterations: 351
currently lose_sum: 0.10649681091308594
time_elpased: 9.656
#iterations: 352
currently lose_sum: 0.208159402012825
time_elpased: 9.6
#iterations: 353
currently lose_sum: 0.1284458488225937
time_elpased: 9.626
#iterations: 354
currently lose_sum: 0.07207421958446503
time_elpased: 9.605
#iterations: 355
currently lose_sum: 0.11267713457345963
time_elpased: 9.675
#iterations: 356
currently lose_sum: 0.17738433182239532
time_elpased: 9.712
#iterations: 357
currently lose_sum: 0.050003014504909515
time_elpased: 9.623
#iterations: 358
currently lose_sum: 0.061596401035785675
time_elpased: 9.787
#iterations: 359
currently lose_sum: 0.49975475668907166
time_elpased: 9.727
start validation test
0.712053571429
0.88961038961
0.487111111111
0.629523262493
0.713062282013
94.641
#iterations: 360
currently lose_sum: 0.08911047130823135
time_elpased: 9.871
#iterations: 361
currently lose_sum: 0.08870456367731094
time_elpased: 9.588
#iterations: 362
currently lose_sum: 0.1914639174938202
time_elpased: 9.607
#iterations: 363
currently lose_sum: 0.06053030490875244
time_elpased: 9.709
#iterations: 364
currently lose_sum: 0.16674594581127167
time_elpased: 9.594
#iterations: 365
currently lose_sum: 0.06480824202299118
time_elpased: 9.594
#iterations: 366
currently lose_sum: 0.08707693964242935
time_elpased: 9.851
#iterations: 367
currently lose_sum: 0.1283464878797531
time_elpased: 9.718
#iterations: 368
currently lose_sum: 0.06781580299139023
time_elpased: 9.593
#iterations: 369
currently lose_sum: 0.08673880249261856
time_elpased: 9.635
#iterations: 370
currently lose_sum: 0.13062497973442078
time_elpased: 9.66
#iterations: 371
currently lose_sum: 0.11317615211009979
time_elpased: 9.654
#iterations: 372
currently lose_sum: 0.03239218145608902
time_elpased: 9.575
#iterations: 373
currently lose_sum: 0.18412582576274872
time_elpased: 9.591
#iterations: 374
currently lose_sum: 0.08410930633544922
time_elpased: 9.628
#iterations: 375
currently lose_sum: 0.06262535601854324
time_elpased: 9.663
#iterations: 376
currently lose_sum: 0.17996147274971008
time_elpased: 9.666
#iterations: 377
currently lose_sum: 0.06588228791952133
time_elpased: 9.629
#iterations: 378
currently lose_sum: 0.10719835758209229
time_elpased: 9.644
#iterations: 379
currently lose_sum: 0.17606352269649506
time_elpased: 9.619
start validation test
0.717410714286
0.891719745223
0.497777777778
0.63890473474
0.718395615346
85.583
#iterations: 380
currently lose_sum: 0.1581125557422638
time_elpased: 9.66
#iterations: 381
currently lose_sum: 0.2544352412223816
time_elpased: 9.667
#iterations: 382
currently lose_sum: 0.02847328409552574
time_elpased: 9.601
#iterations: 383
currently lose_sum: 0.16563785076141357
time_elpased: 9.692
#iterations: 384
currently lose_sum: 0.08745424449443817
time_elpased: 9.622
#iterations: 385
currently lose_sum: 0.06687553226947784
time_elpased: 9.638
#iterations: 386
currently lose_sum: 0.24827173352241516
time_elpased: 9.586
#iterations: 387
currently lose_sum: 0.1200769916176796
time_elpased: 9.568
#iterations: 388
currently lose_sum: 0.11472690105438232
time_elpased: 9.664
#iterations: 389
currently lose_sum: 0.15310677886009216
time_elpased: 9.592
#iterations: 390
currently lose_sum: 0.13245896995067596
time_elpased: 9.849
#iterations: 391
currently lose_sum: 0.13154900074005127
time_elpased: 10.023
#iterations: 392
currently lose_sum: 0.02867836318910122
time_elpased: 9.777
#iterations: 393
currently lose_sum: 0.027365684509277344
time_elpased: 9.738
#iterations: 394
currently lose_sum: 0.04413288086652756
time_elpased: 9.721
#iterations: 395
currently lose_sum: 0.11739623546600342
time_elpased: 9.555
#iterations: 396
currently lose_sum: 0.023422012105584145
time_elpased: 9.657
#iterations: 397
currently lose_sum: 0.01943899504840374
time_elpased: 9.596
#iterations: 398
currently lose_sum: 0.06770609319210052
time_elpased: 9.602
#iterations: 399
currently lose_sum: 0.10684482008218765
time_elpased: 9.653
start validation test
0.701785714286
0.88926746167
0.464
0.609813084112
0.702852017937
94.695
#iterations: 400
currently lose_sum: 0.05082615464925766
time_elpased: 9.64
#iterations: 401
currently lose_sum: 0.09774138033390045
time_elpased: 9.652
#iterations: 402
currently lose_sum: 0.11930276453495026
time_elpased: 9.664
#iterations: 403
currently lose_sum: 0.10242348909378052
time_elpased: 9.707
#iterations: 404
currently lose_sum: 0.0680290013551712
time_elpased: 9.806
#iterations: 405
currently lose_sum: 0.0887988954782486
time_elpased: 9.717
#iterations: 406
currently lose_sum: 0.11396081745624542
time_elpased: 9.561
#iterations: 407
currently lose_sum: 0.010687584988772869
time_elpased: 9.6
#iterations: 408
currently lose_sum: 0.11133948713541031
time_elpased: 9.604
#iterations: 409
currently lose_sum: 0.09095948934555054
time_elpased: 9.732
#iterations: 410
currently lose_sum: 0.11327849328517914
time_elpased: 9.66
#iterations: 411
currently lose_sum: 0.06120723485946655
time_elpased: 9.657
#iterations: 412
currently lose_sum: 0.06995319575071335
time_elpased: 9.71
#iterations: 413
currently lose_sum: 0.03525639697909355
time_elpased: 9.632
#iterations: 414
currently lose_sum: 0.28464171290397644
time_elpased: 9.689
#iterations: 415
currently lose_sum: 0.08945692330598831
time_elpased: 9.673
#iterations: 416
currently lose_sum: 0.026401221752166748
time_elpased: 9.642
#iterations: 417
currently lose_sum: 0.2802231013774872
time_elpased: 9.619
#iterations: 418
currently lose_sum: 0.05834024399518967
time_elpased: 9.578
#iterations: 419
currently lose_sum: 0.012424954213202
time_elpased: 9.585
start validation test
0.696428571429
0.909760589319
0.439111111111
0.592326139089
0.697582461385
107.020
#iterations: 420
currently lose_sum: 0.10877946764230728
time_elpased: 9.716
#iterations: 421
currently lose_sum: 0.11334456503391266
time_elpased: 9.747
#iterations: 422
currently lose_sum: 0.13972386717796326
time_elpased: 9.628
#iterations: 423
currently lose_sum: 0.07061013579368591
time_elpased: 9.55
#iterations: 424
currently lose_sum: 0.10574374347925186
time_elpased: 9.697
#iterations: 425
currently lose_sum: 0.14713218808174133
time_elpased: 9.62
#iterations: 426
currently lose_sum: 0.02485007792711258
time_elpased: 9.613
#iterations: 427
currently lose_sum: 0.050104279071092606
time_elpased: 9.552
#iterations: 428
currently lose_sum: 0.09443698823451996
time_elpased: 9.581
#iterations: 429
currently lose_sum: 0.053868960589170456
time_elpased: 9.615
#iterations: 430
currently lose_sum: 0.047013502568006516
time_elpased: 9.687
#iterations: 431
currently lose_sum: 0.05752572417259216
time_elpased: 9.605
#iterations: 432
currently lose_sum: 0.035849012434482574
time_elpased: 9.596
#iterations: 433
currently lose_sum: 0.10166265070438385
time_elpased: 9.619
#iterations: 434
currently lose_sum: 0.09497648477554321
time_elpased: 9.58
#iterations: 435
currently lose_sum: 0.07269463688135147
time_elpased: 9.602
#iterations: 436
currently lose_sum: 0.07696832716464996
time_elpased: 9.574
#iterations: 437
currently lose_sum: 0.035366691648960114
time_elpased: 9.646
#iterations: 438
currently lose_sum: 0.03549168258905411
time_elpased: 9.654
#iterations: 439
currently lose_sum: 0.08710535615682602
time_elpased: 9.575
start validation test
0.710267857143
0.888888888889
0.483555555556
0.626367299942
0.711284504235
96.191
#iterations: 440
currently lose_sum: 0.10737284272909164
time_elpased: 9.599
#iterations: 441
currently lose_sum: 0.15297718346118927
time_elpased: 9.568
#iterations: 442
currently lose_sum: 0.06992103159427643
time_elpased: 9.694
#iterations: 443
currently lose_sum: 0.16118267178535461
time_elpased: 9.784
#iterations: 444
currently lose_sum: 0.09886026382446289
time_elpased: 9.631
#iterations: 445
currently lose_sum: 0.13547518849372864
time_elpased: 9.579
#iterations: 446
currently lose_sum: 0.013732174411416054
time_elpased: 9.59
#iterations: 447
currently lose_sum: 0.07014653831720352
time_elpased: 9.655
#iterations: 448
currently lose_sum: 0.09283824265003204
time_elpased: 9.585
#iterations: 449
currently lose_sum: 0.03965415805578232
time_elpased: 9.556
#iterations: 450
currently lose_sum: 0.12231224775314331
time_elpased: 9.604
#iterations: 451
currently lose_sum: 0.04274477809667587
time_elpased: 9.572
#iterations: 452
currently lose_sum: 0.16023977100849152
time_elpased: 9.633
#iterations: 453
currently lose_sum: 0.10445578396320343
time_elpased: 9.639
#iterations: 454
currently lose_sum: 0.06756844371557236
time_elpased: 9.602
#iterations: 455
currently lose_sum: 0.04944770038127899
time_elpased: 9.606
#iterations: 456
currently lose_sum: 0.035720471292734146
time_elpased: 9.614
#iterations: 457
currently lose_sum: 0.00964474119246006
time_elpased: 9.604
#iterations: 458
currently lose_sum: 0.016306906938552856
time_elpased: 9.611
#iterations: 459
currently lose_sum: 0.03013879619538784
time_elpased: 9.556
start validation test
0.691517857143
0.907894736842
0.429333333333
0.582981291491
0.692693572496
103.391
#iterations: 460
currently lose_sum: 0.021369490772485733
time_elpased: 9.748
#iterations: 461
currently lose_sum: 0.05771418288350105
time_elpased: 9.668
#iterations: 462
currently lose_sum: 0.05047033354640007
time_elpased: 9.556
#iterations: 463
currently lose_sum: 0.02256421186029911
time_elpased: 9.621
#iterations: 464
currently lose_sum: 0.03564119338989258
time_elpased: 9.65
#iterations: 465
currently lose_sum: 0.20150133967399597
time_elpased: 9.593
#iterations: 466
currently lose_sum: 0.08316967636346817
time_elpased: 9.604
#iterations: 467
currently lose_sum: 0.1726389080286026
time_elpased: 9.601
#iterations: 468
currently lose_sum: 0.08276556432247162
time_elpased: 9.617
#iterations: 469
currently lose_sum: 0.032023437321186066
time_elpased: 9.599
#iterations: 470
currently lose_sum: 0.18482080101966858
time_elpased: 9.569
#iterations: 471
currently lose_sum: 0.10910825431346893
time_elpased: 9.729
#iterations: 472
currently lose_sum: 0.2096276581287384
time_elpased: 9.719
#iterations: 473
currently lose_sum: 0.1960621178150177
time_elpased: 9.626
#iterations: 474
currently lose_sum: 0.04650137573480606
time_elpased: 9.653
#iterations: 475
currently lose_sum: 0.03151936084032059
time_elpased: 9.571
#iterations: 476
currently lose_sum: 0.0944853276014328
time_elpased: 9.595
#iterations: 477
currently lose_sum: 0.17355814576148987
time_elpased: 9.626
#iterations: 478
currently lose_sum: 0.02440711297094822
time_elpased: 9.717
#iterations: 479
currently lose_sum: 0.019707927480340004
time_elpased: 9.644
start validation test
0.681696428571
0.894636015326
0.415111111111
0.567091681846
0.682891878426
114.136
#iterations: 480
currently lose_sum: 0.02055336907505989
time_elpased: 9.637
#iterations: 481
currently lose_sum: 0.01018089335411787
time_elpased: 9.653
#iterations: 482
currently lose_sum: 0.09699779003858566
time_elpased: 9.598
#iterations: 483
currently lose_sum: 0.060350704938173294
time_elpased: 9.636
#iterations: 484
currently lose_sum: 0.024820707738399506
time_elpased: 9.575
#iterations: 485
currently lose_sum: 0.09794099628925323
time_elpased: 9.64
#iterations: 486
currently lose_sum: 0.0657760351896286
time_elpased: 9.592
#iterations: 487
currently lose_sum: 0.15629900991916656
time_elpased: 9.633
#iterations: 488
currently lose_sum: 0.0886540338397026
time_elpased: 9.61
#iterations: 489
currently lose_sum: 0.09041772782802582
time_elpased: 9.648
#iterations: 490
currently lose_sum: 0.017415538430213928
time_elpased: 9.622
#iterations: 491
currently lose_sum: 0.1027308851480484
time_elpased: 9.698
#iterations: 492
currently lose_sum: 0.09485432505607605
time_elpased: 9.606
#iterations: 493
currently lose_sum: 0.032594989985227585
time_elpased: 9.674
#iterations: 494
currently lose_sum: 0.1275102198123932
time_elpased: 9.653
#iterations: 495
currently lose_sum: 0.17447148263454437
time_elpased: 9.69
#iterations: 496
currently lose_sum: 0.015181262977421284
time_elpased: 9.631
#iterations: 497
currently lose_sum: 0.07296992838382721
time_elpased: 9.655
#iterations: 498
currently lose_sum: 0.06073839217424393
time_elpased: 9.581
#iterations: 499
currently lose_sum: 0.14210879802703857
time_elpased: 9.727
start validation test
0.692857142857
0.902394106814
0.435555555556
0.587529976019
0.694010961634
104.631
#iterations: 500
currently lose_sum: 0.037548381835222244
time_elpased: 9.745
#iterations: 501
currently lose_sum: 0.0266265906393528
time_elpased: 9.618
#iterations: 502
currently lose_sum: 0.04376312345266342
time_elpased: 9.592
#iterations: 503
currently lose_sum: 0.040587034076452255
time_elpased: 9.695
#iterations: 504
currently lose_sum: 0.12300004810094833
time_elpased: 9.597
#iterations: 505
currently lose_sum: 0.08953855186700821
time_elpased: 9.582
#iterations: 506
currently lose_sum: 0.08642811328172684
time_elpased: 9.605
#iterations: 507
currently lose_sum: 0.014240376651287079
time_elpased: 9.661
#iterations: 508
currently lose_sum: 0.054510168731212616
time_elpased: 9.718
#iterations: 509
currently lose_sum: 0.06420514732599258
time_elpased: 9.735
#iterations: 510
currently lose_sum: 0.15234334766864777
time_elpased: 9.732
#iterations: 511
currently lose_sum: 0.10781235992908478
time_elpased: 10.399
#iterations: 512
currently lose_sum: 0.2256486713886261
time_elpased: 11.746
#iterations: 513
currently lose_sum: 0.019894056022167206
time_elpased: 12.069
#iterations: 514
currently lose_sum: 0.02278781123459339
time_elpased: 11.98
#iterations: 515
currently lose_sum: 0.01523999311029911
time_elpased: 11.869
#iterations: 516
currently lose_sum: 0.037415359169244766
time_elpased: 11.727
#iterations: 517
currently lose_sum: 0.12829682230949402
time_elpased: 12.018
#iterations: 518
currently lose_sum: 0.21096500754356384
time_elpased: 11.853
#iterations: 519
currently lose_sum: 0.09953882545232773
time_elpased: 11.956
start validation test
0.691071428571
0.892921960073
0.437333333333
0.587112171838
0.692209267564
109.761
#iterations: 520
currently lose_sum: 0.2184721976518631
time_elpased: 12.006
#iterations: 521
currently lose_sum: 0.046484969556331635
time_elpased: 11.828
#iterations: 522
currently lose_sum: 0.09495538473129272
time_elpased: 11.977
#iterations: 523
currently lose_sum: 0.09982236474752426
time_elpased: 12.127
#iterations: 524
currently lose_sum: 0.04266221821308136
time_elpased: 11.917
#iterations: 525
currently lose_sum: 0.045015182346105576
time_elpased: 12.213
#iterations: 526
currently lose_sum: 0.12867958843708038
time_elpased: 12.225
#iterations: 527
currently lose_sum: 0.28078725934028625
time_elpased: 12.149
#iterations: 528
currently lose_sum: 0.05978839471936226
time_elpased: 11.913
#iterations: 529
currently lose_sum: 0.11076756566762924
time_elpased: 11.882
#iterations: 530
currently lose_sum: 0.12583598494529724
time_elpased: 12.319
#iterations: 531
currently lose_sum: 0.08798960596323013
time_elpased: 11.994
#iterations: 532
currently lose_sum: 0.14322593808174133
time_elpased: 12.046
#iterations: 533
currently lose_sum: 0.06633210182189941
time_elpased: 11.917
#iterations: 534
currently lose_sum: 0.12615399062633514
time_elpased: 12.041
#iterations: 535
currently lose_sum: 0.02646270953118801
time_elpased: 12.36
#iterations: 536
currently lose_sum: 0.030858438462018967
time_elpased: 12.092
#iterations: 537
currently lose_sum: 0.05346493795514107
time_elpased: 11.855
#iterations: 538
currently lose_sum: 0.07435469329357147
time_elpased: 11.999
#iterations: 539
currently lose_sum: 0.10769768059253693
time_elpased: 11.972
start validation test
0.675446428571
0.899598393574
0.398222222222
0.552064078866
0.676689586447
123.490
#iterations: 540
currently lose_sum: 0.1514451801776886
time_elpased: 11.902
#iterations: 541
currently lose_sum: 0.04309173673391342
time_elpased: 12.155
#iterations: 542
currently lose_sum: 0.09994543343782425
time_elpased: 12.175
#iterations: 543
currently lose_sum: 0.1429729163646698
time_elpased: 12.485
#iterations: 544
currently lose_sum: 0.14483286440372467
time_elpased: 12.132
#iterations: 545
currently lose_sum: 0.10921049118041992
time_elpased: 12.402
#iterations: 546
currently lose_sum: 0.12197127193212509
time_elpased: 12.018
#iterations: 547
currently lose_sum: 0.13187219202518463
time_elpased: 12.068
#iterations: 548
currently lose_sum: 0.09560075402259827
time_elpased: 11.894
#iterations: 549
currently lose_sum: 0.019405905157327652
time_elpased: 12.171
#iterations: 550
currently lose_sum: 0.006302396766841412
time_elpased: 11.901
#iterations: 551
currently lose_sum: 0.12878742814064026
time_elpased: 12.119
#iterations: 552
currently lose_sum: 0.01935591921210289
time_elpased: 12.186
#iterations: 553
currently lose_sum: 0.15947870910167694
time_elpased: 12.465
#iterations: 554
currently lose_sum: 0.020686695352196693
time_elpased: 11.88
#iterations: 555
currently lose_sum: 0.10905994474887848
time_elpased: 11.953
#iterations: 556
currently lose_sum: 0.15486976504325867
time_elpased: 11.942
#iterations: 557
currently lose_sum: 0.0899491235613823
time_elpased: 11.888
#iterations: 558
currently lose_sum: 0.04027809202671051
time_elpased: 12.038
#iterations: 559
currently lose_sum: 0.011951749213039875
time_elpased: 12.01
start validation test
0.679464285714
0.899803536346
0.407111111111
0.5605875153
0.680685600399
120.562
#iterations: 560
currently lose_sum: 0.16083984076976776
time_elpased: 12.222
#iterations: 561
currently lose_sum: 0.08241937309503555
time_elpased: 12.081
#iterations: 562
currently lose_sum: 0.01020081527531147
time_elpased: 12.048
#iterations: 563
currently lose_sum: 0.02377520501613617
time_elpased: 11.993
#iterations: 564
currently lose_sum: 0.1318478286266327
time_elpased: 11.965
#iterations: 565
currently lose_sum: 0.10265950858592987
time_elpased: 12.057
#iterations: 566
currently lose_sum: 0.06861744821071625
time_elpased: 11.834
#iterations: 567
currently lose_sum: 0.021987702697515488
time_elpased: 12.097
#iterations: 568
currently lose_sum: 0.17813564836978912
time_elpased: 12.102
#iterations: 569
currently lose_sum: 0.010669603012502193
time_elpased: 11.904
#iterations: 570
currently lose_sum: 0.02108714170753956
time_elpased: 11.956
#iterations: 571
currently lose_sum: 0.06613458693027496
time_elpased: 11.824
#iterations: 572
currently lose_sum: 0.09541000425815582
time_elpased: 12.154
#iterations: 573
currently lose_sum: 0.037055160850286484
time_elpased: 12.281
#iterations: 574
currently lose_sum: 0.10236485302448273
time_elpased: 12.099
#iterations: 575
currently lose_sum: 0.05461902171373367
time_elpased: 12.027
#iterations: 576
currently lose_sum: 0.13512864708900452
time_elpased: 12.085
#iterations: 577
currently lose_sum: 0.05716226249933243
time_elpased: 12.086
#iterations: 578
currently lose_sum: 0.12033624947071075
time_elpased: 12.051
#iterations: 579
currently lose_sum: 0.12324266135692596
time_elpased: 11.863
start validation test
0.673214285714
0.901840490798
0.392
0.546468401487
0.674475336323
133.090
#iterations: 580
currently lose_sum: 0.038008611649274826
time_elpased: 11.941
#iterations: 581
currently lose_sum: 0.05101301148533821
time_elpased: 11.852
#iterations: 582
currently lose_sum: 0.03204622119665146
time_elpased: 12.057
#iterations: 583
currently lose_sum: 0.014227235689759254
time_elpased: 12.125
#iterations: 584
currently lose_sum: 0.07108519971370697
time_elpased: 11.837
#iterations: 585
currently lose_sum: 0.012593308463692665
time_elpased: 11.892
#iterations: 586
currently lose_sum: 0.058213114738464355
time_elpased: 12.093
#iterations: 587
currently lose_sum: 0.08976422995328903
time_elpased: 12.054
#iterations: 588
currently lose_sum: 0.0805397555232048
time_elpased: 11.976
#iterations: 589
currently lose_sum: 0.012634309940040112
time_elpased: 11.941
#iterations: 590
currently lose_sum: 0.05120216682553291
time_elpased: 12.375
#iterations: 591
currently lose_sum: 0.03469527140259743
time_elpased: 11.99
#iterations: 592
currently lose_sum: 0.10640273243188858
time_elpased: 12.566
#iterations: 593
currently lose_sum: 0.01647672988474369
time_elpased: 12.009
#iterations: 594
currently lose_sum: 0.0284647885710001
time_elpased: 11.848
#iterations: 595
currently lose_sum: 0.07462149858474731
time_elpased: 12.183
#iterations: 596
currently lose_sum: 0.021654697135090828
time_elpased: 12.182
#iterations: 597
currently lose_sum: 0.038072336465120316
time_elpased: 11.719
#iterations: 598
currently lose_sum: 0.06389141827821732
time_elpased: 12.035
#iterations: 599
currently lose_sum: 0.02886008657515049
time_elpased: 11.926
start validation test
0.675892857143
0.901408450704
0.398222222222
0.552404438964
0.677138016941
128.803
acc: 0.753
pre: 0.775
rec: 0.714
F1: 0.744
auc: 0.753
