start to construct computing graph
graph construct over
3372
epochs start
#iterations: 0
currently lose_sum: 0.650133490562439
time_elpased: 2.668
#iterations: 1
currently lose_sum: 0.6056615114212036
time_elpased: 2.61
#iterations: 2
currently lose_sum: 0.5981768369674683
time_elpased: 2.638
#iterations: 3
currently lose_sum: 0.5839170217514038
time_elpased: 2.639
#iterations: 4
currently lose_sum: 0.4478182792663574
time_elpased: 2.63
#iterations: 5
currently lose_sum: 0.45701369643211365
time_elpased: 2.651
#iterations: 6
currently lose_sum: 0.5789355039596558
time_elpased: 2.614
#iterations: 7
currently lose_sum: 0.5480819940567017
time_elpased: 2.632
#iterations: 8
currently lose_sum: 0.418317973613739
time_elpased: 2.622
#iterations: 9
currently lose_sum: 0.44369086623191833
time_elpased: 2.639
#iterations: 10
currently lose_sum: 0.2877524197101593
time_elpased: 2.608
#iterations: 11
currently lose_sum: 0.39784032106399536
time_elpased: 2.627
#iterations: 12
currently lose_sum: 0.3679094910621643
time_elpased: 2.573
#iterations: 13
currently lose_sum: 0.6089454889297485
time_elpased: 2.606
#iterations: 14
currently lose_sum: 0.30108341574668884
time_elpased: 2.616
#iterations: 15
currently lose_sum: 0.34992942214012146
time_elpased: 2.646
#iterations: 16
currently lose_sum: 0.32688063383102417
time_elpased: 2.599
#iterations: 17
currently lose_sum: 0.2734817564487457
time_elpased: 2.639
#iterations: 18
currently lose_sum: 0.37471356987953186
time_elpased: 2.603
#iterations: 19
currently lose_sum: 0.5485381484031677
time_elpased: 2.621
start validation test
0.760714285714
0.844444444444
0.641777777778
0.729292929293
0.761247633284
31.122
#iterations: 20
currently lose_sum: 0.46945589780807495
time_elpased: 2.168
#iterations: 21
currently lose_sum: 0.4369613528251648
time_elpased: 2.152
#iterations: 22
currently lose_sum: 0.4684127867221832
time_elpased: 2.136
#iterations: 23
currently lose_sum: 0.4044242799282074
time_elpased: 2.159
#iterations: 24
currently lose_sum: 0.5015662312507629
time_elpased: 2.151
#iterations: 25
currently lose_sum: 0.32258349657058716
time_elpased: 2.102
#iterations: 26
currently lose_sum: 0.33808284997940063
time_elpased: 2.16
#iterations: 27
currently lose_sum: 0.3401818573474884
time_elpased: 2.117
#iterations: 28
currently lose_sum: 0.2568588852882385
time_elpased: 2.126
#iterations: 29
currently lose_sum: 0.19347505271434784
time_elpased: 2.135
#iterations: 30
currently lose_sum: 0.24805894494056702
time_elpased: 2.179
#iterations: 31
currently lose_sum: 0.4196935296058655
time_elpased: 2.126
#iterations: 32
currently lose_sum: 0.2428000420331955
time_elpased: 2.124
#iterations: 33
currently lose_sum: 0.20690517127513885
time_elpased: 2.136
#iterations: 34
currently lose_sum: 0.3431692123413086
time_elpased: 2.122
#iterations: 35
currently lose_sum: 0.2344338595867157
time_elpased: 2.124
#iterations: 36
currently lose_sum: 0.3474450707435608
time_elpased: 2.114
#iterations: 37
currently lose_sum: 0.23014184832572937
time_elpased: 2.167
#iterations: 38
currently lose_sum: 0.3758760392665863
time_elpased: 2.205
#iterations: 39
currently lose_sum: 0.3007642328739166
time_elpased: 2.163
start validation test
0.760714285714
0.80967402734
0.684444444444
0.741811175337
0.76105630294
35.181
#iterations: 40
currently lose_sum: 0.18548636138439178
time_elpased: 2.136
#iterations: 41
currently lose_sum: 0.41136932373046875
time_elpased: 2.149
#iterations: 42
currently lose_sum: 0.3025754988193512
time_elpased: 2.139
#iterations: 43
currently lose_sum: 0.4178042411804199
time_elpased: 2.143
#iterations: 44
currently lose_sum: 0.2160993069410324
time_elpased: 2.167
#iterations: 45
currently lose_sum: 0.47645121812820435
time_elpased: 2.154
#iterations: 46
currently lose_sum: 0.3381596505641937
time_elpased: 2.147
#iterations: 47
currently lose_sum: 0.27585428953170776
time_elpased: 2.187
#iterations: 48
currently lose_sum: 0.516689121723175
time_elpased: 2.137
#iterations: 49
currently lose_sum: 0.37368708848953247
time_elpased: 2.11
#iterations: 50
currently lose_sum: 0.2479897439479828
time_elpased: 2.134
#iterations: 51
currently lose_sum: 0.24884513020515442
time_elpased: 2.141
#iterations: 52
currently lose_sum: 0.5676956176757812
time_elpased: 2.153
#iterations: 53
currently lose_sum: 0.19730857014656067
time_elpased: 2.142
#iterations: 54
currently lose_sum: 0.19246992468833923
time_elpased: 2.079
#iterations: 55
currently lose_sum: 0.3831911087036133
time_elpased: 2.149
#iterations: 56
currently lose_sum: 0.42288389801979065
time_elpased: 2.156
#iterations: 57
currently lose_sum: 0.32255101203918457
time_elpased: 2.12
#iterations: 58
currently lose_sum: 0.1931644231081009
time_elpased: 2.096
#iterations: 59
currently lose_sum: 0.2134036123752594
time_elpased: 2.13
start validation test
0.757589285714
0.839160839161
0.64
0.726172465961
0.758116591928
43.002
#iterations: 60
currently lose_sum: 0.3312648832798004
time_elpased: 2.169
#iterations: 61
currently lose_sum: 0.4249417781829834
time_elpased: 2.138
#iterations: 62
currently lose_sum: 0.553997278213501
time_elpased: 2.141
#iterations: 63
currently lose_sum: 0.2949538826942444
time_elpased: 2.201
#iterations: 64
currently lose_sum: 0.2045115977525711
time_elpased: 2.113
#iterations: 65
currently lose_sum: 0.1909666359424591
time_elpased: 2.148
#iterations: 66
currently lose_sum: 0.3884999454021454
time_elpased: 2.116
#iterations: 67
currently lose_sum: 0.3561248779296875
time_elpased: 2.17
#iterations: 68
currently lose_sum: 0.22537679970264435
time_elpased: 2.155
#iterations: 69
currently lose_sum: 0.119364894926548
time_elpased: 2.11
#iterations: 70
currently lose_sum: 0.20769813656806946
time_elpased: 2.17
#iterations: 71
currently lose_sum: 0.4819527566432953
time_elpased: 2.168
#iterations: 72
currently lose_sum: 0.26269593834877014
time_elpased: 2.241
#iterations: 73
currently lose_sum: 0.2986408770084381
time_elpased: 2.183
#iterations: 74
currently lose_sum: 0.25629082322120667
time_elpased: 2.161
#iterations: 75
currently lose_sum: 0.30334097146987915
time_elpased: 2.135
#iterations: 76
currently lose_sum: 0.23837275803089142
time_elpased: 2.145
#iterations: 77
currently lose_sum: 0.32290908694267273
time_elpased: 2.169
#iterations: 78
currently lose_sum: 0.1682889759540558
time_elpased: 2.146
#iterations: 79
currently lose_sum: 0.17866811156272888
time_elpased: 2.132
start validation test
0.760714285714
0.83427922815
0.653333333333
0.732801595214
0.761195814649
45.356
#iterations: 80
currently lose_sum: 0.22637751698493958
time_elpased: 2.146
#iterations: 81
currently lose_sum: 0.20516152679920197
time_elpased: 2.171
#iterations: 82
currently lose_sum: 0.409837007522583
time_elpased: 2.153
#iterations: 83
currently lose_sum: 0.26281407475471497
time_elpased: 2.164
#iterations: 84
currently lose_sum: 0.13110636174678802
time_elpased: 2.158
#iterations: 85
currently lose_sum: 0.239153191447258
time_elpased: 2.151
#iterations: 86
currently lose_sum: 0.2523847222328186
time_elpased: 2.161
#iterations: 87
currently lose_sum: 0.17446781694889069
time_elpased: 2.118
#iterations: 88
currently lose_sum: 0.2051219940185547
time_elpased: 2.154
#iterations: 89
currently lose_sum: 0.34253600239753723
time_elpased: 2.134
#iterations: 90
currently lose_sum: 0.23784872889518738
time_elpased: 2.165
#iterations: 91
currently lose_sum: 0.21711504459381104
time_elpased: 2.145
#iterations: 92
currently lose_sum: 0.2646469473838806
time_elpased: 2.139
#iterations: 93
currently lose_sum: 0.23984560370445251
time_elpased: 2.117
#iterations: 94
currently lose_sum: 0.18997611105442047
time_elpased: 2.11
#iterations: 95
currently lose_sum: 0.2481813132762909
time_elpased: 2.179
#iterations: 96
currently lose_sum: 0.18629679083824158
time_elpased: 2.189
#iterations: 97
currently lose_sum: 0.3196635842323303
time_elpased: 2.133
#iterations: 98
currently lose_sum: 0.16722890734672546
time_elpased: 2.119
#iterations: 99
currently lose_sum: 0.10112395137548447
time_elpased: 2.141
start validation test
0.737946428571
0.847545219638
0.583111111111
0.690889942075
0.738640757349
53.232
#iterations: 100
currently lose_sum: 0.1828358769416809
time_elpased: 2.096
#iterations: 101
currently lose_sum: 0.12481275945901871
time_elpased: 2.137
#iterations: 102
currently lose_sum: 0.20484094321727753
time_elpased: 2.095
#iterations: 103
currently lose_sum: 0.25289493799209595
time_elpased: 2.148
#iterations: 104
currently lose_sum: 0.15942010283470154
time_elpased: 2.123
#iterations: 105
currently lose_sum: 0.20205143094062805
time_elpased: 2.16
#iterations: 106
currently lose_sum: 0.21774068474769592
time_elpased: 2.146
#iterations: 107
currently lose_sum: 0.1453196257352829
time_elpased: 2.108
#iterations: 108
currently lose_sum: 0.21812796592712402
time_elpased: 2.131
#iterations: 109
currently lose_sum: 0.25314176082611084
time_elpased: 2.146
#iterations: 110
currently lose_sum: 0.29304394125938416
time_elpased: 2.169
#iterations: 111
currently lose_sum: 0.2313189059495926
time_elpased: 2.144
#iterations: 112
currently lose_sum: 0.22071847319602966
time_elpased: 2.115
#iterations: 113
currently lose_sum: 0.2640168070793152
time_elpased: 2.099
#iterations: 114
currently lose_sum: 0.2195320576429367
time_elpased: 2.129
#iterations: 115
currently lose_sum: 0.06950520724058151
time_elpased: 2.136
#iterations: 116
currently lose_sum: 0.06236494332551956
time_elpased: 2.124
#iterations: 117
currently lose_sum: 0.2642541527748108
time_elpased: 2.212
#iterations: 118
currently lose_sum: 0.23867139220237732
time_elpased: 2.102
#iterations: 119
currently lose_sum: 0.24174156785011292
time_elpased: 2.124
start validation test
0.753125
0.847931873479
0.619555555556
0.715973292244
0.753723966119
53.693
#iterations: 120
currently lose_sum: 0.1836429089307785
time_elpased: 2.134
#iterations: 121
currently lose_sum: 0.1017078384757042
time_elpased: 2.182
#iterations: 122
currently lose_sum: 0.3890809118747711
time_elpased: 2.189
#iterations: 123
currently lose_sum: 0.11843018233776093
time_elpased: 2.157
#iterations: 124
currently lose_sum: 0.26217514276504517
time_elpased: 2.137
#iterations: 125
currently lose_sum: 0.2948664128780365
time_elpased: 2.135
#iterations: 126
currently lose_sum: 0.1089058369398117
time_elpased: 2.17
#iterations: 127
currently lose_sum: 0.22145874798297882
time_elpased: 2.1
#iterations: 128
currently lose_sum: 0.06769369542598724
time_elpased: 2.162
#iterations: 129
currently lose_sum: 0.2594619393348694
time_elpased: 2.168
#iterations: 130
currently lose_sum: 0.2915787696838379
time_elpased: 2.128
#iterations: 131
currently lose_sum: 0.09810096025466919
time_elpased: 2.092
#iterations: 132
currently lose_sum: 0.07180700451135635
time_elpased: 2.14
#iterations: 133
currently lose_sum: 0.2982412874698639
time_elpased: 2.115
#iterations: 134
currently lose_sum: 0.14143449068069458
time_elpased: 2.119
#iterations: 135
currently lose_sum: 0.09782330691814423
time_elpased: 2.131
#iterations: 136
currently lose_sum: 0.13338997960090637
time_elpased: 2.12
#iterations: 137
currently lose_sum: 0.2748095393180847
time_elpased: 2.135
#iterations: 138
currently lose_sum: 0.1476382613182068
time_elpased: 2.178
#iterations: 139
currently lose_sum: 0.18147866427898407
time_elpased: 2.131
start validation test
0.731696428571
0.85597826087
0.56
0.677055346588
0.732466367713
62.621
#iterations: 140
currently lose_sum: 0.1614440679550171
time_elpased: 2.184
#iterations: 141
currently lose_sum: 0.15596720576286316
time_elpased: 2.163
#iterations: 142
currently lose_sum: 0.20417805016040802
time_elpased: 2.2
#iterations: 143
currently lose_sum: 0.3315710425376892
time_elpased: 2.17
#iterations: 144
currently lose_sum: 0.06937430799007416
time_elpased: 2.151
#iterations: 145
currently lose_sum: 0.25462228059768677
time_elpased: 2.127
#iterations: 146
currently lose_sum: 0.17845764756202698
time_elpased: 2.142
#iterations: 147
currently lose_sum: 0.15115776658058167
time_elpased: 2.193
#iterations: 148
currently lose_sum: 0.1427765041589737
time_elpased: 2.126
#iterations: 149
currently lose_sum: 0.07895232737064362
time_elpased: 2.153
#iterations: 150
currently lose_sum: 0.1269412785768509
time_elpased: 2.146
#iterations: 151
currently lose_sum: 0.10990767180919647
time_elpased: 2.112
#iterations: 152
currently lose_sum: 0.17150373756885529
time_elpased: 2.171
#iterations: 153
currently lose_sum: 0.16868464648723602
time_elpased: 2.132
#iterations: 154
currently lose_sum: 0.11183206737041473
time_elpased: 2.123
#iterations: 155
currently lose_sum: 0.08462751656770706
time_elpased: 2.125
#iterations: 156
currently lose_sum: 0.48294568061828613
time_elpased: 2.156
#iterations: 157
currently lose_sum: 0.20167450606822968
time_elpased: 2.169
#iterations: 158
currently lose_sum: 0.14479930698871613
time_elpased: 2.097
#iterations: 159
currently lose_sum: 0.2519686818122864
time_elpased: 2.118
start validation test
0.734375
0.871148459384
0.552888888889
0.676454594889
0.735188839063
68.618
#iterations: 160
currently lose_sum: 0.14703689515590668
time_elpased: 2.081
#iterations: 161
currently lose_sum: 0.18678894639015198
time_elpased: 2.159
#iterations: 162
currently lose_sum: 0.2136545181274414
time_elpased: 2.177
#iterations: 163
currently lose_sum: 0.16239342093467712
time_elpased: 2.106
#iterations: 164
currently lose_sum: 0.2515602707862854
time_elpased: 2.129
#iterations: 165
currently lose_sum: 0.12133108079433441
time_elpased: 2.157
#iterations: 166
currently lose_sum: 0.056536488234996796
time_elpased: 2.157
#iterations: 167
currently lose_sum: 0.16303154826164246
time_elpased: 2.117
#iterations: 168
currently lose_sum: 0.1735772341489792
time_elpased: 2.146
#iterations: 169
currently lose_sum: 0.09117571264505386
time_elpased: 2.192
#iterations: 170
currently lose_sum: 0.15695559978485107
time_elpased: 2.13
#iterations: 171
currently lose_sum: 0.13802067935466766
time_elpased: 2.122
#iterations: 172
currently lose_sum: 0.15911388397216797
time_elpased: 2.124
#iterations: 173
currently lose_sum: 0.26199498772621155
time_elpased: 2.185
#iterations: 174
currently lose_sum: 0.10358178615570068
time_elpased: 2.153
#iterations: 175
currently lose_sum: 0.06173272058367729
time_elpased: 2.171
#iterations: 176
currently lose_sum: 0.1171656996011734
time_elpased: 2.151
#iterations: 177
currently lose_sum: 0.20382723212242126
time_elpased: 2.158
#iterations: 178
currently lose_sum: 0.16832582652568817
time_elpased: 2.214
#iterations: 179
currently lose_sum: 0.12786594033241272
time_elpased: 2.153
start validation test
0.738392857143
0.870701513067
0.562666666667
0.683585313175
0.739180866966
67.062
#iterations: 180
currently lose_sum: 0.1959604024887085
time_elpased: 2.142
#iterations: 181
currently lose_sum: 0.2637781798839569
time_elpased: 2.152
#iterations: 182
currently lose_sum: 0.15741795301437378
time_elpased: 2.135
#iterations: 183
currently lose_sum: 0.060431111603975296
time_elpased: 2.128
#iterations: 184
currently lose_sum: 0.17757931351661682
time_elpased: 2.182
#iterations: 185
currently lose_sum: 0.12192858755588531
time_elpased: 2.091
#iterations: 186
currently lose_sum: 0.14353883266448975
time_elpased: 2.124
#iterations: 187
currently lose_sum: 0.10309171676635742
time_elpased: 2.138
#iterations: 188
currently lose_sum: 0.17293694615364075
time_elpased: 2.155
#iterations: 189
currently lose_sum: 0.05210200697183609
time_elpased: 2.107
#iterations: 190
currently lose_sum: 0.17354647815227509
time_elpased: 2.179
#iterations: 191
currently lose_sum: 0.12869226932525635
time_elpased: 2.187
#iterations: 192
currently lose_sum: 0.06850975006818771
time_elpased: 2.106
#iterations: 193
currently lose_sum: 0.10002519190311432
time_elpased: 2.189
#iterations: 194
currently lose_sum: 0.0825420469045639
time_elpased: 2.145
#iterations: 195
currently lose_sum: 0.1239224523305893
time_elpased: 2.146
#iterations: 196
currently lose_sum: 0.053041040897369385
time_elpased: 2.102
#iterations: 197
currently lose_sum: 0.052169956266880035
time_elpased: 2.086
#iterations: 198
currently lose_sum: 0.10547666251659393
time_elpased: 2.153
#iterations: 199
currently lose_sum: 0.20892763137817383
time_elpased: 2.145
start validation test
0.723214285714
0.874074074074
0.524444444444
0.655555555556
0.724105630294
76.452
#iterations: 200
currently lose_sum: 0.18921411037445068
time_elpased: 2.144
#iterations: 201
currently lose_sum: 0.07806140184402466
time_elpased: 2.163
#iterations: 202
currently lose_sum: 0.08448636531829834
time_elpased: 2.13
#iterations: 203
currently lose_sum: 0.12630920112133026
time_elpased: 2.195
#iterations: 204
currently lose_sum: 0.16429096460342407
time_elpased: 2.175
#iterations: 205
currently lose_sum: 0.1460052728652954
time_elpased: 2.176
#iterations: 206
currently lose_sum: 0.16313378512859344
time_elpased: 2.128
#iterations: 207
currently lose_sum: 0.04886067658662796
time_elpased: 2.107
#iterations: 208
currently lose_sum: 0.06291159242391586
time_elpased: 2.14
#iterations: 209
currently lose_sum: 0.0771886557340622
time_elpased: 2.106
#iterations: 210
currently lose_sum: 0.19508087635040283
time_elpased: 2.151
#iterations: 211
currently lose_sum: 0.08997174352407455
time_elpased: 2.116
#iterations: 212
currently lose_sum: 0.13060089945793152
time_elpased: 2.101
#iterations: 213
currently lose_sum: 0.09509561955928802
time_elpased: 2.186
#iterations: 214
currently lose_sum: 0.1649133265018463
time_elpased: 2.116
#iterations: 215
currently lose_sum: 0.09239965677261353
time_elpased: 2.124
#iterations: 216
currently lose_sum: 0.1399652659893036
time_elpased: 2.154
#iterations: 217
currently lose_sum: 0.10257712751626968
time_elpased: 2.163
#iterations: 218
currently lose_sum: 0.10056456178426743
time_elpased: 2.079
#iterations: 219
currently lose_sum: 0.10763156414031982
time_elpased: 2.099
start validation test
0.710714285714
0.87323943662
0.496
0.632653061224
0.711677130045
82.157
#iterations: 220
currently lose_sum: 0.03981313109397888
time_elpased: 2.114
#iterations: 221
currently lose_sum: 0.15836918354034424
time_elpased: 2.166
#iterations: 222
currently lose_sum: 0.13690321147441864
time_elpased: 2.101
#iterations: 223
currently lose_sum: 0.20648083090782166
time_elpased: 2.148
#iterations: 224
currently lose_sum: 0.12951937317848206
time_elpased: 2.11
#iterations: 225
currently lose_sum: 0.06253902614116669
time_elpased: 2.138
#iterations: 226
currently lose_sum: 0.13158558309078217
time_elpased: 2.133
#iterations: 227
currently lose_sum: 0.14639654755592346
time_elpased: 2.115
#iterations: 228
currently lose_sum: 0.21176984906196594
time_elpased: 2.186
#iterations: 229
currently lose_sum: 0.0802159532904625
time_elpased: 2.138
#iterations: 230
currently lose_sum: 0.11995730549097061
time_elpased: 2.155
#iterations: 231
currently lose_sum: 0.058586765080690384
time_elpased: 2.169
#iterations: 232
currently lose_sum: 0.105310820043087
time_elpased: 2.138
#iterations: 233
currently lose_sum: 0.08330060541629791
time_elpased: 2.083
#iterations: 234
currently lose_sum: 0.2004069834947586
time_elpased: 2.176
#iterations: 235
currently lose_sum: 0.07409831881523132
time_elpased: 2.12
#iterations: 236
currently lose_sum: 0.1469142735004425
time_elpased: 2.178
#iterations: 237
currently lose_sum: 0.12250439822673798
time_elpased: 2.123
#iterations: 238
currently lose_sum: 0.14104868471622467
time_elpased: 2.125
#iterations: 239
currently lose_sum: 0.33124786615371704
time_elpased: 2.144
start validation test
0.724553571429
0.872434017595
0.528888888889
0.658550083011
0.72543099153
78.354
#iterations: 240
currently lose_sum: 0.1848783642053604
time_elpased: 2.116
#iterations: 241
currently lose_sum: 0.2659836411476135
time_elpased: 2.121
#iterations: 242
currently lose_sum: 0.164425328373909
time_elpased: 2.12
#iterations: 243
currently lose_sum: 0.06210511922836304
time_elpased: 2.123
#iterations: 244
currently lose_sum: 0.31878286600112915
time_elpased: 2.112
#iterations: 245
currently lose_sum: 0.20123358070850372
time_elpased: 2.133
#iterations: 246
currently lose_sum: 0.05659598112106323
time_elpased: 2.089
#iterations: 247
currently lose_sum: 0.04540352523326874
time_elpased: 2.091
#iterations: 248
currently lose_sum: 0.09539195895195007
time_elpased: 2.262
#iterations: 249
currently lose_sum: 0.06374381482601166
time_elpased: 2.148
#iterations: 250
currently lose_sum: 0.1990828812122345
time_elpased: 2.186
#iterations: 251
currently lose_sum: 0.0951744019985199
time_elpased: 2.157
#iterations: 252
currently lose_sum: 0.12312944233417511
time_elpased: 2.135
#iterations: 253
currently lose_sum: 0.11978864669799805
time_elpased: 2.155
#iterations: 254
currently lose_sum: 0.10961103439331055
time_elpased: 2.093
#iterations: 255
currently lose_sum: 0.23306331038475037
time_elpased: 2.156
#iterations: 256
currently lose_sum: 0.11289825290441513
time_elpased: 2.138
#iterations: 257
currently lose_sum: 0.11069922149181366
time_elpased: 2.149
#iterations: 258
currently lose_sum: 0.03800985962152481
time_elpased: 2.133
#iterations: 259
currently lose_sum: 0.17647932469844818
time_elpased: 2.118
start validation test
0.704910714286
0.882838283828
0.475555555556
0.618139803582
0.705939212755
91.625
#iterations: 260
currently lose_sum: 0.1883457452058792
time_elpased: 2.174
#iterations: 261
currently lose_sum: 0.10354528576135635
time_elpased: 2.107
#iterations: 262
currently lose_sum: 0.1124829649925232
time_elpased: 2.124
#iterations: 263
currently lose_sum: 0.09468929469585419
time_elpased: 2.095
#iterations: 264
currently lose_sum: 0.13367804884910583
time_elpased: 2.127
#iterations: 265
currently lose_sum: 0.1541658341884613
time_elpased: 2.135
#iterations: 266
currently lose_sum: 0.251399964094162
time_elpased: 2.196
#iterations: 267
currently lose_sum: 0.06469056010246277
time_elpased: 2.116
#iterations: 268
currently lose_sum: 0.2701794505119324
time_elpased: 2.137
#iterations: 269
currently lose_sum: 0.08959849923849106
time_elpased: 2.126
#iterations: 270
currently lose_sum: 0.09639246761798859
time_elpased: 2.223
#iterations: 271
currently lose_sum: 0.1363239735364914
time_elpased: 2.112
#iterations: 272
currently lose_sum: 0.1556846797466278
time_elpased: 2.148
#iterations: 273
currently lose_sum: 0.19052240252494812
time_elpased: 2.114
#iterations: 274
currently lose_sum: 0.13348393142223358
time_elpased: 2.2
#iterations: 275
currently lose_sum: 0.11441943794488907
time_elpased: 2.118
#iterations: 276
currently lose_sum: 0.11294808238744736
time_elpased: 2.11
#iterations: 277
currently lose_sum: 0.16763564944267273
time_elpased: 2.135
#iterations: 278
currently lose_sum: 0.12829314172267914
time_elpased: 2.215
#iterations: 279
currently lose_sum: 0.130946546792984
time_elpased: 2.101
start validation test
0.701785714286
0.881469115192
0.469333333333
0.61252900232
0.702828101644
95.271
#iterations: 280
currently lose_sum: 0.15154963731765747
time_elpased: 2.121
#iterations: 281
currently lose_sum: 0.02378961816430092
time_elpased: 2.117
#iterations: 282
currently lose_sum: 0.13546518981456757
time_elpased: 2.135
#iterations: 283
currently lose_sum: 0.2109389752149582
time_elpased: 2.135
#iterations: 284
currently lose_sum: 0.07732230424880981
time_elpased: 2.132
#iterations: 285
currently lose_sum: 0.07719298452138901
time_elpased: 2.168
#iterations: 286
currently lose_sum: 0.18853095173835754
time_elpased: 2.161
#iterations: 287
currently lose_sum: 0.1558907926082611
time_elpased: 2.136
#iterations: 288
currently lose_sum: 0.28417691588401794
time_elpased: 2.165
#iterations: 289
currently lose_sum: 0.05585052818059921
time_elpased: 2.116
#iterations: 290
currently lose_sum: 0.1884888857603073
time_elpased: 2.174
#iterations: 291
currently lose_sum: 0.211490198969841
time_elpased: 2.14
#iterations: 292
currently lose_sum: 0.0697854608297348
time_elpased: 2.185
#iterations: 293
currently lose_sum: 0.06893035769462585
time_elpased: 2.142
#iterations: 294
currently lose_sum: 0.2001529186964035
time_elpased: 2.195
#iterations: 295
currently lose_sum: 0.07562457025051117
time_elpased: 2.119
#iterations: 296
currently lose_sum: 0.09381897747516632
time_elpased: 2.136
#iterations: 297
currently lose_sum: 0.1270286738872528
time_elpased: 2.132
#iterations: 298
currently lose_sum: 0.1082603931427002
time_elpased: 2.177
#iterations: 299
currently lose_sum: 0.17885133624076843
time_elpased: 2.108
start validation test
0.702678571429
0.888324873096
0.466666666667
0.611888111888
0.703736920777
98.156
#iterations: 300
currently lose_sum: 0.07227738201618195
time_elpased: 2.141
#iterations: 301
currently lose_sum: 0.06316468864679337
time_elpased: 2.097
#iterations: 302
currently lose_sum: 0.14647185802459717
time_elpased: 2.105
#iterations: 303
currently lose_sum: 0.0312386155128479
time_elpased: 2.125
#iterations: 304
currently lose_sum: 0.028654327616095543
time_elpased: 2.16
#iterations: 305
currently lose_sum: 0.07003523409366608
time_elpased: 2.127
#iterations: 306
currently lose_sum: 0.1154346913099289
time_elpased: 2.095
#iterations: 307
currently lose_sum: 0.10344956815242767
time_elpased: 2.157
#iterations: 308
currently lose_sum: 0.049366116523742676
time_elpased: 2.123
#iterations: 309
currently lose_sum: 0.03718232363462448
time_elpased: 2.139
#iterations: 310
currently lose_sum: 0.11279833316802979
time_elpased: 2.134
#iterations: 311
currently lose_sum: 0.10604451596736908
time_elpased: 2.157
#iterations: 312
currently lose_sum: 0.0798838883638382
time_elpased: 2.157
#iterations: 313
currently lose_sum: 0.0779099091887474
time_elpased: 2.13
#iterations: 314
currently lose_sum: 0.049698103219270706
time_elpased: 2.161
#iterations: 315
currently lose_sum: 0.06115283817052841
time_elpased: 2.109
#iterations: 316
currently lose_sum: 0.2137816697359085
time_elpased: 2.159
#iterations: 317
currently lose_sum: 0.016948968172073364
time_elpased: 2.141
#iterations: 318
currently lose_sum: 0.15872876346111298
time_elpased: 2.119
#iterations: 319
currently lose_sum: 0.13886894285678864
time_elpased: 2.151
start validation test
0.707142857143
0.885057471264
0.479111111111
0.621683967705
0.708165421026
99.113
#iterations: 320
currently lose_sum: 0.0899515151977539
time_elpased: 2.125
#iterations: 321
currently lose_sum: 0.1432063728570938
time_elpased: 2.112
#iterations: 322
currently lose_sum: 0.021254681050777435
time_elpased: 2.108
#iterations: 323
currently lose_sum: 0.20242097973823547
time_elpased: 2.143
#iterations: 324
currently lose_sum: 0.06012442708015442
time_elpased: 2.136
#iterations: 325
currently lose_sum: 0.1150505319237709
time_elpased: 2.142
#iterations: 326
currently lose_sum: 0.0189064834266901
time_elpased: 2.13
#iterations: 327
currently lose_sum: 0.18174973130226135
time_elpased: 2.103
#iterations: 328
currently lose_sum: 0.279387891292572
time_elpased: 2.117
#iterations: 329
currently lose_sum: 0.11997932195663452
time_elpased: 2.139
#iterations: 330
currently lose_sum: 0.11899437755346298
time_elpased: 2.141
#iterations: 331
currently lose_sum: 0.03581472113728523
time_elpased: 2.119
#iterations: 332
currently lose_sum: 0.03354893624782562
time_elpased: 2.151
#iterations: 333
currently lose_sum: 0.16522103548049927
time_elpased: 2.17
#iterations: 334
currently lose_sum: 0.056279223412275314
time_elpased: 2.17
#iterations: 335
currently lose_sum: 0.06471315771341324
time_elpased: 2.174
#iterations: 336
currently lose_sum: 0.13053618371486664
time_elpased: 2.133
#iterations: 337
currently lose_sum: 0.04826178029179573
time_elpased: 2.145
#iterations: 338
currently lose_sum: 0.05775390937924385
time_elpased: 2.167
#iterations: 339
currently lose_sum: 0.05629447102546692
time_elpased: 2.129
start validation test
0.698660714286
0.889273356401
0.456888888889
0.603640634175
0.699744892875
108.349
#iterations: 340
currently lose_sum: 0.13497315347194672
time_elpased: 2.115
#iterations: 341
currently lose_sum: 0.09846911579370499
time_elpased: 2.153
#iterations: 342
currently lose_sum: 0.06875544041395187
time_elpased: 2.141
#iterations: 343
currently lose_sum: 0.031831901520490646
time_elpased: 2.185
#iterations: 344
currently lose_sum: 0.07822832465171814
time_elpased: 2.149
#iterations: 345
currently lose_sum: 0.042062170803546906
time_elpased: 2.131
#iterations: 346
currently lose_sum: 0.02909211255609989
time_elpased: 2.119
#iterations: 347
currently lose_sum: 0.08901190012693405
time_elpased: 2.134
#iterations: 348
currently lose_sum: 0.05205805227160454
time_elpased: 2.134
#iterations: 349
currently lose_sum: 0.10171345621347427
time_elpased: 2.186
#iterations: 350
currently lose_sum: 0.0633513554930687
time_elpased: 2.127
#iterations: 351
currently lose_sum: 0.18335379660129547
time_elpased: 2.119
#iterations: 352
currently lose_sum: 0.1688438355922699
time_elpased: 2.156
#iterations: 353
currently lose_sum: 0.07457234710454941
time_elpased: 2.19
#iterations: 354
currently lose_sum: 0.035771142691373825
time_elpased: 2.154
#iterations: 355
currently lose_sum: 0.148079976439476
time_elpased: 2.14
#iterations: 356
currently lose_sum: 0.18516996502876282
time_elpased: 2.146
#iterations: 357
currently lose_sum: 0.03902359679341316
time_elpased: 2.095
#iterations: 358
currently lose_sum: 0.13892656564712524
time_elpased: 2.177
#iterations: 359
currently lose_sum: 0.39962905645370483
time_elpased: 2.086
start validation test
0.696875
0.896797153025
0.448
0.597510373444
0.69799103139
112.882
#iterations: 360
currently lose_sum: 0.08947078138589859
time_elpased: 2.182
#iterations: 361
currently lose_sum: 0.08105607330799103
time_elpased: 2.151
#iterations: 362
currently lose_sum: 0.039263755083084106
time_elpased: 2.139
#iterations: 363
currently lose_sum: 0.042587727308273315
time_elpased: 2.115
#iterations: 364
currently lose_sum: 0.09745808690786362
time_elpased: 2.119
#iterations: 365
currently lose_sum: 0.08634312450885773
time_elpased: 2.136
#iterations: 366
currently lose_sum: 0.043149277567863464
time_elpased: 2.13
#iterations: 367
currently lose_sum: 0.1224990040063858
time_elpased: 2.16
#iterations: 368
currently lose_sum: 0.0901840403676033
time_elpased: 2.123
#iterations: 369
currently lose_sum: 0.07615756243467331
time_elpased: 2.155
#iterations: 370
currently lose_sum: 0.11423440277576447
time_elpased: 2.187
#iterations: 371
currently lose_sum: 0.08613438904285431
time_elpased: 2.142
#iterations: 372
currently lose_sum: 0.047298796474933624
time_elpased: 2.121
#iterations: 373
currently lose_sum: 0.1844225823879242
time_elpased: 2.165
#iterations: 374
currently lose_sum: 0.06948664039373398
time_elpased: 2.176
#iterations: 375
currently lose_sum: 0.05464165285229683
time_elpased: 2.124
#iterations: 376
currently lose_sum: 0.2580496668815613
time_elpased: 2.154
#iterations: 377
currently lose_sum: 0.05876098945736885
time_elpased: 2.167
#iterations: 378
currently lose_sum: 0.10767386853694916
time_elpased: 2.133
#iterations: 379
currently lose_sum: 0.13079522550106049
time_elpased: 2.16
start validation test
0.69375
0.883071553229
0.449777777778
0.595995288575
0.69484404584
109.627
#iterations: 380
currently lose_sum: 0.16391724348068237
time_elpased: 2.138
#iterations: 381
currently lose_sum: 0.30509597063064575
time_elpased: 2.189
#iterations: 382
currently lose_sum: 0.031039897352457047
time_elpased: 2.15
#iterations: 383
currently lose_sum: 0.187249094247818
time_elpased: 2.168
#iterations: 384
currently lose_sum: 0.048167578876018524
time_elpased: 2.151
#iterations: 385
currently lose_sum: 0.08369012176990509
time_elpased: 2.171
#iterations: 386
currently lose_sum: 0.0794287919998169
time_elpased: 2.136
#iterations: 387
currently lose_sum: 0.10292309522628784
time_elpased: 2.153
#iterations: 388
currently lose_sum: 0.269498348236084
time_elpased: 2.123
#iterations: 389
currently lose_sum: 0.17666120827198029
time_elpased: 2.131
#iterations: 390
currently lose_sum: 0.09363875538110733
time_elpased: 2.132
#iterations: 391
currently lose_sum: 0.025760924443602562
time_elpased: 2.206
#iterations: 392
currently lose_sum: 0.038742516189813614
time_elpased: 2.098
#iterations: 393
currently lose_sum: 0.21797053515911102
time_elpased: 2.133
#iterations: 394
currently lose_sum: 0.04342691972851753
time_elpased: 2.143
#iterations: 395
currently lose_sum: 0.14818528294563293
time_elpased: 2.144
#iterations: 396
currently lose_sum: 0.017593201249837875
time_elpased: 2.111
#iterations: 397
currently lose_sum: 0.028179902583360672
time_elpased: 2.122
#iterations: 398
currently lose_sum: 0.12045443058013916
time_elpased: 2.112
#iterations: 399
currently lose_sum: 0.09520361572504044
time_elpased: 2.21
start validation test
0.697767857143
0.890243902439
0.454222222222
0.601530311948
0.698859990035
113.002
#iterations: 400
currently lose_sum: 0.08018161356449127
time_elpased: 2.15
#iterations: 401
currently lose_sum: 0.11518938839435577
time_elpased: 2.168
#iterations: 402
currently lose_sum: 0.1165517121553421
time_elpased: 2.14
#iterations: 403
currently lose_sum: 0.10997158288955688
time_elpased: 2.118
#iterations: 404
currently lose_sum: 0.06051575392484665
time_elpased: 2.143
#iterations: 405
currently lose_sum: 0.09921988844871521
time_elpased: 2.156
#iterations: 406
currently lose_sum: 0.0641547441482544
time_elpased: 2.108
#iterations: 407
currently lose_sum: 0.009341434575617313
time_elpased: 2.165
#iterations: 408
currently lose_sum: 0.15087051689624786
time_elpased: 2.136
#iterations: 409
currently lose_sum: 0.11043314635753632
time_elpased: 2.156
#iterations: 410
currently lose_sum: 0.09435345977544785
time_elpased: 2.131
#iterations: 411
currently lose_sum: 0.01879870519042015
time_elpased: 2.17
#iterations: 412
currently lose_sum: 0.024641772732138634
time_elpased: 2.137
#iterations: 413
currently lose_sum: 0.05411480739712715
time_elpased: 2.165
#iterations: 414
currently lose_sum: 0.18883053958415985
time_elpased: 2.182
#iterations: 415
currently lose_sum: 0.07405605167150497
time_elpased: 2.143
#iterations: 416
currently lose_sum: 0.019702473655343056
time_elpased: 2.168
#iterations: 417
currently lose_sum: 0.1536014825105667
time_elpased: 2.163
#iterations: 418
currently lose_sum: 0.06315003335475922
time_elpased: 2.153
#iterations: 419
currently lose_sum: 0.024168411269783974
time_elpased: 2.141
start validation test
0.692410714286
0.897810218978
0.437333333333
0.588164973102
0.693554559043
116.157
#iterations: 420
currently lose_sum: 0.07145078480243683
time_elpased: 2.178
#iterations: 421
currently lose_sum: 0.050085294991731644
time_elpased: 2.194
#iterations: 422
currently lose_sum: 0.09904853999614716
time_elpased: 2.17
#iterations: 423
currently lose_sum: 0.11211661994457245
time_elpased: 2.145
#iterations: 424
currently lose_sum: 0.083638034760952
time_elpased: 2.146
#iterations: 425
currently lose_sum: 0.25127047300338745
time_elpased: 2.176
#iterations: 426
currently lose_sum: 0.015516862273216248
time_elpased: 2.148
#iterations: 427
currently lose_sum: 0.12118927389383316
time_elpased: 2.122
#iterations: 428
currently lose_sum: 0.09088046103715897
time_elpased: 2.143
#iterations: 429
currently lose_sum: 0.03972453624010086
time_elpased: 2.176
#iterations: 430
currently lose_sum: 0.06930001825094223
time_elpased: 2.165
#iterations: 431
currently lose_sum: 0.04327639937400818
time_elpased: 2.136
#iterations: 432
currently lose_sum: 0.08685445785522461
time_elpased: 2.197
#iterations: 433
currently lose_sum: 0.23101572692394257
time_elpased: 2.155
#iterations: 434
currently lose_sum: 0.03392212465405464
time_elpased: 2.152
#iterations: 435
currently lose_sum: 0.03260517120361328
time_elpased: 2.15
#iterations: 436
currently lose_sum: 0.030490702018141747
time_elpased: 2.087
#iterations: 437
currently lose_sum: 0.09235651791095734
time_elpased: 2.122
#iterations: 438
currently lose_sum: 0.03317257761955261
time_elpased: 2.158
#iterations: 439
currently lose_sum: 0.04287514090538025
time_elpased: 2.131
start validation test
0.700446428571
0.887372013652
0.462222222222
0.607831677382
0.701514698555
108.456
#iterations: 440
currently lose_sum: 0.1294986456632614
time_elpased: 2.161
#iterations: 441
currently lose_sum: 0.03757409751415253
time_elpased: 2.118
#iterations: 442
currently lose_sum: 0.13169196248054504
time_elpased: 2.125
#iterations: 443
currently lose_sum: 0.023607539013028145
time_elpased: 2.154
#iterations: 444
currently lose_sum: 0.11138198524713516
time_elpased: 2.182
#iterations: 445
currently lose_sum: 0.12572333216667175
time_elpased: 2.155
#iterations: 446
currently lose_sum: 0.08917810022830963
time_elpased: 2.194
#iterations: 447
currently lose_sum: 0.10297807306051254
time_elpased: 2.207
#iterations: 448
currently lose_sum: 0.09922005236148834
time_elpased: 2.103
#iterations: 449
currently lose_sum: 0.04848427698016167
time_elpased: 2.134
#iterations: 450
currently lose_sum: 0.17881174385547638
time_elpased: 2.146
#iterations: 451
currently lose_sum: 0.04431702569127083
time_elpased: 2.13
#iterations: 452
currently lose_sum: 0.011700320057570934
time_elpased: 2.13
#iterations: 453
currently lose_sum: 0.056060098111629486
time_elpased: 2.215
#iterations: 454
currently lose_sum: 0.05408398061990738
time_elpased: 2.13
#iterations: 455
currently lose_sum: 0.04533277079463005
time_elpased: 2.207
#iterations: 456
currently lose_sum: 0.0489734411239624
time_elpased: 2.164
#iterations: 457
currently lose_sum: 0.024857882410287857
time_elpased: 2.196
#iterations: 458
currently lose_sum: 0.014076529070734978
time_elpased: 2.156
#iterations: 459
currently lose_sum: 0.023745860904455185
time_elpased: 2.144
start validation test
0.694196428571
0.890070921986
0.446222222222
0.594434576673
0.695308420528
121.521
#iterations: 460
currently lose_sum: 0.013746842741966248
time_elpased: 2.113
#iterations: 461
currently lose_sum: 0.09795553982257843
time_elpased: 2.085
#iterations: 462
currently lose_sum: 0.05784504488110542
time_elpased: 2.157
#iterations: 463
currently lose_sum: 0.010539324954152107
time_elpased: 2.157
#iterations: 464
currently lose_sum: 0.03863620385527611
time_elpased: 2.102
#iterations: 465
currently lose_sum: 0.22377581894397736
time_elpased: 2.166
#iterations: 466
currently lose_sum: 0.015051379799842834
time_elpased: 2.154
#iterations: 467
currently lose_sum: 0.07613365352153778
time_elpased: 2.144
#iterations: 468
currently lose_sum: 0.04666024446487427
time_elpased: 2.189
#iterations: 469
currently lose_sum: 0.08297519385814667
time_elpased: 2.144
#iterations: 470
currently lose_sum: 0.21761059761047363
time_elpased: 2.195
#iterations: 471
currently lose_sum: 0.19049669802188873
time_elpased: 2.122
#iterations: 472
currently lose_sum: 0.1801978051662445
time_elpased: 2.208
#iterations: 473
currently lose_sum: 0.2773745656013489
time_elpased: 2.146
#iterations: 474
currently lose_sum: 0.12163128703832626
time_elpased: 2.148
#iterations: 475
currently lose_sum: 0.10199207067489624
time_elpased: 2.182
#iterations: 476
currently lose_sum: 0.04036309942603111
time_elpased: 2.174
#iterations: 477
currently lose_sum: 0.09644124656915665
time_elpased: 2.134
#iterations: 478
currently lose_sum: 0.037988804280757904
time_elpased: 2.167
#iterations: 479
currently lose_sum: 0.012875827960669994
time_elpased: 2.135
start validation test
0.683482142857
0.893939393939
0.419555555556
0.571082879613
0.684665670154
132.010
#iterations: 480
currently lose_sum: 0.052580296993255615
time_elpased: 2.157
#iterations: 481
currently lose_sum: 0.010739380493760109
time_elpased: 2.117
#iterations: 482
currently lose_sum: 0.07068882882595062
time_elpased: 2.138
#iterations: 483
currently lose_sum: 0.06471548974514008
time_elpased: 2.149
#iterations: 484
currently lose_sum: 0.041572362184524536
time_elpased: 2.14
#iterations: 485
currently lose_sum: 0.027529582381248474
time_elpased: 2.153
#iterations: 486
currently lose_sum: 0.08046691119670868
time_elpased: 2.141
#iterations: 487
currently lose_sum: 0.19162189960479736
time_elpased: 2.166
#iterations: 488
currently lose_sum: 0.11250007152557373
time_elpased: 2.214
#iterations: 489
currently lose_sum: 0.10775226354598999
time_elpased: 2.16
#iterations: 490
currently lose_sum: 0.023086706176400185
time_elpased: 2.116
#iterations: 491
currently lose_sum: 0.11193978786468506
time_elpased: 2.189
#iterations: 492
currently lose_sum: 0.0756523460149765
time_elpased: 2.148
#iterations: 493
currently lose_sum: 0.07448116689920425
time_elpased: 2.145
#iterations: 494
currently lose_sum: 0.18754175305366516
time_elpased: 2.103
#iterations: 495
currently lose_sum: 0.20020541548728943
time_elpased: 2.115
#iterations: 496
currently lose_sum: 0.020355869084596634
time_elpased: 2.147
#iterations: 497
currently lose_sum: 0.0800991803407669
time_elpased: 2.137
#iterations: 498
currently lose_sum: 0.07721921801567078
time_elpased: 2.144
#iterations: 499
currently lose_sum: 0.11794345080852509
time_elpased: 2.114
start validation test
0.679910714286
0.893822393822
0.411555555556
0.563603164942
0.681114100648
131.458
#iterations: 500
currently lose_sum: 0.022843634709715843
time_elpased: 2.124
#iterations: 501
currently lose_sum: 0.03293111175298691
time_elpased: 2.131
#iterations: 502
currently lose_sum: 0.05373988300561905
time_elpased: 2.178
#iterations: 503
currently lose_sum: 0.01792723499238491
time_elpased: 2.119
#iterations: 504
currently lose_sum: 0.1195574551820755
time_elpased: 2.118
#iterations: 505
currently lose_sum: 0.04822995141148567
time_elpased: 2.115
#iterations: 506
currently lose_sum: 0.05019460991024971
time_elpased: 2.168
#iterations: 507
currently lose_sum: 0.03972013294696808
time_elpased: 2.163
#iterations: 508
currently lose_sum: 0.07972095906734467
time_elpased: 2.151
#iterations: 509
currently lose_sum: 0.017913857474923134
time_elpased: 2.131
#iterations: 510
currently lose_sum: 0.13099083304405212
time_elpased: 2.113
#iterations: 511
currently lose_sum: 0.14251936972141266
time_elpased: 2.112
#iterations: 512
currently lose_sum: 0.12829305231571198
time_elpased: 2.172
#iterations: 513
currently lose_sum: 0.0456157848238945
time_elpased: 2.111
#iterations: 514
currently lose_sum: 0.032745055854320526
time_elpased: 2.121
#iterations: 515
currently lose_sum: 0.04403888061642647
time_elpased: 2.152
#iterations: 516
currently lose_sum: 0.10114624351263046
time_elpased: 2.131
#iterations: 517
currently lose_sum: 0.017443079501390457
time_elpased: 2.149
#iterations: 518
currently lose_sum: 0.043171774595975876
time_elpased: 2.14
#iterations: 519
currently lose_sum: 0.08199018239974976
time_elpased: 2.152
start validation test
0.687946428571
0.895910780669
0.428444444444
0.579675285628
0.689110114599
129.618
#iterations: 520
currently lose_sum: 0.1850658357143402
time_elpased: 2.135
#iterations: 521
currently lose_sum: 0.09209046512842178
time_elpased: 2.141
#iterations: 522
currently lose_sum: 0.10231927782297134
time_elpased: 2.135
#iterations: 523
currently lose_sum: 0.037862762808799744
time_elpased: 2.126
#iterations: 524
currently lose_sum: 0.04771755635738373
time_elpased: 2.115
#iterations: 525
currently lose_sum: 0.08336875587701797
time_elpased: 2.118
#iterations: 526
currently lose_sum: 0.04998406767845154
time_elpased: 2.134
#iterations: 527
currently lose_sum: 0.18200191855430603
time_elpased: 2.135
#iterations: 528
currently lose_sum: 0.0933038666844368
time_elpased: 2.142
#iterations: 529
currently lose_sum: 0.05004078894853592
time_elpased: 2.133
#iterations: 530
currently lose_sum: 0.14451611042022705
time_elpased: 2.183
#iterations: 531
currently lose_sum: 0.06075579673051834
time_elpased: 2.164
#iterations: 532
currently lose_sum: 0.08417211472988129
time_elpased: 2.124
#iterations: 533
currently lose_sum: 0.06141815334558487
time_elpased: 2.145
#iterations: 534
currently lose_sum: 0.029709959402680397
time_elpased: 2.129
#iterations: 535
currently lose_sum: 0.09080429375171661
time_elpased: 2.143
#iterations: 536
currently lose_sum: 0.05185921862721443
time_elpased: 2.161
#iterations: 537
currently lose_sum: 0.04469059035181999
time_elpased: 2.114
#iterations: 538
currently lose_sum: 0.10730187594890594
time_elpased: 2.118
#iterations: 539
currently lose_sum: 0.12145581096410751
time_elpased: 2.17
start validation test
0.676339285714
0.901606425703
0.399111111111
0.553296364757
0.677582461385
140.116
#iterations: 540
currently lose_sum: 0.062389589846134186
time_elpased: 2.141
#iterations: 541
currently lose_sum: 0.21387985348701477
time_elpased: 2.128
#iterations: 542
currently lose_sum: 0.16248703002929688
time_elpased: 2.168
#iterations: 543
currently lose_sum: 0.13675153255462646
time_elpased: 2.149
#iterations: 544
currently lose_sum: 0.10679733753204346
time_elpased: 2.133
#iterations: 545
currently lose_sum: 0.0852125957608223
time_elpased: 2.154
#iterations: 546
currently lose_sum: 0.1582256257534027
time_elpased: 2.123
#iterations: 547
currently lose_sum: 0.10460476577281952
time_elpased: 2.169
#iterations: 548
currently lose_sum: 0.21154889464378357
time_elpased: 2.163
#iterations: 549
currently lose_sum: 0.01719146966934204
time_elpased: 2.177
#iterations: 550
currently lose_sum: 0.006466565188020468
time_elpased: 2.121
#iterations: 551
currently lose_sum: 0.12257782369852066
time_elpased: 2.136
#iterations: 552
currently lose_sum: 0.020263919606804848
time_elpased: 2.136
#iterations: 553
currently lose_sum: 0.15012513101100922
time_elpased: 2.103
#iterations: 554
currently lose_sum: 0.014521336182951927
time_elpased: 2.158
#iterations: 555
currently lose_sum: 0.1054888367652893
time_elpased: 2.153
#iterations: 556
currently lose_sum: 0.021142330020666122
time_elpased: 2.167
#iterations: 557
currently lose_sum: 0.023105669766664505
time_elpased: 2.166
#iterations: 558
currently lose_sum: 0.09649836272001266
time_elpased: 2.118
#iterations: 559
currently lose_sum: 0.018758591264486313
time_elpased: 2.15
start validation test
0.672767857143
0.90329218107
0.390222222222
0.545003103662
0.674034877927
145.153
#iterations: 560
currently lose_sum: 0.17667582631111145
time_elpased: 2.103
#iterations: 561
currently lose_sum: 0.09627629816532135
time_elpased: 2.127
#iterations: 562
currently lose_sum: 0.013913537375628948
time_elpased: 2.179
#iterations: 563
currently lose_sum: 0.020030587911605835
time_elpased: 2.152
#iterations: 564
currently lose_sum: 0.056250106543302536
time_elpased: 2.115
#iterations: 565
currently lose_sum: 0.11478428542613983
time_elpased: 2.2
#iterations: 566
currently lose_sum: 0.101421058177948
time_elpased: 2.112
#iterations: 567
currently lose_sum: 0.0325428768992424
time_elpased: 2.149
#iterations: 568
currently lose_sum: 0.173446923494339
time_elpased: 2.129
#iterations: 569
currently lose_sum: 0.05456159636378288
time_elpased: 2.175
#iterations: 570
currently lose_sum: 0.014338964596390724
time_elpased: 2.129
#iterations: 571
currently lose_sum: 0.03522992879152298
time_elpased: 2.144
#iterations: 572
currently lose_sum: 0.05714515596628189
time_elpased: 2.209
#iterations: 573
currently lose_sum: 0.02454693615436554
time_elpased: 2.117
#iterations: 574
currently lose_sum: 0.21006646752357483
time_elpased: 2.127
#iterations: 575
currently lose_sum: 0.03336884081363678
time_elpased: 2.142
#iterations: 576
currently lose_sum: 0.10148423910140991
time_elpased: 2.189
#iterations: 577
currently lose_sum: 0.09337817877531052
time_elpased: 2.156
#iterations: 578
currently lose_sum: 0.11716751754283905
time_elpased: 2.215
#iterations: 579
currently lose_sum: 0.10900585353374481
time_elpased: 2.151
start validation test
0.673214285714
0.906832298137
0.389333333333
0.544776119403
0.674487294469
141.077
#iterations: 580
currently lose_sum: 0.0703640803694725
time_elpased: 2.157
#iterations: 581
currently lose_sum: 0.029895106330513954
time_elpased: 2.114
#iterations: 582
currently lose_sum: 0.09071163088083267
time_elpased: 2.173
#iterations: 583
currently lose_sum: 0.015738438814878464
time_elpased: 2.161
#iterations: 584
currently lose_sum: 0.016148267313838005
time_elpased: 2.114
#iterations: 585
currently lose_sum: 0.02838818170130253
time_elpased: 2.115
#iterations: 586
currently lose_sum: 0.03329000994563103
time_elpased: 2.161
#iterations: 587
currently lose_sum: 0.08814512193202972
time_elpased: 2.171
#iterations: 588
currently lose_sum: 0.07719461619853973
time_elpased: 2.158
#iterations: 589
currently lose_sum: 0.04701284319162369
time_elpased: 2.158
#iterations: 590
currently lose_sum: 0.06069759652018547
time_elpased: 2.209
#iterations: 591
currently lose_sum: 0.04747583344578743
time_elpased: 2.105
#iterations: 592
currently lose_sum: 0.09726326167583466
time_elpased: 2.101
#iterations: 593
currently lose_sum: 0.01847650110721588
time_elpased: 2.167
#iterations: 594
currently lose_sum: 0.027685493230819702
time_elpased: 2.194
#iterations: 595
currently lose_sum: 0.11139513552188873
time_elpased: 2.141
#iterations: 596
currently lose_sum: 0.02969055250287056
time_elpased: 2.172
#iterations: 597
currently lose_sum: 0.033987391740083694
time_elpased: 2.168
#iterations: 598
currently lose_sum: 0.06613042950630188
time_elpased: 2.164
#iterations: 599
currently lose_sum: 0.022320613265037537
time_elpased: 2.153
start validation test
0.673214285714
0.906832298137
0.389333333333
0.544776119403
0.674487294469
142.912
acc: 0.745
pre: 0.820
rec: 0.630
F1: 0.713
auc: 0.746
