start to construct computing graph
graph construct over
3373
epochs start
#iterations: 0
currently lose_sum: 0.6434494256973267
time_elpased: 2.744
#iterations: 1
currently lose_sum: 0.622416615486145
time_elpased: 2.666
#iterations: 2
currently lose_sum: 0.5776403546333313
time_elpased: 2.616
#iterations: 3
currently lose_sum: 0.6079596281051636
time_elpased: 2.742
#iterations: 4
currently lose_sum: 0.5125339031219482
time_elpased: 2.979
#iterations: 5
currently lose_sum: 0.5553563833236694
time_elpased: 2.636
#iterations: 6
currently lose_sum: 0.3567681908607483
time_elpased: 2.722
#iterations: 7
currently lose_sum: 0.47229987382888794
time_elpased: 2.679
#iterations: 8
currently lose_sum: 0.4375248849391937
time_elpased: 2.742
#iterations: 9
currently lose_sum: 0.32457494735717773
time_elpased: 2.66
#iterations: 10
currently lose_sum: 0.566318154335022
time_elpased: 2.662
#iterations: 11
currently lose_sum: 0.5621193647384644
time_elpased: 2.893
#iterations: 12
currently lose_sum: 0.41632604598999023
time_elpased: 2.616
#iterations: 13
currently lose_sum: 0.5483907461166382
time_elpased: 2.634
#iterations: 14
currently lose_sum: 0.35719624161720276
time_elpased: 2.648
#iterations: 15
currently lose_sum: 0.42696914076805115
time_elpased: 2.633
#iterations: 16
currently lose_sum: 0.43461304903030396
time_elpased: 2.75
#iterations: 17
currently lose_sum: 0.36074018478393555
time_elpased: 2.753
#iterations: 18
currently lose_sum: 0.2765977084636688
time_elpased: 2.619
#iterations: 19
currently lose_sum: 0.30103620886802673
time_elpased: 2.637
start validation test
0.760267857143
0.808622502629
0.684163701068
0.741204819277
0.760540631896
33.064
#iterations: 20
currently lose_sum: 0.43773049116134644
time_elpased: 2.395
#iterations: 21
currently lose_sum: 0.2674078941345215
time_elpased: 2.189
#iterations: 22
currently lose_sum: 0.3443988263607025
time_elpased: 2.137
#iterations: 23
currently lose_sum: 0.21772725880146027
time_elpased: 2.164
#iterations: 24
currently lose_sum: 0.22288019955158234
time_elpased: 2.119
#iterations: 25
currently lose_sum: 0.4785696864128113
time_elpased: 2.144
#iterations: 26
currently lose_sum: 0.23139038681983948
time_elpased: 2.205
#iterations: 27
currently lose_sum: 0.35492080450057983
time_elpased: 2.206
#iterations: 28
currently lose_sum: 0.339295357465744
time_elpased: 2.127
#iterations: 29
currently lose_sum: 0.20065073668956757
time_elpased: 2.164
#iterations: 30
currently lose_sum: 0.19902195036411285
time_elpased: 2.165
#iterations: 31
currently lose_sum: 0.3608493208885193
time_elpased: 2.159
#iterations: 32
currently lose_sum: 0.4428020417690277
time_elpased: 2.133
#iterations: 33
currently lose_sum: 0.24168367683887482
time_elpased: 2.184
#iterations: 34
currently lose_sum: 0.32395654916763306
time_elpased: 2.133
#iterations: 35
currently lose_sum: 0.35174670815467834
time_elpased: 2.175
#iterations: 36
currently lose_sum: 0.23294076323509216
time_elpased: 2.237
#iterations: 37
currently lose_sum: 0.40568262338638306
time_elpased: 2.237
#iterations: 38
currently lose_sum: 0.33066314458847046
time_elpased: 2.121
#iterations: 39
currently lose_sum: 0.2588717043399811
time_elpased: 2.148
start validation test
0.757142857143
0.791750503018
0.700177935943
0.743153918791
0.757347032488
35.036
#iterations: 40
currently lose_sum: 0.20063571631908417
time_elpased: 2.109
#iterations: 41
currently lose_sum: 0.45903143286705017
time_elpased: 2.164
#iterations: 42
currently lose_sum: 0.3305184245109558
time_elpased: 2.198
#iterations: 43
currently lose_sum: 0.2955135703086853
time_elpased: 2.163
#iterations: 44
currently lose_sum: 0.2608603835105896
time_elpased: 2.196
#iterations: 45
currently lose_sum: 0.3333730101585388
time_elpased: 2.132
#iterations: 46
currently lose_sum: 0.3393992483615875
time_elpased: 2.176
#iterations: 47
currently lose_sum: 0.2915867269039154
time_elpased: 2.15
#iterations: 48
currently lose_sum: 0.17310281097888947
time_elpased: 2.138
#iterations: 49
currently lose_sum: 0.4284213185310364
time_elpased: 2.199
#iterations: 50
currently lose_sum: 0.32282331585884094
time_elpased: 2.242
#iterations: 51
currently lose_sum: 0.12841162085533142
time_elpased: 2.173
#iterations: 52
currently lose_sum: 0.3326907753944397
time_elpased: 2.372
#iterations: 53
currently lose_sum: 0.2319345921278
time_elpased: 2.191
#iterations: 54
currently lose_sum: 0.34932440519332886
time_elpased: 2.211
#iterations: 55
currently lose_sum: 0.35772794485092163
time_elpased: 2.162
#iterations: 56
currently lose_sum: 0.1964043229818344
time_elpased: 2.168
#iterations: 57
currently lose_sum: 0.29752495884895325
time_elpased: 2.157
#iterations: 58
currently lose_sum: 0.4470512270927429
time_elpased: 2.419
#iterations: 59
currently lose_sum: 0.17235811054706573
time_elpased: 2.204
start validation test
0.749107142857
0.802150537634
0.663701067616
0.726387536514
0.749413257822
41.780
#iterations: 60
currently lose_sum: 0.12665827572345734
time_elpased: 2.19
#iterations: 61
currently lose_sum: 0.2859370708465576
time_elpased: 2.087
#iterations: 62
currently lose_sum: 0.22505183517932892
time_elpased: 2.127
#iterations: 63
currently lose_sum: 0.307684987783432
time_elpased: 2.135
#iterations: 64
currently lose_sum: 0.2252473384141922
time_elpased: 2.176
#iterations: 65
currently lose_sum: 0.2674712836742401
time_elpased: 2.109
#iterations: 66
currently lose_sum: 0.2731243371963501
time_elpased: 2.184
#iterations: 67
currently lose_sum: 0.197534441947937
time_elpased: 2.225
#iterations: 68
currently lose_sum: 0.1858483999967575
time_elpased: 2.19
#iterations: 69
currently lose_sum: 0.46597179770469666
time_elpased: 2.101
#iterations: 70
currently lose_sum: 0.15716436505317688
time_elpased: 2.186
#iterations: 71
currently lose_sum: 0.3183022141456604
time_elpased: 2.179
#iterations: 72
currently lose_sum: 0.35461634397506714
time_elpased: 2.203
#iterations: 73
currently lose_sum: 0.26687878370285034
time_elpased: 2.131
#iterations: 74
currently lose_sum: 0.28164154291152954
time_elpased: 2.177
#iterations: 75
currently lose_sum: 0.21864931285381317
time_elpased: 2.236
#iterations: 76
currently lose_sum: 0.16909220814704895
time_elpased: 2.359
#iterations: 77
currently lose_sum: 0.32036370038986206
time_elpased: 2.21
#iterations: 78
currently lose_sum: 0.14683547616004944
time_elpased: 2.242
#iterations: 79
currently lose_sum: 0.09897293150424957
time_elpased: 2.237
start validation test
0.745982142857
0.840490797546
0.609430604982
0.706549767922
0.746471574893
53.775
#iterations: 80
currently lose_sum: 0.1574196070432663
time_elpased: 2.126
#iterations: 81
currently lose_sum: 0.2818840444087982
time_elpased: 2.146
#iterations: 82
currently lose_sum: 0.2311440408229828
time_elpased: 2.15
#iterations: 83
currently lose_sum: 0.19483058154582977
time_elpased: 2.247
#iterations: 84
currently lose_sum: 0.2151748687028885
time_elpased: 2.149
#iterations: 85
currently lose_sum: 0.1470632255077362
time_elpased: 2.104
#iterations: 86
currently lose_sum: 0.270465224981308
time_elpased: 2.176
#iterations: 87
currently lose_sum: 0.2560446262359619
time_elpased: 2.175
#iterations: 88
currently lose_sum: 0.2498740702867508
time_elpased: 2.169
#iterations: 89
currently lose_sum: 0.25792044401168823
time_elpased: 2.195
#iterations: 90
currently lose_sum: 0.2199748009443283
time_elpased: 2.189
#iterations: 91
currently lose_sum: 0.2209310084581375
time_elpased: 2.28
#iterations: 92
currently lose_sum: 0.07590951025485992
time_elpased: 2.265
#iterations: 93
currently lose_sum: 0.31638818979263306
time_elpased: 2.125
#iterations: 94
currently lose_sum: 0.13081330060958862
time_elpased: 2.311
#iterations: 95
currently lose_sum: 0.24792060256004333
time_elpased: 2.148
#iterations: 96
currently lose_sum: 0.26087599992752075
time_elpased: 2.182
#iterations: 97
currently lose_sum: 0.16573390364646912
time_elpased: 2.151
#iterations: 98
currently lose_sum: 0.16358307003974915
time_elpased: 2.225
#iterations: 99
currently lose_sum: 0.123825803399086
time_elpased: 2.127
start validation test
0.732589285714
0.828535669587
0.58896797153
0.688507540302
0.73310405745
59.691
#iterations: 100
currently lose_sum: 0.1541110724210739
time_elpased: 2.166
#iterations: 101
currently lose_sum: 0.13173659145832062
time_elpased: 2.165
#iterations: 102
currently lose_sum: 0.24628858268260956
time_elpased: 2.148
#iterations: 103
currently lose_sum: 0.07456439733505249
time_elpased: 2.165
#iterations: 104
currently lose_sum: 0.16556981205940247
time_elpased: 2.139
#iterations: 105
currently lose_sum: 0.21354255080223083
time_elpased: 2.136
#iterations: 106
currently lose_sum: 0.08578739315271378
time_elpased: 2.23
#iterations: 107
currently lose_sum: 0.07679947465658188
time_elpased: 2.132
#iterations: 108
currently lose_sum: 0.06954623758792877
time_elpased: 2.131
#iterations: 109
currently lose_sum: 0.2846287786960602
time_elpased: 2.103
#iterations: 110
currently lose_sum: 0.17474456131458282
time_elpased: 2.151
#iterations: 111
currently lose_sum: 0.24534186720848083
time_elpased: 2.321
#iterations: 112
currently lose_sum: 0.20280447602272034
time_elpased: 2.173
#iterations: 113
currently lose_sum: 0.22021690011024475
time_elpased: 2.146
#iterations: 114
currently lose_sum: 0.42187589406967163
time_elpased: 2.34
#iterations: 115
currently lose_sum: 0.1585807204246521
time_elpased: 2.269
#iterations: 116
currently lose_sum: 0.22527047991752625
time_elpased: 2.136
#iterations: 117
currently lose_sum: 0.221418097615242
time_elpased: 2.187
#iterations: 118
currently lose_sum: 0.07497908174991608
time_elpased: 2.362
#iterations: 119
currently lose_sum: 0.20521554350852966
time_elpased: 2.198
start validation test
0.737053571429
0.834793491865
0.593416370107
0.69370774831
0.737568400107
63.039
#iterations: 120
currently lose_sum: 0.2833084166049957
time_elpased: 2.246
#iterations: 121
currently lose_sum: 0.09471003711223602
time_elpased: 2.412
#iterations: 122
currently lose_sum: 0.21115800738334656
time_elpased: 2.099
#iterations: 123
currently lose_sum: 0.13034778833389282
time_elpased: 2.156
#iterations: 124
currently lose_sum: 0.1470802277326584
time_elpased: 2.234
#iterations: 125
currently lose_sum: 0.2100224494934082
time_elpased: 2.146
#iterations: 126
currently lose_sum: 0.13057319819927216
time_elpased: 2.137
#iterations: 127
currently lose_sum: 0.2283652126789093
time_elpased: 2.145
#iterations: 128
currently lose_sum: 0.1224079579114914
time_elpased: 2.123
#iterations: 129
currently lose_sum: 0.12515999376773834
time_elpased: 2.146
#iterations: 130
currently lose_sum: 0.06899724900722504
time_elpased: 2.219
#iterations: 131
currently lose_sum: 0.08476976305246353
time_elpased: 2.156
#iterations: 132
currently lose_sum: 0.2403796911239624
time_elpased: 2.286
#iterations: 133
currently lose_sum: 0.16173216700553894
time_elpased: 2.186
#iterations: 134
currently lose_sum: 0.14911922812461853
time_elpased: 2.23
#iterations: 135
currently lose_sum: 0.31728824973106384
time_elpased: 2.141
#iterations: 136
currently lose_sum: 0.2637590765953064
time_elpased: 2.198
#iterations: 137
currently lose_sum: 0.1330375224351883
time_elpased: 2.203
#iterations: 138
currently lose_sum: 0.10104946792125702
time_elpased: 2.167
#iterations: 139
currently lose_sum: 0.2557365298271179
time_elpased: 2.155
start validation test
0.723214285714
0.868421052632
0.52846975089
0.657079646018
0.7239122948
71.708
#iterations: 140
currently lose_sum: 0.17682282626628876
time_elpased: 2.196
#iterations: 141
currently lose_sum: 0.23101775348186493
time_elpased: 2.189
#iterations: 142
currently lose_sum: 0.08358651399612427
time_elpased: 2.159
#iterations: 143
currently lose_sum: 0.2180614471435547
time_elpased: 2.198
#iterations: 144
currently lose_sum: 0.12094607204198837
time_elpased: 2.168
#iterations: 145
currently lose_sum: 0.17451003193855286
time_elpased: 2.117
#iterations: 146
currently lose_sum: 0.27950334548950195
time_elpased: 2.111
#iterations: 147
currently lose_sum: 0.09785868972539902
time_elpased: 2.16
#iterations: 148
currently lose_sum: 0.15474286675453186
time_elpased: 2.172
#iterations: 149
currently lose_sum: 0.11859188973903656
time_elpased: 2.168
#iterations: 150
currently lose_sum: 0.15439505875110626
time_elpased: 2.192
#iterations: 151
currently lose_sum: 0.1560225635766983
time_elpased: 2.166
#iterations: 152
currently lose_sum: 0.17794707417488098
time_elpased: 2.365
#iterations: 153
currently lose_sum: 0.14511346817016602
time_elpased: 2.163
#iterations: 154
currently lose_sum: 0.12608970701694489
time_elpased: 2.167
#iterations: 155
currently lose_sum: 0.060006558895111084
time_elpased: 2.166
#iterations: 156
currently lose_sum: 0.0535929799079895
time_elpased: 2.158
#iterations: 157
currently lose_sum: 0.14681901037693024
time_elpased: 2.116
#iterations: 158
currently lose_sum: 0.21367588639259338
time_elpased: 2.191
#iterations: 159
currently lose_sum: 0.17898687720298767
time_elpased: 2.153
start validation test
0.735267857143
0.864197530864
0.560498220641
0.679978413384
0.735894271611
72.178
#iterations: 160
currently lose_sum: 0.20385220646858215
time_elpased: 2.142
#iterations: 161
currently lose_sum: 0.3075750470161438
time_elpased: 2.187
#iterations: 162
currently lose_sum: 0.3202976584434509
time_elpased: 2.202
#iterations: 163
currently lose_sum: 0.13923028111457825
time_elpased: 2.186
#iterations: 164
currently lose_sum: 0.18208593130111694
time_elpased: 2.212
#iterations: 165
currently lose_sum: 0.09612102806568146
time_elpased: 2.171
#iterations: 166
currently lose_sum: 0.07297328859567642
time_elpased: 2.242
#iterations: 167
currently lose_sum: 0.2628914415836334
time_elpased: 2.186
#iterations: 168
currently lose_sum: 0.17861415445804596
time_elpased: 2.124
#iterations: 169
currently lose_sum: 0.15540985763072968
time_elpased: 2.195
#iterations: 170
currently lose_sum: 0.14798392355442047
time_elpased: 2.326
#iterations: 171
currently lose_sum: 0.0994759202003479
time_elpased: 2.103
#iterations: 172
currently lose_sum: 0.13573214411735535
time_elpased: 2.261
#iterations: 173
currently lose_sum: 0.06346558034420013
time_elpased: 2.144
#iterations: 174
currently lose_sum: 0.06785783171653748
time_elpased: 2.129
#iterations: 175
currently lose_sum: 0.21251770853996277
time_elpased: 2.182
#iterations: 176
currently lose_sum: 0.17051129043102264
time_elpased: 2.366
#iterations: 177
currently lose_sum: 0.1422748863697052
time_elpased: 2.265
#iterations: 178
currently lose_sum: 0.1931966096162796
time_elpased: 2.185
#iterations: 179
currently lose_sum: 0.14844557642936707
time_elpased: 2.202
start validation test
0.715178571429
0.861607142857
0.51512455516
0.644766146993
0.715895610913
78.110
#iterations: 180
currently lose_sum: 0.11769435554742813
time_elpased: 2.178
#iterations: 181
currently lose_sum: 0.26938557624816895
time_elpased: 2.142
#iterations: 182
currently lose_sum: 0.20023076236248016
time_elpased: 2.176
#iterations: 183
currently lose_sum: 0.08316552639007568
time_elpased: 2.31
#iterations: 184
currently lose_sum: 0.04241819307208061
time_elpased: 2.12
#iterations: 185
currently lose_sum: 0.09832608699798584
time_elpased: 2.137
#iterations: 186
currently lose_sum: 0.20752403140068054
time_elpased: 2.157
#iterations: 187
currently lose_sum: 0.16752611100673676
time_elpased: 2.118
#iterations: 188
currently lose_sum: 0.265145868062973
time_elpased: 2.137
#iterations: 189
currently lose_sum: 0.1381043642759323
time_elpased: 2.235
#iterations: 190
currently lose_sum: 0.19803155958652496
time_elpased: 2.133
#iterations: 191
currently lose_sum: 0.19276368618011475
time_elpased: 2.158
#iterations: 192
currently lose_sum: 0.12376342713832855
time_elpased: 2.135
#iterations: 193
currently lose_sum: 0.25885313749313354
time_elpased: 2.143
#iterations: 194
currently lose_sum: 0.07038076221942902
time_elpased: 2.211
#iterations: 195
currently lose_sum: 0.16059687733650208
time_elpased: 2.155
#iterations: 196
currently lose_sum: 0.2218063771724701
time_elpased: 2.213
#iterations: 197
currently lose_sum: 0.11185429245233536
time_elpased: 2.108
#iterations: 198
currently lose_sum: 0.21575066447257996
time_elpased: 2.218
#iterations: 199
currently lose_sum: 0.13365763425827026
time_elpased: 2.159
start validation test
0.716517857143
0.869894099849
0.511565836299
0.644257703081
0.7172524522
80.553
#iterations: 200
currently lose_sum: 0.1387576311826706
time_elpased: 2.221
#iterations: 201
currently lose_sum: 0.11226090043783188
time_elpased: 2.285
#iterations: 202
currently lose_sum: 0.2237636148929596
time_elpased: 2.306
#iterations: 203
currently lose_sum: 0.13313767313957214
time_elpased: 2.127
#iterations: 204
currently lose_sum: 0.19371196627616882
time_elpased: 2.147
#iterations: 205
currently lose_sum: 0.04315949231386185
time_elpased: 2.246
#iterations: 206
currently lose_sum: 0.127327099442482
time_elpased: 2.217
#iterations: 207
currently lose_sum: 0.2600542902946472
time_elpased: 2.139
#iterations: 208
currently lose_sum: 0.19751815497875214
time_elpased: 2.343
#iterations: 209
currently lose_sum: 0.2787940204143524
time_elpased: 2.171
#iterations: 210
currently lose_sum: 0.21281810104846954
time_elpased: 2.301
#iterations: 211
currently lose_sum: 0.15929943323135376
time_elpased: 2.159
#iterations: 212
currently lose_sum: 0.09607595205307007
time_elpased: 2.162
#iterations: 213
currently lose_sum: 0.13443410396575928
time_elpased: 2.205
#iterations: 214
currently lose_sum: 0.2952011227607727
time_elpased: 2.182
#iterations: 215
currently lose_sum: 0.1081283837556839
time_elpased: 2.26
#iterations: 216
currently lose_sum: 0.1633477509021759
time_elpased: 2.147
#iterations: 217
currently lose_sum: 0.09203024953603745
time_elpased: 2.165
#iterations: 218
currently lose_sum: 0.17298302054405212
time_elpased: 2.127
#iterations: 219
currently lose_sum: 0.13210806250572205
time_elpased: 2.123
start validation test
0.721428571429
0.842465753425
0.547153024911
0.663430420712
0.722053214964
81.432
#iterations: 220
currently lose_sum: 0.06999816000461578
time_elpased: 2.193
#iterations: 221
currently lose_sum: 0.243564635515213
time_elpased: 2.321
#iterations: 222
currently lose_sum: 0.14302216470241547
time_elpased: 2.256
#iterations: 223
currently lose_sum: 0.13650217652320862
time_elpased: 2.137
#iterations: 224
currently lose_sum: 0.19690684974193573
time_elpased: 2.26
#iterations: 225
currently lose_sum: 0.04632576182484627
time_elpased: 2.114
#iterations: 226
currently lose_sum: 0.03431801125407219
time_elpased: 2.13
#iterations: 227
currently lose_sum: 0.1383097618818283
time_elpased: 2.172
#iterations: 228
currently lose_sum: 0.15526124835014343
time_elpased: 2.182
#iterations: 229
currently lose_sum: 0.084921695291996
time_elpased: 2.138
#iterations: 230
currently lose_sum: 0.1585099697113037
time_elpased: 2.135
#iterations: 231
currently lose_sum: 0.29170238971710205
time_elpased: 2.139
#iterations: 232
currently lose_sum: 0.23995473980903625
time_elpased: 2.106
#iterations: 233
currently lose_sum: 0.11443276703357697
time_elpased: 2.129
#iterations: 234
currently lose_sum: 0.06131834536790848
time_elpased: 2.399
#iterations: 235
currently lose_sum: 0.023455452173948288
time_elpased: 2.18
#iterations: 236
currently lose_sum: 0.07008432596921921
time_elpased: 2.16
#iterations: 237
currently lose_sum: 0.16979312896728516
time_elpased: 2.231
#iterations: 238
currently lose_sum: 0.07577317953109741
time_elpased: 2.141
#iterations: 239
currently lose_sum: 0.17028817534446716
time_elpased: 2.203
start validation test
0.71875
0.853868194842
0.53024911032
0.654226125137
0.719425630429
84.014
#iterations: 240
currently lose_sum: 0.04052983596920967
time_elpased: 2.134
#iterations: 241
currently lose_sum: 0.1263524889945984
time_elpased: 2.27
#iterations: 242
currently lose_sum: 0.025966506451368332
time_elpased: 2.169
#iterations: 243
currently lose_sum: 0.1409204751253128
time_elpased: 2.181
#iterations: 244
currently lose_sum: 0.13300472497940063
time_elpased: 2.174
#iterations: 245
currently lose_sum: 0.15674452483654022
time_elpased: 2.246
#iterations: 246
currently lose_sum: 0.21268579363822937
time_elpased: 2.268
#iterations: 247
currently lose_sum: 0.12738020718097687
time_elpased: 2.236
#iterations: 248
currently lose_sum: 0.19424200057983398
time_elpased: 2.199
#iterations: 249
currently lose_sum: 0.04423872381448746
time_elpased: 2.186
#iterations: 250
currently lose_sum: 0.04453332722187042
time_elpased: 2.176
#iterations: 251
currently lose_sum: 0.10515693575143814
time_elpased: 2.156
#iterations: 252
currently lose_sum: 0.03182614594697952
time_elpased: 2.22
#iterations: 253
currently lose_sum: 0.1433582752943039
time_elpased: 2.363
#iterations: 254
currently lose_sum: 0.11969494819641113
time_elpased: 2.185
#iterations: 255
currently lose_sum: 0.06825288385152817
time_elpased: 2.174
#iterations: 256
currently lose_sum: 0.18829870223999023
time_elpased: 2.126
#iterations: 257
currently lose_sum: 0.17747533321380615
time_elpased: 2.132
#iterations: 258
currently lose_sum: 0.06011263281106949
time_elpased: 2.148
#iterations: 259
currently lose_sum: 0.0899968296289444
time_elpased: 2.172
start validation test
0.708482142857
0.862865947612
0.498220640569
0.631697687535
0.709235768313
91.640
#iterations: 260
currently lose_sum: 0.19375936686992645
time_elpased: 2.244
#iterations: 261
currently lose_sum: 0.15685367584228516
time_elpased: 2.116
#iterations: 262
currently lose_sum: 0.06623439490795135
time_elpased: 2.238
#iterations: 263
currently lose_sum: 0.1285671591758728
time_elpased: 2.139
#iterations: 264
currently lose_sum: 0.06713312864303589
time_elpased: 2.148
#iterations: 265
currently lose_sum: 0.03312325477600098
time_elpased: 2.119
#iterations: 266
currently lose_sum: 0.11598712205886841
time_elpased: 2.269
#iterations: 267
currently lose_sum: 0.05267465114593506
time_elpased: 2.136
#iterations: 268
currently lose_sum: 0.07413831353187561
time_elpased: 2.114
#iterations: 269
currently lose_sum: 0.1395772248506546
time_elpased: 2.145
#iterations: 270
currently lose_sum: 0.1691947877407074
time_elpased: 2.165
#iterations: 271
currently lose_sum: 0.09437768161296844
time_elpased: 2.134
#iterations: 272
currently lose_sum: 0.2960359454154968
time_elpased: 2.139
#iterations: 273
currently lose_sum: 0.13442210853099823
time_elpased: 2.203
#iterations: 274
currently lose_sum: 0.21333520114421844
time_elpased: 2.229
#iterations: 275
currently lose_sum: 0.10448767244815826
time_elpased: 2.115
#iterations: 276
currently lose_sum: 0.1184617429971695
time_elpased: 2.174
#iterations: 277
currently lose_sum: 0.33164525032043457
time_elpased: 2.151
#iterations: 278
currently lose_sum: 0.04130038619041443
time_elpased: 2.281
#iterations: 279
currently lose_sum: 0.17110955715179443
time_elpased: 2.231
start validation test
0.713392857143
0.865151515152
0.508007117438
0.640134529148
0.714129006748
94.070
#iterations: 280
currently lose_sum: 0.047945864498615265
time_elpased: 2.109
#iterations: 281
currently lose_sum: 0.07875422388315201
time_elpased: 2.155
#iterations: 282
currently lose_sum: 0.14071062207221985
time_elpased: 2.159
#iterations: 283
currently lose_sum: 0.05333131551742554
time_elpased: 2.351
#iterations: 284
currently lose_sum: 0.09901987016201019
time_elpased: 2.157
#iterations: 285
currently lose_sum: 0.1542600393295288
time_elpased: 2.316
#iterations: 286
currently lose_sum: 0.20925381779670715
time_elpased: 2.185
#iterations: 287
currently lose_sum: 0.10786306858062744
time_elpased: 2.157
#iterations: 288
currently lose_sum: 0.16522082686424255
time_elpased: 2.184
#iterations: 289
currently lose_sum: 0.07402293384075165
time_elpased: 2.204
#iterations: 290
currently lose_sum: 0.10251263529062271
time_elpased: 2.152
#iterations: 291
currently lose_sum: 0.07575035095214844
time_elpased: 2.115
#iterations: 292
currently lose_sum: 0.1574576050043106
time_elpased: 2.284
#iterations: 293
currently lose_sum: 0.16626086831092834
time_elpased: 2.225
#iterations: 294
currently lose_sum: 0.1050921082496643
time_elpased: 2.206
#iterations: 295
currently lose_sum: 0.0685378760099411
time_elpased: 2.24
#iterations: 296
currently lose_sum: 0.2135601043701172
time_elpased: 2.618
#iterations: 297
currently lose_sum: 0.18182490766048431
time_elpased: 2.123
#iterations: 298
currently lose_sum: 0.14536526799201965
time_elpased: 2.134
#iterations: 299
currently lose_sum: 0.034821830689907074
time_elpased: 2.214
start validation test
0.697321428571
0.880546075085
0.459074733096
0.60350877193
0.69817535938
106.643
#iterations: 300
currently lose_sum: 0.08541729301214218
time_elpased: 2.12
#iterations: 301
currently lose_sum: 0.10756973177194595
time_elpased: 2.153
#iterations: 302
currently lose_sum: 0.2996498644351959
time_elpased: 2.233
#iterations: 303
currently lose_sum: 0.17922592163085938
time_elpased: 2.148
#iterations: 304
currently lose_sum: 0.197572723031044
time_elpased: 2.134
#iterations: 305
currently lose_sum: 0.14585450291633606
time_elpased: 2.142
#iterations: 306
currently lose_sum: 0.10452502965927124
time_elpased: 2.157
#iterations: 307
currently lose_sum: 0.06054079532623291
time_elpased: 2.161
#iterations: 308
currently lose_sum: 0.044055938720703125
time_elpased: 2.226
#iterations: 309
currently lose_sum: 0.10533199459314346
time_elpased: 2.15
#iterations: 310
currently lose_sum: 0.05224927142262459
time_elpased: 2.376
#iterations: 311
currently lose_sum: 0.03705634921789169
time_elpased: 2.123
#iterations: 312
currently lose_sum: 0.0438099130988121
time_elpased: 2.209
#iterations: 313
currently lose_sum: 0.019596945494413376
time_elpased: 2.144
#iterations: 314
currently lose_sum: 0.14235007762908936
time_elpased: 2.171
#iterations: 315
currently lose_sum: 0.14395824074745178
time_elpased: 2.215
#iterations: 316
currently lose_sum: 0.12562981247901917
time_elpased: 2.166
#iterations: 317
currently lose_sum: 0.1454392671585083
time_elpased: 2.183
#iterations: 318
currently lose_sum: 0.06217686086893082
time_elpased: 2.146
#iterations: 319
currently lose_sum: 0.1178164854645729
time_elpased: 2.117
start validation test
0.694196428571
0.880415944541
0.451957295374
0.597295708407
0.695064669192
108.003
#iterations: 320
currently lose_sum: 0.10214121639728546
time_elpased: 2.149
#iterations: 321
currently lose_sum: 0.1608351618051529
time_elpased: 2.222
#iterations: 322
currently lose_sum: 0.29566001892089844
time_elpased: 2.167
#iterations: 323
currently lose_sum: 0.029894713312387466
time_elpased: 2.105
#iterations: 324
currently lose_sum: 0.22347009181976318
time_elpased: 2.262
#iterations: 325
currently lose_sum: 0.11089225113391876
time_elpased: 2.156
#iterations: 326
currently lose_sum: 0.07875479012727737
time_elpased: 2.297
#iterations: 327
currently lose_sum: 0.08629108220338821
time_elpased: 2.135
#iterations: 328
currently lose_sum: 0.08288468420505524
time_elpased: 2.187
#iterations: 329
currently lose_sum: 0.07816368341445923
time_elpased: 2.229
#iterations: 330
currently lose_sum: 0.13146540522575378
time_elpased: 2.197
#iterations: 331
currently lose_sum: 0.10755934566259384
time_elpased: 2.367
#iterations: 332
currently lose_sum: 0.15658259391784668
time_elpased: 2.235
#iterations: 333
currently lose_sum: 0.06153940036892891
time_elpased: 2.177
#iterations: 334
currently lose_sum: 0.31575441360473633
time_elpased: 2.141
#iterations: 335
currently lose_sum: 0.08850304782390594
time_elpased: 2.165
#iterations: 336
currently lose_sum: 0.15860047936439514
time_elpased: 2.14
#iterations: 337
currently lose_sum: 0.09191088378429413
time_elpased: 2.096
#iterations: 338
currently lose_sum: 0.09818078577518463
time_elpased: 2.175
#iterations: 339
currently lose_sum: 0.04672546684741974
time_elpased: 2.158
start validation test
0.697321428571
0.891228070175
0.451957295374
0.599763872491
0.698200869909
113.847
#iterations: 340
currently lose_sum: 0.15570902824401855
time_elpased: 2.138
#iterations: 341
currently lose_sum: 0.07102976739406586
time_elpased: 2.249
#iterations: 342
currently lose_sum: 0.08372090756893158
time_elpased: 2.274
#iterations: 343
currently lose_sum: 0.10473461449146271
time_elpased: 2.16
#iterations: 344
currently lose_sum: 0.11820302158594131
time_elpased: 2.138
#iterations: 345
currently lose_sum: 0.17577168345451355
time_elpased: 2.203
#iterations: 346
currently lose_sum: 0.15214130282402039
time_elpased: 2.162
#iterations: 347
currently lose_sum: 0.17072813212871552
time_elpased: 2.187
#iterations: 348
currently lose_sum: 0.04488683491945267
time_elpased: 2.166
#iterations: 349
currently lose_sum: 0.11197467148303986
time_elpased: 2.173
#iterations: 350
currently lose_sum: 0.10069005191326141
time_elpased: 2.123
#iterations: 351
currently lose_sum: 0.024093175306916237
time_elpased: 2.171
#iterations: 352
currently lose_sum: 0.05867716670036316
time_elpased: 2.255
#iterations: 353
currently lose_sum: 0.17749863862991333
time_elpased: 2.151
#iterations: 354
currently lose_sum: 0.2071017324924469
time_elpased: 2.217
#iterations: 355
currently lose_sum: 0.10550351440906525
time_elpased: 2.18
#iterations: 356
currently lose_sum: 0.09599924832582474
time_elpased: 2.161
#iterations: 357
currently lose_sum: 0.1318775862455368
time_elpased: 2.182
#iterations: 358
currently lose_sum: 0.03533665090799332
time_elpased: 2.125
#iterations: 359
currently lose_sum: 0.07627794146537781
time_elpased: 2.154
start validation test
0.699553571429
0.873963515755
0.468861209964
0.610306890562
0.700380425771
107.921
#iterations: 360
currently lose_sum: 0.18542537093162537
time_elpased: 2.172
#iterations: 361
currently lose_sum: 0.054017324000597
time_elpased: 2.15
#iterations: 362
currently lose_sum: 0.1608893871307373
time_elpased: 2.13
#iterations: 363
currently lose_sum: 0.06256455928087234
time_elpased: 2.178
#iterations: 364
currently lose_sum: 0.2596382200717926
time_elpased: 2.203
#iterations: 365
currently lose_sum: 0.053861476480960846
time_elpased: 2.19
#iterations: 366
currently lose_sum: 0.10366137325763702
time_elpased: 2.14
#iterations: 367
currently lose_sum: 0.05048450082540512
time_elpased: 2.14
#iterations: 368
currently lose_sum: 0.17768380045890808
time_elpased: 2.342
#iterations: 369
currently lose_sum: 0.03320205211639404
time_elpased: 2.163
#iterations: 370
currently lose_sum: 0.08083539456129074
time_elpased: 2.175
#iterations: 371
currently lose_sum: 0.08611071854829788
time_elpased: 2.398
#iterations: 372
currently lose_sum: 0.049776386469602585
time_elpased: 2.15
#iterations: 373
currently lose_sum: 0.04591599851846695
time_elpased: 2.194
#iterations: 374
currently lose_sum: 0.05967022106051445
time_elpased: 2.108
#iterations: 375
currently lose_sum: 0.11812474578619003
time_elpased: 2.193
#iterations: 376
currently lose_sum: 0.08546082675457001
time_elpased: 2.125
#iterations: 377
currently lose_sum: 0.05163244530558586
time_elpased: 2.149
#iterations: 378
currently lose_sum: 0.12483866512775421
time_elpased: 2.196
#iterations: 379
currently lose_sum: 0.18910261988639832
time_elpased: 2.159
start validation test
0.687053571429
0.883847549909
0.433274021352
0.581492537313
0.687963175551
118.330
#iterations: 380
currently lose_sum: 0.14334022998809814
time_elpased: 2.189
#iterations: 381
currently lose_sum: 0.131318598985672
time_elpased: 2.166
#iterations: 382
currently lose_sum: 0.09624744951725006
time_elpased: 2.146
#iterations: 383
currently lose_sum: 0.1368853896856308
time_elpased: 2.206
#iterations: 384
currently lose_sum: 0.061697401106357574
time_elpased: 2.194
#iterations: 385
currently lose_sum: 0.2182004451751709
time_elpased: 2.142
#iterations: 386
currently lose_sum: 0.11776826530694962
time_elpased: 2.144
#iterations: 387
currently lose_sum: 0.0667782574892044
time_elpased: 2.188
#iterations: 388
currently lose_sum: 0.04498235508799553
time_elpased: 2.226
#iterations: 389
currently lose_sum: 0.1306794434785843
time_elpased: 2.179
#iterations: 390
currently lose_sum: 0.06557762622833252
time_elpased: 2.443
#iterations: 391
currently lose_sum: 0.03661442548036575
time_elpased: 2.123
#iterations: 392
currently lose_sum: 0.031021008267998695
time_elpased: 2.187
#iterations: 393
currently lose_sum: 0.21916382014751434
time_elpased: 2.558
#iterations: 394
currently lose_sum: 0.10714119672775269
time_elpased: 2.119
#iterations: 395
currently lose_sum: 0.03154972195625305
time_elpased: 2.303
#iterations: 396
currently lose_sum: 0.03857145458459854
time_elpased: 2.264
#iterations: 397
currently lose_sum: 0.13352355360984802
time_elpased: 2.144
#iterations: 398
currently lose_sum: 0.04446467012166977
time_elpased: 2.305
#iterations: 399
currently lose_sum: 0.030797356739640236
time_elpased: 2.19
start validation test
0.688392857143
0.885869565217
0.435053380783
0.58353221957
0.68930088394
123.768
#iterations: 400
currently lose_sum: 0.08499306440353394
time_elpased: 2.125
#iterations: 401
currently lose_sum: 0.0831424668431282
time_elpased: 2.12
#iterations: 402
currently lose_sum: 0.1465645730495453
time_elpased: 2.403
#iterations: 403
currently lose_sum: 0.013361690565943718
time_elpased: 2.389
#iterations: 404
currently lose_sum: 0.028666609898209572
time_elpased: 2.168
#iterations: 405
currently lose_sum: 0.032487742602825165
time_elpased: 2.263
#iterations: 406
currently lose_sum: 0.21908414363861084
time_elpased: 2.197
#iterations: 407
currently lose_sum: 0.23794643580913544
time_elpased: 2.136
#iterations: 408
currently lose_sum: 0.038352109491825104
time_elpased: 2.111
#iterations: 409
currently lose_sum: 0.09828972816467285
time_elpased: 2.201
#iterations: 410
currently lose_sum: 0.028097311034798622
time_elpased: 2.127
#iterations: 411
currently lose_sum: 0.1268739104270935
time_elpased: 2.134
#iterations: 412
currently lose_sum: 0.07176576554775238
time_elpased: 2.178
#iterations: 413
currently lose_sum: 0.19303734600543976
time_elpased: 2.112
#iterations: 414
currently lose_sum: 0.021272405982017517
time_elpased: 2.128
#iterations: 415
currently lose_sum: 0.023843666538596153
time_elpased: 2.163
#iterations: 416
currently lose_sum: 0.027374278753995895
time_elpased: 2.178
#iterations: 417
currently lose_sum: 0.03519436717033386
time_elpased: 2.18
#iterations: 418
currently lose_sum: 0.04491255432367325
time_elpased: 2.294
#iterations: 419
currently lose_sum: 0.08568369597196579
time_elpased: 2.125
start validation test
0.695535714286
0.886363636364
0.451067615658
0.597877358491
0.69641194403
117.505
#iterations: 420
currently lose_sum: 0.15777401626110077
time_elpased: 2.169
#iterations: 421
currently lose_sum: 0.36016589403152466
time_elpased: 2.126
#iterations: 422
currently lose_sum: 0.05560261011123657
time_elpased: 2.16
#iterations: 423
currently lose_sum: 0.17405512928962708
time_elpased: 2.134
#iterations: 424
currently lose_sum: 0.2147485911846161
time_elpased: 2.164
#iterations: 425
currently lose_sum: 0.13617350161075592
time_elpased: 2.37
#iterations: 426
currently lose_sum: 0.14066609740257263
time_elpased: 2.123
#iterations: 427
currently lose_sum: 0.0629466325044632
time_elpased: 2.153
#iterations: 428
currently lose_sum: 0.12356200069189072
time_elpased: 2.12
#iterations: 429
currently lose_sum: 0.11401991546154022
time_elpased: 2.128
#iterations: 430
currently lose_sum: 0.04160228371620178
time_elpased: 2.17
#iterations: 431
currently lose_sum: 0.09213514626026154
time_elpased: 2.147
#iterations: 432
currently lose_sum: 0.10181508213281631
time_elpased: 2.3
#iterations: 433
currently lose_sum: 0.15034730732440948
time_elpased: 2.125
#iterations: 434
currently lose_sum: 0.032092899084091187
time_elpased: 2.327
#iterations: 435
currently lose_sum: 0.03823637589812279
time_elpased: 2.236
#iterations: 436
currently lose_sum: 0.10343855619430542
time_elpased: 2.146
#iterations: 437
currently lose_sum: 0.056777190417051315
time_elpased: 2.551
#iterations: 438
currently lose_sum: 0.06387986242771149
time_elpased: 2.176
#iterations: 439
currently lose_sum: 0.026566166430711746
time_elpased: 2.171
start validation test
0.690178571429
0.881205673759
0.442170818505
0.588862559242
0.691067488106
123.740
#iterations: 440
currently lose_sum: 0.07262405008077621
time_elpased: 2.124
#iterations: 441
currently lose_sum: 0.04428047686815262
time_elpased: 2.22
#iterations: 442
currently lose_sum: 0.05604229494929314
time_elpased: 2.201
#iterations: 443
currently lose_sum: 0.24443086981773376
time_elpased: 2.14
#iterations: 444
currently lose_sum: 0.08042933791875839
time_elpased: 2.204
#iterations: 445
currently lose_sum: 0.07388611882925034
time_elpased: 2.159
#iterations: 446
currently lose_sum: 0.21376053988933563
time_elpased: 2.303
#iterations: 447
currently lose_sum: 0.035558901727199554
time_elpased: 2.13
#iterations: 448
currently lose_sum: 0.1327710598707199
time_elpased: 2.142
#iterations: 449
currently lose_sum: 0.12114973366260529
time_elpased: 2.136
#iterations: 450
currently lose_sum: 0.07489608228206635
time_elpased: 2.181
#iterations: 451
currently lose_sum: 0.039104461669921875
time_elpased: 2.138
#iterations: 452
currently lose_sum: 0.06573238968849182
time_elpased: 2.152
#iterations: 453
currently lose_sum: 0.052454281598329544
time_elpased: 2.382
#iterations: 454
currently lose_sum: 0.021656688302755356
time_elpased: 2.199
#iterations: 455
currently lose_sum: 0.11285579204559326
time_elpased: 2.161
#iterations: 456
currently lose_sum: 0.11674796044826508
time_elpased: 2.23
#iterations: 457
currently lose_sum: 0.11097991466522217
time_elpased: 2.162
#iterations: 458
currently lose_sum: 0.052057184278964996
time_elpased: 2.184
#iterations: 459
currently lose_sum: 0.031521059572696686
time_elpased: 2.207
start validation test
0.681696428571
0.882681564246
0.421708185053
0.57074051776
0.682628286075
131.361
#iterations: 460
currently lose_sum: 0.29709523916244507
time_elpased: 2.138
#iterations: 461
currently lose_sum: 0.042643409222364426
time_elpased: 2.354
#iterations: 462
currently lose_sum: 0.19466309249401093
time_elpased: 2.172
#iterations: 463
currently lose_sum: 0.05343114212155342
time_elpased: 2.221
#iterations: 464
currently lose_sum: 0.056848883628845215
time_elpased: 2.211
#iterations: 465
currently lose_sum: 0.10042542219161987
time_elpased: 2.187
#iterations: 466
currently lose_sum: 0.05088917165994644
time_elpased: 2.15
#iterations: 467
currently lose_sum: 0.0282001830637455
time_elpased: 2.416
#iterations: 468
currently lose_sum: 0.15011200308799744
time_elpased: 2.146
#iterations: 469
currently lose_sum: 0.07650897651910782
time_elpased: 2.321
#iterations: 470
currently lose_sum: 0.08435669541358948
time_elpased: 2.107
#iterations: 471
currently lose_sum: 0.19370080530643463
time_elpased: 2.138
#iterations: 472
currently lose_sum: 0.10768146812915802
time_elpased: 2.124
#iterations: 473
currently lose_sum: 0.10757815837860107
time_elpased: 2.163
#iterations: 474
currently lose_sum: 0.027314728125929832
time_elpased: 2.215
#iterations: 475
currently lose_sum: 0.08859032392501831
time_elpased: 2.255
#iterations: 476
currently lose_sum: 0.018929829820990562
time_elpased: 2.195
#iterations: 477
currently lose_sum: 0.05918015167117119
time_elpased: 2.13
#iterations: 478
currently lose_sum: 0.15474732220172882
time_elpased: 2.12
#iterations: 479
currently lose_sum: 0.018343310803174973
time_elpased: 2.131
start validation test
0.686607142857
0.883636363636
0.432384341637
0.58064516129
0.687518335693
130.470
#iterations: 480
currently lose_sum: 0.04246578365564346
time_elpased: 2.324
#iterations: 481
currently lose_sum: 0.12035856395959854
time_elpased: 2.17
#iterations: 482
currently lose_sum: 0.09213615953922272
time_elpased: 2.158
#iterations: 483
currently lose_sum: 0.15267853438854218
time_elpased: 2.136
#iterations: 484
currently lose_sum: 0.05029396340250969
time_elpased: 2.132
#iterations: 485
currently lose_sum: 0.07629237323999405
time_elpased: 2.149
#iterations: 486
currently lose_sum: 0.18852244317531586
time_elpased: 2.209
#iterations: 487
currently lose_sum: 0.09463140368461609
time_elpased: 2.16
#iterations: 488
currently lose_sum: 0.041271425783634186
time_elpased: 2.15
#iterations: 489
currently lose_sum: 0.021885652095079422
time_elpased: 2.19
#iterations: 490
currently lose_sum: 0.040935564786195755
time_elpased: 2.131
#iterations: 491
currently lose_sum: 0.027555814012885094
time_elpased: 2.136
#iterations: 492
currently lose_sum: 0.1057637482881546
time_elpased: 2.167
#iterations: 493
currently lose_sum: 0.08851855993270874
time_elpased: 2.156
#iterations: 494
currently lose_sum: 0.12983505427837372
time_elpased: 2.128
#iterations: 495
currently lose_sum: 0.1825566589832306
time_elpased: 2.14
#iterations: 496
currently lose_sum: 0.019731566309928894
time_elpased: 2.139
#iterations: 497
currently lose_sum: 0.04366862028837204
time_elpased: 2.206
#iterations: 498
currently lose_sum: 0.11837635934352875
time_elpased: 2.112
#iterations: 499
currently lose_sum: 0.03815384954214096
time_elpased: 2.169
start validation test
0.678571428571
0.885496183206
0.4128113879
0.563106796117
0.67952397352
132.911
#iterations: 500
currently lose_sum: 0.0625450536608696
time_elpased: 2.161
#iterations: 501
currently lose_sum: 0.09641730785369873
time_elpased: 2.12
#iterations: 502
currently lose_sum: 0.013813009485602379
time_elpased: 2.171
#iterations: 503
currently lose_sum: 0.12966732680797577
time_elpased: 2.188
#iterations: 504
currently lose_sum: 0.06025965139269829
time_elpased: 2.168
#iterations: 505
currently lose_sum: 0.09706779569387436
time_elpased: 2.14
#iterations: 506
currently lose_sum: 0.0734962746500969
time_elpased: 2.188
#iterations: 507
currently lose_sum: 0.014404128305613995
time_elpased: 2.19
#iterations: 508
currently lose_sum: 0.18823780119419098
time_elpased: 2.174
#iterations: 509
currently lose_sum: 0.0775718092918396
time_elpased: 2.212
#iterations: 510
currently lose_sum: 0.05672530084848404
time_elpased: 2.2
#iterations: 511
currently lose_sum: 0.015160733833909035
time_elpased: 2.137
#iterations: 512
currently lose_sum: 0.07400503754615784
time_elpased: 2.143
#iterations: 513
currently lose_sum: 0.2104358971118927
time_elpased: 2.211
#iterations: 514
currently lose_sum: 0.03911138325929642
time_elpased: 2.132
#iterations: 515
currently lose_sum: 0.06336886435747147
time_elpased: 2.228
#iterations: 516
currently lose_sum: 0.0630704015493393
time_elpased: 2.182
#iterations: 517
currently lose_sum: 0.0961688756942749
time_elpased: 2.162
#iterations: 518
currently lose_sum: 0.08068233728408813
time_elpased: 2.196
#iterations: 519
currently lose_sum: 0.1222589761018753
time_elpased: 2.123
start validation test
0.675
0.888235294118
0.403024911032
0.554467564259
0.675974821107
139.468
#iterations: 520
currently lose_sum: 0.08348794281482697
time_elpased: 2.266
#iterations: 521
currently lose_sum: 0.22211775183677673
time_elpased: 2.157
#iterations: 522
currently lose_sum: 0.07266531884670258
time_elpased: 2.16
#iterations: 523
currently lose_sum: 0.021229205653071404
time_elpased: 2.199
#iterations: 524
currently lose_sum: 0.08080314099788666
time_elpased: 2.241
#iterations: 525
currently lose_sum: 0.08818729966878891
time_elpased: 2.115
#iterations: 526
currently lose_sum: 0.11894794553518295
time_elpased: 2.158
#iterations: 527
currently lose_sum: 0.028691444545984268
time_elpased: 2.14
#iterations: 528
currently lose_sum: 0.10020226240158081
time_elpased: 2.167
#iterations: 529
currently lose_sum: 0.06385260820388794
time_elpased: 2.129
#iterations: 530
currently lose_sum: 0.0297078900039196
time_elpased: 2.441
#iterations: 531
currently lose_sum: 0.1698790192604065
time_elpased: 2.223
#iterations: 532
currently lose_sum: 0.1060594767332077
time_elpased: 2.145
#iterations: 533
currently lose_sum: 0.014793711714446545
time_elpased: 2.163
#iterations: 534
currently lose_sum: 0.09461288154125214
time_elpased: 2.155
#iterations: 535
currently lose_sum: 0.10391037166118622
time_elpased: 2.109
#iterations: 536
currently lose_sum: 0.019097497686743736
time_elpased: 2.156
#iterations: 537
currently lose_sum: 0.06013412028551102
time_elpased: 2.238
#iterations: 538
currently lose_sum: 0.13979613780975342
time_elpased: 2.274
#iterations: 539
currently lose_sum: 0.04362275078892708
time_elpased: 2.179
start validation test
0.672767857143
0.884086444008
0.400355871886
0.551132884262
0.673744244187
139.414
#iterations: 540
currently lose_sum: 0.06054610759019852
time_elpased: 2.139
#iterations: 541
currently lose_sum: 0.14700469374656677
time_elpased: 2.233
#iterations: 542
currently lose_sum: 0.054240405559539795
time_elpased: 2.189
#iterations: 543
currently lose_sum: 0.087630495429039
time_elpased: 2.158
#iterations: 544
currently lose_sum: 0.13448293507099152
time_elpased: 2.071
#iterations: 545
currently lose_sum: 0.08892231434583664
time_elpased: 2.207
#iterations: 546
currently lose_sum: 0.12642845511436462
time_elpased: 2.343
#iterations: 547
currently lose_sum: 0.19994871318340302
time_elpased: 2.328
#iterations: 548
currently lose_sum: 0.1240331381559372
time_elpased: 2.2
#iterations: 549
currently lose_sum: 0.05427471920847893
time_elpased: 2.189
#iterations: 550
currently lose_sum: 0.08466751873493195
time_elpased: 2.211
#iterations: 551
currently lose_sum: 0.1509934961795807
time_elpased: 2.114
#iterations: 552
currently lose_sum: 0.22497928142547607
time_elpased: 2.115
#iterations: 553
currently lose_sum: 0.017040759325027466
time_elpased: 2.152
#iterations: 554
currently lose_sum: 0.059883035719394684
time_elpased: 2.089
#iterations: 555
currently lose_sum: 0.2104218453168869
time_elpased: 2.212
#iterations: 556
currently lose_sum: 0.13574723899364471
time_elpased: 2.179
#iterations: 557
currently lose_sum: 0.07885151356458664
time_elpased: 2.141
#iterations: 558
currently lose_sum: 0.08664166927337646
time_elpased: 2.274
#iterations: 559
currently lose_sum: 0.2519679069519043
time_elpased: 2.151
start validation test
0.675446428571
0.893069306931
0.401245551601
0.553713934929
0.676429227414
141.533
#iterations: 560
currently lose_sum: 0.07324454933404922
time_elpased: 2.184
#iterations: 561
currently lose_sum: 0.06517279148101807
time_elpased: 2.152
#iterations: 562
currently lose_sum: 0.06785611808300018
time_elpased: 2.107
#iterations: 563
currently lose_sum: 0.18672259151935577
time_elpased: 2.154
#iterations: 564
currently lose_sum: 0.04524295777082443
time_elpased: 2.15
#iterations: 565
currently lose_sum: 0.03878021985292435
time_elpased: 2.154
#iterations: 566
currently lose_sum: 0.022249193862080574
time_elpased: 2.173
#iterations: 567
currently lose_sum: 0.0873742327094078
time_elpased: 2.222
#iterations: 568
currently lose_sum: 0.01830284856259823
time_elpased: 2.2
#iterations: 569
currently lose_sum: 0.2011091411113739
time_elpased: 2.236
#iterations: 570
currently lose_sum: 0.03323953598737717
time_elpased: 2.301
#iterations: 571
currently lose_sum: 0.01811312697827816
time_elpased: 2.228
#iterations: 572
currently lose_sum: 0.10202179104089737
time_elpased: 2.22
#iterations: 573
currently lose_sum: 0.014925849623978138
time_elpased: 2.156
#iterations: 574
currently lose_sum: 0.1215190663933754
time_elpased: 2.199
#iterations: 575
currently lose_sum: 0.06084452196955681
time_elpased: 2.33
#iterations: 576
currently lose_sum: 0.07989777624607086
time_elpased: 2.159
#iterations: 577
currently lose_sum: 0.01680060848593712
time_elpased: 2.263
#iterations: 578
currently lose_sum: 0.022691786289215088
time_elpased: 2.462
#iterations: 579
currently lose_sum: 0.018547719344496727
time_elpased: 2.195
start validation test
0.668303571429
0.884848484848
0.389679715302
0.541074737492
0.669302223243
144.791
#iterations: 580
currently lose_sum: 0.05862129479646683
time_elpased: 2.159
#iterations: 581
currently lose_sum: 0.040091242641210556
time_elpased: 2.115
#iterations: 582
currently lose_sum: 0.01797148585319519
time_elpased: 2.243
#iterations: 583
currently lose_sum: 0.11717138439416885
time_elpased: 2.139
#iterations: 584
currently lose_sum: 0.16502231359481812
time_elpased: 2.172
#iterations: 585
currently lose_sum: 0.02574002370238304
time_elpased: 2.125
#iterations: 586
currently lose_sum: 0.02405427023768425
time_elpased: 2.131
#iterations: 587
currently lose_sum: 0.13450796902179718
time_elpased: 2.156
#iterations: 588
currently lose_sum: 0.05223184823989868
time_elpased: 2.12
#iterations: 589
currently lose_sum: 0.13338658213615417
time_elpased: 2.202
#iterations: 590
currently lose_sum: 0.1507333517074585
time_elpased: 2.473
#iterations: 591
currently lose_sum: 0.16529136896133423
time_elpased: 2.194
#iterations: 592
currently lose_sum: 0.16496984660625458
time_elpased: 2.154
#iterations: 593
currently lose_sum: 0.09247968345880508
time_elpased: 2.131
#iterations: 594
currently lose_sum: 0.20666226744651794
time_elpased: 2.105
#iterations: 595
currently lose_sum: 0.15377545356750488
time_elpased: 2.128
#iterations: 596
currently lose_sum: 0.08619602024555206
time_elpased: 2.165
#iterations: 597
currently lose_sum: 0.05912373214960098
time_elpased: 2.112
#iterations: 598
currently lose_sum: 0.11955659091472626
time_elpased: 2.143
#iterations: 599
currently lose_sum: 0.20314529538154602
time_elpased: 2.199
start validation test
0.669642857143
0.895061728395
0.387010676157
0.540372670807
0.670655875713
149.934
acc: 0.762
pre: 0.817
rec: 0.676
F1: 0.740
auc: 0.762
