start to construct computing graph
graph construct over
3373
epochs start
#iterations: 0
currently lose_sum: 0.6613531112670898
time_elpased: 3.527
#iterations: 1
currently lose_sum: 0.6422592997550964
time_elpased: 3.646
#iterations: 2
currently lose_sum: 0.49003440141677856
time_elpased: 3.657
#iterations: 3
currently lose_sum: 0.6323100328445435
time_elpased: 3.659
#iterations: 4
currently lose_sum: 0.6562873721122742
time_elpased: 3.878
#iterations: 5
currently lose_sum: 0.4310181736946106
time_elpased: 3.586
#iterations: 6
currently lose_sum: 0.5196894407272339
time_elpased: 3.673
#iterations: 7
currently lose_sum: 0.41300448775291443
time_elpased: 3.61
#iterations: 8
currently lose_sum: 0.41030725836753845
time_elpased: 3.924
#iterations: 9
currently lose_sum: 0.4077019691467285
time_elpased: 3.531
#iterations: 10
currently lose_sum: 0.45444440841674805
time_elpased: 3.581
#iterations: 11
currently lose_sum: 0.498506635427475
time_elpased: 3.508
#iterations: 12
currently lose_sum: 0.3380320370197296
time_elpased: 3.568
#iterations: 13
currently lose_sum: 0.3374713063240051
time_elpased: 3.569
#iterations: 14
currently lose_sum: 0.39719274640083313
time_elpased: 3.585
#iterations: 15
currently lose_sum: 0.26180750131607056
time_elpased: 3.552
#iterations: 16
currently lose_sum: 0.383689820766449
time_elpased: 3.57
#iterations: 17
currently lose_sum: 0.45790719985961914
time_elpased: 3.513
#iterations: 18
currently lose_sum: 0.35845082998275757
time_elpased: 3.456
#iterations: 19
currently lose_sum: 0.3419012129306793
time_elpased: 3.541
start validation test
0.741964285714
0.77800407332
0.679715302491
0.725546058879
0.742187400349
32.067
#iterations: 20
currently lose_sum: 0.5774961709976196
time_elpased: 3.584
#iterations: 21
currently lose_sum: 0.3341754972934723
time_elpased: 3.169
#iterations: 22
currently lose_sum: 0.4875516891479492
time_elpased: 3.16
#iterations: 23
currently lose_sum: 0.22312641143798828
time_elpased: 3.188
#iterations: 24
currently lose_sum: 0.29069310426712036
time_elpased: 3.139
#iterations: 25
currently lose_sum: 0.38126444816589355
time_elpased: 3.163
#iterations: 26
currently lose_sum: 0.3063729703426361
time_elpased: 3.157
#iterations: 27
currently lose_sum: 0.19265274703502655
time_elpased: 3.341
#iterations: 28
currently lose_sum: 0.3163527846336365
time_elpased: 3.174
#iterations: 29
currently lose_sum: 0.2555885314941406
time_elpased: 3.185
#iterations: 30
currently lose_sum: 0.3901326060295105
time_elpased: 3.242
#iterations: 31
currently lose_sum: 0.4729069769382477
time_elpased: 3.262
#iterations: 32
currently lose_sum: 0.37433579564094543
time_elpased: 3.153
#iterations: 33
currently lose_sum: 0.25124090909957886
time_elpased: 3.568
#iterations: 34
currently lose_sum: 0.26633843779563904
time_elpased: 3.126
#iterations: 35
currently lose_sum: 0.12807102501392365
time_elpased: 3.275
#iterations: 36
currently lose_sum: 0.25298184156417847
time_elpased: 3.162
#iterations: 37
currently lose_sum: 0.3459445834159851
time_elpased: 3.215
#iterations: 38
currently lose_sum: 0.18300408124923706
time_elpased: 3.149
#iterations: 39
currently lose_sum: 0.27964481711387634
time_elpased: 3.169
start validation test
0.745535714286
0.832932692308
0.616548042705
0.708588957055
0.745998035689
39.545
#iterations: 40
currently lose_sum: 0.2505132257938385
time_elpased: 3.132
#iterations: 41
currently lose_sum: 0.24824467301368713
time_elpased: 3.175
#iterations: 42
currently lose_sum: 0.12411224842071533
time_elpased: 3.451
#iterations: 43
currently lose_sum: 0.31396713852882385
time_elpased: 3.24
#iterations: 44
currently lose_sum: 0.2901475429534912
time_elpased: 3.405
#iterations: 45
currently lose_sum: 0.30474841594696045
time_elpased: 3.201
#iterations: 46
currently lose_sum: 0.21477989852428436
time_elpased: 3.161
#iterations: 47
currently lose_sum: 0.3022456467151642
time_elpased: 3.182
#iterations: 48
currently lose_sum: 0.2600644826889038
time_elpased: 3.093
#iterations: 49
currently lose_sum: 0.31643757224082947
time_elpased: 3.174
#iterations: 50
currently lose_sum: 0.44124430418014526
time_elpased: 3.273
#iterations: 51
currently lose_sum: 0.11500883102416992
time_elpased: 3.105
#iterations: 52
currently lose_sum: 0.32230210304260254
time_elpased: 3.434
#iterations: 53
currently lose_sum: 0.21674533188343048
time_elpased: 3.182
#iterations: 54
currently lose_sum: 0.37434497475624084
time_elpased: 3.166
#iterations: 55
currently lose_sum: 0.2959921956062317
time_elpased: 3.212
#iterations: 56
currently lose_sum: 0.16514348983764648
time_elpased: 3.344
#iterations: 57
currently lose_sum: 0.25739097595214844
time_elpased: 3.183
#iterations: 58
currently lose_sum: 0.1720331609249115
time_elpased: 3.398
#iterations: 59
currently lose_sum: 0.38206323981285095
time_elpased: 3.137
start validation test
0.754017857143
0.780607247796
0.709074733096
0.743123543124
0.754178943609
37.276
#iterations: 60
currently lose_sum: 0.4051753878593445
time_elpased: 3.283
#iterations: 61
currently lose_sum: 0.26273924112319946
time_elpased: 3.089
#iterations: 62
currently lose_sum: 0.2677466869354248
time_elpased: 3.157
#iterations: 63
currently lose_sum: 0.2732578217983246
time_elpased: 3.12
#iterations: 64
currently lose_sum: 0.2457388937473297
time_elpased: 3.368
#iterations: 65
currently lose_sum: 0.1770578771829605
time_elpased: 3.233
#iterations: 66
currently lose_sum: 0.32274892926216125
time_elpased: 3.171
#iterations: 67
currently lose_sum: 0.2637383043766022
time_elpased: 3.194
#iterations: 68
currently lose_sum: 0.2768124043941498
time_elpased: 3.172
#iterations: 69
currently lose_sum: 0.32988840341567993
time_elpased: 3.135
#iterations: 70
currently lose_sum: 0.19577844440937042
time_elpased: 3.174
#iterations: 71
currently lose_sum: 0.16093377768993378
time_elpased: 3.337
#iterations: 72
currently lose_sum: 0.09872309863567352
time_elpased: 3.412
#iterations: 73
currently lose_sum: 0.344662606716156
time_elpased: 3.162
#iterations: 74
currently lose_sum: 0.2141406238079071
time_elpased: 3.337
#iterations: 75
currently lose_sum: 0.36716675758361816
time_elpased: 3.194
#iterations: 76
currently lose_sum: 0.22783339023590088
time_elpased: 3.312
#iterations: 77
currently lose_sum: 0.05049894005060196
time_elpased: 3.147
#iterations: 78
currently lose_sum: 0.306660532951355
time_elpased: 3.18
#iterations: 79
currently lose_sum: 0.36665648221969604
time_elpased: 3.163
start validation test
0.753125
0.818283166109
0.653024911032
0.726373082632
0.753483781681
45.959
#iterations: 80
currently lose_sum: 0.03672529757022858
time_elpased: 3.163
#iterations: 81
currently lose_sum: 0.23659484088420868
time_elpased: 3.137
#iterations: 82
currently lose_sum: 0.16498301923274994
time_elpased: 3.176
#iterations: 83
currently lose_sum: 0.3417796194553375
time_elpased: 3.24
#iterations: 84
currently lose_sum: 0.21795693039894104
time_elpased: 3.186
#iterations: 85
currently lose_sum: 0.19971629977226257
time_elpased: 3.226
#iterations: 86
currently lose_sum: 0.35185280442237854
time_elpased: 3.166
#iterations: 87
currently lose_sum: 0.26447969675064087
time_elpased: 3.215
#iterations: 88
currently lose_sum: 0.14241264760494232
time_elpased: 3.17
#iterations: 89
currently lose_sum: 0.23737260699272156
time_elpased: 3.162
#iterations: 90
currently lose_sum: 0.22223921120166779
time_elpased: 3.191
#iterations: 91
currently lose_sum: 0.23732157051563263
time_elpased: 3.425
#iterations: 92
currently lose_sum: 0.14793738722801208
time_elpased: 3.32
#iterations: 93
currently lose_sum: 0.16438612341880798
time_elpased: 3.168
#iterations: 94
currently lose_sum: 0.2042103260755539
time_elpased: 3.169
#iterations: 95
currently lose_sum: 0.16217105090618134
time_elpased: 3.175
#iterations: 96
currently lose_sum: 0.13155069947242737
time_elpased: 3.157
#iterations: 97
currently lose_sum: 0.4228895306587219
time_elpased: 3.225
#iterations: 98
currently lose_sum: 0.15145491063594818
time_elpased: 3.439
#iterations: 99
currently lose_sum: 0.259669691324234
time_elpased: 3.089
start validation test
0.736160714286
0.826993865031
0.599644128114
0.695203713254
0.736650021046
57.077
#iterations: 100
currently lose_sum: 0.21166357398033142
time_elpased: 3.161
#iterations: 101
currently lose_sum: 0.1326994150876999
time_elpased: 3.167
#iterations: 102
currently lose_sum: 0.08101936429738998
time_elpased: 3.163
#iterations: 103
currently lose_sum: 0.3159728944301605
time_elpased: 3.165
#iterations: 104
currently lose_sum: 0.4296022057533264
time_elpased: 3.28
#iterations: 105
currently lose_sum: 0.18413546681404114
time_elpased: 3.155
#iterations: 106
currently lose_sum: 0.3139651417732239
time_elpased: 3.181
#iterations: 107
currently lose_sum: 0.2893732190132141
time_elpased: 3.15
#iterations: 108
currently lose_sum: 0.3062935471534729
time_elpased: 3.117
#iterations: 109
currently lose_sum: 0.2532498240470886
time_elpased: 3.121
#iterations: 110
currently lose_sum: 0.201547771692276
time_elpased: 3.372
#iterations: 111
currently lose_sum: 0.19555291533470154
time_elpased: 3.277
#iterations: 112
currently lose_sum: 0.0780547559261322
time_elpased: 3.214
#iterations: 113
currently lose_sum: 0.15227645635604858
time_elpased: 3.154
#iterations: 114
currently lose_sum: 0.14862580597400665
time_elpased: 3.275
#iterations: 115
currently lose_sum: 0.14408227801322937
time_elpased: 3.215
#iterations: 116
currently lose_sum: 0.16030386090278625
time_elpased: 3.133
#iterations: 117
currently lose_sum: 0.12485392391681671
time_elpased: 3.169
#iterations: 118
currently lose_sum: 0.10301121324300766
time_elpased: 3.214
#iterations: 119
currently lose_sum: 0.15417282283306122
time_elpased: 3.347
start validation test
0.748214285714
0.854430379747
0.600533807829
0.705329153605
0.748743606424
50.217
#iterations: 120
currently lose_sum: 0.31721627712249756
time_elpased: 3.261
#iterations: 121
currently lose_sum: 0.12370795011520386
time_elpased: 3.488
#iterations: 122
currently lose_sum: 0.07122469693422318
time_elpased: 3.213
#iterations: 123
currently lose_sum: 0.1226302832365036
time_elpased: 3.142
#iterations: 124
currently lose_sum: 0.17864716053009033
time_elpased: 3.218
#iterations: 125
currently lose_sum: 0.18781299889087677
time_elpased: 3.168
#iterations: 126
currently lose_sum: 0.15625807642936707
time_elpased: 3.163
#iterations: 127
currently lose_sum: 0.3109867572784424
time_elpased: 3.176
#iterations: 128
currently lose_sum: 0.19377389550209045
time_elpased: 3.118
#iterations: 129
currently lose_sum: 0.21165481209754944
time_elpased: 3.243
#iterations: 130
currently lose_sum: 0.23064450919628143
time_elpased: 3.224
#iterations: 131
currently lose_sum: 0.1956024467945099
time_elpased: 3.207
#iterations: 132
currently lose_sum: 0.09282581508159637
time_elpased: 3.304
#iterations: 133
currently lose_sum: 0.21710339188575745
time_elpased: 3.169
#iterations: 134
currently lose_sum: 0.2704719603061676
time_elpased: 3.279
#iterations: 135
currently lose_sum: 0.1169000044465065
time_elpased: 3.121
#iterations: 136
currently lose_sum: 0.22642771899700165
time_elpased: 3.303
#iterations: 137
currently lose_sum: 0.2854304909706116
time_elpased: 3.351
#iterations: 138
currently lose_sum: 0.2235594540834427
time_elpased: 3.194
#iterations: 139
currently lose_sum: 0.26128309965133667
time_elpased: 3.176
start validation test
0.728571428571
0.858333333333
0.549822064057
0.670281995662
0.729212107297
64.787
#iterations: 140
currently lose_sum: 0.09385405480861664
time_elpased: 3.142
#iterations: 141
currently lose_sum: 0.10386484861373901
time_elpased: 3.26
#iterations: 142
currently lose_sum: 0.14884653687477112
time_elpased: 3.187
#iterations: 143
currently lose_sum: 0.030719667673110962
time_elpased: 3.2
#iterations: 144
currently lose_sum: 0.09797117859125137
time_elpased: 3.4
#iterations: 145
currently lose_sum: 0.1600196361541748
time_elpased: 3.104
#iterations: 146
currently lose_sum: 0.35914310812950134
time_elpased: 3.193
#iterations: 147
currently lose_sum: 0.15533144772052765
time_elpased: 3.167
#iterations: 148
currently lose_sum: 0.2694714069366455
time_elpased: 3.202
#iterations: 149
currently lose_sum: 0.20324890315532684
time_elpased: 3.216
#iterations: 150
currently lose_sum: 0.08366544544696808
time_elpased: 3.242
#iterations: 151
currently lose_sum: 0.26229622960090637
time_elpased: 3.167
#iterations: 152
currently lose_sum: 0.20913152396678925
time_elpased: 3.349
#iterations: 153
currently lose_sum: 0.273294061422348
time_elpased: 3.198
#iterations: 154
currently lose_sum: 0.07197107374668121
time_elpased: 3.153
#iterations: 155
currently lose_sum: 0.24437904357910156
time_elpased: 3.169
#iterations: 156
currently lose_sum: 0.12614497542381287
time_elpased: 3.191
#iterations: 157
currently lose_sum: 0.21509094536304474
time_elpased: 3.271
#iterations: 158
currently lose_sum: 0.046786919236183167
time_elpased: 3.209
#iterations: 159
currently lose_sum: 0.06466975063085556
time_elpased: 3.23
start validation test
0.7375
0.854497354497
0.574733096085
0.687234042553
0.738083393921
71.258
#iterations: 160
currently lose_sum: 0.10525138676166534
time_elpased: 3.211
#iterations: 161
currently lose_sum: 0.21320843696594238
time_elpased: 3.071
#iterations: 162
currently lose_sum: 0.14187976717948914
time_elpased: 3.169
#iterations: 163
currently lose_sum: 0.1814759522676468
time_elpased: 3.135
#iterations: 164
currently lose_sum: 0.10877104103565216
time_elpased: 3.208
#iterations: 165
currently lose_sum: 0.05507265403866768
time_elpased: 3.123
#iterations: 166
currently lose_sum: 0.3156345784664154
time_elpased: 3.339
#iterations: 167
currently lose_sum: 0.07390638440847397
time_elpased: 3.274
#iterations: 168
currently lose_sum: 0.12741896510124207
time_elpased: 3.176
#iterations: 169
currently lose_sum: 0.19137291610240936
time_elpased: 3.13
#iterations: 170
currently lose_sum: 0.16944952309131622
time_elpased: 3.219
#iterations: 171
currently lose_sum: 0.14044831693172455
time_elpased: 3.114
#iterations: 172
currently lose_sum: 0.21703889966011047
time_elpased: 3.18
#iterations: 173
currently lose_sum: 0.19523802399635315
time_elpased: 3.179
#iterations: 174
currently lose_sum: 0.19182069599628448
time_elpased: 3.119
#iterations: 175
currently lose_sum: 0.10635539144277573
time_elpased: 3.143
#iterations: 176
currently lose_sum: 0.07813100516796112
time_elpased: 3.328
#iterations: 177
currently lose_sum: 0.01918240636587143
time_elpased: 3.217
#iterations: 178
currently lose_sum: 0.25255075097084045
time_elpased: 3.132
#iterations: 179
currently lose_sum: 0.16135430335998535
time_elpased: 3.239
start validation test
0.733035714286
0.864265927978
0.555160142349
0.676056338028
0.733673261139
77.137
#iterations: 180
currently lose_sum: 0.061025165021419525
time_elpased: 3.166
#iterations: 181
currently lose_sum: 0.23461182415485382
time_elpased: 3.207
#iterations: 182
currently lose_sum: 0.12078068405389786
time_elpased: 3.141
#iterations: 183
currently lose_sum: 0.1415313184261322
time_elpased: 3.652
#iterations: 184
currently lose_sum: 0.20083019137382507
time_elpased: 3.204
#iterations: 185
currently lose_sum: 0.07770992815494537
time_elpased: 3.161
#iterations: 186
currently lose_sum: 0.07447671890258789
time_elpased: 3.143
#iterations: 187
currently lose_sum: 0.03691577911376953
time_elpased: 3.118
#iterations: 188
currently lose_sum: 0.13302794098854065
time_elpased: 3.218
#iterations: 189
currently lose_sum: 0.13244542479515076
time_elpased: 3.263
#iterations: 190
currently lose_sum: 0.40749701857566833
time_elpased: 3.146
#iterations: 191
currently lose_sum: 0.23383979499340057
time_elpased: 3.092
#iterations: 192
currently lose_sum: 0.13468602299690247
time_elpased: 3.183
#iterations: 193
currently lose_sum: 0.09037184715270996
time_elpased: 3.084
#iterations: 194
currently lose_sum: 0.14080846309661865
time_elpased: 3.148
#iterations: 195
currently lose_sum: 0.09112474322319031
time_elpased: 3.192
#iterations: 196
currently lose_sum: 0.0723506361246109
time_elpased: 3.197
#iterations: 197
currently lose_sum: 0.2588498890399933
time_elpased: 3.149
#iterations: 198
currently lose_sum: 0.1500919759273529
time_elpased: 3.224
#iterations: 199
currently lose_sum: 0.10955683887004852
time_elpased: 3.131
start validation test
0.715625
0.845390070922
0.53024911032
0.651722252597
0.716289429712
78.575
#iterations: 200
currently lose_sum: 0.05838024616241455
time_elpased: 3.156
#iterations: 201
currently lose_sum: 0.06962230056524277
time_elpased: 3.279
#iterations: 202
currently lose_sum: 0.04124896973371506
time_elpased: 3.231
#iterations: 203
currently lose_sum: 0.10439503192901611
time_elpased: 3.115
#iterations: 204
currently lose_sum: 0.0982692688703537
time_elpased: 3.078
#iterations: 205
currently lose_sum: 0.06866075098514557
time_elpased: 3.124
#iterations: 206
currently lose_sum: 0.06730164587497711
time_elpased: 3.174
#iterations: 207
currently lose_sum: 0.08162933588027954
time_elpased: 3.128
#iterations: 208
currently lose_sum: 0.33760613203048706
time_elpased: 3.236
#iterations: 209
currently lose_sum: 0.12349507957696915
time_elpased: 3.103
#iterations: 210
currently lose_sum: 0.18055613338947296
time_elpased: 3.332
#iterations: 211
currently lose_sum: 0.08644743263721466
time_elpased: 3.273
#iterations: 212
currently lose_sum: 0.1685400903224945
time_elpased: 3.158
#iterations: 213
currently lose_sum: 0.152629554271698
time_elpased: 3.135
#iterations: 214
currently lose_sum: 0.16584843397140503
time_elpased: 3.128
#iterations: 215
currently lose_sum: 0.061913758516311646
time_elpased: 3.23
#iterations: 216
currently lose_sum: 0.1367959976196289
time_elpased: 3.159
#iterations: 217
currently lose_sum: 0.06902731209993362
time_elpased: 3.214
#iterations: 218
currently lose_sum: 0.23991699516773224
time_elpased: 3.177
#iterations: 219
currently lose_sum: 0.04887862130999565
time_elpased: 3.201
start validation test
0.714285714286
0.880503144654
0.498220640569
0.636363636364
0.715060141073
86.592
#iterations: 220
currently lose_sum: 0.048984844237565994
time_elpased: 3.216
#iterations: 221
currently lose_sum: 0.04727143794298172
time_elpased: 3.311
#iterations: 222
currently lose_sum: 0.0759129449725151
time_elpased: 3.288
#iterations: 223
currently lose_sum: 0.0700613260269165
time_elpased: 3.217
#iterations: 224
currently lose_sum: 0.17292273044586182
time_elpased: 3.35
#iterations: 225
currently lose_sum: 0.19861146807670593
time_elpased: 3.134
#iterations: 226
currently lose_sum: 0.05875068157911301
time_elpased: 3.162
#iterations: 227
currently lose_sum: 0.13865800201892853
time_elpased: 3.197
#iterations: 228
currently lose_sum: 0.0752146989107132
time_elpased: 3.179
#iterations: 229
currently lose_sum: 0.175643190741539
time_elpased: 3.164
#iterations: 230
currently lose_sum: 0.10783381760120392
time_elpased: 3.174
#iterations: 231
currently lose_sum: 0.11259398609399796
time_elpased: 3.242
#iterations: 232
currently lose_sum: 0.07792322337627411
time_elpased: 3.142
#iterations: 233
currently lose_sum: 0.14247161149978638
time_elpased: 3.197
#iterations: 234
currently lose_sum: 0.14448411762714386
time_elpased: 3.208
#iterations: 235
currently lose_sum: 0.05823785066604614
time_elpased: 3.165
#iterations: 236
currently lose_sum: 0.2002992182970047
time_elpased: 3.124
#iterations: 237
currently lose_sum: 0.053820591419935226
time_elpased: 3.388
#iterations: 238
currently lose_sum: 0.0909777507185936
time_elpased: 3.163
#iterations: 239
currently lose_sum: 0.15631023049354553
time_elpased: 3.2
start validation test
0.712053571429
0.891980360065
0.48487544484
0.628242074928
0.712867829947
94.058
#iterations: 240
currently lose_sum: 0.22385331988334656
time_elpased: 3.144
#iterations: 241
currently lose_sum: 0.016792159527540207
time_elpased: 3.278
#iterations: 242
currently lose_sum: 0.2252960503101349
time_elpased: 3.221
#iterations: 243
currently lose_sum: 0.03038943186402321
time_elpased: 3.221
#iterations: 244
currently lose_sum: 0.0401712991297245
time_elpased: 3.201
#iterations: 245
currently lose_sum: 0.08908139169216156
time_elpased: 3.237
#iterations: 246
currently lose_sum: 0.2049444168806076
time_elpased: 3.305
#iterations: 247
currently lose_sum: 0.13111218810081482
time_elpased: 3.287
#iterations: 248
currently lose_sum: 0.17458733916282654
time_elpased: 3.289
#iterations: 249
currently lose_sum: 0.23054376244544983
time_elpased: 3.136
#iterations: 250
currently lose_sum: 0.25212687253952026
time_elpased: 3.361
#iterations: 251
currently lose_sum: 0.2736073136329651
time_elpased: 3.118
#iterations: 252
currently lose_sum: 0.22330820560455322
time_elpased: 3.24
#iterations: 253
currently lose_sum: 0.13197575509548187
time_elpased: 3.248
#iterations: 254
currently lose_sum: 0.0852867141366005
time_elpased: 3.454
#iterations: 255
currently lose_sum: 0.05838261917233467
time_elpased: 3.118
#iterations: 256
currently lose_sum: 0.028627896681427956
time_elpased: 3.165
#iterations: 257
currently lose_sum: 0.24966876208782196
time_elpased: 3.118
#iterations: 258
currently lose_sum: 0.07612372189760208
time_elpased: 3.115
#iterations: 259
currently lose_sum: 0.024112656712532043
time_elpased: 3.154
start validation test
0.71875
0.86755952381
0.518683274021
0.649220489978
0.719467085039
90.730
#iterations: 260
currently lose_sum: 0.0921812504529953
time_elpased: 3.324
#iterations: 261
currently lose_sum: 0.04293222725391388
time_elpased: 3.111
#iterations: 262
currently lose_sum: 0.18592116236686707
time_elpased: 3.248
#iterations: 263
currently lose_sum: 0.09515085071325302
time_elpased: 3.179
#iterations: 264
currently lose_sum: 0.25950393080711365
time_elpased: 3.135
#iterations: 265
currently lose_sum: 0.12890885770320892
time_elpased: 3.158
#iterations: 266
currently lose_sum: 0.08995058387517929
time_elpased: 3.232
#iterations: 267
currently lose_sum: 0.06373907625675201
time_elpased: 3.133
#iterations: 268
currently lose_sum: 0.22937731444835663
time_elpased: 3.172
#iterations: 269
currently lose_sum: 0.06183207035064697
time_elpased: 3.134
#iterations: 270
currently lose_sum: 0.14175763726234436
time_elpased: 3.384
#iterations: 271
currently lose_sum: 0.018518982455134392
time_elpased: 3.161
#iterations: 272
currently lose_sum: 0.0983830913901329
time_elpased: 3.111
#iterations: 273
currently lose_sum: 0.08869074285030365
time_elpased: 3.202
#iterations: 274
currently lose_sum: 0.12484011799097061
time_elpased: 3.441
#iterations: 275
currently lose_sum: 0.06964097917079926
time_elpased: 3.178
#iterations: 276
currently lose_sum: 0.23382428288459778
time_elpased: 3.166
#iterations: 277
currently lose_sum: 0.1942307949066162
time_elpased: 3.17
#iterations: 278
currently lose_sum: 0.18196360766887665
time_elpased: 3.234
#iterations: 279
currently lose_sum: 0.045880112797021866
time_elpased: 3.666
start validation test
0.700446428571
0.86591276252
0.476868327402
0.615031554791
0.701247783773
95.309
#iterations: 280
currently lose_sum: 0.09879840910434723
time_elpased: 3.15
#iterations: 281
currently lose_sum: 0.06433932483196259
time_elpased: 3.134
#iterations: 282
currently lose_sum: 0.11757665872573853
time_elpased: 3.155
#iterations: 283
currently lose_sum: 0.04260031133890152
time_elpased: 3.59
#iterations: 284
currently lose_sum: 0.11334040015935898
time_elpased: 3.125
#iterations: 285
currently lose_sum: 0.09638620167970657
time_elpased: 3.321
#iterations: 286
currently lose_sum: 0.06586118042469025
time_elpased: 3.107
#iterations: 287
currently lose_sum: 0.06015514209866524
time_elpased: 3.092
#iterations: 288
currently lose_sum: 0.39035463333129883
time_elpased: 3.084
#iterations: 289
currently lose_sum: 0.08391576260328293
time_elpased: 3.207
#iterations: 290
currently lose_sum: 0.11372897773981094
time_elpased: 3.135
#iterations: 291
currently lose_sum: 0.06852150708436966
time_elpased: 3.29
#iterations: 292
currently lose_sum: 0.07433904707431793
time_elpased: 3.388
#iterations: 293
currently lose_sum: 0.18372800946235657
time_elpased: 3.099
#iterations: 294
currently lose_sum: 0.014198611490428448
time_elpased: 3.162
#iterations: 295
currently lose_sum: 0.02645632065832615
time_elpased: 3.494
#iterations: 296
currently lose_sum: 0.14258703589439392
time_elpased: 3.428
#iterations: 297
currently lose_sum: 0.08277294039726257
time_elpased: 3.153
#iterations: 298
currently lose_sum: 0.12506988644599915
time_elpased: 3.266
#iterations: 299
currently lose_sum: 0.023518290370702744
time_elpased: 3.197
start validation test
0.717410714286
0.87595712098
0.508896797153
0.643781654474
0.718158075996
95.328
#iterations: 300
currently lose_sum: 0.1931488811969757
time_elpased: 3.199
#iterations: 301
currently lose_sum: 0.0909004658460617
time_elpased: 3.171
#iterations: 302
currently lose_sum: 0.09934376180171967
time_elpased: 3.291
#iterations: 303
currently lose_sum: 0.17834627628326416
time_elpased: 3.13
#iterations: 304
currently lose_sum: 0.10714495182037354
time_elpased: 3.104
#iterations: 305
currently lose_sum: 0.041037362068891525
time_elpased: 3.141
#iterations: 306
currently lose_sum: 0.08961373567581177
time_elpased: 3.237
#iterations: 307
currently lose_sum: 0.27375948429107666
time_elpased: 3.205
#iterations: 308
currently lose_sum: 0.020202692598104477
time_elpased: 3.113
#iterations: 309
currently lose_sum: 0.08184106647968292
time_elpased: 3.159
#iterations: 310
currently lose_sum: 0.04715463146567345
time_elpased: 3.453
#iterations: 311
currently lose_sum: 0.03963179141283035
time_elpased: 3.192
#iterations: 312
currently lose_sum: 0.19799765944480896
time_elpased: 3.423
#iterations: 313
currently lose_sum: 0.0256321020424366
time_elpased: 3.123
#iterations: 314
currently lose_sum: 0.16246981918811798
time_elpased: 3.165
#iterations: 315
currently lose_sum: 0.1540757119655609
time_elpased: 3.332
#iterations: 316
currently lose_sum: 0.021735671907663345
time_elpased: 3.234
#iterations: 317
currently lose_sum: 0.1633642017841339
time_elpased: 3.373
#iterations: 318
currently lose_sum: 0.07849203050136566
time_elpased: 3.191
#iterations: 319
currently lose_sum: 0.029176166281104088
time_elpased: 3.083
start validation test
0.708035714286
0.866043613707
0.494661921708
0.629671574179
0.708800494904
95.424
#iterations: 320
currently lose_sum: 0.11121790111064911
time_elpased: 3.143
#iterations: 321
currently lose_sum: 0.1963387280702591
time_elpased: 3.373
#iterations: 322
currently lose_sum: 0.18986962735652924
time_elpased: 3.114
#iterations: 323
currently lose_sum: 0.20406374335289001
time_elpased: 3.106
#iterations: 324
currently lose_sum: 0.04443647339940071
time_elpased: 3.174
#iterations: 325
currently lose_sum: 0.08003617823123932
time_elpased: 3.129
#iterations: 326
currently lose_sum: 0.07988259196281433
time_elpased: 3.29
#iterations: 327
currently lose_sum: 0.09141415357589722
time_elpased: 3.14
#iterations: 328
currently lose_sum: 0.04133530706167221
time_elpased: 3.272
#iterations: 329
currently lose_sum: 0.11051671206951141
time_elpased: 3.406
#iterations: 330
currently lose_sum: 0.08820335566997528
time_elpased: 3.104
#iterations: 331
currently lose_sum: 0.03409380465745926
time_elpased: 3.162
#iterations: 332
currently lose_sum: 0.07132116705179214
time_elpased: 3.172
#iterations: 333
currently lose_sum: 0.05386583134531975
time_elpased: 3.139
#iterations: 334
currently lose_sum: 0.11460225284099579
time_elpased: 3.233
#iterations: 335
currently lose_sum: 0.08194568753242493
time_elpased: 3.15
#iterations: 336
currently lose_sum: 0.03630328178405762
time_elpased: 3.147
#iterations: 337
currently lose_sum: 0.04076717421412468
time_elpased: 3.149
#iterations: 338
currently lose_sum: 0.07761575281620026
time_elpased: 3.201
#iterations: 339
currently lose_sum: 0.03709843382239342
time_elpased: 3.305
start validation test
0.702232142857
0.885328836425
0.467081850534
0.611531741409
0.703074975446
102.599
#iterations: 340
currently lose_sum: 0.14887110888957977
time_elpased: 3.077
#iterations: 341
currently lose_sum: 0.23982533812522888
time_elpased: 3.186
#iterations: 342
currently lose_sum: 0.12109962850809097
time_elpased: 3.255
#iterations: 343
currently lose_sum: 0.0357033833861351
time_elpased: 3.129
#iterations: 344
currently lose_sum: 0.019808044657111168
time_elpased: 3.19
#iterations: 345
currently lose_sum: 0.055806539952754974
time_elpased: 3.197
#iterations: 346
currently lose_sum: 0.03834373131394386
time_elpased: 3.218
#iterations: 347
currently lose_sum: 0.04533637315034866
time_elpased: 3.225
#iterations: 348
currently lose_sum: 0.03656415268778801
time_elpased: 3.244
#iterations: 349
currently lose_sum: 0.15111055970191956
time_elpased: 3.138
#iterations: 350
currently lose_sum: 0.17194494605064392
time_elpased: 3.228
#iterations: 351
currently lose_sum: 0.014240823686122894
time_elpased: 3.222
#iterations: 352
currently lose_sum: 0.2004331648349762
time_elpased: 3.317
#iterations: 353
currently lose_sum: 0.18852584064006805
time_elpased: 3.225
#iterations: 354
currently lose_sum: 0.048133186995983124
time_elpased: 3.198
#iterations: 355
currently lose_sum: 0.1484401822090149
time_elpased: 3.152
#iterations: 356
currently lose_sum: 0.05454061180353165
time_elpased: 3.074
#iterations: 357
currently lose_sum: 0.17007075250148773
time_elpased: 3.156
#iterations: 358
currently lose_sum: 0.01934089884161949
time_elpased: 3.161
#iterations: 359
currently lose_sum: 0.03070702776312828
time_elpased: 3.184
start validation test
0.691517857143
0.880492091388
0.445729537367
0.591848789132
0.692398818862
106.808
#iterations: 360
currently lose_sum: 0.03744016960263252
time_elpased: 3.324
#iterations: 361
currently lose_sum: 0.034925974905490875
time_elpased: 3.137
#iterations: 362
currently lose_sum: 0.01916334219276905
time_elpased: 3.164
#iterations: 363
currently lose_sum: 0.1324416995048523
time_elpased: 3.163
#iterations: 364
currently lose_sum: 0.03818316385149956
time_elpased: 3.123
#iterations: 365
currently lose_sum: 0.2778379023075104
time_elpased: 3.178
#iterations: 366
currently lose_sum: 0.09369368851184845
time_elpased: 3.163
#iterations: 367
currently lose_sum: 0.12634755671024323
time_elpased: 3.186
#iterations: 368
currently lose_sum: 0.10449942201375961
time_elpased: 3.244
#iterations: 369
currently lose_sum: 0.011214446276426315
time_elpased: 3.207
#iterations: 370
currently lose_sum: 0.32620126008987427
time_elpased: 3.166
#iterations: 371
currently lose_sum: 0.03862813860177994
time_elpased: 3.197
#iterations: 372
currently lose_sum: 0.1745355725288391
time_elpased: 3.183
#iterations: 373
currently lose_sum: 0.15964892506599426
time_elpased: 3.194
#iterations: 374
currently lose_sum: 0.08015289902687073
time_elpased: 3.082
#iterations: 375
currently lose_sum: 0.1282179206609726
time_elpased: 3.161
#iterations: 376
currently lose_sum: 0.05161008983850479
time_elpased: 3.107
#iterations: 377
currently lose_sum: 0.18707109987735748
time_elpased: 3.235
#iterations: 378
currently lose_sum: 0.014489461667835712
time_elpased: 3.134
#iterations: 379
currently lose_sum: 0.04003150761127472
time_elpased: 3.16
start validation test
0.689732142857
0.889292196007
0.435943060498
0.585074626866
0.690641781145
112.444
#iterations: 380
currently lose_sum: 0.1460212767124176
time_elpased: 3.184
#iterations: 381
currently lose_sum: 0.1550327092409134
time_elpased: 3.165
#iterations: 382
currently lose_sum: 0.07306815683841705
time_elpased: 3.134
#iterations: 383
currently lose_sum: 0.12419651448726654
time_elpased: 3.118
#iterations: 384
currently lose_sum: 0.05330010503530502
time_elpased: 3.132
#iterations: 385
currently lose_sum: 0.06688852608203888
time_elpased: 3.241
#iterations: 386
currently lose_sum: 0.09416870027780533
time_elpased: 3.182
#iterations: 387
currently lose_sum: 0.018764570355415344
time_elpased: 3.32
#iterations: 388
currently lose_sum: 0.06403301656246185
time_elpased: 3.206
#iterations: 389
currently lose_sum: 0.1032390147447586
time_elpased: 3.291
#iterations: 390
currently lose_sum: 0.0194186270236969
time_elpased: 3.271
#iterations: 391
currently lose_sum: 0.06040466949343681
time_elpased: 3.197
#iterations: 392
currently lose_sum: 0.16649317741394043
time_elpased: 3.142
#iterations: 393
currently lose_sum: 0.04701075702905655
time_elpased: 3.298
#iterations: 394
currently lose_sum: 0.1048852950334549
time_elpased: 3.15
#iterations: 395
currently lose_sum: 0.021621813997626305
time_elpased: 3.26
#iterations: 396
currently lose_sum: 0.06147392839193344
time_elpased: 3.14
#iterations: 397
currently lose_sum: 0.18311884999275208
time_elpased: 3.161
#iterations: 398
currently lose_sum: 0.0801144391298294
time_elpased: 3.272
#iterations: 399
currently lose_sum: 0.10118968784809113
time_elpased: 3.14
start validation test
0.691964285714
0.876736111111
0.449288256228
0.594117647059
0.692834092272
112.143
#iterations: 400
currently lose_sum: 0.11115485429763794
time_elpased: 3.186
#iterations: 401
currently lose_sum: 0.19032856822013855
time_elpased: 3.122
#iterations: 402
currently lose_sum: 0.16987298429012299
time_elpased: 3.263
#iterations: 403
currently lose_sum: 0.017485827207565308
time_elpased: 3.135
#iterations: 404
currently lose_sum: 0.021318774670362473
time_elpased: 3.106
#iterations: 405
currently lose_sum: 0.1240224838256836
time_elpased: 3.361
#iterations: 406
currently lose_sum: 0.07467040419578552
time_elpased: 3.235
#iterations: 407
currently lose_sum: 0.1643027663230896
time_elpased: 3.146
#iterations: 408
currently lose_sum: 0.014600494876503944
time_elpased: 3.186
#iterations: 409
currently lose_sum: 0.01691519096493721
time_elpased: 3.129
#iterations: 410
currently lose_sum: 0.02675904706120491
time_elpased: 3.135
#iterations: 411
currently lose_sum: 0.14757171273231506
time_elpased: 3.102
#iterations: 412
currently lose_sum: 0.09540970623493195
time_elpased: 3.248
#iterations: 413
currently lose_sum: 0.1354767084121704
time_elpased: 3.165
#iterations: 414
currently lose_sum: 0.04831665754318237
time_elpased: 3.208
#iterations: 415
currently lose_sum: 0.11727844178676605
time_elpased: 3.124
#iterations: 416
currently lose_sum: 0.0894712433218956
time_elpased: 3.168
#iterations: 417
currently lose_sum: 0.019742237403988838
time_elpased: 3.136
#iterations: 418
currently lose_sum: 0.07523967325687408
time_elpased: 3.249
#iterations: 419
currently lose_sum: 0.07006637752056122
time_elpased: 3.203
start validation test
0.69375
0.881533101045
0.450177935943
0.595995288575
0.694623018151
111.698
#iterations: 420
currently lose_sum: 0.19095131754875183
time_elpased: 3.129
#iterations: 421
currently lose_sum: 0.009481812827289104
time_elpased: 3.27
#iterations: 422
currently lose_sum: 0.07016394287347794
time_elpased: 3.23
#iterations: 423
currently lose_sum: 0.05237632989883423
time_elpased: 3.17
#iterations: 424
currently lose_sum: 0.16452452540397644
time_elpased: 3.176
#iterations: 425
currently lose_sum: 0.08457794785499573
time_elpased: 3.19
#iterations: 426
currently lose_sum: 0.1369343250989914
time_elpased: 3.09
#iterations: 427
currently lose_sum: 0.0683663859963417
time_elpased: 3.221
#iterations: 428
currently lose_sum: 0.04386097192764282
time_elpased: 3.292
#iterations: 429
currently lose_sum: 0.13515731692314148
time_elpased: 3.168
#iterations: 430
currently lose_sum: 0.08065615594387054
time_elpased: 3.14
#iterations: 431
currently lose_sum: 0.13973788917064667
time_elpased: 3.252
#iterations: 432
currently lose_sum: 0.2198370397090912
time_elpased: 3.201
#iterations: 433
currently lose_sum: 0.04141893982887268
time_elpased: 3.115
#iterations: 434
currently lose_sum: 0.10890638828277588
time_elpased: 3.246
#iterations: 435
currently lose_sum: 0.0460221953690052
time_elpased: 3.3
#iterations: 436
currently lose_sum: 0.022717876359820366
time_elpased: 3.141
#iterations: 437
currently lose_sum: 0.05230455845594406
time_elpased: 3.165
#iterations: 438
currently lose_sum: 0.354194700717926
time_elpased: 3.158
#iterations: 439
currently lose_sum: 0.034396540373563766
time_elpased: 3.228
start validation test
0.682142857143
0.877289377289
0.42615658363
0.573652694611
0.683060370668
119.469
#iterations: 440
currently lose_sum: 0.11368439346551895
time_elpased: 3.194
#iterations: 441
currently lose_sum: 0.020268920809030533
time_elpased: 3.158
#iterations: 442
currently lose_sum: 0.03558916598558426
time_elpased: 3.134
#iterations: 443
currently lose_sum: 0.1751442849636078
time_elpased: 3.164
#iterations: 444
currently lose_sum: 0.031272582709789276
time_elpased: 3.255
#iterations: 445
currently lose_sum: 0.09489302337169647
time_elpased: 3.374
#iterations: 446
currently lose_sum: 0.01859239861369133
time_elpased: 3.153
#iterations: 447
currently lose_sum: 0.07372278720140457
time_elpased: 3.087
#iterations: 448
currently lose_sum: 0.02586875855922699
time_elpased: 3.202
#iterations: 449
currently lose_sum: 0.09535723924636841
time_elpased: 3.094
#iterations: 450
currently lose_sum: 0.19450780749320984
time_elpased: 3.155
#iterations: 451
currently lose_sum: 0.0848311334848404
time_elpased: 3.21
#iterations: 452
currently lose_sum: 0.07327793538570404
time_elpased: 3.106
#iterations: 453
currently lose_sum: 0.11792954057455063
time_elpased: 3.225
#iterations: 454
currently lose_sum: 0.16436365246772766
time_elpased: 3.319
#iterations: 455
currently lose_sum: 0.07024918496608734
time_elpased: 3.09
#iterations: 456
currently lose_sum: 0.01939951255917549
time_elpased: 3.248
#iterations: 457
currently lose_sum: 0.014722220599651337
time_elpased: 3.157
#iterations: 458
currently lose_sum: 0.061298809945583344
time_elpased: 3.172
#iterations: 459
currently lose_sum: 0.10520734637975693
time_elpased: 3.243
start validation test
0.686607142857
0.88503649635
0.431494661922
0.58014354067
0.687521524509
117.669
#iterations: 460
currently lose_sum: 0.1374119222164154
time_elpased: 3.201
#iterations: 461
currently lose_sum: 0.03807525709271431
time_elpased: 3.207
#iterations: 462
currently lose_sum: 0.15721192955970764
time_elpased: 3.148
#iterations: 463
currently lose_sum: 0.10202781111001968
time_elpased: 3.381
#iterations: 464
currently lose_sum: 0.036842118948698044
time_elpased: 3.241
#iterations: 465
currently lose_sum: 0.17277401685714722
time_elpased: 3.119
#iterations: 466
currently lose_sum: 0.10028761625289917
time_elpased: 3.207
#iterations: 467
currently lose_sum: 0.18848693370819092
time_elpased: 3.194
#iterations: 468
currently lose_sum: 0.09791065752506256
time_elpased: 3.176
#iterations: 469
currently lose_sum: 0.15478679537773132
time_elpased: 3.371
#iterations: 470
currently lose_sum: 0.04324949532747269
time_elpased: 3.113
#iterations: 471
currently lose_sum: 0.023206794634461403
time_elpased: 3.19
#iterations: 472
currently lose_sum: 0.1790652871131897
time_elpased: 3.166
#iterations: 473
currently lose_sum: 0.017458099871873856
time_elpased: 3.133
#iterations: 474
currently lose_sum: 0.04546644538640976
time_elpased: 3.136
#iterations: 475
currently lose_sum: 0.055504340678453445
time_elpased: 3.54
#iterations: 476
currently lose_sum: 0.085093654692173
time_elpased: 3.181
#iterations: 477
currently lose_sum: 0.014106608927249908
time_elpased: 3.165
#iterations: 478
currently lose_sum: 0.08052414655685425
time_elpased: 3.134
#iterations: 479
currently lose_sum: 0.11734938621520996
time_elpased: 3.185
start validation test
0.676785714286
0.887596899225
0.407473309609
0.558536585366
0.677750991722
127.277
#iterations: 480
currently lose_sum: 0.17080119252204895
time_elpased: 3.291
#iterations: 481
currently lose_sum: 0.03415035456418991
time_elpased: 3.165
#iterations: 482
currently lose_sum: 0.2021472454071045
time_elpased: 3.107
#iterations: 483
currently lose_sum: 0.14325159788131714
time_elpased: 3.173
#iterations: 484
currently lose_sum: 0.02466803602874279
time_elpased: 3.134
#iterations: 485
currently lose_sum: 0.09444533288478851
time_elpased: 3.22
#iterations: 486
currently lose_sum: 0.03351883962750435
time_elpased: 3.133
#iterations: 487
currently lose_sum: 0.07647436857223511
time_elpased: 3.232
#iterations: 488
currently lose_sum: 0.01344445813447237
time_elpased: 3.16
#iterations: 489
currently lose_sum: 0.03740342706441879
time_elpased: 3.184
#iterations: 490
currently lose_sum: 0.10044972598552704
time_elpased: 3.178
#iterations: 491
currently lose_sum: 0.09020896255970001
time_elpased: 3.161
#iterations: 492
currently lose_sum: 0.024346403777599335
time_elpased: 3.086
#iterations: 493
currently lose_sum: 0.1186583861708641
time_elpased: 3.152
#iterations: 494
currently lose_sum: 0.077542245388031
time_elpased: 3.15
#iterations: 495
currently lose_sum: 0.04691452160477638
time_elpased: 3.169
#iterations: 496
currently lose_sum: 0.02157900109887123
time_elpased: 3.14
#iterations: 497
currently lose_sum: 0.014489451423287392
time_elpased: 3.171
#iterations: 498
currently lose_sum: 0.035728488117456436
time_elpased: 3.083
#iterations: 499
currently lose_sum: 0.11103774607181549
time_elpased: 3.136
start validation test
0.670535714286
0.886
0.394128113879
0.545566502463
0.671526422531
135.503
#iterations: 500
currently lose_sum: 0.15585258603096008
time_elpased: 3.198
#iterations: 501
currently lose_sum: 0.128855898976326
time_elpased: 3.159
#iterations: 502
currently lose_sum: 0.05680914968252182
time_elpased: 3.139
#iterations: 503
currently lose_sum: 0.05942569300532341
time_elpased: 3.117
#iterations: 504
currently lose_sum: 0.14951437711715698
time_elpased: 3.121
#iterations: 505
currently lose_sum: 0.04193781688809395
time_elpased: 3.177
#iterations: 506
currently lose_sum: 0.02011662721633911
time_elpased: 3.509
#iterations: 507
currently lose_sum: 0.06649331748485565
time_elpased: 3.116
#iterations: 508
currently lose_sum: 0.03400589898228645
time_elpased: 3.17
#iterations: 509
currently lose_sum: 0.06651697307825089
time_elpased: 3.131
#iterations: 510
currently lose_sum: 0.29403358697891235
time_elpased: 3.102
#iterations: 511
currently lose_sum: 0.011967143043875694
time_elpased: 3.146
#iterations: 512
currently lose_sum: 0.03403828665614128
time_elpased: 3.195
#iterations: 513
currently lose_sum: 0.07583413273096085
time_elpased: 3.118
#iterations: 514
currently lose_sum: 0.01247825101017952
time_elpased: 3.148
#iterations: 515
currently lose_sum: 0.02301400527358055
time_elpased: 3.314
#iterations: 516
currently lose_sum: 0.07857106626033783
time_elpased: 3.163
#iterations: 517
currently lose_sum: 0.06509184837341309
time_elpased: 3.171
#iterations: 518
currently lose_sum: 0.048220448195934296
time_elpased: 3.136
#iterations: 519
currently lose_sum: 0.12483404576778412
time_elpased: 3.142
start validation test
0.669642857143
0.885542168675
0.392348754448
0.543773119605
0.670636742816
138.370
#iterations: 520
currently lose_sum: 0.02718530036509037
time_elpased: 3.373
#iterations: 521
currently lose_sum: 0.1590544432401657
time_elpased: 3.378
#iterations: 522
currently lose_sum: 0.12376362085342407
time_elpased: 3.145
#iterations: 523
currently lose_sum: 0.07862994819879532
time_elpased: 3.126
#iterations: 524
currently lose_sum: 0.008987604640424252
time_elpased: 3.217
#iterations: 525
currently lose_sum: 0.06972809135913849
time_elpased: 3.115
#iterations: 526
currently lose_sum: 0.18749575316905975
time_elpased: 3.296
#iterations: 527
currently lose_sum: 0.18844035267829895
time_elpased: 3.085
#iterations: 528
currently lose_sum: 0.04348033666610718
time_elpased: 3.22
#iterations: 529
currently lose_sum: 0.0493290051817894
time_elpased: 3.193
#iterations: 530
currently lose_sum: 0.1267015039920807
time_elpased: 3.265
#iterations: 531
currently lose_sum: 0.19675607979297638
time_elpased: 3.224
#iterations: 532
currently lose_sum: 0.03216950222849846
time_elpased: 3.486
#iterations: 533
currently lose_sum: 0.12809032201766968
time_elpased: 3.167
#iterations: 534
currently lose_sum: 0.2328968495130539
time_elpased: 3.198
#iterations: 535
currently lose_sum: 0.020997297018766403
time_elpased: 3.164
#iterations: 536
currently lose_sum: 0.15582290291786194
time_elpased: 3.173
#iterations: 537
currently lose_sum: 0.19953951239585876
time_elpased: 3.166
#iterations: 538
currently lose_sum: 0.015746140852570534
time_elpased: 3.441
#iterations: 539
currently lose_sum: 0.02289077639579773
time_elpased: 3.159
start validation test
0.669642857143
0.873540856031
0.399466192171
0.54822954823
0.670611232286
134.608
#iterations: 540
currently lose_sum: 0.08392030000686646
time_elpased: 3.183
#iterations: 541
currently lose_sum: 0.046224165707826614
time_elpased: 3.242
#iterations: 542
currently lose_sum: 0.2099047601222992
time_elpased: 3.155
#iterations: 543
currently lose_sum: 0.023465275764465332
time_elpased: 3.216
#iterations: 544
currently lose_sum: 0.021055329591035843
time_elpased: 3.119
#iterations: 545
currently lose_sum: 0.04278011992573738
time_elpased: 3.337
#iterations: 546
currently lose_sum: 0.08847004175186157
time_elpased: 3.262
#iterations: 547
currently lose_sum: 0.06592129170894623
time_elpased: 3.49
#iterations: 548
currently lose_sum: 0.057302623987197876
time_elpased: 3.11
#iterations: 549
currently lose_sum: 0.016169268637895584
time_elpased: 3.107
#iterations: 550
currently lose_sum: 0.029382193461060524
time_elpased: 3.114
#iterations: 551
currently lose_sum: 0.185797780752182
time_elpased: 3.142
#iterations: 552
currently lose_sum: 0.007843772880733013
time_elpased: 3.132
#iterations: 553
currently lose_sum: 0.06520400196313858
time_elpased: 3.184
#iterations: 554
currently lose_sum: 0.021512916311621666
time_elpased: 3.232
#iterations: 555
currently lose_sum: 0.10078464448451996
time_elpased: 3.126
#iterations: 556
currently lose_sum: 0.14173953235149384
time_elpased: 3.172
#iterations: 557
currently lose_sum: 0.014224618673324585
time_elpased: 3.179
#iterations: 558
currently lose_sum: 0.0930280089378357
time_elpased: 3.166
#iterations: 559
currently lose_sum: 0.01136458944529295
time_elpased: 3.171
start validation test
0.6625
0.881742738589
0.378113879004
0.529265255293
0.663519305093
140.790
#iterations: 560
currently lose_sum: 0.04371445253491402
time_elpased: 3.197
#iterations: 561
currently lose_sum: 0.06114635989069939
time_elpased: 3.185
#iterations: 562
currently lose_sum: 0.10076181590557098
time_elpased: 3.076
#iterations: 563
currently lose_sum: 0.01844521425664425
time_elpased: 3.097
#iterations: 564
currently lose_sum: 0.0712251290678978
time_elpased: 3.168
#iterations: 565
currently lose_sum: 0.14845803380012512
time_elpased: 3.174
#iterations: 566
currently lose_sum: 0.12194796651601791
time_elpased: 3.158
#iterations: 567
currently lose_sum: 0.015224863775074482
time_elpased: 3.291
#iterations: 568
currently lose_sum: 0.0457584522664547
time_elpased: 3.113
#iterations: 569
currently lose_sum: 0.11120487749576569
time_elpased: 3.269
#iterations: 570
currently lose_sum: 0.13070687651634216
time_elpased: 3.206
#iterations: 571
currently lose_sum: 0.15176819264888763
time_elpased: 3.461
#iterations: 572
currently lose_sum: 0.09113384783267975
time_elpased: 3.363
#iterations: 573
currently lose_sum: 0.02955423854291439
time_elpased: 3.167
#iterations: 574
currently lose_sum: 0.018744004890322685
time_elpased: 3.217
#iterations: 575
currently lose_sum: 0.03741823881864548
time_elpased: 3.316
#iterations: 576
currently lose_sum: 0.028083408251404762
time_elpased: 3.144
#iterations: 577
currently lose_sum: 0.01253517996519804
time_elpased: 3.381
#iterations: 578
currently lose_sum: 0.04148685932159424
time_elpased: 3.264
#iterations: 579
currently lose_sum: 0.04125484079122543
time_elpased: 3.27
start validation test
0.665625
0.88501026694
0.383451957295
0.535071384233
0.666636372913
144.354
#iterations: 580
currently lose_sum: 0.026595866307616234
time_elpased: 3.14
#iterations: 581
currently lose_sum: 0.03730203956365585
time_elpased: 3.147
#iterations: 582
currently lose_sum: 0.15110386908054352
time_elpased: 3.247
#iterations: 583
currently lose_sum: 0.0702999085187912
time_elpased: 3.145
#iterations: 584
currently lose_sum: 0.04969878867268562
time_elpased: 3.264
#iterations: 585
currently lose_sum: 0.09692609310150146
time_elpased: 3.183
#iterations: 586
currently lose_sum: 0.03310530632734299
time_elpased: 3.091
#iterations: 587
currently lose_sum: 0.014899085275828838
time_elpased: 3.526
#iterations: 588
currently lose_sum: 0.017945263534784317
time_elpased: 3.137
#iterations: 589
currently lose_sum: 0.11209671199321747
time_elpased: 3.315
#iterations: 590
currently lose_sum: 0.019175365567207336
time_elpased: 3.607
#iterations: 591
currently lose_sum: 0.061417024582624435
time_elpased: 3.383
#iterations: 592
currently lose_sum: 0.02429673820734024
time_elpased: 3.218
#iterations: 593
currently lose_sum: 0.0532764308154583
time_elpased: 3.228
#iterations: 594
currently lose_sum: 0.010022087022662163
time_elpased: 3.199
#iterations: 595
currently lose_sum: 0.035524576902389526
time_elpased: 3.172
#iterations: 596
currently lose_sum: 0.010826287791132927
time_elpased: 3.246
#iterations: 597
currently lose_sum: 0.0512707456946373
time_elpased: 3.118
#iterations: 598
currently lose_sum: 0.013284990563988686
time_elpased: 3.152
#iterations: 599
currently lose_sum: 0.09584216773509979
time_elpased: 3.094
start validation test
0.652232142857
0.889390519187
0.350533807829
0.502871729419
0.653313498897
154.213
acc: 0.741
pre: 0.778
rec: 0.675
F1: 0.723
auc: 0.741
