    344 0
    161 1
    152 2
    336 3
    157 4
     48 5
    364 6
    134 7
    260 8
    112 9
    209 10
     31 11
     18 12
    184 13
    124 14
    175 15
    131 16
    153 17
     44 18
    118 19
    153 20
     85 21
    103 22
    135 23
     13 24
    212 25
    136 26
    113 27
    203 28
    235 29
    126 30
     91 31
     79 32
     14 33
     23 34
     21 35
     92 36
    121 37
    236 38
    118 39
    264 40
     41 41
    294 42
     58 43
    111 44
     56 45
     65 46
    288 47
     97 48
    358 49
    134 50
    117 51
     22 52
    224 53
     34 54
    178 55
    100 56
    137 57
    287 58
    174 59
     67 60
     51 61
    148 62
    287 63
     90 64
    187 65
    276 66
      4 67
    202 68
     13 69
    226 70
    139 71
     31 72
    141 73
     89 74
    264 75
    184 76
    201 77
     81 78
    157 79
    337 80
    344 81
     14 82
     60 83
      9 84
    338 85
     53 86
     82 87
    345 88
     40 89
     38 90
    244 91
     50 92
    100 93
      2 94
    283 95
     20 96
    221 97
     41 98
    130 99
     44 100
    134 101
     30 102
    130 103
     35 104
    125 105
    190 106
    291 107
    211 108
    164 109
     11 110
     27 111
    219 112
     28 113
     24 114
      5 115
    251 116
    302 117
    124 118
      8 119
    169 120
     60 121
     24 122
    110 123
    273 124
    339 125
     19 126
     50 127
    328 129
    285 130
    196 131
      6 132
     72 133
    122 134
     93 135
    204 136
     64 137
    125 138
     65 139
     54 140
     11 141
    243 142
    196 143
      4 144
    130 145
      6 146
    305 147
    163 148
    291 149
     35 150
    153 151
    326 152
    241 153
    141 154
     67 155
    161 156
     24 157
    105 158
     44 159
    313 160
    115 161
     61 162
    311 163
    166 164
    252 165
      8 166
    247 167
     71 168
    219 169
    416 170
     35 171
     89 172
     39 173
    234 174
     12 175
     52 176
     55 177
     80 178
     37 179
     33 180
     55 181
    348 182
    102 183
    146 184
     88 185
    166 186
    300 187
    218 188
     46 189
     65 190
    139 191
     35 192
     41 193
     31 194
     13 195
    305 196
    113 197
     52 198
    211 199
     73 200
    220 201
    299 202
     26 203
    328 204
    101 205
    134 206
    275 207
     56 208
    155 209
     49 210
    352 211
    309 212
    105 213
    183 214
     64 215
    273 216
     14 217
    296 218
    191 219
     28 220
     42 221
    200 222
    241 223
     32 224
     75 225
    129 226
     54 227
    186 228
     61 229
     87 230
     31 231
     79 232
    269 233
     50 234
     76 235
      8 236
    337 237
    210 238
    111 239
     26 240
     19 241
     90 242
     56 243
     19 244
    117 245
    128 246
    145 247
     21 248
     87 249
    336 250
    225 251
    263 252
     12 253
     45 254
    301 255
     86 256
    235 257
    249 258
     64 259
     64 260
     38 261
    354 262
    116 263
    185 264
    180 265
    137 266
     31 267
     15 268
     93 269
    214 270
     27 271
     45 272
     89 273
    169 274
    297 275
     43 276
    213 277
    160 278
     63 279
     90 280
     86 281
     23 282
    375 283
     62 284
    221 285
    142 286
     57 287
      2 288
    212 289
     47 290
     29 291
    269 292
     65 293
     60 294
     77 295
     91 296
    129 297
    342 298
    101 299
    210 300
     74 301
    114 302
     12 303
    268 304
     29 305
    117 306
    218 307
    137 308
     32 309
    274 310
     82 311
    269 312
     96 313
      6 314
     45 315
     73 316
    100 317
    271 318
    208 319
    147 320
     81 321
     71 322
     29 323
    195 324
    144 325
    123 326
    201 327
    123 328
     38 329
    175 330
     94 331
    144 332
    282 333
     15 334
    155 335
     89 336
     90 337
    156 338
    193 339
     55 340
    115 341
    108 342
    300 343
    177 344
     12 345
    224 346
    114 347
    217 348
    305 349
     33 350
    330 351
     87 353
     27 354
     22 355
    134 356
    198 357
    108 358
     91 359
     68 360
     13 361
    355 362
    107 363
    165 364
     85 365
      5 366
     35 367
    341 368
     35 369
    204 370
    173 371
     37 372
    274 373
     79 374
    181 375
    127 376
    229 377
    188 378
    146 379
     16 380
     98 381
     20 382
    156 383
    227 384
    377 385
    160 386
    157 387
    208 388
    167 389
    216 390
    194 391
     25 392
     40 393
    287 394
     36 395
    119 396
    276 397
    141 398
    280 399
    321 400
     13 401
     33 402
    274 403
    219 404
     89 405
     97 406
    191 407
     58 408
     74 409
    301 410
    167 411
    277 412
    213 413
    387 414
     73 415
    195 416
     92 417
     21 418
      4 419
    332 420
    241 421
     42 422
    143 423
    126 424
     54 425
    185 426
    221 427
    222 428
    235 429
    314 430
     33 431
    191 432
     42 433
    174 434
    319 435
    115 436
     71 437
    333 438
    350 439
    340 440
    316 441
     29 442
    215 443
    267 444
    369 445
    219 446
    100 447
     78 448
    171 449
    212 450
     55 451
      3 452
    179 453
    157 454
    372 455
     46 456
     55 457
    358 458
    138 459
    192 460
    314 461
     63 462
    116 463
     12 464
      5 465
     45 466
     96 467
    362 468
    213 469
    371 470
     25 471
     48 472
     72 473
     91 474
     52 475
     77 476
    217 477
    215 478
    244 479
    308 480
    340 481
    382 482
    402 483
    134 484
    130 485
     17 486
    196 487
     38 488
    297 489
     37 490
     10 491
     12 492
     67 493
    219 494
     66 495
     15 496
      6 497
    278 498
     87 499
    137 500
    176 501
    188 502
     50 503
    125 504
    165 505
    133 506
     45 507
     29 508
    306 509
    297 510
     17 511
    219 512
    178 513
     37 514
    239 515
    191 516
     21 517
     76 518
     61 519
    167 520
     86 521
     64 522
    294 523
     93 524
    109 525
      6 526
    379 527
    134 528
    146 529
    323 530
    154 531
     71 532
    203 533
     54 534
    384 535
    172 536
    170 537
    133 538
      2 539
    231 540
    163 541
    104 542
      4 543
    274 544
     51 545
    248 546
     37 547
