    250 0
    128 1
    105 2
    234 3
    113 4
     35 5
    279 6
     98 7
    181 8
     93 9
    153 10
     23 11
     13 12
    142 13
     95 14
    138 15
     94 16
    106 17
     34 18
     89 19
    123 20
     72 21
     76 22
     91 23
     11 24
    166 25
    114 26
     86 27
    139 28
    169 29
     97 30
     72 31
     44 32
     15 33
     12 34
     17 35
     63 36
    103 37
    182 38
     89 39
    199 40
     27 41
    238 42
     45 43
     84 44
     40 45
     46 46
    208 47
     68 48
    257 49
     99 50
     92 51
      8 52
    158 53
     25 54
    123 55
     70 56
    120 57
    224 58
    126 59
     48 60
     48 61
    113 62
    200 63
     79 64
    112 65
    202 66
      1 67
    157 68
      8 69
    164 70
    108 71
     19 72
    116 73
     68 74
    202 75
    133 76
    144 77
     65 78
    116 79
    252 80
    274 81
     12 82
     55 83
      8 84
    258 85
     34 86
     55 87
    248 88
     35 89
     29 90
    169 91
     39 92
    110 93
      1 94
    232 95
     13 96
    154 97
     38 98
     89 99
     27 100
    104 101
     22 102
    108 103
     22 104
     98 105
    150 106
    220 107
    125 108
    114 109
      3 110
     21 111
    159 112
     21 113
     18 114
      8 115
    196 116
    226 117
     93 118
      6 119
    132 120
     48 121
     15 122
     71 123
    223 124
    244 125
     12 126
     38 127
      2 128
    222 129
    205 130
    161 131
     55 133
     83 134
     63 135
    158 136
     45 137
     96 138
     44 139
     45 140
      7 141
    199 142
    155 143
      4 144
     93 145
      6 146
    225 147
    126 148
    234 149
     28 150
    114 151
    223 152
    189 153
     95 154
     55 155
    107 156
     17 157
     79 158
     31 159
    227 160
     77 161
     46 162
    232 163
    111 164
    190 165
      5 166
    167 167
     45 168
    166 169
    294 170
     24 171
     74 172
     25 173
    173 174
      7 175
     34 176
     43 177
     64 178
     30 179
     22 180
     40 181
    250 182
     94 183
     92 184
     66 185
    118 186
    220 187
    188 188
     35 189
     44 190
     97 191
     24 192
     22 193
     27 194
      8 195
    230 196
     91 197
     37 198
    157 199
     50 200
    171 201
    217 202
     17 203
    253 204
     76 205
     94 206
    215 207
     33 208
    104 209
     40 210
    261 211
    229 212
     80 213
    153 214
     55 215
    186 216
     10 217
    228 218
    162 219
     21 220
     37 221
    143 222
    199 223
     26 224
     57 225
     84 226
     40 227
    157 228
     38 229
     58 230
     29 231
     65 232
    197 233
     32 234
     58 235
      6 236
    242 237
    153 238
     84 239
     22 240
     19 241
     83 242
     36 243
     16 244
     84 245
     80 246
    113 247
     20 248
     64 249
    248 250
    180 251
    196 252
      7 253
     45 254
    220 255
     71 256
    164 257
    175 258
     52 259
     35 260
     33 261
    274 262
     89 263
    125 264
    126 265
    117 266
     31 267
     12 268
     62 269
    132 270
     22 271
     35 272
     60 273
    129 274
    245 275
     42 276
    151 277
    136 278
     39 279
     62 280
     68 281
     18 282
    265 283
     43 284
    178 285
    102 286
     50 287
      5 288
    162 289
     32 290
     22 291
    210 292
     49 293
     56 294
     53 295
     69 296
     94 297
    266 298
     81 299
    186 300
     59 301
     91 302
     10 303
    193 304
     29 305
     81 306
    157 307
    126 308
     33 309
    181 310
     57 311
    211 312
     75 313
      9 314
     28 315
     52 316
     71 317
    200 318
    150 319
    117 320
     42 321
     46 322
     19 323
    149 324
    100 325
     90 326
    145 327
     91 328
     25 329
    122 330
     73 331
    118 332
    216 333
      7 334
    120 335
     53 336
     75 337
    112 338
    142 339
     31 340
     92 341
     84 342
    239 343
    133 344
     11 345
    145 346
     85 347
    160 348
    219 349
     21 350
    255 351
      1 352
     59 353
     21 354
     17 355
    102 356
    135 357
     91 358
     80 359
     58 360
      8 361
    263 362
     77 363
    125 364
     72 365
      6 366
     28 367
    255 368
     26 369
    157 370
    136 371
     22 372
    191 373
     50 374
    147 375
     93 376
    186 377
    139 378
    105 379
     17 380
     77 381
     12 382
    129 383
    166 384
    295 385
    112 386
    136 387
    170 388
    134 389
    162 390
    152 391
     18 392
     37 393
    207 394
     19 395
     81 396
    222 397
    109 398
    218 399
    243 400
     10 401
     29 402
    216 403
    182 404
     72 405
     70 406
    144 407
     41 408
     64 409
    222 410
    129 411
    204 412
    167 413
    276 414
     61 415
    150 416
     67 417
     14 418
      4 419
    247 420
    201 421
     33 422
    115 423
     96 424
     31 425
    135 426
    179 427
    148 428
    182 429
    248 430
     21 431
    123 432
     31 433
    131 434
    217 435
     90 436
     50 437
    254 438
    277 439
    248 440
    251 441
     20 442
    166 443
    218 444
    266 445
    183 446
     77 447
     64 448
    143 449
    157 450
     39 451
      3 452
    148 453
    104 454
    264 455
     26 456
     36 457
    260 458
     95 459
    140 460
    248 461
     44 462
    100 463
      7 464
      3 465
     30 466
     83 467
    294 468
    152 469
    286 470
     15 471
     32 472
     51 473
     57 474
     44 475
     55 476
    164 477
    157 478
    167 479
    223 480
    260 481
    287 482
    284 483
    101 484
    102 485
     21 486
    148 487
     25 488
    234 489
     21 490
      6 491
     12 492
     34 493
    168 494
     53 495
     18 496
      2 497
    199 498
     59 499
    104 500
    132 501
    159 502
     40 503
     99 504
    128 505
    105 506
     34 507
     23 508
    238 509
    240 510
     14 511
    171 512
    141 513
     26 514
    186 515
    131 516
     16 517
     64 518
     52 519
    131 520
     62 521
     48 522
    238 523
     59 524
     85 525
      4 526
    300 527
    107 528
    111 529
    240 530
     98 531
     42 532
    176 533
     31 534
    269 535
    130 536
    131 537
    118 538
      1 539
    156 540
    118 541
     78 542
      3 543
    198 544
     38 545
    184 546
     24 547
