    179 0
    140 1
    135 2
    176 3
    140 4
     73 5
    188 6
    119 7
    158 8
    126 9
    166 10
     35 11
     30 12
    154 13
    114 14
    138 15
    116 16
    131 17
     67 18
    120 19
    141 20
    122 21
    103 22
    121 23
     22 24
    169 25
    128 26
    122 27
    147 28
    168 29
    117 30
    100 31
     94 32
     34 33
     42 34
     30 35
     99 36
    130 37
    141 38
    120 39
    171 40
     51 41
    169 42
     79 43
    108 44
     78 45
     71 46
    197 47
    116 48
    189 49
    125 50
    113 51
     29 52
    168 53
     72 54
    154 55
    106 56
    137 57
    180 58
    145 59
     78 60
     66 61
    142 62
    178 63
    104 64
    166 65
    161 66
      8 67
    171 68
     28 69
    161 70
    136 71
     46 72
    118 73
    107 74
    165 75
    155 76
    163 77
    101 78
    144 79
    175 80
    179 81
     35 82
     79 83
      8 84
    177 85
     68 86
     90 87
    177 88
     66 89
     51 90
    164 91
     63 92
    131 93
      4 94
    176 95
     29 96
    180 97
     65 98
     93 99
     83 100
    117 101
     38 102
    140 103
     44 104
    123 105
    159 106
    162 107
    162 108
    142 109
     22 110
     32 111
    176 112
     43 113
     39 114
     14 115
    165 116
    165 117
    127 118
     22 119
    119 120
     83 121
     44 122
     96 123
    170 124
    180 125
     33 126
     70 127
      7 128
    188 129
    201 130
    143 131
     10 132
     90 133
    104 134
    100 135
    162 136
     72 137
    103 138
     91 139
     83 140
     23 141
    156 142
    150 143
      8 144
    133 145
     15 146
    203 147
    121 148
    178 149
     60 150
    138 151
    164 152
    151 153
    124 154
     96 155
    142 156
     37 157
    102 158
     52 159
    172 160
    112 161
     85 162
    185 163
    136 164
    168 165
     10 166
    171 167
     81 168
    163 169
    137 170
     21 171
     63 172
     32 173
     99 174
     17 175
     45 176
     37 177
     72 178
     26 179
     26 180
     44 181
    104 182
     74 183
     70 184
     55 185
     71 186
    100 187
     86 188
     55 189
     47 190
     74 191
     33 192
     28 193
     25 194
     11 195
    116 196
     71 197
     39 198
     93 199
     50 200
     86 201
     94 202
     14 203
    123 204
     54 205
     73 206
    109 207
     49 208
    102 209
     51 210
    103 211
     99 212
     70 213
     90 214
     67 215
     93 216
     18 217
    109 218
    106 219
     24 220
     45 221
    101 222
    130 223
     49 224
     81 225
     84 226
     51 227
     92 228
     44 229
     57 230
     32 231
     55 232
    114 233
     38 234
     65 235
     11 236
    121 237
     95 238
     74 239
     33 240
     23 241
     84 242
     41 243
     28 244
     79 245
     90 246
    100 247
     21 248
     60 249
    101 250
    115 251
     95 252
     14 253
     44 254
    109 255
     51 256
    118 257
    119 258
     63 259
     50 260
     55 261
    127 262
     70 263
     87 264
    110 265
     93 266
     41 267
     21 268
     63 269
    100 270
     38 271
     37 272
     58 273
    114 274
    129 275
     48 276
    109 277
     93 278
     46 279
     79 280
     81 281
     19 282
    158 283
     63 284
    107 285
     90 286
     52 287
      8 288
    107 289
     45 290
     37 291
    108 292
     61 293
     58 294
     67 295
     80 296
     79 297
    151 298
     84 299
    113 300
     89 301
    100 302
     21 303
    125 304
     50 305
     85 306
     99 307
    104 308
     54 309
    117 310
     75 311
    119 312
     85 313
     20 314
     43 315
     66 316
     92 317
    134 318
     89 319
    105 320
     56 321
     56 322
     31 323
    122 324
    106 325
     97 326
    104 327
     99 328
     36 329
    118 330
     83 331
    109 332
    149 333
     18 334
    109 335
     76 336
     79 337
    100 338
    117 339
     53 340
     97 341
     85 342
    126 343
    100 344
     30 345
     98 346
     80 347
    108 348
    148 349
     26 350
    129 351
      2 352
     73 353
     30 354
     33 355
    106 356
    122 357
    104 358
     88 359
     66 360
     14 361
    159 362
     94 363
     93 364
     83 365
      4 366
     49 367
    135 368
     52 369
    123 370
    115 371
     39 372
    132 373
     53 374
    112 375
     94 376
    145 377
    115 378
     84 379
     41 380
     65 381
     28 382
     92 383
    115 384
    179 385
    108 386
    110 387
    104 388
    108 389
    124 390
    140 391
     26 392
     57 393
    169 394
     48 395
     70 396
    140 397
    107 398
    152 399
    159 400
     26 401
     43 402
    144 403
    134 404
     87 405
     87 406
    124 407
     57 408
     78 409
    161 410
    107 411
    134 412
    117 413
    168 414
     61 415
    133 416
     84 417
     32 418
      7 419
    146 420
    151 421
     62 422
     97 423
    116 424
     64 425
    139 426
    135 427
    140 428
    141 429
    151 430
     42 431
    122 432
     54 433
    124 434
    167 435
    106 436
     80 437
    174 438
    168 439
    171 440
    156 441
     41 442
    141 443
    132 444
    162 445
    136 446
     99 447
     88 448
    132 449
    142 450
     46 451
    132 453
    113 454
    161 455
     43 456
     53 457
    153 458
    123 459
    127 460
    174 461
     66 462
    101 463
     15 464
      2 465
     44 466
    104 467
    186 468
    133 469
    170 470
     28 471
     46 472
     71 473
     85 474
     54 475
     71 476
    118 477
    152 478
    145 479
    153 480
    159 481
    208 482
    196 483
    120 484
    123 485
     32 486
    133 487
     49 488
    170 489
     46 490
      8 491
     22 492
     85 493
    146 494
     80 495
     44 496
     14 497
    161 498
    100 499
    125 500
    141 501
    146 502
     60 503
    107 504
    125 505
    117 506
     58 507
     49 508
    160 509
    168 510
     28 511
    150 512
    149 513
     55 514
    160 515
    152 516
     24 517
     88 518
     74 519
    137 520
     95 521
     76 522
    175 523
    103 524
     99 525
     23 526
    179 527
    123 528
    115 529
    178 530
    111 531
     67 532
    138 533
     60 534
    184 535
    152 536
    121 537
    128 538
      4 539
    147 540
    150 541
    105 542
    164 544
     67 545
    171 546
     37 547
