2
5
6
15
30
38
39
40
41
43
45
47
49
52
55
57
58
60
62
66
71
73
75
77
81
84
91
96
98
100
103
104
113
115
117
119
121
125
129
130
133
138
139
140
143
148
154
157
158
159
162
166
169
171
172
173
176
179
181
186
196
198
202
205
208
209
215
221
225
228
229
232
233
237
238
244
245
248
256
260
261
267
269
272
284
285
288
292
293
294
298
304
306
310
311
312
315
323
326
327
328
330
333
336
344
346
347
348
351
352
354
356
358
361
362
363
365
367
369
370
382
392
395
396
400
403
405
408
413
414
423
425
429
434
438
440
443
444
445
449
455
464
467
468
472
474
475
478
481
484
486
488
496
504
507
509
511
513
519
521
527
529
530
531
534
535
545
546
547
549
551
556
561
565
574
575
577
579
580
581
591
598
604
605
607
610
611
621
625
626
629
630
631
640
642
643
646
652
654
655
660
661
667
668
669
670
674
678
680
681
683
686
687
689
690
694
695
704
712
715
716
720
722
723
724
725
727
732
737
742
743
744
748
750
751
754
758
761
763
764
765
768
769
776
778
783
785
786
788
789
790
803
810
816
817
837
841
847
848
850
851
855
857
859
864
865
866
867
869
870
875
881
882
884
887
888
889
890
891
924
928
929
937
949
950
954
970
971
983
1046
1048
1082
1088
1092
1102
1105
1117
1128
1144
1145
1157
1177
