269	405	1
330	549	1
330	413	1
173	864	1
129	765	1
405	667	1
130	344	1
689	751	1
157	443	1
75	929	1
15	405	1
549	751	1
66	751	1
405	769	1
267	575	1
396	669	1
81	667	1
40	1144	1
159	769	1
351	678	1
425	751	1
722	751	1
269	478	1
751	765	1
57	298	1
229	413	1
405	472	1
646	751	1
478	722	1
176	202	1
38	765	1
392	413	1
38	722	1
58	413	1
228	464	1
30	765	1
229	351	1
474	769	1
198	841	1
66	561	1
315	395	1
580	937	1
47	49	1
121	294	1
173	790	1
233	765	1
228	561	1
395	604	1
642	890	1
445	629	1
769	954	1
413	668	1
117	294	1
413	689	1
81	237	1
198	354	1
413	486	1
256	751	1
58	751	1
631	765	1
565	689	1
403	478	1
181	367	1
510	646	1
413	751	1
530	1145	1
6	642	1
154	171	1
668	751	1
157	577	1
654	882	1
884	1048	1
103	751	1
413	857	1
229	269	1
84	850	1
228	358	1
392	751	1
405	408	1
444	751	1
408	790	1
468	751	1
575	642	1
403	765	1
260	859	1
513	783	1
326	751	1
269	681	1
358	751	1
143	475	1
267	751	1
742	765	1
73	294	1
867	954	1
39	172	1
358	507	1
5	928	1
96	504	1
575	646	1
285	750	1
413	683	1
229	233	1
646	722	1
326	591	1
743	937	1
763	870	1
405	695	1
81	751	1
176	229	1
686	715	1
159	732	1
162	765	1
293	405	1
173	751	1
598	803	1
229	610	1
269	765	1
176	789	1
113	330	1
39	604	1
75	790	1
43	1145	1
43	330	1
330	732	1
55	621	1
577	727	1
205	486	1
176	1177	1
352	478	1
138	954	1
162	352	1
765	769	1
176	330	1
486	565	1
38	810	1
269	667	1
181	405	1
642	722	1
181	715	1
395	751	1
352	751	1
84	546	1
478	765	1
96	229	1
138	472	1
172	556	1
205	914	1
43	138	1
751	783	1
722	765	1
751	786	1
504	881	1
667	751	1
751	937	1
468	488	1
751	789	1
30	751	1
668	765	1
293	751	1
298	488	1
715	751	1
81	870	1
41	870	1
513	751	1
475	888	1
642	751	1
38	472	1
119	751	1
413	535	1
267	395	1
157	803	1
358	413	1
55	413	1
507	765	1
43	405	1
157	504	1
765	789	1
751	870	1
181	413	1
642	972	1
468	598	1
261	888	1
71	751	1
621	751	1
294	413	1
75	284	1
646	765	1
405	689	1
405	413	1
765	870	1
468	765	1
472	786	1
362	504	1
661	751	1
129	173	1
75	354	1
138	468	1
358	803	1
888	1160	1
256	484	1
751	921	1
403	751	1
440	790	1
400	751	1
157	1145	1
478	667	1
6	395	1
38	130	1
472	556	1
743	769	1
551	751	1
413	577	1
765	890	1
5	769	1
96	577	1
66	413	1
169	765	1
40	1048	1
413	870	1
598	751	1
41	689	1
786	864	1
535	971	1
413	763	1
667	1144	1
405	841	1
413	847	1
474	674	1
221	768	1
440	884	1
765	912	1
695	732	1
113	667	1
408	413	1
229	921	1
176	751	1
176	575	1
455	681	1
232	914	1
403	850	1
363	751	1
472	529	1
392	765	1
176	765	1
413	440	1
113	765	1
285	674	1
455	765	1
912	971	1
330	621	1
413	928	1
121	848	1
84	867	1
413	769	1
208	725	1
556	565	1
367	890	1
181	535	1
269	751	1
58	847	1
367	369	1
598	765	1
267	535	1
30	598	1
173	765	1
238	751	1
346	661	1
765	921	1
113	681	1
129	157	1
84	527	1
396	864	1
272	434	1
403	667	1
38	763	1
598	776	1
113	413	1
269	786	1
73	817	1
440	763	1
84	732	1
642	884	1
244	400	1
328	765	1
413	642	1
269	306	1
285	765	1
751	1046	1
169	413	1
751	1128	1
369	686	1
413	695	1
660	751	1
41	45	1
228	912	1
269	763	1
405	481	1
786	891	1
52	129	1
629	694	1
73	413	1
395	912	1
579	751	1
121	248	1
751	851	1
38	173	1
575	751	1
580	743	1
367	790	1
667	763	1
113	817	1
38	440	1
369	751	1
751	788	1
478	850	1
181	765	1
455	689	1
43	166	1
722	1157	1
173	413	1
49	561	1
413	722	1
405	488	1
38	71	1
346	486	1
367	413	1
547	914	1
467	888	1
642	667	1
530	776	1
598	667	1
655	751	1
60	929	1
229	751	1
248	468	1
269	851	1
867	972	1
513	855	1
547	776	1
732	765	1
667	870	1
413	690	1
52	369	1
598	769	1
413	884	1
205	478	1
408	751	1
113	751	1
464	667	1
1102	1117	1
405	598	1
547	722	1
790	924	1
119	229	1
629	751	1
661	841	1
285	751	1
41	751	1
891	912	1
507	751	1
488	598	1
38	551	1
413	667	1
84	521	1
472	640	1
298	429	1
256	722	1
244	269	1
38	751	1
354	669	1
413	776	1
444	765	1
642	765	1
269	715	1
405	921	1
556	743	1
478	851	1
40	1177	1
269	531	1
330	765	1
403	413	1
758	803	1
129	1102	1
413	810	1
38	870	1
272	751	1
288	652	1
39	472	1
400	405	1
43	847	1
534	924	1
113	754	1
478	751	1
181	751	1
215	413	1
455	481	1
272	344	1
413	765	1
40	751	1
365	413	1
66	330	1
43	205	1
333	1048	1
646	857	1
103	765	1
395	413	1
45	732	1
38	887	1
413	669	1
179	751	1
352	640	1
413	720	1
344	972	1
269	621	1
284	737	1
256	529	1
229	369	1
370	546	1
81	413	1
162	176	1
413	429	1
455	786	1
269	429	1
455	751	1
413	788	1
405	751	1
408	667	1
510	751	1
55	763	1
330	751	1
575	765	1
215	1145	1
405	732	1
229	405	1
133	361	1
405	690	1
293	765	1
159	395	1
580	758	1
269	889	1
215	765	1
472	851	1
133	575	1
96	405	1
229	488	1
38	642	1
229	631	1
256	1144	1
75	642	1
40	851	1
642	763	1
269	722	1
449	504	1
248	556	1
248	949	1
38	84	1
140	580	1
513	732	1
351	395	1
75	769	1
233	751	1
765	776	1
81	765	1
129	690	1
38	413	1
312	395	1
763	765	1
267	413	1
464	751	1
157	245	1
392	763	1
354	504	1
229	577	1
256	330	1
413	481	1
143	888	1
395	605	1
84	598	1
267	546	1
43	344	1
403	530	1
256	575	1
75	169	1
173	395	1
661	891	1
198	751	1
413	478	1
715	765	1
626	751	1
205	837	1
228	652	1
75	488	1
720	765	1
715	891	1
75	408	1
269	928	1
405	468	1
765	847	1
100	527	1
157	248	1
256	765	1
248	725	1
60	84	1
71	176	1
690	983	1
245	790	1
546	786	1
55	751	1
429	765	1
138	971	1
751	790	1
55	778	1
229	732	1
535	890	1
173	292	1
851	1177	1
267	864	1
215	229	1
369	790	1
5	467	1
5	751	1
169	423	1
403	722	1
751	928	1
267	890	1
348	475	1
269	413	1
5	413	1
81	579	1
130	405	1
661	855	1
765	786	1
43	546	1
468	667	1
496	949	1
803	851	1
198	392	1
176	686	1
751	763	1
328	972	1
130	269	1
667	732	1
765	778	1
269	754	1
267	667	1
715	763	1
751	785	1
84	765	1
119	765	1
154	720	1
269	288	1
215	722	1
71	405	1
330	790	1
115	646	1
215	751	1
176	790	1
121	293	1
57	159	1
169	751	1
358	851	1
84	179	1
875	1088	1
38	535	1
117	176	1
138	581	1
176	413	1
395	561	1
294	405	1
769	1145	1
205	604	1
41	413	1
751	912	1
41	169	1
732	751	1
413	575	1
751	769	1
269	890	1
154	405	1
73	84	1
198	269	1
413	686	1
765	790	1
742	751	1
154	765	1
272	547	1
488	783	1
405	765	1
256	395	1
233	408	1
765	817	1
169	382	1
52	750	1
119	884	1
130	765	1
667	765	1
488	921	1
413	850	1
565	769	1
57	790	1
413	626	1
169	367	1
179	765	1
643	751	1
73	769	1
228	413	1
484	751	1
84	369	1
248	751	1
294	785	1
52	866	1
330	683	1
405	580	1
660	1144	1
575	669	1
157	202	1
169	629	1
104	413	1
81	181	1
369	629	1
358	468	1
580	640	1
642	851	1
328	535	1
73	162	1
40	765	1
6	970	1
208	751	1
857	949	1
176	405	1
229	668	1
326	598	1
370	891	1
157	229	1
269	870	1
681	695	1
117	751	1
695	851	1
351	890	1
346	395	1
643	686	1
413	629	1
6	769	1
75	269	1
157	765	1
751	867	1
924	937	1
298	413	1
403	704	1
531	732	1
38	1102	1
413	732	1
294	722	1
344	621	1
267	655	1
751	847	1
642	790	1
41	545	1
690	765	1
468	642	1
267	646	1
269	689	1
237	751	1
413	444	1
172	725	1
534	1177	1
71	695	1
261	732	1
47	743	1
47	413	1
413	778	1
47	921	1
15	751	1
176	655	1
667	722	1
440	751	1
104	631	1
674	850	1
77	765	1
481	776	1
269	535	1
38	667	1
488	751	1
103	841	1
173	769	1
312	330	1
40	444	1
580	929	1
444	778	1
5	449	1
73	750	1
269	642	1
40	680	1
113	361	1
129	154	1
113	444	1
49	724	1
260	687	1
284	370	1
205	233	1
352	605	1
327	859	1
215	776	1
472	580	1
294	363	1
312	621	1
285	732	1
41	173	1
30	73	1
294	732	1
113	778	1
38	891	1
57	444	1
221	1102	1
154	288	1
670	929	1
362	369	1
215	660	1
148	336	1
130	478	1
546	890	1
157	690	1
103	157	1
269	285	1
690	855	1
577	642	1
496	803	1
169	507	1
621	847	1
581	591	1
486	556	1
504	530	1
655	764	1
425	486	1
157	929	1
352	1082	1
129	867	1
229	260	1
327	687	1
215	629	1
154	509	1
215	267	1
306	950	1
817	881	1
413	891	1
455	778	1
73	690	1
464	579	1
577	864	1
84	288	1
237	478	1
530	803	1
49	529	1
157	764	1
690	937	1
272	646	1
311	887	1
154	486	1
344	841	1
77	237	1
311	1128	1
546	681	1
157	546	1
228	261	1
732	769	1
138	890	1
119	642	1
315	882	1
73	837	1
369	577	1
73	914	1
157	159	1
640	937	1
129	162	1
429	605	1
55	581	1
429	434	1
789	1102	1
30	983	1
362	529	1
712	970	1
245	285	1
233	652	1
229	687	1
284	661	1
129	202	1
546	652	1
208	611	1
133	690	1
294	686	1
260	326	1
642	725	1
269	1102	1
817	891	1
413	660	1
237	765	1
139	396	1
196	654	1
642	864	1
269	891	1
285	546	1
778	928	1
395	444	1
256	328	1
737	848	1
179	732	1
351	631	1
875	882	1
294	764	1
288	817	1
228	455	1
328	478	1
215	256	1
154	352	1
288	891	1
157	328	1
580	891	1
162	546	1
351	655	1
60	157	1
455	789	1
138	556	1
169	704	1
15	929	1
73	444	1
546	695	1
629	642	1
315	511	1
162	288	1
157	625	1
129	891	1
472	605	1
467	475	1
84	169	1
62	869	1
62	215	1
859	882	1
171	625	1
294	580	1
248	285	1
521	803	1
444	737	1
328	363	1
229	546	1
84	689	1
41	328	1
486	857	1
157	652	1
370	690	1
84	478	1
66	504	1
367	751	1
30	972	1
488	786	1
129	751	1
47	486	1
233	328	1
229	864	1
103	732	1
233	306	1
581	712	1
47	306	1
98	344	1
202	352	1
157	472	1
444	488	1
294	306	1
507	530	1
47	769	1
686	769	1
30	351	1
704	788	1
233	803	1
292	455	1
328	455	1
198	413	1
229	890	1
172	310	1
121	690	1
129	344	1
444	723	1
683	855	1
169	237	1
269	720	1
232	472	1
98	172	1
73	172	1
84	857	1
344	816	1
716	859	1
113	580	1
157	267	1
40	405	1
455	510	1
98	914	1
328	440	1
751	857	1
104	621	1
269	732	1
154	574	1
269	294	1
577	591	1
680	725	1
348	455	1
751	891	1
395	875	1
245	605	1
348	642	1
642	660	1
306	626	1
60	732	1
233	488	1
117	352	1
326	414	1
103	743	1
369	507	1
139	361	1
530	929	1
455	546	1
310	352	1
133	867	1
869	1092	1
73	245	1
1046	1102	1
472	929	1
344	737	1
630	983	1
352	556	1
154	1082	1
306	605	1
52	625	1
176	408	1
71	215	1
171	950	1
306	743	1
154	817	1
444	551	1
803	1105	1
328	408	1
113	530	1
580	751	1
157	198	1
169	484	1
125	531	1
776	890	1
363	642	1
179	269	1
157	344	1
285	891	1
248	1105	1
294	642	1
347	847	1
117	269	1
267	405	1
288	605	1
129	642	1
202	769	1
233	1105	1
41	113	1
367	789	1
143	607	1
172	179	1
867	881	1
198	285	1
45	891	1
642	1102	1
117	486	1
221	444	1
57	847	1
530	690	1
138	306	1
162	556	1
267	929	1
113	890	1
66	929	1
172	857	1
154	914	1
233	486	1
292	678	1
269	611	1
91	607	1
444	869	1
233	732	1
172	817	1
52	162	1
71	580	1
172	352	1
171	233	1
47	817	1
73	546	1
464	971	1
504	674	1
267	488	1
245	769	1
408	724	1
245	881	1
556	769	1
55	443	1
864	875	1
577	724	1
113	117	1
294	478	1
625	950	1
2	785	1
113	1102	1
689	891	1
6	778	1
47	205	1
444	642	1
344	769	1
434	769	1
62	209	1
687	723	1
113	546	1
642	789	1
176	472	1
173	429	1
351	581	1
173	891	1
323	768	1
138	686	1
215	890	1
269	778	1
778	1102	1
937	1160	1
196	882	1
84	891	1
157	478	1
352	686	1
138	610	1
66	732	1
133	732	1
344	352	1
154	816	1
344	803	1
408	891	1
228	642	1
157	817	1
408	723	1
162	686	1
547	891	1
172	288	1
344	1082	1
315	414	1
162	198	1
117	288	1
84	119	1
133	284	1
113	221	1
686	803	1
73	171	1
472	646	1
405	686	1
205	743	1
292	510	1
449	591	1
5	365	1
521	867	1
113	1046	1
232	769	1
743	817	1
113	119	1
169	444	1
232	288	1
208	423	1
327	683	1
173	181	1
260	414	1
73	98	1
157	233	1
513	937	1
743	914	1
723	724	1
642	817	1
327	581	1
847	928	1
202	504	1
228	1088	1
181	358	1
369	1102	1
157	561	1
245	504	1
577	581	1
330	727	1
468	851	1
365	810	1
47	891	1
472	972	1
52	769	1
173	1157	1
172	686	1
173	890	1
327	333	1
169	369	1
117	285	1
176	488	1
41	789	1
198	352	1
732	1117	1
229	851	1
173	1102	1
686	732	1
138	233	1
519	654	1
546	743	1
472	486	1
423	642	1
816	841	1
233	425	1
117	769	1
507	580	1
205	344	1
326	768	1
285	758	1
285	817	1
205	769	1
817	1105	1
328	444	1
687	864	1
610	630	1
687	859	1
750	891	1
172	486	1
732	750	1
267	507	1
221	642	1
55	444	1
652	891	1
62	1092	1
179	284	1
30	841	1
52	891	1
486	605	1
157	352	1
98	857	1
478	546	1
154	891	1
181	221	1
52	530	1
98	154	1
445	549	1
488	580	1
556	889	1
724	748	1
75	778	1
803	914	1
5	269	1
530	750	1
326	444	1
248	857	1
154	556	1
215	937	1
245	690	1
5	748	1
232	803	1
244	367	1
73	889	1
173	202	1
98	288	1
202	530	1
57	737	1
169	891	1
166	306	1
642	776	1
327	408	1
71	269	1
113	157	1
654	687	1
737	790	1
546	866	1
215	769	1
162	405	1
154	198	1
45	690	1
202	269	1
113	891	1
551	1092	1
73	575	1
408	581	1
138	162	1
221	472	1
103	864	1
45	472	1
49	327	1
778	1046	1
233	743	1
887	1128	1
260	323	1
288	344	1
472	776	1
157	269	1
130	1105	1
228	890	1
179	929	1
642	857	1
154	269	1
269	884	1
169	890	1
173	478	1
642	1048	1
47	556	1
285	769	1
530	626	1
358	434	1
284	640	1
157	530	1
169	929	1
84	788	1
704	884	1
248	803	1
130	527	1
49	1088	1
891	914	1
472	817	1
344	486	1
847	848	1
336	351	1
237	884	1
84	924	1
304	607	1
129	288	1
556	891	1
294	534	1
267	732	1
680	857	1
803	857	1
133	154	1
75	732	1
444	455	1
98	803	1
642	686	1
117	344	1
198	472	1
73	202	1
232	233	1
202	732	1
233	530	1
129	1105	1
269	690	1
581	970	1
269	929	1
646	803	1
198	857	1
327	655	1
198	743	1
103	405	1
52	84	1
344	867	1
610	744	1
125	369	1
202	233	1
138	744	1
52	686	1
73	686	1
333	351	1
172	803	1
169	884	1
330	444	1
605	817	1
55	577	1
198	444	1
173	1105	1
444	715	1
315	859	1
198	545	1
472	867	1
157	769	1
269	1048	1
440	789	1
346	769	1
642	689	1
157	786	1
720	751	1
344	857	1
486	769	1
732	758	1
49	292	1
73	891	1
260	864	1
348	761	1
228	970	1
119	789	1
133	179	1
169	202	1
284	855	1
464	530	1
472	743	1
425	803	1
117	817	1
186	521	1
312	509	1
403	870	1
186	352	1
215	328	1
129	486	1
464	783	1
62	891	1
181	1102	1
41	392	1
73	803	1
803	817	1
577	970	1
40	215	1
269	284	1
172	269	1
288	803	1
232	269	1
328	556	1
169	769	1
15	732	1
472	488	1
425	867	1
521	1082	1
413	1102	1
504	769	1
157	732	1
323	336	1
414	864	1
228	574	1
272	690	1
172	889	1
98	198	1
130	474	1
221	778	1
73	455	1
396	504	1
233	625	1
215	642	1
113	857	1
488	929	1
237	788	1
245	486	1
294	530	1
260	511	1
444	669	1
244	455	1
232	743	1
55	365	1
40	84	1
413	530	1
408	937	1
225	546	1
507	642	1
530	689	1
6	166	1
486	889	1
405	530	1
157	605	1
361	867	1
245	817	1
370	513	1
154	157	1
344	556	1
546	768	1
315	519	1
62	481	1
47	269	1
488	855	1
73	743	1
117	521	1
370	646	1
71	686	1
215	530	1
129	817	1
157	434	1
690	732	1
169	403	1
237	742	1
328	921	1
269	400	1
292	983	1
444	769	1
344	1105	1
233	686	1
292	864	1
229	723	1
743	891	1
306	444	1
202	642	1
327	519	1
55	810	1
125	549	1
352	816	1
315	687	1
256	403	1
889	914	1
5	611	1
472	954	1
215	715	1
272	803	1
169	642	1
455	864	1
425	1105	1
73	117	1
179	769	1
154	686	1
449	577	1
444	468	1
890	970	1
138	260	1
488	535	1
486	680	1
789	937	1
96	176	1
267	530	1
288	881	1
117	803	1
129	425	1
176	403	1
605	803	1
49	687	1
215	507	1
444	761	1
267	288	1
73	472	1
77	788	1
157	205	1
43	84	1
172	642	1
233	248	1
857	914	1
344	686	1
310	914	1
84	803	1
245	284	1
157	737	1
215	891	1
408	732	1
269	486	1
769	857	1
52	626	1
62	579	1
577	875	1
444	478	1
356	643	1
269	695	1
215	444	1
173	405	1
113	173	1
117	743	1
228	444	1
269	362	1
52	285	1
117	857	1
689	1157	1
154	172	1
507	891	1
238	865	1
690	929	1
73	352	1
113	732	1
472	751	1
75	444	1
344	751	1
2	229	1
228	260	1
77	169	1
306	686	1
288	444	1
5	591	1
129	686	1
598	921	1
260	610	1
96	408	1
179	202	1
40	119	1
209	444	1
179	855	1
333	687	1
66	444	1
40	173	1
154	521	1
488	754	1
100	269	1
169	328	1
292	694	1
45	233	1
440	912	1
395	408	1
478	530	1
176	294	1
535	689	1
261	467	1
73	233	1
260	875	1
546	950	1
73	306	1
285	803	1
642	694	1
140	577	1
103	521	1
233	605	1
630	723	1
336	768	1
52	157	1
154	841	1
769	881	1
229	768	1
113	294	1
133	272	1
488	890	1
30	414	1
312	727	1
171	248	1
408	577	1
169	788	1
362	929	1
890	1088	1
551	579	1
169	440	1
725	857	1
117	472	1
179	580	1
546	686	1
867	914	1
488	530	1
285	867	1
511	574	1
113	429	1
125	396	1
269	972	1
423	611	1
202	472	1
580	732	1
369	534	1
196	260	1
769	889	1
5	327	1
202	474	1
642	783	1
605	769	1
288	488	1
472	744	1
272	370	1
181	776	1
530	534	1
196	768	1
891	921	1
486	817	1
328	405	1
130	732	1
43	352	1
169	269	1
288	1105	1
292	723	1
66	737	1
464	850	1
133	803	1
172	565	1
260	768	1
71	507	1
129	837	1
743	1105	1
642	668	1
530	642	1
444	857	1
233	344	1
444	789	1
229	444	1
47	154	1
351	405	1
129	248	1
121	937	1
530	817	1
138	361	1
15	891	1
769	803	1
580	629	1
504	737	1
138	225	1
292	444	1
169	176	1
41	269	1
761	1092	1
45	198	1
40	484	1
73	344	1
158	875	1
113	288	1
202	737	1
196	875	1
444	929	1
408	468	1
269	789	1
769	867	1
47	98	1
73	488	1
133	172	1
62	444	1
98	1105	1
504	642	1
140	445	1
403	507	1
769	1105	1
205	857	1
556	867	1
133	472	1
6	768	1
215	455	1
157	642	1
103	117	1
269	1105	1
285	556	1
215	294	1
486	725	1
159	546	1
215	1102	1
285	352	1
91	304	1
654	875	1
52	229	1
328	351	1
173	444	1
535	642	1
472	565	1
157	169	1
269	395	1
229	859	1
173	215	1
6	169	1
591	712	1
408	449	1
73	382	1
580	642	1
245	857	1
119	169	1
162	171	1
486	881	1
202	288	1
84	352	1
352	769	1
119	776	1
73	133	1
367	455	1
73	157	1
267	891	1
605	750	1
323	511	1
179	215	1
245	867	1
472	914	1
269	488	1
369	642	1
267	294	1
408	764	1
172	248	1
40	789	1
2	851	1
472	546	1
244	478	1
351	408	1
84	769	1
115	865	1
521	841	1
62	761	1
269	857	1
129	172	1
328	367	1
310	857	1
315	326	1
113	237	1
133	769	1
129	358	1
129	803	1
260	336	1
52	817	1
306	732	1
256	292	1
47	344	1
530	769	1
351	764	1
41	642	1
642	680	1
488	857	1
294	328	1
129	328	1
75	330	1
358	472	1
330	737	1
133	288	1
408	530	1
113	642	1
1092	1160	1
444	937	1
196	229	1
298	1102	1
605	891	1
129	743	1
783	850	1
62	400	1
328	914	1
336	511	1
202	689	1
750	803	1
336	875	1
392	689	1
403	444	1
47	686	1
400	551	1
176	929	1
202	444	1
486	743	1
215	686	1
306	556	1
356	642	1
176	530	1
474	670	1
272	504	1
133	285	1
84	285	1
408	683	1
866	1160	1
215	488	1
129	732	1
323	875	1
269	530	1
84	444	1
40	642	1
30	344	1
472	769	1
519	678	1
198	288	1
867	889	1
129	914	1
444	1046	1
546	556	1
444	768	1
351	369	1
530	652	1
62	478	1
478	891	1
530	737	1
221	455	1
414	654	1
472	857	1
176	455	1
52	138	1
158	315	1
98	817	1
181	642	1
352	472	1
327	577	1
40	776	1
233	769	1
294	444	1
162	285	1
577	1048	1
687	875	1
176	732	1
176	507	1
39	486	1
40	403	1
449	970	1
577	655	1
130	173	1
113	535	1
859	864	1
444	847	1
172	285	1
172	914	1
202	690	1
103	344	1
352	914	1
169	215	1
103	444	1
695	882	1
169	722	1
181	789	1
425	857	1
294	351	1
5	351	1
294	507	1
288	413	1
30	472	1
181	328	1
292	408	1
232	817	1
202	272	1
233	472	1
115	686	1
209	551	1
292	642	1
531	556	1
228	687	1
113	689	1
440	891	1
176	215	1
438	725	1
133	881	1
732	857	1
229	875	1
737	847	1
103	891	1
504	690	1
171	556	1
202	285	1
84	233	1
173	232	1
40	361	1
232	751	1
817	867	1
5	655	1
58	577	1
169	478	1
52	743	1
689	715	1
172	198	1
66	848	1
179	891	1
288	867	1
434	732	1
642	803	1
148	260	1
62	256	1
181	215	1
129	198	1
198	344	1
444	725	1
444	790	1
162	891	1
229	924	1
732	847	1
113	202	1
737	891	1
229	785	1
73	556	1
546	732	1
154	889	1
162	306	1
154	285	1
115	486	1
527	891	1
43	140	1
221	789	1
138	159	1
260	882	1
62	413	1
464	785	1
444	1102	1
565	857	1
245	949	1
817	929	1
768	875	1
154	245	1
52	73	1
229	294	1
229	292	1
40	507	1
269	817	1
444	621	1
285	605	1
129	133	1
179	370	1
176	546	1
723	864	1
113	472	1
478	857	1
674	929	1
330	530	1
84	205	1
306	750	1
577	683	1
284	577	1
327	336	1
138	546	1
580	864	1
521	816	1
269	575	1
330	509	1
157	172	1
113	803	1
73	867	1
173	294	1
356	444	1
551	761	1
196	655	1
49	229	1
581	655	1
171	172	1
133	857	1
205	605	1
722	891	1
117	841	1
395	694	1
154	186	1
73	642	1
751	776	1
260	654	1
117	154	1
577	847	1
327	864	1
574	723	1
577	764	1
642	778	1
169	288	1
751	1105	1
52	732	1
130	686	1
157	179	1
84	344	1
405	577	1
312	790	1
405	478	1
267	403	1
392	1157	1
84	294	1
817	857	1
233	857	1
84	642	1
248	817	1
233	269	1
857	1105	1
198	867	1
138	157	1
864	890	1
769	817	1
43	556	1
157	580	1
172	205	1
73	129	1
62	269	1
237	413	1
269	768	1
205	288	1
472	732	1
171	857	1
269	660	1
73	288	1
269	769	1
166	546	1
351	534	1
62	732	1
205	803	1
169	758	1
133	646	1
455	1092	1
202	972	1
304	1128	1
267	472	1
173	778	1
732	803	1
75	847	1
113	328	1
176	1102	1
157	488	1
294	488	1
605	642	1
333	864	1
269	293	1
288	686	1
352	857	1
312	382	1
288	857	1
157	171	1
472	530	1
186	841	1
62	551	1
75	157	1
176	486	1
768	859	1
285	889	1
363	686	1
30	352	1
47	233	1
71	130	1
267	737	1
198	914	1
91	467	1
642	891	1
444	1092	1
172	769	1
358	743	1
84	248	1
58	310	1
267	444	1
49	678	1
209	1092	1
654	859	1
104	202	1
62	348	1
140	396	1
256	455	1
129	352	1
62	169	1
351	891	1
315	654	1
73	857	1
455	642	1
154	472	1
119	269	1
157	891	1
162	743	1
605	857	1
169	488	1
176	285	1
327	351	1
351	577	1
367	689	1
176	198	1
71	891	1
154	630	1
488	642	1
113	181	1
73	154	1
551	869	1
472	837	1
113	1157	1
310	743	1
173	642	1
245	361	1
84	472	1
294	408	1
750	769	1
84	937	1
857	867	1
269	434	1
369	530	1
248	605	1
172	344	1
438	565	1
232	248	1
71	769	1
179	513	1
640	855	1
5	581	1
327	748	1
660	776	1
129	929	1
574	716	1
66	157	1
551	642	1
41	267	1
352	642	1
474	527	1
121	284	1
154	867	1
285	743	1
260	315	1
344	642	1
267	847	1
198	556	1
272	732	1
546	605	1
205	867	1
284	937	1
162	233	1
315	336	1
77	438	1
125	140	1
71	488	1
310	867	1
642	732	1
358	556	1
138	605	1
642	1157	1
449	581	1
138	171	1
125	139	1
783	785	1
288	486	1
857	889	1
45	803	1
138	158	1
5	712	1
288	425	1
370	855	1
133	245	1
113	488	1
478	890	1
130	891	1
84	129	1
565	725	1
344	817	1
60	642	1
98	285	1
444	530	1
62	176	1
269	803	1
455	478	1
248	344	1
891	937	1
176	504	1
154	803	1
488	937	1
84	162	1
117	1082	1
723	768	1
272	891	1
2	546	1
5	970	1
157	669	1
478	776	1
215	293	1
125	546	1
198	267	1
157	890	1
248	486	1
455	660	1
77	884	1
472	891	1
369	732	1
408	690	1
504	929	1
348	507	1
103	1082	1
348	444	1
130	215	1
84	530	1
228	786	1
556	803	1
655	690	1
198	486	1
171	769	1
294	369	1
472	504	1
444	667	1
157	330	1
62	464	1
769	929	1
743	867	1
157	285	1
5	983	1
52	472	1
370	937	1
256	683	1
248	891	1
743	803	1
288	472	1
285	486	1
130	642	1
288	306	1
245	344	1
478	689	1
49	511	1
232	425	1
73	535	1
472	737	1
245	803	1
40	689	1
157	776	1
45	269	1
196	315	1
449	655	1
472	803	1
803	867	1
352	521	1
98	686	1
40	1157	1
817	889	1
130	751	1
408	591	1
312	848	1
171	288	1
610	864	1
157	162	1
403	642	1
408	712	1
556	605	1
285	496	1
642	723	1
294	769	1
468	1117	1
96	855	1
444	722	1
173	530	1
198	605	1
478	937	1
369	891	1
113	776	1
694	983	1
129	488	1
686	1105	1
47	84	1
41	455	1
143	304	1
52	306	1
288	352	1
269	328	1
455	1157	1
530	732	1
678	748	1
98	889	1
6	138	1
43	686	1
267	369	1
232	891	1
527	642	1
205	817	1
45	751	1
288	546	1
472	642	1
720	971	1
52	328	1
272	530	1
103	556	1
115	269	1
215	546	1
444	891	1
369	444	1
113	367	1
306	326	1
530	605	1
591	683	1
41	660	1
133	817	1
148	687	1
129	285	1
546	847	1
176	444	1
382	509	1
352	867	1
429	444	1
269	580	1
113	478	1
445	546	1
504	732	1
157	294	1
534	764	1
769	914	1
49	723	1
643	778	1
769	891	1
488	817	1
5	577	1
117	434	1
269	472	1
328	769	1
215	789	1
750	1088	1
408	504	1
157	347	1
285	642	1
215	244	1
198	817	1
348	1160	1
837	867	1
5	408	1
408	750	1
157	750	1
202	929	1
574	577	1
47	232	1
315	768	1
138	288	1
169	732	1
129	232	1
285	929	1
30	285	1
30	103	1
382	769	1
330	478	1
233	285	1
113	215	1
352	369	1
73	248	1
154	857	1
488	1117	1
100	865	1
577	890	1
119	403	1
306	857	1
486	867	1
348	551	1
143	261	1
157	292	1
294	891	1
169	455	1
62	642	1
574	841	1
173	776	1
269	504	1
395	678	1
40	891	1
267	754	1
157	306	1
425	817	1
358	891	1
292	630	1
172	867	1
344	929	1
285	288	1
157	841	1
228	326	1
472	690	1
546	642	1
344	575	1
57	732	1
352	841	1
768	882	1
103	176	1
344	758	1
198	769	1
478	732	1
256	928	1
245	472	1
579	642	1
73	486	1
173	743	1
304	467	1
288	743	1
642	769	1
237	642	1
103	352	1
98	269	1
47	857	1
580	1117	1
157	848	1
209	348	1
292	724	1
173	198	1
362	891	1
138	652	1
30	154	1
103	233	1
478	884	1
148	511	1
57	157	1
468	768	1
169	742	1
742	788	1
352	486	1
488	629	1
288	496	1
352	847	1
507	1102	1
429	642	1
215	228	1
306	546	1
103	768	1
788	884	1
315	875	1
157	225	1
328	732	1
444	890	1
556	857	1
176	890	1
486	914	1
157	369	1
403	732	1
47	310	1
84	176	1
267	269	1
117	867	1
169	198	1
39	198	1
62	455	1
229	970	1
176	817	1
179	690	1
478	1102	1
179	272	1
306	652	1
233	891	1
732	817	1
434	803	1
521	743	1
181	478	1
84	743	1
84	1105	1
642	750	1
30	117	1
621	848	1
486	954	1
488	507	1
47	198	1
352	737	1
60	530	1
464	937	1
40	328	1
841	1082	1
49	864	1
488	732	1
425	891	1
344	914	1
138	891	1
348	869	1
790	848	1
256	642	1
743	889	1
157	857	1
73	198	1
232	857	1
157	610	1
405	924	1
328	369	1
344	425	1
173	472	1
158	260	1
62	173	1
172	743	1
293	598	1
534	577	1
202	803	1
724	864	1
52	803	1
328	642	1
488	765	1
179	344	1
215	788	1
269	344	1
215	681	1
395	1048	1
225	306	1
47	73	1
96	534	1
328	689	1
803	891	1
732	929	1
173	488	1
47	605	1
732	737	1
103	642	1
162	328	1
225	233	1
440	642	1
91	143	1
546	769	1
455	1102	1
47	285	1
248	288	1
344	521	1
157	790	1
488	891	1
344	472	1
47	172	1
138	642	1
751	1102	1
577	598	1
84	103	1
405	547	1
228	306	1
875	890	1
103	154	1
310	889	1
133	486	1
395	455	1
803	929	1
57	347	1
113	169	1
356	507	1
215	667	1
52	294	1
157	288	1
47	1105	1
71	546	1
547	642	1
171	306	1
73	605	1
103	816	1
269	423	1
233	817	1
237	704	1
113	789	1
40	169	1
129	605	1
202	527	1
84	455	1
267	769	1
157	232	1
351	530	1
269	369	1
285	686	1
229	468	1
5	683	1
133	157	1
47	546	1
57	369	1
169	857	1
205	248	1
743	857	1
154	642	1
486	642	1
169	551	1
162	429	1
129	171	1
84	817	1
157	272	1
221	348	1
119	413	1
154	344	1
157	176	1
267	642	1
84	306	1
444	507	1
315	716	1
488	769	1
47	867	1
157	545	1
370	640	1
154	732	1
478	510	1
438	486	1
511	864	1
330	847	1
361	881	1
348	408	1
40	62	1
640	690	1
52	546	1
521	686	1
654	716	1
344	605	1
157	444	1
173	857	1
47	889	1
229	681	1
367	1157	1
