start to construct computing graph
graph construct over
2359
epochs start
#iterations: 0
currently lose_sum: 0.6854490041732788
time_elpased: 2.239
#iterations: 1
currently lose_sum: 0.6845324635505676
time_elpased: 2.16
#iterations: 2
currently lose_sum: 0.6796161532402039
time_elpased: 2.226
#iterations: 3
currently lose_sum: 0.6984796524047852
time_elpased: 2.21
#iterations: 4
currently lose_sum: 0.7011935114860535
time_elpased: 2.214
#iterations: 5
currently lose_sum: 0.6924519538879395
time_elpased: 2.35
#iterations: 6
currently lose_sum: 0.6756064295768738
time_elpased: 2.213
#iterations: 7
currently lose_sum: 0.6852966547012329
time_elpased: 2.256
#iterations: 8
currently lose_sum: 0.6842824220657349
time_elpased: 2.344
#iterations: 9
currently lose_sum: 0.7063397169113159
time_elpased: 2.266
#iterations: 10
currently lose_sum: 0.6878770589828491
time_elpased: 2.386
#iterations: 11
currently lose_sum: 0.6456724405288696
time_elpased: 2.239
#iterations: 12
currently lose_sum: 0.6786338090896606
time_elpased: 2.213
#iterations: 13
currently lose_sum: 0.6864944696426392
time_elpased: 2.215
#iterations: 14
currently lose_sum: 0.6655057668685913
time_elpased: 2.228
#iterations: 15
currently lose_sum: 0.690020740032196
time_elpased: 2.296
#iterations: 16
currently lose_sum: 0.6784337162971497
time_elpased: 2.269
#iterations: 17
currently lose_sum: 0.6524859666824341
time_elpased: 2.279
#iterations: 18
currently lose_sum: 0.6920034289360046
time_elpased: 2.226
#iterations: 19
currently lose_sum: 0.6506004333496094
time_elpased: 2.174
start validation test
0.530769230769
0.547495682211
0.402795425667
0.464128843338
0.531928113868
27.066
#iterations: 20
currently lose_sum: 0.683337390422821
time_elpased: 1.627
#iterations: 21
currently lose_sum: 0.7165549993515015
time_elpased: 1.675
#iterations: 22
currently lose_sum: 0.7178623080253601
time_elpased: 1.665
#iterations: 23
currently lose_sum: 0.6656940579414368
time_elpased: 1.609
#iterations: 24
currently lose_sum: 0.7768820524215698
time_elpased: 1.616
#iterations: 25
currently lose_sum: 0.6610257625579834
time_elpased: 1.649
#iterations: 26
currently lose_sum: 0.677491307258606
time_elpased: 1.653
#iterations: 27
currently lose_sum: 0.6764656901359558
time_elpased: 1.664
#iterations: 28
currently lose_sum: 0.6567891240119934
time_elpased: 1.638
#iterations: 29
currently lose_sum: 0.6975595355033875
time_elpased: 1.651
#iterations: 30
currently lose_sum: 0.6120570302009583
time_elpased: 1.628
#iterations: 31
currently lose_sum: 0.6534059047698975
time_elpased: 1.642
#iterations: 32
currently lose_sum: 0.6872574090957642
time_elpased: 1.625
#iterations: 33
currently lose_sum: 0.6528700590133667
time_elpased: 1.644
#iterations: 34
currently lose_sum: 0.7005178332328796
time_elpased: 1.602
#iterations: 35
currently lose_sum: 0.7324463725090027
time_elpased: 1.627
#iterations: 36
currently lose_sum: 0.6643005013465881
time_elpased: 1.644
#iterations: 37
currently lose_sum: 0.6941855549812317
time_elpased: 1.643
#iterations: 38
currently lose_sum: 0.6794236898422241
time_elpased: 1.64
#iterations: 39
currently lose_sum: 0.6927434802055359
time_elpased: 1.63
start validation test
0.544230769231
0.561488673139
0.440914866582
0.493950177936
0.545166359552
26.639
#iterations: 40
currently lose_sum: 0.7433837652206421
time_elpased: 1.62
#iterations: 41
currently lose_sum: 0.6963341236114502
time_elpased: 1.621
#iterations: 42
currently lose_sum: 0.6830499172210693
time_elpased: 1.616
#iterations: 43
currently lose_sum: 0.7008159756660461
time_elpased: 1.631
#iterations: 44
currently lose_sum: 0.6639934778213501
time_elpased: 1.626
#iterations: 45
currently lose_sum: 0.6591649055480957
time_elpased: 1.643
#iterations: 46
currently lose_sum: 0.677803635597229
time_elpased: 1.618
#iterations: 47
currently lose_sum: 0.6636999249458313
time_elpased: 1.616
#iterations: 48
currently lose_sum: 0.6482242345809937
time_elpased: 1.614
#iterations: 49
currently lose_sum: 0.6567416191101074
time_elpased: 1.631
#iterations: 50
currently lose_sum: 0.6769617795944214
time_elpased: 1.587
#iterations: 51
currently lose_sum: 0.6991426944732666
time_elpased: 1.615
#iterations: 52
currently lose_sum: 0.648084819316864
time_elpased: 1.648
#iterations: 53
currently lose_sum: 0.6816532611846924
time_elpased: 1.674
#iterations: 54
currently lose_sum: 0.6938406229019165
time_elpased: 1.487
#iterations: 55
currently lose_sum: 0.6683122515678406
time_elpased: 1.433
#iterations: 56
currently lose_sum: 0.7030789256095886
time_elpased: 1.416
#iterations: 57
currently lose_sum: 0.6992310285568237
time_elpased: 1.425
#iterations: 58
currently lose_sum: 0.6932058930397034
time_elpased: 1.402
#iterations: 59
currently lose_sum: 0.674838662147522
time_elpased: 1.407
start validation test
0.547435897436
0.560357675112
0.477763659466
0.515775034294
0.548066823265
26.962
#iterations: 60
currently lose_sum: 0.6897209286689758
time_elpased: 1.482
#iterations: 61
currently lose_sum: 0.6891941428184509
time_elpased: 1.585
#iterations: 62
currently lose_sum: 0.685461163520813
time_elpased: 1.594
#iterations: 63
currently lose_sum: 0.6292948722839355
time_elpased: 1.562
#iterations: 64
currently lose_sum: 0.6800363659858704
time_elpased: 1.588
#iterations: 65
currently lose_sum: 0.7277871966362
time_elpased: 1.552
#iterations: 66
currently lose_sum: 0.6740394234657288
time_elpased: 1.561
#iterations: 67
currently lose_sum: 0.673120379447937
time_elpased: 1.575
#iterations: 68
currently lose_sum: 0.6947808265686035
time_elpased: 1.565
#iterations: 69
currently lose_sum: 0.6606513261795044
time_elpased: 1.594
#iterations: 70
currently lose_sum: 0.6474045515060425
time_elpased: 1.584
#iterations: 71
currently lose_sum: 0.6867432594299316
time_elpased: 1.585
#iterations: 72
currently lose_sum: 0.6720108389854431
time_elpased: 1.55
#iterations: 73
currently lose_sum: 0.6738260388374329
time_elpased: 1.636
#iterations: 74
currently lose_sum: 0.6299538612365723
time_elpased: 1.638
#iterations: 75
currently lose_sum: 0.6189624667167664
time_elpased: 1.572
#iterations: 76
currently lose_sum: 0.6687329411506653
time_elpased: 1.592
#iterations: 77
currently lose_sum: 0.6475954055786133
time_elpased: 1.561
#iterations: 78
currently lose_sum: 0.6687655448913574
time_elpased: 1.572
#iterations: 79
currently lose_sum: 0.6435708403587341
time_elpased: 1.613
start validation test
0.541666666667
0.567924528302
0.382465057179
0.457099468489
0.543108337128
26.696
#iterations: 80
currently lose_sum: 0.6601276397705078
time_elpased: 1.551
#iterations: 81
currently lose_sum: 0.6880723834037781
time_elpased: 1.605
#iterations: 82
currently lose_sum: 0.6658401489257812
time_elpased: 1.576
#iterations: 83
currently lose_sum: 0.6062625646591187
time_elpased: 1.549
#iterations: 84
currently lose_sum: 0.5990592837333679
time_elpased: 1.558
#iterations: 85
currently lose_sum: 0.6466841697692871
time_elpased: 1.564
#iterations: 86
currently lose_sum: 0.6649462580680847
time_elpased: 1.61
#iterations: 87
currently lose_sum: 0.706278383731842
time_elpased: 1.576
#iterations: 88
currently lose_sum: 0.7018003463745117
time_elpased: 1.588
#iterations: 89
currently lose_sum: 0.6197318434715271
time_elpased: 1.615
#iterations: 90
currently lose_sum: 0.7056748270988464
time_elpased: 1.663
#iterations: 91
currently lose_sum: 0.6415563821792603
time_elpased: 1.63
#iterations: 92
currently lose_sum: 0.6164076924324036
time_elpased: 1.641
#iterations: 93
currently lose_sum: 0.6474713087081909
time_elpased: 1.639
#iterations: 94
currently lose_sum: 0.6285465955734253
time_elpased: 1.661
#iterations: 95
currently lose_sum: 0.6426328420639038
time_elpased: 1.646
#iterations: 96
currently lose_sum: 0.7211427092552185
time_elpased: 1.679
#iterations: 97
currently lose_sum: 0.6336706876754761
time_elpased: 1.659
#iterations: 98
currently lose_sum: 0.6073449850082397
time_elpased: 1.661
#iterations: 99
currently lose_sum: 0.6545889973640442
time_elpased: 1.667
start validation test
0.558333333333
0.549695740365
0.688691232529
0.611393119007
0.557152860766
26.893
#iterations: 100
currently lose_sum: 0.6671212911605835
time_elpased: 1.654
#iterations: 101
currently lose_sum: 0.6516419649124146
time_elpased: 1.646
#iterations: 102
currently lose_sum: 0.6512733697891235
time_elpased: 1.625
#iterations: 103
currently lose_sum: 0.6819843053817749
time_elpased: 1.629
#iterations: 104
currently lose_sum: 0.6774997711181641
time_elpased: 1.655
#iterations: 105
currently lose_sum: 0.7035900354385376
time_elpased: 1.67
#iterations: 106
currently lose_sum: 0.6416224241256714
time_elpased: 1.645
#iterations: 107
currently lose_sum: 0.6616301536560059
time_elpased: 1.62
#iterations: 108
currently lose_sum: 0.7199675440788269
time_elpased: 1.64
#iterations: 109
currently lose_sum: 0.7660910487174988
time_elpased: 1.631
#iterations: 110
currently lose_sum: 0.691186785697937
time_elpased: 1.674
#iterations: 111
currently lose_sum: 0.6442828178405762
time_elpased: 1.634
#iterations: 112
currently lose_sum: 0.6521793603897095
time_elpased: 1.618
#iterations: 113
currently lose_sum: 0.652213454246521
time_elpased: 1.623
#iterations: 114
currently lose_sum: 0.631424069404602
time_elpased: 1.648
#iterations: 115
currently lose_sum: 0.7191336750984192
time_elpased: 1.643
#iterations: 116
currently lose_sum: 0.6258861422538757
time_elpased: 1.659
#iterations: 117
currently lose_sum: 0.6444481611251831
time_elpased: 1.658
#iterations: 118
currently lose_sum: 0.6627084612846375
time_elpased: 1.624
#iterations: 119
currently lose_sum: 0.6121422052383423
time_elpased: 1.65
start validation test
0.557692307692
0.564409030544
0.540025412961
0.551948051948
0.557852292509
26.473
#iterations: 120
currently lose_sum: 0.6691662073135376
time_elpased: 1.625
#iterations: 121
currently lose_sum: 0.7262765169143677
time_elpased: 1.617
#iterations: 122
currently lose_sum: 0.7054400444030762
time_elpased: 1.616
#iterations: 123
currently lose_sum: 0.7083648443222046
time_elpased: 1.605
#iterations: 124
currently lose_sum: 0.6763345003128052
time_elpased: 1.641
#iterations: 125
currently lose_sum: 0.6413147449493408
time_elpased: 1.61
#iterations: 126
currently lose_sum: 0.7239985466003418
time_elpased: 1.627
#iterations: 127
currently lose_sum: 0.6483114361763
time_elpased: 1.617
#iterations: 128
currently lose_sum: 0.6513171195983887
time_elpased: 1.65
#iterations: 129
currently lose_sum: 0.7117172479629517
time_elpased: 1.639
#iterations: 130
currently lose_sum: 0.6481059193611145
time_elpased: 1.641
#iterations: 131
currently lose_sum: 0.6436022520065308
time_elpased: 1.641
#iterations: 132
currently lose_sum: 0.6605844497680664
time_elpased: 1.647
#iterations: 133
currently lose_sum: 0.6089543104171753
time_elpased: 1.605
#iterations: 134
currently lose_sum: 0.6346662044525146
time_elpased: 1.642
#iterations: 135
currently lose_sum: 0.63288414478302
time_elpased: 1.622
#iterations: 136
currently lose_sum: 0.6776233911514282
time_elpased: 1.634
#iterations: 137
currently lose_sum: 0.6746377348899841
time_elpased: 1.622
#iterations: 138
currently lose_sum: 0.6210778951644897
time_elpased: 1.63
#iterations: 139
currently lose_sum: 0.6771451234817505
time_elpased: 1.632
start validation test
0.560897435897
0.561151079137
0.594663278272
0.577421344849
0.560591665009
26.336
#iterations: 140
currently lose_sum: 0.6996771097183228
time_elpased: 1.603
#iterations: 141
currently lose_sum: 0.6296922564506531
time_elpased: 1.637
#iterations: 142
currently lose_sum: 0.6611618995666504
time_elpased: 1.609
#iterations: 143
currently lose_sum: 0.7028802037239075
time_elpased: 1.637
#iterations: 144
currently lose_sum: 0.6652142405509949
time_elpased: 1.652
#iterations: 145
currently lose_sum: 0.6661211252212524
time_elpased: 1.612
#iterations: 146
currently lose_sum: 0.7214922308921814
time_elpased: 1.618
#iterations: 147
currently lose_sum: 0.6632929444313049
time_elpased: 1.607
#iterations: 148
currently lose_sum: 0.6425668001174927
time_elpased: 1.623
#iterations: 149
currently lose_sum: 0.6925103068351746
time_elpased: 1.634
#iterations: 150
currently lose_sum: 0.6212523579597473
time_elpased: 1.638
#iterations: 151
currently lose_sum: 0.6271196603775024
time_elpased: 1.613
#iterations: 152
currently lose_sum: 0.6230188608169556
time_elpased: 1.613
#iterations: 153
currently lose_sum: 0.7095016241073608
time_elpased: 1.598
#iterations: 154
currently lose_sum: 0.6886759996414185
time_elpased: 1.635
#iterations: 155
currently lose_sum: 0.6725553274154663
time_elpased: 1.64
#iterations: 156
currently lose_sum: 0.6037159562110901
time_elpased: 1.625
#iterations: 157
currently lose_sum: 0.6402667760848999
time_elpased: 1.593
#iterations: 158
currently lose_sum: 0.6920046806335449
time_elpased: 1.636
#iterations: 159
currently lose_sum: 0.6522652506828308
time_elpased: 1.603
start validation test
0.573076923077
0.574233128834
0.594663278272
0.584269662921
0.572881445087
26.501
#iterations: 160
currently lose_sum: 0.6396744251251221
time_elpased: 1.661
#iterations: 161
currently lose_sum: 0.6434522867202759
time_elpased: 1.607
#iterations: 162
currently lose_sum: 0.6201456189155579
time_elpased: 1.633
#iterations: 163
currently lose_sum: 0.6445381045341492
time_elpased: 1.657
#iterations: 164
currently lose_sum: 0.6244397759437561
time_elpased: 1.616
#iterations: 165
currently lose_sum: 0.5647974014282227
time_elpased: 1.605
#iterations: 166
currently lose_sum: 0.6998270153999329
time_elpased: 1.613
#iterations: 167
currently lose_sum: 0.6561377644538879
time_elpased: 1.633
#iterations: 168
currently lose_sum: 0.6873371005058289
time_elpased: 1.652
#iterations: 169
currently lose_sum: 0.6684626340866089
time_elpased: 1.627
#iterations: 170
currently lose_sum: 0.5877215266227722
time_elpased: 1.596
#iterations: 171
currently lose_sum: 0.6702511310577393
time_elpased: 1.638
#iterations: 172
currently lose_sum: 0.5866183042526245
time_elpased: 1.601
#iterations: 173
currently lose_sum: 0.6878237724304199
time_elpased: 1.611
#iterations: 174
currently lose_sum: 0.6384746432304382
time_elpased: 1.632
#iterations: 175
currently lose_sum: 0.6664215326309204
time_elpased: 1.617
#iterations: 176
currently lose_sum: 0.653812050819397
time_elpased: 1.622
#iterations: 177
currently lose_sum: 0.6701182126998901
time_elpased: 1.637
#iterations: 178
currently lose_sum: 0.6723068356513977
time_elpased: 1.637
#iterations: 179
currently lose_sum: 0.6918957829475403
time_elpased: 1.626
start validation test
0.552564102564
0.588822355289
0.374841168996
0.458074534161
0.554173495235
26.680
#iterations: 180
currently lose_sum: 0.6776036620140076
time_elpased: 1.684
#iterations: 181
currently lose_sum: 0.6857141256332397
time_elpased: 1.669
#iterations: 182
currently lose_sum: 0.7258638143539429
time_elpased: 1.626
#iterations: 183
currently lose_sum: 0.6143976449966431
time_elpased: 1.645
#iterations: 184
currently lose_sum: 0.6549229621887207
time_elpased: 1.629
#iterations: 185
currently lose_sum: 0.6177570223808289
time_elpased: 1.625
#iterations: 186
currently lose_sum: 0.6844422221183777
time_elpased: 1.631
#iterations: 187
currently lose_sum: 0.6329755783081055
time_elpased: 1.633
#iterations: 188
currently lose_sum: 0.6204320192337036
time_elpased: 1.617
#iterations: 189
currently lose_sum: 0.6689451932907104
time_elpased: 1.645
#iterations: 190
currently lose_sum: 0.5871351361274719
time_elpased: 1.614
#iterations: 191
currently lose_sum: 0.6219078302383423
time_elpased: 1.679
#iterations: 192
currently lose_sum: 0.6367947459220886
time_elpased: 1.649
#iterations: 193
currently lose_sum: 0.6967335939407349
time_elpased: 1.641
#iterations: 194
currently lose_sum: 0.6428748369216919
time_elpased: 1.632
#iterations: 195
currently lose_sum: 0.6260035634040833
time_elpased: 1.639
#iterations: 196
currently lose_sum: 0.7002213597297668
time_elpased: 1.628
#iterations: 197
currently lose_sum: 0.5826914310455322
time_elpased: 1.626
#iterations: 198
currently lose_sum: 0.7347472906112671
time_elpased: 1.632
#iterations: 199
currently lose_sum: 0.6350571513175964
time_elpased: 1.612
start validation test
0.548717948718
0.543094496366
0.664548919949
0.597714285714
0.547669026598
26.496
#iterations: 200
currently lose_sum: 0.5918852090835571
time_elpased: 1.655
#iterations: 201
currently lose_sum: 0.5820366144180298
time_elpased: 1.669
#iterations: 202
currently lose_sum: 0.6460806727409363
time_elpased: 1.618
#iterations: 203
currently lose_sum: 0.6329970359802246
time_elpased: 1.672
#iterations: 204
currently lose_sum: 0.6931614875793457
time_elpased: 1.623
#iterations: 205
currently lose_sum: 0.6349701285362244
time_elpased: 1.614
#iterations: 206
currently lose_sum: 0.6693178415298462
time_elpased: 1.623
#iterations: 207
currently lose_sum: 0.6250931620597839
time_elpased: 1.624
#iterations: 208
currently lose_sum: 0.6444727182388306
time_elpased: 1.605
#iterations: 209
currently lose_sum: 0.6787005066871643
time_elpased: 1.579
#iterations: 210
currently lose_sum: 0.7603583335876465
time_elpased: 1.647
#iterations: 211
currently lose_sum: 0.614266037940979
time_elpased: 1.617
#iterations: 212
currently lose_sum: 0.6807070970535278
time_elpased: 1.626
#iterations: 213
currently lose_sum: 0.5955277681350708
time_elpased: 1.605
#iterations: 214
currently lose_sum: 0.5767099261283875
time_elpased: 1.622
#iterations: 215
currently lose_sum: 0.648373007774353
time_elpased: 1.61
#iterations: 216
currently lose_sum: 0.583882749080658
time_elpased: 1.607
#iterations: 217
currently lose_sum: 0.7011724710464478
time_elpased: 1.592
#iterations: 218
currently lose_sum: 0.663916289806366
time_elpased: 1.685
#iterations: 219
currently lose_sum: 0.6453059911727905
time_elpased: 1.614
start validation test
0.557051282051
0.559553349876
0.573062261753
0.566227244193
0.556906292584
26.394
#iterations: 220
currently lose_sum: 0.6547462344169617
time_elpased: 1.614
#iterations: 221
currently lose_sum: 0.6676722764968872
time_elpased: 1.619
#iterations: 222
currently lose_sum: 0.6619243025779724
time_elpased: 1.602
#iterations: 223
currently lose_sum: 0.678152859210968
time_elpased: 1.613
#iterations: 224
currently lose_sum: 0.6334049701690674
time_elpased: 1.61
#iterations: 225
currently lose_sum: 0.6605638265609741
time_elpased: 1.62
#iterations: 226
currently lose_sum: 0.6827940940856934
time_elpased: 1.614
#iterations: 227
currently lose_sum: 0.6208925247192383
time_elpased: 1.641
#iterations: 228
currently lose_sum: 0.7201654314994812
time_elpased: 1.625
#iterations: 229
currently lose_sum: 0.7088574171066284
time_elpased: 1.621
#iterations: 230
currently lose_sum: 0.6086732149124146
time_elpased: 1.613
#iterations: 231
currently lose_sum: 0.6481901407241821
time_elpased: 1.603
#iterations: 232
currently lose_sum: 0.5813454389572144
time_elpased: 1.646
#iterations: 233
currently lose_sum: 0.6449417471885681
time_elpased: 1.622
#iterations: 234
currently lose_sum: 0.6425665020942688
time_elpased: 1.648
#iterations: 235
currently lose_sum: 0.6202288866043091
time_elpased: 1.647
#iterations: 236
currently lose_sum: 0.5966030955314636
time_elpased: 1.621
#iterations: 237
currently lose_sum: 0.6334695816040039
time_elpased: 1.632
#iterations: 238
currently lose_sum: 0.6401982307434082
time_elpased: 1.62
#iterations: 239
currently lose_sum: 0.7037780284881592
time_elpased: 1.604
start validation test
0.567948717949
0.565774155995
0.617534942821
0.590522478736
0.567499683571
26.251
#iterations: 240
currently lose_sum: 0.7080159187316895
time_elpased: 1.601
#iterations: 241
currently lose_sum: 0.6275609731674194
time_elpased: 1.6
#iterations: 242
currently lose_sum: 0.6804470419883728
time_elpased: 1.62
#iterations: 243
currently lose_sum: 0.5990351438522339
time_elpased: 1.654
#iterations: 244
currently lose_sum: 0.6855388283729553
time_elpased: 1.628
#iterations: 245
currently lose_sum: 0.6005817651748657
time_elpased: 1.633
#iterations: 246
currently lose_sum: 0.586685299873352
time_elpased: 1.618
#iterations: 247
currently lose_sum: 0.6618047952651978
time_elpased: 1.617
#iterations: 248
currently lose_sum: 0.6855117082595825
time_elpased: 1.636
#iterations: 249
currently lose_sum: 0.6761863827705383
time_elpased: 1.628
#iterations: 250
currently lose_sum: 0.5293205380439758
time_elpased: 1.617
#iterations: 251
currently lose_sum: 0.6505881547927856
time_elpased: 1.616
#iterations: 252
currently lose_sum: 0.7108638882637024
time_elpased: 1.774
#iterations: 253
currently lose_sum: 0.6762597560882568
time_elpased: 1.823
#iterations: 254
currently lose_sum: 0.6611016988754272
time_elpased: 1.594
#iterations: 255
currently lose_sum: 0.6627424955368042
time_elpased: 1.626
#iterations: 256
currently lose_sum: 0.5794414281845093
time_elpased: 1.629
#iterations: 257
currently lose_sum: 0.6308175921440125
time_elpased: 1.626
#iterations: 258
currently lose_sum: 0.6769278645515442
time_elpased: 1.612
#iterations: 259
currently lose_sum: 0.6690264940261841
time_elpased: 1.63
start validation test
0.571794871795
0.567080045096
0.639135959339
0.600955794504
0.571185055996
26.384
#iterations: 260
currently lose_sum: 0.6765981316566467
time_elpased: 1.624
#iterations: 261
currently lose_sum: 0.5931082963943481
time_elpased: 1.609
#iterations: 262
currently lose_sum: 0.750336229801178
time_elpased: 1.633
#iterations: 263
currently lose_sum: 0.6568326950073242
time_elpased: 1.716
#iterations: 264
currently lose_sum: 0.6078931093215942
time_elpased: 1.626
#iterations: 265
currently lose_sum: 0.6935068368911743
time_elpased: 1.612
#iterations: 266
currently lose_sum: 0.6802359819412231
time_elpased: 1.628
#iterations: 267
currently lose_sum: 0.6816273927688599
time_elpased: 1.631
#iterations: 268
currently lose_sum: 0.65484219789505
time_elpased: 1.64
#iterations: 269
currently lose_sum: 0.6090704202651978
time_elpased: 1.614
#iterations: 270
currently lose_sum: 0.6101784706115723
time_elpased: 1.612
#iterations: 271
currently lose_sum: 0.5910314321517944
time_elpased: 1.61
#iterations: 272
currently lose_sum: 0.5965977907180786
time_elpased: 1.63
#iterations: 273
currently lose_sum: 0.6698586344718933
time_elpased: 1.61
#iterations: 274
currently lose_sum: 0.588426947593689
time_elpased: 1.614
#iterations: 275
currently lose_sum: 0.6630895733833313
time_elpased: 1.591
#iterations: 276
currently lose_sum: 0.6593621969223022
time_elpased: 1.598
#iterations: 277
currently lose_sum: 0.6816082000732422
time_elpased: 1.616
#iterations: 278
currently lose_sum: 0.6014743447303772
time_elpased: 1.614
#iterations: 279
currently lose_sum: 0.6062718629837036
time_elpased: 1.594
start validation test
0.569230769231
0.573623559539
0.569250317662
0.571428571429
0.569230592207
26.302
#iterations: 280
currently lose_sum: 0.630975604057312
time_elpased: 1.603
#iterations: 281
currently lose_sum: 0.6855141520500183
time_elpased: 1.6
#iterations: 282
currently lose_sum: 0.6781416535377502
time_elpased: 1.618
#iterations: 283
currently lose_sum: 0.6442424654960632
time_elpased: 1.6
#iterations: 284
currently lose_sum: 0.7177388072013855
time_elpased: 1.602
#iterations: 285
currently lose_sum: 0.6362719535827637
time_elpased: 1.62
#iterations: 286
currently lose_sum: 0.6341100931167603
time_elpased: 1.615
#iterations: 287
currently lose_sum: 0.558517575263977
time_elpased: 1.623
#iterations: 288
currently lose_sum: 0.5954575538635254
time_elpased: 1.624
#iterations: 289
currently lose_sum: 0.6046913862228394
time_elpased: 1.617
#iterations: 290
currently lose_sum: 0.7234846353530884
time_elpased: 1.615
#iterations: 291
currently lose_sum: 0.6204568147659302
time_elpased: 1.601
#iterations: 292
currently lose_sum: 0.6134214401245117
time_elpased: 1.748
#iterations: 293
currently lose_sum: 0.5926394462585449
time_elpased: 1.616
#iterations: 294
currently lose_sum: 0.6106764078140259
time_elpased: 1.64
#iterations: 295
currently lose_sum: 0.6677465438842773
time_elpased: 1.625
#iterations: 296
currently lose_sum: 0.5995453596115112
time_elpased: 1.597
#iterations: 297
currently lose_sum: 0.6296131610870361
time_elpased: 1.633
#iterations: 298
currently lose_sum: 0.645041823387146
time_elpased: 1.638
#iterations: 299
currently lose_sum: 0.6298613548278809
time_elpased: 1.606
start validation test
0.566025641026
0.576388888889
0.527318932656
0.550763105508
0.566376154556
26.224
#iterations: 300
currently lose_sum: 0.6638052463531494
time_elpased: 1.617
#iterations: 301
currently lose_sum: 0.6699044108390808
time_elpased: 1.586
#iterations: 302
currently lose_sum: 0.5667027235031128
time_elpased: 1.587
#iterations: 303
currently lose_sum: 0.6508203744888306
time_elpased: 1.587
#iterations: 304
currently lose_sum: 0.6964724063873291
time_elpased: 1.641
#iterations: 305
currently lose_sum: 0.6287854909896851
time_elpased: 1.622
#iterations: 306
currently lose_sum: 0.6323390007019043
time_elpased: 1.621
#iterations: 307
currently lose_sum: 0.568337082862854
time_elpased: 1.61
#iterations: 308
currently lose_sum: 0.5808893442153931
time_elpased: 1.606
#iterations: 309
currently lose_sum: 0.5705269575119019
time_elpased: 1.667
#iterations: 310
currently lose_sum: 0.6381785273551941
time_elpased: 1.621
#iterations: 311
currently lose_sum: 0.7149757146835327
time_elpased: 1.689
#iterations: 312
currently lose_sum: 0.6588186025619507
time_elpased: 1.653
#iterations: 313
currently lose_sum: 0.6687400937080383
time_elpased: 1.62
#iterations: 314
currently lose_sum: 0.640083909034729
time_elpased: 1.655
#iterations: 315
currently lose_sum: 0.6028067469596863
time_elpased: 1.6
#iterations: 316
currently lose_sum: 0.6601649522781372
time_elpased: 1.604
#iterations: 317
currently lose_sum: 0.6152890920639038
time_elpased: 1.635
#iterations: 318
currently lose_sum: 0.6478105187416077
time_elpased: 1.617
#iterations: 319
currently lose_sum: 0.5966938734054565
time_elpased: 1.628
start validation test
0.557051282051
0.596
0.378653113088
0.463092463092
0.558666789403
26.656
#iterations: 320
currently lose_sum: 0.6480021476745605
time_elpased: 1.653
#iterations: 321
currently lose_sum: 0.6410489082336426
time_elpased: 1.618
#iterations: 322
currently lose_sum: 0.5747523307800293
time_elpased: 1.605
#iterations: 323
currently lose_sum: 0.5887976884841919
time_elpased: 1.63
#iterations: 324
currently lose_sum: 0.6997464299201965
time_elpased: 1.612
#iterations: 325
currently lose_sum: 0.586647093296051
time_elpased: 1.594
#iterations: 326
currently lose_sum: 0.6355589628219604
time_elpased: 1.61
#iterations: 327
currently lose_sum: 0.6930211782455444
time_elpased: 1.607
#iterations: 328
currently lose_sum: 0.7853866815567017
time_elpased: 1.634
#iterations: 329
currently lose_sum: 0.6441356539726257
time_elpased: 1.639
#iterations: 330
currently lose_sum: 0.7205255627632141
time_elpased: 1.627
#iterations: 331
currently lose_sum: 0.7110884189605713
time_elpased: 1.598
#iterations: 332
currently lose_sum: 0.6096187829971313
time_elpased: 1.632
#iterations: 333
currently lose_sum: 0.6864846348762512
time_elpased: 1.645
#iterations: 334
currently lose_sum: 0.5981507897377014
time_elpased: 1.627
#iterations: 335
currently lose_sum: 0.5955265164375305
time_elpased: 1.621
#iterations: 336
currently lose_sum: 0.597220242023468
time_elpased: 1.639
#iterations: 337
currently lose_sum: 0.6269820928573608
time_elpased: 1.605
#iterations: 338
currently lose_sum: 0.5601603984832764
time_elpased: 1.631
#iterations: 339
currently lose_sum: 0.6955486536026001
time_elpased: 1.624
start validation test
0.565384615385
0.5690747782
0.570520965693
0.569796954315
0.56533810251
26.269
#iterations: 340
currently lose_sum: 0.5369747281074524
time_elpased: 1.612
#iterations: 341
currently lose_sum: 0.6605182886123657
time_elpased: 1.61
#iterations: 342
currently lose_sum: 0.6017124652862549
time_elpased: 1.648
#iterations: 343
currently lose_sum: 0.5900198221206665
time_elpased: 1.614
#iterations: 344
currently lose_sum: 0.6045165061950684
time_elpased: 1.601
#iterations: 345
currently lose_sum: 0.6218236684799194
time_elpased: 1.646
#iterations: 346
currently lose_sum: 0.6406123042106628
time_elpased: 1.598
#iterations: 347
currently lose_sum: 0.5986576080322266
time_elpased: 1.622
#iterations: 348
currently lose_sum: 0.6235955357551575
time_elpased: 1.612
#iterations: 349
currently lose_sum: 0.5836220979690552
time_elpased: 1.616
#iterations: 350
currently lose_sum: 0.6283494234085083
time_elpased: 1.596
#iterations: 351
currently lose_sum: 0.6928451657295227
time_elpased: 1.621
#iterations: 352
currently lose_sum: 0.59567791223526
time_elpased: 1.617
#iterations: 353
currently lose_sum: 0.6666752696037292
time_elpased: 1.596
#iterations: 354
currently lose_sum: 0.70387202501297
time_elpased: 1.593
#iterations: 355
currently lose_sum: 0.6537624001502991
time_elpased: 1.637
#iterations: 356
currently lose_sum: 0.6550506949424744
time_elpased: 1.598
#iterations: 357
currently lose_sum: 0.6271873712539673
time_elpased: 1.617
#iterations: 358
currently lose_sum: 0.7128861546516418
time_elpased: 1.592
#iterations: 359
currently lose_sum: 0.7070067524909973
time_elpased: 1.63
start validation test
0.56858974359
0.584569732938
0.500635324015
0.539356605065
0.569205113495
26.314
#iterations: 360
currently lose_sum: 0.6847705841064453
time_elpased: 1.593
#iterations: 361
currently lose_sum: 0.6475507616996765
time_elpased: 1.615
#iterations: 362
currently lose_sum: 0.6862660646438599
time_elpased: 1.622
#iterations: 363
currently lose_sum: 0.5910319089889526
time_elpased: 1.64
#iterations: 364
currently lose_sum: 0.6106730699539185
time_elpased: 1.626
#iterations: 365
currently lose_sum: 0.631734311580658
time_elpased: 1.624
#iterations: 366
currently lose_sum: 0.6356918215751648
time_elpased: 1.637
#iterations: 367
currently lose_sum: 0.5737842917442322
time_elpased: 1.633
#iterations: 368
currently lose_sum: 0.5987101793289185
time_elpased: 1.618
#iterations: 369
currently lose_sum: 0.6695901155471802
time_elpased: 1.62
#iterations: 370
currently lose_sum: 0.6729635000228882
time_elpased: 1.594
#iterations: 371
currently lose_sum: 0.5740224719047546
time_elpased: 1.628
#iterations: 372
currently lose_sum: 0.642179548740387
time_elpased: 1.594
#iterations: 373
currently lose_sum: 0.7209435701370239
time_elpased: 1.611
#iterations: 374
currently lose_sum: 0.6565314531326294
time_elpased: 1.602
#iterations: 375
currently lose_sum: 0.6817306280136108
time_elpased: 1.623
#iterations: 376
currently lose_sum: 0.630805253982544
time_elpased: 1.696
#iterations: 377
currently lose_sum: 0.6133377552032471
time_elpased: 1.619
#iterations: 378
currently lose_sum: 0.579827070236206
time_elpased: 1.624
#iterations: 379
currently lose_sum: 0.6957718729972839
time_elpased: 1.636
start validation test
0.572435897436
0.568337129841
0.634053367217
0.599399399399
0.571877912587
26.151
#iterations: 380
currently lose_sum: 0.6538073420524597
time_elpased: 1.641
#iterations: 381
currently lose_sum: 0.6755455732345581
time_elpased: 1.622
#iterations: 382
currently lose_sum: 0.6169320940971375
time_elpased: 1.595
#iterations: 383
currently lose_sum: 0.6107853055000305
time_elpased: 1.597
#iterations: 384
currently lose_sum: 0.6139121055603027
time_elpased: 1.619
#iterations: 385
currently lose_sum: 0.6783860325813293
time_elpased: 1.605
#iterations: 386
currently lose_sum: 0.6409655809402466
time_elpased: 1.608
#iterations: 387
currently lose_sum: 0.6124269962310791
time_elpased: 1.622
#iterations: 388
currently lose_sum: 0.5877107381820679
time_elpased: 1.618
#iterations: 389
currently lose_sum: 0.7081671357154846
time_elpased: 1.613
#iterations: 390
currently lose_sum: 0.6881199479103088
time_elpased: 1.611
#iterations: 391
currently lose_sum: 0.6875573992729187
time_elpased: 1.65
#iterations: 392
currently lose_sum: 0.6062236428260803
time_elpased: 1.622
#iterations: 393
currently lose_sum: 0.6448376774787903
time_elpased: 1.63
#iterations: 394
currently lose_sum: 0.6668526530265808
time_elpased: 1.686
#iterations: 395
currently lose_sum: 0.6611437797546387
time_elpased: 1.604
#iterations: 396
currently lose_sum: 0.7229990363121033
time_elpased: 1.62
#iterations: 397
currently lose_sum: 0.7003763318061829
time_elpased: 1.615
#iterations: 398
currently lose_sum: 0.5035107135772705
time_elpased: 1.616
#iterations: 399
currently lose_sum: 0.6900399327278137
time_elpased: 1.597
start validation test
0.562179487179
0.568421052632
0.548919949174
0.558500323206
0.562299560615
26.245
#iterations: 400
currently lose_sum: 0.5603677034378052
time_elpased: 1.605
#iterations: 401
currently lose_sum: 0.6908655166625977
time_elpased: 1.612
#iterations: 402
currently lose_sum: 0.6283655166625977
time_elpased: 1.743
#iterations: 403
currently lose_sum: 0.6097846627235413
time_elpased: 1.61
#iterations: 404
currently lose_sum: 0.5709931254386902
time_elpased: 1.57
#iterations: 405
currently lose_sum: 0.6447330713272095
time_elpased: 1.621
#iterations: 406
currently lose_sum: 0.722404956817627
time_elpased: 1.603
#iterations: 407
currently lose_sum: 0.5779066681861877
time_elpased: 1.625
#iterations: 408
currently lose_sum: 0.6425030827522278
time_elpased: 1.642
#iterations: 409
currently lose_sum: 0.6194871068000793
time_elpased: 1.607
#iterations: 410
currently lose_sum: 0.665576159954071
time_elpased: 1.637
#iterations: 411
currently lose_sum: 0.6209167838096619
time_elpased: 1.61
#iterations: 412
currently lose_sum: 0.674182116985321
time_elpased: 1.638
#iterations: 413
currently lose_sum: 0.6177322268486023
time_elpased: 1.625
#iterations: 414
currently lose_sum: 0.6945527791976929
time_elpased: 1.652
#iterations: 415
currently lose_sum: 0.6180041432380676
time_elpased: 1.63
#iterations: 416
currently lose_sum: 0.6633473634719849
time_elpased: 1.631
#iterations: 417
currently lose_sum: 0.6952387094497681
time_elpased: 1.629
#iterations: 418
currently lose_sum: 0.7095309495925903
time_elpased: 1.618
#iterations: 419
currently lose_sum: 0.6237891912460327
time_elpased: 1.624
start validation test
0.573076923077
0.57245508982
0.607369758577
0.589395807645
0.572766379935
26.307
#iterations: 420
currently lose_sum: 0.6299235224723816
time_elpased: 1.616
#iterations: 421
currently lose_sum: 0.5998555421829224
time_elpased: 1.628
#iterations: 422
currently lose_sum: 0.6172896027565002
time_elpased: 1.624
#iterations: 423
currently lose_sum: 0.6519247889518738
time_elpased: 1.671
#iterations: 424
currently lose_sum: 0.7274231910705566
time_elpased: 1.651
#iterations: 425
currently lose_sum: 0.6616581082344055
time_elpased: 1.613
#iterations: 426
currently lose_sum: 0.6326061487197876
time_elpased: 1.635
#iterations: 427
currently lose_sum: 0.5968156456947327
time_elpased: 1.619
#iterations: 428
currently lose_sum: 0.5995396375656128
time_elpased: 1.613
#iterations: 429
currently lose_sum: 0.6364843845367432
time_elpased: 1.593
#iterations: 430
currently lose_sum: 0.6605464220046997
time_elpased: 1.636
#iterations: 431
currently lose_sum: 0.6314593553543091
time_elpased: 1.626
#iterations: 432
currently lose_sum: 0.5809604525566101
time_elpased: 1.611
#iterations: 433
currently lose_sum: 0.6402646899223328
time_elpased: 1.596
#iterations: 434
currently lose_sum: 0.6496409773826599
time_elpased: 1.622
#iterations: 435
currently lose_sum: 0.5790971517562866
time_elpased: 1.622
#iterations: 436
currently lose_sum: 0.6078599691390991
time_elpased: 1.693
#iterations: 437
currently lose_sum: 0.7251995801925659
time_elpased: 1.628
#iterations: 438
currently lose_sum: 0.6973479986190796
time_elpased: 1.607
#iterations: 439
currently lose_sum: 0.5633827447891235
time_elpased: 1.647
start validation test
0.571153846154
0.585507246377
0.51334180432
0.547054840894
0.571677370465
26.521
#iterations: 440
currently lose_sum: 0.712149441242218
time_elpased: 1.598
#iterations: 441
currently lose_sum: 0.6249462366104126
time_elpased: 1.606
#iterations: 442
currently lose_sum: 0.650589644908905
time_elpased: 1.618
#iterations: 443
currently lose_sum: 0.6055546998977661
time_elpased: 1.634
#iterations: 444
currently lose_sum: 0.6532312631607056
time_elpased: 1.627
#iterations: 445
currently lose_sum: 0.5962861776351929
time_elpased: 1.605
#iterations: 446
currently lose_sum: 0.6866469383239746
time_elpased: 1.619
#iterations: 447
currently lose_sum: 0.6096734404563904
time_elpased: 1.617
#iterations: 448
currently lose_sum: 0.7464262247085571
time_elpased: 1.634
#iterations: 449
currently lose_sum: 0.6212058067321777
time_elpased: 1.587
#iterations: 450
currently lose_sum: 0.5943475365638733
time_elpased: 1.632
#iterations: 451
currently lose_sum: 0.5824810266494751
time_elpased: 1.649
#iterations: 452
currently lose_sum: 0.6760905385017395
time_elpased: 1.643
#iterations: 453
currently lose_sum: 0.608269989490509
time_elpased: 1.637
#iterations: 454
currently lose_sum: 0.5949422121047974
time_elpased: 1.622
#iterations: 455
currently lose_sum: 0.6091700792312622
time_elpased: 1.646
#iterations: 456
currently lose_sum: 0.5788983106613159
time_elpased: 1.757
#iterations: 457
currently lose_sum: 0.6660246849060059
time_elpased: 1.726
#iterations: 458
currently lose_sum: 0.6218937635421753
time_elpased: 1.647
#iterations: 459
currently lose_sum: 0.6066546440124512
time_elpased: 1.618
start validation test
0.571153846154
0.589393939394
0.494282083863
0.537664132688
0.571849968193
26.304
#iterations: 460
currently lose_sum: 0.6243466138839722
time_elpased: 1.642
#iterations: 461
currently lose_sum: 0.6340799331665039
time_elpased: 1.583
#iterations: 462
currently lose_sum: 0.6181047558784485
time_elpased: 1.636
#iterations: 463
currently lose_sum: 0.5937293767929077
time_elpased: 1.59
#iterations: 464
currently lose_sum: 0.7411932945251465
time_elpased: 1.608
#iterations: 465
currently lose_sum: 0.6778795123100281
time_elpased: 1.646
#iterations: 466
currently lose_sum: 0.7014298439025879
time_elpased: 1.602
#iterations: 467
currently lose_sum: 0.6764812469482422
time_elpased: 1.629
#iterations: 468
currently lose_sum: 0.6278935670852661
time_elpased: 1.62
#iterations: 469
currently lose_sum: 0.6439637541770935
time_elpased: 1.629
#iterations: 470
currently lose_sum: 0.736866295337677
time_elpased: 1.624
#iterations: 471
currently lose_sum: 0.5732826590538025
time_elpased: 1.609
#iterations: 472
currently lose_sum: 0.778431236743927
time_elpased: 1.643
#iterations: 473
currently lose_sum: 0.7026559710502625
time_elpased: 1.607
#iterations: 474
currently lose_sum: 0.6336866617202759
time_elpased: 1.597
#iterations: 475
currently lose_sum: 0.5734239816665649
time_elpased: 1.621
#iterations: 476
currently lose_sum: 0.6063237190246582
time_elpased: 1.615
#iterations: 477
currently lose_sum: 0.6443809270858765
time_elpased: 1.656
#iterations: 478
currently lose_sum: 0.6665043830871582
time_elpased: 1.611
#iterations: 479
currently lose_sum: 0.678477942943573
time_elpased: 1.65
start validation test
0.572435897436
0.562630480167
0.684879288437
0.61776504298
0.571417651981
26.281
#iterations: 480
currently lose_sum: 0.6236302256584167
time_elpased: 1.631
#iterations: 481
currently lose_sum: 0.6963993906974792
time_elpased: 1.621
#iterations: 482
currently lose_sum: 0.6503307223320007
time_elpased: 1.595
#iterations: 483
currently lose_sum: 0.7523658871650696
time_elpased: 1.615
#iterations: 484
currently lose_sum: 0.6334789991378784
time_elpased: 1.632
#iterations: 485
currently lose_sum: 0.5838017463684082
time_elpased: 1.622
#iterations: 486
currently lose_sum: 0.620907723903656
time_elpased: 1.638
#iterations: 487
currently lose_sum: 0.6494797468185425
time_elpased: 1.613
#iterations: 488
currently lose_sum: 0.6442873477935791
time_elpased: 1.617
#iterations: 489
currently lose_sum: 0.730251669883728
time_elpased: 1.62
#iterations: 490
currently lose_sum: 0.6279536485671997
time_elpased: 1.634
#iterations: 491
currently lose_sum: 0.6240453720092773
time_elpased: 1.626
#iterations: 492
currently lose_sum: 0.6014280319213867
time_elpased: 1.636
#iterations: 493
currently lose_sum: 0.6437066793441772
time_elpased: 1.658
#iterations: 494
currently lose_sum: 0.5962423086166382
time_elpased: 1.63
#iterations: 495
currently lose_sum: 0.6712788343429565
time_elpased: 1.689
#iterations: 496
currently lose_sum: 0.6306452751159668
time_elpased: 1.654
#iterations: 497
currently lose_sum: 0.5824959874153137
time_elpased: 1.639
#iterations: 498
currently lose_sum: 0.6533592939376831
time_elpased: 1.64
#iterations: 499
currently lose_sum: 0.7363291382789612
time_elpased: 1.676
start validation test
0.562820512821
0.592592592593
0.426937738247
0.496307237814
0.564051016601
26.316
#iterations: 500
currently lose_sum: 0.6370300054550171
time_elpased: 1.628
#iterations: 501
currently lose_sum: 0.6716173887252808
time_elpased: 1.663
#iterations: 502
currently lose_sum: 0.5659886598587036
time_elpased: 1.625
#iterations: 503
currently lose_sum: 0.5920920372009277
time_elpased: 1.629
#iterations: 504
currently lose_sum: 0.5719008445739746
time_elpased: 1.686
#iterations: 505
currently lose_sum: 0.6666013598442078
time_elpased: 1.634
#iterations: 506
currently lose_sum: 0.6467769145965576
time_elpased: 1.636
#iterations: 507
currently lose_sum: 0.5805484652519226
time_elpased: 1.656
#iterations: 508
currently lose_sum: 0.683195173740387
time_elpased: 1.661
#iterations: 509
currently lose_sum: 0.7133662104606628
time_elpased: 1.662
#iterations: 510
currently lose_sum: 0.5823931097984314
time_elpased: 1.657
#iterations: 511
currently lose_sum: 0.5608670115470886
time_elpased: 1.653
#iterations: 512
currently lose_sum: 0.6813837885856628
time_elpased: 1.67
#iterations: 513
currently lose_sum: 0.5743164420127869
time_elpased: 1.666
#iterations: 514
currently lose_sum: 0.6059137582778931
time_elpased: 1.629
#iterations: 515
currently lose_sum: 0.6796282529830933
time_elpased: 1.672
#iterations: 516
currently lose_sum: 0.6388862133026123
time_elpased: 1.618
#iterations: 517
currently lose_sum: 0.6039659380912781
time_elpased: 1.617
#iterations: 518
currently lose_sum: 0.6533805727958679
time_elpased: 1.66
#iterations: 519
currently lose_sum: 0.7059508562088013
time_elpased: 1.639
start validation test
0.573717948718
0.606271777003
0.442185514612
0.511388684791
0.574909057436
26.290
#iterations: 520
currently lose_sum: 0.6939641237258911
time_elpased: 1.661
#iterations: 521
currently lose_sum: 0.6559697985649109
time_elpased: 1.628
#iterations: 522
currently lose_sum: 0.6273633241653442
time_elpased: 1.637
#iterations: 523
currently lose_sum: 0.6303433179855347
time_elpased: 1.617
#iterations: 524
currently lose_sum: 0.5737502574920654
time_elpased: 1.656
#iterations: 525
currently lose_sum: 0.6287393569946289
time_elpased: 1.644
#iterations: 526
currently lose_sum: 0.6531931161880493
time_elpased: 1.61
#iterations: 527
currently lose_sum: 0.6183492541313171
time_elpased: 1.613
#iterations: 528
currently lose_sum: 0.6583255529403687
time_elpased: 1.631
#iterations: 529
currently lose_sum: 0.5970522165298462
time_elpased: 1.61
#iterations: 530
currently lose_sum: 0.5551279783248901
time_elpased: 1.627
#iterations: 531
currently lose_sum: 0.6321598291397095
time_elpased: 1.619
#iterations: 532
currently lose_sum: 0.639422595500946
time_elpased: 1.616
#iterations: 533
currently lose_sum: 0.6828007102012634
time_elpased: 1.613
#iterations: 534
currently lose_sum: 0.6798278093338013
time_elpased: 1.633
#iterations: 535
currently lose_sum: 0.6325002908706665
time_elpased: 1.595
#iterations: 536
currently lose_sum: 0.6875457763671875
time_elpased: 1.636
#iterations: 537
currently lose_sum: 0.5788428783416748
time_elpased: 1.6
#iterations: 538
currently lose_sum: 0.6849872469902039
time_elpased: 1.604
#iterations: 539
currently lose_sum: 0.5952616930007935
time_elpased: 1.599
start validation test
0.56858974359
0.571428571429
0.579415501906
0.575394321767
0.568491709556
26.444
#iterations: 540
currently lose_sum: 0.6793155670166016
time_elpased: 1.612
#iterations: 541
currently lose_sum: 0.564376711845398
time_elpased: 1.601
#iterations: 542
currently lose_sum: 0.6755821108818054
time_elpased: 1.631
#iterations: 543
currently lose_sum: 0.5325226783752441
time_elpased: 1.634
#iterations: 544
currently lose_sum: 0.6836199164390564
time_elpased: 1.61
#iterations: 545
currently lose_sum: 0.5845478177070618
time_elpased: 1.607
#iterations: 546
currently lose_sum: 0.6227760910987854
time_elpased: 1.635
#iterations: 547
currently lose_sum: 0.5845788717269897
time_elpased: 1.667
#iterations: 548
currently lose_sum: 0.6157334446907043
time_elpased: 1.624
#iterations: 549
currently lose_sum: 0.6346766352653503
time_elpased: 1.629
#iterations: 550
currently lose_sum: 0.6716176271438599
time_elpased: 1.59
#iterations: 551
currently lose_sum: 0.651343047618866
time_elpased: 1.614
#iterations: 552
currently lose_sum: 0.7165386080741882
time_elpased: 1.594
#iterations: 553
currently lose_sum: 0.6360323429107666
time_elpased: 1.603
#iterations: 554
currently lose_sum: 0.5529963374137878
time_elpased: 1.626
#iterations: 555
currently lose_sum: 0.6516232490539551
time_elpased: 1.626
#iterations: 556
currently lose_sum: 0.6088343858718872
time_elpased: 1.602
#iterations: 557
currently lose_sum: 0.632358193397522
time_elpased: 1.589
#iterations: 558
currently lose_sum: 0.6170470118522644
time_elpased: 1.604
#iterations: 559
currently lose_sum: 0.6298349499702454
time_elpased: 1.632
start validation test
0.575
0.566666666667
0.669631512071
0.613861386139
0.574143052284
26.208
#iterations: 560
currently lose_sum: 0.578025221824646
time_elpased: 1.622
#iterations: 561
currently lose_sum: 0.6327942609786987
time_elpased: 1.624
#iterations: 562
currently lose_sum: 0.6667307615280151
time_elpased: 1.624
#iterations: 563
currently lose_sum: 0.658382773399353
time_elpased: 1.66
#iterations: 564
currently lose_sum: 0.5943886041641235
time_elpased: 1.626
#iterations: 565
currently lose_sum: 0.6986693739891052
time_elpased: 1.625
#iterations: 566
currently lose_sum: 0.7051361799240112
time_elpased: 1.615
#iterations: 567
currently lose_sum: 0.6191872358322144
time_elpased: 1.624
#iterations: 568
currently lose_sum: 0.6624371409416199
time_elpased: 1.606
#iterations: 569
currently lose_sum: 0.7796908617019653
time_elpased: 1.599
#iterations: 570
currently lose_sum: 0.6360190510749817
time_elpased: 1.634
#iterations: 571
currently lose_sum: 0.6211643218994141
time_elpased: 1.598
#iterations: 572
currently lose_sum: 0.6632298827171326
time_elpased: 1.636
#iterations: 573
currently lose_sum: 0.6650238037109375
time_elpased: 1.628
#iterations: 574
currently lose_sum: 0.6986034512519836
time_elpased: 1.612
#iterations: 575
currently lose_sum: 0.6197266578674316
time_elpased: 1.63
#iterations: 576
currently lose_sum: 0.6965187788009644
time_elpased: 1.62
#iterations: 577
currently lose_sum: 0.6676816940307617
time_elpased: 1.614
#iterations: 578
currently lose_sum: 0.6236993074417114
time_elpased: 1.608
#iterations: 579
currently lose_sum: 0.6444617509841919
time_elpased: 1.611
start validation test
0.567307692308
0.564367816092
0.623888182973
0.592637296319
0.566795320465
26.386
#iterations: 580
currently lose_sum: 0.6622775793075562
time_elpased: 1.612
#iterations: 581
currently lose_sum: 0.6430059671401978
time_elpased: 1.693
#iterations: 582
currently lose_sum: 0.6056407690048218
time_elpased: 1.63
#iterations: 583
currently lose_sum: 0.6162036657333374
time_elpased: 1.608
#iterations: 584
currently lose_sum: 0.6047030687332153
time_elpased: 1.615
#iterations: 585
currently lose_sum: 0.5606489181518555
time_elpased: 1.625
#iterations: 586
currently lose_sum: 0.6364113092422485
time_elpased: 1.601
#iterations: 587
currently lose_sum: 0.6090975403785706
time_elpased: 1.591
#iterations: 588
currently lose_sum: 0.6329949498176575
time_elpased: 1.599
#iterations: 589
currently lose_sum: 0.6257697343826294
time_elpased: 1.589
#iterations: 590
currently lose_sum: 0.5812718272209167
time_elpased: 1.616
#iterations: 591
currently lose_sum: 0.6269267797470093
time_elpased: 1.584
#iterations: 592
currently lose_sum: 0.5378268957138062
time_elpased: 1.609
#iterations: 593
currently lose_sum: 0.7096635699272156
time_elpased: 1.611
#iterations: 594
currently lose_sum: 0.6549534797668457
time_elpased: 1.61
#iterations: 595
currently lose_sum: 0.6049219965934753
time_elpased: 1.607
#iterations: 596
currently lose_sum: 0.5592409372329712
time_elpased: 1.597
#iterations: 597
currently lose_sum: 0.5653700828552246
time_elpased: 1.625
#iterations: 598
currently lose_sum: 0.6358054876327515
time_elpased: 1.618
#iterations: 599
currently lose_sum: 0.5975232124328613
time_elpased: 1.643
start validation test
0.567948717949
0.562156215622
0.649301143583
0.602594339623
0.567212020692
26.413
acc: 0.574
pre: 0.568
rec: 0.657
F1: 0.609
auc: 0.574
