start to construct computing graph
graph construct over
2361
epochs start
#iterations: 0
currently lose_sum: 0.71040278673172
time_elpased: 2.204
#iterations: 1
currently lose_sum: 0.6936135292053223
time_elpased: 2.212
#iterations: 2
currently lose_sum: 0.7034101486206055
time_elpased: 2.178
#iterations: 3
currently lose_sum: 0.6884597539901733
time_elpased: 2.273
#iterations: 4
currently lose_sum: 0.6811343431472778
time_elpased: 2.164
#iterations: 5
currently lose_sum: 0.6807311773300171
time_elpased: 2.172
#iterations: 6
currently lose_sum: 0.6822298765182495
time_elpased: 2.204
#iterations: 7
currently lose_sum: 0.7011255025863647
time_elpased: 2.215
#iterations: 8
currently lose_sum: 0.6761104464530945
time_elpased: 2.156
#iterations: 9
currently lose_sum: 0.6837142705917358
time_elpased: 2.21
#iterations: 10
currently lose_sum: 0.6726421117782593
time_elpased: 2.194
#iterations: 11
currently lose_sum: 0.7118324041366577
time_elpased: 2.146
#iterations: 12
currently lose_sum: 0.693711519241333
time_elpased: 2.151
#iterations: 13
currently lose_sum: 0.699949324131012
time_elpased: 2.202
#iterations: 14
currently lose_sum: 0.7054205536842346
time_elpased: 2.139
#iterations: 15
currently lose_sum: 0.6800468564033508
time_elpased: 2.13
#iterations: 16
currently lose_sum: 0.6584963798522949
time_elpased: 2.189
#iterations: 17
currently lose_sum: 0.7033044099807739
time_elpased: 2.154
#iterations: 18
currently lose_sum: 0.6924986243247986
time_elpased: 2.186
#iterations: 19
currently lose_sum: 0.7078975439071655
time_elpased: 2.18
start validation test
0.542948717949
0.534662867996
0.716284987277
0.612289287656
0.541605025938
26.958
#iterations: 20
currently lose_sum: 0.6605103611946106
time_elpased: 1.381
#iterations: 21
currently lose_sum: 0.6800751090049744
time_elpased: 1.379
#iterations: 22
currently lose_sum: 0.6653391122817993
time_elpased: 1.371
#iterations: 23
currently lose_sum: 0.6897865533828735
time_elpased: 1.388
#iterations: 24
currently lose_sum: 0.70259690284729
time_elpased: 1.386
#iterations: 25
currently lose_sum: 0.7031816244125366
time_elpased: 1.392
#iterations: 26
currently lose_sum: 0.657547652721405
time_elpased: 1.38
#iterations: 27
currently lose_sum: 0.6540508270263672
time_elpased: 1.374
#iterations: 28
currently lose_sum: 0.6958519220352173
time_elpased: 1.387
#iterations: 29
currently lose_sum: 0.6782777905464172
time_elpased: 1.374
#iterations: 30
currently lose_sum: 0.7013953328132629
time_elpased: 1.384
#iterations: 31
currently lose_sum: 0.7063530087471008
time_elpased: 1.378
#iterations: 32
currently lose_sum: 0.6414222717285156
time_elpased: 1.376
#iterations: 33
currently lose_sum: 0.6863452792167664
time_elpased: 1.363
#iterations: 34
currently lose_sum: 0.6868711113929749
time_elpased: 1.389
#iterations: 35
currently lose_sum: 0.6880205869674683
time_elpased: 1.365
#iterations: 36
currently lose_sum: 0.704213559627533
time_elpased: 1.352
#iterations: 37
currently lose_sum: 0.7102322578430176
time_elpased: 1.37
#iterations: 38
currently lose_sum: 0.7246997952461243
time_elpased: 1.353
#iterations: 39
currently lose_sum: 0.6986236572265625
time_elpased: 1.369
start validation test
0.557692307692
0.583333333333
0.427480916031
0.493392070485
0.558701698325
26.784
#iterations: 40
currently lose_sum: 0.6664170026779175
time_elpased: 1.388
#iterations: 41
currently lose_sum: 0.7230287194252014
time_elpased: 1.381
#iterations: 42
currently lose_sum: 0.6758447885513306
time_elpased: 1.382
#iterations: 43
currently lose_sum: 0.6625354886054993
time_elpased: 1.395
#iterations: 44
currently lose_sum: 0.6871611475944519
time_elpased: 1.395
#iterations: 45
currently lose_sum: 0.686538577079773
time_elpased: 1.436
#iterations: 46
currently lose_sum: 0.7074661254882812
time_elpased: 1.369
#iterations: 47
currently lose_sum: 0.6589032411575317
time_elpased: 1.383
#iterations: 48
currently lose_sum: 0.546081006526947
time_elpased: 1.382
#iterations: 49
currently lose_sum: 0.6691149473190308
time_elpased: 1.358
#iterations: 50
currently lose_sum: 0.6689130663871765
time_elpased: 1.39
#iterations: 51
currently lose_sum: 0.6249738335609436
time_elpased: 1.394
#iterations: 52
currently lose_sum: 0.6332384347915649
time_elpased: 1.368
#iterations: 53
currently lose_sum: 0.6537774801254272
time_elpased: 1.349
#iterations: 54
currently lose_sum: 0.6891769170761108
time_elpased: 1.372
#iterations: 55
currently lose_sum: 0.6874210834503174
time_elpased: 1.366
#iterations: 56
currently lose_sum: 0.7464887499809265
time_elpased: 1.365
#iterations: 57
currently lose_sum: 0.6688382029533386
time_elpased: 1.39
#iterations: 58
currently lose_sum: 0.6751445531845093
time_elpased: 1.392
#iterations: 59
currently lose_sum: 0.6653526425361633
time_elpased: 1.379
start validation test
0.561538461538
0.564885496183
0.564885496183
0.564885496183
0.561512515533
26.650
#iterations: 60
currently lose_sum: 0.6846424341201782
time_elpased: 1.365
#iterations: 61
currently lose_sum: 0.6148529648780823
time_elpased: 1.371
#iterations: 62
currently lose_sum: 0.6728633046150208
time_elpased: 1.381
#iterations: 63
currently lose_sum: 0.6421521902084351
time_elpased: 1.373
#iterations: 64
currently lose_sum: 0.6598514914512634
time_elpased: 1.394
#iterations: 65
currently lose_sum: 0.6814193725585938
time_elpased: 1.377
#iterations: 66
currently lose_sum: 0.687750518321991
time_elpased: 1.388
#iterations: 67
currently lose_sum: 0.6464377641677856
time_elpased: 1.428
#iterations: 68
currently lose_sum: 0.6983102560043335
time_elpased: 1.386
#iterations: 69
currently lose_sum: 0.6988579630851746
time_elpased: 1.379
#iterations: 70
currently lose_sum: 0.6632575988769531
time_elpased: 1.392
#iterations: 71
currently lose_sum: 0.6830107569694519
time_elpased: 1.4
#iterations: 72
currently lose_sum: 0.7244287133216858
time_elpased: 1.378
#iterations: 73
currently lose_sum: 0.6558868288993835
time_elpased: 1.349
#iterations: 74
currently lose_sum: 0.6923988461494446
time_elpased: 1.34
#iterations: 75
currently lose_sum: 0.6590527296066284
time_elpased: 1.371
#iterations: 76
currently lose_sum: 0.7017885446548462
time_elpased: 1.342
#iterations: 77
currently lose_sum: 0.6669371724128723
time_elpased: 1.426
#iterations: 78
currently lose_sum: 0.6535788178443909
time_elpased: 1.376
#iterations: 79
currently lose_sum: 0.6525872945785522
time_elpased: 1.363
start validation test
0.537179487179
0.590395480226
0.265903307888
0.366666666667
0.539282403298
26.706
#iterations: 80
currently lose_sum: 0.6651049256324768
time_elpased: 1.364
#iterations: 81
currently lose_sum: 0.6519522070884705
time_elpased: 1.365
#iterations: 82
currently lose_sum: 0.6921915411949158
time_elpased: 1.405
#iterations: 83
currently lose_sum: 0.6562991142272949
time_elpased: 1.367
#iterations: 84
currently lose_sum: 0.6967489123344421
time_elpased: 1.377
#iterations: 85
currently lose_sum: 0.6634864807128906
time_elpased: 1.369
#iterations: 86
currently lose_sum: 0.6275704503059387
time_elpased: 1.363
#iterations: 87
currently lose_sum: 0.6510478854179382
time_elpased: 1.401
#iterations: 88
currently lose_sum: 0.6970407366752625
time_elpased: 1.37
#iterations: 89
currently lose_sum: 0.6907349824905396
time_elpased: 1.366
#iterations: 90
currently lose_sum: 0.6602959632873535
time_elpased: 1.377
#iterations: 91
currently lose_sum: 0.6801554560661316
time_elpased: 1.399
#iterations: 92
currently lose_sum: 0.6507254838943481
time_elpased: 1.417
#iterations: 93
currently lose_sum: 0.6685954332351685
time_elpased: 1.36
#iterations: 94
currently lose_sum: 0.7027981281280518
time_elpased: 1.394
#iterations: 95
currently lose_sum: 0.7180168032646179
time_elpased: 1.375
#iterations: 96
currently lose_sum: 0.6372262835502625
time_elpased: 1.37
#iterations: 97
currently lose_sum: 0.7572828531265259
time_elpased: 1.384
#iterations: 98
currently lose_sum: 0.7116954326629639
time_elpased: 1.368
#iterations: 99
currently lose_sum: 0.702124297618866
time_elpased: 1.379
start validation test
0.561538461538
0.564393939394
0.568702290076
0.566539923954
0.561482927984
26.535
#iterations: 100
currently lose_sum: 0.6252182722091675
time_elpased: 1.355
#iterations: 101
currently lose_sum: 0.6508995294570923
time_elpased: 1.376
#iterations: 102
currently lose_sum: 0.661075234413147
time_elpased: 1.375
#iterations: 103
currently lose_sum: 0.6725412607192993
time_elpased: 1.402
#iterations: 104
currently lose_sum: 0.7043341398239136
time_elpased: 1.379
#iterations: 105
currently lose_sum: 0.629662036895752
time_elpased: 1.363
#iterations: 106
currently lose_sum: 0.6062435507774353
time_elpased: 1.401
#iterations: 107
currently lose_sum: 0.6727510690689087
time_elpased: 1.408
#iterations: 108
currently lose_sum: 0.6727372407913208
time_elpased: 1.376
#iterations: 109
currently lose_sum: 0.6633731126785278
time_elpased: 1.388
#iterations: 110
currently lose_sum: 0.6778200268745422
time_elpased: 1.373
#iterations: 111
currently lose_sum: 0.6480528116226196
time_elpased: 1.385
#iterations: 112
currently lose_sum: 0.7442615628242493
time_elpased: 1.378
#iterations: 113
currently lose_sum: 0.6902421712875366
time_elpased: 1.38
#iterations: 114
currently lose_sum: 0.6993624567985535
time_elpased: 1.372
#iterations: 115
currently lose_sum: 0.7592607736587524
time_elpased: 1.399
#iterations: 116
currently lose_sum: 0.6559687852859497
time_elpased: 1.402
#iterations: 117
currently lose_sum: 0.6670371294021606
time_elpased: 1.384
#iterations: 118
currently lose_sum: 0.7431526184082031
time_elpased: 1.389
#iterations: 119
currently lose_sum: 0.6570454835891724
time_elpased: 1.409
start validation test
0.574358974359
0.574390243902
0.599236641221
0.586550435866
0.574166124228
26.647
#iterations: 120
currently lose_sum: 0.654911458492279
time_elpased: 1.391
#iterations: 121
currently lose_sum: 0.6805556416511536
time_elpased: 1.396
#iterations: 122
currently lose_sum: 0.624748706817627
time_elpased: 1.418
#iterations: 123
currently lose_sum: 0.719779372215271
time_elpased: 1.397
#iterations: 124
currently lose_sum: 0.6455780267715454
time_elpased: 1.386
#iterations: 125
currently lose_sum: 0.6467087864875793
time_elpased: 1.383
#iterations: 126
currently lose_sum: 0.6805971264839172
time_elpased: 1.379
#iterations: 127
currently lose_sum: 0.6699399948120117
time_elpased: 1.386
#iterations: 128
currently lose_sum: 0.6675463914871216
time_elpased: 1.39
#iterations: 129
currently lose_sum: 0.6882660984992981
time_elpased: 1.415
#iterations: 130
currently lose_sum: 0.6141564846038818
time_elpased: 1.413
#iterations: 131
currently lose_sum: 0.634304404258728
time_elpased: 1.393
#iterations: 132
currently lose_sum: 0.677291214466095
time_elpased: 1.385
#iterations: 133
currently lose_sum: 0.6630284190177917
time_elpased: 1.388
#iterations: 134
currently lose_sum: 0.687627911567688
time_elpased: 1.389
#iterations: 135
currently lose_sum: 0.6342692375183105
time_elpased: 1.392
#iterations: 136
currently lose_sum: 0.6523743867874146
time_elpased: 1.423
#iterations: 137
currently lose_sum: 0.7020068168640137
time_elpased: 1.428
#iterations: 138
currently lose_sum: 0.6896336674690247
time_elpased: 1.417
#iterations: 139
currently lose_sum: 0.6952226161956787
time_elpased: 1.406
start validation test
0.582051282051
0.601823708207
0.503816793893
0.548476454294
0.582657750952
26.879
#iterations: 140
currently lose_sum: 0.6534544825553894
time_elpased: 1.424
#iterations: 141
currently lose_sum: 0.6577191352844238
time_elpased: 1.393
#iterations: 142
currently lose_sum: 0.6944839358329773
time_elpased: 1.392
#iterations: 143
currently lose_sum: 0.6605368852615356
time_elpased: 1.386
#iterations: 144
currently lose_sum: 0.6275450587272644
time_elpased: 1.375
#iterations: 145
currently lose_sum: 0.6631855964660645
time_elpased: 1.389
#iterations: 146
currently lose_sum: 0.6560419201850891
time_elpased: 1.377
#iterations: 147
currently lose_sum: 0.6889480352401733
time_elpased: 1.384
#iterations: 148
currently lose_sum: 0.6917155981063843
time_elpased: 1.397
#iterations: 149
currently lose_sum: 0.6500459909439087
time_elpased: 1.381
#iterations: 150
currently lose_sum: 0.6140182614326477
time_elpased: 1.388
#iterations: 151
currently lose_sum: 0.6287558078765869
time_elpased: 1.401
#iterations: 152
currently lose_sum: 0.6456531882286072
time_elpased: 1.38
#iterations: 153
currently lose_sum: 0.6155605912208557
time_elpased: 1.384
#iterations: 154
currently lose_sum: 0.6591390371322632
time_elpased: 1.371
#iterations: 155
currently lose_sum: 0.708772599697113
time_elpased: 1.374
#iterations: 156
currently lose_sum: 0.6762968301773071
time_elpased: 1.396
#iterations: 157
currently lose_sum: 0.6537472605705261
time_elpased: 1.368
#iterations: 158
currently lose_sum: 0.6316287517547607
time_elpased: 1.396
#iterations: 159
currently lose_sum: 0.6578492522239685
time_elpased: 1.396
start validation test
0.584615384615
0.569556451613
0.718829516539
0.635545556805
0.583574964988
27.118
#iterations: 160
currently lose_sum: 0.6693977117538452
time_elpased: 1.39
#iterations: 161
currently lose_sum: 0.7151399850845337
time_elpased: 1.436
#iterations: 162
currently lose_sum: 0.6402453184127808
time_elpased: 1.378
#iterations: 163
currently lose_sum: 0.6377686858177185
time_elpased: 1.383
#iterations: 164
currently lose_sum: 0.6273282766342163
time_elpased: 1.381
#iterations: 165
currently lose_sum: 0.6211800575256348
time_elpased: 1.38
#iterations: 166
currently lose_sum: 0.7036526799201965
time_elpased: 1.377
#iterations: 167
currently lose_sum: 0.662650465965271
time_elpased: 1.39
#iterations: 168
currently lose_sum: 0.6377808451652527
time_elpased: 1.38
#iterations: 169
currently lose_sum: 0.6037031412124634
time_elpased: 1.399
#iterations: 170
currently lose_sum: 0.6554924249649048
time_elpased: 1.407
#iterations: 171
currently lose_sum: 0.6288386583328247
time_elpased: 1.373
#iterations: 172
currently lose_sum: 0.6241161823272705
time_elpased: 1.389
#iterations: 173
currently lose_sum: 0.6406559944152832
time_elpased: 1.373
#iterations: 174
currently lose_sum: 0.71602463722229
time_elpased: 1.379
#iterations: 175
currently lose_sum: 0.6668952703475952
time_elpased: 1.387
#iterations: 176
currently lose_sum: 0.6832923293113708
time_elpased: 1.387
#iterations: 177
currently lose_sum: 0.6689674854278564
time_elpased: 1.384
#iterations: 178
currently lose_sum: 0.6689452528953552
time_elpased: 1.38
#iterations: 179
currently lose_sum: 0.6708942651748657
time_elpased: 1.392
start validation test
0.579487179487
0.579656862745
0.601781170483
0.590511860175
0.579314357852
26.872
#iterations: 180
currently lose_sum: 0.6682818531990051
time_elpased: 1.371
#iterations: 181
currently lose_sum: 0.6293450593948364
time_elpased: 1.389
#iterations: 182
currently lose_sum: 0.6015034914016724
time_elpased: 1.438
#iterations: 183
currently lose_sum: 0.6588129997253418
time_elpased: 1.389
#iterations: 184
currently lose_sum: 0.6150926351547241
time_elpased: 1.386
#iterations: 185
currently lose_sum: 0.6318081617355347
time_elpased: 1.38
#iterations: 186
currently lose_sum: 0.7006101012229919
time_elpased: 1.39
#iterations: 187
currently lose_sum: 0.6924638152122498
time_elpased: 1.425
#iterations: 188
currently lose_sum: 0.6682670712471008
time_elpased: 1.414
#iterations: 189
currently lose_sum: 0.66096031665802
time_elpased: 1.423
#iterations: 190
currently lose_sum: 0.6874591112136841
time_elpased: 1.388
#iterations: 191
currently lose_sum: 0.6241211891174316
time_elpased: 1.384
#iterations: 192
currently lose_sum: 0.6671012043952942
time_elpased: 1.372
#iterations: 193
currently lose_sum: 0.6816201210021973
time_elpased: 1.373
#iterations: 194
currently lose_sum: 0.6153857111930847
time_elpased: 1.415
#iterations: 195
currently lose_sum: 0.6347448229789734
time_elpased: 1.378
#iterations: 196
currently lose_sum: 0.6958521604537964
time_elpased: 1.373
#iterations: 197
currently lose_sum: 0.6642737984657288
time_elpased: 1.378
#iterations: 198
currently lose_sum: 0.6939694285392761
time_elpased: 1.382
#iterations: 199
currently lose_sum: 0.6005323529243469
time_elpased: 1.364
start validation test
0.583333333333
0.591644204852
0.558524173028
0.574607329843
0.583525652405
26.546
#iterations: 200
currently lose_sum: 0.6744663715362549
time_elpased: 1.376
#iterations: 201
currently lose_sum: 0.6882930397987366
time_elpased: 1.37
#iterations: 202
currently lose_sum: 0.7387771606445312
time_elpased: 1.38
#iterations: 203
currently lose_sum: 0.6463578343391418
time_elpased: 1.378
#iterations: 204
currently lose_sum: 0.694564163684845
time_elpased: 1.381
#iterations: 205
currently lose_sum: 0.6517502069473267
time_elpased: 1.38
#iterations: 206
currently lose_sum: 0.6243174076080322
time_elpased: 1.419
#iterations: 207
currently lose_sum: 0.6813543438911438
time_elpased: 1.383
#iterations: 208
currently lose_sum: 0.691933274269104
time_elpased: 1.374
#iterations: 209
currently lose_sum: 0.6983711123466492
time_elpased: 1.368
#iterations: 210
currently lose_sum: 0.6244139671325684
time_elpased: 1.37
#iterations: 211
currently lose_sum: 0.6839606165885925
time_elpased: 1.41
#iterations: 212
currently lose_sum: 0.7152077555656433
time_elpased: 1.376
#iterations: 213
currently lose_sum: 0.6112531423568726
time_elpased: 1.384
#iterations: 214
currently lose_sum: 0.6752085089683533
time_elpased: 1.385
#iterations: 215
currently lose_sum: 0.6733824014663696
time_elpased: 1.391
#iterations: 216
currently lose_sum: 0.7130025029182434
time_elpased: 1.392
#iterations: 217
currently lose_sum: 0.6073766946792603
time_elpased: 1.394
#iterations: 218
currently lose_sum: 0.62535560131073
time_elpased: 1.392
#iterations: 219
currently lose_sum: 0.6580443382263184
time_elpased: 1.384
start validation test
0.580769230769
0.587533156499
0.563613231552
0.575324675325
0.580902223011
26.789
#iterations: 220
currently lose_sum: 0.6686278581619263
time_elpased: 1.382
#iterations: 221
currently lose_sum: 0.6655541658401489
time_elpased: 1.381
#iterations: 222
currently lose_sum: 0.6217933297157288
time_elpased: 1.375
#iterations: 223
currently lose_sum: 0.7152107954025269
time_elpased: 1.403
#iterations: 224
currently lose_sum: 0.6204878687858582
time_elpased: 1.382
#iterations: 225
currently lose_sum: 0.599862277507782
time_elpased: 1.378
#iterations: 226
currently lose_sum: 0.642532229423523
time_elpased: 1.394
#iterations: 227
currently lose_sum: 0.6600902676582336
time_elpased: 1.387
#iterations: 228
currently lose_sum: 0.6022061109542847
time_elpased: 1.377
#iterations: 229
currently lose_sum: 0.6575980186462402
time_elpased: 1.381
#iterations: 230
currently lose_sum: 0.6344272494316101
time_elpased: 1.403
#iterations: 231
currently lose_sum: 0.6966995000839233
time_elpased: 1.38
#iterations: 232
currently lose_sum: 0.697461724281311
time_elpased: 1.386
#iterations: 233
currently lose_sum: 0.6015500426292419
time_elpased: 1.384
#iterations: 234
currently lose_sum: 0.648925244808197
time_elpased: 1.414
#iterations: 235
currently lose_sum: 0.6389510035514832
time_elpased: 1.378
#iterations: 236
currently lose_sum: 0.6241033673286438
time_elpased: 1.385
#iterations: 237
currently lose_sum: 0.6624332070350647
time_elpased: 1.382
#iterations: 238
currently lose_sum: 0.6315528750419617
time_elpased: 1.382
#iterations: 239
currently lose_sum: 0.6771515607833862
time_elpased: 1.389
start validation test
0.583974358974
0.604580152672
0.503816793893
0.549618320611
0.584595735448
26.988
#iterations: 240
currently lose_sum: 0.6355226635932922
time_elpased: 1.387
#iterations: 241
currently lose_sum: 0.6587511897087097
time_elpased: 1.388
#iterations: 242
currently lose_sum: 0.7045204043388367
time_elpased: 1.373
#iterations: 243
currently lose_sum: 0.6977273225784302
time_elpased: 1.38
#iterations: 244
currently lose_sum: 0.6336442232131958
time_elpased: 1.416
#iterations: 245
currently lose_sum: 0.6882244348526001
time_elpased: 1.387
#iterations: 246
currently lose_sum: 0.5918140411376953
time_elpased: 1.394
#iterations: 247
currently lose_sum: 0.6472125053405762
time_elpased: 1.39
#iterations: 248
currently lose_sum: 0.6716423034667969
time_elpased: 1.412
#iterations: 249
currently lose_sum: 0.6373127102851868
time_elpased: 1.412
#iterations: 250
currently lose_sum: 0.676207423210144
time_elpased: 1.387
#iterations: 251
currently lose_sum: 0.6104586720466614
time_elpased: 1.388
#iterations: 252
currently lose_sum: 0.6146327257156372
time_elpased: 1.383
#iterations: 253
currently lose_sum: 0.6902369260787964
time_elpased: 1.396
#iterations: 254
currently lose_sum: 0.7163413166999817
time_elpased: 1.398
#iterations: 255
currently lose_sum: 0.6516921520233154
time_elpased: 1.407
#iterations: 256
currently lose_sum: 0.6952472925186157
time_elpased: 1.412
#iterations: 257
currently lose_sum: 0.6454938650131226
time_elpased: 1.391
#iterations: 258
currently lose_sum: 0.6834123730659485
time_elpased: 1.39
#iterations: 259
currently lose_sum: 0.5779468417167664
time_elpased: 1.391
start validation test
0.578205128205
0.579207920792
0.595419847328
0.587202007528
0.57807168077
26.919
#iterations: 260
currently lose_sum: 0.5794364213943481
time_elpased: 1.414
#iterations: 261
currently lose_sum: 0.6877776980400085
time_elpased: 1.396
#iterations: 262
currently lose_sum: 0.6759878396987915
time_elpased: 1.389
#iterations: 263
currently lose_sum: 0.6143943071365356
time_elpased: 1.397
#iterations: 264
currently lose_sum: 0.6459206342697144
time_elpased: 1.379
#iterations: 265
currently lose_sum: 0.7234500646591187
time_elpased: 1.403
#iterations: 266
currently lose_sum: 0.5535368919372559
time_elpased: 1.38
#iterations: 267
currently lose_sum: 0.6673110127449036
time_elpased: 1.373
#iterations: 268
currently lose_sum: 0.6248183846473694
time_elpased: 1.382
#iterations: 269
currently lose_sum: 0.594323992729187
time_elpased: 1.4
#iterations: 270
currently lose_sum: 0.6390413045883179
time_elpased: 1.379
#iterations: 271
currently lose_sum: 0.5993908643722534
time_elpased: 1.388
#iterations: 272
currently lose_sum: 0.6637541651725769
time_elpased: 1.383
#iterations: 273
currently lose_sum: 0.6042572259902954
time_elpased: 1.378
#iterations: 274
currently lose_sum: 0.6402875781059265
time_elpased: 1.397
#iterations: 275
currently lose_sum: 0.6093238592147827
time_elpased: 1.389
#iterations: 276
currently lose_sum: 0.7737141847610474
time_elpased: 1.385
#iterations: 277
currently lose_sum: 0.6070409417152405
time_elpased: 1.393
#iterations: 278
currently lose_sum: 0.6514166593551636
time_elpased: 1.406
#iterations: 279
currently lose_sum: 0.6855839490890503
time_elpased: 1.381
start validation test
0.575
0.578343949045
0.577608142494
0.577975811585
0.574979781841
26.709
#iterations: 280
currently lose_sum: 0.6422194242477417
time_elpased: 1.392
#iterations: 281
currently lose_sum: 0.6479575037956238
time_elpased: 1.4
#iterations: 282
currently lose_sum: 0.6344131231307983
time_elpased: 1.395
#iterations: 283
currently lose_sum: 0.6407345533370972
time_elpased: 1.427
#iterations: 284
currently lose_sum: 0.6158197522163391
time_elpased: 1.403
#iterations: 285
currently lose_sum: 0.6077648401260376
time_elpased: 1.385
#iterations: 286
currently lose_sum: 0.6408709287643433
time_elpased: 1.388
#iterations: 287
currently lose_sum: 0.606260359287262
time_elpased: 1.41
#iterations: 288
currently lose_sum: 0.6653779745101929
time_elpased: 1.39
#iterations: 289
currently lose_sum: 0.6835111379623413
time_elpased: 1.411
#iterations: 290
currently lose_sum: 0.7241056561470032
time_elpased: 1.387
#iterations: 291
currently lose_sum: 0.6950139999389648
time_elpased: 1.405
#iterations: 292
currently lose_sum: 0.5837122201919556
time_elpased: 1.385
#iterations: 293
currently lose_sum: 0.6440759301185608
time_elpased: 1.395
#iterations: 294
currently lose_sum: 0.6963284611701965
time_elpased: 1.39
#iterations: 295
currently lose_sum: 0.6433624029159546
time_elpased: 1.384
#iterations: 296
currently lose_sum: 0.6466597318649292
time_elpased: 1.407
#iterations: 297
currently lose_sum: 0.7131572961807251
time_elpased: 1.467
#iterations: 298
currently lose_sum: 0.6280665993690491
time_elpased: 1.384
#iterations: 299
currently lose_sum: 0.588970422744751
time_elpased: 1.381
start validation test
0.575641025641
0.585872576177
0.538167938931
0.56100795756
0.575931514685
27.078
#iterations: 300
currently lose_sum: 0.6392143964767456
time_elpased: 1.387
#iterations: 301
currently lose_sum: 0.6260045170783997
time_elpased: 1.408
#iterations: 302
currently lose_sum: 0.5410228967666626
time_elpased: 1.396
#iterations: 303
currently lose_sum: 0.6203593611717224
time_elpased: 1.385
#iterations: 304
currently lose_sum: 0.7086447477340698
time_elpased: 1.418
#iterations: 305
currently lose_sum: 0.5949206948280334
time_elpased: 1.41
#iterations: 306
currently lose_sum: 0.6607407331466675
time_elpased: 1.409
#iterations: 307
currently lose_sum: 0.6556521654129028
time_elpased: 1.387
#iterations: 308
currently lose_sum: 0.5886620283126831
time_elpased: 1.386
#iterations: 309
currently lose_sum: 0.624131977558136
time_elpased: 1.383
#iterations: 310
currently lose_sum: 0.6754211783409119
time_elpased: 1.349
#iterations: 311
currently lose_sum: 0.60129314661026
time_elpased: 1.377
#iterations: 312
currently lose_sum: 0.7085127234458923
time_elpased: 1.374
#iterations: 313
currently lose_sum: 0.7221778035163879
time_elpased: 1.361
#iterations: 314
currently lose_sum: 0.6873184442520142
time_elpased: 1.365
#iterations: 315
currently lose_sum: 0.6174382567405701
time_elpased: 1.361
#iterations: 316
currently lose_sum: 0.7203390002250671
time_elpased: 1.362
#iterations: 317
currently lose_sum: 0.6677898168563843
time_elpased: 1.376
#iterations: 318
currently lose_sum: 0.6555122137069702
time_elpased: 1.361
#iterations: 319
currently lose_sum: 0.6324324607849121
time_elpased: 1.363
start validation test
0.574358974359
0.564482029598
0.679389312977
0.61662817552
0.573544785688
27.145
#iterations: 320
currently lose_sum: 0.596368670463562
time_elpased: 1.357
#iterations: 321
currently lose_sum: 0.6265994310379028
time_elpased: 1.357
#iterations: 322
currently lose_sum: 0.6545164585113525
time_elpased: 1.357
#iterations: 323
currently lose_sum: 0.6458054780960083
time_elpased: 1.356
#iterations: 324
currently lose_sum: 0.617275595664978
time_elpased: 1.369
#iterations: 325
currently lose_sum: 0.6452704071998596
time_elpased: 1.437
#iterations: 326
currently lose_sum: 0.6405103802680969
time_elpased: 1.351
#iterations: 327
currently lose_sum: 0.6211276054382324
time_elpased: 1.369
#iterations: 328
currently lose_sum: 0.6282328367233276
time_elpased: 1.352
#iterations: 329
currently lose_sum: 0.6693648099899292
time_elpased: 1.353
#iterations: 330
currently lose_sum: 0.6190513372421265
time_elpased: 1.362
#iterations: 331
currently lose_sum: 0.6361787915229797
time_elpased: 1.37
#iterations: 332
currently lose_sum: 0.5992220640182495
time_elpased: 1.367
#iterations: 333
currently lose_sum: 0.6187725067138672
time_elpased: 1.381
#iterations: 334
currently lose_sum: 0.6727444529533386
time_elpased: 1.402
#iterations: 335
currently lose_sum: 0.6045657396316528
time_elpased: 1.372
#iterations: 336
currently lose_sum: 0.6552022695541382
time_elpased: 1.371
#iterations: 337
currently lose_sum: 0.6123585104942322
time_elpased: 1.382
#iterations: 338
currently lose_sum: 0.6665469408035278
time_elpased: 1.393
#iterations: 339
currently lose_sum: 0.6867841482162476
time_elpased: 1.369
start validation test
0.576923076923
0.561886051081
0.727735368957
0.634146341463
0.575753989388
27.420
#iterations: 340
currently lose_sum: 0.6670015454292297
time_elpased: 1.372
#iterations: 341
currently lose_sum: 0.6509225964546204
time_elpased: 1.392
#iterations: 342
currently lose_sum: 0.5987671613693237
time_elpased: 1.37
#iterations: 343
currently lose_sum: 0.641130268573761
time_elpased: 1.372
#iterations: 344
currently lose_sum: 0.5716114640235901
time_elpased: 1.378
#iterations: 345
currently lose_sum: 0.5571979880332947
time_elpased: 1.367
#iterations: 346
currently lose_sum: 0.6510910987854004
time_elpased: 1.368
#iterations: 347
currently lose_sum: 0.660778284072876
time_elpased: 1.388
#iterations: 348
currently lose_sum: 0.5182636380195618
time_elpased: 1.378
#iterations: 349
currently lose_sum: 0.630915641784668
time_elpased: 1.376
#iterations: 350
currently lose_sum: 0.5707671046257019
time_elpased: 1.395
#iterations: 351
currently lose_sum: 0.5998480916023254
time_elpased: 1.389
#iterations: 352
currently lose_sum: 0.6244035363197327
time_elpased: 1.397
#iterations: 353
currently lose_sum: 0.6543635725975037
time_elpased: 1.382
#iterations: 354
currently lose_sum: 0.6903746128082275
time_elpased: 1.39
#iterations: 355
currently lose_sum: 0.6557011008262634
time_elpased: 1.386
#iterations: 356
currently lose_sum: 0.617307186126709
time_elpased: 1.39
#iterations: 357
currently lose_sum: 0.5913859605789185
time_elpased: 1.375
#iterations: 358
currently lose_sum: 0.6367402076721191
time_elpased: 1.374
#iterations: 359
currently lose_sum: 0.6529606580734253
time_elpased: 1.378
start validation test
0.585897435897
0.582547169811
0.628498727735
0.604651162791
0.585567193325
27.098
#iterations: 360
currently lose_sum: 0.6322680711746216
time_elpased: 1.393
#iterations: 361
currently lose_sum: 0.6772992014884949
time_elpased: 1.424
#iterations: 362
currently lose_sum: 0.660606324672699
time_elpased: 1.385
#iterations: 363
currently lose_sum: 0.5931724309921265
time_elpased: 1.407
#iterations: 364
currently lose_sum: 0.6930714845657349
time_elpased: 1.415
#iterations: 365
currently lose_sum: 0.6176173090934753
time_elpased: 1.379
#iterations: 366
currently lose_sum: 0.6412183046340942
time_elpased: 1.39
#iterations: 367
currently lose_sum: 0.6692593693733215
time_elpased: 1.379
#iterations: 368
currently lose_sum: 0.6330379247665405
time_elpased: 1.376
#iterations: 369
currently lose_sum: 0.6649190783500671
time_elpased: 1.378
#iterations: 370
currently lose_sum: 0.6769262552261353
time_elpased: 1.373
#iterations: 371
currently lose_sum: 0.6513031721115112
time_elpased: 1.377
#iterations: 372
currently lose_sum: 0.5941368341445923
time_elpased: 1.37
#iterations: 373
currently lose_sum: 0.657111644744873
time_elpased: 1.38
#iterations: 374
currently lose_sum: 0.620974600315094
time_elpased: 1.372
#iterations: 375
currently lose_sum: 0.6607658863067627
time_elpased: 1.378
#iterations: 376
currently lose_sum: 0.6321312785148621
time_elpased: 1.381
#iterations: 377
currently lose_sum: 0.6562949419021606
time_elpased: 1.374
#iterations: 378
currently lose_sum: 0.5604187250137329
time_elpased: 1.371
#iterations: 379
currently lose_sum: 0.5920758247375488
time_elpased: 1.377
start validation test
0.59358974359
0.607042253521
0.54834605598
0.576203208556
0.59394046985
27.256
#iterations: 380
currently lose_sum: 0.7262439727783203
time_elpased: 1.363
#iterations: 381
currently lose_sum: 0.605178713798523
time_elpased: 1.358
#iterations: 382
currently lose_sum: 0.7032706141471863
time_elpased: 1.368
#iterations: 383
currently lose_sum: 0.629295825958252
time_elpased: 1.38
#iterations: 384
currently lose_sum: 0.5457471609115601
time_elpased: 1.37
#iterations: 385
currently lose_sum: 0.6157392263412476
time_elpased: 1.377
#iterations: 386
currently lose_sum: 0.6485469937324524
time_elpased: 1.376
#iterations: 387
currently lose_sum: 0.6138395071029663
time_elpased: 1.376
#iterations: 388
currently lose_sum: 0.6111928820610046
time_elpased: 1.413
#iterations: 389
currently lose_sum: 0.6997764706611633
time_elpased: 1.378
#iterations: 390
currently lose_sum: 0.6098788976669312
time_elpased: 1.428
#iterations: 391
currently lose_sum: 0.6638543009757996
time_elpased: 1.373
#iterations: 392
currently lose_sum: 0.6662193536758423
time_elpased: 1.375
#iterations: 393
currently lose_sum: 0.6945081949234009
time_elpased: 1.39
#iterations: 394
currently lose_sum: 0.6581618189811707
time_elpased: 1.376
#iterations: 395
currently lose_sum: 0.5605252385139465
time_elpased: 1.376
#iterations: 396
currently lose_sum: 0.6693788170814514
time_elpased: 1.394
#iterations: 397
currently lose_sum: 0.6359554529190063
time_elpased: 1.43
#iterations: 398
currently lose_sum: 0.7363663911819458
time_elpased: 1.374
#iterations: 399
currently lose_sum: 0.6330858469009399
time_elpased: 1.371
start validation test
0.585897435897
0.589285714286
0.587786259542
0.588535031847
0.585882793854
26.784
#iterations: 400
currently lose_sum: 0.6166237592697144
time_elpased: 1.375
#iterations: 401
currently lose_sum: 0.5749870538711548
time_elpased: 1.418
#iterations: 402
currently lose_sum: 0.5868945717811584
time_elpased: 1.373
#iterations: 403
currently lose_sum: 0.6776484251022339
time_elpased: 1.383
#iterations: 404
currently lose_sum: 0.6848251223564148
time_elpased: 1.382
#iterations: 405
currently lose_sum: 0.6439040303230286
time_elpased: 1.383
#iterations: 406
currently lose_sum: 0.6342981457710266
time_elpased: 1.406
#iterations: 407
currently lose_sum: 0.5344657897949219
time_elpased: 1.383
#iterations: 408
currently lose_sum: 0.6777294874191284
time_elpased: 1.369
#iterations: 409
currently lose_sum: 0.6314652562141418
time_elpased: 1.386
#iterations: 410
currently lose_sum: 0.6505692601203918
time_elpased: 1.383
#iterations: 411
currently lose_sum: 0.5711725354194641
time_elpased: 1.369
#iterations: 412
currently lose_sum: 0.6221558451652527
time_elpased: 1.409
#iterations: 413
currently lose_sum: 0.6793534159660339
time_elpased: 1.417
#iterations: 414
currently lose_sum: 0.6810461282730103
time_elpased: 1.375
#iterations: 415
currently lose_sum: 0.722804844379425
time_elpased: 1.382
#iterations: 416
currently lose_sum: 0.646395206451416
time_elpased: 1.371
#iterations: 417
currently lose_sum: 0.6883766055107117
time_elpased: 1.369
#iterations: 418
currently lose_sum: 0.6086060404777527
time_elpased: 1.373
#iterations: 419
currently lose_sum: 0.6734453439712524
time_elpased: 1.415
start validation test
0.589743589744
0.578663793103
0.68320610687
0.626604434072
0.589019074107
27.274
#iterations: 420
currently lose_sum: 0.6790688633918762
time_elpased: 1.389
#iterations: 421
currently lose_sum: 0.6295973658561707
time_elpased: 1.374
#iterations: 422
currently lose_sum: 0.6724969148635864
time_elpased: 1.406
#iterations: 423
currently lose_sum: 0.6690511703491211
time_elpased: 1.437
#iterations: 424
currently lose_sum: 0.6939584016799927
time_elpased: 1.389
#iterations: 425
currently lose_sum: 0.6621184349060059
time_elpased: 1.403
#iterations: 426
currently lose_sum: 0.6215550303459167
time_elpased: 1.373
#iterations: 427
currently lose_sum: 0.6398002505302429
time_elpased: 1.394
#iterations: 428
currently lose_sum: 0.6210302114486694
time_elpased: 1.374
#iterations: 429
currently lose_sum: 0.6644304990768433
time_elpased: 1.37
#iterations: 430
currently lose_sum: 0.7287721633911133
time_elpased: 1.362
#iterations: 431
currently lose_sum: 0.5717955827713013
time_elpased: 1.383
#iterations: 432
currently lose_sum: 0.6603758335113525
time_elpased: 1.366
#iterations: 433
currently lose_sum: 0.6217198967933655
time_elpased: 1.39
#iterations: 434
currently lose_sum: 0.5954538583755493
time_elpased: 1.411
#iterations: 435
currently lose_sum: 0.699858546257019
time_elpased: 1.39
#iterations: 436
currently lose_sum: 0.6240161061286926
time_elpased: 1.394
#iterations: 437
currently lose_sum: 0.5900965332984924
time_elpased: 1.366
#iterations: 438
currently lose_sum: 0.6123484969139099
time_elpased: 1.388
#iterations: 439
currently lose_sum: 0.6203476190567017
time_elpased: 1.376
start validation test
0.592948717949
0.590854392298
0.624681933842
0.60729746444
0.592702724027
27.114
#iterations: 440
currently lose_sum: 0.5857909321784973
time_elpased: 1.369
#iterations: 441
currently lose_sum: 0.6087327599525452
time_elpased: 1.371
#iterations: 442
currently lose_sum: 0.6033617854118347
time_elpased: 1.406
#iterations: 443
currently lose_sum: 0.5971964597702026
time_elpased: 1.376
#iterations: 444
currently lose_sum: 0.6988247036933899
time_elpased: 1.371
#iterations: 445
currently lose_sum: 0.633613109588623
time_elpased: 1.404
#iterations: 446
currently lose_sum: 0.7258317470550537
time_elpased: 1.357
#iterations: 447
currently lose_sum: 0.6004719138145447
time_elpased: 1.357
#iterations: 448
currently lose_sum: 0.5918771624565125
time_elpased: 1.396
#iterations: 449
currently lose_sum: 0.5930494070053101
time_elpased: 1.374
#iterations: 450
currently lose_sum: 0.5893918871879578
time_elpased: 1.369
#iterations: 451
currently lose_sum: 0.646760106086731
time_elpased: 1.372
#iterations: 452
currently lose_sum: 0.5595808625221252
time_elpased: 1.372
#iterations: 453
currently lose_sum: 0.6725202798843384
time_elpased: 1.371
#iterations: 454
currently lose_sum: 0.5788391828536987
time_elpased: 1.385
#iterations: 455
currently lose_sum: 0.6218202710151672
time_elpased: 1.413
#iterations: 456
currently lose_sum: 0.7468312382698059
time_elpased: 1.379
#iterations: 457
currently lose_sum: 0.6969502568244934
time_elpased: 1.371
#iterations: 458
currently lose_sum: 0.5586533546447754
time_elpased: 1.373
#iterations: 459
currently lose_sum: 0.7460111379623413
time_elpased: 1.374
start validation test
0.572435897436
0.55816226784
0.726463104326
0.631288004422
0.57124188808
27.629
#iterations: 460
currently lose_sum: 0.5639403462409973
time_elpased: 1.39
#iterations: 461
currently lose_sum: 0.6119136810302734
time_elpased: 1.376
#iterations: 462
currently lose_sum: 0.552156925201416
time_elpased: 1.364
#iterations: 463
currently lose_sum: 0.6678841710090637
time_elpased: 1.402
#iterations: 464
currently lose_sum: 0.6308292150497437
time_elpased: 1.372
#iterations: 465
currently lose_sum: 0.6455966234207153
time_elpased: 1.375
#iterations: 466
currently lose_sum: 0.6218394637107849
time_elpased: 1.371
#iterations: 467
currently lose_sum: 0.6793093085289001
time_elpased: 1.416
#iterations: 468
currently lose_sum: 0.7254803776741028
time_elpased: 1.392
#iterations: 469
currently lose_sum: 0.6751852631568909
time_elpased: 1.39
#iterations: 470
currently lose_sum: 0.5848668217658997
time_elpased: 1.366
#iterations: 471
currently lose_sum: 0.6728218793869019
time_elpased: 1.382
#iterations: 472
currently lose_sum: 0.5741822719573975
time_elpased: 1.391
#iterations: 473
currently lose_sum: 0.6063765287399292
time_elpased: 1.419
#iterations: 474
currently lose_sum: 0.5939403772354126
time_elpased: 1.405
#iterations: 475
currently lose_sum: 0.669130265712738
time_elpased: 1.396
#iterations: 476
currently lose_sum: 0.6206322908401489
time_elpased: 1.385
#iterations: 477
currently lose_sum: 0.6194581985473633
time_elpased: 1.39
#iterations: 478
currently lose_sum: 0.7114866375923157
time_elpased: 1.383
#iterations: 479
currently lose_sum: 0.6895407438278198
time_elpased: 1.432
start validation test
0.589743589744
0.601955307263
0.54834605598
0.573901464714
0.590064500858
27.150
#iterations: 480
currently lose_sum: 0.696282684803009
time_elpased: 1.409
#iterations: 481
currently lose_sum: 0.6540996432304382
time_elpased: 1.392
#iterations: 482
currently lose_sum: 0.6413434147834778
time_elpased: 1.384
#iterations: 483
currently lose_sum: 0.6081128120422363
time_elpased: 1.403
#iterations: 484
currently lose_sum: 0.6008854508399963
time_elpased: 1.394
#iterations: 485
currently lose_sum: 0.6375967264175415
time_elpased: 1.394
#iterations: 486
currently lose_sum: 0.5797640681266785
time_elpased: 1.397
#iterations: 487
currently lose_sum: 0.6037890315055847
time_elpased: 1.441
#iterations: 488
currently lose_sum: 0.5724303126335144
time_elpased: 1.387
#iterations: 489
currently lose_sum: 0.6366259455680847
time_elpased: 1.392
#iterations: 490
currently lose_sum: 0.6235436797142029
time_elpased: 1.39
#iterations: 491
currently lose_sum: 0.651330292224884
time_elpased: 1.405
#iterations: 492
currently lose_sum: 0.5900489687919617
time_elpased: 1.379
#iterations: 493
currently lose_sum: 0.6513990163803101
time_elpased: 1.38
#iterations: 494
currently lose_sum: 0.7183680534362793
time_elpased: 1.397
#iterations: 495
currently lose_sum: 0.6237107515335083
time_elpased: 1.38
#iterations: 496
currently lose_sum: 0.6214820146560669
time_elpased: 1.397
#iterations: 497
currently lose_sum: 0.6644630432128906
time_elpased: 1.378
#iterations: 498
currently lose_sum: 0.5729953050613403
time_elpased: 1.397
#iterations: 499
currently lose_sum: 0.6643546223640442
time_elpased: 1.409
start validation test
0.604487179487
0.619858156028
0.555979643766
0.586183769282
0.604863206896
26.958
#iterations: 500
currently lose_sum: 0.6677969694137573
time_elpased: 1.387
#iterations: 501
currently lose_sum: 0.6109092831611633
time_elpased: 1.386
#iterations: 502
currently lose_sum: 0.6511505246162415
time_elpased: 1.417
#iterations: 503
currently lose_sum: 0.6660758852958679
time_elpased: 1.39
#iterations: 504
currently lose_sum: 0.6503325700759888
time_elpased: 1.391
#iterations: 505
currently lose_sum: 0.5896930694580078
time_elpased: 1.442
#iterations: 506
currently lose_sum: 0.7070692777633667
time_elpased: 1.379
#iterations: 507
currently lose_sum: 0.6792919039726257
time_elpased: 1.395
#iterations: 508
currently lose_sum: 0.5909153819084167
time_elpased: 1.382
#iterations: 509
currently lose_sum: 0.6366862058639526
time_elpased: 1.395
#iterations: 510
currently lose_sum: 0.585231363773346
time_elpased: 1.394
#iterations: 511
currently lose_sum: 0.610957145690918
time_elpased: 1.407
#iterations: 512
currently lose_sum: 0.5298517346382141
time_elpased: 1.38
#iterations: 513
currently lose_sum: 0.611884355545044
time_elpased: 1.398
#iterations: 514
currently lose_sum: 0.6401070356369019
time_elpased: 1.383
#iterations: 515
currently lose_sum: 0.6019303202629089
time_elpased: 1.381
#iterations: 516
currently lose_sum: 0.7107217907905579
time_elpased: 1.364
#iterations: 517
currently lose_sum: 0.7170551419258118
time_elpased: 1.396
#iterations: 518
currently lose_sum: 0.6361618638038635
time_elpased: 1.383
#iterations: 519
currently lose_sum: 0.595105767250061
time_elpased: 1.387
start validation test
0.600641025641
0.618631732169
0.540712468193
0.577053632043
0.601105588102
26.921
#iterations: 520
currently lose_sum: 0.6467350721359253
time_elpased: 1.393
#iterations: 521
currently lose_sum: 0.6450420618057251
time_elpased: 1.382
#iterations: 522
currently lose_sum: 0.6699947714805603
time_elpased: 1.396
#iterations: 523
currently lose_sum: 0.6387308239936829
time_elpased: 1.419
#iterations: 524
currently lose_sum: 0.6968268156051636
time_elpased: 1.401
#iterations: 525
currently lose_sum: 0.6952966451644897
time_elpased: 1.379
#iterations: 526
currently lose_sum: 0.6334108114242554
time_elpased: 1.369
#iterations: 527
currently lose_sum: 0.6640620231628418
time_elpased: 1.407
#iterations: 528
currently lose_sum: 0.6552214026451111
time_elpased: 1.369
#iterations: 529
currently lose_sum: 0.6423400640487671
time_elpased: 1.385
#iterations: 530
currently lose_sum: 0.6464484930038452
time_elpased: 1.377
#iterations: 531
currently lose_sum: 0.6471301913261414
time_elpased: 1.378
#iterations: 532
currently lose_sum: 0.7082422971725464
time_elpased: 1.397
#iterations: 533
currently lose_sum: 0.5460578799247742
time_elpased: 1.378
#iterations: 534
currently lose_sum: 0.6581634879112244
time_elpased: 1.444
#iterations: 535
currently lose_sum: 0.7000508308410645
time_elpased: 1.386
#iterations: 536
currently lose_sum: 0.6058658361434937
time_elpased: 1.391
#iterations: 537
currently lose_sum: 0.6314481496810913
time_elpased: 1.399
#iterations: 538
currently lose_sum: 0.6269957423210144
time_elpased: 1.401
#iterations: 539
currently lose_sum: 0.6608463525772095
time_elpased: 1.391
start validation test
0.596153846154
0.591764705882
0.639949109415
0.614914425428
0.595814347989
26.929
#iterations: 540
currently lose_sum: 0.6764139533042908
time_elpased: 1.397
#iterations: 541
currently lose_sum: 0.6041346788406372
time_elpased: 1.403
#iterations: 542
currently lose_sum: 0.6854077577590942
time_elpased: 1.405
#iterations: 543
currently lose_sum: 0.7195934057235718
time_elpased: 1.385
#iterations: 544
currently lose_sum: 0.6095531582832336
time_elpased: 1.392
#iterations: 545
currently lose_sum: 0.7312353253364563
time_elpased: 1.41
#iterations: 546
currently lose_sum: 0.7201379537582397
time_elpased: 1.387
#iterations: 547
currently lose_sum: 0.6622223854064941
time_elpased: 1.406
#iterations: 548
currently lose_sum: 0.7409605979919434
time_elpased: 1.398
#iterations: 549
currently lose_sum: 0.6421757936477661
time_elpased: 1.402
#iterations: 550
currently lose_sum: 0.631636917591095
time_elpased: 1.418
#iterations: 551
currently lose_sum: 0.6795341372489929
time_elpased: 1.412
#iterations: 552
currently lose_sum: 0.6660997271537781
time_elpased: 1.371
#iterations: 553
currently lose_sum: 0.7143779993057251
time_elpased: 1.444
#iterations: 554
currently lose_sum: 0.6256621479988098
time_elpased: 1.392
#iterations: 555
currently lose_sum: 0.6772676706314087
time_elpased: 1.397
#iterations: 556
currently lose_sum: 0.7430031299591064
time_elpased: 1.419
#iterations: 557
currently lose_sum: 0.5868245959281921
time_elpased: 1.382
#iterations: 558
currently lose_sum: 0.619987428188324
time_elpased: 1.388
#iterations: 559
currently lose_sum: 0.5642693638801575
time_elpased: 1.389
start validation test
0.605128205128
0.622478386167
0.549618320611
0.583783783784
0.605558514311
27.425
#iterations: 560
currently lose_sum: 0.6224597096443176
time_elpased: 1.4
#iterations: 561
currently lose_sum: 0.573788046836853
time_elpased: 1.395
#iterations: 562
currently lose_sum: 0.6259872913360596
time_elpased: 1.408
#iterations: 563
currently lose_sum: 0.663079023361206
time_elpased: 1.412
#iterations: 564
currently lose_sum: 0.612838089466095
time_elpased: 1.399
#iterations: 565
currently lose_sum: 0.6586901545524597
time_elpased: 1.409
#iterations: 566
currently lose_sum: 0.6466387510299683
time_elpased: 1.387
#iterations: 567
currently lose_sum: 0.6694661974906921
time_elpased: 1.399
#iterations: 568
currently lose_sum: 0.6447218656539917
time_elpased: 1.387
#iterations: 569
currently lose_sum: 0.6090545058250427
time_elpased: 1.401
#iterations: 570
currently lose_sum: 0.6564552783966064
time_elpased: 1.4
#iterations: 571
currently lose_sum: 0.602790117263794
time_elpased: 1.389
#iterations: 572
currently lose_sum: 0.6920744776725769
time_elpased: 1.4
#iterations: 573
currently lose_sum: 0.6283963322639465
time_elpased: 1.398
#iterations: 574
currently lose_sum: 0.6737505197525024
time_elpased: 1.38
#iterations: 575
currently lose_sum: 0.6594894528388977
time_elpased: 1.408
#iterations: 576
currently lose_sum: 0.664311408996582
time_elpased: 1.413
#iterations: 577
currently lose_sum: 0.6455563306808472
time_elpased: 1.403
#iterations: 578
currently lose_sum: 0.620730996131897
time_elpased: 1.393
#iterations: 579
currently lose_sum: 0.6613114476203918
time_elpased: 1.398
start validation test
0.597435897436
0.591860465116
0.647582697201
0.618469015796
0.597047162554
27.044
#iterations: 580
currently lose_sum: 0.6267362833023071
time_elpased: 1.433
#iterations: 581
currently lose_sum: 0.6600960493087769
time_elpased: 1.407
#iterations: 582
currently lose_sum: 0.6115346550941467
time_elpased: 1.399
#iterations: 583
currently lose_sum: 0.6764861345291138
time_elpased: 1.406
#iterations: 584
currently lose_sum: 0.5881174802780151
time_elpased: 1.431
#iterations: 585
currently lose_sum: 0.557030975818634
time_elpased: 1.397
#iterations: 586
currently lose_sum: 0.6714766025543213
time_elpased: 1.379
#iterations: 587
currently lose_sum: 0.6237084269523621
time_elpased: 1.414
#iterations: 588
currently lose_sum: 0.6025198101997375
time_elpased: 1.383
#iterations: 589
currently lose_sum: 0.6438786387443542
time_elpased: 1.385
#iterations: 590
currently lose_sum: 0.6618431806564331
time_elpased: 1.408
#iterations: 591
currently lose_sum: 0.6529760360717773
time_elpased: 1.392
#iterations: 592
currently lose_sum: 0.7128638625144958
time_elpased: 1.405
#iterations: 593
currently lose_sum: 0.6618276238441467
time_elpased: 1.383
#iterations: 594
currently lose_sum: 0.6529823541641235
time_elpased: 1.396
#iterations: 595
currently lose_sum: 0.6459262371063232
time_elpased: 1.436
#iterations: 596
currently lose_sum: 0.6116335988044739
time_elpased: 1.391
#iterations: 597
currently lose_sum: 0.5329734683036804
time_elpased: 1.397
#iterations: 598
currently lose_sum: 0.649554967880249
time_elpased: 1.383
#iterations: 599
currently lose_sum: 0.6621915102005005
time_elpased: 1.397
start validation test
0.589102564103
0.58559622196
0.631043256997
0.607470912431
0.588777442452
27.232
acc: 0.576
pre: 0.574
rec: 0.617
F1: 0.595
auc: 0.576
