start to construct computing graph
graph construct over
2359
epochs start
#iterations: 0
currently lose_sum: 0.6806443333625793
time_elpased: 2.178
#iterations: 1
currently lose_sum: 0.6811143159866333
time_elpased: 2.064
#iterations: 2
currently lose_sum: 0.6681292653083801
time_elpased: 1.976
#iterations: 3
currently lose_sum: 0.6952744722366333
time_elpased: 2.029
#iterations: 4
currently lose_sum: 0.6888937950134277
time_elpased: 1.987
#iterations: 5
currently lose_sum: 0.6864178776741028
time_elpased: 1.981
#iterations: 6
currently lose_sum: 0.6816132664680481
time_elpased: 1.999
#iterations: 7
currently lose_sum: 0.681363582611084
time_elpased: 2.052
#iterations: 8
currently lose_sum: 0.6872342824935913
time_elpased: 2.013
#iterations: 9
currently lose_sum: 0.709524929523468
time_elpased: 2.043
#iterations: 10
currently lose_sum: 0.6813278198242188
time_elpased: 2.037
#iterations: 11
currently lose_sum: 0.674781858921051
time_elpased: 2.013
#iterations: 12
currently lose_sum: 0.6793810129165649
time_elpased: 2.02
#iterations: 13
currently lose_sum: 0.689736545085907
time_elpased: 2.047
#iterations: 14
currently lose_sum: 0.7008879780769348
time_elpased: 2.032
#iterations: 15
currently lose_sum: 0.7115949392318726
time_elpased: 2.019
#iterations: 16
currently lose_sum: 0.6953167915344238
time_elpased: 2.006
#iterations: 17
currently lose_sum: 0.6589598655700684
time_elpased: 1.954
#iterations: 18
currently lose_sum: 0.7011522054672241
time_elpased: 1.862
#iterations: 19
currently lose_sum: 0.6455442905426025
time_elpased: 1.801
start validation test
0.549358974359
0.558823529412
0.506988564168
0.53164556962
0.549742665008
26.879
#iterations: 20
currently lose_sum: 0.6737097501754761
time_elpased: 1.471
#iterations: 21
currently lose_sum: 0.6658393740653992
time_elpased: 1.472
#iterations: 22
currently lose_sum: 0.7016701102256775
time_elpased: 1.478
#iterations: 23
currently lose_sum: 0.6460586786270142
time_elpased: 1.483
#iterations: 24
currently lose_sum: 0.7232416868209839
time_elpased: 1.44
#iterations: 25
currently lose_sum: 0.6722822189331055
time_elpased: 1.451
#iterations: 26
currently lose_sum: 0.7042056918144226
time_elpased: 1.446
#iterations: 27
currently lose_sum: 0.6608418226242065
time_elpased: 1.452
#iterations: 28
currently lose_sum: 0.6967429518699646
time_elpased: 1.415
#iterations: 29
currently lose_sum: 0.6809550523757935
time_elpased: 1.447
#iterations: 30
currently lose_sum: 0.621573805809021
time_elpased: 1.47
#iterations: 31
currently lose_sum: 0.6709054708480835
time_elpased: 1.421
#iterations: 32
currently lose_sum: 0.7186062932014465
time_elpased: 1.434
#iterations: 33
currently lose_sum: 0.6495006680488586
time_elpased: 1.416
#iterations: 34
currently lose_sum: 0.6784806251525879
time_elpased: 1.446
#iterations: 35
currently lose_sum: 0.7420718669891357
time_elpased: 1.434
#iterations: 36
currently lose_sum: 0.671252965927124
time_elpased: 1.413
#iterations: 37
currently lose_sum: 0.6759249567985535
time_elpased: 1.422
#iterations: 38
currently lose_sum: 0.6766117811203003
time_elpased: 1.419
#iterations: 39
currently lose_sum: 0.6522570848464966
time_elpased: 1.418
start validation test
0.542948717949
0.557632398754
0.454891994917
0.501049685094
0.543746126825
26.527
#iterations: 40
currently lose_sum: 0.7620586156845093
time_elpased: 1.407
#iterations: 41
currently lose_sum: 0.6937156319618225
time_elpased: 1.421
#iterations: 42
currently lose_sum: 0.6922890543937683
time_elpased: 1.41
#iterations: 43
currently lose_sum: 0.6832548379898071
time_elpased: 1.419
#iterations: 44
currently lose_sum: 0.6305833458900452
time_elpased: 1.465
#iterations: 45
currently lose_sum: 0.6401240229606628
time_elpased: 1.468
#iterations: 46
currently lose_sum: 0.7001922726631165
time_elpased: 1.426
#iterations: 47
currently lose_sum: 0.672302782535553
time_elpased: 1.523
#iterations: 48
currently lose_sum: 0.6831905245780945
time_elpased: 1.421
#iterations: 49
currently lose_sum: 0.6975809931755066
time_elpased: 1.464
#iterations: 50
currently lose_sum: 0.6398015022277832
time_elpased: 1.574
#iterations: 51
currently lose_sum: 0.6829975247383118
time_elpased: 1.481
#iterations: 52
currently lose_sum: 0.6424641013145447
time_elpased: 1.458
#iterations: 53
currently lose_sum: 0.6537776589393616
time_elpased: 1.465
#iterations: 54
currently lose_sum: 0.6604572534561157
time_elpased: 1.455
#iterations: 55
currently lose_sum: 0.673984169960022
time_elpased: 1.478
#iterations: 56
currently lose_sum: 0.6341425776481628
time_elpased: 1.487
#iterations: 57
currently lose_sum: 0.6787995100021362
time_elpased: 1.468
#iterations: 58
currently lose_sum: 0.6892552375793457
time_elpased: 1.518
#iterations: 59
currently lose_sum: 0.6602495312690735
time_elpased: 1.457
start validation test
0.56858974359
0.609195402299
0.404066073698
0.485867074102
0.570079608647
26.526
#iterations: 60
currently lose_sum: 0.6136834025382996
time_elpased: 1.452
#iterations: 61
currently lose_sum: 0.7036540508270264
time_elpased: 1.459
#iterations: 62
currently lose_sum: 0.6438978314399719
time_elpased: 1.463
#iterations: 63
currently lose_sum: 0.6500957608222961
time_elpased: 1.443
#iterations: 64
currently lose_sum: 0.7175304293632507
time_elpased: 1.461
#iterations: 65
currently lose_sum: 0.7127723693847656
time_elpased: 1.444
#iterations: 66
currently lose_sum: 0.6692711114883423
time_elpased: 1.455
#iterations: 67
currently lose_sum: 0.6926815509796143
time_elpased: 1.497
#iterations: 68
currently lose_sum: 0.6437660455703735
time_elpased: 1.466
#iterations: 69
currently lose_sum: 0.6842376589775085
time_elpased: 1.443
#iterations: 70
currently lose_sum: 0.6537813544273376
time_elpased: 1.451
#iterations: 71
currently lose_sum: 0.6942353844642639
time_elpased: 1.453
#iterations: 72
currently lose_sum: 0.6855723261833191
time_elpased: 1.469
#iterations: 73
currently lose_sum: 0.7297188639640808
time_elpased: 1.463
#iterations: 74
currently lose_sum: 0.643811821937561
time_elpased: 1.472
#iterations: 75
currently lose_sum: 0.6306699514389038
time_elpased: 1.451
#iterations: 76
currently lose_sum: 0.7007876634597778
time_elpased: 1.481
#iterations: 77
currently lose_sum: 0.6269963979721069
time_elpased: 1.474
#iterations: 78
currently lose_sum: 0.6322427988052368
time_elpased: 1.453
#iterations: 79
currently lose_sum: 0.6784623265266418
time_elpased: 1.468
start validation test
0.551282051282
0.587878787879
0.369758576874
0.453978159126
0.552925860235
26.420
#iterations: 80
currently lose_sum: 0.6426481008529663
time_elpased: 1.675
#iterations: 81
currently lose_sum: 0.6695624589920044
time_elpased: 1.45
#iterations: 82
currently lose_sum: 0.668571949005127
time_elpased: 1.475
#iterations: 83
currently lose_sum: 0.6087039709091187
time_elpased: 1.44
#iterations: 84
currently lose_sum: 0.6143398880958557
time_elpased: 1.467
#iterations: 85
currently lose_sum: 0.6089499592781067
time_elpased: 1.489
#iterations: 86
currently lose_sum: 0.6123946905136108
time_elpased: 1.455
#iterations: 87
currently lose_sum: 0.693200409412384
time_elpased: 1.465
#iterations: 88
currently lose_sum: 0.6701960563659668
time_elpased: 1.445
#iterations: 89
currently lose_sum: 0.6393669843673706
time_elpased: 1.446
#iterations: 90
currently lose_sum: 0.6836851835250854
time_elpased: 1.444
#iterations: 91
currently lose_sum: 0.6381320953369141
time_elpased: 1.461
#iterations: 92
currently lose_sum: 0.6430706977844238
time_elpased: 1.462
#iterations: 93
currently lose_sum: 0.6724666357040405
time_elpased: 1.468
#iterations: 94
currently lose_sum: 0.6483263373374939
time_elpased: 1.468
#iterations: 95
currently lose_sum: 0.675409197807312
time_elpased: 1.475
#iterations: 96
currently lose_sum: 0.7067159414291382
time_elpased: 1.476
#iterations: 97
currently lose_sum: 0.6466542482376099
time_elpased: 1.466
#iterations: 98
currently lose_sum: 0.6429608464241028
time_elpased: 1.478
#iterations: 99
currently lose_sum: 0.6952722668647766
time_elpased: 1.477
start validation test
0.555128205128
0.545189504373
0.712833545108
0.617841409692
0.553700084326
26.695
#iterations: 100
currently lose_sum: 0.6832417845726013
time_elpased: 1.547
#iterations: 101
currently lose_sum: 0.6603448390960693
time_elpased: 1.534
#iterations: 102
currently lose_sum: 0.6956689953804016
time_elpased: 1.538
#iterations: 103
currently lose_sum: 0.7104871869087219
time_elpased: 1.529
#iterations: 104
currently lose_sum: 0.6558192372322083
time_elpased: 1.546
#iterations: 105
currently lose_sum: 0.7213316559791565
time_elpased: 1.495
#iterations: 106
currently lose_sum: 0.6737767457962036
time_elpased: 1.535
#iterations: 107
currently lose_sum: 0.6580899953842163
time_elpased: 1.542
#iterations: 108
currently lose_sum: 0.7637563943862915
time_elpased: 1.595
#iterations: 109
currently lose_sum: 0.7312667369842529
time_elpased: 1.537
#iterations: 110
currently lose_sum: 0.6191163063049316
time_elpased: 1.536
#iterations: 111
currently lose_sum: 0.6545366048812866
time_elpased: 1.561
#iterations: 112
currently lose_sum: 0.6662701368331909
time_elpased: 1.554
#iterations: 113
currently lose_sum: 0.653298556804657
time_elpased: 1.546
#iterations: 114
currently lose_sum: 0.6437479853630066
time_elpased: 1.562
#iterations: 115
currently lose_sum: 0.6698484420776367
time_elpased: 1.577
#iterations: 116
currently lose_sum: 0.6574314832687378
time_elpased: 1.55
#iterations: 117
currently lose_sum: 0.6116845011711121
time_elpased: 1.515
#iterations: 118
currently lose_sum: 0.662495493888855
time_elpased: 1.549
#iterations: 119
currently lose_sum: 0.6605830192565918
time_elpased: 1.555
start validation test
0.569871794872
0.564159292035
0.648030495553
0.6031933767
0.569164018798
26.319
#iterations: 120
currently lose_sum: 0.6992397308349609
time_elpased: 1.548
#iterations: 121
currently lose_sum: 0.6928497552871704
time_elpased: 1.541
#iterations: 122
currently lose_sum: 0.7020517587661743
time_elpased: 1.563
#iterations: 123
currently lose_sum: 0.6479140520095825
time_elpased: 1.551
#iterations: 124
currently lose_sum: 0.6713186502456665
time_elpased: 1.571
#iterations: 125
currently lose_sum: 0.6642112731933594
time_elpased: 1.546
#iterations: 126
currently lose_sum: 0.6863001585006714
time_elpased: 1.545
#iterations: 127
currently lose_sum: 0.5902003645896912
time_elpased: 1.55
#iterations: 128
currently lose_sum: 0.6275705099105835
time_elpased: 1.505
#iterations: 129
currently lose_sum: 0.6896266341209412
time_elpased: 1.544
#iterations: 130
currently lose_sum: 0.6455796957015991
time_elpased: 1.549
#iterations: 131
currently lose_sum: 0.6747064590454102
time_elpased: 1.58
#iterations: 132
currently lose_sum: 0.7136173248291016
time_elpased: 1.527
#iterations: 133
currently lose_sum: 0.6173161268234253
time_elpased: 1.559
#iterations: 134
currently lose_sum: 0.5933874845504761
time_elpased: 1.53
#iterations: 135
currently lose_sum: 0.6430262923240662
time_elpased: 1.584
#iterations: 136
currently lose_sum: 0.7259696125984192
time_elpased: 1.53
#iterations: 137
currently lose_sum: 0.7245957851409912
time_elpased: 1.571
#iterations: 138
currently lose_sum: 0.6444749236106873
time_elpased: 1.65
#iterations: 139
currently lose_sum: 0.6642767190933228
time_elpased: 1.565
start validation test
0.567307692308
0.561810154525
0.646759847522
0.601299468399
0.566588203192
26.195
#iterations: 140
currently lose_sum: 0.647853672504425
time_elpased: 1.557
#iterations: 141
currently lose_sum: 0.7039287090301514
time_elpased: 1.65
#iterations: 142
currently lose_sum: 0.651581346988678
time_elpased: 1.565
#iterations: 143
currently lose_sum: 0.6650424003601074
time_elpased: 1.608
#iterations: 144
currently lose_sum: 0.686683177947998
time_elpased: 1.572
#iterations: 145
currently lose_sum: 0.6714287996292114
time_elpased: 1.57
#iterations: 146
currently lose_sum: 0.7271419763565063
time_elpased: 1.586
#iterations: 147
currently lose_sum: 0.6826111078262329
time_elpased: 1.585
#iterations: 148
currently lose_sum: 0.6973633170127869
time_elpased: 1.571
#iterations: 149
currently lose_sum: 0.6560672521591187
time_elpased: 1.566
#iterations: 150
currently lose_sum: 0.6889498829841614
time_elpased: 1.573
#iterations: 151
currently lose_sum: 0.5755278468132019
time_elpased: 1.644
#iterations: 152
currently lose_sum: 0.6105374097824097
time_elpased: 1.626
#iterations: 153
currently lose_sum: 0.6418312191963196
time_elpased: 1.586
#iterations: 154
currently lose_sum: 0.6760753393173218
time_elpased: 1.6
#iterations: 155
currently lose_sum: 0.65931236743927
time_elpased: 1.559
#iterations: 156
currently lose_sum: 0.6539582014083862
time_elpased: 1.707
#iterations: 157
currently lose_sum: 0.6238824129104614
time_elpased: 1.598
#iterations: 158
currently lose_sum: 0.695551872253418
time_elpased: 1.634
#iterations: 159
currently lose_sum: 0.6425153017044067
time_elpased: 1.586
start validation test
0.580128205128
0.581481481481
0.598475222363
0.589855979962
0.579962061376
26.065
#iterations: 160
currently lose_sum: 0.6413478851318359
time_elpased: 1.589
#iterations: 161
currently lose_sum: 0.6451975107192993
time_elpased: 1.579
#iterations: 162
currently lose_sum: 0.6205587387084961
time_elpased: 1.591
#iterations: 163
currently lose_sum: 0.6189531683921814
time_elpased: 1.61
#iterations: 164
currently lose_sum: 0.6287879943847656
time_elpased: 1.565
#iterations: 165
currently lose_sum: 0.5945755243301392
time_elpased: 1.607
#iterations: 166
currently lose_sum: 0.6666215062141418
time_elpased: 1.608
#iterations: 167
currently lose_sum: 0.6846162676811218
time_elpased: 1.622
#iterations: 168
currently lose_sum: 0.6016968488693237
time_elpased: 1.641
#iterations: 169
currently lose_sum: 0.7125940322875977
time_elpased: 1.64
#iterations: 170
currently lose_sum: 0.6610329151153564
time_elpased: 1.653
#iterations: 171
currently lose_sum: 0.6872230172157288
time_elpased: 1.66
#iterations: 172
currently lose_sum: 0.5962094068527222
time_elpased: 1.648
#iterations: 173
currently lose_sum: 0.666272759437561
time_elpased: 1.6
#iterations: 174
currently lose_sum: 0.6621411442756653
time_elpased: 1.667
#iterations: 175
currently lose_sum: 0.6627804636955261
time_elpased: 1.649
#iterations: 176
currently lose_sum: 0.6425564885139465
time_elpased: 1.802
#iterations: 177
currently lose_sum: 0.6517700552940369
time_elpased: 1.574
#iterations: 178
currently lose_sum: 0.6642473936080933
time_elpased: 1.584
#iterations: 179
currently lose_sum: 0.6554406881332397
time_elpased: 1.652
start validation test
0.549358974359
0.586419753086
0.362134688691
0.44776119403
0.551054407735
26.481
#iterations: 180
currently lose_sum: 0.6991047263145447
time_elpased: 1.622
#iterations: 181
currently lose_sum: 0.661626935005188
time_elpased: 1.668
#iterations: 182
currently lose_sum: 0.6592888236045837
time_elpased: 1.654
#iterations: 183
currently lose_sum: 0.6166680455207825
time_elpased: 1.701
#iterations: 184
currently lose_sum: 0.6459475755691528
time_elpased: 1.66
#iterations: 185
currently lose_sum: 0.6114468574523926
time_elpased: 1.689
#iterations: 186
currently lose_sum: 0.6346665620803833
time_elpased: 1.658
#iterations: 187
currently lose_sum: 0.6308267712593079
time_elpased: 1.643
#iterations: 188
currently lose_sum: 0.6335052251815796
time_elpased: 1.547
#iterations: 189
currently lose_sum: 0.6734490394592285
time_elpased: 1.558
#iterations: 190
currently lose_sum: 0.6675885319709778
time_elpased: 1.532
#iterations: 191
currently lose_sum: 0.705120325088501
time_elpased: 1.546
#iterations: 192
currently lose_sum: 0.7313116192817688
time_elpased: 1.548
#iterations: 193
currently lose_sum: 0.6539325714111328
time_elpased: 1.547
#iterations: 194
currently lose_sum: 0.702648937702179
time_elpased: 1.559
#iterations: 195
currently lose_sum: 0.6059881448745728
time_elpased: 1.572
#iterations: 196
currently lose_sum: 0.6764049530029297
time_elpased: 1.562
#iterations: 197
currently lose_sum: 0.5419551134109497
time_elpased: 1.568
#iterations: 198
currently lose_sum: 0.6726376414299011
time_elpased: 1.597
#iterations: 199
currently lose_sum: 0.5756852030754089
time_elpased: 1.555
start validation test
0.573076923077
0.559960356789
0.71791613723
0.629175946548
0.571765313117
26.041
#iterations: 200
currently lose_sum: 0.5938707590103149
time_elpased: 1.537
#iterations: 201
currently lose_sum: 0.6086782813072205
time_elpased: 1.554
#iterations: 202
currently lose_sum: 0.6661286354064941
time_elpased: 1.556
#iterations: 203
currently lose_sum: 0.6278127431869507
time_elpased: 1.554
#iterations: 204
currently lose_sum: 0.6881452798843384
time_elpased: 1.543
#iterations: 205
currently lose_sum: 0.6274036169052124
time_elpased: 1.547
#iterations: 206
currently lose_sum: 0.6375412940979004
time_elpased: 1.508
#iterations: 207
currently lose_sum: 0.6306915283203125
time_elpased: 1.683
#iterations: 208
currently lose_sum: 0.6161278486251831
time_elpased: 1.537
#iterations: 209
currently lose_sum: 0.6369447708129883
time_elpased: 1.613
#iterations: 210
currently lose_sum: 0.710809051990509
time_elpased: 1.553
#iterations: 211
currently lose_sum: 0.6664344668388367
time_elpased: 1.495
#iterations: 212
currently lose_sum: 0.6832357048988342
time_elpased: 1.532
#iterations: 213
currently lose_sum: 0.6632254719734192
time_elpased: 1.504
#iterations: 214
currently lose_sum: 0.6271894574165344
time_elpased: 1.563
#iterations: 215
currently lose_sum: 0.6305611729621887
time_elpased: 1.548
#iterations: 216
currently lose_sum: 0.6120749115943909
time_elpased: 1.551
#iterations: 217
currently lose_sum: 0.660615086555481
time_elpased: 1.543
#iterations: 218
currently lose_sum: 0.6466676592826843
time_elpased: 1.629
#iterations: 219
currently lose_sum: 0.6316882371902466
time_elpased: 1.657
start validation test
0.578846153846
0.578692493947
0.607369758577
0.592684438934
0.578587854709
25.964
#iterations: 220
currently lose_sum: 0.6278843283653259
time_elpased: 1.54
#iterations: 221
currently lose_sum: 0.6629067659378052
time_elpased: 1.513
#iterations: 222
currently lose_sum: 0.6585521101951599
time_elpased: 1.518
#iterations: 223
currently lose_sum: 0.6462886929512024
time_elpased: 1.525
#iterations: 224
currently lose_sum: 0.6250441670417786
time_elpased: 1.547
#iterations: 225
currently lose_sum: 0.6505363583564758
time_elpased: 1.558
#iterations: 226
currently lose_sum: 0.6717768311500549
time_elpased: 1.614
#iterations: 227
currently lose_sum: 0.5927993059158325
time_elpased: 1.57
#iterations: 228
currently lose_sum: 0.6948583722114563
time_elpased: 1.557
#iterations: 229
currently lose_sum: 0.6350005865097046
time_elpased: 1.58
#iterations: 230
currently lose_sum: 0.5921681523323059
time_elpased: 1.589
#iterations: 231
currently lose_sum: 0.6195822954177856
time_elpased: 1.578
#iterations: 232
currently lose_sum: 0.5712419748306274
time_elpased: 1.547
#iterations: 233
currently lose_sum: 0.6289710998535156
time_elpased: 1.623
#iterations: 234
currently lose_sum: 0.6697257161140442
time_elpased: 1.583
#iterations: 235
currently lose_sum: 0.6576533317565918
time_elpased: 1.589
#iterations: 236
currently lose_sum: 0.6102172136306763
time_elpased: 1.535
#iterations: 237
currently lose_sum: 0.6455681920051575
time_elpased: 1.546
#iterations: 238
currently lose_sum: 0.6911042928695679
time_elpased: 1.53
#iterations: 239
currently lose_sum: 0.6261323690414429
time_elpased: 1.489
start validation test
0.585897435897
0.568914956012
0.739517153748
0.643093922652
0.584506312967
25.822
#iterations: 240
currently lose_sum: 0.6597931981086731
time_elpased: 1.482
#iterations: 241
currently lose_sum: 0.6143965721130371
time_elpased: 1.502
#iterations: 242
currently lose_sum: 0.7012107968330383
time_elpased: 1.5
#iterations: 243
currently lose_sum: 0.6477023363113403
time_elpased: 1.458
#iterations: 244
currently lose_sum: 0.7496007084846497
time_elpased: 1.466
#iterations: 245
currently lose_sum: 0.6299569010734558
time_elpased: 1.476
#iterations: 246
currently lose_sum: 0.5763362646102905
time_elpased: 1.456
#iterations: 247
currently lose_sum: 0.6722575426101685
time_elpased: 1.439
#iterations: 248
currently lose_sum: 0.6484648585319519
time_elpased: 1.455
#iterations: 249
currently lose_sum: 0.5905483961105347
time_elpased: 1.491
#iterations: 250
currently lose_sum: 0.5446546673774719
time_elpased: 1.471
#iterations: 251
currently lose_sum: 0.6808494925498962
time_elpased: 1.48
#iterations: 252
currently lose_sum: 0.7082508206367493
time_elpased: 1.451
#iterations: 253
currently lose_sum: 0.6610139608383179
time_elpased: 1.465
#iterations: 254
currently lose_sum: 0.6504117250442505
time_elpased: 1.524
#iterations: 255
currently lose_sum: 0.6707199811935425
time_elpased: 1.47
#iterations: 256
currently lose_sum: 0.626010000705719
time_elpased: 1.464
#iterations: 257
currently lose_sum: 0.6261317133903503
time_elpased: 1.465
#iterations: 258
currently lose_sum: 0.648466169834137
time_elpased: 1.575
#iterations: 259
currently lose_sum: 0.6770807504653931
time_elpased: 1.444
start validation test
0.585897435897
0.590500641849
0.584498094028
0.58748403576
0.585910107816
26.145
#iterations: 260
currently lose_sum: 0.5780526399612427
time_elpased: 1.47
#iterations: 261
currently lose_sum: 0.5915900468826294
time_elpased: 1.476
#iterations: 262
currently lose_sum: 0.7160742878913879
time_elpased: 1.481
#iterations: 263
currently lose_sum: 0.6211277842521667
time_elpased: 1.481
#iterations: 264
currently lose_sum: 0.5938886404037476
time_elpased: 1.462
#iterations: 265
currently lose_sum: 0.7179105877876282
time_elpased: 1.478
#iterations: 266
currently lose_sum: 0.6237796545028687
time_elpased: 1.489
#iterations: 267
currently lose_sum: 0.6186788082122803
time_elpased: 1.471
#iterations: 268
currently lose_sum: 0.714354395866394
time_elpased: 1.499
#iterations: 269
currently lose_sum: 0.608841061592102
time_elpased: 1.471
#iterations: 270
currently lose_sum: 0.685103714466095
time_elpased: 1.493
#iterations: 271
currently lose_sum: 0.6063947081565857
time_elpased: 1.479
#iterations: 272
currently lose_sum: 0.5814392566680908
time_elpased: 1.462
#iterations: 273
currently lose_sum: 0.6473159790039062
time_elpased: 1.478
#iterations: 274
currently lose_sum: 0.7038590908050537
time_elpased: 1.46
#iterations: 275
currently lose_sum: 0.6645423173904419
time_elpased: 1.464
#iterations: 276
currently lose_sum: 0.6390267610549927
time_elpased: 1.491
#iterations: 277
currently lose_sum: 0.6379192471504211
time_elpased: 1.445
#iterations: 278
currently lose_sum: 0.6018297672271729
time_elpased: 1.487
#iterations: 279
currently lose_sum: 0.6156691312789917
time_elpased: 1.486
start validation test
0.578846153846
0.577565632458
0.61499364676
0.595692307692
0.578518815618
25.830
#iterations: 280
currently lose_sum: 0.6610285043716431
time_elpased: 1.478
#iterations: 281
currently lose_sum: 0.6147787570953369
time_elpased: 1.471
#iterations: 282
currently lose_sum: 0.6444875597953796
time_elpased: 1.449
#iterations: 283
currently lose_sum: 0.6569801568984985
time_elpased: 1.456
#iterations: 284
currently lose_sum: 0.6635476350784302
time_elpased: 1.449
#iterations: 285
currently lose_sum: 0.7086440324783325
time_elpased: 1.453
#iterations: 286
currently lose_sum: 0.6370333433151245
time_elpased: 1.454
#iterations: 287
currently lose_sum: 0.5771961212158203
time_elpased: 1.47
#iterations: 288
currently lose_sum: 0.6142539978027344
time_elpased: 1.466
#iterations: 289
currently lose_sum: 0.6079494953155518
time_elpased: 1.427
#iterations: 290
currently lose_sum: 0.6470015645027161
time_elpased: 1.462
#iterations: 291
currently lose_sum: 0.6090192794799805
time_elpased: 1.455
#iterations: 292
currently lose_sum: 0.6434568166732788
time_elpased: 1.439
#iterations: 293
currently lose_sum: 0.6645494699478149
time_elpased: 1.449
#iterations: 294
currently lose_sum: 0.5816715955734253
time_elpased: 1.432
#iterations: 295
currently lose_sum: 0.6713482737541199
time_elpased: 1.457
#iterations: 296
currently lose_sum: 0.5999610424041748
time_elpased: 1.411
#iterations: 297
currently lose_sum: 0.6917208433151245
time_elpased: 1.452
#iterations: 298
currently lose_sum: 0.6368135213851929
time_elpased: 1.459
#iterations: 299
currently lose_sum: 0.6307405233383179
time_elpased: 1.412
start validation test
0.578846153846
0.575934579439
0.626429479034
0.600121728545
0.578415256982
25.801
#iterations: 300
currently lose_sum: 0.7068113088607788
time_elpased: 1.461
#iterations: 301
currently lose_sum: 0.6579586267471313
time_elpased: 1.489
#iterations: 302
currently lose_sum: 0.6669089794158936
time_elpased: 1.463
#iterations: 303
currently lose_sum: 0.5924508571624756
time_elpased: 1.483
#iterations: 304
currently lose_sum: 0.6341906785964966
time_elpased: 1.415
#iterations: 305
currently lose_sum: 0.5878192186355591
time_elpased: 1.471
#iterations: 306
currently lose_sum: 0.5753133893013
time_elpased: 1.455
#iterations: 307
currently lose_sum: 0.6808826923370361
time_elpased: 1.462
#iterations: 308
currently lose_sum: 0.6330362558364868
time_elpased: 1.46
#iterations: 309
currently lose_sum: 0.6428917050361633
time_elpased: 1.471
#iterations: 310
currently lose_sum: 0.6407607197761536
time_elpased: 1.481
#iterations: 311
currently lose_sum: 0.6682713031768799
time_elpased: 1.492
#iterations: 312
currently lose_sum: 0.7487503290176392
time_elpased: 1.468
#iterations: 313
currently lose_sum: 0.6440189480781555
time_elpased: 1.479
#iterations: 314
currently lose_sum: 0.5877289772033691
time_elpased: 1.471
#iterations: 315
currently lose_sum: 0.5941367149353027
time_elpased: 1.471
#iterations: 316
currently lose_sum: 0.6299492120742798
time_elpased: 1.438
#iterations: 317
currently lose_sum: 0.5843545794487
time_elpased: 1.468
#iterations: 318
currently lose_sum: 0.6132242679595947
time_elpased: 1.457
#iterations: 319
currently lose_sum: 0.5393460988998413
time_elpased: 1.463
start validation test
0.586538461538
0.577850877193
0.669631512071
0.620364920541
0.585786001831
25.865
#iterations: 320
currently lose_sum: 0.6494673490524292
time_elpased: 1.432
#iterations: 321
currently lose_sum: 0.6839577555656433
time_elpased: 1.457
#iterations: 322
currently lose_sum: 0.6645773649215698
time_elpased: 1.445
#iterations: 323
currently lose_sum: 0.6550399661064148
time_elpased: 1.453
#iterations: 324
currently lose_sum: 0.6918774843215942
time_elpased: 1.438
#iterations: 325
currently lose_sum: 0.5900626182556152
time_elpased: 1.442
#iterations: 326
currently lose_sum: 0.5917457342147827
time_elpased: 1.467
#iterations: 327
currently lose_sum: 0.666641354560852
time_elpased: 1.484
#iterations: 328
currently lose_sum: 0.7010124921798706
time_elpased: 1.451
#iterations: 329
currently lose_sum: 0.5973503589630127
time_elpased: 1.453
#iterations: 330
currently lose_sum: 0.6676572561264038
time_elpased: 1.461
#iterations: 331
currently lose_sum: 0.6705721020698547
time_elpased: 1.436
#iterations: 332
currently lose_sum: 0.6362508535385132
time_elpased: 1.456
#iterations: 333
currently lose_sum: 0.6050618886947632
time_elpased: 1.478
#iterations: 334
currently lose_sum: 0.6424455046653748
time_elpased: 1.458
#iterations: 335
currently lose_sum: 0.5626732707023621
time_elpased: 1.429
#iterations: 336
currently lose_sum: 0.627580463886261
time_elpased: 1.45
#iterations: 337
currently lose_sum: 0.6829038858413696
time_elpased: 1.468
#iterations: 338
currently lose_sum: 0.5499597787857056
time_elpased: 1.431
#iterations: 339
currently lose_sum: 0.6276914477348328
time_elpased: 1.458
start validation test
0.575
0.588068181818
0.526048284625
0.555331991952
0.575443288496
25.934
#iterations: 340
currently lose_sum: 0.5346758961677551
time_elpased: 1.463
#iterations: 341
currently lose_sum: 0.6584063768386841
time_elpased: 1.442
#iterations: 342
currently lose_sum: 0.6742401719093323
time_elpased: 1.465
#iterations: 343
currently lose_sum: 0.5266064405441284
time_elpased: 1.452
#iterations: 344
currently lose_sum: 0.5443644523620605
time_elpased: 1.429
#iterations: 345
currently lose_sum: 0.5885059237480164
time_elpased: 1.482
#iterations: 346
currently lose_sum: 0.6253345012664795
time_elpased: 1.479
#iterations: 347
currently lose_sum: 0.6128324270248413
time_elpased: 1.47
#iterations: 348
currently lose_sum: 0.6942922472953796
time_elpased: 1.47
#iterations: 349
currently lose_sum: 0.5469670295715332
time_elpased: 1.533
#iterations: 350
currently lose_sum: 0.6164647340774536
time_elpased: 1.432
#iterations: 351
currently lose_sum: 0.7316826581954956
time_elpased: 1.468
#iterations: 352
currently lose_sum: 0.6179034113883972
time_elpased: 1.457
#iterations: 353
currently lose_sum: 0.6401950120925903
time_elpased: 1.454
#iterations: 354
currently lose_sum: 0.7028845548629761
time_elpased: 1.475
#iterations: 355
currently lose_sum: 0.692505955696106
time_elpased: 1.477
#iterations: 356
currently lose_sum: 0.6319788694381714
time_elpased: 1.452
#iterations: 357
currently lose_sum: 0.6577719449996948
time_elpased: 1.462
#iterations: 358
currently lose_sum: 0.710521399974823
time_elpased: 1.428
#iterations: 359
currently lose_sum: 0.6799147725105286
time_elpased: 1.444
start validation test
0.589102564103
0.591708542714
0.598475222363
0.595072646873
0.589017688801
25.766
#iterations: 360
currently lose_sum: 0.6765580177307129
time_elpased: 1.445
#iterations: 361
currently lose_sum: 0.6600146293640137
time_elpased: 1.44
#iterations: 362
currently lose_sum: 0.6370016932487488
time_elpased: 1.445
#iterations: 363
currently lose_sum: 0.5808842182159424
time_elpased: 1.424
#iterations: 364
currently lose_sum: 0.6471913456916809
time_elpased: 1.442
#iterations: 365
currently lose_sum: 0.6863272786140442
time_elpased: 1.46
#iterations: 366
currently lose_sum: 0.710647463798523
time_elpased: 1.443
#iterations: 367
currently lose_sum: 0.5508025884628296
time_elpased: 1.429
#iterations: 368
currently lose_sum: 0.6302951574325562
time_elpased: 1.46
#iterations: 369
currently lose_sum: 0.6610872745513916
time_elpased: 1.434
#iterations: 370
currently lose_sum: 0.6244022250175476
time_elpased: 1.454
#iterations: 371
currently lose_sum: 0.5523064732551575
time_elpased: 1.458
#iterations: 372
currently lose_sum: 0.6458614468574524
time_elpased: 1.419
#iterations: 373
currently lose_sum: 0.6688318252563477
time_elpased: 1.453
#iterations: 374
currently lose_sum: 0.6096245646476746
time_elpased: 1.426
#iterations: 375
currently lose_sum: 0.6525261402130127
time_elpased: 1.432
#iterations: 376
currently lose_sum: 0.6018859148025513
time_elpased: 1.452
#iterations: 377
currently lose_sum: 0.585710883140564
time_elpased: 1.451
#iterations: 378
currently lose_sum: 0.6539902687072754
time_elpased: 1.443
#iterations: 379
currently lose_sum: 0.6402503252029419
time_elpased: 1.48
start validation test
0.591025641026
0.575328614762
0.722998729352
0.640765765766
0.589830541908
25.663
#iterations: 380
currently lose_sum: 0.6271941661834717
time_elpased: 1.479
#iterations: 381
currently lose_sum: 0.747051477432251
time_elpased: 1.477
#iterations: 382
currently lose_sum: 0.5863975286483765
time_elpased: 1.463
#iterations: 383
currently lose_sum: 0.6160078048706055
time_elpased: 1.446
#iterations: 384
currently lose_sum: 0.6417526006698608
time_elpased: 1.446
#iterations: 385
currently lose_sum: 0.5894415974617004
time_elpased: 1.424
#iterations: 386
currently lose_sum: 0.6011488437652588
time_elpased: 1.476
#iterations: 387
currently lose_sum: 0.6036511659622192
time_elpased: 1.473
#iterations: 388
currently lose_sum: 0.5993253588676453
time_elpased: 1.46
#iterations: 389
currently lose_sum: 0.7417534589767456
time_elpased: 1.498
#iterations: 390
currently lose_sum: 0.6942077875137329
time_elpased: 1.439
#iterations: 391
currently lose_sum: 0.6889792680740356
time_elpased: 1.474
#iterations: 392
currently lose_sum: 0.6085261702537537
time_elpased: 1.488
#iterations: 393
currently lose_sum: 0.7137311697006226
time_elpased: 1.482
#iterations: 394
currently lose_sum: 0.6322076916694641
time_elpased: 1.488
#iterations: 395
currently lose_sum: 0.7693584561347961
time_elpased: 1.55
#iterations: 396
currently lose_sum: 0.6105672121047974
time_elpased: 1.513
#iterations: 397
currently lose_sum: 0.7175983786582947
time_elpased: 1.492
#iterations: 398
currently lose_sum: 0.5187137722969055
time_elpased: 1.472
#iterations: 399
currently lose_sum: 0.6128312945365906
time_elpased: 1.457
start validation test
0.578205128205
0.582165605096
0.580686149936
0.581424936387
0.578182660997
25.938
#iterations: 400
currently lose_sum: 0.5925506353378296
time_elpased: 1.498
#iterations: 401
currently lose_sum: 0.6939890384674072
time_elpased: 1.484
#iterations: 402
currently lose_sum: 0.6454227566719055
time_elpased: 1.496
#iterations: 403
currently lose_sum: 0.53179931640625
time_elpased: 1.48
#iterations: 404
currently lose_sum: 0.6246881484985352
time_elpased: 1.449
#iterations: 405
currently lose_sum: 0.6776350140571594
time_elpased: 1.474
#iterations: 406
currently lose_sum: 0.6263512969017029
time_elpased: 1.477
#iterations: 407
currently lose_sum: 0.6311927437782288
time_elpased: 1.478
#iterations: 408
currently lose_sum: 0.6768355369567871
time_elpased: 1.485
#iterations: 409
currently lose_sum: 0.6743636131286621
time_elpased: 1.471
#iterations: 410
currently lose_sum: 0.642757773399353
time_elpased: 1.51
#iterations: 411
currently lose_sum: 0.6787614226341248
time_elpased: 1.44
#iterations: 412
currently lose_sum: 0.589499831199646
time_elpased: 1.466
#iterations: 413
currently lose_sum: 0.599263072013855
time_elpased: 1.482
#iterations: 414
currently lose_sum: 0.6420984268188477
time_elpased: 1.462
#iterations: 415
currently lose_sum: 0.5956070423126221
time_elpased: 1.428
#iterations: 416
currently lose_sum: 0.652239978313446
time_elpased: 1.465
#iterations: 417
currently lose_sum: 0.6175307035446167
time_elpased: 1.436
#iterations: 418
currently lose_sum: 0.6853479146957397
time_elpased: 1.466
#iterations: 419
currently lose_sum: 0.6783889532089233
time_elpased: 1.463
start validation test
0.58141025641
0.577726218097
0.632782719187
0.604002425713
0.580945046527
25.650
#iterations: 420
currently lose_sum: 0.5958670377731323
time_elpased: 1.466
#iterations: 421
currently lose_sum: 0.6253968477249146
time_elpased: 1.465
#iterations: 422
currently lose_sum: 0.6138957142829895
time_elpased: 1.466
#iterations: 423
currently lose_sum: 0.6123635172843933
time_elpased: 1.466
#iterations: 424
currently lose_sum: 0.699245274066925
time_elpased: 1.461
#iterations: 425
currently lose_sum: 0.656618058681488
time_elpased: 1.511
#iterations: 426
currently lose_sum: 0.5590397715568542
time_elpased: 1.458
#iterations: 427
currently lose_sum: 0.6239216923713684
time_elpased: 1.439
#iterations: 428
currently lose_sum: 0.5736789107322693
time_elpased: 1.455
#iterations: 429
currently lose_sum: 0.553249716758728
time_elpased: 1.473
#iterations: 430
currently lose_sum: 0.7167350053787231
time_elpased: 1.443
#iterations: 431
currently lose_sum: 0.5775823593139648
time_elpased: 1.451
#iterations: 432
currently lose_sum: 0.559698224067688
time_elpased: 1.432
#iterations: 433
currently lose_sum: 0.6739608645439148
time_elpased: 1.443
#iterations: 434
currently lose_sum: 0.686728298664093
time_elpased: 1.477
#iterations: 435
currently lose_sum: 0.7349399924278259
time_elpased: 1.452
#iterations: 436
currently lose_sum: 0.6222101449966431
time_elpased: 1.46
#iterations: 437
currently lose_sum: 0.7315367460250854
time_elpased: 1.448
#iterations: 438
currently lose_sum: 0.6014660596847534
time_elpased: 1.461
#iterations: 439
currently lose_sum: 0.6422012448310852
time_elpased: 1.45
start validation test
0.592948717949
0.590047393365
0.632782719187
0.610668301655
0.592587996075
25.687
#iterations: 440
currently lose_sum: 0.6658307313919067
time_elpased: 1.451
#iterations: 441
currently lose_sum: 0.647208571434021
time_elpased: 1.451
#iterations: 442
currently lose_sum: 0.6251488924026489
time_elpased: 1.474
#iterations: 443
currently lose_sum: 0.6227360963821411
time_elpased: 1.44
#iterations: 444
currently lose_sum: 0.6306702494621277
time_elpased: 1.458
#iterations: 445
currently lose_sum: 0.6842292547225952
time_elpased: 1.449
#iterations: 446
currently lose_sum: 0.5854166150093079
time_elpased: 1.453
#iterations: 447
currently lose_sum: 0.6351645588874817
time_elpased: 1.474
#iterations: 448
currently lose_sum: 0.654181182384491
time_elpased: 1.472
#iterations: 449
currently lose_sum: 0.6870328187942505
time_elpased: 1.444
#iterations: 450
currently lose_sum: 0.6253708004951477
time_elpased: 1.484
#iterations: 451
currently lose_sum: 0.5579496622085571
time_elpased: 1.465
#iterations: 452
currently lose_sum: 0.6275668740272522
time_elpased: 1.454
#iterations: 453
currently lose_sum: 0.6860677003860474
time_elpased: 1.479
#iterations: 454
currently lose_sum: 0.5894787311553955
time_elpased: 1.472
#iterations: 455
currently lose_sum: 0.6598647832870483
time_elpased: 1.468
#iterations: 456
currently lose_sum: 0.6298237442970276
time_elpased: 1.466
#iterations: 457
currently lose_sum: 0.6325879096984863
time_elpased: 1.446
#iterations: 458
currently lose_sum: 0.646682858467102
time_elpased: 1.453
#iterations: 459
currently lose_sum: 0.6099920868873596
time_elpased: 1.456
start validation test
0.585256410256
0.59186351706
0.573062261753
0.582311168496
0.585366835922
25.662
#iterations: 460
currently lose_sum: 0.6027363538742065
time_elpased: 1.67
#iterations: 461
currently lose_sum: 0.6761113405227661
time_elpased: 1.608
#iterations: 462
currently lose_sum: 0.6149582862854004
time_elpased: 1.463
#iterations: 463
currently lose_sum: 0.5725382566452026
time_elpased: 1.449
#iterations: 464
currently lose_sum: 0.739903450012207
time_elpased: 1.444
#iterations: 465
currently lose_sum: 0.6650853753089905
time_elpased: 1.462
#iterations: 466
currently lose_sum: 0.7659183740615845
time_elpased: 1.456
#iterations: 467
currently lose_sum: 0.7439827919006348
time_elpased: 1.446
#iterations: 468
currently lose_sum: 0.570309579372406
time_elpased: 1.485
#iterations: 469
currently lose_sum: 0.6200433969497681
time_elpased: 1.456
#iterations: 470
currently lose_sum: 0.6615076065063477
time_elpased: 1.425
#iterations: 471
currently lose_sum: 0.6077664494514465
time_elpased: 1.44
#iterations: 472
currently lose_sum: 0.7575074434280396
time_elpased: 1.444
#iterations: 473
currently lose_sum: 0.6272551417350769
time_elpased: 1.466
#iterations: 474
currently lose_sum: 0.6515418291091919
time_elpased: 1.493
#iterations: 475
currently lose_sum: 0.5997869372367859
time_elpased: 1.445
#iterations: 476
currently lose_sum: 0.6421679258346558
time_elpased: 1.485
#iterations: 477
currently lose_sum: 0.6483737230300903
time_elpased: 1.477
#iterations: 478
currently lose_sum: 0.6292558908462524
time_elpased: 1.464
#iterations: 479
currently lose_sum: 0.658981442451477
time_elpased: 1.477
start validation test
0.589743589744
0.580503833516
0.673443456163
0.623529411765
0.588985634938
25.665
#iterations: 480
currently lose_sum: 0.6325667500495911
time_elpased: 1.645
#iterations: 481
currently lose_sum: 0.6221986413002014
time_elpased: 1.477
#iterations: 482
currently lose_sum: 0.6178337335586548
time_elpased: 1.456
#iterations: 483
currently lose_sum: 0.6475098729133606
time_elpased: 1.621
#iterations: 484
currently lose_sum: 0.6078921556472778
time_elpased: 1.542
#iterations: 485
currently lose_sum: 0.5558016896247864
time_elpased: 1.455
#iterations: 486
currently lose_sum: 0.6372020840644836
time_elpased: 1.479
#iterations: 487
currently lose_sum: 0.7016804814338684
time_elpased: 1.496
#iterations: 488
currently lose_sum: 0.6506739854812622
time_elpased: 1.468
#iterations: 489
currently lose_sum: 0.645342230796814
time_elpased: 1.508
#iterations: 490
currently lose_sum: 0.6143805384635925
time_elpased: 1.493
#iterations: 491
currently lose_sum: 0.6391779184341431
time_elpased: 1.49
#iterations: 492
currently lose_sum: 0.5560921430587769
time_elpased: 1.501
#iterations: 493
currently lose_sum: 0.6359338760375977
time_elpased: 1.516
#iterations: 494
currently lose_sum: 0.571434736251831
time_elpased: 1.486
#iterations: 495
currently lose_sum: 0.6161547303199768
time_elpased: 1.473
#iterations: 496
currently lose_sum: 0.6863663792610168
time_elpased: 1.476
#iterations: 497
currently lose_sum: 0.6196578145027161
time_elpased: 1.47
#iterations: 498
currently lose_sum: 0.6301277279853821
time_elpased: 1.482
#iterations: 499
currently lose_sum: 0.7349585294723511
time_elpased: 1.46
start validation test
0.573076923077
0.582763337893
0.541296060991
0.561264822134
0.573364718723
25.654
#iterations: 500
currently lose_sum: 0.6080648899078369
time_elpased: 1.465
#iterations: 501
currently lose_sum: 0.7866182327270508
time_elpased: 1.433
#iterations: 502
currently lose_sum: 0.6480506658554077
time_elpased: 1.454
#iterations: 503
currently lose_sum: 0.6107180118560791
time_elpased: 1.455
#iterations: 504
currently lose_sum: 0.5581598281860352
time_elpased: 1.49
#iterations: 505
currently lose_sum: 0.6156120300292969
time_elpased: 1.489
#iterations: 506
currently lose_sum: 0.6300835013389587
time_elpased: 1.47
#iterations: 507
currently lose_sum: 0.6319543719291687
time_elpased: 1.571
#iterations: 508
currently lose_sum: 0.6034727096557617
time_elpased: 1.51
#iterations: 509
currently lose_sum: 0.6507905721664429
time_elpased: 1.488
#iterations: 510
currently lose_sum: 0.6363803148269653
time_elpased: 1.501
#iterations: 511
currently lose_sum: 0.6445516347885132
time_elpased: 1.544
#iterations: 512
currently lose_sum: 0.6271138787269592
time_elpased: 1.466
#iterations: 513
currently lose_sum: 0.570915937423706
time_elpased: 1.498
#iterations: 514
currently lose_sum: 0.6706593036651611
time_elpased: 1.542
#iterations: 515
currently lose_sum: 0.6785591244697571
time_elpased: 1.508
#iterations: 516
currently lose_sum: 0.6148201823234558
time_elpased: 1.517
#iterations: 517
currently lose_sum: 0.6822835803031921
time_elpased: 1.489
#iterations: 518
currently lose_sum: 0.6238093376159668
time_elpased: 1.517
#iterations: 519
currently lose_sum: 0.7283138632774353
time_elpased: 1.477
start validation test
0.597435897436
0.591274397245
0.654383735705
0.62123039807
0.59692019903
25.570
#iterations: 520
currently lose_sum: 0.6081182360649109
time_elpased: 1.483
#iterations: 521
currently lose_sum: 0.6937640905380249
time_elpased: 1.545
#iterations: 522
currently lose_sum: 0.6183584928512573
time_elpased: 1.508
#iterations: 523
currently lose_sum: 0.6371473073959351
time_elpased: 1.519
#iterations: 524
currently lose_sum: 0.6520689725875854
time_elpased: 1.511
#iterations: 525
currently lose_sum: 0.5772579908370972
time_elpased: 1.523
#iterations: 526
currently lose_sum: 0.6206547021865845
time_elpased: 1.538
#iterations: 527
currently lose_sum: 0.620806097984314
time_elpased: 1.519
#iterations: 528
currently lose_sum: 0.6544287204742432
time_elpased: 1.491
#iterations: 529
currently lose_sum: 0.6302753686904907
time_elpased: 1.5
#iterations: 530
currently lose_sum: 0.6541563272476196
time_elpased: 1.506
#iterations: 531
currently lose_sum: 0.6861477494239807
time_elpased: 1.502
#iterations: 532
currently lose_sum: 0.5920156240463257
time_elpased: 1.488
#iterations: 533
currently lose_sum: 0.677156925201416
time_elpased: 1.487
#iterations: 534
currently lose_sum: 0.6442438960075378
time_elpased: 1.476
#iterations: 535
currently lose_sum: 0.5290470123291016
time_elpased: 1.471
#iterations: 536
currently lose_sum: 0.6889222860336304
time_elpased: 1.507
#iterations: 537
currently lose_sum: 0.5822951197624207
time_elpased: 1.49
#iterations: 538
currently lose_sum: 0.6948541402816772
time_elpased: 1.474
#iterations: 539
currently lose_sum: 0.6548960208892822
time_elpased: 1.507
start validation test
0.583974358974
0.575163398693
0.670902160102
0.61935483871
0.583187173194
25.694
#iterations: 540
currently lose_sum: 0.6376873850822449
time_elpased: 1.478
#iterations: 541
currently lose_sum: 0.5334435701370239
time_elpased: 1.469
#iterations: 542
currently lose_sum: 0.6866623759269714
time_elpased: 1.477
#iterations: 543
currently lose_sum: 0.5630847215652466
time_elpased: 1.492
#iterations: 544
currently lose_sum: 0.6770163774490356
time_elpased: 1.501
#iterations: 545
currently lose_sum: 0.5460729598999023
time_elpased: 1.588
#iterations: 546
currently lose_sum: 0.59181147813797
time_elpased: 1.475
#iterations: 547
currently lose_sum: 0.6332064867019653
time_elpased: 1.476
#iterations: 548
currently lose_sum: 0.6793400049209595
time_elpased: 1.558
#iterations: 549
currently lose_sum: 0.5443764925003052
time_elpased: 1.474
#iterations: 550
currently lose_sum: 0.6462748646736145
time_elpased: 1.493
#iterations: 551
currently lose_sum: 0.732847273349762
time_elpased: 1.49
#iterations: 552
currently lose_sum: 0.6575556993484497
time_elpased: 1.468
#iterations: 553
currently lose_sum: 0.6003552675247192
time_elpased: 1.498
#iterations: 554
currently lose_sum: 0.536411464214325
time_elpased: 1.524
#iterations: 555
currently lose_sum: 0.647890567779541
time_elpased: 1.511
#iterations: 556
currently lose_sum: 0.5483947992324829
time_elpased: 1.469
#iterations: 557
currently lose_sum: 0.6182209849357605
time_elpased: 1.48
#iterations: 558
currently lose_sum: 0.6028832197189331
time_elpased: 1.495
#iterations: 559
currently lose_sum: 0.6578079462051392
time_elpased: 1.464
start validation test
0.576923076923
0.594634873323
0.506988564168
0.547325102881
0.577556377815
25.563
#iterations: 560
currently lose_sum: 0.6182642579078674
time_elpased: 1.495
#iterations: 561
currently lose_sum: 0.5793448686599731
time_elpased: 1.477
#iterations: 562
currently lose_sum: 0.6650195121765137
time_elpased: 1.471
#iterations: 563
currently lose_sum: 0.7253077030181885
time_elpased: 1.478
#iterations: 564
currently lose_sum: 0.5792669057846069
time_elpased: 1.452
#iterations: 565
currently lose_sum: 0.7623980641365051
time_elpased: 1.48
#iterations: 566
currently lose_sum: 0.6670650839805603
time_elpased: 1.446
#iterations: 567
currently lose_sum: 0.588600218296051
time_elpased: 1.481
#iterations: 568
currently lose_sum: 0.6362316012382507
time_elpased: 1.492
#iterations: 569
currently lose_sum: 0.6419548988342285
time_elpased: 1.54
#iterations: 570
currently lose_sum: 0.6579799056053162
time_elpased: 1.708
#iterations: 571
currently lose_sum: 0.5016553997993469
time_elpased: 1.487
#iterations: 572
currently lose_sum: 0.6395363807678223
time_elpased: 1.493
#iterations: 573
currently lose_sum: 0.6786532998085022
time_elpased: 1.486
#iterations: 574
currently lose_sum: 0.5831222534179688
time_elpased: 1.608
#iterations: 575
currently lose_sum: 0.6584844589233398
time_elpased: 1.65
#iterations: 576
currently lose_sum: 0.6560248136520386
time_elpased: 1.499
#iterations: 577
currently lose_sum: 0.6616277694702148
time_elpased: 1.464
#iterations: 578
currently lose_sum: 0.5751131176948547
time_elpased: 1.467
#iterations: 579
currently lose_sum: 0.6068029403686523
time_elpased: 1.481
start validation test
0.578205128205
0.576512455516
0.617534942821
0.596319018405
0.577848972057
25.613
#iterations: 580
currently lose_sum: 0.6571688652038574
time_elpased: 1.476
#iterations: 581
currently lose_sum: 0.6077894568443298
time_elpased: 1.504
#iterations: 582
currently lose_sum: 0.60725337266922
time_elpased: 1.481
#iterations: 583
currently lose_sum: 0.5635396242141724
time_elpased: 1.498
#iterations: 584
currently lose_sum: 0.6510207056999207
time_elpased: 1.477
#iterations: 585
currently lose_sum: 0.6119651794433594
time_elpased: 1.468
#iterations: 586
currently lose_sum: 0.6563500165939331
time_elpased: 1.618
#iterations: 587
currently lose_sum: 0.5912821888923645
time_elpased: 1.495
#iterations: 588
currently lose_sum: 0.6547931432723999
time_elpased: 1.52
#iterations: 589
currently lose_sum: 0.593406081199646
time_elpased: 1.463
#iterations: 590
currently lose_sum: 0.6508352756500244
time_elpased: 1.529
#iterations: 591
currently lose_sum: 0.6964682340621948
time_elpased: 1.555
#iterations: 592
currently lose_sum: 0.5188388824462891
time_elpased: 1.496
#iterations: 593
currently lose_sum: 0.6930814385414124
time_elpased: 1.539
#iterations: 594
currently lose_sum: 0.6651468873023987
time_elpased: 1.512
#iterations: 595
currently lose_sum: 0.6622775793075562
time_elpased: 1.488
#iterations: 596
currently lose_sum: 0.5905879139900208
time_elpased: 1.485
#iterations: 597
currently lose_sum: 0.660178005695343
time_elpased: 1.461
#iterations: 598
currently lose_sum: 0.672622799873352
time_elpased: 1.475
#iterations: 599
currently lose_sum: 0.6434470415115356
time_elpased: 1.499
start validation test
0.589743589744
0.587604290822
0.626429479034
0.606396063961
0.589411375998
25.644
acc: 0.595
pre: 0.611
rec: 0.541
F1: 0.574
auc: 0.595
