start to construct computing graph
graph construct over
2361
epochs start
#iterations: 0
currently lose_sum: 0.7441502809524536
time_elpased: 2.481
#iterations: 1
currently lose_sum: 0.6978424191474915
time_elpased: 2.504
#iterations: 2
currently lose_sum: 0.7110844850540161
time_elpased: 2.424
#iterations: 3
currently lose_sum: 0.6897659301757812
time_elpased: 2.49
#iterations: 4
currently lose_sum: 0.6817667484283447
time_elpased: 2.455
#iterations: 5
currently lose_sum: 0.6873124837875366
time_elpased: 2.456
#iterations: 6
currently lose_sum: 0.6925691962242126
time_elpased: 2.44
#iterations: 7
currently lose_sum: 0.6906862258911133
time_elpased: 2.442
#iterations: 8
currently lose_sum: 0.6706092953681946
time_elpased: 2.433
#iterations: 9
currently lose_sum: 0.6939839720726013
time_elpased: 2.443
#iterations: 10
currently lose_sum: 0.6601940393447876
time_elpased: 2.435
#iterations: 11
currently lose_sum: 0.6980177164077759
time_elpased: 2.439
#iterations: 12
currently lose_sum: 0.7147706747055054
time_elpased: 2.432
#iterations: 13
currently lose_sum: 0.6809055209159851
time_elpased: 2.418
#iterations: 14
currently lose_sum: 0.7084702849388123
time_elpased: 2.426
#iterations: 15
currently lose_sum: 0.6825742125511169
time_elpased: 2.422
#iterations: 16
currently lose_sum: 0.6771587133407593
time_elpased: 2.484
#iterations: 17
currently lose_sum: 0.7091431617736816
time_elpased: 2.447
#iterations: 18
currently lose_sum: 0.6895824670791626
time_elpased: 2.45
#iterations: 19
currently lose_sum: 0.7019469141960144
time_elpased: 2.444
start validation test
0.532051282051
0.523333333333
0.798982188295
0.632426988922
0.52998205022
26.966
#iterations: 20
currently lose_sum: 0.6685746312141418
time_elpased: 1.707
#iterations: 21
currently lose_sum: 0.711657702922821
time_elpased: 1.679
#iterations: 22
currently lose_sum: 0.6630342602729797
time_elpased: 1.681
#iterations: 23
currently lose_sum: 0.7071806192398071
time_elpased: 1.679
#iterations: 24
currently lose_sum: 0.687618613243103
time_elpased: 1.654
#iterations: 25
currently lose_sum: 0.7149785757064819
time_elpased: 1.653
#iterations: 26
currently lose_sum: 0.6590526700019836
time_elpased: 1.666
#iterations: 27
currently lose_sum: 0.6643277406692505
time_elpased: 1.67
#iterations: 28
currently lose_sum: 0.6934241652488708
time_elpased: 1.682
#iterations: 29
currently lose_sum: 0.6664703488349915
time_elpased: 1.663
#iterations: 30
currently lose_sum: 0.7107008695602417
time_elpased: 1.664
#iterations: 31
currently lose_sum: 0.7065138816833496
time_elpased: 1.7
#iterations: 32
currently lose_sum: 0.6390480995178223
time_elpased: 1.681
#iterations: 33
currently lose_sum: 0.6657401919364929
time_elpased: 1.667
#iterations: 34
currently lose_sum: 0.7082697153091431
time_elpased: 1.686
#iterations: 35
currently lose_sum: 0.6674616932868958
time_elpased: 1.683
#iterations: 36
currently lose_sum: 0.6741593480110168
time_elpased: 1.679
#iterations: 37
currently lose_sum: 0.6747535467147827
time_elpased: 1.672
#iterations: 38
currently lose_sum: 0.6912861466407776
time_elpased: 1.659
#iterations: 39
currently lose_sum: 0.7128141522407532
time_elpased: 1.651
start validation test
0.573717948718
0.573870573871
0.59796437659
0.585669781931
0.573529991913
26.350
#iterations: 40
currently lose_sum: 0.6720154881477356
time_elpased: 1.655
#iterations: 41
currently lose_sum: 0.7385759353637695
time_elpased: 1.694
#iterations: 42
currently lose_sum: 0.6612618565559387
time_elpased: 1.66
#iterations: 43
currently lose_sum: 0.6755260229110718
time_elpased: 1.655
#iterations: 44
currently lose_sum: 0.654627799987793
time_elpased: 1.659
#iterations: 45
currently lose_sum: 0.682841956615448
time_elpased: 1.642
#iterations: 46
currently lose_sum: 0.7064546346664429
time_elpased: 1.654
#iterations: 47
currently lose_sum: 0.672888994216919
time_elpased: 1.674
#iterations: 48
currently lose_sum: 0.6386613845825195
time_elpased: 1.661
#iterations: 49
currently lose_sum: 0.6672976016998291
time_elpased: 1.665
#iterations: 50
currently lose_sum: 0.6561976671218872
time_elpased: 1.666
#iterations: 51
currently lose_sum: 0.672301173210144
time_elpased: 1.692
#iterations: 52
currently lose_sum: 0.6383946537971497
time_elpased: 1.661
#iterations: 53
currently lose_sum: 0.6460825204849243
time_elpased: 1.688
#iterations: 54
currently lose_sum: 0.7126384973526001
time_elpased: 1.647
#iterations: 55
currently lose_sum: 0.6113162040710449
time_elpased: 1.644
#iterations: 56
currently lose_sum: 0.6946442723274231
time_elpased: 1.647
#iterations: 57
currently lose_sum: 0.6357992887496948
time_elpased: 1.663
#iterations: 58
currently lose_sum: 0.6709560751914978
time_elpased: 1.653
#iterations: 59
currently lose_sum: 0.6404922604560852
time_elpased: 1.653
start validation test
0.576923076923
0.590517241379
0.522900763359
0.554655870445
0.577341854548
26.308
#iterations: 60
currently lose_sum: 0.6785091757774353
time_elpased: 1.674
#iterations: 61
currently lose_sum: 0.6405547857284546
time_elpased: 1.656
#iterations: 62
currently lose_sum: 0.6621845960617065
time_elpased: 1.68
#iterations: 63
currently lose_sum: 0.6718438863754272
time_elpased: 1.694
#iterations: 64
currently lose_sum: 0.6858275532722473
time_elpased: 1.675
#iterations: 65
currently lose_sum: 0.6628276705741882
time_elpased: 1.686
#iterations: 66
currently lose_sum: 0.7138305902481079
time_elpased: 1.712
#iterations: 67
currently lose_sum: 0.6342521905899048
time_elpased: 1.672
#iterations: 68
currently lose_sum: 0.6796461939811707
time_elpased: 1.656
#iterations: 69
currently lose_sum: 0.6659056544303894
time_elpased: 1.658
#iterations: 70
currently lose_sum: 0.6759473085403442
time_elpased: 1.647
#iterations: 71
currently lose_sum: 0.647360622882843
time_elpased: 1.679
#iterations: 72
currently lose_sum: 0.7488464117050171
time_elpased: 1.646
#iterations: 73
currently lose_sum: 0.6723048090934753
time_elpased: 1.651
#iterations: 74
currently lose_sum: 0.7442156076431274
time_elpased: 1.67
#iterations: 75
currently lose_sum: 0.6852165460586548
time_elpased: 1.647
#iterations: 76
currently lose_sum: 0.6745519042015076
time_elpased: 1.679
#iterations: 77
currently lose_sum: 0.6979967355728149
time_elpased: 1.651
#iterations: 78
currently lose_sum: 0.6353762745857239
time_elpased: 1.633
#iterations: 79
currently lose_sum: 0.6740220785140991
time_elpased: 1.635
start validation test
0.571153846154
0.623157894737
0.376590330789
0.469468675654
0.572662090459
26.429
#iterations: 80
currently lose_sum: 0.6903737783432007
time_elpased: 1.671
#iterations: 81
currently lose_sum: 0.6798737049102783
time_elpased: 1.635
#iterations: 82
currently lose_sum: 0.7112025022506714
time_elpased: 1.665
#iterations: 83
currently lose_sum: 0.6935044527053833
time_elpased: 1.687
#iterations: 84
currently lose_sum: 0.6808465123176575
time_elpased: 1.656
#iterations: 85
currently lose_sum: 0.6673080325126648
time_elpased: 1.635
#iterations: 86
currently lose_sum: 0.6599065661430359
time_elpased: 1.66
#iterations: 87
currently lose_sum: 0.6845290064811707
time_elpased: 1.662
#iterations: 88
currently lose_sum: 0.7046374082565308
time_elpased: 1.664
#iterations: 89
currently lose_sum: 0.6772118210792542
time_elpased: 1.655
#iterations: 90
currently lose_sum: 0.6830658912658691
time_elpased: 1.655
#iterations: 91
currently lose_sum: 0.6823275089263916
time_elpased: 1.636
#iterations: 92
currently lose_sum: 0.6284835338592529
time_elpased: 1.671
#iterations: 93
currently lose_sum: 0.6714867353439331
time_elpased: 1.642
#iterations: 94
currently lose_sum: 0.7250866889953613
time_elpased: 1.632
#iterations: 95
currently lose_sum: 0.6850312948226929
time_elpased: 1.626
#iterations: 96
currently lose_sum: 0.5993591547012329
time_elpased: 1.637
#iterations: 97
currently lose_sum: 0.7097691297531128
time_elpased: 1.651
#iterations: 98
currently lose_sum: 0.690637469291687
time_elpased: 1.695
#iterations: 99
currently lose_sum: 0.6855138540267944
time_elpased: 1.653
start validation test
0.587179487179
0.584725536993
0.623409669211
0.603448275862
0.586898633055
26.224
#iterations: 100
currently lose_sum: 0.6380967497825623
time_elpased: 1.657
#iterations: 101
currently lose_sum: 0.6380215287208557
time_elpased: 1.656
#iterations: 102
currently lose_sum: 0.6609732508659363
time_elpased: 1.652
#iterations: 103
currently lose_sum: 0.6622272729873657
time_elpased: 1.65
#iterations: 104
currently lose_sum: 0.6868643760681152
time_elpased: 1.641
#iterations: 105
currently lose_sum: 0.6581853628158569
time_elpased: 1.637
#iterations: 106
currently lose_sum: 0.6464622020721436
time_elpased: 1.623
#iterations: 107
currently lose_sum: 0.644924521446228
time_elpased: 1.614
#iterations: 108
currently lose_sum: 0.6887686848640442
time_elpased: 1.626
#iterations: 109
currently lose_sum: 0.674437403678894
time_elpased: 1.635
#iterations: 110
currently lose_sum: 0.6415513157844543
time_elpased: 1.633
#iterations: 111
currently lose_sum: 0.6610420346260071
time_elpased: 1.622
#iterations: 112
currently lose_sum: 0.7073575258255005
time_elpased: 1.624
#iterations: 113
currently lose_sum: 0.6848372220993042
time_elpased: 1.633
#iterations: 114
currently lose_sum: 0.6767610907554626
time_elpased: 1.638
#iterations: 115
currently lose_sum: 0.7081135511398315
time_elpased: 1.647
#iterations: 116
currently lose_sum: 0.6593815088272095
time_elpased: 1.653
#iterations: 117
currently lose_sum: 0.6527642607688904
time_elpased: 1.648
#iterations: 118
currently lose_sum: 0.7529790997505188
time_elpased: 1.65
#iterations: 119
currently lose_sum: 0.6779650449752808
time_elpased: 1.651
start validation test
0.585897435897
0.581775700935
0.63358778626
0.606577344702
0.585527743259
26.168
#iterations: 120
currently lose_sum: 0.6727327704429626
time_elpased: 1.644
#iterations: 121
currently lose_sum: 0.6528985500335693
time_elpased: 1.665
#iterations: 122
currently lose_sum: 0.6102094650268555
time_elpased: 1.628
#iterations: 123
currently lose_sum: 0.7303395867347717
time_elpased: 1.658
#iterations: 124
currently lose_sum: 0.6663028597831726
time_elpased: 1.673
#iterations: 125
currently lose_sum: 0.6286723613739014
time_elpased: 1.642
#iterations: 126
currently lose_sum: 0.6885821223258972
time_elpased: 1.643
#iterations: 127
currently lose_sum: 0.7186556458473206
time_elpased: 1.621
#iterations: 128
currently lose_sum: 0.6028531789779663
time_elpased: 1.637
#iterations: 129
currently lose_sum: 0.6710582375526428
time_elpased: 1.622
#iterations: 130
currently lose_sum: 0.5861185789108276
time_elpased: 1.65
#iterations: 131
currently lose_sum: 0.6323680877685547
time_elpased: 1.646
#iterations: 132
currently lose_sum: 0.6478376388549805
time_elpased: 1.623
#iterations: 133
currently lose_sum: 0.6789692640304565
time_elpased: 1.634
#iterations: 134
currently lose_sum: 0.6854236721992493
time_elpased: 1.648
#iterations: 135
currently lose_sum: 0.643866240978241
time_elpased: 1.637
#iterations: 136
currently lose_sum: 0.6523560285568237
time_elpased: 1.674
#iterations: 137
currently lose_sum: 0.7239302396774292
time_elpased: 1.631
#iterations: 138
currently lose_sum: 0.6704500913619995
time_elpased: 1.64
#iterations: 139
currently lose_sum: 0.6965475082397461
time_elpased: 1.62
start validation test
0.582692307692
0.581032412965
0.615776081425
0.597899938233
0.58243584433
26.223
#iterations: 140
currently lose_sum: 0.651867687702179
time_elpased: 1.641
#iterations: 141
currently lose_sum: 0.6120563745498657
time_elpased: 1.643
#iterations: 142
currently lose_sum: 0.758247971534729
time_elpased: 1.632
#iterations: 143
currently lose_sum: 0.6576253175735474
time_elpased: 1.623
#iterations: 144
currently lose_sum: 0.6430144309997559
time_elpased: 1.613
#iterations: 145
currently lose_sum: 0.6379793286323547
time_elpased: 1.62
#iterations: 146
currently lose_sum: 0.6516193151473999
time_elpased: 1.658
#iterations: 147
currently lose_sum: 0.6730755567550659
time_elpased: 1.63
#iterations: 148
currently lose_sum: 0.6968899965286255
time_elpased: 1.634
#iterations: 149
currently lose_sum: 0.6452152132987976
time_elpased: 1.635
#iterations: 150
currently lose_sum: 0.5985302925109863
time_elpased: 1.631
#iterations: 151
currently lose_sum: 0.6068657040596008
time_elpased: 1.623
#iterations: 152
currently lose_sum: 0.5937067270278931
time_elpased: 1.663
#iterations: 153
currently lose_sum: 0.5822041630744934
time_elpased: 1.642
#iterations: 154
currently lose_sum: 0.644139289855957
time_elpased: 1.621
#iterations: 155
currently lose_sum: 0.7211294174194336
time_elpased: 1.629
#iterations: 156
currently lose_sum: 0.677034854888916
time_elpased: 1.621
#iterations: 157
currently lose_sum: 0.6467210054397583
time_elpased: 1.688
#iterations: 158
currently lose_sum: 0.7189957499504089
time_elpased: 1.644
#iterations: 159
currently lose_sum: 0.6690583229064941
time_elpased: 1.644
start validation test
0.563461538462
0.5782414307
0.493638676845
0.532601235415
0.564002800955
26.381
#iterations: 160
currently lose_sum: 0.6288989186286926
time_elpased: 1.656
#iterations: 161
currently lose_sum: 0.726394534111023
time_elpased: 1.664
#iterations: 162
currently lose_sum: 0.6392850279808044
time_elpased: 1.644
#iterations: 163
currently lose_sum: 0.695820152759552
time_elpased: 1.625
#iterations: 164
currently lose_sum: 0.6382135152816772
time_elpased: 1.613
#iterations: 165
currently lose_sum: 0.6235418319702148
time_elpased: 1.637
#iterations: 166
currently lose_sum: 0.6860148310661316
time_elpased: 1.627
#iterations: 167
currently lose_sum: 0.6927439570426941
time_elpased: 1.645
#iterations: 168
currently lose_sum: 0.6763573884963989
time_elpased: 1.643
#iterations: 169
currently lose_sum: 0.6756132245063782
time_elpased: 1.639
#iterations: 170
currently lose_sum: 0.6570779085159302
time_elpased: 1.635
#iterations: 171
currently lose_sum: 0.6471782922744751
time_elpased: 1.628
#iterations: 172
currently lose_sum: 0.6348373293876648
time_elpased: 1.628
#iterations: 173
currently lose_sum: 0.6462092995643616
time_elpased: 1.621
#iterations: 174
currently lose_sum: 0.6694409251213074
time_elpased: 1.619
#iterations: 175
currently lose_sum: 0.7042879462242126
time_elpased: 1.627
#iterations: 176
currently lose_sum: 0.6471549272537231
time_elpased: 1.62
#iterations: 177
currently lose_sum: 0.654361367225647
time_elpased: 1.619
#iterations: 178
currently lose_sum: 0.6951484680175781
time_elpased: 1.631
#iterations: 179
currently lose_sum: 0.645818829536438
time_elpased: 1.619
start validation test
0.582692307692
0.575418994413
0.655216284987
0.612730517549
0.582130106318
26.378
#iterations: 180
currently lose_sum: 0.6135832071304321
time_elpased: 1.634
#iterations: 181
currently lose_sum: 0.6667776107788086
time_elpased: 1.623
#iterations: 182
currently lose_sum: 0.5911760330200195
time_elpased: 1.613
#iterations: 183
currently lose_sum: 0.681637167930603
time_elpased: 1.636
#iterations: 184
currently lose_sum: 0.5902587175369263
time_elpased: 1.65
#iterations: 185
currently lose_sum: 0.6265464425086975
time_elpased: 1.683
#iterations: 186
currently lose_sum: 0.7169039249420166
time_elpased: 1.667
#iterations: 187
currently lose_sum: 0.6338895559310913
time_elpased: 1.681
#iterations: 188
currently lose_sum: 0.7421715259552002
time_elpased: 1.676
#iterations: 189
currently lose_sum: 0.6723269820213318
time_elpased: 1.665
#iterations: 190
currently lose_sum: 0.717302143573761
time_elpased: 1.67
#iterations: 191
currently lose_sum: 0.6646491885185242
time_elpased: 1.644
#iterations: 192
currently lose_sum: 0.5788682103157043
time_elpased: 1.653
#iterations: 193
currently lose_sum: 0.6662445068359375
time_elpased: 1.635
#iterations: 194
currently lose_sum: 0.6860976815223694
time_elpased: 1.64
#iterations: 195
currently lose_sum: 0.6351038217544556
time_elpased: 1.626
#iterations: 196
currently lose_sum: 0.6643034815788269
time_elpased: 1.632
#iterations: 197
currently lose_sum: 0.6604064106941223
time_elpased: 1.631
#iterations: 198
currently lose_sum: 0.7019805312156677
time_elpased: 1.641
#iterations: 199
currently lose_sum: 0.6251320242881775
time_elpased: 1.62
start validation test
0.597435897436
0.586244541485
0.68320610687
0.631022326675
0.596771012091
25.925
#iterations: 200
currently lose_sum: 0.6471567153930664
time_elpased: 1.65
#iterations: 201
currently lose_sum: 0.6346718072891235
time_elpased: 1.625
#iterations: 202
currently lose_sum: 0.7200325727462769
time_elpased: 1.622
#iterations: 203
currently lose_sum: 0.658416748046875
time_elpased: 1.643
#iterations: 204
currently lose_sum: 0.6929484605789185
time_elpased: 1.624
#iterations: 205
currently lose_sum: 0.6504632234573364
time_elpased: 1.633
#iterations: 206
currently lose_sum: 0.6490203142166138
time_elpased: 1.638
#iterations: 207
currently lose_sum: 0.6867631077766418
time_elpased: 1.631
#iterations: 208
currently lose_sum: 0.6907048225402832
time_elpased: 1.625
#iterations: 209
currently lose_sum: 0.7138032913208008
time_elpased: 1.643
#iterations: 210
currently lose_sum: 0.639778733253479
time_elpased: 1.632
#iterations: 211
currently lose_sum: 0.7054421901702881
time_elpased: 1.642
#iterations: 212
currently lose_sum: 0.7067139744758606
time_elpased: 1.65
#iterations: 213
currently lose_sum: 0.635956883430481
time_elpased: 1.625
#iterations: 214
currently lose_sum: 0.7020089626312256
time_elpased: 1.632
#iterations: 215
currently lose_sum: 0.647685170173645
time_elpased: 1.654
#iterations: 216
currently lose_sum: 0.6753811240196228
time_elpased: 1.623
#iterations: 217
currently lose_sum: 0.6415256261825562
time_elpased: 1.642
#iterations: 218
currently lose_sum: 0.6187563538551331
time_elpased: 1.642
#iterations: 219
currently lose_sum: 0.6474992036819458
time_elpased: 1.63
start validation test
0.598717948718
0.596153846154
0.631043256997
0.613102595797
0.598467364933
25.858
#iterations: 220
currently lose_sum: 0.656699538230896
time_elpased: 1.618
#iterations: 221
currently lose_sum: 0.6833197474479675
time_elpased: 1.619
#iterations: 222
currently lose_sum: 0.6584705114364624
time_elpased: 1.638
#iterations: 223
currently lose_sum: 0.6856751441955566
time_elpased: 1.647
#iterations: 224
currently lose_sum: 0.6417664885520935
time_elpased: 1.653
#iterations: 225
currently lose_sum: 0.5954940319061279
time_elpased: 1.666
#iterations: 226
currently lose_sum: 0.660839319229126
time_elpased: 1.66
#iterations: 227
currently lose_sum: 0.7118178606033325
time_elpased: 1.665
#iterations: 228
currently lose_sum: 0.6857732534408569
time_elpased: 1.668
#iterations: 229
currently lose_sum: 0.6359392404556274
time_elpased: 1.668
#iterations: 230
currently lose_sum: 0.5788295865058899
time_elpased: 1.662
#iterations: 231
currently lose_sum: 0.6659258008003235
time_elpased: 1.648
#iterations: 232
currently lose_sum: 0.7047010660171509
time_elpased: 1.632
#iterations: 233
currently lose_sum: 0.555026650428772
time_elpased: 1.647
#iterations: 234
currently lose_sum: 0.6301840543746948
time_elpased: 1.63
#iterations: 235
currently lose_sum: 0.703856348991394
time_elpased: 1.635
#iterations: 236
currently lose_sum: 0.6815847754478455
time_elpased: 1.623
#iterations: 237
currently lose_sum: 0.6666043996810913
time_elpased: 1.664
#iterations: 238
currently lose_sum: 0.6048492193222046
time_elpased: 1.653
#iterations: 239
currently lose_sum: 0.6912639737129211
time_elpased: 1.641
start validation test
0.612179487179
0.618610747051
0.600508905852
0.609425435765
0.612269956802
25.848
#iterations: 240
currently lose_sum: 0.6656943559646606
time_elpased: 1.632
#iterations: 241
currently lose_sum: 0.666521430015564
time_elpased: 1.63
#iterations: 242
currently lose_sum: 0.7411170601844788
time_elpased: 1.629
#iterations: 243
currently lose_sum: 0.6858662366867065
time_elpased: 1.636
#iterations: 244
currently lose_sum: 0.5863487124443054
time_elpased: 1.67
#iterations: 245
currently lose_sum: 0.6944700479507446
time_elpased: 1.635
#iterations: 246
currently lose_sum: 0.5849276781082153
time_elpased: 1.671
#iterations: 247
currently lose_sum: 0.6637169122695923
time_elpased: 1.679
#iterations: 248
currently lose_sum: 0.6224464178085327
time_elpased: 1.646
#iterations: 249
currently lose_sum: 0.627738356590271
time_elpased: 1.661
#iterations: 250
currently lose_sum: 0.7369128465652466
time_elpased: 1.637
#iterations: 251
currently lose_sum: 0.600620448589325
time_elpased: 1.638
#iterations: 252
currently lose_sum: 0.6118549108505249
time_elpased: 1.651
#iterations: 253
currently lose_sum: 0.6623346209526062
time_elpased: 1.694
#iterations: 254
currently lose_sum: 0.7471422553062439
time_elpased: 1.65
#iterations: 255
currently lose_sum: 0.607097327709198
time_elpased: 1.685
#iterations: 256
currently lose_sum: 0.6519566774368286
time_elpased: 1.654
#iterations: 257
currently lose_sum: 0.6504685282707214
time_elpased: 1.644
#iterations: 258
currently lose_sum: 0.697644054889679
time_elpased: 1.662
#iterations: 259
currently lose_sum: 0.616767406463623
time_elpased: 1.706
start validation test
0.596153846154
0.647169811321
0.436386768448
0.521276595745
0.597392350632
26.399
#iterations: 260
currently lose_sum: 0.6075957417488098
time_elpased: 1.651
#iterations: 261
currently lose_sum: 0.685219943523407
time_elpased: 1.62
#iterations: 262
currently lose_sum: 0.658954918384552
time_elpased: 1.659
#iterations: 263
currently lose_sum: 0.633577823638916
time_elpased: 1.623
#iterations: 264
currently lose_sum: 0.6755529642105103
time_elpased: 1.63
#iterations: 265
currently lose_sum: 0.7603098154067993
time_elpased: 1.636
#iterations: 266
currently lose_sum: 0.5762574076652527
time_elpased: 1.629
#iterations: 267
currently lose_sum: 0.6485570669174194
time_elpased: 1.647
#iterations: 268
currently lose_sum: 0.6765115857124329
time_elpased: 1.655
#iterations: 269
currently lose_sum: 0.6521037220954895
time_elpased: 1.642
#iterations: 270
currently lose_sum: 0.6914783716201782
time_elpased: 1.647
#iterations: 271
currently lose_sum: 0.5874725580215454
time_elpased: 1.625
#iterations: 272
currently lose_sum: 0.6749967336654663
time_elpased: 1.638
#iterations: 273
currently lose_sum: 0.6464150547981262
time_elpased: 1.638
#iterations: 274
currently lose_sum: 0.6607316136360168
time_elpased: 1.658
#iterations: 275
currently lose_sum: 0.6312170028686523
time_elpased: 1.672
#iterations: 276
currently lose_sum: 0.6924606561660767
time_elpased: 1.661
#iterations: 277
currently lose_sum: 0.6367911100387573
time_elpased: 1.677
#iterations: 278
currently lose_sum: 0.6470180749893188
time_elpased: 1.665
#iterations: 279
currently lose_sum: 0.6661667823791504
time_elpased: 1.632
start validation test
0.598076923077
0.611188811189
0.555979643766
0.582278481013
0.598403258575
26.005
#iterations: 280
currently lose_sum: 0.6664232611656189
time_elpased: 1.634
#iterations: 281
currently lose_sum: 0.6628046035766602
time_elpased: 1.638
#iterations: 282
currently lose_sum: 0.6099766492843628
time_elpased: 1.641
#iterations: 283
currently lose_sum: 0.6037716865539551
time_elpased: 1.623
#iterations: 284
currently lose_sum: 0.6008908748626709
time_elpased: 1.616
#iterations: 285
currently lose_sum: 0.6056839227676392
time_elpased: 1.629
#iterations: 286
currently lose_sum: 0.6197212338447571
time_elpased: 1.624
#iterations: 287
currently lose_sum: 0.5567194819450378
time_elpased: 1.635
#iterations: 288
currently lose_sum: 0.6637275815010071
time_elpased: 1.613
#iterations: 289
currently lose_sum: 0.6445237398147583
time_elpased: 1.625
#iterations: 290
currently lose_sum: 0.6759172677993774
time_elpased: 1.614
#iterations: 291
currently lose_sum: 0.7179617285728455
time_elpased: 1.634
#iterations: 292
currently lose_sum: 0.5782337188720703
time_elpased: 1.674
#iterations: 293
currently lose_sum: 0.6399138569831848
time_elpased: 1.649
#iterations: 294
currently lose_sum: 0.6513527631759644
time_elpased: 1.632
#iterations: 295
currently lose_sum: 0.6492704749107361
time_elpased: 1.638
#iterations: 296
currently lose_sum: 0.6760214567184448
time_elpased: 1.627
#iterations: 297
currently lose_sum: 0.7055825591087341
time_elpased: 1.647
#iterations: 298
currently lose_sum: 0.6332815289497375
time_elpased: 1.635
#iterations: 299
currently lose_sum: 0.6061690449714661
time_elpased: 1.668
start validation test
0.611538461538
0.603926096998
0.665394402036
0.633171912833
0.611120973628
25.790
#iterations: 300
currently lose_sum: 0.6052975058555603
time_elpased: 1.678
#iterations: 301
currently lose_sum: 0.7038149237632751
time_elpased: 1.639
#iterations: 302
currently lose_sum: 0.5963617563247681
time_elpased: 1.652
#iterations: 303
currently lose_sum: 0.6267728209495544
time_elpased: 1.633
#iterations: 304
currently lose_sum: 0.6946423649787903
time_elpased: 1.66
#iterations: 305
currently lose_sum: 0.660123348236084
time_elpased: 1.646
#iterations: 306
currently lose_sum: 0.6801679730415344
time_elpased: 1.651
#iterations: 307
currently lose_sum: 0.6333610415458679
time_elpased: 1.616
#iterations: 308
currently lose_sum: 0.562559962272644
time_elpased: 1.636
#iterations: 309
currently lose_sum: 0.6188587546348572
time_elpased: 1.631
#iterations: 310
currently lose_sum: 0.6967061758041382
time_elpased: 1.633
#iterations: 311
currently lose_sum: 0.6251388788223267
time_elpased: 1.626
#iterations: 312
currently lose_sum: 0.680780291557312
time_elpased: 1.642
#iterations: 313
currently lose_sum: 0.7082606554031372
time_elpased: 1.646
#iterations: 314
currently lose_sum: 0.6753047108650208
time_elpased: 1.618
#iterations: 315
currently lose_sum: 0.6535961031913757
time_elpased: 1.625
#iterations: 316
currently lose_sum: 0.7166056036949158
time_elpased: 1.666
#iterations: 317
currently lose_sum: 0.682723343372345
time_elpased: 1.626
#iterations: 318
currently lose_sum: 0.6252280473709106
time_elpased: 1.631
#iterations: 319
currently lose_sum: 0.6113492250442505
time_elpased: 1.639
start validation test
0.6
0.609164420485
0.575063613232
0.591623036649
0.600193305324
25.886
#iterations: 320
currently lose_sum: 0.6280683279037476
time_elpased: 1.655
#iterations: 321
currently lose_sum: 0.6930134296417236
time_elpased: 1.655
#iterations: 322
currently lose_sum: 0.6291313171386719
time_elpased: 1.665
#iterations: 323
currently lose_sum: 0.5929190516471863
time_elpased: 1.65
#iterations: 324
currently lose_sum: 0.6005207896232605
time_elpased: 1.658
#iterations: 325
currently lose_sum: 0.6149369478225708
time_elpased: 1.678
#iterations: 326
currently lose_sum: 0.589471161365509
time_elpased: 1.672
#iterations: 327
currently lose_sum: 0.661537230014801
time_elpased: 1.651
#iterations: 328
currently lose_sum: 0.5826014280319214
time_elpased: 1.617
#iterations: 329
currently lose_sum: 0.6649466753005981
time_elpased: 1.644
#iterations: 330
currently lose_sum: 0.5843099355697632
time_elpased: 1.625
#iterations: 331
currently lose_sum: 0.6899397969245911
time_elpased: 1.65
#iterations: 332
currently lose_sum: 0.6227560043334961
time_elpased: 1.649
#iterations: 333
currently lose_sum: 0.6021765470504761
time_elpased: 1.646
#iterations: 334
currently lose_sum: 0.6201294660568237
time_elpased: 1.634
#iterations: 335
currently lose_sum: 0.6262297630310059
time_elpased: 1.644
#iterations: 336
currently lose_sum: 0.6685608625411987
time_elpased: 1.621
#iterations: 337
currently lose_sum: 0.5839009284973145
time_elpased: 1.618
#iterations: 338
currently lose_sum: 0.6880202293395996
time_elpased: 1.638
#iterations: 339
currently lose_sum: 0.6888724565505981
time_elpased: 1.633
start validation test
0.6
0.595070422535
0.645038167939
0.619047619048
0.599650866915
25.755
#iterations: 340
currently lose_sum: 0.6829198002815247
time_elpased: 1.619
#iterations: 341
currently lose_sum: 0.6211285591125488
time_elpased: 1.619
#iterations: 342
currently lose_sum: 0.6504455804824829
time_elpased: 1.611
#iterations: 343
currently lose_sum: 0.5826365947723389
time_elpased: 1.628
#iterations: 344
currently lose_sum: 0.571671724319458
time_elpased: 1.648
#iterations: 345
currently lose_sum: 0.5601038336753845
time_elpased: 1.623
#iterations: 346
currently lose_sum: 0.6534137725830078
time_elpased: 1.626
#iterations: 347
currently lose_sum: 0.6830270290374756
time_elpased: 1.636
#iterations: 348
currently lose_sum: 0.5486531257629395
time_elpased: 1.647
#iterations: 349
currently lose_sum: 0.5949321985244751
time_elpased: 1.651
#iterations: 350
currently lose_sum: 0.5906009674072266
time_elpased: 1.616
#iterations: 351
currently lose_sum: 0.6464673280715942
time_elpased: 1.605
#iterations: 352
currently lose_sum: 0.6350050568580627
time_elpased: 1.619
#iterations: 353
currently lose_sum: 0.5699605941772461
time_elpased: 1.613
#iterations: 354
currently lose_sum: 0.6063257455825806
time_elpased: 1.631
#iterations: 355
currently lose_sum: 0.7043962478637695
time_elpased: 1.636
#iterations: 356
currently lose_sum: 0.6463004350662231
time_elpased: 1.631
#iterations: 357
currently lose_sum: 0.547801673412323
time_elpased: 1.69
#iterations: 358
currently lose_sum: 0.6071041822433472
time_elpased: 1.654
#iterations: 359
currently lose_sum: 0.6178885698318481
time_elpased: 1.661
start validation test
0.596153846154
0.591981132075
0.638676844784
0.614443084455
0.595824210506
25.929
#iterations: 360
currently lose_sum: 0.601082444190979
time_elpased: 1.647
#iterations: 361
currently lose_sum: 0.6721071004867554
time_elpased: 1.651
#iterations: 362
currently lose_sum: 0.6863360404968262
time_elpased: 1.654
#iterations: 363
currently lose_sum: 0.6281912922859192
time_elpased: 1.633
#iterations: 364
currently lose_sum: 0.681364893913269
time_elpased: 1.629
#iterations: 365
currently lose_sum: 0.6075268983840942
time_elpased: 1.647
#iterations: 366
currently lose_sum: 0.7072322368621826
time_elpased: 1.661
#iterations: 367
currently lose_sum: 0.7299066781997681
time_elpased: 1.638
#iterations: 368
currently lose_sum: 0.7230028510093689
time_elpased: 1.627
#iterations: 369
currently lose_sum: 0.6508132219314575
time_elpased: 1.619
#iterations: 370
currently lose_sum: 0.6643531918525696
time_elpased: 1.638
#iterations: 371
currently lose_sum: 0.6590797305107117
time_elpased: 1.625
#iterations: 372
currently lose_sum: 0.5793716907501221
time_elpased: 1.63
#iterations: 373
currently lose_sum: 0.6076138615608215
time_elpased: 1.622
#iterations: 374
currently lose_sum: 0.6211135387420654
time_elpased: 1.633
#iterations: 375
currently lose_sum: 0.5840011835098267
time_elpased: 1.616
#iterations: 376
currently lose_sum: 0.645590603351593
time_elpased: 1.629
#iterations: 377
currently lose_sum: 0.6677433252334595
time_elpased: 1.634
#iterations: 378
currently lose_sum: 0.5512730479240417
time_elpased: 1.649
#iterations: 379
currently lose_sum: 0.6342394351959229
time_elpased: 1.642
start validation test
0.609615384615
0.64824120603
0.492366412214
0.559652928416
0.610524291378
26.060
#iterations: 380
currently lose_sum: 0.6726869344711304
time_elpased: 1.65
#iterations: 381
currently lose_sum: 0.5931798219680786
time_elpased: 1.628
#iterations: 382
currently lose_sum: 0.7088482975959778
time_elpased: 1.628
#iterations: 383
currently lose_sum: 0.6707724928855896
time_elpased: 1.641
#iterations: 384
currently lose_sum: 0.6046401262283325
time_elpased: 1.615
#iterations: 385
currently lose_sum: 0.5782145261764526
time_elpased: 1.619
#iterations: 386
currently lose_sum: 0.6308708190917969
time_elpased: 1.651
#iterations: 387
currently lose_sum: 0.7188206315040588
time_elpased: 1.614
#iterations: 388
currently lose_sum: 0.6362400054931641
time_elpased: 1.62
#iterations: 389
currently lose_sum: 0.6724374294281006
time_elpased: 1.61
#iterations: 390
currently lose_sum: 0.6864646077156067
time_elpased: 1.627
#iterations: 391
currently lose_sum: 0.6754956245422363
time_elpased: 1.613
#iterations: 392
currently lose_sum: 0.662904679775238
time_elpased: 1.624
#iterations: 393
currently lose_sum: 0.7345324158668518
time_elpased: 1.618
#iterations: 394
currently lose_sum: 0.6626123189926147
time_elpased: 1.62
#iterations: 395
currently lose_sum: 0.5957435369491577
time_elpased: 1.619
#iterations: 396
currently lose_sum: 0.6236530542373657
time_elpased: 1.619
#iterations: 397
currently lose_sum: 0.6646334528923035
time_elpased: 1.626
#iterations: 398
currently lose_sum: 0.7134318351745605
time_elpased: 1.622
#iterations: 399
currently lose_sum: 0.6898757219314575
time_elpased: 1.625
start validation test
0.607692307692
0.601635514019
0.655216284987
0.627283800244
0.607323904768
25.771
#iterations: 400
currently lose_sum: 0.6143949031829834
time_elpased: 1.627
#iterations: 401
currently lose_sum: 0.638089656829834
time_elpased: 1.624
#iterations: 402
currently lose_sum: 0.5774022340774536
time_elpased: 1.624
#iterations: 403
currently lose_sum: 0.6037846803665161
time_elpased: 1.638
#iterations: 404
currently lose_sum: 0.6833816766738892
time_elpased: 1.624
#iterations: 405
currently lose_sum: 0.6344003677368164
time_elpased: 1.625
#iterations: 406
currently lose_sum: 0.6200401186943054
time_elpased: 1.612
#iterations: 407
currently lose_sum: 0.5686596632003784
time_elpased: 1.626
#iterations: 408
currently lose_sum: 0.6777579188346863
time_elpased: 1.649
#iterations: 409
currently lose_sum: 0.6772160530090332
time_elpased: 1.672
#iterations: 410
currently lose_sum: 0.6261029839515686
time_elpased: 1.634
#iterations: 411
currently lose_sum: 0.5669517517089844
time_elpased: 1.637
#iterations: 412
currently lose_sum: 0.6181802153587341
time_elpased: 1.63
#iterations: 413
currently lose_sum: 0.6327735185623169
time_elpased: 1.652
#iterations: 414
currently lose_sum: 0.6382957696914673
time_elpased: 1.65
#iterations: 415
currently lose_sum: 0.7036454081535339
time_elpased: 1.629
#iterations: 416
currently lose_sum: 0.6447591781616211
time_elpased: 1.665
#iterations: 417
currently lose_sum: 0.7215754985809326
time_elpased: 1.647
#iterations: 418
currently lose_sum: 0.6251823902130127
time_elpased: 1.653
#iterations: 419
currently lose_sum: 0.7003869414329529
time_elpased: 1.646
start validation test
0.612179487179
0.605355064028
0.661577608142
0.632218844985
0.611796556009
25.667
#iterations: 420
currently lose_sum: 0.6969264149665833
time_elpased: 1.659
#iterations: 421
currently lose_sum: 0.651124119758606
time_elpased: 1.629
#iterations: 422
currently lose_sum: 0.6501404643058777
time_elpased: 1.624
#iterations: 423
currently lose_sum: 0.6051260232925415
time_elpased: 1.639
#iterations: 424
currently lose_sum: 0.7400216460227966
time_elpased: 1.627
#iterations: 425
currently lose_sum: 0.6706097722053528
time_elpased: 1.653
#iterations: 426
currently lose_sum: 0.6626659631729126
time_elpased: 1.653
#iterations: 427
currently lose_sum: 0.5947105288505554
time_elpased: 1.643
#iterations: 428
currently lose_sum: 0.587961733341217
time_elpased: 1.642
#iterations: 429
currently lose_sum: 0.7072612047195435
time_elpased: 1.646
#iterations: 430
currently lose_sum: 0.6691177487373352
time_elpased: 1.639
#iterations: 431
currently lose_sum: 0.5757114291191101
time_elpased: 1.65
#iterations: 432
currently lose_sum: 0.6361631155014038
time_elpased: 1.638
#iterations: 433
currently lose_sum: 0.6500967144966125
time_elpased: 1.653
#iterations: 434
currently lose_sum: 0.6371137499809265
time_elpased: 1.647
#iterations: 435
currently lose_sum: 0.7024463415145874
time_elpased: 1.653
#iterations: 436
currently lose_sum: 0.6251696944236755
time_elpased: 1.634
#iterations: 437
currently lose_sum: 0.6348276138305664
time_elpased: 1.612
#iterations: 438
currently lose_sum: 0.5472264885902405
time_elpased: 1.621
#iterations: 439
currently lose_sum: 0.615672767162323
time_elpased: 1.622
start validation test
0.610256410256
0.604460093897
0.655216284987
0.628815628816
0.609907884096
25.717
#iterations: 440
currently lose_sum: 0.6281145811080933
time_elpased: 1.623
#iterations: 441
currently lose_sum: 0.642978847026825
time_elpased: 1.632
#iterations: 442
currently lose_sum: 0.6283959150314331
time_elpased: 1.677
#iterations: 443
currently lose_sum: 0.6361958384513855
time_elpased: 1.616
#iterations: 444
currently lose_sum: 0.6699700355529785
time_elpased: 1.618
#iterations: 445
currently lose_sum: 0.6556018590927124
time_elpased: 1.623
#iterations: 446
currently lose_sum: 0.7567920684814453
time_elpased: 1.633
#iterations: 447
currently lose_sum: 0.6207278966903687
time_elpased: 1.624
#iterations: 448
currently lose_sum: 0.6119667291641235
time_elpased: 1.629
#iterations: 449
currently lose_sum: 0.6581336259841919
time_elpased: 1.623
#iterations: 450
currently lose_sum: 0.6068351864814758
time_elpased: 1.618
#iterations: 451
currently lose_sum: 0.6223620176315308
time_elpased: 1.618
#iterations: 452
currently lose_sum: 0.5600315928459167
time_elpased: 1.628
#iterations: 453
currently lose_sum: 0.7036018371582031
time_elpased: 1.626
#iterations: 454
currently lose_sum: 0.5341097116470337
time_elpased: 1.642
#iterations: 455
currently lose_sum: 0.5466243028640747
time_elpased: 1.671
#iterations: 456
currently lose_sum: 0.7674942016601562
time_elpased: 1.648
#iterations: 457
currently lose_sum: 0.6744549870491028
time_elpased: 1.644
#iterations: 458
currently lose_sum: 0.5749629139900208
time_elpased: 1.643
#iterations: 459
currently lose_sum: 0.7421923875808716
time_elpased: 1.633
start validation test
0.623717948718
0.643578643579
0.567430025445
0.603110209601
0.624154289208
25.813
#iterations: 460
currently lose_sum: 0.5976911783218384
time_elpased: 1.643
#iterations: 461
currently lose_sum: 0.5355428457260132
time_elpased: 1.622
#iterations: 462
currently lose_sum: 0.602989912033081
time_elpased: 1.617
#iterations: 463
currently lose_sum: 0.6850994229316711
time_elpased: 1.621
#iterations: 464
currently lose_sum: 0.6253153681755066
time_elpased: 1.621
#iterations: 465
currently lose_sum: 0.6550729870796204
time_elpased: 1.619
#iterations: 466
currently lose_sum: 0.6645131707191467
time_elpased: 1.641
#iterations: 467
currently lose_sum: 0.6669500470161438
time_elpased: 1.621
#iterations: 468
currently lose_sum: 0.6541584730148315
time_elpased: 1.622
#iterations: 469
currently lose_sum: 0.6857775449752808
time_elpased: 1.62
#iterations: 470
currently lose_sum: 0.5973074436187744
time_elpased: 1.618
#iterations: 471
currently lose_sum: 0.6728582382202148
time_elpased: 1.615
#iterations: 472
currently lose_sum: 0.5880856513977051
time_elpased: 1.623
#iterations: 473
currently lose_sum: 0.6096557974815369
time_elpased: 1.616
#iterations: 474
currently lose_sum: 0.5719184875488281
time_elpased: 1.608
#iterations: 475
currently lose_sum: 0.6441112756729126
time_elpased: 1.62
#iterations: 476
currently lose_sum: 0.7049323320388794
time_elpased: 1.616
#iterations: 477
currently lose_sum: 0.60748690366745
time_elpased: 1.653
#iterations: 478
currently lose_sum: 0.6804348230361938
time_elpased: 1.618
#iterations: 479
currently lose_sum: 0.6415227651596069
time_elpased: 1.622
start validation test
0.616025641026
0.631136044881
0.572519083969
0.600400266845
0.616362901158
25.701
#iterations: 480
currently lose_sum: 0.712488055229187
time_elpased: 1.648
#iterations: 481
currently lose_sum: 0.68565434217453
time_elpased: 1.625
#iterations: 482
currently lose_sum: 0.6002699732780457
time_elpased: 1.623
#iterations: 483
currently lose_sum: 0.618704617023468
time_elpased: 1.625
#iterations: 484
currently lose_sum: 0.6285368204116821
time_elpased: 1.624
#iterations: 485
currently lose_sum: 0.6653594970703125
time_elpased: 1.643
#iterations: 486
currently lose_sum: 0.5141997933387756
time_elpased: 1.626
#iterations: 487
currently lose_sum: 0.6432105898857117
time_elpased: 1.64
#iterations: 488
currently lose_sum: 0.6092023849487305
time_elpased: 1.623
#iterations: 489
currently lose_sum: 0.6053338050842285
time_elpased: 1.616
#iterations: 490
currently lose_sum: 0.6298993229866028
time_elpased: 1.612
#iterations: 491
currently lose_sum: 0.7133349180221558
time_elpased: 1.62
#iterations: 492
currently lose_sum: 0.6310693025588989
time_elpased: 1.623
#iterations: 493
currently lose_sum: 0.6443976759910583
time_elpased: 1.624
#iterations: 494
currently lose_sum: 0.6638029217720032
time_elpased: 1.635
#iterations: 495
currently lose_sum: 0.6690860986709595
time_elpased: 1.633
#iterations: 496
currently lose_sum: 0.5630946755409241
time_elpased: 1.656
#iterations: 497
currently lose_sum: 0.6369100213050842
time_elpased: 1.645
#iterations: 498
currently lose_sum: 0.5214136838912964
time_elpased: 1.64
#iterations: 499
currently lose_sum: 0.6300103068351746
time_elpased: 1.625
start validation test
0.610256410256
0.615885416667
0.601781170483
0.608751608752
0.61032210979
25.795
#iterations: 500
currently lose_sum: 0.6044429540634155
time_elpased: 1.636
#iterations: 501
currently lose_sum: 0.6067094206809998
time_elpased: 1.639
#iterations: 502
currently lose_sum: 0.7018856406211853
time_elpased: 1.674
#iterations: 503
currently lose_sum: 0.611166775226593
time_elpased: 1.621
#iterations: 504
currently lose_sum: 0.6020315885543823
time_elpased: 1.628
#iterations: 505
currently lose_sum: 0.5982391834259033
time_elpased: 1.623
#iterations: 506
currently lose_sum: 0.6308754682540894
time_elpased: 1.65
#iterations: 507
currently lose_sum: 0.6623406410217285
time_elpased: 1.633
#iterations: 508
currently lose_sum: 0.6449999213218689
time_elpased: 1.628
#iterations: 509
currently lose_sum: 0.6244286298751831
time_elpased: 1.664
#iterations: 510
currently lose_sum: 0.6127106547355652
time_elpased: 1.667
#iterations: 511
currently lose_sum: 0.6505110859870911
time_elpased: 1.645
#iterations: 512
currently lose_sum: 0.5443777441978455
time_elpased: 1.639
#iterations: 513
currently lose_sum: 0.5993896126747131
time_elpased: 1.63
#iterations: 514
currently lose_sum: 0.6671150326728821
time_elpased: 1.624
#iterations: 515
currently lose_sum: 0.5799268484115601
time_elpased: 1.63
#iterations: 516
currently lose_sum: 0.6387525796890259
time_elpased: 1.671
#iterations: 517
currently lose_sum: 0.6280968189239502
time_elpased: 1.643
#iterations: 518
currently lose_sum: 0.6380012631416321
time_elpased: 1.642
#iterations: 519
currently lose_sum: 0.6319035291671753
time_elpased: 1.634
start validation test
0.619871794872
0.632373113855
0.586513994911
0.608580858086
0.620130382468
25.620
#iterations: 520
currently lose_sum: 0.5976642370223999
time_elpased: 1.637
#iterations: 521
currently lose_sum: 0.5813222527503967
time_elpased: 1.642
#iterations: 522
currently lose_sum: 0.7162526845932007
time_elpased: 1.649
#iterations: 523
currently lose_sum: 0.6824837923049927
time_elpased: 1.659
#iterations: 524
currently lose_sum: 0.6928898096084595
time_elpased: 1.661
#iterations: 525
currently lose_sum: 0.6934951543807983
time_elpased: 1.665
#iterations: 526
currently lose_sum: 0.6767253279685974
time_elpased: 1.649
#iterations: 527
currently lose_sum: 0.6693102717399597
time_elpased: 1.638
#iterations: 528
currently lose_sum: 0.6626447439193726
time_elpased: 1.623
#iterations: 529
currently lose_sum: 0.6308900117874146
time_elpased: 1.644
#iterations: 530
currently lose_sum: 0.6552320718765259
time_elpased: 1.625
#iterations: 531
currently lose_sum: 0.6348185539245605
time_elpased: 1.647
#iterations: 532
currently lose_sum: 0.6982700228691101
time_elpased: 1.656
#iterations: 533
currently lose_sum: 0.5539900064468384
time_elpased: 1.648
#iterations: 534
currently lose_sum: 0.6524073481559753
time_elpased: 1.638
#iterations: 535
currently lose_sum: 0.7288458943367004
time_elpased: 1.651
#iterations: 536
currently lose_sum: 0.6137975454330444
time_elpased: 1.648
#iterations: 537
currently lose_sum: 0.6688476800918579
time_elpased: 1.645
#iterations: 538
currently lose_sum: 0.5372892022132874
time_elpased: 1.643
#iterations: 539
currently lose_sum: 0.5958825349807739
time_elpased: 1.667
start validation test
0.612179487179
0.617076326003
0.606870229008
0.611930724824
0.61222064422
25.762
#iterations: 540
currently lose_sum: 0.5799723863601685
time_elpased: 1.639
#iterations: 541
currently lose_sum: 0.6370489001274109
time_elpased: 1.625
#iterations: 542
currently lose_sum: 0.6829317808151245
time_elpased: 1.62
#iterations: 543
currently lose_sum: 0.7063043117523193
time_elpased: 1.631
#iterations: 544
currently lose_sum: 0.596010684967041
time_elpased: 1.633
#iterations: 545
currently lose_sum: 0.7014960050582886
time_elpased: 1.641
#iterations: 546
currently lose_sum: 0.6345624327659607
time_elpased: 1.635
#iterations: 547
currently lose_sum: 0.6372114419937134
time_elpased: 1.631
#iterations: 548
currently lose_sum: 0.6782917976379395
time_elpased: 1.646
#iterations: 549
currently lose_sum: 0.61101895570755
time_elpased: 1.624
#iterations: 550
currently lose_sum: 0.6113060712814331
time_elpased: 1.655
#iterations: 551
currently lose_sum: 0.5974782705307007
time_elpased: 1.646
#iterations: 552
currently lose_sum: 0.6378790140151978
time_elpased: 1.618
#iterations: 553
currently lose_sum: 0.6473536491394043
time_elpased: 1.633
#iterations: 554
currently lose_sum: 0.5959898233413696
time_elpased: 1.614
#iterations: 555
currently lose_sum: 0.63709557056427
time_elpased: 1.612
#iterations: 556
currently lose_sum: 0.6664239764213562
time_elpased: 1.625
#iterations: 557
currently lose_sum: 0.6250398755073547
time_elpased: 1.621
#iterations: 558
currently lose_sum: 0.6064898371696472
time_elpased: 1.641
#iterations: 559
currently lose_sum: 0.5526444911956787
time_elpased: 1.683
start validation test
0.614743589744
0.632711621234
0.56106870229
0.594740391099
0.615159674142
25.847
#iterations: 560
currently lose_sum: 0.6106746792793274
time_elpased: 1.702
#iterations: 561
currently lose_sum: 0.637851893901825
time_elpased: 1.671
#iterations: 562
currently lose_sum: 0.6203771829605103
time_elpased: 1.673
#iterations: 563
currently lose_sum: 0.598509669303894
time_elpased: 1.664
#iterations: 564
currently lose_sum: 0.6016402840614319
time_elpased: 1.644
#iterations: 565
currently lose_sum: 0.6864530444145203
time_elpased: 1.658
#iterations: 566
currently lose_sum: 0.6500412225723267
time_elpased: 1.634
#iterations: 567
currently lose_sum: 0.7092243432998657
time_elpased: 1.629
#iterations: 568
currently lose_sum: 0.6577061414718628
time_elpased: 1.621
#iterations: 569
currently lose_sum: 0.6122111082077026
time_elpased: 1.623
#iterations: 570
currently lose_sum: 0.6707189679145813
time_elpased: 1.63
#iterations: 571
currently lose_sum: 0.5774100422859192
time_elpased: 1.651
#iterations: 572
currently lose_sum: 0.6548382043838501
time_elpased: 1.642
#iterations: 573
currently lose_sum: 0.5525325536727905
time_elpased: 1.627
#iterations: 574
currently lose_sum: 0.7082842588424683
time_elpased: 1.63
#iterations: 575
currently lose_sum: 0.6468541026115417
time_elpased: 1.631
#iterations: 576
currently lose_sum: 0.5726941227912903
time_elpased: 1.665
#iterations: 577
currently lose_sum: 0.5769901275634766
time_elpased: 1.658
#iterations: 578
currently lose_sum: 0.6274542808532715
time_elpased: 1.662
#iterations: 579
currently lose_sum: 0.689799964427948
time_elpased: 1.648
start validation test
0.608333333333
0.611464968153
0.610687022901
0.611075747931
0.608315087678
25.808
#iterations: 580
currently lose_sum: 0.616129994392395
time_elpased: 1.704
#iterations: 581
currently lose_sum: 0.5632959008216858
time_elpased: 1.651
#iterations: 582
currently lose_sum: 0.618281364440918
time_elpased: 1.64
#iterations: 583
currently lose_sum: 0.6525940895080566
time_elpased: 1.639
#iterations: 584
currently lose_sum: 0.6186858415603638
time_elpased: 1.656
#iterations: 585
currently lose_sum: 0.5544795393943787
time_elpased: 1.623
#iterations: 586
currently lose_sum: 0.6180393695831299
time_elpased: 1.63
#iterations: 587
currently lose_sum: 0.6520304679870605
time_elpased: 1.668
#iterations: 588
currently lose_sum: 0.603225588798523
time_elpased: 1.651
#iterations: 589
currently lose_sum: 0.6131055355072021
time_elpased: 1.66
#iterations: 590
currently lose_sum: 0.6518863439559937
time_elpased: 1.661
#iterations: 591
currently lose_sum: 0.6044595837593079
time_elpased: 1.646
#iterations: 592
currently lose_sum: 0.6849425435066223
time_elpased: 1.666
#iterations: 593
currently lose_sum: 0.6650556325912476
time_elpased: 1.648
#iterations: 594
currently lose_sum: 0.6512090563774109
time_elpased: 1.636
#iterations: 595
currently lose_sum: 0.5788925886154175
time_elpased: 1.634
#iterations: 596
currently lose_sum: 0.7003231048583984
time_elpased: 1.636
#iterations: 597
currently lose_sum: 0.5260229706764221
time_elpased: 1.679
#iterations: 598
currently lose_sum: 0.6653439402580261
time_elpased: 1.637
#iterations: 599
currently lose_sum: 0.6761622428894043
time_elpased: 1.656
start validation test
0.596153846154
0.582627118644
0.699745547074
0.635838150289
0.595350809713
25.864
acc: 0.624
pre: 0.634
rec: 0.602
F1: 0.617
auc: 0.625
