start to construct computing graph
graph construct over
2360
epochs start
#iterations: 0
currently lose_sum: 0.698800802230835
time_elpased: 2.332
#iterations: 1
currently lose_sum: 0.6781409978866577
time_elpased: 2.323
#iterations: 2
currently lose_sum: 0.7043889164924622
time_elpased: 2.29
#iterations: 3
currently lose_sum: 0.6850301027297974
time_elpased: 2.249
#iterations: 4
currently lose_sum: 0.6868680715560913
time_elpased: 2.279
#iterations: 5
currently lose_sum: 0.6438746452331543
time_elpased: 2.262
#iterations: 6
currently lose_sum: 0.7101883292198181
time_elpased: 2.26
#iterations: 7
currently lose_sum: 0.7387834191322327
time_elpased: 2.314
#iterations: 8
currently lose_sum: 0.6850005388259888
time_elpased: 2.277
#iterations: 9
currently lose_sum: 0.7122650742530823
time_elpased: 2.398
#iterations: 10
currently lose_sum: 0.6833184361457825
time_elpased: 2.269
#iterations: 11
currently lose_sum: 0.7241767644882202
time_elpased: 2.29
#iterations: 12
currently lose_sum: 0.6719278693199158
time_elpased: 2.256
#iterations: 13
currently lose_sum: 0.7419379949569702
time_elpased: 2.282
#iterations: 14
currently lose_sum: 0.6531628370285034
time_elpased: 2.307
#iterations: 15
currently lose_sum: 0.7242648005485535
time_elpased: 2.271
#iterations: 16
currently lose_sum: 0.6699329614639282
time_elpased: 2.269
#iterations: 17
currently lose_sum: 0.6493273973464966
time_elpased: 2.267
#iterations: 18
currently lose_sum: 0.7161927223205566
time_elpased: 2.294
#iterations: 19
currently lose_sum: 0.6726371645927429
time_elpased: 2.244
start validation test
0.544871794872
0.559139784946
0.4625158831
0.506258692629
0.545617579325
26.667
#iterations: 20
currently lose_sum: 0.6898534893989563
time_elpased: 1.729
#iterations: 21
currently lose_sum: 0.6772162914276123
time_elpased: 1.681
#iterations: 22
currently lose_sum: 0.7027730941772461
time_elpased: 1.673
#iterations: 23
currently lose_sum: 0.6721777319908142
time_elpased: 1.698
#iterations: 24
currently lose_sum: 0.6900971531867981
time_elpased: 1.685
#iterations: 25
currently lose_sum: 0.6765864491462708
time_elpased: 1.669
#iterations: 26
currently lose_sum: 0.6623959541320801
time_elpased: 1.684
#iterations: 27
currently lose_sum: 0.6629140377044678
time_elpased: 1.686
#iterations: 28
currently lose_sum: 0.72877037525177
time_elpased: 1.688
#iterations: 29
currently lose_sum: 0.6705670356750488
time_elpased: 1.693
#iterations: 30
currently lose_sum: 0.7282599210739136
time_elpased: 1.686
#iterations: 31
currently lose_sum: 0.6732733249664307
time_elpased: 1.68
#iterations: 32
currently lose_sum: 0.6679747700691223
time_elpased: 1.658
#iterations: 33
currently lose_sum: 0.6497966647148132
time_elpased: 1.673
#iterations: 34
currently lose_sum: 0.7085262537002563
time_elpased: 1.689
#iterations: 35
currently lose_sum: 0.6962520480155945
time_elpased: 1.679
#iterations: 36
currently lose_sum: 0.6989327073097229
time_elpased: 1.707
#iterations: 37
currently lose_sum: 0.6442312002182007
time_elpased: 1.677
#iterations: 38
currently lose_sum: 0.6743011474609375
time_elpased: 1.671
#iterations: 39
currently lose_sum: 0.67210853099823
time_elpased: 1.677
start validation test
0.565384615385
0.544855967078
0.841168996188
0.661338661339
0.562887214782
26.551
#iterations: 40
currently lose_sum: 0.6715962290763855
time_elpased: 1.671
#iterations: 41
currently lose_sum: 0.6830310821533203
time_elpased: 1.678
#iterations: 42
currently lose_sum: 0.6483656167984009
time_elpased: 1.642
#iterations: 43
currently lose_sum: 0.650536835193634
time_elpased: 1.67
#iterations: 44
currently lose_sum: 0.6804704070091248
time_elpased: 1.689
#iterations: 45
currently lose_sum: 0.6155058145523071
time_elpased: 1.677
#iterations: 46
currently lose_sum: 0.6788406372070312
time_elpased: 1.684
#iterations: 47
currently lose_sum: 0.6342668533325195
time_elpased: 1.705
#iterations: 48
currently lose_sum: 0.6585283279418945
time_elpased: 1.656
#iterations: 49
currently lose_sum: 0.6939650177955627
time_elpased: 1.688
#iterations: 50
currently lose_sum: 0.6900300979614258
time_elpased: 1.656
#iterations: 51
currently lose_sum: 0.6770378947257996
time_elpased: 1.656
#iterations: 52
currently lose_sum: 0.705165684223175
time_elpased: 1.656
#iterations: 53
currently lose_sum: 0.6777905225753784
time_elpased: 1.664
#iterations: 54
currently lose_sum: 0.6043412089347839
time_elpased: 1.695
#iterations: 55
currently lose_sum: 0.703341007232666
time_elpased: 1.644
#iterations: 56
currently lose_sum: 0.6794713735580444
time_elpased: 1.694
#iterations: 57
currently lose_sum: 0.6791804432868958
time_elpased: 1.66
#iterations: 58
currently lose_sum: 0.6023839712142944
time_elpased: 1.661
#iterations: 59
currently lose_sum: 0.7369095087051392
time_elpased: 1.664
start validation test
0.559615384615
0.576219512195
0.480304955527
0.523908523909
0.560333590312
26.346
#iterations: 60
currently lose_sum: 0.654233455657959
time_elpased: 1.664
#iterations: 61
currently lose_sum: 0.6747838258743286
time_elpased: 1.671
#iterations: 62
currently lose_sum: 0.6852035522460938
time_elpased: 1.645
#iterations: 63
currently lose_sum: 0.6920616030693054
time_elpased: 1.68
#iterations: 64
currently lose_sum: 0.6886939406394958
time_elpased: 1.664
#iterations: 65
currently lose_sum: 0.6881042122840881
time_elpased: 1.674
#iterations: 66
currently lose_sum: 0.6069515347480774
time_elpased: 1.658
#iterations: 67
currently lose_sum: 0.6813904047012329
time_elpased: 1.7
#iterations: 68
currently lose_sum: 0.6451613306999207
time_elpased: 1.658
#iterations: 69
currently lose_sum: 0.6544986963272095
time_elpased: 1.654
#iterations: 70
currently lose_sum: 0.6302856206893921
time_elpased: 1.668
#iterations: 71
currently lose_sum: 0.6820701360702515
time_elpased: 1.659
#iterations: 72
currently lose_sum: 0.714296817779541
time_elpased: 1.644
#iterations: 73
currently lose_sum: 0.6336541175842285
time_elpased: 1.669
#iterations: 74
currently lose_sum: 0.6979689002037048
time_elpased: 1.664
#iterations: 75
currently lose_sum: 0.7013152837753296
time_elpased: 1.685
#iterations: 76
currently lose_sum: 0.6819185614585876
time_elpased: 1.66
#iterations: 77
currently lose_sum: 0.6142832636833191
time_elpased: 1.67
#iterations: 78
currently lose_sum: 0.6976865530014038
time_elpased: 1.686
#iterations: 79
currently lose_sum: 0.6268011331558228
time_elpased: 1.663
start validation test
0.570512820513
0.570737605804
0.599745870394
0.58488228005
0.570248096905
26.101
#iterations: 80
currently lose_sum: 0.7011481523513794
time_elpased: 1.655
#iterations: 81
currently lose_sum: 0.6783382296562195
time_elpased: 1.647
#iterations: 82
currently lose_sum: 0.7478518486022949
time_elpased: 1.669
#iterations: 83
currently lose_sum: 0.6593613624572754
time_elpased: 1.728
#iterations: 84
currently lose_sum: 0.6914652585983276
time_elpased: 1.67
#iterations: 85
currently lose_sum: 0.6947152018547058
time_elpased: 1.65
#iterations: 86
currently lose_sum: 0.6769335865974426
time_elpased: 1.67
#iterations: 87
currently lose_sum: 0.6452943086624146
time_elpased: 1.666
#iterations: 88
currently lose_sum: 0.6387938261032104
time_elpased: 1.641
#iterations: 89
currently lose_sum: 0.6606959104537964
time_elpased: 1.639
#iterations: 90
currently lose_sum: 0.633554995059967
time_elpased: 1.658
#iterations: 91
currently lose_sum: 0.6781972646713257
time_elpased: 1.672
#iterations: 92
currently lose_sum: 0.6896973848342896
time_elpased: 1.666
#iterations: 93
currently lose_sum: 0.668619692325592
time_elpased: 1.644
#iterations: 94
currently lose_sum: 0.6317928433418274
time_elpased: 1.737
#iterations: 95
currently lose_sum: 0.6349996328353882
time_elpased: 1.67
#iterations: 96
currently lose_sum: 0.6669192314147949
time_elpased: 1.641
#iterations: 97
currently lose_sum: 0.656592845916748
time_elpased: 1.688
#iterations: 98
currently lose_sum: 0.6155678629875183
time_elpased: 1.647
#iterations: 99
currently lose_sum: 0.6461952924728394
time_elpased: 1.631
start validation test
0.55641025641
0.560355781449
0.560355781449
0.560355781449
0.556374527206
26.175
#iterations: 100
currently lose_sum: 0.623593270778656
time_elpased: 1.745
#iterations: 101
currently lose_sum: 0.5856043100357056
time_elpased: 1.647
#iterations: 102
currently lose_sum: 0.7053678631782532
time_elpased: 1.646
#iterations: 103
currently lose_sum: 0.6273680925369263
time_elpased: 1.707
#iterations: 104
currently lose_sum: 0.6311071515083313
time_elpased: 1.692
#iterations: 105
currently lose_sum: 0.7317491769790649
time_elpased: 1.669
#iterations: 106
currently lose_sum: 0.6627036929130554
time_elpased: 1.671
#iterations: 107
currently lose_sum: 0.6815474629402161
time_elpased: 1.662
#iterations: 108
currently lose_sum: 0.5867959856987
time_elpased: 1.698
#iterations: 109
currently lose_sum: 0.7130950689315796
time_elpased: 1.686
#iterations: 110
currently lose_sum: 0.7284465432167053
time_elpased: 1.682
#iterations: 111
currently lose_sum: 0.6087529063224792
time_elpased: 1.668
#iterations: 112
currently lose_sum: 0.7239862680435181
time_elpased: 1.701
#iterations: 113
currently lose_sum: 0.5909625887870789
time_elpased: 1.695
#iterations: 114
currently lose_sum: 0.664597749710083
time_elpased: 1.695
#iterations: 115
currently lose_sum: 0.6801069378852844
time_elpased: 1.687
#iterations: 116
currently lose_sum: 0.6283462047576904
time_elpased: 1.681
#iterations: 117
currently lose_sum: 0.6309033632278442
time_elpased: 1.702
#iterations: 118
currently lose_sum: 0.6604712605476379
time_elpased: 1.691
#iterations: 119
currently lose_sum: 0.6556790471076965
time_elpased: 1.681
start validation test
0.575
0.572261072261
0.623888182973
0.596960486322
0.574557286829
25.990
#iterations: 120
currently lose_sum: 0.6547935605049133
time_elpased: 1.677
#iterations: 121
currently lose_sum: 0.6958135366439819
time_elpased: 1.697
#iterations: 122
currently lose_sum: 0.6563690304756165
time_elpased: 1.713
#iterations: 123
currently lose_sum: 0.6220998764038086
time_elpased: 1.694
#iterations: 124
currently lose_sum: 0.6836814880371094
time_elpased: 1.7
#iterations: 125
currently lose_sum: 0.7358514070510864
time_elpased: 1.694
#iterations: 126
currently lose_sum: 0.6667644381523132
time_elpased: 1.715
#iterations: 127
currently lose_sum: 0.6074444055557251
time_elpased: 1.698
#iterations: 128
currently lose_sum: 0.6066879034042358
time_elpased: 1.721
#iterations: 129
currently lose_sum: 0.6288236379623413
time_elpased: 1.707
#iterations: 130
currently lose_sum: 0.7153361439704895
time_elpased: 1.675
#iterations: 131
currently lose_sum: 0.6550308465957642
time_elpased: 1.702
#iterations: 132
currently lose_sum: 0.6026580929756165
time_elpased: 1.846
#iterations: 133
currently lose_sum: 0.6626136898994446
time_elpased: 1.688
#iterations: 134
currently lose_sum: 0.5897654294967651
time_elpased: 1.683
#iterations: 135
currently lose_sum: 0.6814668774604797
time_elpased: 1.671
#iterations: 136
currently lose_sum: 0.6556428074836731
time_elpased: 1.629
#iterations: 137
currently lose_sum: 0.6271950006484985
time_elpased: 1.641
#iterations: 138
currently lose_sum: 0.6655865907669067
time_elpased: 1.66
#iterations: 139
currently lose_sum: 0.6611574292182922
time_elpased: 1.661
start validation test
0.584615384615
0.581096849475
0.632782719187
0.605839416058
0.584179199179
25.772
#iterations: 140
currently lose_sum: 0.6891623735427856
time_elpased: 1.661
#iterations: 141
currently lose_sum: 0.6608992218971252
time_elpased: 1.669
#iterations: 142
currently lose_sum: 0.6138779520988464
time_elpased: 1.917
#iterations: 143
currently lose_sum: 0.6328609585762024
time_elpased: 1.685
#iterations: 144
currently lose_sum: 0.6430072784423828
time_elpased: 1.618
#iterations: 145
currently lose_sum: 0.6679510474205017
time_elpased: 1.65
#iterations: 146
currently lose_sum: 0.7155899405479431
time_elpased: 1.652
#iterations: 147
currently lose_sum: 0.6603887677192688
time_elpased: 1.648
#iterations: 148
currently lose_sum: 0.6376031637191772
time_elpased: 1.663
#iterations: 149
currently lose_sum: 0.5536230802536011
time_elpased: 1.704
#iterations: 150
currently lose_sum: 0.632249116897583
time_elpased: 1.701
#iterations: 151
currently lose_sum: 0.666130542755127
time_elpased: 1.634
#iterations: 152
currently lose_sum: 0.7108430862426758
time_elpased: 1.649
#iterations: 153
currently lose_sum: 0.6489707827568054
time_elpased: 1.647
#iterations: 154
currently lose_sum: 0.6726583242416382
time_elpased: 1.668
#iterations: 155
currently lose_sum: 0.6272019743919373
time_elpased: 1.678
#iterations: 156
currently lose_sum: 0.6976818442344666
time_elpased: 1.65
#iterations: 157
currently lose_sum: 0.6526371836662292
time_elpased: 1.642
#iterations: 158
currently lose_sum: 0.6601783633232117
time_elpased: 1.623
#iterations: 159
currently lose_sum: 0.6820889711380005
time_elpased: 1.68
start validation test
0.589743589744
0.571014492754
0.750952986023
0.648737650933
0.588283737513
25.697
#iterations: 160
currently lose_sum: 0.7309282422065735
time_elpased: 1.672
#iterations: 161
currently lose_sum: 0.6412416696548462
time_elpased: 1.652
#iterations: 162
currently lose_sum: 0.5741204023361206
time_elpased: 1.653
#iterations: 163
currently lose_sum: 0.6391271948814392
time_elpased: 1.672
#iterations: 164
currently lose_sum: 0.6173660159111023
time_elpased: 1.645
#iterations: 165
currently lose_sum: 0.6184024810791016
time_elpased: 1.667
#iterations: 166
currently lose_sum: 0.6303679347038269
time_elpased: 1.672
#iterations: 167
currently lose_sum: 0.6706334948539734
time_elpased: 1.635
#iterations: 168
currently lose_sum: 0.6365631818771362
time_elpased: 1.649
#iterations: 169
currently lose_sum: 0.6231118440628052
time_elpased: 1.665
#iterations: 170
currently lose_sum: 0.6349870562553406
time_elpased: 1.669
#iterations: 171
currently lose_sum: 0.6340603828430176
time_elpased: 1.663
#iterations: 172
currently lose_sum: 0.6902942657470703
time_elpased: 1.65
#iterations: 173
currently lose_sum: 0.6436409950256348
time_elpased: 1.653
#iterations: 174
currently lose_sum: 0.6256151795387268
time_elpased: 1.703
#iterations: 175
currently lose_sum: 0.6524924039840698
time_elpased: 1.656
#iterations: 176
currently lose_sum: 0.6520174741744995
time_elpased: 1.653
#iterations: 177
currently lose_sum: 0.6020792722702026
time_elpased: 1.642
#iterations: 178
currently lose_sum: 0.5950788259506226
time_elpased: 1.659
#iterations: 179
currently lose_sum: 0.7118268013000488
time_elpased: 1.686
start validation test
0.575
0.600977198697
0.468869123253
0.526766595289
0.575961081678
25.832
#iterations: 180
currently lose_sum: 0.6746748685836792
time_elpased: 1.662
#iterations: 181
currently lose_sum: 0.5643558502197266
time_elpased: 1.636
#iterations: 182
currently lose_sum: 0.6292742490768433
time_elpased: 1.678
#iterations: 183
currently lose_sum: 0.6082650423049927
time_elpased: 1.656
#iterations: 184
currently lose_sum: 0.6666979789733887
time_elpased: 1.657
#iterations: 185
currently lose_sum: 0.7245907783508301
time_elpased: 1.671
#iterations: 186
currently lose_sum: 0.5877867937088013
time_elpased: 1.63
#iterations: 187
currently lose_sum: 0.6595529317855835
time_elpased: 1.745
#iterations: 188
currently lose_sum: 0.6478754281997681
time_elpased: 1.65
#iterations: 189
currently lose_sum: 0.6454428434371948
time_elpased: 1.635
#iterations: 190
currently lose_sum: 0.6364845037460327
time_elpased: 1.648
#iterations: 191
currently lose_sum: 0.6171989440917969
time_elpased: 1.651
#iterations: 192
currently lose_sum: 0.5583893656730652
time_elpased: 1.649
#iterations: 193
currently lose_sum: 0.6495521664619446
time_elpased: 1.662
#iterations: 194
currently lose_sum: 0.6134198904037476
time_elpased: 1.646
#iterations: 195
currently lose_sum: 0.6471749544143677
time_elpased: 1.635
#iterations: 196
currently lose_sum: 0.6512523889541626
time_elpased: 1.658
#iterations: 197
currently lose_sum: 0.6671118140220642
time_elpased: 1.665
#iterations: 198
currently lose_sum: 0.6262790560722351
time_elpased: 1.629
#iterations: 199
currently lose_sum: 0.5567297339439392
time_elpased: 1.657
start validation test
0.590384615385
0.586651053864
0.636594663278
0.610603290676
0.589966154408
25.569
#iterations: 200
currently lose_sum: 0.6235947608947754
time_elpased: 1.656
#iterations: 201
currently lose_sum: 0.6169265508651733
time_elpased: 1.649
#iterations: 202
currently lose_sum: 0.6333625912666321
time_elpased: 1.629
#iterations: 203
currently lose_sum: 0.6772884130477905
time_elpased: 1.636
#iterations: 204
currently lose_sum: 0.7101864814758301
time_elpased: 1.639
#iterations: 205
currently lose_sum: 0.6185322999954224
time_elpased: 1.634
#iterations: 206
currently lose_sum: 0.7766774296760559
time_elpased: 1.645
#iterations: 207
currently lose_sum: 0.6425079703330994
time_elpased: 1.626
#iterations: 208
currently lose_sum: 0.5834392309188843
time_elpased: 1.644
#iterations: 209
currently lose_sum: 0.6478886604309082
time_elpased: 1.621
#iterations: 210
currently lose_sum: 0.6000648140907288
time_elpased: 1.627
#iterations: 211
currently lose_sum: 0.6370368003845215
time_elpased: 1.645
#iterations: 212
currently lose_sum: 0.6737409830093384
time_elpased: 1.654
#iterations: 213
currently lose_sum: 0.6998947262763977
time_elpased: 1.639
#iterations: 214
currently lose_sum: 0.6534748077392578
time_elpased: 1.667
#iterations: 215
currently lose_sum: 0.6394914388656616
time_elpased: 1.643
#iterations: 216
currently lose_sum: 0.6291983127593994
time_elpased: 1.641
#iterations: 217
currently lose_sum: 0.6711949110031128
time_elpased: 1.634
#iterations: 218
currently lose_sum: 0.6209733486175537
time_elpased: 1.653
#iterations: 219
currently lose_sum: 0.5465742945671082
time_elpased: 1.637
start validation test
0.586538461538
0.586165048544
0.613722998729
0.599627560521
0.586292288498
25.571
#iterations: 220
currently lose_sum: 0.6567929983139038
time_elpased: 1.648
#iterations: 221
currently lose_sum: 0.6704209446907043
time_elpased: 1.677
#iterations: 222
currently lose_sum: 0.5865544080734253
time_elpased: 1.673
#iterations: 223
currently lose_sum: 0.651390552520752
time_elpased: 1.652
#iterations: 224
currently lose_sum: 0.6762615442276001
time_elpased: 1.648
#iterations: 225
currently lose_sum: 0.6803932785987854
time_elpased: 1.664
#iterations: 226
currently lose_sum: 0.5707735419273376
time_elpased: 1.652
#iterations: 227
currently lose_sum: 0.6172608137130737
time_elpased: 1.628
#iterations: 228
currently lose_sum: 0.6759747266769409
time_elpased: 1.64
#iterations: 229
currently lose_sum: 0.6211543083190918
time_elpased: 1.659
#iterations: 230
currently lose_sum: 0.6887127161026001
time_elpased: 1.674
#iterations: 231
currently lose_sum: 0.6434489488601685
time_elpased: 1.636
#iterations: 232
currently lose_sum: 0.6211110949516296
time_elpased: 1.649
#iterations: 233
currently lose_sum: 0.631761372089386
time_elpased: 1.645
#iterations: 234
currently lose_sum: 0.6271097660064697
time_elpased: 1.643
#iterations: 235
currently lose_sum: 0.7182841897010803
time_elpased: 1.649
#iterations: 236
currently lose_sum: 0.5848910808563232
time_elpased: 1.663
#iterations: 237
currently lose_sum: 0.6205340623855591
time_elpased: 1.671
#iterations: 238
currently lose_sum: 0.6776823997497559
time_elpased: 1.635
#iterations: 239
currently lose_sum: 0.6617718935012817
time_elpased: 1.668
start validation test
0.585256410256
0.569169960474
0.731893265565
0.640355753196
0.583928521528
25.623
#iterations: 240
currently lose_sum: 0.6611144542694092
time_elpased: 1.641
#iterations: 241
currently lose_sum: 0.5759268999099731
time_elpased: 1.629
#iterations: 242
currently lose_sum: 0.6930802464485168
time_elpased: 1.657
#iterations: 243
currently lose_sum: 0.6312841773033142
time_elpased: 1.643
#iterations: 244
currently lose_sum: 0.73383629322052
time_elpased: 1.699
#iterations: 245
currently lose_sum: 0.6623432636260986
time_elpased: 1.656
#iterations: 246
currently lose_sum: 0.6389373540878296
time_elpased: 1.671
#iterations: 247
currently lose_sum: 0.6075213551521301
time_elpased: 1.636
#iterations: 248
currently lose_sum: 0.6382864713668823
time_elpased: 1.661
#iterations: 249
currently lose_sum: 0.6681340336799622
time_elpased: 1.635
#iterations: 250
currently lose_sum: 0.6013659238815308
time_elpased: 1.641
#iterations: 251
currently lose_sum: 0.6571117639541626
time_elpased: 1.665
#iterations: 252
currently lose_sum: 0.7465512156486511
time_elpased: 1.626
#iterations: 253
currently lose_sum: 0.6881963014602661
time_elpased: 1.619
#iterations: 254
currently lose_sum: 0.6323127746582031
time_elpased: 1.664
#iterations: 255
currently lose_sum: 0.6463671922683716
time_elpased: 1.64
#iterations: 256
currently lose_sum: 0.6126419901847839
time_elpased: 1.671
#iterations: 257
currently lose_sum: 0.6374753713607788
time_elpased: 1.658
#iterations: 258
currently lose_sum: 0.6386630535125732
time_elpased: 1.708
#iterations: 259
currently lose_sum: 0.6282584071159363
time_elpased: 1.73
start validation test
0.590384615385
0.571844660194
0.748411689962
0.648321408916
0.588953581074
25.706
#iterations: 260
currently lose_sum: 0.614828884601593
time_elpased: 1.656
#iterations: 261
currently lose_sum: 0.7062749862670898
time_elpased: 1.69
#iterations: 262
currently lose_sum: 0.6294809579849243
time_elpased: 1.646
#iterations: 263
currently lose_sum: 0.6118703484535217
time_elpased: 1.641
#iterations: 264
currently lose_sum: 0.5591632723808289
time_elpased: 1.687
#iterations: 265
currently lose_sum: 0.6686632037162781
time_elpased: 1.643
#iterations: 266
currently lose_sum: 0.6792454719543457
time_elpased: 1.676
#iterations: 267
currently lose_sum: 0.6151235103607178
time_elpased: 1.659
#iterations: 268
currently lose_sum: 0.6458872556686401
time_elpased: 1.655
#iterations: 269
currently lose_sum: 0.6006470918655396
time_elpased: 1.682
#iterations: 270
currently lose_sum: 0.6079778671264648
time_elpased: 1.661
#iterations: 271
currently lose_sum: 0.5852715969085693
time_elpased: 1.634
#iterations: 272
currently lose_sum: 0.6398607492446899
time_elpased: 1.681
#iterations: 273
currently lose_sum: 0.6341686248779297
time_elpased: 1.738
#iterations: 274
currently lose_sum: 0.6522518396377563
time_elpased: 1.707
#iterations: 275
currently lose_sum: 0.6303644180297852
time_elpased: 1.687
#iterations: 276
currently lose_sum: 0.6131718754768372
time_elpased: 1.638
#iterations: 277
currently lose_sum: 0.5641368627548218
time_elpased: 1.66
#iterations: 278
currently lose_sum: 0.6022752523422241
time_elpased: 1.63
#iterations: 279
currently lose_sum: 0.6440195441246033
time_elpased: 1.654
start validation test
0.589743589744
0.575230296827
0.714104193139
0.637188208617
0.588617426453
25.525
#iterations: 280
currently lose_sum: 0.6174439191818237
time_elpased: 1.658
#iterations: 281
currently lose_sum: 0.6174212098121643
time_elpased: 1.675
#iterations: 282
currently lose_sum: 0.6366676092147827
time_elpased: 1.646
#iterations: 283
currently lose_sum: 0.6279346346855164
time_elpased: 1.651
#iterations: 284
currently lose_sum: 0.6369501948356628
time_elpased: 1.727
#iterations: 285
currently lose_sum: 0.6075643301010132
time_elpased: 1.637
#iterations: 286
currently lose_sum: 0.6697455644607544
time_elpased: 1.654
#iterations: 287
currently lose_sum: 0.6634998321533203
time_elpased: 1.641
#iterations: 288
currently lose_sum: 0.5924659371376038
time_elpased: 1.658
#iterations: 289
currently lose_sum: 0.6023961901664734
time_elpased: 1.619
#iterations: 290
currently lose_sum: 0.5759132504463196
time_elpased: 1.638
#iterations: 291
currently lose_sum: 0.6695898771286011
time_elpased: 1.661
#iterations: 292
currently lose_sum: 0.6648409366607666
time_elpased: 1.684
#iterations: 293
currently lose_sum: 0.654057502746582
time_elpased: 1.685
#iterations: 294
currently lose_sum: 0.6292344927787781
time_elpased: 1.636
#iterations: 295
currently lose_sum: 0.6422271728515625
time_elpased: 1.646
#iterations: 296
currently lose_sum: 0.6556010246276855
time_elpased: 1.641
#iterations: 297
currently lose_sum: 0.6971125602722168
time_elpased: 1.655
#iterations: 298
currently lose_sum: 0.6335952281951904
time_elpased: 1.655
#iterations: 299
currently lose_sum: 0.7296832799911499
time_elpased: 1.644
start validation test
0.592948717949
0.576
0.731893265565
0.64465584779
0.591690487893
25.607
#iterations: 300
currently lose_sum: 0.6618796586990356
time_elpased: 1.679
#iterations: 301
currently lose_sum: 0.5758875608444214
time_elpased: 1.634
#iterations: 302
currently lose_sum: 0.6711999773979187
time_elpased: 1.645
#iterations: 303
currently lose_sum: 0.6274779438972473
time_elpased: 1.649
#iterations: 304
currently lose_sum: 0.6015738248825073
time_elpased: 1.641
#iterations: 305
currently lose_sum: 0.5998232364654541
time_elpased: 1.672
#iterations: 306
currently lose_sum: 0.7074316143989563
time_elpased: 1.626
#iterations: 307
currently lose_sum: 0.587985634803772
time_elpased: 1.666
#iterations: 308
currently lose_sum: 0.598753809928894
time_elpased: 1.658
#iterations: 309
currently lose_sum: 0.6157843470573425
time_elpased: 1.658
#iterations: 310
currently lose_sum: 0.6097310185432434
time_elpased: 1.637
#iterations: 311
currently lose_sum: 0.6790622472763062
time_elpased: 1.659
#iterations: 312
currently lose_sum: 0.6037219762802124
time_elpased: 1.665
#iterations: 313
currently lose_sum: 0.7118903994560242
time_elpased: 1.633
#iterations: 314
currently lose_sum: 0.571219265460968
time_elpased: 1.649
#iterations: 315
currently lose_sum: 0.6697105169296265
time_elpased: 1.63
#iterations: 316
currently lose_sum: 0.6646620035171509
time_elpased: 1.65
#iterations: 317
currently lose_sum: 0.6624646186828613
time_elpased: 1.657
#iterations: 318
currently lose_sum: 0.7054436802864075
time_elpased: 1.638
#iterations: 319
currently lose_sum: 0.6742056012153625
time_elpased: 1.644
start validation test
0.599358974359
0.58747300216
0.69123252859
0.635143023935
0.598527001682
25.467
#iterations: 320
currently lose_sum: 0.6205376386642456
time_elpased: 1.873
#iterations: 321
currently lose_sum: 0.6465662717819214
time_elpased: 1.666
#iterations: 322
currently lose_sum: 0.6511152982711792
time_elpased: 1.647
#iterations: 323
currently lose_sum: 0.6506339311599731
time_elpased: 1.646
#iterations: 324
currently lose_sum: 0.5823299288749695
time_elpased: 1.662
#iterations: 325
currently lose_sum: 0.6196660399436951
time_elpased: 1.674
#iterations: 326
currently lose_sum: 0.6097127795219421
time_elpased: 1.648
#iterations: 327
currently lose_sum: 0.6022475957870483
time_elpased: 1.629
#iterations: 328
currently lose_sum: 0.6397011876106262
time_elpased: 1.647
#iterations: 329
currently lose_sum: 0.6262120008468628
time_elpased: 1.638
#iterations: 330
currently lose_sum: 0.5932674407958984
time_elpased: 1.616
#iterations: 331
currently lose_sum: 0.6142451763153076
time_elpased: 1.701
#iterations: 332
currently lose_sum: 0.6622129678726196
time_elpased: 1.637
#iterations: 333
currently lose_sum: 0.6549731492996216
time_elpased: 1.689
#iterations: 334
currently lose_sum: 0.6591252088546753
time_elpased: 1.624
#iterations: 335
currently lose_sum: 0.6881309747695923
time_elpased: 1.661
#iterations: 336
currently lose_sum: 0.6080037355422974
time_elpased: 1.646
#iterations: 337
currently lose_sum: 0.6185117959976196
time_elpased: 1.634
#iterations: 338
currently lose_sum: 0.6534193158149719
time_elpased: 1.637
#iterations: 339
currently lose_sum: 0.6502113342285156
time_elpased: 1.645
start validation test
0.596153846154
0.579053373615
0.730622617535
0.64606741573
0.59493614706
25.474
#iterations: 340
currently lose_sum: 0.6550092697143555
time_elpased: 1.668
#iterations: 341
currently lose_sum: 0.6530877947807312
time_elpased: 1.637
#iterations: 342
currently lose_sum: 0.6863999366760254
time_elpased: 1.623
#iterations: 343
currently lose_sum: 0.6179021596908569
time_elpased: 1.75
#iterations: 344
currently lose_sum: 0.6845813989639282
time_elpased: 1.66
#iterations: 345
currently lose_sum: 0.6414027214050293
time_elpased: 1.643
#iterations: 346
currently lose_sum: 0.607275128364563
time_elpased: 1.648
#iterations: 347
currently lose_sum: 0.6149646639823914
time_elpased: 1.641
#iterations: 348
currently lose_sum: 0.6338428258895874
time_elpased: 1.654
#iterations: 349
currently lose_sum: 0.5860320925712585
time_elpased: 1.647
#iterations: 350
currently lose_sum: 0.6458996534347534
time_elpased: 1.653
#iterations: 351
currently lose_sum: 0.6421033143997192
time_elpased: 1.615
#iterations: 352
currently lose_sum: 0.7656978368759155
time_elpased: 1.658
#iterations: 353
currently lose_sum: 0.6028928756713867
time_elpased: 1.652
#iterations: 354
currently lose_sum: 0.5804374814033508
time_elpased: 1.652
#iterations: 355
currently lose_sum: 0.6623380780220032
time_elpased: 1.659
#iterations: 356
currently lose_sum: 0.6408068537712097
time_elpased: 1.634
#iterations: 357
currently lose_sum: 0.6374410390853882
time_elpased: 1.649
#iterations: 358
currently lose_sum: 0.5933746695518494
time_elpased: 1.64
#iterations: 359
currently lose_sum: 0.6553360223770142
time_elpased: 1.676
start validation test
0.595512820513
0.590277777778
0.648030495553
0.617807389461
0.595037240014
25.501
#iterations: 360
currently lose_sum: 0.6218226552009583
time_elpased: 1.654
#iterations: 361
currently lose_sum: 0.6776121258735657
time_elpased: 1.678
#iterations: 362
currently lose_sum: 0.6775371432304382
time_elpased: 1.663
#iterations: 363
currently lose_sum: 0.6022635698318481
time_elpased: 1.639
#iterations: 364
currently lose_sum: 0.6244912147521973
time_elpased: 1.693
#iterations: 365
currently lose_sum: 0.602831244468689
time_elpased: 1.677
#iterations: 366
currently lose_sum: 0.6055729389190674
time_elpased: 1.661
#iterations: 367
currently lose_sum: 0.653471827507019
time_elpased: 1.767
#iterations: 368
currently lose_sum: 0.5944846272468567
time_elpased: 1.675
#iterations: 369
currently lose_sum: 0.6739222407341003
time_elpased: 1.661
#iterations: 370
currently lose_sum: 0.6348926424980164
time_elpased: 1.652
#iterations: 371
currently lose_sum: 0.5901800394058228
time_elpased: 1.644
#iterations: 372
currently lose_sum: 0.6599027514457703
time_elpased: 1.671
#iterations: 373
currently lose_sum: 0.6671191453933716
time_elpased: 1.68
#iterations: 374
currently lose_sum: 0.5909031629562378
time_elpased: 1.669
#iterations: 375
currently lose_sum: 0.6592655181884766
time_elpased: 1.679
#iterations: 376
currently lose_sum: 0.6799723505973816
time_elpased: 1.671
#iterations: 377
currently lose_sum: 0.6191982626914978
time_elpased: 1.706
#iterations: 378
currently lose_sum: 0.701085090637207
time_elpased: 1.709
#iterations: 379
currently lose_sum: 0.7606110572814941
time_elpased: 1.67
start validation test
0.601282051282
0.599758162031
0.630241423126
0.614622057001
0.601019806
25.410
#iterations: 380
currently lose_sum: 0.6239098310470581
time_elpased: 1.68
#iterations: 381
currently lose_sum: 0.6451725959777832
time_elpased: 1.737
#iterations: 382
currently lose_sum: 0.710106372833252
time_elpased: 1.662
#iterations: 383
currently lose_sum: 0.7291213274002075
time_elpased: 1.622
#iterations: 384
currently lose_sum: 0.6191238164901733
time_elpased: 1.657
#iterations: 385
currently lose_sum: 0.6252937316894531
time_elpased: 1.657
#iterations: 386
currently lose_sum: 0.6278695464134216
time_elpased: 1.629
#iterations: 387
currently lose_sum: 0.6088530421257019
time_elpased: 1.683
#iterations: 388
currently lose_sum: 0.5711601376533508
time_elpased: 1.633
#iterations: 389
currently lose_sum: 0.6705085635185242
time_elpased: 1.654
#iterations: 390
currently lose_sum: 0.6511499285697937
time_elpased: 1.674
#iterations: 391
currently lose_sum: 0.627467930316925
time_elpased: 1.663
#iterations: 392
currently lose_sum: 0.634109616279602
time_elpased: 1.677
#iterations: 393
currently lose_sum: 0.6089023351669312
time_elpased: 1.63
#iterations: 394
currently lose_sum: 0.5862029790878296
time_elpased: 1.668
#iterations: 395
currently lose_sum: 0.7034802436828613
time_elpased: 1.644
#iterations: 396
currently lose_sum: 0.656508207321167
time_elpased: 1.644
#iterations: 397
currently lose_sum: 0.592229962348938
time_elpased: 1.674
#iterations: 398
currently lose_sum: 0.6859970092773438
time_elpased: 1.649
#iterations: 399
currently lose_sum: 0.6150520443916321
time_elpased: 1.67
start validation test
0.598076923077
0.594339622642
0.64040660737
0.616513761468
0.597693601227
25.437
#iterations: 400
currently lose_sum: 0.7152620553970337
time_elpased: 1.662
#iterations: 401
currently lose_sum: 0.6844026446342468
time_elpased: 1.657
#iterations: 402
currently lose_sum: 0.680804431438446
time_elpased: 1.665
#iterations: 403
currently lose_sum: 0.6687802076339722
time_elpased: 1.678
#iterations: 404
currently lose_sum: 0.576149582862854
time_elpased: 1.671
#iterations: 405
currently lose_sum: 0.6346254348754883
time_elpased: 1.641
#iterations: 406
currently lose_sum: 0.6982122659683228
time_elpased: 1.663
#iterations: 407
currently lose_sum: 0.6230102777481079
time_elpased: 1.667
#iterations: 408
currently lose_sum: 0.7086792588233948
time_elpased: 1.692
#iterations: 409
currently lose_sum: 0.5707497596740723
time_elpased: 1.682
#iterations: 410
currently lose_sum: 0.6809433102607727
time_elpased: 1.871
#iterations: 411
currently lose_sum: 0.6328253746032715
time_elpased: 1.702
#iterations: 412
currently lose_sum: 0.687179684638977
time_elpased: 1.683
#iterations: 413
currently lose_sum: 0.6166442036628723
time_elpased: 1.673
#iterations: 414
currently lose_sum: 0.5545541048049927
time_elpased: 1.708
#iterations: 415
currently lose_sum: 0.6156293749809265
time_elpased: 1.7
#iterations: 416
currently lose_sum: 0.5810744166374207
time_elpased: 1.669
#iterations: 417
currently lose_sum: 0.7173517942428589
time_elpased: 1.678
#iterations: 418
currently lose_sum: 0.5933325886726379
time_elpased: 1.662
#iterations: 419
currently lose_sum: 0.6537783145904541
time_elpased: 1.672
start validation test
0.589102564103
0.573737373737
0.721728081321
0.639279684862
0.587901556832
25.744
#iterations: 420
currently lose_sum: 0.7223215103149414
time_elpased: 1.682
#iterations: 421
currently lose_sum: 0.6081771850585938
time_elpased: 1.673
#iterations: 422
currently lose_sum: 0.7277480363845825
time_elpased: 1.726
#iterations: 423
currently lose_sum: 0.6171404719352722
time_elpased: 1.69
#iterations: 424
currently lose_sum: 0.6128390431404114
time_elpased: 1.656
#iterations: 425
currently lose_sum: 0.6600764393806458
time_elpased: 1.748
#iterations: 426
currently lose_sum: 0.6134495139122009
time_elpased: 1.705
#iterations: 427
currently lose_sum: 0.6757696270942688
time_elpased: 1.704
#iterations: 428
currently lose_sum: 0.606933057308197
time_elpased: 1.758
#iterations: 429
currently lose_sum: 0.6251976490020752
time_elpased: 1.697
#iterations: 430
currently lose_sum: 0.5897590517997742
time_elpased: 1.77
#iterations: 431
currently lose_sum: 0.7130311131477356
time_elpased: 1.837
#iterations: 432
currently lose_sum: 0.643847644329071
time_elpased: 1.79
#iterations: 433
currently lose_sum: 0.675601065158844
time_elpased: 1.719
#iterations: 434
currently lose_sum: 0.6312257647514343
time_elpased: 1.69
#iterations: 435
currently lose_sum: 0.670754611492157
time_elpased: 1.713
#iterations: 436
currently lose_sum: 0.6780085563659668
time_elpased: 1.78
#iterations: 437
currently lose_sum: 0.6419145464897156
time_elpased: 1.656
#iterations: 438
currently lose_sum: 0.5618055462837219
time_elpased: 1.689
#iterations: 439
currently lose_sum: 0.651557981967926
time_elpased: 1.735
start validation test
0.598076923077
0.587719298246
0.681067344346
0.630959387875
0.597325392742
25.412
#iterations: 440
currently lose_sum: 0.635988175868988
time_elpased: 1.8
#iterations: 441
currently lose_sum: 0.592294454574585
time_elpased: 1.655
#iterations: 442
currently lose_sum: 0.5955820679664612
time_elpased: 1.654
#iterations: 443
currently lose_sum: 0.6288809776306152
time_elpased: 1.713
#iterations: 444
currently lose_sum: 0.6672521829605103
time_elpased: 1.682
#iterations: 445
currently lose_sum: 0.640453040599823
time_elpased: 1.671
#iterations: 446
currently lose_sum: 0.6479679346084595
time_elpased: 1.626
#iterations: 447
currently lose_sum: 0.6237815022468567
time_elpased: 1.661
#iterations: 448
currently lose_sum: 0.7020003199577332
time_elpased: 1.656
#iterations: 449
currently lose_sum: 0.5838450193405151
time_elpased: 1.651
#iterations: 450
currently lose_sum: 0.645861029624939
time_elpased: 1.82
#iterations: 451
currently lose_sum: 0.6822275519371033
time_elpased: 1.658
#iterations: 452
currently lose_sum: 0.5960906147956848
time_elpased: 1.64
#iterations: 453
currently lose_sum: 0.631406307220459
time_elpased: 1.653
#iterations: 454
currently lose_sum: 0.6413487195968628
time_elpased: 1.723
#iterations: 455
currently lose_sum: 0.6373733282089233
time_elpased: 1.633
#iterations: 456
currently lose_sum: 0.62492436170578
time_elpased: 1.663
#iterations: 457
currently lose_sum: 0.6586407423019409
time_elpased: 1.648
#iterations: 458
currently lose_sum: 0.6615097522735596
time_elpased: 1.64
#iterations: 459
currently lose_sum: 0.6881533265113831
time_elpased: 1.674
start validation test
0.596153846154
0.598494353827
0.606099110546
0.602272727273
0.596063785545
25.554
#iterations: 460
currently lose_sum: 0.6460070610046387
time_elpased: 1.657
#iterations: 461
currently lose_sum: 0.6173363924026489
time_elpased: 1.648
#iterations: 462
currently lose_sum: 0.5619705319404602
time_elpased: 1.765
#iterations: 463
currently lose_sum: 0.6640336513519287
time_elpased: 1.687
#iterations: 464
currently lose_sum: 0.6417476534843445
time_elpased: 1.673
#iterations: 465
currently lose_sum: 0.5813427567481995
time_elpased: 1.643
#iterations: 466
currently lose_sum: 0.6103532910346985
time_elpased: 1.662
#iterations: 467
currently lose_sum: 0.6551271677017212
time_elpased: 1.73
#iterations: 468
currently lose_sum: 0.6567251086235046
time_elpased: 1.653
#iterations: 469
currently lose_sum: 0.5918938517570496
time_elpased: 1.635
#iterations: 470
currently lose_sum: 0.7005424499511719
time_elpased: 1.665
#iterations: 471
currently lose_sum: 0.6222944259643555
time_elpased: 1.636
#iterations: 472
currently lose_sum: 0.6230201721191406
time_elpased: 1.659
#iterations: 473
currently lose_sum: 0.6258962750434875
time_elpased: 1.665
#iterations: 474
currently lose_sum: 0.6006153225898743
time_elpased: 1.669
#iterations: 475
currently lose_sum: 0.6467255353927612
time_elpased: 1.674
#iterations: 476
currently lose_sum: 0.5694265961647034
time_elpased: 1.678
#iterations: 477
currently lose_sum: 0.5744749307632446
time_elpased: 1.706
#iterations: 478
currently lose_sum: 0.7236694097518921
time_elpased: 1.677
#iterations: 479
currently lose_sum: 0.6414658427238464
time_elpased: 1.684
start validation test
0.603205128205
0.588607594937
0.709021601017
0.643227665706
0.602246893652
25.404
#iterations: 480
currently lose_sum: 0.6619158983230591
time_elpased: 1.688
#iterations: 481
currently lose_sum: 0.5604713559150696
time_elpased: 1.698
#iterations: 482
currently lose_sum: 0.632117509841919
time_elpased: 1.666
#iterations: 483
currently lose_sum: 0.6725285649299622
time_elpased: 1.671
#iterations: 484
currently lose_sum: 0.6647471189498901
time_elpased: 1.8
#iterations: 485
currently lose_sum: 0.6505666971206665
time_elpased: 1.663
#iterations: 486
currently lose_sum: 0.660728394985199
time_elpased: 1.67
#iterations: 487
currently lose_sum: 0.6510021090507507
time_elpased: 1.644
#iterations: 488
currently lose_sum: 0.7383236885070801
time_elpased: 1.665
#iterations: 489
currently lose_sum: 0.6224110126495361
time_elpased: 1.751
#iterations: 490
currently lose_sum: 0.5653237700462341
time_elpased: 1.633
#iterations: 491
currently lose_sum: 0.6381681561470032
time_elpased: 1.651
#iterations: 492
currently lose_sum: 0.644810676574707
time_elpased: 1.643
#iterations: 493
currently lose_sum: 0.7073469758033752
time_elpased: 1.646
#iterations: 494
currently lose_sum: 0.6558796167373657
time_elpased: 1.653
#iterations: 495
currently lose_sum: 0.6780756711959839
time_elpased: 1.655
#iterations: 496
currently lose_sum: 0.6751421093940735
time_elpased: 1.634
#iterations: 497
currently lose_sum: 0.7144137620925903
time_elpased: 1.654
#iterations: 498
currently lose_sum: 0.5854083895683289
time_elpased: 1.636
#iterations: 499
currently lose_sum: 0.5825895667076111
time_elpased: 1.627
start validation test
0.6
0.598074608905
0.631512071156
0.61433868974
0.599714638424
25.417
#iterations: 500
currently lose_sum: 0.640845000743866
time_elpased: 1.655
#iterations: 501
currently lose_sum: 0.5922414064407349
time_elpased: 1.629
#iterations: 502
currently lose_sum: 0.6323755979537964
time_elpased: 1.618
#iterations: 503
currently lose_sum: 0.6405321955680847
time_elpased: 1.661
#iterations: 504
currently lose_sum: 0.6288639903068542
time_elpased: 1.652
#iterations: 505
currently lose_sum: 0.6877586245536804
time_elpased: 1.673
#iterations: 506
currently lose_sum: 0.7702549695968628
time_elpased: 1.63
#iterations: 507
currently lose_sum: 0.6726169586181641
time_elpased: 1.648
#iterations: 508
currently lose_sum: 0.5687217712402344
time_elpased: 1.661
#iterations: 509
currently lose_sum: 0.7309507131576538
time_elpased: 1.648
#iterations: 510
currently lose_sum: 0.7264959216117859
time_elpased: 1.661
#iterations: 511
currently lose_sum: 0.6453198194503784
time_elpased: 1.666
#iterations: 512
currently lose_sum: 0.6855494976043701
time_elpased: 1.661
#iterations: 513
currently lose_sum: 0.6059955358505249
time_elpased: 1.651
#iterations: 514
currently lose_sum: 0.6675821542739868
time_elpased: 1.75
#iterations: 515
currently lose_sum: 0.6645429730415344
time_elpased: 1.748
#iterations: 516
currently lose_sum: 0.6425110101699829
time_elpased: 1.642
#iterations: 517
currently lose_sum: 0.6067050695419312
time_elpased: 1.683
#iterations: 518
currently lose_sum: 0.6776784658432007
time_elpased: 1.548
#iterations: 519
currently lose_sum: 0.645469069480896
time_elpased: 1.497
start validation test
0.596153846154
0.613933236575
0.5374841169
0.573170731707
0.596685137363
25.431
#iterations: 520
currently lose_sum: 0.7130261659622192
time_elpased: 1.508
#iterations: 521
currently lose_sum: 0.6209465265274048
time_elpased: 1.53
#iterations: 522
currently lose_sum: 0.6479170322418213
time_elpased: 1.467
#iterations: 523
currently lose_sum: 0.6075868606567383
time_elpased: 1.514
#iterations: 524
currently lose_sum: 0.6279595494270325
time_elpased: 1.51
#iterations: 525
currently lose_sum: 0.5928184986114502
time_elpased: 1.612
#iterations: 526
currently lose_sum: 0.6102849841117859
time_elpased: 1.61
#iterations: 527
currently lose_sum: 0.640518844127655
time_elpased: 1.636
#iterations: 528
currently lose_sum: 0.6896528005599976
time_elpased: 1.646
#iterations: 529
currently lose_sum: 0.6301102638244629
time_elpased: 1.627
#iterations: 530
currently lose_sum: 0.7250663042068481
time_elpased: 1.597
#iterations: 531
currently lose_sum: 0.6522996425628662
time_elpased: 1.569
#iterations: 532
currently lose_sum: 0.6580287218093872
time_elpased: 1.625
#iterations: 533
currently lose_sum: 0.633955180644989
time_elpased: 1.656
#iterations: 534
currently lose_sum: 0.7229967713356018
time_elpased: 1.616
#iterations: 535
currently lose_sum: 0.6239689588546753
time_elpased: 1.602
#iterations: 536
currently lose_sum: 0.6141980886459351
time_elpased: 1.666
#iterations: 537
currently lose_sum: 0.5730546712875366
time_elpased: 1.615
#iterations: 538
currently lose_sum: 0.6043558120727539
time_elpased: 1.638
#iterations: 539
currently lose_sum: 0.6091912388801575
time_elpased: 1.802
start validation test
0.600641025641
0.589519650655
0.686149936468
0.63417498532
0.599866688803
25.385
#iterations: 540
currently lose_sum: 0.5858209729194641
time_elpased: 1.605
#iterations: 541
currently lose_sum: 0.5952764749526978
time_elpased: 1.682
#iterations: 542
currently lose_sum: 0.5477259755134583
time_elpased: 1.662
#iterations: 543
currently lose_sum: 0.7579156756401062
time_elpased: 1.616
#iterations: 544
currently lose_sum: 0.610299289226532
time_elpased: 1.615
#iterations: 545
currently lose_sum: 0.5833689570426941
time_elpased: 1.621
#iterations: 546
currently lose_sum: 0.714329719543457
time_elpased: 1.621
#iterations: 547
currently lose_sum: 0.6955246925354004
time_elpased: 1.626
#iterations: 548
currently lose_sum: 0.7066620588302612
time_elpased: 1.692
#iterations: 549
currently lose_sum: 0.6123647093772888
time_elpased: 1.64
#iterations: 550
currently lose_sum: 0.6672672033309937
time_elpased: 1.666
#iterations: 551
currently lose_sum: 0.539324164390564
time_elpased: 1.614
#iterations: 552
currently lose_sum: 0.5815427303314209
time_elpased: 1.711
#iterations: 553
currently lose_sum: 0.6177951693534851
time_elpased: 1.667
#iterations: 554
currently lose_sum: 0.6453679800033569
time_elpased: 1.663
#iterations: 555
currently lose_sum: 0.6575983166694641
time_elpased: 1.667
#iterations: 556
currently lose_sum: 0.6632034182548523
time_elpased: 1.704
#iterations: 557
currently lose_sum: 0.6740440130233765
time_elpased: 1.679
#iterations: 558
currently lose_sum: 0.5892705917358398
time_elpased: 1.738
#iterations: 559
currently lose_sum: 0.6528118252754211
time_elpased: 1.73
start validation test
0.604487179487
0.629573170732
0.524777636595
0.572418572419
0.60520899941
25.479
#iterations: 560
currently lose_sum: 0.6526702046394348
time_elpased: 1.732
#iterations: 561
currently lose_sum: 0.5827310085296631
time_elpased: 1.704
#iterations: 562
currently lose_sum: 0.6503473520278931
time_elpased: 1.706
#iterations: 563
currently lose_sum: 0.5871719121932983
time_elpased: 1.71
#iterations: 564
currently lose_sum: 0.7110432386398315
time_elpased: 1.694
#iterations: 565
currently lose_sum: 0.5678431987762451
time_elpased: 1.732
#iterations: 566
currently lose_sum: 0.6303821802139282
time_elpased: 1.695
#iterations: 567
currently lose_sum: 0.6330192685127258
time_elpased: 1.7
#iterations: 568
currently lose_sum: 0.6268414258956909
time_elpased: 1.682
#iterations: 569
currently lose_sum: 0.5982416868209839
time_elpased: 1.722
#iterations: 570
currently lose_sum: 0.6015036702156067
time_elpased: 1.691
#iterations: 571
currently lose_sum: 0.668010413646698
time_elpased: 1.709
#iterations: 572
currently lose_sum: 0.6464048624038696
time_elpased: 1.696
#iterations: 573
currently lose_sum: 0.7074214816093445
time_elpased: 1.69
#iterations: 574
currently lose_sum: 0.609735369682312
time_elpased: 1.803
#iterations: 575
currently lose_sum: 0.6694765090942383
time_elpased: 1.745
#iterations: 576
currently lose_sum: 0.6027030944824219
time_elpased: 1.661
#iterations: 577
currently lose_sum: 0.578997015953064
time_elpased: 1.67
#iterations: 578
currently lose_sum: 0.6205679178237915
time_elpased: 1.623
#iterations: 579
currently lose_sum: 0.6231672763824463
time_elpased: 1.672
start validation test
0.589743589744
0.61153262519
0.51207115629
0.557399723375
0.590446962362
25.473
#iterations: 580
currently lose_sum: 0.739233672618866
time_elpased: 1.687
#iterations: 581
currently lose_sum: 0.6393794417381287
time_elpased: 1.648
#iterations: 582
currently lose_sum: 0.5871658325195312
time_elpased: 1.631
#iterations: 583
currently lose_sum: 0.6946095824241638
time_elpased: 1.627
#iterations: 584
currently lose_sum: 0.6130298972129822
time_elpased: 1.657
#iterations: 585
currently lose_sum: 0.5722844004631042
time_elpased: 1.661
#iterations: 586
currently lose_sum: 0.6428514719009399
time_elpased: 1.65
#iterations: 587
currently lose_sum: 0.5775439143180847
time_elpased: 1.649
#iterations: 588
currently lose_sum: 0.5586892366409302
time_elpased: 1.669
#iterations: 589
currently lose_sum: 0.630922257900238
time_elpased: 1.651
#iterations: 590
currently lose_sum: 0.6815024614334106
time_elpased: 1.668
#iterations: 591
currently lose_sum: 0.6294684410095215
time_elpased: 1.7
#iterations: 592
currently lose_sum: 0.6164145469665527
time_elpased: 1.672
#iterations: 593
currently lose_sum: 0.7374424338340759
time_elpased: 1.627
#iterations: 594
currently lose_sum: 0.6116834878921509
time_elpased: 1.652
#iterations: 595
currently lose_sum: 0.6844920516014099
time_elpased: 1.658
#iterations: 596
currently lose_sum: 0.6396207213401794
time_elpased: 1.63
#iterations: 597
currently lose_sum: 0.5775641202926636
time_elpased: 1.652
#iterations: 598
currently lose_sum: 0.6534348726272583
time_elpased: 1.681
#iterations: 599
currently lose_sum: 0.6667536497116089
time_elpased: 1.648
start validation test
0.604487179487
0.601918465228
0.637865311309
0.619370758791
0.604184919561
25.372
acc: 0.606
pre: 0.600
rec: 0.655
F1: 0.626
auc: 0.605
