start to construct computing graph
graph construct over
2360
epochs start
#iterations: 0
currently lose_sum: 0.6916283965110779
time_elpased: 2.365
#iterations: 1
currently lose_sum: 0.6857295632362366
time_elpased: 2.276
#iterations: 2
currently lose_sum: 0.6976550817489624
time_elpased: 2.334
#iterations: 3
currently lose_sum: 0.6814056634902954
time_elpased: 2.316
#iterations: 4
currently lose_sum: 0.6721311211585999
time_elpased: 2.282
#iterations: 5
currently lose_sum: 0.7726656198501587
time_elpased: 2.324
#iterations: 6
currently lose_sum: 0.7096408009529114
time_elpased: 2.302
#iterations: 7
currently lose_sum: 0.6783226132392883
time_elpased: 2.339
#iterations: 8
currently lose_sum: 0.7389457821846008
time_elpased: 2.276
#iterations: 9
currently lose_sum: 0.691929042339325
time_elpased: 2.31
#iterations: 10
currently lose_sum: 0.685350239276886
time_elpased: 2.302
#iterations: 11
currently lose_sum: 0.6892627477645874
time_elpased: 2.354
#iterations: 12
currently lose_sum: 0.7373979687690735
time_elpased: 2.303
#iterations: 13
currently lose_sum: 0.6811561584472656
time_elpased: 2.302
#iterations: 14
currently lose_sum: 0.6360184550285339
time_elpased: 2.285
#iterations: 15
currently lose_sum: 0.6768718957901001
time_elpased: 2.315
#iterations: 16
currently lose_sum: 0.6903163194656372
time_elpased: 2.281
#iterations: 17
currently lose_sum: 0.7141333818435669
time_elpased: 2.298
#iterations: 18
currently lose_sum: 0.6726841926574707
time_elpased: 2.299
#iterations: 19
currently lose_sum: 0.6782397031784058
time_elpased: 2.348
start validation test
0.496153846154
0.5
0.236641221374
0.321243523316
0.498165571927
26.988
#iterations: 20
currently lose_sum: 0.6794120073318481
time_elpased: 1.772
#iterations: 21
currently lose_sum: 0.6831463575363159
time_elpased: 1.717
#iterations: 22
currently lose_sum: 0.6885448694229126
time_elpased: 1.705
#iterations: 23
currently lose_sum: 0.6592642068862915
time_elpased: 1.707
#iterations: 24
currently lose_sum: 0.6946746706962585
time_elpased: 1.683
#iterations: 25
currently lose_sum: 0.6371000409126282
time_elpased: 1.719
#iterations: 26
currently lose_sum: 0.6530175805091858
time_elpased: 1.703
#iterations: 27
currently lose_sum: 0.6525524854660034
time_elpased: 1.692
#iterations: 28
currently lose_sum: 0.6866700053215027
time_elpased: 1.694
#iterations: 29
currently lose_sum: 0.7018413543701172
time_elpased: 1.704
#iterations: 30
currently lose_sum: 0.6860941648483276
time_elpased: 1.675
#iterations: 31
currently lose_sum: 0.6594476103782654
time_elpased: 1.683
#iterations: 32
currently lose_sum: 0.6903805732727051
time_elpased: 1.671
#iterations: 33
currently lose_sum: 0.6531180739402771
time_elpased: 1.696
#iterations: 34
currently lose_sum: 0.6573672294616699
time_elpased: 1.647
#iterations: 35
currently lose_sum: 0.7078689336776733
time_elpased: 1.676
#iterations: 36
currently lose_sum: 0.6671179533004761
time_elpased: 1.676
#iterations: 37
currently lose_sum: 0.6965855360031128
time_elpased: 1.724
#iterations: 38
currently lose_sum: 0.7319998741149902
time_elpased: 1.694
#iterations: 39
currently lose_sum: 0.6514057517051697
time_elpased: 1.679
start validation test
0.564102564103
0.583860759494
0.469465648855
0.520451339915
0.564836183601
26.492
#iterations: 40
currently lose_sum: 0.6567010879516602
time_elpased: 1.669
#iterations: 41
currently lose_sum: 0.7218601703643799
time_elpased: 1.675
#iterations: 42
currently lose_sum: 0.6880854368209839
time_elpased: 1.653
#iterations: 43
currently lose_sum: 0.6766276359558105
time_elpased: 1.654
#iterations: 44
currently lose_sum: 0.6790316700935364
time_elpased: 1.705
#iterations: 45
currently lose_sum: 0.7204188108444214
time_elpased: 1.674
#iterations: 46
currently lose_sum: 0.6994981169700623
time_elpased: 1.693
#iterations: 47
currently lose_sum: 0.702347457408905
time_elpased: 1.668
#iterations: 48
currently lose_sum: 0.6997756958007812
time_elpased: 1.664
#iterations: 49
currently lose_sum: 0.6811949610710144
time_elpased: 1.648
#iterations: 50
currently lose_sum: 0.677162766456604
time_elpased: 1.668
#iterations: 51
currently lose_sum: 0.6978671550750732
time_elpased: 1.667
#iterations: 52
currently lose_sum: 0.6986984014511108
time_elpased: 1.66
#iterations: 53
currently lose_sum: 0.665001392364502
time_elpased: 1.665
#iterations: 54
currently lose_sum: 0.6947647333145142
time_elpased: 1.669
#iterations: 55
currently lose_sum: 0.6799386739730835
time_elpased: 1.685
#iterations: 56
currently lose_sum: 0.6806423664093018
time_elpased: 1.742
#iterations: 57
currently lose_sum: 0.6716147661209106
time_elpased: 1.669
#iterations: 58
currently lose_sum: 0.6844987869262695
time_elpased: 1.645
#iterations: 59
currently lose_sum: 0.7011542916297913
time_elpased: 1.685
start validation test
0.574358974359
0.568539325843
0.643765903308
0.603818615752
0.57382093615
26.354
#iterations: 60
currently lose_sum: 0.6869162917137146
time_elpased: 1.674
#iterations: 61
currently lose_sum: 0.7185904383659363
time_elpased: 1.684
#iterations: 62
currently lose_sum: 0.6790071725845337
time_elpased: 1.664
#iterations: 63
currently lose_sum: 0.6644941568374634
time_elpased: 1.662
#iterations: 64
currently lose_sum: 0.71303391456604
time_elpased: 1.677
#iterations: 65
currently lose_sum: 0.6686712503433228
time_elpased: 1.679
#iterations: 66
currently lose_sum: 0.6678200364112854
time_elpased: 1.642
#iterations: 67
currently lose_sum: 0.6967159509658813
time_elpased: 1.699
#iterations: 68
currently lose_sum: 0.6783864498138428
time_elpased: 1.685
#iterations: 69
currently lose_sum: 0.6814486384391785
time_elpased: 1.682
#iterations: 70
currently lose_sum: 0.7029573321342468
time_elpased: 1.679
#iterations: 71
currently lose_sum: 0.7018755674362183
time_elpased: 1.743
#iterations: 72
currently lose_sum: 0.6216979026794434
time_elpased: 1.7
#iterations: 73
currently lose_sum: 0.6698251366615295
time_elpased: 1.69
#iterations: 74
currently lose_sum: 0.6636070013046265
time_elpased: 1.656
#iterations: 75
currently lose_sum: 0.6599349975585938
time_elpased: 1.679
#iterations: 76
currently lose_sum: 0.7086840867996216
time_elpased: 1.702
#iterations: 77
currently lose_sum: 0.6674742102622986
time_elpased: 1.667
#iterations: 78
currently lose_sum: 0.6534478068351746
time_elpased: 1.663
#iterations: 79
currently lose_sum: 0.6626248359680176
time_elpased: 1.667
start validation test
0.561538461538
0.576119402985
0.491094147583
0.53021978022
0.562084541492
26.374
#iterations: 80
currently lose_sum: 0.7020756602287292
time_elpased: 1.705
#iterations: 81
currently lose_sum: 0.6384313106536865
time_elpased: 1.664
#iterations: 82
currently lose_sum: 0.695113480091095
time_elpased: 1.679
#iterations: 83
currently lose_sum: 0.6878517270088196
time_elpased: 1.694
#iterations: 84
currently lose_sum: 0.6651490330696106
time_elpased: 1.661
#iterations: 85
currently lose_sum: 0.6835579872131348
time_elpased: 1.686
#iterations: 86
currently lose_sum: 0.6869328022003174
time_elpased: 1.67
#iterations: 87
currently lose_sum: 0.6668000817298889
time_elpased: 1.694
#iterations: 88
currently lose_sum: 0.6877859830856323
time_elpased: 1.69
#iterations: 89
currently lose_sum: 0.6022415161132812
time_elpased: 1.713
#iterations: 90
currently lose_sum: 0.611913800239563
time_elpased: 1.676
#iterations: 91
currently lose_sum: 0.6664224863052368
time_elpased: 1.691
#iterations: 92
currently lose_sum: 0.7328141927719116
time_elpased: 1.697
#iterations: 93
currently lose_sum: 0.6336451172828674
time_elpased: 1.711
#iterations: 94
currently lose_sum: 0.7041409015655518
time_elpased: 1.676
#iterations: 95
currently lose_sum: 0.6585289239883423
time_elpased: 1.673
#iterations: 96
currently lose_sum: 0.6922654509544373
time_elpased: 1.689
#iterations: 97
currently lose_sum: 0.6423129439353943
time_elpased: 1.714
#iterations: 98
currently lose_sum: 0.7117525339126587
time_elpased: 1.69
#iterations: 99
currently lose_sum: 0.6555582880973816
time_elpased: 1.683
start validation test
0.59358974359
0.578512396694
0.712468193384
0.638540478905
0.592668205219
26.180
#iterations: 100
currently lose_sum: 0.6716381311416626
time_elpased: 1.681
#iterations: 101
currently lose_sum: 0.6826568841934204
time_elpased: 1.683
#iterations: 102
currently lose_sum: 0.6614168286323547
time_elpased: 1.696
#iterations: 103
currently lose_sum: 0.7073818445205688
time_elpased: 1.673
#iterations: 104
currently lose_sum: 0.6341586709022522
time_elpased: 1.692
#iterations: 105
currently lose_sum: 0.6303391456604004
time_elpased: 1.69
#iterations: 106
currently lose_sum: 0.6772216558456421
time_elpased: 1.664
#iterations: 107
currently lose_sum: 0.6374128460884094
time_elpased: 1.694
#iterations: 108
currently lose_sum: 0.638839840888977
time_elpased: 1.715
#iterations: 109
currently lose_sum: 0.6968849301338196
time_elpased: 1.665
#iterations: 110
currently lose_sum: 0.7191818952560425
time_elpased: 1.693
#iterations: 111
currently lose_sum: 0.7686538100242615
time_elpased: 1.696
#iterations: 112
currently lose_sum: 0.625729501247406
time_elpased: 1.651
#iterations: 113
currently lose_sum: 0.6390427350997925
time_elpased: 1.703
#iterations: 114
currently lose_sum: 0.5993302464485168
time_elpased: 1.685
#iterations: 115
currently lose_sum: 0.6702043414115906
time_elpased: 1.7
#iterations: 116
currently lose_sum: 0.6387555599212646
time_elpased: 1.695
#iterations: 117
currently lose_sum: 0.6021391153335571
time_elpased: 1.652
#iterations: 118
currently lose_sum: 0.6651923060417175
time_elpased: 1.693
#iterations: 119
currently lose_sum: 0.6587014198303223
time_elpased: 1.652
start validation test
0.573076923077
0.590634441088
0.497455470738
0.540055248619
0.573663135886
26.404
#iterations: 120
currently lose_sum: 0.6844277381896973
time_elpased: 1.654
#iterations: 121
currently lose_sum: 0.6528559923171997
time_elpased: 1.671
#iterations: 122
currently lose_sum: 0.6638087034225464
time_elpased: 1.685
#iterations: 123
currently lose_sum: 0.6591327786445618
time_elpased: 1.69
#iterations: 124
currently lose_sum: 0.7214016318321228
time_elpased: 1.668
#iterations: 125
currently lose_sum: 0.6836357116699219
time_elpased: 1.676
#iterations: 126
currently lose_sum: 0.5961629748344421
time_elpased: 1.671
#iterations: 127
currently lose_sum: 0.6255350112915039
time_elpased: 1.659
#iterations: 128
currently lose_sum: 0.6364904642105103
time_elpased: 1.668
#iterations: 129
currently lose_sum: 0.7013804912567139
time_elpased: 1.66
#iterations: 130
currently lose_sum: 0.6748155355453491
time_elpased: 1.652
#iterations: 131
currently lose_sum: 0.6333525776863098
time_elpased: 1.652
#iterations: 132
currently lose_sum: 0.6369328498840332
time_elpased: 1.69
#iterations: 133
currently lose_sum: 0.6343269944190979
time_elpased: 1.66
#iterations: 134
currently lose_sum: 0.6619333028793335
time_elpased: 1.661
#iterations: 135
currently lose_sum: 0.635074257850647
time_elpased: 1.641
#iterations: 136
currently lose_sum: 0.674597442150116
time_elpased: 1.666
#iterations: 137
currently lose_sum: 0.6171900629997253
time_elpased: 1.663
#iterations: 138
currently lose_sum: 0.6284536123275757
time_elpased: 1.676
#iterations: 139
currently lose_sum: 0.6528676748275757
time_elpased: 1.655
start validation test
0.584615384615
0.582535885167
0.619592875318
0.600493218249
0.584344241277
26.215
#iterations: 140
currently lose_sum: 0.6211696863174438
time_elpased: 1.677
#iterations: 141
currently lose_sum: 0.7081490755081177
time_elpased: 1.683
#iterations: 142
currently lose_sum: 0.6419784426689148
time_elpased: 1.673
#iterations: 143
currently lose_sum: 0.6635198593139648
time_elpased: 1.688
#iterations: 144
currently lose_sum: 0.6651873588562012
time_elpased: 1.675
#iterations: 145
currently lose_sum: 0.6736804842948914
time_elpased: 1.697
#iterations: 146
currently lose_sum: 0.7514795064926147
time_elpased: 1.684
#iterations: 147
currently lose_sum: 0.6290890574455261
time_elpased: 1.666
#iterations: 148
currently lose_sum: 0.7337712049484253
time_elpased: 1.675
#iterations: 149
currently lose_sum: 0.6967447996139526
time_elpased: 1.691
#iterations: 150
currently lose_sum: 0.7151938080787659
time_elpased: 1.709
#iterations: 151
currently lose_sum: 0.6971661448478699
time_elpased: 1.68
#iterations: 152
currently lose_sum: 0.6936225891113281
time_elpased: 1.68
#iterations: 153
currently lose_sum: 0.6985985040664673
time_elpased: 1.684
#iterations: 154
currently lose_sum: 0.6860733032226562
time_elpased: 1.665
#iterations: 155
currently lose_sum: 0.6667965650558472
time_elpased: 1.68
#iterations: 156
currently lose_sum: 0.6668906211853027
time_elpased: 1.649
#iterations: 157
currently lose_sum: 0.6404011845588684
time_elpased: 1.635
#iterations: 158
currently lose_sum: 0.6184922456741333
time_elpased: 1.667
#iterations: 159
currently lose_sum: 0.6686288118362427
time_elpased: 1.654
start validation test
0.566666666667
0.567237163814
0.590330788804
0.57855361596
0.566483223859
26.407
#iterations: 160
currently lose_sum: 0.6649805307388306
time_elpased: 1.671
#iterations: 161
currently lose_sum: 0.5989481210708618
time_elpased: 1.654
#iterations: 162
currently lose_sum: 0.6499451994895935
time_elpased: 1.683
#iterations: 163
currently lose_sum: 0.7383338809013367
time_elpased: 1.665
#iterations: 164
currently lose_sum: 0.6201430559158325
time_elpased: 1.64
#iterations: 165
currently lose_sum: 0.6708582043647766
time_elpased: 1.674
#iterations: 166
currently lose_sum: 0.7472109794616699
time_elpased: 1.653
#iterations: 167
currently lose_sum: 0.5970805287361145
time_elpased: 1.666
#iterations: 168
currently lose_sum: 0.7015568017959595
time_elpased: 1.637
#iterations: 169
currently lose_sum: 0.5657480955123901
time_elpased: 1.678
#iterations: 170
currently lose_sum: 0.6831899881362915
time_elpased: 1.653
#iterations: 171
currently lose_sum: 0.6747440099716187
time_elpased: 1.645
#iterations: 172
currently lose_sum: 0.654983401298523
time_elpased: 1.655
#iterations: 173
currently lose_sum: 0.6727736592292786
time_elpased: 1.662
#iterations: 174
currently lose_sum: 0.6865453124046326
time_elpased: 1.67
#iterations: 175
currently lose_sum: 0.7227514982223511
time_elpased: 1.672
#iterations: 176
currently lose_sum: 0.707240879535675
time_elpased: 1.641
#iterations: 177
currently lose_sum: 0.6051963567733765
time_elpased: 1.643
#iterations: 178
currently lose_sum: 0.6277535557746887
time_elpased: 1.663
#iterations: 179
currently lose_sum: 0.6142998337745667
time_elpased: 1.68
start validation test
0.600641025641
0.604353393086
0.600508905852
0.602425015954
0.600642049825
26.088
#iterations: 180
currently lose_sum: 0.714220404624939
time_elpased: 1.642
#iterations: 181
currently lose_sum: 0.6013913154602051
time_elpased: 1.657
#iterations: 182
currently lose_sum: 0.6250265836715698
time_elpased: 1.633
#iterations: 183
currently lose_sum: 0.6832985877990723
time_elpased: 1.672
#iterations: 184
currently lose_sum: 0.6612255573272705
time_elpased: 1.655
#iterations: 185
currently lose_sum: 0.603793740272522
time_elpased: 1.64
#iterations: 186
currently lose_sum: 0.6832219362258911
time_elpased: 1.646
#iterations: 187
currently lose_sum: 0.6624940633773804
time_elpased: 1.654
#iterations: 188
currently lose_sum: 0.6290242075920105
time_elpased: 1.681
#iterations: 189
currently lose_sum: 0.66981041431427
time_elpased: 1.7
#iterations: 190
currently lose_sum: 0.6693355441093445
time_elpased: 1.668
#iterations: 191
currently lose_sum: 0.6628939509391785
time_elpased: 1.658
#iterations: 192
currently lose_sum: 0.6289549469947815
time_elpased: 1.647
#iterations: 193
currently lose_sum: 0.6260371804237366
time_elpased: 1.663
#iterations: 194
currently lose_sum: 0.5910062789916992
time_elpased: 1.733
#iterations: 195
currently lose_sum: 0.6259012222290039
time_elpased: 1.887
#iterations: 196
currently lose_sum: 0.6892392635345459
time_elpased: 1.7
#iterations: 197
currently lose_sum: 0.6015678644180298
time_elpased: 1.637
#iterations: 198
currently lose_sum: 0.6237214803695679
time_elpased: 1.66
#iterations: 199
currently lose_sum: 0.6864070296287537
time_elpased: 1.66
start validation test
0.573717948718
0.571260306243
0.617048346056
0.593272171254
0.573382054165
26.155
#iterations: 200
currently lose_sum: 0.6286312937736511
time_elpased: 1.664
#iterations: 201
currently lose_sum: 0.6838622093200684
time_elpased: 1.651
#iterations: 202
currently lose_sum: 0.6713622808456421
time_elpased: 1.656
#iterations: 203
currently lose_sum: 0.6760627031326294
time_elpased: 1.687
#iterations: 204
currently lose_sum: 0.7188596725463867
time_elpased: 1.644
#iterations: 205
currently lose_sum: 0.659237265586853
time_elpased: 1.679
#iterations: 206
currently lose_sum: 0.6583899259567261
time_elpased: 1.632
#iterations: 207
currently lose_sum: 0.6960933804512024
time_elpased: 1.638
#iterations: 208
currently lose_sum: 0.6409058570861816
time_elpased: 1.645
#iterations: 209
currently lose_sum: 0.7161015272140503
time_elpased: 1.689
#iterations: 210
currently lose_sum: 0.6258382201194763
time_elpased: 1.663
#iterations: 211
currently lose_sum: 0.6778864860534668
time_elpased: 1.675
#iterations: 212
currently lose_sum: 0.6500194668769836
time_elpased: 1.69
#iterations: 213
currently lose_sum: 0.6490801572799683
time_elpased: 1.659
#iterations: 214
currently lose_sum: 0.6107310056686401
time_elpased: 1.671
#iterations: 215
currently lose_sum: 0.6689306497573853
time_elpased: 1.672
#iterations: 216
currently lose_sum: 0.617918074131012
time_elpased: 1.702
#iterations: 217
currently lose_sum: 0.662549614906311
time_elpased: 1.64
#iterations: 218
currently lose_sum: 0.7206091284751892
time_elpased: 1.674
#iterations: 219
currently lose_sum: 0.7349755764007568
time_elpased: 1.665
start validation test
0.590384615385
0.577777777778
0.69465648855
0.630849220104
0.58957630629
26.018
#iterations: 220
currently lose_sum: 0.6892606019973755
time_elpased: 1.863
#iterations: 221
currently lose_sum: 0.6665055155754089
time_elpased: 1.659
#iterations: 222
currently lose_sum: 0.591720461845398
time_elpased: 1.641
#iterations: 223
currently lose_sum: 0.6402657628059387
time_elpased: 1.703
#iterations: 224
currently lose_sum: 0.6537366509437561
time_elpased: 1.653
#iterations: 225
currently lose_sum: 0.6798471212387085
time_elpased: 1.666
#iterations: 226
currently lose_sum: 0.6192631125450134
time_elpased: 1.66
#iterations: 227
currently lose_sum: 0.6872040033340454
time_elpased: 1.702
#iterations: 228
currently lose_sum: 0.6738449335098267
time_elpased: 1.78
#iterations: 229
currently lose_sum: 0.6433769464492798
time_elpased: 1.685
#iterations: 230
currently lose_sum: 0.6498061418533325
time_elpased: 1.696
#iterations: 231
currently lose_sum: 0.7042528390884399
time_elpased: 1.689
#iterations: 232
currently lose_sum: 0.6994482278823853
time_elpased: 1.67
#iterations: 233
currently lose_sum: 0.6675800681114197
time_elpased: 1.677
#iterations: 234
currently lose_sum: 0.6203635931015015
time_elpased: 1.68
#iterations: 235
currently lose_sum: 0.7365239858627319
time_elpased: 1.692
#iterations: 236
currently lose_sum: 0.7619746327400208
time_elpased: 1.662
#iterations: 237
currently lose_sum: 0.6158019304275513
time_elpased: 1.681
#iterations: 238
currently lose_sum: 0.7541963458061218
time_elpased: 1.722
#iterations: 239
currently lose_sum: 0.5863977670669556
time_elpased: 1.71
start validation test
0.601923076923
0.58531540848
0.72010178117
0.645750142613
0.601006962937
26.065
#iterations: 240
currently lose_sum: 0.6022904515266418
time_elpased: 1.673
#iterations: 241
currently lose_sum: 0.6599734425544739
time_elpased: 1.675
#iterations: 242
currently lose_sum: 0.6644008755683899
time_elpased: 1.683
#iterations: 243
currently lose_sum: 0.5688587427139282
time_elpased: 1.685
#iterations: 244
currently lose_sum: 0.6738804578781128
time_elpased: 1.686
#iterations: 245
currently lose_sum: 0.751620352268219
time_elpased: 1.69
#iterations: 246
currently lose_sum: 0.6805290579795837
time_elpased: 1.705
#iterations: 247
currently lose_sum: 0.6014519929885864
time_elpased: 1.685
#iterations: 248
currently lose_sum: 0.6738371849060059
time_elpased: 1.705
#iterations: 249
currently lose_sum: 0.6643410921096802
time_elpased: 1.7
#iterations: 250
currently lose_sum: 0.6282954216003418
time_elpased: 1.701
#iterations: 251
currently lose_sum: 0.6244874596595764
time_elpased: 1.688
#iterations: 252
currently lose_sum: 0.625851035118103
time_elpased: 1.703
#iterations: 253
currently lose_sum: 0.6244808435440063
time_elpased: 1.715
#iterations: 254
currently lose_sum: 0.6860748529434204
time_elpased: 1.681
#iterations: 255
currently lose_sum: 0.6685460805892944
time_elpased: 1.725
#iterations: 256
currently lose_sum: 0.6503013372421265
time_elpased: 1.745
#iterations: 257
currently lose_sum: 0.6712573766708374
time_elpased: 1.732
#iterations: 258
currently lose_sum: 0.6260578036308289
time_elpased: 1.733
#iterations: 259
currently lose_sum: 0.6973423957824707
time_elpased: 1.73
start validation test
0.600641025641
0.589856670342
0.680661577608
0.632014176019
0.600020711285
26.020
#iterations: 260
currently lose_sum: 0.6388462781906128
time_elpased: 1.719
#iterations: 261
currently lose_sum: 0.641036331653595
time_elpased: 1.749
#iterations: 262
currently lose_sum: 0.6739128232002258
time_elpased: 1.723
#iterations: 263
currently lose_sum: 0.6047554612159729
time_elpased: 1.731
#iterations: 264
currently lose_sum: 0.6700553297996521
time_elpased: 1.71
#iterations: 265
currently lose_sum: 0.6398583650588989
time_elpased: 1.74
#iterations: 266
currently lose_sum: 0.6614499092102051
time_elpased: 1.736
#iterations: 267
currently lose_sum: 0.6407411694526672
time_elpased: 1.733
#iterations: 268
currently lose_sum: 0.6350172758102417
time_elpased: 1.701
#iterations: 269
currently lose_sum: 0.6626600623130798
time_elpased: 1.745
#iterations: 270
currently lose_sum: 0.6954864263534546
time_elpased: 1.701
#iterations: 271
currently lose_sum: 0.6651339530944824
time_elpased: 1.744
#iterations: 272
currently lose_sum: 0.7310594320297241
time_elpased: 1.696
#iterations: 273
currently lose_sum: 0.6566405892372131
time_elpased: 1.736
#iterations: 274
currently lose_sum: 0.609844446182251
time_elpased: 1.705
#iterations: 275
currently lose_sum: 0.6285068392753601
time_elpased: 1.742
#iterations: 276
currently lose_sum: 0.6152392625808716
time_elpased: 1.702
#iterations: 277
currently lose_sum: 0.6706379652023315
time_elpased: 1.702
#iterations: 278
currently lose_sum: 0.6337712407112122
time_elpased: 1.73
#iterations: 279
currently lose_sum: 0.7180377840995789
time_elpased: 1.706
start validation test
0.584615384615
0.615384615385
0.468193384224
0.531791907514
0.585517880742
26.218
#iterations: 280
currently lose_sum: 0.6453830599784851
time_elpased: 1.715
#iterations: 281
currently lose_sum: 0.6899877786636353
time_elpased: 1.906
#iterations: 282
currently lose_sum: 0.7233611345291138
time_elpased: 1.739
#iterations: 283
currently lose_sum: 0.5600967407226562
time_elpased: 1.693
#iterations: 284
currently lose_sum: 0.6478515863418579
time_elpased: 1.694
#iterations: 285
currently lose_sum: 0.6494776606559753
time_elpased: 1.719
#iterations: 286
currently lose_sum: 0.5950599908828735
time_elpased: 1.689
#iterations: 287
currently lose_sum: 0.6739567518234253
time_elpased: 1.697
#iterations: 288
currently lose_sum: 0.6082083582878113
time_elpased: 1.693
#iterations: 289
currently lose_sum: 0.6071391701698303
time_elpased: 1.772
#iterations: 290
currently lose_sum: 0.667411208152771
time_elpased: 1.686
#iterations: 291
currently lose_sum: 0.600652813911438
time_elpased: 1.664
#iterations: 292
currently lose_sum: 0.640376627445221
time_elpased: 1.697
#iterations: 293
currently lose_sum: 0.7154364585876465
time_elpased: 1.804
#iterations: 294
currently lose_sum: 0.7055953741073608
time_elpased: 1.823
#iterations: 295
currently lose_sum: 0.6670807600021362
time_elpased: 1.698
#iterations: 296
currently lose_sum: 0.6363102197647095
time_elpased: 1.717
#iterations: 297
currently lose_sum: 0.7043570876121521
time_elpased: 1.71
#iterations: 298
currently lose_sum: 0.6447436809539795
time_elpased: 1.708
#iterations: 299
currently lose_sum: 0.656448245048523
time_elpased: 1.724
start validation test
0.591666666667
0.582502768549
0.669211195929
0.622853759621
0.591065546285
26.062
#iterations: 300
currently lose_sum: 0.6439655423164368
time_elpased: 1.716
#iterations: 301
currently lose_sum: 0.6182007789611816
time_elpased: 1.714
#iterations: 302
currently lose_sum: 0.5939642786979675
time_elpased: 1.694
#iterations: 303
currently lose_sum: 0.6730747222900391
time_elpased: 1.705
#iterations: 304
currently lose_sum: 0.6050950288772583
time_elpased: 1.7
#iterations: 305
currently lose_sum: 0.6909341812133789
time_elpased: 1.698
#iterations: 306
currently lose_sum: 0.6473480463027954
time_elpased: 1.69
#iterations: 307
currently lose_sum: 0.6759898662567139
time_elpased: 1.712
#iterations: 308
currently lose_sum: 0.6331905126571655
time_elpased: 1.691
#iterations: 309
currently lose_sum: 0.6799732446670532
time_elpased: 1.693
#iterations: 310
currently lose_sum: 0.700585126876831
time_elpased: 1.68
#iterations: 311
currently lose_sum: 0.6923723220825195
time_elpased: 1.695
#iterations: 312
currently lose_sum: 0.5789890289306641
time_elpased: 1.704
#iterations: 313
currently lose_sum: 0.652083694934845
time_elpased: 1.703
#iterations: 314
currently lose_sum: 0.5548498034477234
time_elpased: 1.711
#iterations: 315
currently lose_sum: 0.6352568864822388
time_elpased: 1.702
#iterations: 316
currently lose_sum: 0.6750133633613586
time_elpased: 1.726
#iterations: 317
currently lose_sum: 0.6086640357971191
time_elpased: 1.683
#iterations: 318
currently lose_sum: 0.6051366925239563
time_elpased: 1.712
#iterations: 319
currently lose_sum: 0.6983588933944702
time_elpased: 1.793
start validation test
0.577564102564
0.566077003122
0.692111959288
0.622781911849
0.576676134683
26.338
#iterations: 320
currently lose_sum: 0.6691535711288452
time_elpased: 1.725
#iterations: 321
currently lose_sum: 0.6279946565628052
time_elpased: 1.808
#iterations: 322
currently lose_sum: 0.6559635400772095
time_elpased: 1.666
#iterations: 323
currently lose_sum: 0.6265032887458801
time_elpased: 1.683
#iterations: 324
currently lose_sum: 0.6654750108718872
time_elpased: 1.691
#iterations: 325
currently lose_sum: 0.6185234785079956
time_elpased: 1.66
#iterations: 326
currently lose_sum: 0.6383927464485168
time_elpased: 1.697
#iterations: 327
currently lose_sum: 0.6533533334732056
time_elpased: 1.658
#iterations: 328
currently lose_sum: 0.711544930934906
time_elpased: 1.68
#iterations: 329
currently lose_sum: 0.5998086929321289
time_elpased: 1.663
#iterations: 330
currently lose_sum: 0.6653681993484497
time_elpased: 1.648
#iterations: 331
currently lose_sum: 0.6254206895828247
time_elpased: 1.673
#iterations: 332
currently lose_sum: 0.6776246428489685
time_elpased: 1.648
#iterations: 333
currently lose_sum: 0.6677068471908569
time_elpased: 1.654
#iterations: 334
currently lose_sum: 0.6647305488586426
time_elpased: 1.635
#iterations: 335
currently lose_sum: 0.7024467587471008
time_elpased: 1.665
#iterations: 336
currently lose_sum: 0.6825980544090271
time_elpased: 1.66
#iterations: 337
currently lose_sum: 0.6630877256393433
time_elpased: 1.677
#iterations: 338
currently lose_sum: 0.5691515803337097
time_elpased: 1.683
#iterations: 339
currently lose_sum: 0.6344448328018188
time_elpased: 1.647
start validation test
0.594871794872
0.590375586854
0.639949109415
0.614163614164
0.594522358325
26.198
#iterations: 340
currently lose_sum: 0.6329252123832703
time_elpased: 1.676
#iterations: 341
currently lose_sum: 0.6357282400131226
time_elpased: 1.683
#iterations: 342
currently lose_sum: 0.605731725692749
time_elpased: 1.645
#iterations: 343
currently lose_sum: 0.6665687561035156
time_elpased: 1.688
#iterations: 344
currently lose_sum: 0.5517618656158447
time_elpased: 1.687
#iterations: 345
currently lose_sum: 0.5973910093307495
time_elpased: 1.736
#iterations: 346
currently lose_sum: 0.6352964043617249
time_elpased: 1.69
#iterations: 347
currently lose_sum: 0.6726864576339722
time_elpased: 1.683
#iterations: 348
currently lose_sum: 0.6669577360153198
time_elpased: 1.708
#iterations: 349
currently lose_sum: 0.6606005430221558
time_elpased: 1.767
#iterations: 350
currently lose_sum: 0.6779948472976685
time_elpased: 1.86
#iterations: 351
currently lose_sum: 0.6560093760490417
time_elpased: 1.917
#iterations: 352
currently lose_sum: 0.6637774705886841
time_elpased: 1.775
#iterations: 353
currently lose_sum: 0.6477580070495605
time_elpased: 1.734
#iterations: 354
currently lose_sum: 0.6596254706382751
time_elpased: 1.868
#iterations: 355
currently lose_sum: 0.6358869671821594
time_elpased: 1.688
#iterations: 356
currently lose_sum: 0.6159642338752747
time_elpased: 1.716
#iterations: 357
currently lose_sum: 0.6934825778007507
time_elpased: 1.752
#iterations: 358
currently lose_sum: 0.5992521047592163
time_elpased: 1.794
#iterations: 359
currently lose_sum: 0.5921476483345032
time_elpased: 1.727
start validation test
0.594871794872
0.636042402827
0.458015267176
0.532544378698
0.595932698187
26.218
#iterations: 360
currently lose_sum: 0.6479994058609009
time_elpased: 1.793
#iterations: 361
currently lose_sum: 0.6168661713600159
time_elpased: 1.718
#iterations: 362
currently lose_sum: 0.6500288844108582
time_elpased: 1.724
#iterations: 363
currently lose_sum: 0.6378507614135742
time_elpased: 1.689
#iterations: 364
currently lose_sum: 0.6278356313705444
time_elpased: 1.725
#iterations: 365
currently lose_sum: 0.6083446145057678
time_elpased: 1.716
#iterations: 366
currently lose_sum: 0.7023442387580872
time_elpased: 1.726
#iterations: 367
currently lose_sum: 0.6353837251663208
time_elpased: 1.753
#iterations: 368
currently lose_sum: 0.653939425945282
time_elpased: 1.716
#iterations: 369
currently lose_sum: 0.6136854887008667
time_elpased: 1.739
#iterations: 370
currently lose_sum: 0.645889163017273
time_elpased: 1.705
#iterations: 371
currently lose_sum: 0.6133645176887512
time_elpased: 1.726
#iterations: 372
currently lose_sum: 0.677733302116394
time_elpased: 1.737
#iterations: 373
currently lose_sum: 0.6328035593032837
time_elpased: 1.743
#iterations: 374
currently lose_sum: 0.6144768595695496
time_elpased: 1.832
#iterations: 375
currently lose_sum: 0.6397122740745544
time_elpased: 1.729
#iterations: 376
currently lose_sum: 0.7149298787117004
time_elpased: 1.766
#iterations: 377
currently lose_sum: 0.6585380434989929
time_elpased: 1.787
#iterations: 378
currently lose_sum: 0.647150993347168
time_elpased: 1.748
#iterations: 379
currently lose_sum: 0.7549904584884644
time_elpased: 1.708
start validation test
0.613461538462
0.592893401015
0.743002544529
0.659514398645
0.612457344616
25.913
#iterations: 380
currently lose_sum: 0.6454299688339233
time_elpased: 1.727
#iterations: 381
currently lose_sum: 0.6866942644119263
time_elpased: 1.893
#iterations: 382
currently lose_sum: 0.6487849354743958
time_elpased: 1.731
#iterations: 383
currently lose_sum: 0.6869474053382874
time_elpased: 1.705
#iterations: 384
currently lose_sum: 0.6959384083747864
time_elpased: 1.766
#iterations: 385
currently lose_sum: 0.6405995488166809
time_elpased: 1.728
#iterations: 386
currently lose_sum: 0.7097300291061401
time_elpased: 1.717
#iterations: 387
currently lose_sum: 0.6865226626396179
time_elpased: 1.744
#iterations: 388
currently lose_sum: 0.6839867830276489
time_elpased: 1.706
#iterations: 389
currently lose_sum: 0.567206859588623
time_elpased: 1.721
#iterations: 390
currently lose_sum: 0.7460488080978394
time_elpased: 1.843
#iterations: 391
currently lose_sum: 0.6067935824394226
time_elpased: 1.715
#iterations: 392
currently lose_sum: 0.6109675168991089
time_elpased: 1.738
#iterations: 393
currently lose_sum: 0.6495974659919739
time_elpased: 1.718
#iterations: 394
currently lose_sum: 0.6787521243095398
time_elpased: 1.751
#iterations: 395
currently lose_sum: 0.6689159274101257
time_elpased: 1.698
#iterations: 396
currently lose_sum: 0.5960543155670166
time_elpased: 1.706
#iterations: 397
currently lose_sum: 0.6856532096862793
time_elpased: 1.724
#iterations: 398
currently lose_sum: 0.6813058257102966
time_elpased: 1.725
#iterations: 399
currently lose_sum: 0.6406527161598206
time_elpased: 1.741
start validation test
0.591666666667
0.594423320659
0.596692111959
0.595555555556
0.591627709726
26.060
#iterations: 400
currently lose_sum: 0.6689935922622681
time_elpased: 1.723
#iterations: 401
currently lose_sum: 0.6075234413146973
time_elpased: 1.737
#iterations: 402
currently lose_sum: 0.6446813344955444
time_elpased: 1.713
#iterations: 403
currently lose_sum: 0.6309688687324524
time_elpased: 1.718
#iterations: 404
currently lose_sum: 0.6208956837654114
time_elpased: 1.719
#iterations: 405
currently lose_sum: 0.7173141241073608
time_elpased: 1.716
#iterations: 406
currently lose_sum: 0.5329822301864624
time_elpased: 1.728
#iterations: 407
currently lose_sum: 0.634983241558075
time_elpased: 1.743
#iterations: 408
currently lose_sum: 0.7331801652908325
time_elpased: 1.718
#iterations: 409
currently lose_sum: 0.7134000062942505
time_elpased: 1.721
#iterations: 410
currently lose_sum: 0.7742562890052795
time_elpased: 1.722
#iterations: 411
currently lose_sum: 0.5871790647506714
time_elpased: 1.718
#iterations: 412
currently lose_sum: 0.6373928785324097
time_elpased: 1.711
#iterations: 413
currently lose_sum: 0.613855242729187
time_elpased: 1.734
#iterations: 414
currently lose_sum: 0.4922110438346863
time_elpased: 1.711
#iterations: 415
currently lose_sum: 0.624909520149231
time_elpased: 1.719
#iterations: 416
currently lose_sum: 0.6178814172744751
time_elpased: 1.728
#iterations: 417
currently lose_sum: 0.5687370300292969
time_elpased: 1.716
#iterations: 418
currently lose_sum: 0.6452542543411255
time_elpased: 1.729
#iterations: 419
currently lose_sum: 0.6025975942611694
time_elpased: 1.731
start validation test
0.600641025641
0.589071038251
0.685750636132
0.633744855967
0.599981261219
26.027
#iterations: 420
currently lose_sum: 0.5606898665428162
time_elpased: 1.728
#iterations: 421
currently lose_sum: 0.7023103833198547
time_elpased: 1.717
#iterations: 422
currently lose_sum: 0.7575622200965881
time_elpased: 1.734
#iterations: 423
currently lose_sum: 0.6411256790161133
time_elpased: 1.73
#iterations: 424
currently lose_sum: 0.6006766557693481
time_elpased: 1.739
#iterations: 425
currently lose_sum: 0.6763537526130676
time_elpased: 1.752
#iterations: 426
currently lose_sum: 0.6201114654541016
time_elpased: 1.71
#iterations: 427
currently lose_sum: 0.6452425122261047
time_elpased: 1.73
#iterations: 428
currently lose_sum: 0.70924973487854
time_elpased: 1.767
#iterations: 429
currently lose_sum: 0.6646931767463684
time_elpased: 1.743
#iterations: 430
currently lose_sum: 0.6740943193435669
time_elpased: 1.779
#iterations: 431
currently lose_sum: 0.6797339916229248
time_elpased: 1.744
#iterations: 432
currently lose_sum: 0.708946704864502
time_elpased: 1.721
#iterations: 433
currently lose_sum: 0.6604744791984558
time_elpased: 1.756
#iterations: 434
currently lose_sum: 0.6702235341072083
time_elpased: 1.702
#iterations: 435
currently lose_sum: 0.6214229464530945
time_elpased: 1.802
#iterations: 436
currently lose_sum: 0.5243197679519653
time_elpased: 1.707
#iterations: 437
currently lose_sum: 0.610687255859375
time_elpased: 1.745
#iterations: 438
currently lose_sum: 0.6838508248329163
time_elpased: 1.717
#iterations: 439
currently lose_sum: 0.6689437031745911
time_elpased: 1.734
start validation test
0.614743589744
0.601092896175
0.699745547074
0.646678424456
0.614084659842
25.974
#iterations: 440
currently lose_sum: 0.6607144474983215
time_elpased: 1.727
#iterations: 441
currently lose_sum: 0.5960342288017273
time_elpased: 1.728
#iterations: 442
currently lose_sum: 0.5860539674758911
time_elpased: 1.716
#iterations: 443
currently lose_sum: 0.6500046849250793
time_elpased: 1.748
#iterations: 444
currently lose_sum: 0.711464524269104
time_elpased: 1.731
#iterations: 445
currently lose_sum: 0.5703263282775879
time_elpased: 1.712
#iterations: 446
currently lose_sum: 0.6246535181999207
time_elpased: 1.732
#iterations: 447
currently lose_sum: 0.6695017218589783
time_elpased: 1.688
#iterations: 448
currently lose_sum: 0.6336700320243835
time_elpased: 1.716
#iterations: 449
currently lose_sum: 0.6336406469345093
time_elpased: 1.689
#iterations: 450
currently lose_sum: 0.6871773600578308
time_elpased: 1.722
#iterations: 451
currently lose_sum: 0.6101347208023071
time_elpased: 1.734
#iterations: 452
currently lose_sum: 0.6212604641914368
time_elpased: 1.693
#iterations: 453
currently lose_sum: 0.6426148414611816
time_elpased: 1.714
#iterations: 454
currently lose_sum: 0.6909112930297852
time_elpased: 1.674
#iterations: 455
currently lose_sum: 0.5796825289726257
time_elpased: 1.698
#iterations: 456
currently lose_sum: 0.5749686360359192
time_elpased: 1.708
#iterations: 457
currently lose_sum: 0.5307227373123169
time_elpased: 1.699
#iterations: 458
currently lose_sum: 0.6041085124015808
time_elpased: 1.686
#iterations: 459
currently lose_sum: 0.6563519239425659
time_elpased: 1.679
start validation test
0.609615384615
0.586849852797
0.760814249364
0.662603878116
0.608443300393
25.807
#iterations: 460
currently lose_sum: 0.6808751225471497
time_elpased: 1.674
#iterations: 461
currently lose_sum: 0.6782764196395874
time_elpased: 1.653
#iterations: 462
currently lose_sum: 0.5953475832939148
time_elpased: 1.685
#iterations: 463
currently lose_sum: 0.6207426190376282
time_elpased: 1.664
#iterations: 464
currently lose_sum: 0.5606699585914612
time_elpased: 1.708
#iterations: 465
currently lose_sum: 0.5918219685554504
time_elpased: 1.64
#iterations: 466
currently lose_sum: 0.586534321308136
time_elpased: 1.668
#iterations: 467
currently lose_sum: 0.6353089809417725
time_elpased: 1.69
#iterations: 468
currently lose_sum: 0.6249144673347473
time_elpased: 1.695
#iterations: 469
currently lose_sum: 0.6202861666679382
time_elpased: 1.712
#iterations: 470
currently lose_sum: 0.6342729330062866
time_elpased: 1.71
#iterations: 471
currently lose_sum: 0.564337968826294
time_elpased: 1.724
#iterations: 472
currently lose_sum: 0.591633141040802
time_elpased: 1.743
#iterations: 473
currently lose_sum: 0.5097576379776001
time_elpased: 1.741
#iterations: 474
currently lose_sum: 0.7002816200256348
time_elpased: 1.74
#iterations: 475
currently lose_sum: 0.7002193331718445
time_elpased: 1.713
#iterations: 476
currently lose_sum: 0.6925140619277954
time_elpased: 1.732
#iterations: 477
currently lose_sum: 0.6062641143798828
time_elpased: 1.734
#iterations: 478
currently lose_sum: 0.5798207521438599
time_elpased: 1.698
#iterations: 479
currently lose_sum: 0.60744708776474
time_elpased: 1.72
start validation test
0.601282051282
0.586680761099
0.706106870229
0.640877598152
0.600469455786
25.969
#iterations: 480
currently lose_sum: 0.6929961442947388
time_elpased: 1.733
#iterations: 481
currently lose_sum: 0.7116225361824036
time_elpased: 1.7
#iterations: 482
currently lose_sum: 0.6650923490524292
time_elpased: 1.749
#iterations: 483
currently lose_sum: 0.6185831427574158
time_elpased: 1.718
#iterations: 484
currently lose_sum: 0.6604858636856079
time_elpased: 1.722
#iterations: 485
currently lose_sum: 0.5806477665901184
time_elpased: 1.734
#iterations: 486
currently lose_sum: 0.6826997995376587
time_elpased: 1.732
#iterations: 487
currently lose_sum: 0.6950940489768982
time_elpased: 1.739
#iterations: 488
currently lose_sum: 0.6988714933395386
time_elpased: 1.698
#iterations: 489
currently lose_sum: 0.6334164142608643
time_elpased: 1.702
#iterations: 490
currently lose_sum: 0.599695086479187
time_elpased: 1.722
#iterations: 491
currently lose_sum: 0.5922414064407349
time_elpased: 1.702
#iterations: 492
currently lose_sum: 0.6651983261108398
time_elpased: 1.716
#iterations: 493
currently lose_sum: 0.6273147463798523
time_elpased: 1.747
#iterations: 494
currently lose_sum: 0.6088278889656067
time_elpased: 1.72
#iterations: 495
currently lose_sum: 0.6605105400085449
time_elpased: 1.722
#iterations: 496
currently lose_sum: 0.6435324549674988
time_elpased: 1.708
#iterations: 497
currently lose_sum: 0.623979926109314
time_elpased: 1.716
#iterations: 498
currently lose_sum: 0.5935980081558228
time_elpased: 1.719
#iterations: 499
currently lose_sum: 0.6549137234687805
time_elpased: 1.729
start validation test
0.594871794872
0.591885441527
0.631043256997
0.610837438424
0.594591395941
25.976
#iterations: 500
currently lose_sum: 0.6373295187950134
time_elpased: 1.743
#iterations: 501
currently lose_sum: 0.6641421914100647
time_elpased: 1.689
#iterations: 502
currently lose_sum: 0.6422405242919922
time_elpased: 1.734
#iterations: 503
currently lose_sum: 0.5555375218391418
time_elpased: 1.709
#iterations: 504
currently lose_sum: 0.6606124043464661
time_elpased: 1.75
#iterations: 505
currently lose_sum: 0.6647766828536987
time_elpased: 1.701
#iterations: 506
currently lose_sum: 0.6661480665206909
time_elpased: 1.71
#iterations: 507
currently lose_sum: 0.6282063722610474
time_elpased: 1.718
#iterations: 508
currently lose_sum: 0.6505556106567383
time_elpased: 1.717
#iterations: 509
currently lose_sum: 0.6299194097518921
time_elpased: 1.893
#iterations: 510
currently lose_sum: 0.601440966129303
time_elpased: 1.854
#iterations: 511
currently lose_sum: 0.5859623551368713
time_elpased: 1.703
#iterations: 512
currently lose_sum: 0.5365198850631714
time_elpased: 1.865
#iterations: 513
currently lose_sum: 0.6288355588912964
time_elpased: 1.793
#iterations: 514
currently lose_sum: 0.7287369966506958
time_elpased: 1.718
#iterations: 515
currently lose_sum: 0.549951434135437
time_elpased: 1.772
#iterations: 516
currently lose_sum: 0.6573959589004517
time_elpased: 1.717
#iterations: 517
currently lose_sum: 0.6299375295639038
time_elpased: 1.71
#iterations: 518
currently lose_sum: 0.6850283741950989
time_elpased: 1.722
#iterations: 519
currently lose_sum: 0.6028405427932739
time_elpased: 1.717
start validation test
0.603205128205
0.600481347774
0.634860050891
0.617192331478
0.602959741208
25.967
#iterations: 520
currently lose_sum: 0.7519405484199524
time_elpased: 1.695
#iterations: 521
currently lose_sum: 0.5967081785202026
time_elpased: 1.702
#iterations: 522
currently lose_sum: 0.5886504054069519
time_elpased: 1.703
#iterations: 523
currently lose_sum: 0.6719655990600586
time_elpased: 1.714
#iterations: 524
currently lose_sum: 0.5937464833259583
time_elpased: 1.682
#iterations: 525
currently lose_sum: 0.5467638969421387
time_elpased: 1.71
#iterations: 526
currently lose_sum: 0.6787623167037964
time_elpased: 1.684
#iterations: 527
currently lose_sum: 0.6138555407524109
time_elpased: 1.706
#iterations: 528
currently lose_sum: 0.6386292576789856
time_elpased: 1.7
#iterations: 529
currently lose_sum: 0.6467820405960083
time_elpased: 1.681
#iterations: 530
currently lose_sum: 0.6195514798164368
time_elpased: 1.699
#iterations: 531
currently lose_sum: 0.6285613179206848
time_elpased: 1.689
#iterations: 532
currently lose_sum: 0.6552273631095886
time_elpased: 1.733
#iterations: 533
currently lose_sum: 0.644835889339447
time_elpased: 1.726
#iterations: 534
currently lose_sum: 0.5785105228424072
time_elpased: 1.673
#iterations: 535
currently lose_sum: 0.6190349459648132
time_elpased: 1.698
#iterations: 536
currently lose_sum: 0.6635565757751465
time_elpased: 1.708
#iterations: 537
currently lose_sum: 0.6306716799736023
time_elpased: 1.737
#iterations: 538
currently lose_sum: 0.6018387675285339
time_elpased: 1.69
#iterations: 539
currently lose_sum: 0.6422444581985474
time_elpased: 1.721
start validation test
0.602564102564
0.608355091384
0.592875318066
0.600515463918
0.602639209421
26.053
#iterations: 540
currently lose_sum: 0.5899973511695862
time_elpased: 1.728
#iterations: 541
currently lose_sum: 0.5647586584091187
time_elpased: 1.725
#iterations: 542
currently lose_sum: 0.6417484283447266
time_elpased: 1.686
#iterations: 543
currently lose_sum: 0.6277689337730408
time_elpased: 1.735
#iterations: 544
currently lose_sum: 0.64284747838974
time_elpased: 1.716
#iterations: 545
currently lose_sum: 0.6459871530532837
time_elpased: 1.706
#iterations: 546
currently lose_sum: 0.6572334170341492
time_elpased: 1.817
#iterations: 547
currently lose_sum: 0.638553261756897
time_elpased: 1.863
#iterations: 548
currently lose_sum: 0.586338222026825
time_elpased: 1.718
#iterations: 549
currently lose_sum: 0.5686070322990417
time_elpased: 1.726
#iterations: 550
currently lose_sum: 0.6242448091506958
time_elpased: 1.732
#iterations: 551
currently lose_sum: 0.643496036529541
time_elpased: 1.67
#iterations: 552
currently lose_sum: 0.5886513590812683
time_elpased: 1.559
#iterations: 553
currently lose_sum: 0.6067417860031128
time_elpased: 1.469
#iterations: 554
currently lose_sum: 0.6038323640823364
time_elpased: 1.468
#iterations: 555
currently lose_sum: 0.6186220645904541
time_elpased: 1.481
#iterations: 556
currently lose_sum: 0.6528655886650085
time_elpased: 1.467
#iterations: 557
currently lose_sum: 0.6671417951583862
time_elpased: 1.5
#iterations: 558
currently lose_sum: 0.5503225326538086
time_elpased: 1.593
#iterations: 559
currently lose_sum: 0.5681873559951782
time_elpased: 1.763
start validation test
0.601282051282
0.629746835443
0.506361323155
0.561354019746
0.60201787088
25.887
#iterations: 560
currently lose_sum: 0.6156339049339294
time_elpased: 1.758
#iterations: 561
currently lose_sum: 0.6117268800735474
time_elpased: 1.804
#iterations: 562
currently lose_sum: 0.6215030550956726
time_elpased: 1.811
#iterations: 563
currently lose_sum: 0.6777616739273071
time_elpased: 1.721
#iterations: 564
currently lose_sum: 0.6639810800552368
time_elpased: 1.674
#iterations: 565
currently lose_sum: 0.6083860397338867
time_elpased: 1.65
#iterations: 566
currently lose_sum: 0.6984258890151978
time_elpased: 1.654
#iterations: 567
currently lose_sum: 0.6316675543785095
time_elpased: 1.708
#iterations: 568
currently lose_sum: 0.7046847939491272
time_elpased: 1.63
#iterations: 569
currently lose_sum: 0.6443868279457092
time_elpased: 1.665
#iterations: 570
currently lose_sum: 0.6495786309242249
time_elpased: 1.654
#iterations: 571
currently lose_sum: 0.6752411127090454
time_elpased: 1.782
#iterations: 572
currently lose_sum: 0.6483186483383179
time_elpased: 1.664
#iterations: 573
currently lose_sum: 0.6130048632621765
time_elpased: 1.666
#iterations: 574
currently lose_sum: 0.6157681941986084
time_elpased: 1.664
#iterations: 575
currently lose_sum: 0.729901909828186
time_elpased: 1.649
#iterations: 576
currently lose_sum: 0.6044475436210632
time_elpased: 1.7
#iterations: 577
currently lose_sum: 0.636107325553894
time_elpased: 1.664
#iterations: 578
currently lose_sum: 0.5657351016998291
time_elpased: 1.655
#iterations: 579
currently lose_sum: 0.5522114634513855
time_elpased: 1.659
start validation test
0.602564102564
0.605063291139
0.608142493639
0.606598984772
0.602520859222
25.931
#iterations: 580
currently lose_sum: 0.6203840374946594
time_elpased: 1.704
#iterations: 581
currently lose_sum: 0.6035563349723816
time_elpased: 1.651
#iterations: 582
currently lose_sum: 0.6571545600891113
time_elpased: 1.687
#iterations: 583
currently lose_sum: 0.5654271245002747
time_elpased: 1.664
#iterations: 584
currently lose_sum: 0.632058322429657
time_elpased: 1.64
#iterations: 585
currently lose_sum: 0.6619070172309875
time_elpased: 1.722
#iterations: 586
currently lose_sum: 0.6267657279968262
time_elpased: 1.806
#iterations: 587
currently lose_sum: 0.6917532086372375
time_elpased: 1.743
#iterations: 588
currently lose_sum: 0.6597127914428711
time_elpased: 1.744
#iterations: 589
currently lose_sum: 0.6096765995025635
time_elpased: 1.777
#iterations: 590
currently lose_sum: 0.5788986086845398
time_elpased: 1.742
#iterations: 591
currently lose_sum: 0.6685358881950378
time_elpased: 1.739
#iterations: 592
currently lose_sum: 0.6573807001113892
time_elpased: 1.745
#iterations: 593
currently lose_sum: 0.6111353635787964
time_elpased: 1.739
#iterations: 594
currently lose_sum: 0.636441171169281
time_elpased: 1.762
#iterations: 595
currently lose_sum: 0.5670336484909058
time_elpased: 1.726
#iterations: 596
currently lose_sum: 0.6454466581344604
time_elpased: 1.724
#iterations: 597
currently lose_sum: 0.648385226726532
time_elpased: 1.742
#iterations: 598
currently lose_sum: 0.7080395817756653
time_elpased: 1.75
#iterations: 599
currently lose_sum: 0.6222480535507202
time_elpased: 1.937
start validation test
0.600641025641
0.596449704142
0.641221374046
0.618025751073
0.600326449297
25.998
acc: 0.605
pre: 0.584
rec: 0.756
F1: 0.659
auc: 0.604
