start to construct computing graph
graph construct over
2360
epochs start
#iterations: 0
currently lose_sum: 0.6947214603424072
time_elpased: 5.182
#iterations: 1
currently lose_sum: 0.7021047472953796
time_elpased: 5.056
#iterations: 2
currently lose_sum: 0.715406060218811
time_elpased: 5.126
#iterations: 3
currently lose_sum: 0.7021201252937317
time_elpased: 5.124
#iterations: 4
currently lose_sum: 0.659013569355011
time_elpased: 5.028
#iterations: 5
currently lose_sum: 0.775117039680481
time_elpased: 5.075
#iterations: 6
currently lose_sum: 0.7174416780471802
time_elpased: 5.037
#iterations: 7
currently lose_sum: 0.677268385887146
time_elpased: 5.014
#iterations: 8
currently lose_sum: 0.7312499284744263
time_elpased: 5.075
#iterations: 9
currently lose_sum: 0.6914052367210388
time_elpased: 5.122
#iterations: 10
currently lose_sum: 0.6846846342086792
time_elpased: 5.064
#iterations: 11
currently lose_sum: 0.7013554573059082
time_elpased: 4.986
#iterations: 12
currently lose_sum: 0.7008267045021057
time_elpased: 5.092
#iterations: 13
currently lose_sum: 0.687710165977478
time_elpased: 4.966
#iterations: 14
currently lose_sum: 0.6454674005508423
time_elpased: 5.096
#iterations: 15
currently lose_sum: 0.6816325187683105
time_elpased: 5.108
#iterations: 16
currently lose_sum: 0.6853047013282776
time_elpased: 4.949
#iterations: 17
currently lose_sum: 0.7191012501716614
time_elpased: 5.019
#iterations: 18
currently lose_sum: 0.660616397857666
time_elpased: 5.111
#iterations: 19
currently lose_sum: 0.673430323600769
time_elpased: 5.105
start validation test
0.511538461538
0.534090909091
0.239185750636
0.330404217926
0.513649722863
27.126
#iterations: 20
currently lose_sum: 0.6844409704208374
time_elpased: 4.505
#iterations: 21
currently lose_sum: 0.6814073920249939
time_elpased: 4.455
#iterations: 22
currently lose_sum: 0.6999891996383667
time_elpased: 4.519
#iterations: 23
currently lose_sum: 0.66791170835495
time_elpased: 4.558
#iterations: 24
currently lose_sum: 0.7078182101249695
time_elpased: 4.525
#iterations: 25
currently lose_sum: 0.6580973863601685
time_elpased: 4.62
#iterations: 26
currently lose_sum: 0.6608249545097351
time_elpased: 4.48
#iterations: 27
currently lose_sum: 0.6564890146255493
time_elpased: 4.522
#iterations: 28
currently lose_sum: 0.6773357391357422
time_elpased: 4.47
#iterations: 29
currently lose_sum: 0.6951422691345215
time_elpased: 4.598
#iterations: 30
currently lose_sum: 0.6942068934440613
time_elpased: 4.418
#iterations: 31
currently lose_sum: 0.6555631160736084
time_elpased: 4.596
#iterations: 32
currently lose_sum: 0.69074946641922
time_elpased: 4.506
#iterations: 33
currently lose_sum: 0.6612032651901245
time_elpased: 4.607
#iterations: 34
currently lose_sum: 0.6599742770195007
time_elpased: 4.516
#iterations: 35
currently lose_sum: 0.7157914042472839
time_elpased: 4.494
#iterations: 36
currently lose_sum: 0.6693902015686035
time_elpased: 4.547
#iterations: 37
currently lose_sum: 0.6957788467407227
time_elpased: 4.509
#iterations: 38
currently lose_sum: 0.7355183362960815
time_elpased: 4.472
#iterations: 39
currently lose_sum: 0.6432543396949768
time_elpased: 4.639
start validation test
0.554487179487
0.579964850615
0.419847328244
0.487084870849
0.555530899264
26.701
#iterations: 40
currently lose_sum: 0.6618366241455078
time_elpased: 4.592
#iterations: 41
currently lose_sum: 0.7152990102767944
time_elpased: 4.496
#iterations: 42
currently lose_sum: 0.70342618227005
time_elpased: 4.466
#iterations: 43
currently lose_sum: 0.6980100870132446
time_elpased: 4.458
#iterations: 44
currently lose_sum: 0.6944311261177063
time_elpased: 4.425
#iterations: 45
currently lose_sum: 0.7360595464706421
time_elpased: 4.603
#iterations: 46
currently lose_sum: 0.6881325840950012
time_elpased: 4.451
#iterations: 47
currently lose_sum: 0.6866532564163208
time_elpased: 4.453
#iterations: 48
currently lose_sum: 0.7229577898979187
time_elpased: 4.6
#iterations: 49
currently lose_sum: 0.6862368583679199
time_elpased: 4.442
#iterations: 50
currently lose_sum: 0.6814413070678711
time_elpased: 4.49
#iterations: 51
currently lose_sum: 0.7079569101333618
time_elpased: 4.503
#iterations: 52
currently lose_sum: 0.6766180992126465
time_elpased: 4.457
#iterations: 53
currently lose_sum: 0.6791830062866211
time_elpased: 4.555
#iterations: 54
currently lose_sum: 0.693482518196106
time_elpased: 4.502
#iterations: 55
currently lose_sum: 0.6674826741218567
time_elpased: 4.444
#iterations: 56
currently lose_sum: 0.667829155921936
time_elpased: 4.443
#iterations: 57
currently lose_sum: 0.67082679271698
time_elpased: 4.465
#iterations: 58
currently lose_sum: 0.6777839064598083
time_elpased: 4.582
#iterations: 59
currently lose_sum: 0.7073778510093689
time_elpased: 4.595
start validation test
0.569871794872
0.561761546724
0.665394402036
0.60920209668
0.569131309545
26.497
#iterations: 60
currently lose_sum: 0.698417067527771
time_elpased: 4.568
#iterations: 61
currently lose_sum: 0.719261884689331
time_elpased: 4.569
#iterations: 62
currently lose_sum: 0.6891494989395142
time_elpased: 4.476
#iterations: 63
currently lose_sum: 0.6573163866996765
time_elpased: 4.499
#iterations: 64
currently lose_sum: 0.712690532207489
time_elpased: 4.503
#iterations: 65
currently lose_sum: 0.6746626496315002
time_elpased: 4.467
#iterations: 66
currently lose_sum: 0.6676651239395142
time_elpased: 4.536
#iterations: 67
currently lose_sum: 0.7210336327552795
time_elpased: 4.484
#iterations: 68
currently lose_sum: 0.6739695072174072
time_elpased: 4.47
#iterations: 69
currently lose_sum: 0.6637752652168274
time_elpased: 4.505
#iterations: 70
currently lose_sum: 0.7111973762512207
time_elpased: 4.493
#iterations: 71
currently lose_sum: 0.6992053985595703
time_elpased: 4.504
#iterations: 72
currently lose_sum: 0.6523217558860779
time_elpased: 4.457
#iterations: 73
currently lose_sum: 0.6749384999275208
time_elpased: 4.471
#iterations: 74
currently lose_sum: 0.6584755182266235
time_elpased: 4.577
#iterations: 75
currently lose_sum: 0.6388154029846191
time_elpased: 4.446
#iterations: 76
currently lose_sum: 0.735444188117981
time_elpased: 4.484
#iterations: 77
currently lose_sum: 0.6643226742744446
time_elpased: 4.53
#iterations: 78
currently lose_sum: 0.6565224528312683
time_elpased: 4.478
#iterations: 79
currently lose_sum: 0.6661148071289062
time_elpased: 4.468
start validation test
0.572435897436
0.570917759237
0.60941475827
0.589538461538
0.5721492396
26.329
#iterations: 80
currently lose_sum: 0.695904552936554
time_elpased: 4.562
#iterations: 81
currently lose_sum: 0.659270167350769
time_elpased: 4.45
#iterations: 82
currently lose_sum: 0.6828826665878296
time_elpased: 4.515
#iterations: 83
currently lose_sum: 0.7065922021865845
time_elpased: 4.496
#iterations: 84
currently lose_sum: 0.6820049285888672
time_elpased: 4.6
#iterations: 85
currently lose_sum: 0.684858500957489
time_elpased: 4.483
#iterations: 86
currently lose_sum: 0.6701229810714722
time_elpased: 4.441
#iterations: 87
currently lose_sum: 0.6596104502677917
time_elpased: 4.437
#iterations: 88
currently lose_sum: 0.678550124168396
time_elpased: 4.631
#iterations: 89
currently lose_sum: 0.606109082698822
time_elpased: 4.493
#iterations: 90
currently lose_sum: 0.6262419819831848
time_elpased: 4.463
#iterations: 91
currently lose_sum: 0.6840416193008423
time_elpased: 4.496
#iterations: 92
currently lose_sum: 0.7030779719352722
time_elpased: 4.461
#iterations: 93
currently lose_sum: 0.6521118879318237
time_elpased: 4.417
#iterations: 94
currently lose_sum: 0.7022040486335754
time_elpased: 4.45
#iterations: 95
currently lose_sum: 0.6683465838432312
time_elpased: 4.41
#iterations: 96
currently lose_sum: 0.6873432993888855
time_elpased: 4.52
#iterations: 97
currently lose_sum: 0.6522520184516907
time_elpased: 4.519
#iterations: 98
currently lose_sum: 0.7342311143875122
time_elpased: 4.521
#iterations: 99
currently lose_sum: 0.6546928286552429
time_elpased: 4.528
start validation test
0.582051282051
0.568507157464
0.70737913486
0.630385487528
0.581079748309
26.334
#iterations: 100
currently lose_sum: 0.7013758420944214
time_elpased: 4.476
#iterations: 101
currently lose_sum: 0.6582560539245605
time_elpased: 4.444
#iterations: 102
currently lose_sum: 0.6728432178497314
time_elpased: 4.53
#iterations: 103
currently lose_sum: 0.7342818975448608
time_elpased: 4.455
#iterations: 104
currently lose_sum: 0.6573449373245239
time_elpased: 4.469
#iterations: 105
currently lose_sum: 0.6263378858566284
time_elpased: 4.49
#iterations: 106
currently lose_sum: 0.6903625726699829
time_elpased: 4.568
#iterations: 107
currently lose_sum: 0.6283153295516968
time_elpased: 4.519
#iterations: 108
currently lose_sum: 0.6511448621749878
time_elpased: 4.532
#iterations: 109
currently lose_sum: 0.678465723991394
time_elpased: 4.51
#iterations: 110
currently lose_sum: 0.710681140422821
time_elpased: 4.564
#iterations: 111
currently lose_sum: 0.7818236351013184
time_elpased: 4.557
#iterations: 112
currently lose_sum: 0.6096506118774414
time_elpased: 4.596
#iterations: 113
currently lose_sum: 0.651449978351593
time_elpased: 4.512
#iterations: 114
currently lose_sum: 0.6215837001800537
time_elpased: 4.601
#iterations: 115
currently lose_sum: 0.677547812461853
time_elpased: 4.555
#iterations: 116
currently lose_sum: 0.6396811008453369
time_elpased: 4.666
#iterations: 117
currently lose_sum: 0.6094259023666382
time_elpased: 4.489
#iterations: 118
currently lose_sum: 0.6608918309211731
time_elpased: 4.495
#iterations: 119
currently lose_sum: 0.6893642544746399
time_elpased: 4.597
start validation test
0.580128205128
0.588394062078
0.554707379135
0.571054354944
0.580325265795
26.181
#iterations: 120
currently lose_sum: 0.6932302117347717
time_elpased: 4.487
#iterations: 121
currently lose_sum: 0.6591275334358215
time_elpased: 4.473
#iterations: 122
currently lose_sum: 0.6951085925102234
time_elpased: 4.429
#iterations: 123
currently lose_sum: 0.6552208065986633
time_elpased: 4.404
#iterations: 124
currently lose_sum: 0.6871390342712402
time_elpased: 4.602
#iterations: 125
currently lose_sum: 0.6951099634170532
time_elpased: 4.446
#iterations: 126
currently lose_sum: 0.6198679208755493
time_elpased: 4.519
#iterations: 127
currently lose_sum: 0.6360068321228027
time_elpased: 4.46
#iterations: 128
currently lose_sum: 0.6277285218238831
time_elpased: 4.565
#iterations: 129
currently lose_sum: 0.6808066368103027
time_elpased: 4.516
#iterations: 130
currently lose_sum: 0.6789520382881165
time_elpased: 4.572
#iterations: 131
currently lose_sum: 0.6393610835075378
time_elpased: 4.622
#iterations: 132
currently lose_sum: 0.6387860774993896
time_elpased: 4.485
#iterations: 133
currently lose_sum: 0.6357457041740417
time_elpased: 4.484
#iterations: 134
currently lose_sum: 0.6362272500991821
time_elpased: 4.475
#iterations: 135
currently lose_sum: 0.6368738412857056
time_elpased: 4.488
#iterations: 136
currently lose_sum: 0.6834603548049927
time_elpased: 4.565
#iterations: 137
currently lose_sum: 0.6362643837928772
time_elpased: 4.513
#iterations: 138
currently lose_sum: 0.7154871225357056
time_elpased: 4.65
#iterations: 139
currently lose_sum: 0.6832751035690308
time_elpased: 4.671
start validation test
0.567948717949
0.572538860104
0.562340966921
0.567394094994
0.567992188887
26.252
#iterations: 140
currently lose_sum: 0.6023998856544495
time_elpased: 4.469
#iterations: 141
currently lose_sum: 0.6955844163894653
time_elpased: 4.575
#iterations: 142
currently lose_sum: 0.6479342579841614
time_elpased: 4.5
#iterations: 143
currently lose_sum: 0.6788002848625183
time_elpased: 4.476
#iterations: 144
currently lose_sum: 0.6735296845436096
time_elpased: 4.466
#iterations: 145
currently lose_sum: 0.6610918045043945
time_elpased: 4.507
#iterations: 146
currently lose_sum: 0.7280616760253906
time_elpased: 4.505
#iterations: 147
currently lose_sum: 0.6318166255950928
time_elpased: 4.51
#iterations: 148
currently lose_sum: 0.7257177829742432
time_elpased: 4.477
#iterations: 149
currently lose_sum: 0.7174339294433594
time_elpased: 4.539
#iterations: 150
currently lose_sum: 0.6497235894203186
time_elpased: 4.486
#iterations: 151
currently lose_sum: 0.7003569006919861
time_elpased: 4.518
#iterations: 152
currently lose_sum: 0.6755726933479309
time_elpased: 4.675
#iterations: 153
currently lose_sum: 0.761085033416748
time_elpased: 4.608
#iterations: 154
currently lose_sum: 0.6873752474784851
time_elpased: 4.644
#iterations: 155
currently lose_sum: 0.6593886613845825
time_elpased: 4.62
#iterations: 156
currently lose_sum: 0.692021369934082
time_elpased: 4.53
#iterations: 157
currently lose_sum: 0.642062783241272
time_elpased: 4.547
#iterations: 158
currently lose_sum: 0.6341020464897156
time_elpased: 4.494
#iterations: 159
currently lose_sum: 0.675091028213501
time_elpased: 4.464
start validation test
0.586538461538
0.572605561277
0.70737913486
0.632896983495
0.585601712133
26.246
#iterations: 160
currently lose_sum: 0.6698466539382935
time_elpased: 4.548
#iterations: 161
currently lose_sum: 0.5831927061080933
time_elpased: 4.598
#iterations: 162
currently lose_sum: 0.6436602473258972
time_elpased: 4.421
#iterations: 163
currently lose_sum: 0.7321861982345581
time_elpased: 4.439
#iterations: 164
currently lose_sum: 0.6326872706413269
time_elpased: 4.53
#iterations: 165
currently lose_sum: 0.6857739090919495
time_elpased: 4.702
#iterations: 166
currently lose_sum: 0.7525838017463684
time_elpased: 4.509
#iterations: 167
currently lose_sum: 0.6194819808006287
time_elpased: 4.459
#iterations: 168
currently lose_sum: 0.6695255041122437
time_elpased: 4.565
#iterations: 169
currently lose_sum: 0.5898780822753906
time_elpased: 4.461
#iterations: 170
currently lose_sum: 0.7412319779396057
time_elpased: 4.448
#iterations: 171
currently lose_sum: 0.6692344546318054
time_elpased: 4.481
#iterations: 172
currently lose_sum: 0.6508252024650574
time_elpased: 4.65
#iterations: 173
currently lose_sum: 0.7227025032043457
time_elpased: 4.599
#iterations: 174
currently lose_sum: 0.6942144632339478
time_elpased: 4.636
#iterations: 175
currently lose_sum: 0.7328173518180847
time_elpased: 4.572
#iterations: 176
currently lose_sum: 0.6814494132995605
time_elpased: 4.592
#iterations: 177
currently lose_sum: 0.612650990486145
time_elpased: 4.592
#iterations: 178
currently lose_sum: 0.6683380007743835
time_elpased: 4.467
#iterations: 179
currently lose_sum: 0.6229985356330872
time_elpased: 4.448
start validation test
0.587179487179
0.586585365854
0.611959287532
0.59900373599
0.586987395704
26.136
#iterations: 180
currently lose_sum: 0.7376461029052734
time_elpased: 4.482
#iterations: 181
currently lose_sum: 0.6287640333175659
time_elpased: 4.516
#iterations: 182
currently lose_sum: 0.6352745890617371
time_elpased: 4.564
#iterations: 183
currently lose_sum: 0.6871532201766968
time_elpased: 4.524
#iterations: 184
currently lose_sum: 0.6666011214256287
time_elpased: 4.465
#iterations: 185
currently lose_sum: 0.6338391900062561
time_elpased: 4.676
#iterations: 186
currently lose_sum: 0.6731624603271484
time_elpased: 4.56
#iterations: 187
currently lose_sum: 0.6191291809082031
time_elpased: 4.522
#iterations: 188
currently lose_sum: 0.6169285774230957
time_elpased: 4.603
#iterations: 189
currently lose_sum: 0.6362140774726868
time_elpased: 4.563
#iterations: 190
currently lose_sum: 0.6595700979232788
time_elpased: 4.655
#iterations: 191
currently lose_sum: 0.6787141561508179
time_elpased: 4.554
#iterations: 192
currently lose_sum: 0.605624794960022
time_elpased: 4.574
#iterations: 193
currently lose_sum: 0.6382898092269897
time_elpased: 4.504
#iterations: 194
currently lose_sum: 0.5749863386154175
time_elpased: 4.513
#iterations: 195
currently lose_sum: 0.5917869806289673
time_elpased: 4.469
#iterations: 196
currently lose_sum: 0.6620268821716309
time_elpased: 4.447
#iterations: 197
currently lose_sum: 0.6668175458908081
time_elpased: 4.603
#iterations: 198
currently lose_sum: 0.6428329348564148
time_elpased: 4.485
#iterations: 199
currently lose_sum: 0.6804686188697815
time_elpased: 4.446
start validation test
0.594871794872
0.591666666667
0.632315521628
0.611316113161
0.594581533424
26.043
#iterations: 200
currently lose_sum: 0.6448036432266235
time_elpased: 4.521
#iterations: 201
currently lose_sum: 0.6793851852416992
time_elpased: 4.505
#iterations: 202
currently lose_sum: 0.6611199378967285
time_elpased: 4.594
#iterations: 203
currently lose_sum: 0.7178111672401428
time_elpased: 4.437
#iterations: 204
currently lose_sum: 0.7122665643692017
time_elpased: 4.674
#iterations: 205
currently lose_sum: 0.6360422968864441
time_elpased: 4.507
#iterations: 206
currently lose_sum: 0.6744338274002075
time_elpased: 4.501
#iterations: 207
currently lose_sum: 0.691524863243103
time_elpased: 4.477
#iterations: 208
currently lose_sum: 0.649133026599884
time_elpased: 4.544
#iterations: 209
currently lose_sum: 0.6354318857192993
time_elpased: 4.509
#iterations: 210
currently lose_sum: 0.6366276741027832
time_elpased: 4.566
#iterations: 211
currently lose_sum: 0.640294075012207
time_elpased: 4.547
#iterations: 212
currently lose_sum: 0.6800273060798645
time_elpased: 4.523
#iterations: 213
currently lose_sum: 0.6449089646339417
time_elpased: 4.462
#iterations: 214
currently lose_sum: 0.6279809474945068
time_elpased: 4.501
#iterations: 215
currently lose_sum: 0.7107813954353333
time_elpased: 4.508
#iterations: 216
currently lose_sum: 0.6133784055709839
time_elpased: 4.649
#iterations: 217
currently lose_sum: 0.6429247856140137
time_elpased: 4.537
#iterations: 218
currently lose_sum: 0.6886940598487854
time_elpased: 4.533
#iterations: 219
currently lose_sum: 0.733235239982605
time_elpased: 4.479
start validation test
0.584615384615
0.589378238342
0.578880407125
0.584082156611
0.584659841805
26.094
#iterations: 220
currently lose_sum: 0.6594582796096802
time_elpased: 4.565
#iterations: 221
currently lose_sum: 0.6674684286117554
time_elpased: 4.582
#iterations: 222
currently lose_sum: 0.5907297134399414
time_elpased: 4.376
#iterations: 223
currently lose_sum: 0.6425274610519409
time_elpased: 4.569
#iterations: 224
currently lose_sum: 0.6624889373779297
time_elpased: 4.499
#iterations: 225
currently lose_sum: 0.656903088092804
time_elpased: 4.584
#iterations: 226
currently lose_sum: 0.6196426749229431
time_elpased: 4.505
#iterations: 227
currently lose_sum: 0.6758487224578857
time_elpased: 4.695
#iterations: 228
currently lose_sum: 0.6682650446891785
time_elpased: 4.613
#iterations: 229
currently lose_sum: 0.6340789794921875
time_elpased: 4.557
#iterations: 230
currently lose_sum: 0.6256371140480042
time_elpased: 4.522
#iterations: 231
currently lose_sum: 0.700825572013855
time_elpased: 4.443
#iterations: 232
currently lose_sum: 0.6978007555007935
time_elpased: 4.569
#iterations: 233
currently lose_sum: 0.681139349937439
time_elpased: 4.577
#iterations: 234
currently lose_sum: 0.6221282482147217
time_elpased: 4.458
#iterations: 235
currently lose_sum: 0.7400843501091003
time_elpased: 4.466
#iterations: 236
currently lose_sum: 0.7926607728004456
time_elpased: 4.625
#iterations: 237
currently lose_sum: 0.6094083786010742
time_elpased: 4.624
#iterations: 238
currently lose_sum: 0.7185407876968384
time_elpased: 4.519
#iterations: 239
currently lose_sum: 0.5929244756698608
time_elpased: 4.492
start validation test
0.601282051282
0.588362068966
0.69465648855
0.637106184364
0.600558218435
25.948
#iterations: 240
currently lose_sum: 0.6353289484977722
time_elpased: 4.66
#iterations: 241
currently lose_sum: 0.6910321116447449
time_elpased: 4.529
#iterations: 242
currently lose_sum: 0.7207378149032593
time_elpased: 4.498
#iterations: 243
currently lose_sum: 0.6005029678344727
time_elpased: 4.552
#iterations: 244
currently lose_sum: 0.654437243938446
time_elpased: 4.579
#iterations: 245
currently lose_sum: 0.7183066606521606
time_elpased: 4.538
#iterations: 246
currently lose_sum: 0.6596213579177856
time_elpased: 4.427
#iterations: 247
currently lose_sum: 0.6286885142326355
time_elpased: 4.536
#iterations: 248
currently lose_sum: 0.6685826778411865
time_elpased: 4.479
#iterations: 249
currently lose_sum: 0.6864653825759888
time_elpased: 4.654
#iterations: 250
currently lose_sum: 0.6499731540679932
time_elpased: 4.446
#iterations: 251
currently lose_sum: 0.6038397550582886
time_elpased: 4.589
#iterations: 252
currently lose_sum: 0.6253144145011902
time_elpased: 4.553
#iterations: 253
currently lose_sum: 0.6036198735237122
time_elpased: 4.48
#iterations: 254
currently lose_sum: 0.6898012757301331
time_elpased: 4.601
#iterations: 255
currently lose_sum: 0.6775148510932922
time_elpased: 4.541
#iterations: 256
currently lose_sum: 0.6626821756362915
time_elpased: 4.459
#iterations: 257
currently lose_sum: 0.7128978967666626
time_elpased: 4.481
#iterations: 258
currently lose_sum: 0.6435267329216003
time_elpased: 4.543
#iterations: 259
currently lose_sum: 0.6428817510604858
time_elpased: 4.448
start validation test
0.603205128205
0.595210946408
0.664122137405
0.627781118461
0.602732903328
25.844
#iterations: 260
currently lose_sum: 0.6699988842010498
time_elpased: 4.503
#iterations: 261
currently lose_sum: 0.6519263386726379
time_elpased: 4.594
#iterations: 262
currently lose_sum: 0.6057814359664917
time_elpased: 4.507
#iterations: 263
currently lose_sum: 0.639659583568573
time_elpased: 4.568
#iterations: 264
currently lose_sum: 0.6620097756385803
time_elpased: 4.437
#iterations: 265
currently lose_sum: 0.6480245590209961
time_elpased: 4.427
#iterations: 266
currently lose_sum: 0.6768705248832703
time_elpased: 4.563
#iterations: 267
currently lose_sum: 0.6555579900741577
time_elpased: 4.464
#iterations: 268
currently lose_sum: 0.6431449055671692
time_elpased: 4.575
#iterations: 269
currently lose_sum: 0.6742821335792542
time_elpased: 4.475
#iterations: 270
currently lose_sum: 0.7108561396598816
time_elpased: 4.553
#iterations: 271
currently lose_sum: 0.6402227282524109
time_elpased: 4.509
#iterations: 272
currently lose_sum: 0.7315040826797485
time_elpased: 4.489
#iterations: 273
currently lose_sum: 0.6668242812156677
time_elpased: 4.565
#iterations: 274
currently lose_sum: 0.6014625430107117
time_elpased: 4.507
#iterations: 275
currently lose_sum: 0.6410537958145142
time_elpased: 4.52
#iterations: 276
currently lose_sum: 0.6253569722175598
time_elpased: 4.429
#iterations: 277
currently lose_sum: 0.6439372897148132
time_elpased: 4.508
#iterations: 278
currently lose_sum: 0.6495959162712097
time_elpased: 4.511
#iterations: 279
currently lose_sum: 0.7419265508651733
time_elpased: 4.593
start validation test
0.586538461538
0.602026049204
0.529262086514
0.563303994584
0.586982464446
25.907
#iterations: 280
currently lose_sum: 0.6120212078094482
time_elpased: 4.436
#iterations: 281
currently lose_sum: 0.6928534507751465
time_elpased: 4.533
#iterations: 282
currently lose_sum: 0.7179047465324402
time_elpased: 4.474
#iterations: 283
currently lose_sum: 0.5932297706604004
time_elpased: 4.502
#iterations: 284
currently lose_sum: 0.6676480770111084
time_elpased: 4.613
#iterations: 285
currently lose_sum: 0.6544661521911621
time_elpased: 4.43
#iterations: 286
currently lose_sum: 0.6223150491714478
time_elpased: 4.472
#iterations: 287
currently lose_sum: 0.7106464505195618
time_elpased: 4.46
#iterations: 288
currently lose_sum: 0.6415873765945435
time_elpased: 4.58
#iterations: 289
currently lose_sum: 0.6073218584060669
time_elpased: 4.479
#iterations: 290
currently lose_sum: 0.6717537045478821
time_elpased: 4.59
#iterations: 291
currently lose_sum: 0.6109346151351929
time_elpased: 4.496
#iterations: 292
currently lose_sum: 0.6666029691696167
time_elpased: 4.53
#iterations: 293
currently lose_sum: 0.6854873895645142
time_elpased: 4.655
#iterations: 294
currently lose_sum: 0.7219894528388977
time_elpased: 4.635
#iterations: 295
currently lose_sum: 0.6676504611968994
time_elpased: 4.572
#iterations: 296
currently lose_sum: 0.6320651769638062
time_elpased: 4.581
#iterations: 297
currently lose_sum: 0.7276687026023865
time_elpased: 4.499
#iterations: 298
currently lose_sum: 0.6281638145446777
time_elpased: 4.493
#iterations: 299
currently lose_sum: 0.6480019688606262
time_elpased: 4.454
start validation test
0.596794871795
0.586932447398
0.674300254453
0.627590290112
0.596194054875
25.906
#iterations: 300
currently lose_sum: 0.6553378105163574
time_elpased: 4.573
#iterations: 301
currently lose_sum: 0.6217880845069885
time_elpased: 4.423
#iterations: 302
currently lose_sum: 0.5937994718551636
time_elpased: 4.62
#iterations: 303
currently lose_sum: 0.6810404062271118
time_elpased: 4.508
#iterations: 304
currently lose_sum: 0.5897975564002991
time_elpased: 4.491
#iterations: 305
currently lose_sum: 0.6659210324287415
time_elpased: 4.44
#iterations: 306
currently lose_sum: 0.6682326197624207
time_elpased: 4.567
#iterations: 307
currently lose_sum: 0.711578369140625
time_elpased: 4.504
#iterations: 308
currently lose_sum: 0.6209155321121216
time_elpased: 4.505
#iterations: 309
currently lose_sum: 0.6492658853530884
time_elpased: 4.52
#iterations: 310
currently lose_sum: 0.6906502842903137
time_elpased: 4.502
#iterations: 311
currently lose_sum: 0.7010560035705566
time_elpased: 4.477
#iterations: 312
currently lose_sum: 0.6021345853805542
time_elpased: 4.409
#iterations: 313
currently lose_sum: 0.6452656388282776
time_elpased: 4.513
#iterations: 314
currently lose_sum: 0.5873463749885559
time_elpased: 4.57
#iterations: 315
currently lose_sum: 0.6281158924102783
time_elpased: 4.558
#iterations: 316
currently lose_sum: 0.662444531917572
time_elpased: 4.5
#iterations: 317
currently lose_sum: 0.613884449005127
time_elpased: 4.589
#iterations: 318
currently lose_sum: 0.6148380041122437
time_elpased: 4.608
#iterations: 319
currently lose_sum: 0.6411615014076233
time_elpased: 4.604
start validation test
0.580128205128
0.570964247021
0.67048346056
0.616734932709
0.579427776792
25.972
#iterations: 320
currently lose_sum: 0.6961663365364075
time_elpased: 4.518
#iterations: 321
currently lose_sum: 0.6266219019889832
time_elpased: 4.428
#iterations: 322
currently lose_sum: 0.6596570014953613
time_elpased: 4.413
#iterations: 323
currently lose_sum: 0.6346549987792969
time_elpased: 4.464
#iterations: 324
currently lose_sum: 0.6405022144317627
time_elpased: 4.643
#iterations: 325
currently lose_sum: 0.637983500957489
time_elpased: 4.477
#iterations: 326
currently lose_sum: 0.6474310159683228
time_elpased: 4.464
#iterations: 327
currently lose_sum: 0.6225722432136536
time_elpased: 4.494
#iterations: 328
currently lose_sum: 0.686385989189148
time_elpased: 4.585
#iterations: 329
currently lose_sum: 0.6376951932907104
time_elpased: 4.49
#iterations: 330
currently lose_sum: 0.6635879278182983
time_elpased: 4.599
#iterations: 331
currently lose_sum: 0.6385600566864014
time_elpased: 4.523
#iterations: 332
currently lose_sum: 0.6689033508300781
time_elpased: 4.502
#iterations: 333
currently lose_sum: 0.6912722587585449
time_elpased: 4.476
#iterations: 334
currently lose_sum: 0.6741625666618347
time_elpased: 4.647
#iterations: 335
currently lose_sum: 0.6764680743217468
time_elpased: 4.477
#iterations: 336
currently lose_sum: 0.637533962726593
time_elpased: 4.532
#iterations: 337
currently lose_sum: 0.6815174221992493
time_elpased: 4.489
#iterations: 338
currently lose_sum: 0.6044875979423523
time_elpased: 4.549
#iterations: 339
currently lose_sum: 0.6216948628425598
time_elpased: 4.53
start validation test
0.590384615385
0.584
0.650127226463
0.615291992775
0.589921494369
25.981
#iterations: 340
currently lose_sum: 0.631188690662384
time_elpased: 4.449
#iterations: 341
currently lose_sum: 0.6389549970626831
time_elpased: 4.537
#iterations: 342
currently lose_sum: 0.5921251773834229
time_elpased: 4.54
#iterations: 343
currently lose_sum: 0.6731964349746704
time_elpased: 4.564
#iterations: 344
currently lose_sum: 0.5820629000663757
time_elpased: 4.523
#iterations: 345
currently lose_sum: 0.5957048535346985
time_elpased: 4.449
#iterations: 346
currently lose_sum: 0.6424323916435242
time_elpased: 4.595
#iterations: 347
currently lose_sum: 0.6352032423019409
time_elpased: 4.649
#iterations: 348
currently lose_sum: 0.6844863891601562
time_elpased: 4.675
#iterations: 349
currently lose_sum: 0.6767120957374573
time_elpased: 4.582
#iterations: 350
currently lose_sum: 0.6596188545227051
time_elpased: 4.623
#iterations: 351
currently lose_sum: 0.6574759483337402
time_elpased: 4.616
#iterations: 352
currently lose_sum: 0.6738292574882507
time_elpased: 4.582
#iterations: 353
currently lose_sum: 0.7044865489006042
time_elpased: 4.466
#iterations: 354
currently lose_sum: 0.6492592692375183
time_elpased: 4.668
#iterations: 355
currently lose_sum: 0.6341987252235413
time_elpased: 4.515
#iterations: 356
currently lose_sum: 0.5821491479873657
time_elpased: 4.568
#iterations: 357
currently lose_sum: 0.6488569378852844
time_elpased: 4.598
#iterations: 358
currently lose_sum: 0.6042676568031311
time_elpased: 4.481
#iterations: 359
currently lose_sum: 0.6400274038314819
time_elpased: 4.562
start validation test
0.599358974359
0.619970193741
0.529262086514
0.571036376115
0.599902361086
25.884
#iterations: 360
currently lose_sum: 0.66414475440979
time_elpased: 4.482
#iterations: 361
currently lose_sum: 0.61164391040802
time_elpased: 4.473
#iterations: 362
currently lose_sum: 0.6703997850418091
time_elpased: 4.551
#iterations: 363
currently lose_sum: 0.5903507471084595
time_elpased: 4.607
#iterations: 364
currently lose_sum: 0.6775082945823669
time_elpased: 4.478
#iterations: 365
currently lose_sum: 0.6136040687561035
time_elpased: 4.485
#iterations: 366
currently lose_sum: 0.7056123614311218
time_elpased: 4.587
#iterations: 367
currently lose_sum: 0.6866452097892761
time_elpased: 4.501
#iterations: 368
currently lose_sum: 0.6585310697555542
time_elpased: 4.485
#iterations: 369
currently lose_sum: 0.6523722410202026
time_elpased: 4.453
#iterations: 370
currently lose_sum: 0.6680528521537781
time_elpased: 4.458
#iterations: 371
currently lose_sum: 0.6193053126335144
time_elpased: 4.542
#iterations: 372
currently lose_sum: 0.6625939607620239
time_elpased: 4.453
#iterations: 373
currently lose_sum: 0.6357376575469971
time_elpased: 4.538
#iterations: 374
currently lose_sum: 0.6266753077507019
time_elpased: 4.451
#iterations: 375
currently lose_sum: 0.6464062929153442
time_elpased: 4.592
#iterations: 376
currently lose_sum: 0.7368766665458679
time_elpased: 4.567
#iterations: 377
currently lose_sum: 0.6641051769256592
time_elpased: 4.56
#iterations: 378
currently lose_sum: 0.6385427713394165
time_elpased: 4.475
#iterations: 379
currently lose_sum: 0.7327604293823242
time_elpased: 4.434
start validation test
0.601282051282
0.600985221675
0.620865139949
0.610763454318
0.601130244393
25.855
#iterations: 380
currently lose_sum: 0.6182509660720825
time_elpased: 4.47
#iterations: 381
currently lose_sum: 0.685768723487854
time_elpased: 4.472
#iterations: 382
currently lose_sum: 0.6462169289588928
time_elpased: 4.606
#iterations: 383
currently lose_sum: 0.7031233906745911
time_elpased: 4.449
#iterations: 384
currently lose_sum: 0.6766015291213989
time_elpased: 4.562
#iterations: 385
currently lose_sum: 0.6490278244018555
time_elpased: 4.694
#iterations: 386
currently lose_sum: 0.6972231864929199
time_elpased: 4.605
#iterations: 387
currently lose_sum: 0.6343013644218445
time_elpased: 4.457
#iterations: 388
currently lose_sum: 0.6860350370407104
time_elpased: 4.506
#iterations: 389
currently lose_sum: 0.607063889503479
time_elpased: 4.44
#iterations: 390
currently lose_sum: 0.7252901792526245
time_elpased: 4.53
#iterations: 391
currently lose_sum: 0.6497687101364136
time_elpased: 4.598
#iterations: 392
currently lose_sum: 0.6106041669845581
time_elpased: 4.485
#iterations: 393
currently lose_sum: 0.6698057055473328
time_elpased: 4.603
#iterations: 394
currently lose_sum: 0.6749040484428406
time_elpased: 4.612
#iterations: 395
currently lose_sum: 0.6522911787033081
time_elpased: 4.647
#iterations: 396
currently lose_sum: 0.545598566532135
time_elpased: 4.427
#iterations: 397
currently lose_sum: 0.6894082427024841
time_elpased: 4.464
#iterations: 398
currently lose_sum: 0.6862593293190002
time_elpased: 4.473
#iterations: 399
currently lose_sum: 0.6057571172714233
time_elpased: 4.398
start validation test
0.583333333333
0.590185676393
0.566157760814
0.577922077922
0.583466477306
26.171
#iterations: 400
currently lose_sum: 0.6590030193328857
time_elpased: 4.44
#iterations: 401
currently lose_sum: 0.5691981315612793
time_elpased: 4.519
#iterations: 402
currently lose_sum: 0.6434597373008728
time_elpased: 4.506
#iterations: 403
currently lose_sum: 0.6354265213012695
time_elpased: 4.591
#iterations: 404
currently lose_sum: 0.6411064267158508
time_elpased: 4.585
#iterations: 405
currently lose_sum: 0.6952347755432129
time_elpased: 4.605
#iterations: 406
currently lose_sum: 0.5362495183944702
time_elpased: 4.53
#iterations: 407
currently lose_sum: 0.6431826949119568
time_elpased: 4.492
#iterations: 408
currently lose_sum: 0.7194458246231079
time_elpased: 4.489
#iterations: 409
currently lose_sum: 0.6816362142562866
time_elpased: 4.522
#iterations: 410
currently lose_sum: 0.793167233467102
time_elpased: 4.535
#iterations: 411
currently lose_sum: 0.5940898656845093
time_elpased: 4.524
#iterations: 412
currently lose_sum: 0.655975341796875
time_elpased: 4.496
#iterations: 413
currently lose_sum: 0.6370905637741089
time_elpased: 4.49
#iterations: 414
currently lose_sum: 0.4804116189479828
time_elpased: 4.524
#iterations: 415
currently lose_sum: 0.6271979808807373
time_elpased: 4.574
#iterations: 416
currently lose_sum: 0.6300545930862427
time_elpased: 4.658
#iterations: 417
currently lose_sum: 0.5922178030014038
time_elpased: 4.463
#iterations: 418
currently lose_sum: 0.6573361158370972
time_elpased: 4.478
#iterations: 419
currently lose_sum: 0.5969988703727722
time_elpased: 4.541
start validation test
0.6
0.581488933602
0.735368956743
0.649438202247
0.598950628242
25.965
#iterations: 420
currently lose_sum: 0.6002287864685059
time_elpased: 4.465
#iterations: 421
currently lose_sum: 0.6777781844139099
time_elpased: 4.556
#iterations: 422
currently lose_sum: 0.7037471532821655
time_elpased: 4.492
#iterations: 423
currently lose_sum: 0.6584368348121643
time_elpased: 4.553
#iterations: 424
currently lose_sum: 0.5719619989395142
time_elpased: 4.605
#iterations: 425
currently lose_sum: 0.6546465158462524
time_elpased: 4.472
#iterations: 426
currently lose_sum: 0.5972689986228943
time_elpased: 4.595
#iterations: 427
currently lose_sum: 0.6450929641723633
time_elpased: 4.536
#iterations: 428
currently lose_sum: 0.684219241142273
time_elpased: 4.552
#iterations: 429
currently lose_sum: 0.6705784797668457
time_elpased: 4.549
#iterations: 430
currently lose_sum: 0.6605809926986694
time_elpased: 4.568
#iterations: 431
currently lose_sum: 0.6804133653640747
time_elpased: 4.666
#iterations: 432
currently lose_sum: 0.6799833178520203
time_elpased: 4.633
#iterations: 433
currently lose_sum: 0.6633855700492859
time_elpased: 4.638
#iterations: 434
currently lose_sum: 0.6718187928199768
time_elpased: 4.621
#iterations: 435
currently lose_sum: 0.6135563850402832
time_elpased: 4.448
#iterations: 436
currently lose_sum: 0.5552021265029907
time_elpased: 4.527
#iterations: 437
currently lose_sum: 0.5987151861190796
time_elpased: 4.511
#iterations: 438
currently lose_sum: 0.6540641784667969
time_elpased: 4.497
#iterations: 439
currently lose_sum: 0.6604045033454895
time_elpased: 4.538
start validation test
0.602564102564
0.58829787234
0.703562340967
0.640787949015
0.601781170483
25.856
#iterations: 440
currently lose_sum: 0.688513994216919
time_elpased: 4.536
#iterations: 441
currently lose_sum: 0.6136826276779175
time_elpased: 4.446
#iterations: 442
currently lose_sum: 0.6106435060501099
time_elpased: 4.47
#iterations: 443
currently lose_sum: 0.7055426239967346
time_elpased: 4.607
#iterations: 444
currently lose_sum: 0.7194277048110962
time_elpased: 4.678
#iterations: 445
currently lose_sum: 0.5932787656784058
time_elpased: 4.449
#iterations: 446
currently lose_sum: 0.6430004239082336
time_elpased: 4.613
#iterations: 447
currently lose_sum: 0.6570032835006714
time_elpased: 4.477
#iterations: 448
currently lose_sum: 0.618719756603241
time_elpased: 4.414
#iterations: 449
currently lose_sum: 0.6341491341590881
time_elpased: 4.503
#iterations: 450
currently lose_sum: 0.6809329986572266
time_elpased: 4.64
#iterations: 451
currently lose_sum: 0.6188614964485168
time_elpased: 4.652
#iterations: 452
currently lose_sum: 0.6085665822029114
time_elpased: 4.569
#iterations: 453
currently lose_sum: 0.6648925542831421
time_elpased: 4.512
#iterations: 454
currently lose_sum: 0.666235089302063
time_elpased: 4.674
#iterations: 455
currently lose_sum: 0.5747135281562805
time_elpased: 4.703
#iterations: 456
currently lose_sum: 0.6131933927536011
time_elpased: 4.573
#iterations: 457
currently lose_sum: 0.5944101810455322
time_elpased: 4.434
#iterations: 458
currently lose_sum: 0.5675757527351379
time_elpased: 4.454
#iterations: 459
currently lose_sum: 0.6894997358322144
time_elpased: 4.511
start validation test
0.599358974359
0.588170865279
0.68320610687
0.632136550912
0.598708996588
25.911
#iterations: 460
currently lose_sum: 0.6751141548156738
time_elpased: 4.524
#iterations: 461
currently lose_sum: 0.6894925832748413
time_elpased: 4.493
#iterations: 462
currently lose_sum: 0.6234624981880188
time_elpased: 4.634
#iterations: 463
currently lose_sum: 0.6291325688362122
time_elpased: 4.648
#iterations: 464
currently lose_sum: 0.5645634531974792
time_elpased: 4.547
#iterations: 465
currently lose_sum: 0.5831683874130249
time_elpased: 4.547
#iterations: 466
currently lose_sum: 0.5756212472915649
time_elpased: 4.567
#iterations: 467
currently lose_sum: 0.5943131446838379
time_elpased: 4.574
#iterations: 468
currently lose_sum: 0.60911625623703
time_elpased: 4.646
#iterations: 469
currently lose_sum: 0.6529439091682434
time_elpased: 4.528
#iterations: 470
currently lose_sum: 0.6506243348121643
time_elpased: 4.545
#iterations: 471
currently lose_sum: 0.5823103785514832
time_elpased: 4.455
#iterations: 472
currently lose_sum: 0.6022714972496033
time_elpased: 4.498
#iterations: 473
currently lose_sum: 0.503860592842102
time_elpased: 4.665
#iterations: 474
currently lose_sum: 0.6480414271354675
time_elpased: 4.597
#iterations: 475
currently lose_sum: 0.6666577458381653
time_elpased: 4.651
#iterations: 476
currently lose_sum: 0.6729376912117004
time_elpased: 4.501
#iterations: 477
currently lose_sum: 0.5986696481704712
time_elpased: 4.506
#iterations: 478
currently lose_sum: 0.6340498924255371
time_elpased: 4.052
#iterations: 479
currently lose_sum: 0.6242114305496216
time_elpased: 3.222
start validation test
0.59358974359
0.586956521739
0.652671755725
0.618072289157
0.593131743496
26.126
#iterations: 480
currently lose_sum: 0.7154791951179504
time_elpased: 3.189
#iterations: 481
currently lose_sum: 0.6930786967277527
time_elpased: 3.896
#iterations: 482
currently lose_sum: 0.712729811668396
time_elpased: 4.294
#iterations: 483
currently lose_sum: 0.6336695551872253
time_elpased: 4.297
#iterations: 484
currently lose_sum: 0.6709206700325012
time_elpased: 4.386
#iterations: 485
currently lose_sum: 0.6204572916030884
time_elpased: 4.392
#iterations: 486
currently lose_sum: 0.6418577432632446
time_elpased: 4.448
#iterations: 487
currently lose_sum: 0.7136295437812805
time_elpased: 4.434
#iterations: 488
currently lose_sum: 0.6948575973510742
time_elpased: 4.404
#iterations: 489
currently lose_sum: 0.6709004640579224
time_elpased: 4.355
#iterations: 490
currently lose_sum: 0.6033608317375183
time_elpased: 4.459
#iterations: 491
currently lose_sum: 0.5818010568618774
time_elpased: 4.442
#iterations: 492
currently lose_sum: 0.671537458896637
time_elpased: 4.351
#iterations: 493
currently lose_sum: 0.6422977447509766
time_elpased: 4.538
#iterations: 494
currently lose_sum: 0.5974418520927429
time_elpased: 4.412
#iterations: 495
currently lose_sum: 0.6652793288230896
time_elpased: 4.493
#iterations: 496
currently lose_sum: 0.6554595828056335
time_elpased: 4.504
#iterations: 497
currently lose_sum: 0.6057787537574768
time_elpased: 4.442
#iterations: 498
currently lose_sum: 0.6327236294746399
time_elpased: 4.516
#iterations: 499
currently lose_sum: 0.6654342412948608
time_elpased: 4.391
start validation test
0.596794871795
0.58002038736
0.723918575064
0.64402942841
0.595809416731
26.034
#iterations: 500
currently lose_sum: 0.6032851338386536
time_elpased: 4.419
#iterations: 501
currently lose_sum: 0.6666059494018555
time_elpased: 4.4
#iterations: 502
currently lose_sum: 0.6483661532402039
time_elpased: 4.332
#iterations: 503
currently lose_sum: 0.5971590280532837
time_elpased: 4.274
#iterations: 504
currently lose_sum: 0.6215454339981079
time_elpased: 4.44
#iterations: 505
currently lose_sum: 0.6810479164123535
time_elpased: 4.543
#iterations: 506
currently lose_sum: 0.6577259302139282
time_elpased: 4.584
#iterations: 507
currently lose_sum: 0.6310747861862183
time_elpased: 4.495
#iterations: 508
currently lose_sum: 0.6601137518882751
time_elpased: 4.636
#iterations: 509
currently lose_sum: 0.6650033593177795
time_elpased: 4.588
#iterations: 510
currently lose_sum: 0.6080271601676941
time_elpased: 4.535
#iterations: 511
currently lose_sum: 0.5831363797187805
time_elpased: 4.558
#iterations: 512
currently lose_sum: 0.577778697013855
time_elpased: 4.523
#iterations: 513
currently lose_sum: 0.6588469743728638
time_elpased: 4.527
#iterations: 514
currently lose_sum: 0.7000645399093628
time_elpased: 4.529
#iterations: 515
currently lose_sum: 0.5859778523445129
time_elpased: 4.579
#iterations: 516
currently lose_sum: 0.6816495656967163
time_elpased: 4.552
#iterations: 517
currently lose_sum: 0.6347272992134094
time_elpased: 4.518
#iterations: 518
currently lose_sum: 0.6814262270927429
time_elpased: 4.641
#iterations: 519
currently lose_sum: 0.5774714350700378
time_elpased: 4.581
start validation test
0.597435897436
0.605333333333
0.577608142494
0.591145833333
0.597589600963
26.021
#iterations: 520
currently lose_sum: 0.731712818145752
time_elpased: 4.49
#iterations: 521
currently lose_sum: 0.5884984731674194
time_elpased: 4.644
#iterations: 522
currently lose_sum: 0.6346316337585449
time_elpased: 4.616
#iterations: 523
currently lose_sum: 0.6778792142868042
time_elpased: 4.543
#iterations: 524
currently lose_sum: 0.6136488914489746
time_elpased: 4.506
#iterations: 525
currently lose_sum: 0.5393747091293335
time_elpased: 4.556
#iterations: 526
currently lose_sum: 0.6708717346191406
time_elpased: 4.617
#iterations: 527
currently lose_sum: 0.6307408213615417
time_elpased: 4.628
#iterations: 528
currently lose_sum: 0.6611014604568481
time_elpased: 4.606
#iterations: 529
currently lose_sum: 0.6631610989570618
time_elpased: 4.559
#iterations: 530
currently lose_sum: 0.6070041060447693
time_elpased: 4.539
#iterations: 531
currently lose_sum: 0.6128230094909668
time_elpased: 4.608
#iterations: 532
currently lose_sum: 0.6511591672897339
time_elpased: 4.58
#iterations: 533
currently lose_sum: 0.6627403497695923
time_elpased: 4.595
#iterations: 534
currently lose_sum: 0.58782559633255
time_elpased: 4.53
#iterations: 535
currently lose_sum: 0.6090795397758484
time_elpased: 4.491
#iterations: 536
currently lose_sum: 0.6560574769973755
time_elpased: 4.605
#iterations: 537
currently lose_sum: 0.7469910979270935
time_elpased: 4.488
#iterations: 538
currently lose_sum: 0.5898483395576477
time_elpased: 4.576
#iterations: 539
currently lose_sum: 0.6213151216506958
time_elpased: 4.519
start validation test
0.602564102564
0.604010025063
0.613231552163
0.608585858586
0.602481409156
26.108
#iterations: 540
currently lose_sum: 0.6153136491775513
time_elpased: 4.637
#iterations: 541
currently lose_sum: 0.5579863786697388
time_elpased: 4.485
#iterations: 542
currently lose_sum: 0.679858386516571
time_elpased: 4.5
#iterations: 543
currently lose_sum: 0.6507601737976074
time_elpased: 4.506
#iterations: 544
currently lose_sum: 0.6045546531677246
time_elpased: 4.466
#iterations: 545
currently lose_sum: 0.6288062334060669
time_elpased: 4.487
#iterations: 546
currently lose_sum: 0.663676381111145
time_elpased: 4.739
#iterations: 547
currently lose_sum: 0.6460935473442078
time_elpased: 4.54
#iterations: 548
currently lose_sum: 0.5625824332237244
time_elpased: 4.552
#iterations: 549
currently lose_sum: 0.5770614743232727
time_elpased: 4.626
#iterations: 550
currently lose_sum: 0.6263282895088196
time_elpased: 4.542
#iterations: 551
currently lose_sum: 0.6424124836921692
time_elpased: 4.5
#iterations: 552
currently lose_sum: 0.599123477935791
time_elpased: 4.491
#iterations: 553
currently lose_sum: 0.6175895929336548
time_elpased: 4.532
#iterations: 554
currently lose_sum: 0.5682277083396912
time_elpased: 4.52
#iterations: 555
currently lose_sum: 0.6550567746162415
time_elpased: 4.504
#iterations: 556
currently lose_sum: 0.6285296678543091
time_elpased: 4.584
#iterations: 557
currently lose_sum: 0.6614738702774048
time_elpased: 4.508
#iterations: 558
currently lose_sum: 0.5795197486877441
time_elpased: 4.516
#iterations: 559
currently lose_sum: 0.5748206377029419
time_elpased: 4.576
start validation test
0.591666666667
0.612708018154
0.515267175573
0.559778852799
0.592258910784
26.311
#iterations: 560
currently lose_sum: 0.6447052955627441
time_elpased: 4.659
#iterations: 561
currently lose_sum: 0.6298505067825317
time_elpased: 4.527
#iterations: 562
currently lose_sum: 0.6197381019592285
time_elpased: 4.628
#iterations: 563
currently lose_sum: 0.6810522079467773
time_elpased: 4.64
#iterations: 564
currently lose_sum: 0.6899157762527466
time_elpased: 4.51
#iterations: 565
currently lose_sum: 0.5948826670646667
time_elpased: 4.57
#iterations: 566
currently lose_sum: 0.6709505319595337
time_elpased: 4.623
#iterations: 567
currently lose_sum: 0.6156650185585022
time_elpased: 4.568
#iterations: 568
currently lose_sum: 0.683052659034729
time_elpased: 4.561
#iterations: 569
currently lose_sum: 0.6379094123840332
time_elpased: 4.605
#iterations: 570
currently lose_sum: 0.6522432565689087
time_elpased: 4.61
#iterations: 571
currently lose_sum: 0.6544528603553772
time_elpased: 4.522
#iterations: 572
currently lose_sum: 0.6337817907333374
time_elpased: 4.492
#iterations: 573
currently lose_sum: 0.5955504179000854
time_elpased: 4.519
#iterations: 574
currently lose_sum: 0.6275826692581177
time_elpased: 4.506
#iterations: 575
currently lose_sum: 0.7349129915237427
time_elpased: 4.446
#iterations: 576
currently lose_sum: 0.5622589588165283
time_elpased: 4.484
#iterations: 577
currently lose_sum: 0.6554943919181824
time_elpased: 4.527
#iterations: 578
currently lose_sum: 0.5879517793655396
time_elpased: 4.568
#iterations: 579
currently lose_sum: 0.5554181337356567
time_elpased: 4.571
start validation test
0.596153846154
0.603448275862
0.578880407125
0.590909090909
0.596287748782
26.097
#iterations: 580
currently lose_sum: 0.6249910593032837
time_elpased: 4.757
#iterations: 581
currently lose_sum: 0.6327738761901855
time_elpased: 4.561
#iterations: 582
currently lose_sum: 0.6643471717834473
time_elpased: 4.508
#iterations: 583
currently lose_sum: 0.5766252279281616
time_elpased: 4.572
#iterations: 584
currently lose_sum: 0.6336327791213989
time_elpased: 4.603
#iterations: 585
currently lose_sum: 0.6230656504631042
time_elpased: 4.511
#iterations: 586
currently lose_sum: 0.6304613351821899
time_elpased: 4.522
#iterations: 587
currently lose_sum: 0.6911407709121704
time_elpased: 4.483
#iterations: 588
currently lose_sum: 0.6502982974052429
time_elpased: 4.614
#iterations: 589
currently lose_sum: 0.6236343383789062
time_elpased: 4.574
#iterations: 590
currently lose_sum: 0.5993882417678833
time_elpased: 4.607
#iterations: 591
currently lose_sum: 0.689814567565918
time_elpased: 4.536
#iterations: 592
currently lose_sum: 0.6930789351463318
time_elpased: 4.492
#iterations: 593
currently lose_sum: 0.6152761578559875
time_elpased: 4.531
#iterations: 594
currently lose_sum: 0.6253532767295837
time_elpased: 4.579
#iterations: 595
currently lose_sum: 0.5820600390434265
time_elpased: 4.648
#iterations: 596
currently lose_sum: 0.6398559808731079
time_elpased: 4.614
#iterations: 597
currently lose_sum: 0.6434213519096375
time_elpased: 4.64
#iterations: 598
currently lose_sum: 0.7025905847549438
time_elpased: 4.552
#iterations: 599
currently lose_sum: 0.5948213338851929
time_elpased: 4.752
start validation test
0.591666666667
0.59394703657
0.599236641221
0.596580113996
0.591607984693
26.286
acc: 0.616
pre: 0.608
rec: 0.673
F1: 0.639
auc: 0.616
