start to construct computing graph
graph construct over
2360
epochs start
#iterations: 0
currently lose_sum: 0.7076693773269653
time_elpased: 2.696
#iterations: 1
currently lose_sum: 0.6969403028488159
time_elpased: 2.692
#iterations: 2
currently lose_sum: 0.7074778079986572
time_elpased: 2.667
#iterations: 3
currently lose_sum: 0.7047260403633118
time_elpased: 2.646
#iterations: 4
currently lose_sum: 0.6700423359870911
time_elpased: 2.688
#iterations: 5
currently lose_sum: 0.7566815614700317
time_elpased: 2.665
#iterations: 6
currently lose_sum: 0.7154790759086609
time_elpased: 2.772
#iterations: 7
currently lose_sum: 0.6809881329536438
time_elpased: 2.786
#iterations: 8
currently lose_sum: 0.7482203245162964
time_elpased: 2.731
#iterations: 9
currently lose_sum: 0.6938207745552063
time_elpased: 2.742
#iterations: 10
currently lose_sum: 0.672767698764801
time_elpased: 2.706
#iterations: 11
currently lose_sum: 0.7023441195487976
time_elpased: 2.747
#iterations: 12
currently lose_sum: 0.7136794328689575
time_elpased: 2.676
#iterations: 13
currently lose_sum: 0.6893348693847656
time_elpased: 2.699
#iterations: 14
currently lose_sum: 0.6471956968307495
time_elpased: 2.658
#iterations: 15
currently lose_sum: 0.7001389861106873
time_elpased: 2.658
#iterations: 16
currently lose_sum: 0.6934574246406555
time_elpased: 2.636
#iterations: 17
currently lose_sum: 0.7231448292732239
time_elpased: 2.623
#iterations: 18
currently lose_sum: 0.6692920327186584
time_elpased: 2.64
#iterations: 19
currently lose_sum: 0.6695916056632996
time_elpased: 2.616
start validation test
0.510897435897
0.529411764706
0.263358778626
0.351741716228
0.512816340217
27.043
#iterations: 20
currently lose_sum: 0.6730815172195435
time_elpased: 2.042
#iterations: 21
currently lose_sum: 0.6839591264724731
time_elpased: 2.109
#iterations: 22
currently lose_sum: 0.6932027339935303
time_elpased: 2.032
#iterations: 23
currently lose_sum: 0.6914991140365601
time_elpased: 1.998
#iterations: 24
currently lose_sum: 0.6908941268920898
time_elpased: 2.027
#iterations: 25
currently lose_sum: 0.6264540553092957
time_elpased: 2.023
#iterations: 26
currently lose_sum: 0.682147741317749
time_elpased: 2.008
#iterations: 27
currently lose_sum: 0.6397020220756531
time_elpased: 1.996
#iterations: 28
currently lose_sum: 0.6845394372940063
time_elpased: 2.033
#iterations: 29
currently lose_sum: 0.7227652072906494
time_elpased: 2.062
#iterations: 30
currently lose_sum: 0.6904041171073914
time_elpased: 2.004
#iterations: 31
currently lose_sum: 0.6728503108024597
time_elpased: 2.023
#iterations: 32
currently lose_sum: 0.6748760342597961
time_elpased: 1.996
#iterations: 33
currently lose_sum: 0.6784926056861877
time_elpased: 1.99
#iterations: 34
currently lose_sum: 0.6607362627983093
time_elpased: 2.131
#iterations: 35
currently lose_sum: 0.6954785585403442
time_elpased: 2.053
#iterations: 36
currently lose_sum: 0.6863710284233093
time_elpased: 2.01
#iterations: 37
currently lose_sum: 0.6937655210494995
time_elpased: 2.043
#iterations: 38
currently lose_sum: 0.7296825647354126
time_elpased: 2.051
#iterations: 39
currently lose_sum: 0.6418871283531189
time_elpased: 1.995
start validation test
0.56858974359
0.573472041612
0.56106870229
0.567202572347
0.568648046235
26.375
#iterations: 40
currently lose_sum: 0.6792653799057007
time_elpased: 2.009
#iterations: 41
currently lose_sum: 0.7261085510253906
time_elpased: 2.015
#iterations: 42
currently lose_sum: 0.6914304494857788
time_elpased: 2.033
#iterations: 43
currently lose_sum: 0.6671357750892639
time_elpased: 2.013
#iterations: 44
currently lose_sum: 0.6878635287284851
time_elpased: 2.069
#iterations: 45
currently lose_sum: 0.6837292909622192
time_elpased: 2.093
#iterations: 46
currently lose_sum: 0.6936341524124146
time_elpased: 2.043
#iterations: 47
currently lose_sum: 0.6956263184547424
time_elpased: 2.026
#iterations: 48
currently lose_sum: 0.7193748354911804
time_elpased: 2.004
#iterations: 49
currently lose_sum: 0.6705651879310608
time_elpased: 2.027
#iterations: 50
currently lose_sum: 0.6853580474853516
time_elpased: 2.017
#iterations: 51
currently lose_sum: 0.6897481679916382
time_elpased: 2.036
#iterations: 52
currently lose_sum: 0.6444275975227356
time_elpased: 2.085
#iterations: 53
currently lose_sum: 0.6682404279708862
time_elpased: 2.037
#iterations: 54
currently lose_sum: 0.6966273784637451
time_elpased: 1.989
#iterations: 55
currently lose_sum: 0.660028338432312
time_elpased: 2.006
#iterations: 56
currently lose_sum: 0.6595485806465149
time_elpased: 2.002
#iterations: 57
currently lose_sum: 0.669724702835083
time_elpased: 1.999
#iterations: 58
currently lose_sum: 0.6704691648483276
time_elpased: 2.011
#iterations: 59
currently lose_sum: 0.7153154611587524
time_elpased: 2.075
start validation test
0.583974358974
0.592193808883
0.559796437659
0.575539568345
0.584161784721
26.267
#iterations: 60
currently lose_sum: 0.7130948901176453
time_elpased: 2.012
#iterations: 61
currently lose_sum: 0.6957224607467651
time_elpased: 2.024
#iterations: 62
currently lose_sum: 0.6726429462432861
time_elpased: 1.989
#iterations: 63
currently lose_sum: 0.6703426241874695
time_elpased: 1.994
#iterations: 64
currently lose_sum: 0.6580492854118347
time_elpased: 2.032
#iterations: 65
currently lose_sum: 0.6582257747650146
time_elpased: 2.041
#iterations: 66
currently lose_sum: 0.7006295919418335
time_elpased: 2.001
#iterations: 67
currently lose_sum: 0.7152419090270996
time_elpased: 2.042
#iterations: 68
currently lose_sum: 0.6926134824752808
time_elpased: 2.028
#iterations: 69
currently lose_sum: 0.7014995217323303
time_elpased: 2.045
#iterations: 70
currently lose_sum: 0.7243087887763977
time_elpased: 2.03
#iterations: 71
currently lose_sum: 0.687996506690979
time_elpased: 2.007
#iterations: 72
currently lose_sum: 0.6470963358879089
time_elpased: 2.004
#iterations: 73
currently lose_sum: 0.6584951877593994
time_elpased: 2.041
#iterations: 74
currently lose_sum: 0.6565105319023132
time_elpased: 2.121
#iterations: 75
currently lose_sum: 0.6791926026344299
time_elpased: 2.01
#iterations: 76
currently lose_sum: 0.7308034896850586
time_elpased: 2.132
#iterations: 77
currently lose_sum: 0.6503845453262329
time_elpased: 1.996
#iterations: 78
currently lose_sum: 0.6783326864242554
time_elpased: 2.026
#iterations: 79
currently lose_sum: 0.6817795038223267
time_elpased: 2.042
start validation test
0.588461538462
0.595744680851
0.569974554707
0.582574772432
0.588604848413
26.279
#iterations: 80
currently lose_sum: 0.6888377070426941
time_elpased: 2.023
#iterations: 81
currently lose_sum: 0.6688573956489563
time_elpased: 2.006
#iterations: 82
currently lose_sum: 0.698775589466095
time_elpased: 1.986
#iterations: 83
currently lose_sum: 0.7112027406692505
time_elpased: 2.0
#iterations: 84
currently lose_sum: 0.6699014902114868
time_elpased: 2.017
#iterations: 85
currently lose_sum: 0.6878795623779297
time_elpased: 1.999
#iterations: 86
currently lose_sum: 0.6970675587654114
time_elpased: 2.002
#iterations: 87
currently lose_sum: 0.6632060408592224
time_elpased: 2.022
#iterations: 88
currently lose_sum: 0.6743757724761963
time_elpased: 2.01
#iterations: 89
currently lose_sum: 0.6302399635314941
time_elpased: 2.015
#iterations: 90
currently lose_sum: 0.5800671577453613
time_elpased: 1.999
#iterations: 91
currently lose_sum: 0.6764817833900452
time_elpased: 2.006
#iterations: 92
currently lose_sum: 0.705997109413147
time_elpased: 1.989
#iterations: 93
currently lose_sum: 0.6504393815994263
time_elpased: 1.996
#iterations: 94
currently lose_sum: 0.7196954488754272
time_elpased: 2.054
#iterations: 95
currently lose_sum: 0.6920711398124695
time_elpased: 1.974
#iterations: 96
currently lose_sum: 0.7042711973190308
time_elpased: 2.023
#iterations: 97
currently lose_sum: 0.629179835319519
time_elpased: 2.002
#iterations: 98
currently lose_sum: 0.68427574634552
time_elpased: 2.005
#iterations: 99
currently lose_sum: 0.6570389866828918
time_elpased: 1.992
start validation test
0.596153846154
0.587443946188
0.666666666667
0.624553039333
0.595607235142
26.068
#iterations: 100
currently lose_sum: 0.665246844291687
time_elpased: 2.042
#iterations: 101
currently lose_sum: 0.6839688420295715
time_elpased: 2.111
#iterations: 102
currently lose_sum: 0.6336503624916077
time_elpased: 2.006
#iterations: 103
currently lose_sum: 0.7429772615432739
time_elpased: 1.986
#iterations: 104
currently lose_sum: 0.7060143947601318
time_elpased: 1.995
#iterations: 105
currently lose_sum: 0.6557189226150513
time_elpased: 2.018
#iterations: 106
currently lose_sum: 0.6593366861343384
time_elpased: 1.996
#iterations: 107
currently lose_sum: 0.6504902839660645
time_elpased: 2.0
#iterations: 108
currently lose_sum: 0.6684162616729736
time_elpased: 2.004
#iterations: 109
currently lose_sum: 0.6834250092506409
time_elpased: 1.995
#iterations: 110
currently lose_sum: 0.695824921131134
time_elpased: 1.987
#iterations: 111
currently lose_sum: 0.7630327343940735
time_elpased: 2.025
#iterations: 112
currently lose_sum: 0.617150068283081
time_elpased: 2.013
#iterations: 113
currently lose_sum: 0.6775897741317749
time_elpased: 2.047
#iterations: 114
currently lose_sum: 0.5888726115226746
time_elpased: 1.998
#iterations: 115
currently lose_sum: 0.685200572013855
time_elpased: 2.003
#iterations: 116
currently lose_sum: 0.6411421895027161
time_elpased: 2.026
#iterations: 117
currently lose_sum: 0.6114397644996643
time_elpased: 2.04
#iterations: 118
currently lose_sum: 0.6654921770095825
time_elpased: 2.004
#iterations: 119
currently lose_sum: 0.6686939597129822
time_elpased: 2.045
start validation test
0.575641025641
0.589595375723
0.519083969466
0.552097428958
0.576079452433
26.241
#iterations: 120
currently lose_sum: 0.6661581993103027
time_elpased: 2.036
#iterations: 121
currently lose_sum: 0.6437849402427673
time_elpased: 2.001
#iterations: 122
currently lose_sum: 0.6977035403251648
time_elpased: 2.02
#iterations: 123
currently lose_sum: 0.6630657911300659
time_elpased: 2.026
#iterations: 124
currently lose_sum: 0.6871688961982727
time_elpased: 2.078
#iterations: 125
currently lose_sum: 0.6904719471931458
time_elpased: 2.023
#iterations: 126
currently lose_sum: 0.6135505437850952
time_elpased: 2.037
#iterations: 127
currently lose_sum: 0.6115419268608093
time_elpased: 2.036
#iterations: 128
currently lose_sum: 0.6172400712966919
time_elpased: 2.064
#iterations: 129
currently lose_sum: 0.6785391569137573
time_elpased: 2.056
#iterations: 130
currently lose_sum: 0.6815799474716187
time_elpased: 2.051
#iterations: 131
currently lose_sum: 0.6189387440681458
time_elpased: 2.03
#iterations: 132
currently lose_sum: 0.6194685101509094
time_elpased: 2.034
#iterations: 133
currently lose_sum: 0.6059573292732239
time_elpased: 2.004
#iterations: 134
currently lose_sum: 0.6782630085945129
time_elpased: 2.052
#iterations: 135
currently lose_sum: 0.637620747089386
time_elpased: 2.074
#iterations: 136
currently lose_sum: 0.706555962562561
time_elpased: 2.07
#iterations: 137
currently lose_sum: 0.6066744923591614
time_elpased: 2.044
#iterations: 138
currently lose_sum: 0.6614123582839966
time_elpased: 2.016
#iterations: 139
currently lose_sum: 0.6455199122428894
time_elpased: 2.032
start validation test
0.585897435897
0.592838196286
0.568702290076
0.580519480519
0.586030731601
26.205
#iterations: 140
currently lose_sum: 0.5990701913833618
time_elpased: 1.982
#iterations: 141
currently lose_sum: 0.6593545079231262
time_elpased: 1.993
#iterations: 142
currently lose_sum: 0.6951422691345215
time_elpased: 2.004
#iterations: 143
currently lose_sum: 0.6899487376213074
time_elpased: 2.016
#iterations: 144
currently lose_sum: 0.6462094187736511
time_elpased: 1.995
#iterations: 145
currently lose_sum: 0.7007325291633606
time_elpased: 2.099
#iterations: 146
currently lose_sum: 0.7510498762130737
time_elpased: 2.097
#iterations: 147
currently lose_sum: 0.6045759916305542
time_elpased: 2.02
#iterations: 148
currently lose_sum: 0.7299132943153381
time_elpased: 1.995
#iterations: 149
currently lose_sum: 0.6991971731185913
time_elpased: 2.011
#iterations: 150
currently lose_sum: 0.6659845113754272
time_elpased: 2.043
#iterations: 151
currently lose_sum: 0.6374292969703674
time_elpased: 1.999
#iterations: 152
currently lose_sum: 0.6716949343681335
time_elpased: 1.981
#iterations: 153
currently lose_sum: 0.7313104867935181
time_elpased: 1.986
#iterations: 154
currently lose_sum: 0.7090709805488586
time_elpased: 2.001
#iterations: 155
currently lose_sum: 0.6527281999588013
time_elpased: 2.005
#iterations: 156
currently lose_sum: 0.7199596166610718
time_elpased: 2.051
#iterations: 157
currently lose_sum: 0.6226375102996826
time_elpased: 2.019
#iterations: 158
currently lose_sum: 0.6225128769874573
time_elpased: 2.014
#iterations: 159
currently lose_sum: 0.6400939226150513
time_elpased: 2.028
start validation test
0.596153846154
0.589449541284
0.653944020356
0.620024125452
0.595705860307
26.152
#iterations: 160
currently lose_sum: 0.6736518144607544
time_elpased: 2.043
#iterations: 161
currently lose_sum: 0.5888693332672119
time_elpased: 2.045
#iterations: 162
currently lose_sum: 0.6570543646812439
time_elpased: 2.001
#iterations: 163
currently lose_sum: 0.6787644624710083
time_elpased: 2.028
#iterations: 164
currently lose_sum: 0.6330527067184448
time_elpased: 2.004
#iterations: 165
currently lose_sum: 0.7068503499031067
time_elpased: 2.034
#iterations: 166
currently lose_sum: 0.7361359596252441
time_elpased: 2.072
#iterations: 167
currently lose_sum: 0.5819528698921204
time_elpased: 2.135
#iterations: 168
currently lose_sum: 0.6667165756225586
time_elpased: 2.013
#iterations: 169
currently lose_sum: 0.5514809489250183
time_elpased: 2.011
#iterations: 170
currently lose_sum: 0.7326245307922363
time_elpased: 1.986
#iterations: 171
currently lose_sum: 0.651317834854126
time_elpased: 2.09
#iterations: 172
currently lose_sum: 0.6815562844276428
time_elpased: 2.007
#iterations: 173
currently lose_sum: 0.717961311340332
time_elpased: 2.051
#iterations: 174
currently lose_sum: 0.670911431312561
time_elpased: 2.005
#iterations: 175
currently lose_sum: 0.674697995185852
time_elpased: 2.066
#iterations: 176
currently lose_sum: 0.6790081262588501
time_elpased: 2.041
#iterations: 177
currently lose_sum: 0.6229680776596069
time_elpased: 2.099
#iterations: 178
currently lose_sum: 0.6237425804138184
time_elpased: 2.008
#iterations: 179
currently lose_sum: 0.6256913542747498
time_elpased: 2.034
start validation test
0.583974358974
0.580493537015
0.628498727735
0.603543066585
0.583629208829
26.004
#iterations: 180
currently lose_sum: 0.6985538601875305
time_elpased: 2.033
#iterations: 181
currently lose_sum: 0.566489577293396
time_elpased: 2.069
#iterations: 182
currently lose_sum: 0.6315757036209106
time_elpased: 2.145
#iterations: 183
currently lose_sum: 0.7027533054351807
time_elpased: 2.026
#iterations: 184
currently lose_sum: 0.6889386177062988
time_elpased: 2.051
#iterations: 185
currently lose_sum: 0.6312742233276367
time_elpased: 2.006
#iterations: 186
currently lose_sum: 0.6751255393028259
time_elpased: 2.018
#iterations: 187
currently lose_sum: 0.6519301533699036
time_elpased: 2.014
#iterations: 188
currently lose_sum: 0.6239212155342102
time_elpased: 2.001
#iterations: 189
currently lose_sum: 0.6147926449775696
time_elpased: 2.019
#iterations: 190
currently lose_sum: 0.6507160067558289
time_elpased: 2.053
#iterations: 191
currently lose_sum: 0.6628175973892212
time_elpased: 2.042
#iterations: 192
currently lose_sum: 0.615811824798584
time_elpased: 2.018
#iterations: 193
currently lose_sum: 0.6181451082229614
time_elpased: 2.028
#iterations: 194
currently lose_sum: 0.5853613615036011
time_elpased: 2.028
#iterations: 195
currently lose_sum: 0.5924211740493774
time_elpased: 2.052
#iterations: 196
currently lose_sum: 0.6741874814033508
time_elpased: 2.031
#iterations: 197
currently lose_sum: 0.6556795835494995
time_elpased: 2.048
#iterations: 198
currently lose_sum: 0.6320740580558777
time_elpased: 2.091
#iterations: 199
currently lose_sum: 0.675517737865448
time_elpased: 2.037
start validation test
0.598076923077
0.603381014304
0.590330788804
0.596784565916
0.598136970629
26.063
#iterations: 200
currently lose_sum: 0.6235165596008301
time_elpased: 2.04
#iterations: 201
currently lose_sum: 0.6819459795951843
time_elpased: 2.075
#iterations: 202
currently lose_sum: 0.6614192128181458
time_elpased: 2.011
#iterations: 203
currently lose_sum: 0.7011581659317017
time_elpased: 2.048
#iterations: 204
currently lose_sum: 0.6855878829956055
time_elpased: 2.043
#iterations: 205
currently lose_sum: 0.6177477836608887
time_elpased: 2.12
#iterations: 206
currently lose_sum: 0.6171941757202148
time_elpased: 2.037
#iterations: 207
currently lose_sum: 0.6957796812057495
time_elpased: 2.051
#iterations: 208
currently lose_sum: 0.6244311928749084
time_elpased: 2.035
#iterations: 209
currently lose_sum: 0.6676228642463684
time_elpased: 2.022
#iterations: 210
currently lose_sum: 0.6339475512504578
time_elpased: 1.986
#iterations: 211
currently lose_sum: 0.639962911605835
time_elpased: 2.003
#iterations: 212
currently lose_sum: 0.6841579675674438
time_elpased: 2.017
#iterations: 213
currently lose_sum: 0.6425633430480957
time_elpased: 2.004
#iterations: 214
currently lose_sum: 0.6162103414535522
time_elpased: 2.032
#iterations: 215
currently lose_sum: 0.6749513745307922
time_elpased: 2.009
#iterations: 216
currently lose_sum: 0.5990747213363647
time_elpased: 2.03
#iterations: 217
currently lose_sum: 0.6866797804832458
time_elpased: 2.032
#iterations: 218
currently lose_sum: 0.7074698209762573
time_elpased: 2.101
#iterations: 219
currently lose_sum: 0.7442106008529663
time_elpased: 2.045
start validation test
0.598076923077
0.608755129959
0.566157760814
0.586684245221
0.598324358443
26.037
#iterations: 220
currently lose_sum: 0.6632482409477234
time_elpased: 2.028
#iterations: 221
currently lose_sum: 0.6904804110527039
time_elpased: 2.009
#iterations: 222
currently lose_sum: 0.5866514444351196
time_elpased: 2.116
#iterations: 223
currently lose_sum: 0.6397591829299927
time_elpased: 2.048
#iterations: 224
currently lose_sum: 0.6371702551841736
time_elpased: 2.025
#iterations: 225
currently lose_sum: 0.6455270051956177
time_elpased: 2.034
#iterations: 226
currently lose_sum: 0.5936694741249084
time_elpased: 2.002
#iterations: 227
currently lose_sum: 0.6722790598869324
time_elpased: 2.003
#iterations: 228
currently lose_sum: 0.6608786582946777
time_elpased: 1.994
#iterations: 229
currently lose_sum: 0.6632620692253113
time_elpased: 2.009
#iterations: 230
currently lose_sum: 0.6445233225822449
time_elpased: 2.06
#iterations: 231
currently lose_sum: 0.6763262152671814
time_elpased: 2.022
#iterations: 232
currently lose_sum: 0.71942538022995
time_elpased: 1.99
#iterations: 233
currently lose_sum: 0.6368440389633179
time_elpased: 2.018
#iterations: 234
currently lose_sum: 0.6357628107070923
time_elpased: 2.044
#iterations: 235
currently lose_sum: 0.6916344165802002
time_elpased: 2.081
#iterations: 236
currently lose_sum: 0.8044922947883606
time_elpased: 2.061
#iterations: 237
currently lose_sum: 0.62132328748703
time_elpased: 2.008
#iterations: 238
currently lose_sum: 0.7299789190292358
time_elpased: 2.035
#iterations: 239
currently lose_sum: 0.5912396311759949
time_elpased: 2.007
start validation test
0.600641025641
0.584455958549
0.717557251908
0.644203312393
0.599734698306
25.983
#iterations: 240
currently lose_sum: 0.6307958364486694
time_elpased: 2.023
#iterations: 241
currently lose_sum: 0.6485086679458618
time_elpased: 2.275
#iterations: 242
currently lose_sum: 0.677223801612854
time_elpased: 2.057
#iterations: 243
currently lose_sum: 0.6139604449272156
time_elpased: 2.045
#iterations: 244
currently lose_sum: 0.6664584279060364
time_elpased: 2.088
#iterations: 245
currently lose_sum: 0.7186176776885986
time_elpased: 2.027
#iterations: 246
currently lose_sum: 0.7063321471214294
time_elpased: 2.015
#iterations: 247
currently lose_sum: 0.6254081130027771
time_elpased: 2.064
#iterations: 248
currently lose_sum: 0.6859306693077087
time_elpased: 1.989
#iterations: 249
currently lose_sum: 0.6499806046485901
time_elpased: 2.083
#iterations: 250
currently lose_sum: 0.6141481399536133
time_elpased: 1.992
#iterations: 251
currently lose_sum: 0.6303664445877075
time_elpased: 2.06
#iterations: 252
currently lose_sum: 0.6285532116889954
time_elpased: 2.089
#iterations: 253
currently lose_sum: 0.6139732003211975
time_elpased: 2.014
#iterations: 254
currently lose_sum: 0.6828191876411438
time_elpased: 2.008
#iterations: 255
currently lose_sum: 0.675748348236084
time_elpased: 2.007
#iterations: 256
currently lose_sum: 0.7179712057113647
time_elpased: 2.084
#iterations: 257
currently lose_sum: 0.6848828196525574
time_elpased: 2.037
#iterations: 258
currently lose_sum: 0.6380653977394104
time_elpased: 2.019
#iterations: 259
currently lose_sum: 0.6587607860565186
time_elpased: 2.016
start validation test
0.591025641026
0.583333333333
0.65903307888
0.618876941458
0.590498451585
25.973
#iterations: 260
currently lose_sum: 0.6775203943252563
time_elpased: 2.038
#iterations: 261
currently lose_sum: 0.6303408741950989
time_elpased: 1.99
#iterations: 262
currently lose_sum: 0.6163800358772278
time_elpased: 1.981
#iterations: 263
currently lose_sum: 0.6138386726379395
time_elpased: 2.039
#iterations: 264
currently lose_sum: 0.598141074180603
time_elpased: 2.027
#iterations: 265
currently lose_sum: 0.627408504486084
time_elpased: 2.02
#iterations: 266
currently lose_sum: 0.6571242213249207
time_elpased: 1.989
#iterations: 267
currently lose_sum: 0.6721328496932983
time_elpased: 1.967
#iterations: 268
currently lose_sum: 0.6433418989181519
time_elpased: 2.054
#iterations: 269
currently lose_sum: 0.6794263124465942
time_elpased: 2.114
#iterations: 270
currently lose_sum: 0.6373468637466431
time_elpased: 1.987
#iterations: 271
currently lose_sum: 0.6467276811599731
time_elpased: 2.004
#iterations: 272
currently lose_sum: 0.7481014132499695
time_elpased: 2.007
#iterations: 273
currently lose_sum: 0.6619908213615417
time_elpased: 2.005
#iterations: 274
currently lose_sum: 0.6126936078071594
time_elpased: 2.089
#iterations: 275
currently lose_sum: 0.6490753293037415
time_elpased: 2.024
#iterations: 276
currently lose_sum: 0.6315337419509888
time_elpased: 2.007
#iterations: 277
currently lose_sum: 0.638985812664032
time_elpased: 2.015
#iterations: 278
currently lose_sum: 0.6259924173355103
time_elpased: 2.116
#iterations: 279
currently lose_sum: 0.771369993686676
time_elpased: 2.014
start validation test
0.59358974359
0.615853658537
0.513994910941
0.560332871012
0.594206757796
26.020
#iterations: 280
currently lose_sum: 0.6157487034797668
time_elpased: 2.024
#iterations: 281
currently lose_sum: 0.6574556231498718
time_elpased: 2.002
#iterations: 282
currently lose_sum: 0.7070468068122864
time_elpased: 1.987
#iterations: 283
currently lose_sum: 0.5760949850082397
time_elpased: 1.988
#iterations: 284
currently lose_sum: 0.652180552482605
time_elpased: 2.034
#iterations: 285
currently lose_sum: 0.6016440391540527
time_elpased: 2.017
#iterations: 286
currently lose_sum: 0.6141525506973267
time_elpased: 2.035
#iterations: 287
currently lose_sum: 0.680895209312439
time_elpased: 2.023
#iterations: 288
currently lose_sum: 0.6439876556396484
time_elpased: 2.023
#iterations: 289
currently lose_sum: 0.6030475497245789
time_elpased: 1.978
#iterations: 290
currently lose_sum: 0.732743501663208
time_elpased: 2.051
#iterations: 291
currently lose_sum: 0.6073821783065796
time_elpased: 1.995
#iterations: 292
currently lose_sum: 0.6691280007362366
time_elpased: 1.992
#iterations: 293
currently lose_sum: 0.6921597719192505
time_elpased: 2.06
#iterations: 294
currently lose_sum: 0.7045048475265503
time_elpased: 2.056
#iterations: 295
currently lose_sum: 0.6476661562919617
time_elpased: 2.006
#iterations: 296
currently lose_sum: 0.6556803584098816
time_elpased: 2.041
#iterations: 297
currently lose_sum: 0.696067750453949
time_elpased: 2.025
#iterations: 298
currently lose_sum: 0.6460956931114197
time_elpased: 2.017
#iterations: 299
currently lose_sum: 0.6637232899665833
time_elpased: 2.015
start validation test
0.589102564103
0.583429228999
0.645038167939
0.612688821752
0.58866895477
25.992
#iterations: 300
currently lose_sum: 0.6493047475814819
time_elpased: 2.032
#iterations: 301
currently lose_sum: 0.6100970506668091
time_elpased: 2.102
#iterations: 302
currently lose_sum: 0.6496827006340027
time_elpased: 2.006
#iterations: 303
currently lose_sum: 0.6385796666145325
time_elpased: 2.028
#iterations: 304
currently lose_sum: 0.5836660265922546
time_elpased: 1.997
#iterations: 305
currently lose_sum: 0.6371579766273499
time_elpased: 1.98
#iterations: 306
currently lose_sum: 0.6471111178398132
time_elpased: 1.994
#iterations: 307
currently lose_sum: 0.6312589049339294
time_elpased: 2.067
#iterations: 308
currently lose_sum: 0.6335283517837524
time_elpased: 2.129
#iterations: 309
currently lose_sum: 0.6646040678024292
time_elpased: 2.047
#iterations: 310
currently lose_sum: 0.649806559085846
time_elpased: 2.052
#iterations: 311
currently lose_sum: 0.71833336353302
time_elpased: 2.063
#iterations: 312
currently lose_sum: 0.5684443712234497
time_elpased: 1.993
#iterations: 313
currently lose_sum: 0.6540209054946899
time_elpased: 2.057
#iterations: 314
currently lose_sum: 0.5715380907058716
time_elpased: 2.016
#iterations: 315
currently lose_sum: 0.5706779360771179
time_elpased: 2.031
#iterations: 316
currently lose_sum: 0.6598396301269531
time_elpased: 1.998
#iterations: 317
currently lose_sum: 0.6507214307785034
time_elpased: 1.981
#iterations: 318
currently lose_sum: 0.6030372977256775
time_elpased: 1.99
#iterations: 319
currently lose_sum: 0.617204487323761
time_elpased: 2.009
start validation test
0.562820512821
0.557777777778
0.638676844784
0.595492289442
0.562232479239
26.179
#iterations: 320
currently lose_sum: 0.6814220547676086
time_elpased: 2.022
#iterations: 321
currently lose_sum: 0.6617010235786438
time_elpased: 2.115
#iterations: 322
currently lose_sum: 0.6382480263710022
time_elpased: 2.009
#iterations: 323
currently lose_sum: 0.6205186247825623
time_elpased: 2.033
#iterations: 324
currently lose_sum: 0.6622554063796997
time_elpased: 2.008
#iterations: 325
currently lose_sum: 0.6379407048225403
time_elpased: 1.973
#iterations: 326
currently lose_sum: 0.6552968621253967
time_elpased: 2.031
#iterations: 327
currently lose_sum: 0.6197537779808044
time_elpased: 2.01
#iterations: 328
currently lose_sum: 0.6951537728309631
time_elpased: 2.035
#iterations: 329
currently lose_sum: 0.6311794519424438
time_elpased: 2.003
#iterations: 330
currently lose_sum: 0.7403429746627808
time_elpased: 2.023
#iterations: 331
currently lose_sum: 0.6440443992614746
time_elpased: 2.019
#iterations: 332
currently lose_sum: 0.630790650844574
time_elpased: 2.022
#iterations: 333
currently lose_sum: 0.7053490281105042
time_elpased: 2.002
#iterations: 334
currently lose_sum: 0.6418835520744324
time_elpased: 2.033
#iterations: 335
currently lose_sum: 0.723221480846405
time_elpased: 2.015
#iterations: 336
currently lose_sum: 0.6769911050796509
time_elpased: 2.04
#iterations: 337
currently lose_sum: 0.6872453093528748
time_elpased: 2.021
#iterations: 338
currently lose_sum: 0.5698302388191223
time_elpased: 1.989
#iterations: 339
currently lose_sum: 0.6216774582862854
time_elpased: 2.02
start validation test
0.578205128205
0.574074074074
0.631043256997
0.601212121212
0.577795530308
26.019
#iterations: 340
currently lose_sum: 0.627554714679718
time_elpased: 1.987
#iterations: 341
currently lose_sum: 0.6448089480400085
time_elpased: 2.021
#iterations: 342
currently lose_sum: 0.6277863383293152
time_elpased: 1.99
#iterations: 343
currently lose_sum: 0.6720770001411438
time_elpased: 1.989
#iterations: 344
currently lose_sum: 0.5888289213180542
time_elpased: 2.02
#iterations: 345
currently lose_sum: 0.6153618693351746
time_elpased: 2.026
#iterations: 346
currently lose_sum: 0.6355549097061157
time_elpased: 1.985
#iterations: 347
currently lose_sum: 0.6615020632743835
time_elpased: 1.982
#iterations: 348
currently lose_sum: 0.6669999957084656
time_elpased: 2.032
#iterations: 349
currently lose_sum: 0.6853844523429871
time_elpased: 1.968
#iterations: 350
currently lose_sum: 0.686003565788269
time_elpased: 2.024
#iterations: 351
currently lose_sum: 0.6535976529121399
time_elpased: 2.08
#iterations: 352
currently lose_sum: 0.647741973400116
time_elpased: 2.008
#iterations: 353
currently lose_sum: 0.6630206108093262
time_elpased: 2.045
#iterations: 354
currently lose_sum: 0.6131788492202759
time_elpased: 1.967
#iterations: 355
currently lose_sum: 0.6385313868522644
time_elpased: 2.003
#iterations: 356
currently lose_sum: 0.6549097299575806
time_elpased: 2.006
#iterations: 357
currently lose_sum: 0.6679855585098267
time_elpased: 2.02
#iterations: 358
currently lose_sum: 0.5789394974708557
time_elpased: 2.014
#iterations: 359
currently lose_sum: 0.6630156636238098
time_elpased: 2.013
start validation test
0.582692307692
0.607313195548
0.486005089059
0.539929328622
0.583441821015
26.192
#iterations: 360
currently lose_sum: 0.6255229115486145
time_elpased: 2.011
#iterations: 361
currently lose_sum: 0.6081949472427368
time_elpased: 2.008
#iterations: 362
currently lose_sum: 0.6938531994819641
time_elpased: 2.027
#iterations: 363
currently lose_sum: 0.6274153590202332
time_elpased: 2.058
#iterations: 364
currently lose_sum: 0.6661046743392944
time_elpased: 2.006
#iterations: 365
currently lose_sum: 0.6291200518608093
time_elpased: 2.014
#iterations: 366
currently lose_sum: 0.7116101980209351
time_elpased: 2.017
#iterations: 367
currently lose_sum: 0.6440861821174622
time_elpased: 2.045
#iterations: 368
currently lose_sum: 0.6964211463928223
time_elpased: 2.028
#iterations: 369
currently lose_sum: 0.6267303228378296
time_elpased: 2.021
#iterations: 370
currently lose_sum: 0.6442610025405884
time_elpased: 2.029
#iterations: 371
currently lose_sum: 0.626801609992981
time_elpased: 2.03
#iterations: 372
currently lose_sum: 0.6310634613037109
time_elpased: 2.004
#iterations: 373
currently lose_sum: 0.6294584274291992
time_elpased: 2.026
#iterations: 374
currently lose_sum: 0.6247216463088989
time_elpased: 2.014
#iterations: 375
currently lose_sum: 0.6384631395339966
time_elpased: 2.016
#iterations: 376
currently lose_sum: 0.6945681571960449
time_elpased: 1.984
#iterations: 377
currently lose_sum: 0.6907484531402588
time_elpased: 1.994
#iterations: 378
currently lose_sum: 0.6640118360519409
time_elpased: 1.999
#iterations: 379
currently lose_sum: 0.736880362033844
time_elpased: 2.06
start validation test
0.589102564103
0.576235541535
0.697201017812
0.630972941854
0.588264591593
25.927
#iterations: 380
currently lose_sum: 0.6321510076522827
time_elpased: 2.004
#iterations: 381
currently lose_sum: 0.6595406532287598
time_elpased: 1.987
#iterations: 382
currently lose_sum: 0.6514293551445007
time_elpased: 2.003
#iterations: 383
currently lose_sum: 0.6548584699630737
time_elpased: 1.992
#iterations: 384
currently lose_sum: 0.6994742155075073
time_elpased: 2.015
#iterations: 385
currently lose_sum: 0.646915078163147
time_elpased: 2.036
#iterations: 386
currently lose_sum: 0.7161010503768921
time_elpased: 2.013
#iterations: 387
currently lose_sum: 0.6774848103523254
time_elpased: 1.964
#iterations: 388
currently lose_sum: 0.6644055247306824
time_elpased: 2.013
#iterations: 389
currently lose_sum: 0.5997249484062195
time_elpased: 2.047
#iterations: 390
currently lose_sum: 0.7107403874397278
time_elpased: 2.028
#iterations: 391
currently lose_sum: 0.6325543522834778
time_elpased: 2.01
#iterations: 392
currently lose_sum: 0.6516566872596741
time_elpased: 2.029
#iterations: 393
currently lose_sum: 0.6822339296340942
time_elpased: 2.004
#iterations: 394
currently lose_sum: 0.6492617726325989
time_elpased: 2.039
#iterations: 395
currently lose_sum: 0.6179986000061035
time_elpased: 2.042
#iterations: 396
currently lose_sum: 0.5685316324234009
time_elpased: 2.01
#iterations: 397
currently lose_sum: 0.6888225674629211
time_elpased: 2.002
#iterations: 398
currently lose_sum: 0.6814436912536621
time_elpased: 2.026
#iterations: 399
currently lose_sum: 0.5857110619544983
time_elpased: 1.98
start validation test
0.596794871795
0.605087014726
0.575063613232
0.589693411611
0.596963331164
26.063
#iterations: 400
currently lose_sum: 0.6284483671188354
time_elpased: 2.059
#iterations: 401
currently lose_sum: 0.5805624723434448
time_elpased: 2.022
#iterations: 402
currently lose_sum: 0.6735234260559082
time_elpased: 1.981
#iterations: 403
currently lose_sum: 0.6401514410972595
time_elpased: 1.99
#iterations: 404
currently lose_sum: 0.6349288821220398
time_elpased: 2.029
#iterations: 405
currently lose_sum: 0.6715558171272278
time_elpased: 2.02
#iterations: 406
currently lose_sum: 0.5213686227798462
time_elpased: 1.998
#iterations: 407
currently lose_sum: 0.7168156504631042
time_elpased: 1.992
#iterations: 408
currently lose_sum: 0.7334507703781128
time_elpased: 2.017
#iterations: 409
currently lose_sum: 0.6583893299102783
time_elpased: 1.999
#iterations: 410
currently lose_sum: 0.8028618693351746
time_elpased: 2.007
#iterations: 411
currently lose_sum: 0.6123514175415039
time_elpased: 2.037
#iterations: 412
currently lose_sum: 0.6841558218002319
time_elpased: 1.988
#iterations: 413
currently lose_sum: 0.5893558263778687
time_elpased: 2.033
#iterations: 414
currently lose_sum: 0.5472630262374878
time_elpased: 2.044
#iterations: 415
currently lose_sum: 0.613495409488678
time_elpased: 1.981
#iterations: 416
currently lose_sum: 0.6176521182060242
time_elpased: 2.032
#iterations: 417
currently lose_sum: 0.6230404376983643
time_elpased: 1.997
#iterations: 418
currently lose_sum: 0.661472499370575
time_elpased: 2.091
#iterations: 419
currently lose_sum: 0.6134923100471497
time_elpased: 1.989
start validation test
0.587179487179
0.585542168675
0.618320610687
0.601485148515
0.586938083121
26.228
#iterations: 420
currently lose_sum: 0.5705425143241882
time_elpased: 2.02
#iterations: 421
currently lose_sum: 0.6917805671691895
time_elpased: 2.091
#iterations: 422
currently lose_sum: 0.7384077906608582
time_elpased: 1.998
#iterations: 423
currently lose_sum: 0.6892574429512024
time_elpased: 2.019
#iterations: 424
currently lose_sum: 0.6297775506973267
time_elpased: 2.059
#iterations: 425
currently lose_sum: 0.649368405342102
time_elpased: 2.123
#iterations: 426
currently lose_sum: 0.6237528920173645
time_elpased: 2.034
#iterations: 427
currently lose_sum: 0.6636148691177368
time_elpased: 2.032
#iterations: 428
currently lose_sum: 0.6683967113494873
time_elpased: 1.991
#iterations: 429
currently lose_sum: 0.6894494295120239
time_elpased: 2.041
#iterations: 430
currently lose_sum: 0.6793248057365417
time_elpased: 2.045
#iterations: 431
currently lose_sum: 0.6246519088745117
time_elpased: 2.014
#iterations: 432
currently lose_sum: 0.6840538382530212
time_elpased: 1.996
#iterations: 433
currently lose_sum: 0.7232243418693542
time_elpased: 2.025
#iterations: 434
currently lose_sum: 0.7012271881103516
time_elpased: 1.999
#iterations: 435
currently lose_sum: 0.636924147605896
time_elpased: 2.017
#iterations: 436
currently lose_sum: 0.5934935212135315
time_elpased: 2.016
#iterations: 437
currently lose_sum: 0.6219038963317871
time_elpased: 2.038
#iterations: 438
currently lose_sum: 0.6528299450874329
time_elpased: 2.034
#iterations: 439
currently lose_sum: 0.6625698208808899
time_elpased: 2.075
start validation test
0.591025641026
0.583146067416
0.660305343511
0.619331742243
0.590488589068
25.987
#iterations: 440
currently lose_sum: 0.7163836359977722
time_elpased: 2.022
#iterations: 441
currently lose_sum: 0.6131646037101746
time_elpased: 2.058
#iterations: 442
currently lose_sum: 0.614396870136261
time_elpased: 2.017
#iterations: 443
currently lose_sum: 0.6755843162536621
time_elpased: 2.031
#iterations: 444
currently lose_sum: 0.7195565104484558
time_elpased: 2.09
#iterations: 445
currently lose_sum: 0.5584608912467957
time_elpased: 1.991
#iterations: 446
currently lose_sum: 0.654809832572937
time_elpased: 2.016
#iterations: 447
currently lose_sum: 0.6625465154647827
time_elpased: 1.997
#iterations: 448
currently lose_sum: 0.6021562814712524
time_elpased: 2.026
#iterations: 449
currently lose_sum: 0.6253740191459656
time_elpased: 2.013
#iterations: 450
currently lose_sum: 0.7162556648254395
time_elpased: 2.039
#iterations: 451
currently lose_sum: 0.5829771757125854
time_elpased: 1.989
#iterations: 452
currently lose_sum: 0.6306897401809692
time_elpased: 2.13
#iterations: 453
currently lose_sum: 0.6437646150588989
time_elpased: 2.017
#iterations: 454
currently lose_sum: 0.6437627077102661
time_elpased: 2.041
#iterations: 455
currently lose_sum: 0.5648051500320435
time_elpased: 2.043
#iterations: 456
currently lose_sum: 0.6139963865280151
time_elpased: 2.007
#iterations: 457
currently lose_sum: 0.5494171380996704
time_elpased: 2.034
#iterations: 458
currently lose_sum: 0.6200054883956909
time_elpased: 2.033
#iterations: 459
currently lose_sum: 0.7030009031295776
time_elpased: 2.052
start validation test
0.584615384615
0.581560283688
0.625954198473
0.602941176471
0.584294928694
26.127
#iterations: 460
currently lose_sum: 0.6379219889640808
time_elpased: 2.05
#iterations: 461
currently lose_sum: 0.7110102772712708
time_elpased: 2.023
#iterations: 462
currently lose_sum: 0.6295949816703796
time_elpased: 2.026
#iterations: 463
currently lose_sum: 0.633641242980957
time_elpased: 2.03
#iterations: 464
currently lose_sum: 0.6014514565467834
time_elpased: 2.024
#iterations: 465
currently lose_sum: 0.610419511795044
time_elpased: 2.011
#iterations: 466
currently lose_sum: 0.6241223812103271
time_elpased: 1.999
#iterations: 467
currently lose_sum: 0.571381688117981
time_elpased: 2.028
#iterations: 468
currently lose_sum: 0.663945198059082
time_elpased: 2.049
#iterations: 469
currently lose_sum: 0.6410184502601624
time_elpased: 2.034
#iterations: 470
currently lose_sum: 0.6250782012939453
time_elpased: 2.002
#iterations: 471
currently lose_sum: 0.6026248335838318
time_elpased: 2.003
#iterations: 472
currently lose_sum: 0.5890130996704102
time_elpased: 2.04
#iterations: 473
currently lose_sum: 0.5210297703742981
time_elpased: 2.032
#iterations: 474
currently lose_sum: 0.7030882835388184
time_elpased: 2.014
#iterations: 475
currently lose_sum: 0.64954674243927
time_elpased: 2.014
#iterations: 476
currently lose_sum: 0.6523983478546143
time_elpased: 2.037
#iterations: 477
currently lose_sum: 0.6743696928024292
time_elpased: 1.996
#iterations: 478
currently lose_sum: 0.6122854351997375
time_elpased: 2.006
#iterations: 479
currently lose_sum: 0.6004461050033569
time_elpased: 2.016
start validation test
0.583333333333
0.593406593407
0.549618320611
0.570673712021
0.583594690021
26.146
#iterations: 480
currently lose_sum: 0.6808777451515198
time_elpased: 2.038
#iterations: 481
currently lose_sum: 0.6752813458442688
time_elpased: 2.073
#iterations: 482
currently lose_sum: 0.696507453918457
time_elpased: 2.03
#iterations: 483
currently lose_sum: 0.6557376980781555
time_elpased: 2.001
#iterations: 484
currently lose_sum: 0.6573126912117004
time_elpased: 1.975
#iterations: 485
currently lose_sum: 0.5998103022575378
time_elpased: 1.997
#iterations: 486
currently lose_sum: 0.6200340986251831
time_elpased: 1.991
#iterations: 487
currently lose_sum: 0.7313545942306519
time_elpased: 2.042
#iterations: 488
currently lose_sum: 0.6942070722579956
time_elpased: 1.997
#iterations: 489
currently lose_sum: 0.706881046295166
time_elpased: 1.985
#iterations: 490
currently lose_sum: 0.5660743117332458
time_elpased: 2.011
#iterations: 491
currently lose_sum: 0.6786311268806458
time_elpased: 2.019
#iterations: 492
currently lose_sum: 0.6432970762252808
time_elpased: 2.005
#iterations: 493
currently lose_sum: 0.6154239773750305
time_elpased: 1.988
#iterations: 494
currently lose_sum: 0.6285914182662964
time_elpased: 1.998
#iterations: 495
currently lose_sum: 0.6708461046218872
time_elpased: 2.031
#iterations: 496
currently lose_sum: 0.6014198064804077
time_elpased: 2.035
#iterations: 497
currently lose_sum: 0.582631528377533
time_elpased: 2.037
#iterations: 498
currently lose_sum: 0.6111887097358704
time_elpased: 1.998
#iterations: 499
currently lose_sum: 0.6257217526435852
time_elpased: 1.98
start validation test
0.591666666667
0.592777085928
0.605597964377
0.599118942731
0.591558672111
26.061
#iterations: 500
currently lose_sum: 0.6289721727371216
time_elpased: 2.006
#iterations: 501
currently lose_sum: 0.7097625136375427
time_elpased: 2.029
#iterations: 502
currently lose_sum: 0.6670140624046326
time_elpased: 2.023
#iterations: 503
currently lose_sum: 0.5952214002609253
time_elpased: 2.036
#iterations: 504
currently lose_sum: 0.6408607363700867
time_elpased: 1.996
#iterations: 505
currently lose_sum: 0.6427954435348511
time_elpased: 1.994
#iterations: 506
currently lose_sum: 0.6449311375617981
time_elpased: 2.076
#iterations: 507
currently lose_sum: 0.6271365880966187
time_elpased: 2.015
#iterations: 508
currently lose_sum: 0.6506667137145996
time_elpased: 2.061
#iterations: 509
currently lose_sum: 0.6657185554504395
time_elpased: 2.052
#iterations: 510
currently lose_sum: 0.6037848591804504
time_elpased: 2.041
#iterations: 511
currently lose_sum: 0.5844412446022034
time_elpased: 2.036
#iterations: 512
currently lose_sum: 0.6286365389823914
time_elpased: 2.055
#iterations: 513
currently lose_sum: 0.5912002325057983
time_elpased: 1.986
#iterations: 514
currently lose_sum: 0.730553150177002
time_elpased: 2.004
#iterations: 515
currently lose_sum: 0.6443483233451843
time_elpased: 2.031
#iterations: 516
currently lose_sum: 0.6831181049346924
time_elpased: 2.036
#iterations: 517
currently lose_sum: 0.6498657464981079
time_elpased: 2.018
#iterations: 518
currently lose_sum: 0.7017875909805298
time_elpased: 2.043
#iterations: 519
currently lose_sum: 0.5926461815834045
time_elpased: 2.048
start validation test
0.587179487179
0.579418344519
0.65903307888
0.616666666667
0.586622482593
26.120
#iterations: 520
currently lose_sum: 0.6991973519325256
time_elpased: 2.045
#iterations: 521
currently lose_sum: 0.6436773538589478
time_elpased: 2.028
#iterations: 522
currently lose_sum: 0.6165316700935364
time_elpased: 2.034
#iterations: 523
currently lose_sum: 0.663192629814148
time_elpased: 2.003
#iterations: 524
currently lose_sum: 0.6340773105621338
time_elpased: 1.994
#iterations: 525
currently lose_sum: 0.5659427642822266
time_elpased: 2.027
#iterations: 526
currently lose_sum: 0.6743484735488892
time_elpased: 1.972
#iterations: 527
currently lose_sum: 0.654305636882782
time_elpased: 1.885
#iterations: 528
currently lose_sum: 0.6569509506225586
time_elpased: 1.705
#iterations: 529
currently lose_sum: 0.6306045651435852
time_elpased: 1.733
#iterations: 530
currently lose_sum: 0.6889740824699402
time_elpased: 1.717
#iterations: 531
currently lose_sum: 0.6335676908493042
time_elpased: 1.695
#iterations: 532
currently lose_sum: 0.6832329034805298
time_elpased: 1.702
#iterations: 533
currently lose_sum: 0.6687334179878235
time_elpased: 1.996
#iterations: 534
currently lose_sum: 0.6033255457878113
time_elpased: 1.974
#iterations: 535
currently lose_sum: 0.6529785394668579
time_elpased: 1.951
#iterations: 536
currently lose_sum: 0.653176486492157
time_elpased: 1.957
#iterations: 537
currently lose_sum: 0.7265464067459106
time_elpased: 1.924
#iterations: 538
currently lose_sum: 0.5984755754470825
time_elpased: 1.988
#iterations: 539
currently lose_sum: 0.6315619945526123
time_elpased: 1.996
start validation test
0.594871794872
0.606060606061
0.559796437659
0.582010582011
0.595143696866
26.297
#iterations: 540
currently lose_sum: 0.617632269859314
time_elpased: 1.954
#iterations: 541
currently lose_sum: 0.558436393737793
time_elpased: 1.953
#iterations: 542
currently lose_sum: 0.678744912147522
time_elpased: 1.924
#iterations: 543
currently lose_sum: 0.6531397700309753
time_elpased: 1.918
#iterations: 544
currently lose_sum: 0.6463107466697693
time_elpased: 1.989
#iterations: 545
currently lose_sum: 0.6650298833847046
time_elpased: 1.94
#iterations: 546
currently lose_sum: 0.6727983951568604
time_elpased: 1.946
#iterations: 547
currently lose_sum: 0.5807173848152161
time_elpased: 1.94
#iterations: 548
currently lose_sum: 0.6003559827804565
time_elpased: 2.052
#iterations: 549
currently lose_sum: 0.5900290012359619
time_elpased: 1.927
#iterations: 550
currently lose_sum: 0.6164238452911377
time_elpased: 1.93
#iterations: 551
currently lose_sum: 0.6376012563705444
time_elpased: 1.919
#iterations: 552
currently lose_sum: 0.6468847393989563
time_elpased: 1.945
#iterations: 553
currently lose_sum: 0.6197525858879089
time_elpased: 1.931
#iterations: 554
currently lose_sum: 0.5832267999649048
time_elpased: 1.954
#iterations: 555
currently lose_sum: 0.6368674039840698
time_elpased: 1.943
#iterations: 556
currently lose_sum: 0.606461226940155
time_elpased: 1.934
#iterations: 557
currently lose_sum: 0.638999879360199
time_elpased: 1.942
#iterations: 558
currently lose_sum: 0.5307506918907166
time_elpased: 1.921
#iterations: 559
currently lose_sum: 0.6007801294326782
time_elpased: 1.964
start validation test
0.584615384615
0.590078328982
0.575063613232
0.582474226804
0.584689429355
26.076
#iterations: 560
currently lose_sum: 0.6907108426094055
time_elpased: 2.057
#iterations: 561
currently lose_sum: 0.6674695014953613
time_elpased: 1.999
#iterations: 562
currently lose_sum: 0.6454716324806213
time_elpased: 2.034
#iterations: 563
currently lose_sum: 0.6605232954025269
time_elpased: 2.025
#iterations: 564
currently lose_sum: 0.6805697679519653
time_elpased: 1.995
#iterations: 565
currently lose_sum: 0.610760509967804
time_elpased: 1.986
#iterations: 566
currently lose_sum: 0.6475244760513306
time_elpased: 2.022
#iterations: 567
currently lose_sum: 0.6452797055244446
time_elpased: 2.036
#iterations: 568
currently lose_sum: 0.6701253652572632
time_elpased: 2.017
#iterations: 569
currently lose_sum: 0.6370505094528198
time_elpased: 1.984
#iterations: 570
currently lose_sum: 0.675718367099762
time_elpased: 2.026
#iterations: 571
currently lose_sum: 0.6680190563201904
time_elpased: 2.022
#iterations: 572
currently lose_sum: 0.6357111930847168
time_elpased: 2.023
#iterations: 573
currently lose_sum: 0.6168674230575562
time_elpased: 2.051
#iterations: 574
currently lose_sum: 0.5961047410964966
time_elpased: 2.031
#iterations: 575
currently lose_sum: 0.7045332789421082
time_elpased: 2.056
#iterations: 576
currently lose_sum: 0.5754880905151367
time_elpased: 2.102
#iterations: 577
currently lose_sum: 0.6457570195198059
time_elpased: 2.04
#iterations: 578
currently lose_sum: 0.6203746795654297
time_elpased: 2.025
#iterations: 579
currently lose_sum: 0.5842238664627075
time_elpased: 2.053
start validation test
0.591025641026
0.586247086247
0.639949109415
0.611922141119
0.590646389333
26.127
#iterations: 580
currently lose_sum: 0.6054577827453613
time_elpased: 1.985
#iterations: 581
currently lose_sum: 0.706072211265564
time_elpased: 2.04
#iterations: 582
currently lose_sum: 0.668307900428772
time_elpased: 2.049
#iterations: 583
currently lose_sum: 0.57452392578125
time_elpased: 2.019
#iterations: 584
currently lose_sum: 0.6006824374198914
time_elpased: 2.017
#iterations: 585
currently lose_sum: 0.6487927436828613
time_elpased: 1.996
#iterations: 586
currently lose_sum: 0.6445640325546265
time_elpased: 2.029
#iterations: 587
currently lose_sum: 0.6959513425827026
time_elpased: 2.022
#iterations: 588
currently lose_sum: 0.601038932800293
time_elpased: 2.01
#iterations: 589
currently lose_sum: 0.6294205784797668
time_elpased: 2.018
#iterations: 590
currently lose_sum: 0.5809196829795837
time_elpased: 2.018
#iterations: 591
currently lose_sum: 0.7304028272628784
time_elpased: 1.997
#iterations: 592
currently lose_sum: 0.6977312564849854
time_elpased: 2.038
#iterations: 593
currently lose_sum: 0.6261216998100281
time_elpased: 2.022
#iterations: 594
currently lose_sum: 0.6625412702560425
time_elpased: 2.006
#iterations: 595
currently lose_sum: 0.6367003321647644
time_elpased: 2.029
#iterations: 596
currently lose_sum: 0.6501762270927429
time_elpased: 2.018
#iterations: 597
currently lose_sum: 0.6628026962280273
time_elpased: 2.025
#iterations: 598
currently lose_sum: 0.7283482551574707
time_elpased: 2.029
#iterations: 599
currently lose_sum: 0.6285243034362793
time_elpased: 2.153
start validation test
0.599358974359
0.583247156153
0.717557251908
0.643468339989
0.598442708642
26.181
acc: 0.607
pre: 0.591
rec: 0.719
F1: 0.649
auc: 0.606
