start to construct computing graph
graph construct over
2359
epochs start
#iterations: 0
currently lose_sum: 0.709333598613739
time_elpased: 2.334
#iterations: 1
currently lose_sum: 0.7231863141059875
time_elpased: 2.23
#iterations: 2
currently lose_sum: 0.6529990434646606
time_elpased: 2.25
#iterations: 3
currently lose_sum: 0.6898707151412964
time_elpased: 2.232
#iterations: 4
currently lose_sum: 0.6845794916152954
time_elpased: 2.315
#iterations: 5
currently lose_sum: 0.7154309749603271
time_elpased: 2.363
#iterations: 6
currently lose_sum: 0.7089044451713562
time_elpased: 2.33
#iterations: 7
currently lose_sum: 0.6813194155693054
time_elpased: 2.414
#iterations: 8
currently lose_sum: 0.668258786201477
time_elpased: 2.395
#iterations: 9
currently lose_sum: 0.6884384155273438
time_elpased: 2.345
#iterations: 10
currently lose_sum: 0.6838451623916626
time_elpased: 2.42
#iterations: 11
currently lose_sum: 0.6846752762794495
time_elpased: 2.359
#iterations: 12
currently lose_sum: 0.6957566738128662
time_elpased: 2.307
#iterations: 13
currently lose_sum: 0.6969276666641235
time_elpased: 2.408
#iterations: 14
currently lose_sum: 0.6837596297264099
time_elpased: 2.376
#iterations: 15
currently lose_sum: 0.7167317867279053
time_elpased: 2.375
#iterations: 16
currently lose_sum: 0.6882442235946655
time_elpased: 2.368
#iterations: 17
currently lose_sum: 0.6953698992729187
time_elpased: 2.408
#iterations: 18
currently lose_sum: 0.6712701916694641
time_elpased: 2.394
#iterations: 19
currently lose_sum: 0.699328601360321
time_elpased: 2.377
start validation test
0.555769230769
0.564383561644
0.523506988564
0.543177323665
0.556061385615
26.723
#iterations: 20
currently lose_sum: 0.651392936706543
time_elpased: 1.767
#iterations: 21
currently lose_sum: 0.734656572341919
time_elpased: 1.704
#iterations: 22
currently lose_sum: 0.7150651216506958
time_elpased: 1.581
#iterations: 23
currently lose_sum: 0.6736445426940918
time_elpased: 1.448
#iterations: 24
currently lose_sum: 0.6994098424911499
time_elpased: 1.452
#iterations: 25
currently lose_sum: 0.7085193991661072
time_elpased: 1.448
#iterations: 26
currently lose_sum: 0.7216882109642029
time_elpased: 1.648
#iterations: 27
currently lose_sum: 0.665812611579895
time_elpased: 1.789
#iterations: 28
currently lose_sum: 0.6607328653335571
time_elpased: 1.697
#iterations: 29
currently lose_sum: 0.6650393009185791
time_elpased: 1.63
#iterations: 30
currently lose_sum: 0.6792423129081726
time_elpased: 1.635
#iterations: 31
currently lose_sum: 0.6600582003593445
time_elpased: 1.638
#iterations: 32
currently lose_sum: 0.6933823823928833
time_elpased: 1.626
#iterations: 33
currently lose_sum: 0.6769827604293823
time_elpased: 1.683
#iterations: 34
currently lose_sum: 0.6696767807006836
time_elpased: 1.658
#iterations: 35
currently lose_sum: 0.6676843166351318
time_elpased: 1.643
#iterations: 36
currently lose_sum: 0.6288934946060181
time_elpased: 1.658
#iterations: 37
currently lose_sum: 0.7014603614807129
time_elpased: 1.595
#iterations: 38
currently lose_sum: 0.6749166250228882
time_elpased: 1.683
#iterations: 39
currently lose_sum: 0.6716219186782837
time_elpased: 1.599
start validation test
0.569230769231
0.560083594566
0.681067344346
0.614678899083
0.568218018874
26.547
#iterations: 40
currently lose_sum: 0.757207453250885
time_elpased: 1.637
#iterations: 41
currently lose_sum: 0.6370592713356018
time_elpased: 1.677
#iterations: 42
currently lose_sum: 0.7271258234977722
time_elpased: 1.631
#iterations: 43
currently lose_sum: 0.6363469362258911
time_elpased: 1.671
#iterations: 44
currently lose_sum: 0.6700541377067566
time_elpased: 1.754
#iterations: 45
currently lose_sum: 0.6740380525588989
time_elpased: 1.733
#iterations: 46
currently lose_sum: 0.6650331020355225
time_elpased: 1.616
#iterations: 47
currently lose_sum: 0.6559239625930786
time_elpased: 1.668
#iterations: 48
currently lose_sum: 0.6510461568832397
time_elpased: 1.635
#iterations: 49
currently lose_sum: 0.685030996799469
time_elpased: 1.616
#iterations: 50
currently lose_sum: 0.6406337022781372
time_elpased: 1.646
#iterations: 51
currently lose_sum: 0.6550915837287903
time_elpased: 1.602
#iterations: 52
currently lose_sum: 0.7126429080963135
time_elpased: 1.595
#iterations: 53
currently lose_sum: 0.7235794067382812
time_elpased: 1.635
#iterations: 54
currently lose_sum: 0.6698514819145203
time_elpased: 1.633
#iterations: 55
currently lose_sum: 0.6790475845336914
time_elpased: 1.66
#iterations: 56
currently lose_sum: 0.6857931017875671
time_elpased: 1.679
#iterations: 57
currently lose_sum: 0.6753039360046387
time_elpased: 1.687
#iterations: 58
currently lose_sum: 0.6899689435958862
time_elpased: 1.662
#iterations: 59
currently lose_sum: 0.6096129417419434
time_elpased: 1.668
start validation test
0.586538461538
0.60628742515
0.514612452351
0.556701030928
0.58718979668
26.407
#iterations: 60
currently lose_sum: 0.6319363713264465
time_elpased: 1.708
#iterations: 61
currently lose_sum: 0.6886039972305298
time_elpased: 1.72
#iterations: 62
currently lose_sum: 0.7312759160995483
time_elpased: 1.678
#iterations: 63
currently lose_sum: 0.6444669961929321
time_elpased: 1.664
#iterations: 64
currently lose_sum: 0.6656333208084106
time_elpased: 1.658
#iterations: 65
currently lose_sum: 0.7044790387153625
time_elpased: 1.646
#iterations: 66
currently lose_sum: 0.6911059617996216
time_elpased: 1.661
#iterations: 67
currently lose_sum: 0.713365912437439
time_elpased: 1.649
#iterations: 68
currently lose_sum: 0.645732045173645
time_elpased: 1.679
#iterations: 69
currently lose_sum: 0.6698623299598694
time_elpased: 1.662
#iterations: 70
currently lose_sum: 0.7047220468521118
time_elpased: 1.739
#iterations: 71
currently lose_sum: 0.6772230863571167
time_elpased: 1.662
#iterations: 72
currently lose_sum: 0.6955891847610474
time_elpased: 1.655
#iterations: 73
currently lose_sum: 0.6396180391311646
time_elpased: 1.667
#iterations: 74
currently lose_sum: 0.6277239918708801
time_elpased: 1.704
#iterations: 75
currently lose_sum: 0.6634812355041504
time_elpased: 1.698
#iterations: 76
currently lose_sum: 0.6922138333320618
time_elpased: 1.67
#iterations: 77
currently lose_sum: 0.6660211086273193
time_elpased: 1.671
#iterations: 78
currently lose_sum: 0.6740111708641052
time_elpased: 1.649
#iterations: 79
currently lose_sum: 0.7272599339485168
time_elpased: 1.652
start validation test
0.585897435897
0.578420467186
0.660736975858
0.61684460261
0.585219716907
26.142
#iterations: 80
currently lose_sum: 0.6717194318771362
time_elpased: 1.651
#iterations: 81
currently lose_sum: 0.7861332893371582
time_elpased: 1.682
#iterations: 82
currently lose_sum: 0.686488687992096
time_elpased: 1.653
#iterations: 83
currently lose_sum: 0.678141176700592
time_elpased: 1.66
#iterations: 84
currently lose_sum: 0.6544909477233887
time_elpased: 1.665
#iterations: 85
currently lose_sum: 0.6628286242485046
time_elpased: 1.669
#iterations: 86
currently lose_sum: 0.7069481611251831
time_elpased: 1.668
#iterations: 87
currently lose_sum: 0.701416015625
time_elpased: 1.682
#iterations: 88
currently lose_sum: 0.6833641529083252
time_elpased: 1.669
#iterations: 89
currently lose_sum: 0.6612047553062439
time_elpased: 1.681
#iterations: 90
currently lose_sum: 0.6478170156478882
time_elpased: 1.802
#iterations: 91
currently lose_sum: 0.7473450899124146
time_elpased: 1.668
#iterations: 92
currently lose_sum: 0.7077596187591553
time_elpased: 1.661
#iterations: 93
currently lose_sum: 0.6549472212791443
time_elpased: 1.662
#iterations: 94
currently lose_sum: 0.6247571706771851
time_elpased: 1.696
#iterations: 95
currently lose_sum: 0.6291927099227905
time_elpased: 1.724
#iterations: 96
currently lose_sum: 0.6352904438972473
time_elpased: 1.651
#iterations: 97
currently lose_sum: 0.6287218928337097
time_elpased: 1.664
#iterations: 98
currently lose_sum: 0.5795994400978088
time_elpased: 1.688
#iterations: 99
currently lose_sum: 0.6107121109962463
time_elpased: 1.656
start validation test
0.598076923077
0.598039215686
0.620076238882
0.608858390518
0.597877705469
25.940
#iterations: 100
currently lose_sum: 0.6093012094497681
time_elpased: 1.678
#iterations: 101
currently lose_sum: 0.6589313745498657
time_elpased: 1.681
#iterations: 102
currently lose_sum: 0.679707407951355
time_elpased: 1.7
#iterations: 103
currently lose_sum: 0.6449527740478516
time_elpased: 1.631
#iterations: 104
currently lose_sum: 0.6647188067436218
time_elpased: 1.633
#iterations: 105
currently lose_sum: 0.7439386248588562
time_elpased: 1.71
#iterations: 106
currently lose_sum: 0.5933187007904053
time_elpased: 1.663
#iterations: 107
currently lose_sum: 0.6920195817947388
time_elpased: 1.672
#iterations: 108
currently lose_sum: 0.6843079924583435
time_elpased: 1.669
#iterations: 109
currently lose_sum: 0.7274543046951294
time_elpased: 1.819
#iterations: 110
currently lose_sum: 0.7090251445770264
time_elpased: 1.714
#iterations: 111
currently lose_sum: 0.6434864401817322
time_elpased: 1.705
#iterations: 112
currently lose_sum: 0.6145540475845337
time_elpased: 1.687
#iterations: 113
currently lose_sum: 0.6394311189651489
time_elpased: 1.686
#iterations: 114
currently lose_sum: 0.7305023074150085
time_elpased: 1.691
#iterations: 115
currently lose_sum: 0.6857023239135742
time_elpased: 1.873
#iterations: 116
currently lose_sum: 0.6565893888473511
time_elpased: 1.786
#iterations: 117
currently lose_sum: 0.6654079556465149
time_elpased: 1.659
#iterations: 118
currently lose_sum: 0.6647059917449951
time_elpased: 1.703
#iterations: 119
currently lose_sum: 0.6455735564231873
time_elpased: 1.687
start validation test
0.600641025641
0.588172043011
0.695044472681
0.63715783343
0.599786143197
25.903
#iterations: 120
currently lose_sum: 0.640346348285675
time_elpased: 1.71
#iterations: 121
currently lose_sum: 0.7586815357208252
time_elpased: 1.672
#iterations: 122
currently lose_sum: 0.6849273443222046
time_elpased: 1.701
#iterations: 123
currently lose_sum: 0.6779621243476868
time_elpased: 1.691
#iterations: 124
currently lose_sum: 0.6408040523529053
time_elpased: 1.719
#iterations: 125
currently lose_sum: 0.6628052592277527
time_elpased: 1.694
#iterations: 126
currently lose_sum: 0.6130054593086243
time_elpased: 1.797
#iterations: 127
currently lose_sum: 0.622842013835907
time_elpased: 1.668
#iterations: 128
currently lose_sum: 0.6654127836227417
time_elpased: 1.66
#iterations: 129
currently lose_sum: 0.6415132284164429
time_elpased: 1.728
#iterations: 130
currently lose_sum: 0.697546124458313
time_elpased: 1.873
#iterations: 131
currently lose_sum: 0.6586325764656067
time_elpased: 1.679
#iterations: 132
currently lose_sum: 0.6424793601036072
time_elpased: 1.696
#iterations: 133
currently lose_sum: 0.6697865724563599
time_elpased: 1.676
#iterations: 134
currently lose_sum: 0.7186343669891357
time_elpased: 1.686
#iterations: 135
currently lose_sum: 0.6138389110565186
time_elpased: 1.696
#iterations: 136
currently lose_sum: 0.6568921804428101
time_elpased: 1.708
#iterations: 137
currently lose_sum: 0.6962882876396179
time_elpased: 1.669
#iterations: 138
currently lose_sum: 0.6394268274307251
time_elpased: 1.726
#iterations: 139
currently lose_sum: 0.6687734127044678
time_elpased: 1.652
start validation test
0.611538461538
0.648604269294
0.501905972046
0.565902578797
0.612531252517
25.903
#iterations: 140
currently lose_sum: 0.6391632556915283
time_elpased: 1.76
#iterations: 141
currently lose_sum: 0.6764868497848511
time_elpased: 1.745
#iterations: 142
currently lose_sum: 0.6664502024650574
time_elpased: 1.688
#iterations: 143
currently lose_sum: 0.6388309001922607
time_elpased: 1.709
#iterations: 144
currently lose_sum: 0.7219902276992798
time_elpased: 1.669
#iterations: 145
currently lose_sum: 0.5581085681915283
time_elpased: 1.683
#iterations: 146
currently lose_sum: 0.6448526382446289
time_elpased: 1.655
#iterations: 147
currently lose_sum: 0.6320475339889526
time_elpased: 1.665
#iterations: 148
currently lose_sum: 0.6804186701774597
time_elpased: 1.665
#iterations: 149
currently lose_sum: 0.7590795755386353
time_elpased: 1.67
#iterations: 150
currently lose_sum: 0.6625992655754089
time_elpased: 1.659
#iterations: 151
currently lose_sum: 0.6522138714790344
time_elpased: 1.679
#iterations: 152
currently lose_sum: 0.6533071398735046
time_elpased: 1.664
#iterations: 153
currently lose_sum: 0.6546195149421692
time_elpased: 1.69
#iterations: 154
currently lose_sum: 0.6676529049873352
time_elpased: 1.671
#iterations: 155
currently lose_sum: 0.6721303462982178
time_elpased: 1.666
#iterations: 156
currently lose_sum: 0.6556203961372375
time_elpased: 1.636
#iterations: 157
currently lose_sum: 0.6894252896308899
time_elpased: 1.653
#iterations: 158
currently lose_sum: 0.7564600706100464
time_elpased: 1.644
#iterations: 159
currently lose_sum: 0.7272140979766846
time_elpased: 1.639
start validation test
0.598717948718
0.639514731369
0.468869123253
0.541055718475
0.599893811303
26.107
#iterations: 160
currently lose_sum: 0.6653596758842468
time_elpased: 1.681
#iterations: 161
currently lose_sum: 0.6453993916511536
time_elpased: 1.663
#iterations: 162
currently lose_sum: 0.6204236745834351
time_elpased: 1.7
#iterations: 163
currently lose_sum: 0.60541832447052
time_elpased: 1.7
#iterations: 164
currently lose_sum: 0.6837794184684753
time_elpased: 1.676
#iterations: 165
currently lose_sum: 0.5827941298484802
time_elpased: 1.692
#iterations: 166
currently lose_sum: 0.6915973424911499
time_elpased: 1.666
#iterations: 167
currently lose_sum: 0.6575043201446533
time_elpased: 1.741
#iterations: 168
currently lose_sum: 0.6646891832351685
time_elpased: 1.781
#iterations: 169
currently lose_sum: 0.6334683895111084
time_elpased: 1.679
#iterations: 170
currently lose_sum: 0.6199628710746765
time_elpased: 1.671
#iterations: 171
currently lose_sum: 0.6723059415817261
time_elpased: 1.702
#iterations: 172
currently lose_sum: 0.6529881358146667
time_elpased: 1.669
#iterations: 173
currently lose_sum: 0.6572810411453247
time_elpased: 1.711
#iterations: 174
currently lose_sum: 0.6792138814926147
time_elpased: 1.68
#iterations: 175
currently lose_sum: 0.6779723167419434
time_elpased: 1.734
#iterations: 176
currently lose_sum: 0.6967543959617615
time_elpased: 1.672
#iterations: 177
currently lose_sum: 0.6662648320198059
time_elpased: 1.662
#iterations: 178
currently lose_sum: 0.6816935539245605
time_elpased: 1.667
#iterations: 179
currently lose_sum: 0.671959400177002
time_elpased: 1.687
start validation test
0.610897435897
0.659010600707
0.473951715375
0.551367331855
0.61213756532
25.930
#iterations: 180
currently lose_sum: 0.6718870997428894
time_elpased: 1.662
#iterations: 181
currently lose_sum: 0.6547625660896301
time_elpased: 1.659
#iterations: 182
currently lose_sum: 0.634967029094696
time_elpased: 1.65
#iterations: 183
currently lose_sum: 0.7021589279174805
time_elpased: 1.666
#iterations: 184
currently lose_sum: 0.7108515501022339
time_elpased: 1.636
#iterations: 185
currently lose_sum: 0.615642249584198
time_elpased: 1.705
#iterations: 186
currently lose_sum: 0.6531540751457214
time_elpased: 1.661
#iterations: 187
currently lose_sum: 0.6522395610809326
time_elpased: 1.672
#iterations: 188
currently lose_sum: 0.6367282867431641
time_elpased: 1.664
#iterations: 189
currently lose_sum: 0.5842633247375488
time_elpased: 1.694
#iterations: 190
currently lose_sum: 0.6591535210609436
time_elpased: 1.627
#iterations: 191
currently lose_sum: 0.6161555051803589
time_elpased: 1.666
#iterations: 192
currently lose_sum: 0.6236269474029541
time_elpased: 1.656
#iterations: 193
currently lose_sum: 0.7051442861557007
time_elpased: 1.673
#iterations: 194
currently lose_sum: 0.6858705282211304
time_elpased: 1.648
#iterations: 195
currently lose_sum: 0.5935346484184265
time_elpased: 1.692
#iterations: 196
currently lose_sum: 0.6991032361984253
time_elpased: 1.677
#iterations: 197
currently lose_sum: 0.6934015154838562
time_elpased: 1.675
#iterations: 198
currently lose_sum: 0.6157935857772827
time_elpased: 1.671
#iterations: 199
currently lose_sum: 0.6556153893470764
time_elpased: 1.664
start validation test
0.608333333333
0.645695364238
0.495552731893
0.560747663551
0.609354632441
25.878
#iterations: 200
currently lose_sum: 0.6366330981254578
time_elpased: 1.657
#iterations: 201
currently lose_sum: 0.5755617022514343
time_elpased: 1.68
#iterations: 202
currently lose_sum: 0.6354820132255554
time_elpased: 1.646
#iterations: 203
currently lose_sum: 0.6967897415161133
time_elpased: 1.676
#iterations: 204
currently lose_sum: 0.6194537878036499
time_elpased: 1.659
#iterations: 205
currently lose_sum: 0.6810041666030884
time_elpased: 1.643
#iterations: 206
currently lose_sum: 0.5871702432632446
time_elpased: 1.651
#iterations: 207
currently lose_sum: 0.6049283742904663
time_elpased: 1.668
#iterations: 208
currently lose_sum: 0.6980725526809692
time_elpased: 1.633
#iterations: 209
currently lose_sum: 0.6266217231750488
time_elpased: 1.634
#iterations: 210
currently lose_sum: 0.7024809718132019
time_elpased: 1.648
#iterations: 211
currently lose_sum: 0.6110503673553467
time_elpased: 1.647
#iterations: 212
currently lose_sum: 0.7387646436691284
time_elpased: 1.657
#iterations: 213
currently lose_sum: 0.6705859899520874
time_elpased: 1.648
#iterations: 214
currently lose_sum: 0.6717672348022461
time_elpased: 1.652
#iterations: 215
currently lose_sum: 0.6401459574699402
time_elpased: 1.644
#iterations: 216
currently lose_sum: 0.7152013778686523
time_elpased: 1.656
#iterations: 217
currently lose_sum: 0.7148877382278442
time_elpased: 1.649
#iterations: 218
currently lose_sum: 0.621158242225647
time_elpased: 1.672
#iterations: 219
currently lose_sum: 0.6216301918029785
time_elpased: 1.647
start validation test
0.582692307692
0.566276803119
0.738246505718
0.640926640927
0.58128366683
26.058
#iterations: 220
currently lose_sum: 0.6289991140365601
time_elpased: 1.671
#iterations: 221
currently lose_sum: 0.6910697817802429
time_elpased: 1.697
#iterations: 222
currently lose_sum: 0.6354742050170898
time_elpased: 1.68
#iterations: 223
currently lose_sum: 0.5999820828437805
time_elpased: 1.668
#iterations: 224
currently lose_sum: 0.6477262377738953
time_elpased: 1.664
#iterations: 225
currently lose_sum: 0.7256437540054321
time_elpased: 1.646
#iterations: 226
currently lose_sum: 0.5750520825386047
time_elpased: 1.664
#iterations: 227
currently lose_sum: 0.5789552927017212
time_elpased: 1.768
#iterations: 228
currently lose_sum: 0.6820688247680664
time_elpased: 1.774
#iterations: 229
currently lose_sum: 0.7227596044540405
time_elpased: 1.828
#iterations: 230
currently lose_sum: 0.6102026104927063
time_elpased: 1.871
#iterations: 231
currently lose_sum: 0.6127218008041382
time_elpased: 1.769
#iterations: 232
currently lose_sum: 0.6102096438407898
time_elpased: 1.674
#iterations: 233
currently lose_sum: 0.581203043460846
time_elpased: 1.685
#iterations: 234
currently lose_sum: 0.726642906665802
time_elpased: 1.85
#iterations: 235
currently lose_sum: 0.603979229927063
time_elpased: 1.649
#iterations: 236
currently lose_sum: 0.6948970556259155
time_elpased: 1.822
#iterations: 237
currently lose_sum: 0.7214423418045044
time_elpased: 1.884
#iterations: 238
currently lose_sum: 0.7018346786499023
time_elpased: 1.658
#iterations: 239
currently lose_sum: 0.6211436986923218
time_elpased: 1.658
start validation test
0.605128205128
0.613848202397
0.585768742058
0.599479843953
0.605303517213
25.683
#iterations: 240
currently lose_sum: 0.6332685351371765
time_elpased: 1.669
#iterations: 241
currently lose_sum: 0.6623581647872925
time_elpased: 1.739
#iterations: 242
currently lose_sum: 0.678379476070404
time_elpased: 1.654
#iterations: 243
currently lose_sum: 0.7076751589775085
time_elpased: 1.701
#iterations: 244
currently lose_sum: 0.6364036798477173
time_elpased: 1.691
#iterations: 245
currently lose_sum: 0.6397555470466614
time_elpased: 1.756
#iterations: 246
currently lose_sum: 0.603575587272644
time_elpased: 1.691
#iterations: 247
currently lose_sum: 0.6042060852050781
time_elpased: 1.673
#iterations: 248
currently lose_sum: 0.6370477676391602
time_elpased: 1.658
#iterations: 249
currently lose_sum: 0.686057448387146
time_elpased: 1.672
#iterations: 250
currently lose_sum: 0.5907039642333984
time_elpased: 1.708
#iterations: 251
currently lose_sum: 0.6461932063102722
time_elpased: 1.817
#iterations: 252
currently lose_sum: 0.666753888130188
time_elpased: 1.679
#iterations: 253
currently lose_sum: 0.6574229001998901
time_elpased: 1.664
#iterations: 254
currently lose_sum: 0.64319908618927
time_elpased: 1.659
#iterations: 255
currently lose_sum: 0.6194018125534058
time_elpased: 1.711
#iterations: 256
currently lose_sum: 0.6496904492378235
time_elpased: 1.885
#iterations: 257
currently lose_sum: 0.632093071937561
time_elpased: 1.679
#iterations: 258
currently lose_sum: 0.7358797788619995
time_elpased: 1.626
#iterations: 259
currently lose_sum: 0.6662890911102295
time_elpased: 1.794
start validation test
0.612179487179
0.635416666667
0.542566709022
0.585332419465
0.612809874563
25.545
#iterations: 260
currently lose_sum: 0.6479201316833496
time_elpased: 1.653
#iterations: 261
currently lose_sum: 0.6588906645774841
time_elpased: 1.656
#iterations: 262
currently lose_sum: 0.5649284720420837
time_elpased: 1.659
#iterations: 263
currently lose_sum: 0.6028553247451782
time_elpased: 1.713
#iterations: 264
currently lose_sum: 0.5984574556350708
time_elpased: 1.641
#iterations: 265
currently lose_sum: 0.6416126489639282
time_elpased: 1.658
#iterations: 266
currently lose_sum: 0.5820306539535522
time_elpased: 1.657
#iterations: 267
currently lose_sum: 0.643471896648407
time_elpased: 1.804
#iterations: 268
currently lose_sum: 0.6876060366630554
time_elpased: 1.691
#iterations: 269
currently lose_sum: 0.639533281326294
time_elpased: 1.675
#iterations: 270
currently lose_sum: 0.6413326263427734
time_elpased: 1.698
#iterations: 271
currently lose_sum: 0.6637102365493774
time_elpased: 1.67
#iterations: 272
currently lose_sum: 0.5433810949325562
time_elpased: 1.667
#iterations: 273
currently lose_sum: 0.6291986703872681
time_elpased: 1.663
#iterations: 274
currently lose_sum: 0.6420825719833374
time_elpased: 1.675
#iterations: 275
currently lose_sum: 0.6616665720939636
time_elpased: 1.691
#iterations: 276
currently lose_sum: 0.6314365267753601
time_elpased: 1.694
#iterations: 277
currently lose_sum: 0.7203916907310486
time_elpased: 1.694
#iterations: 278
currently lose_sum: 0.6462111473083496
time_elpased: 1.666
#iterations: 279
currently lose_sum: 0.6277618408203125
time_elpased: 1.68
start validation test
0.615384615385
0.627210884354
0.585768742058
0.605781865966
0.615652805699
25.553
#iterations: 280
currently lose_sum: 0.6486847400665283
time_elpased: 1.842
#iterations: 281
currently lose_sum: 0.6420850157737732
time_elpased: 1.754
#iterations: 282
currently lose_sum: 0.5643270015716553
time_elpased: 1.821
#iterations: 283
currently lose_sum: 0.5989985466003418
time_elpased: 1.678
#iterations: 284
currently lose_sum: 0.6841185092926025
time_elpased: 1.652
#iterations: 285
currently lose_sum: 0.6691785454750061
time_elpased: 1.662
#iterations: 286
currently lose_sum: 0.6596117615699768
time_elpased: 1.672
#iterations: 287
currently lose_sum: 0.7023142576217651
time_elpased: 1.695
#iterations: 288
currently lose_sum: 0.6069409251213074
time_elpased: 1.679
#iterations: 289
currently lose_sum: 0.6775149703025818
time_elpased: 1.661
#iterations: 290
currently lose_sum: 0.7283428907394409
time_elpased: 1.647
#iterations: 291
currently lose_sum: 0.6220980882644653
time_elpased: 1.643
#iterations: 292
currently lose_sum: 0.6437700390815735
time_elpased: 1.638
#iterations: 293
currently lose_sum: 0.6828981041908264
time_elpased: 1.664
#iterations: 294
currently lose_sum: 0.655454158782959
time_elpased: 1.665
#iterations: 295
currently lose_sum: 0.6570882797241211
time_elpased: 1.691
#iterations: 296
currently lose_sum: 0.6637584567070007
time_elpased: 1.68
#iterations: 297
currently lose_sum: 0.6347453594207764
time_elpased: 1.657
#iterations: 298
currently lose_sum: 0.6540939211845398
time_elpased: 1.653
#iterations: 299
currently lose_sum: 0.6692220568656921
time_elpased: 1.675
start validation test
0.588461538462
0.587034813926
0.621346886912
0.603703703704
0.588163740998
25.741
#iterations: 300
currently lose_sum: 0.6714102029800415
time_elpased: 1.661
#iterations: 301
currently lose_sum: 0.6492753028869629
time_elpased: 1.698
#iterations: 302
currently lose_sum: 0.6592637896537781
time_elpased: 1.657
#iterations: 303
currently lose_sum: 0.6121625304222107
time_elpased: 1.673
#iterations: 304
currently lose_sum: 0.6489801406860352
time_elpased: 1.665
#iterations: 305
currently lose_sum: 0.6010249853134155
time_elpased: 1.659
#iterations: 306
currently lose_sum: 0.6460835337638855
time_elpased: 1.654
#iterations: 307
currently lose_sum: 0.6379495859146118
time_elpased: 1.672
#iterations: 308
currently lose_sum: 0.6220486760139465
time_elpased: 1.658
#iterations: 309
currently lose_sum: 0.5427761077880859
time_elpased: 1.67
#iterations: 310
currently lose_sum: 0.6666570901870728
time_elpased: 1.657
#iterations: 311
currently lose_sum: 0.6391699910163879
time_elpased: 1.659
#iterations: 312
currently lose_sum: 0.6291705369949341
time_elpased: 1.655
#iterations: 313
currently lose_sum: 0.6673653721809387
time_elpased: 1.68
#iterations: 314
currently lose_sum: 0.6667772531509399
time_elpased: 1.683
#iterations: 315
currently lose_sum: 0.5590494871139526
time_elpased: 1.726
#iterations: 316
currently lose_sum: 0.6060550808906555
time_elpased: 1.703
#iterations: 317
currently lose_sum: 0.5818692445755005
time_elpased: 1.752
#iterations: 318
currently lose_sum: 0.5813892483711243
time_elpased: 1.775
#iterations: 319
currently lose_sum: 0.5253561735153198
time_elpased: 1.656
start validation test
0.607692307692
0.629246676514
0.541296060991
0.581967213115
0.608293567365
25.495
#iterations: 320
currently lose_sum: 0.5906746983528137
time_elpased: 1.663
#iterations: 321
currently lose_sum: 0.6871289014816284
time_elpased: 1.688
#iterations: 322
currently lose_sum: 0.7389354109764099
time_elpased: 1.663
#iterations: 323
currently lose_sum: 0.6335316896438599
time_elpased: 1.658
#iterations: 324
currently lose_sum: 0.5811123847961426
time_elpased: 1.665
#iterations: 325
currently lose_sum: 0.5599030256271362
time_elpased: 1.647
#iterations: 326
currently lose_sum: 0.6104823350906372
time_elpased: 1.85
#iterations: 327
currently lose_sum: 0.553059458732605
time_elpased: 1.756
#iterations: 328
currently lose_sum: 0.7353742718696594
time_elpased: 1.687
#iterations: 329
currently lose_sum: 0.7460943460464478
time_elpased: 1.906
#iterations: 330
currently lose_sum: 0.647939920425415
time_elpased: 1.692
#iterations: 331
currently lose_sum: 0.6990756392478943
time_elpased: 1.65
#iterations: 332
currently lose_sum: 0.5944825410842896
time_elpased: 1.714
#iterations: 333
currently lose_sum: 0.6203440427780151
time_elpased: 1.694
#iterations: 334
currently lose_sum: 0.7057349681854248
time_elpased: 1.649
#iterations: 335
currently lose_sum: 0.7375985980033875
time_elpased: 1.707
#iterations: 336
currently lose_sum: 0.6531227231025696
time_elpased: 1.775
#iterations: 337
currently lose_sum: 0.6588367223739624
time_elpased: 1.673
#iterations: 338
currently lose_sum: 0.5480207204818726
time_elpased: 1.68
#iterations: 339
currently lose_sum: 0.6073436141014099
time_elpased: 1.773
start validation test
0.603205128205
0.626126126126
0.529860228717
0.573984858913
0.603869312288
25.506
#iterations: 340
currently lose_sum: 0.6209985613822937
time_elpased: 1.666
#iterations: 341
currently lose_sum: 0.6267864108085632
time_elpased: 1.668
#iterations: 342
currently lose_sum: 0.6395093202590942
time_elpased: 1.665
#iterations: 343
currently lose_sum: 0.6483963131904602
time_elpased: 1.708
#iterations: 344
currently lose_sum: 0.6127282381057739
time_elpased: 1.699
#iterations: 345
currently lose_sum: 0.6526241302490234
time_elpased: 1.705
#iterations: 346
currently lose_sum: 0.6338211297988892
time_elpased: 1.683
#iterations: 347
currently lose_sum: 0.6120301485061646
time_elpased: 1.725
#iterations: 348
currently lose_sum: 0.6204655170440674
time_elpased: 1.692
#iterations: 349
currently lose_sum: 0.6526297330856323
time_elpased: 1.702
#iterations: 350
currently lose_sum: 0.6342126131057739
time_elpased: 1.671
#iterations: 351
currently lose_sum: 0.7397083044052124
time_elpased: 1.716
#iterations: 352
currently lose_sum: 0.68892502784729
time_elpased: 1.702
#iterations: 353
currently lose_sum: 0.6518559455871582
time_elpased: 1.683
#iterations: 354
currently lose_sum: 0.6239347457885742
time_elpased: 1.736
#iterations: 355
currently lose_sum: 0.6620057821273804
time_elpased: 1.664
#iterations: 356
currently lose_sum: 0.6568571925163269
time_elpased: 1.707
#iterations: 357
currently lose_sum: 0.6982438564300537
time_elpased: 1.918
#iterations: 358
currently lose_sum: 0.6789339780807495
time_elpased: 1.763
#iterations: 359
currently lose_sum: 0.5816351771354675
time_elpased: 1.751
start validation test
0.604487179487
0.647058823529
0.475222363405
0.547985347985
0.605657753501
25.606
#iterations: 360
currently lose_sum: 0.7327855229377747
time_elpased: 1.752
#iterations: 361
currently lose_sum: 0.7343983054161072
time_elpased: 1.716
#iterations: 362
currently lose_sum: 0.5938313007354736
time_elpased: 1.715
#iterations: 363
currently lose_sum: 0.6777776479721069
time_elpased: 1.712
#iterations: 364
currently lose_sum: 0.7100399136543274
time_elpased: 1.716
#iterations: 365
currently lose_sum: 0.5877528190612793
time_elpased: 1.756
#iterations: 366
currently lose_sum: 0.6013644933700562
time_elpased: 1.726
#iterations: 367
currently lose_sum: 0.6660495400428772
time_elpased: 1.704
#iterations: 368
currently lose_sum: 0.6272904276847839
time_elpased: 1.74
#iterations: 369
currently lose_sum: 0.600021243095398
time_elpased: 1.712
#iterations: 370
currently lose_sum: 0.6867175698280334
time_elpased: 1.717
#iterations: 371
currently lose_sum: 0.6040248870849609
time_elpased: 1.752
#iterations: 372
currently lose_sum: 0.6154652833938599
time_elpased: 1.701
#iterations: 373
currently lose_sum: 0.6757251024246216
time_elpased: 1.714
#iterations: 374
currently lose_sum: 0.6865825057029724
time_elpased: 1.697
#iterations: 375
currently lose_sum: 0.6448187828063965
time_elpased: 1.671
#iterations: 376
currently lose_sum: 0.6841899156570435
time_elpased: 1.67
#iterations: 377
currently lose_sum: 0.6801215410232544
time_elpased: 1.659
#iterations: 378
currently lose_sum: 0.6519562005996704
time_elpased: 1.676
#iterations: 379
currently lose_sum: 0.7119514346122742
time_elpased: 1.693
start validation test
0.628846153846
0.629353233831
0.642947903431
0.636077938404
0.628718453656
25.621
#iterations: 380
currently lose_sum: 0.6614397764205933
time_elpased: 1.803
#iterations: 381
currently lose_sum: 0.6506941914558411
time_elpased: 1.655
#iterations: 382
currently lose_sum: 0.6719527244567871
time_elpased: 1.706
#iterations: 383
currently lose_sum: 0.7000857591629028
time_elpased: 1.717
#iterations: 384
currently lose_sum: 0.6733900308609009
time_elpased: 1.673
#iterations: 385
currently lose_sum: 0.5513054132461548
time_elpased: 1.725
#iterations: 386
currently lose_sum: 0.6777434349060059
time_elpased: 1.686
#iterations: 387
currently lose_sum: 0.6449502110481262
time_elpased: 1.699
#iterations: 388
currently lose_sum: 0.6434025764465332
time_elpased: 1.726
#iterations: 389
currently lose_sum: 0.6045445203781128
time_elpased: 1.712
#iterations: 390
currently lose_sum: 0.6917623281478882
time_elpased: 1.716
#iterations: 391
currently lose_sum: 0.6940873265266418
time_elpased: 1.684
#iterations: 392
currently lose_sum: 0.5966652035713196
time_elpased: 1.691
#iterations: 393
currently lose_sum: 0.6590778231620789
time_elpased: 1.678
#iterations: 394
currently lose_sum: 0.6519125699996948
time_elpased: 1.698
#iterations: 395
currently lose_sum: 0.6783234477043152
time_elpased: 1.683
#iterations: 396
currently lose_sum: 0.5644445419311523
time_elpased: 1.711
#iterations: 397
currently lose_sum: 0.6538883447647095
time_elpased: 1.672
#iterations: 398
currently lose_sum: 0.5695596933364868
time_elpased: 1.671
#iterations: 399
currently lose_sum: 0.7496100664138794
time_elpased: 1.675
start validation test
0.608974358974
0.617529880478
0.59085133418
0.603896103896
0.609138474335
25.590
#iterations: 400
currently lose_sum: 0.6995891332626343
time_elpased: 1.693
#iterations: 401
currently lose_sum: 0.5866660475730896
time_elpased: 1.723
#iterations: 402
currently lose_sum: 0.6354367136955261
time_elpased: 1.698
#iterations: 403
currently lose_sum: 0.6182103753089905
time_elpased: 1.674
#iterations: 404
currently lose_sum: 0.5767168402671814
time_elpased: 1.654
#iterations: 405
currently lose_sum: 0.5661368370056152
time_elpased: 1.697
#iterations: 406
currently lose_sum: 0.590813934803009
time_elpased: 1.653
#iterations: 407
currently lose_sum: 0.6346901655197144
time_elpased: 1.645
#iterations: 408
currently lose_sum: 0.5587108135223389
time_elpased: 1.655
#iterations: 409
currently lose_sum: 0.6444709300994873
time_elpased: 1.69
#iterations: 410
currently lose_sum: 0.6317018270492554
time_elpased: 1.661
#iterations: 411
currently lose_sum: 0.6625022888183594
time_elpased: 1.685
#iterations: 412
currently lose_sum: 0.6745524406433105
time_elpased: 1.646
#iterations: 413
currently lose_sum: 0.6417312622070312
time_elpased: 1.69
#iterations: 414
currently lose_sum: 0.6432651281356812
time_elpased: 1.735
#iterations: 415
currently lose_sum: 0.5348412394523621
time_elpased: 1.662
#iterations: 416
currently lose_sum: 0.6808134317398071
time_elpased: 1.685
#iterations: 417
currently lose_sum: 0.58379065990448
time_elpased: 1.651
#iterations: 418
currently lose_sum: 0.6497572660446167
time_elpased: 1.697
#iterations: 419
currently lose_sum: 0.7344512939453125
time_elpased: 1.655
start validation test
0.603205128205
0.582514734774
0.753494282084
0.657063711911
0.601844165621
25.595
#iterations: 420
currently lose_sum: 0.6586254239082336
time_elpased: 1.668
#iterations: 421
currently lose_sum: 0.582453727722168
time_elpased: 1.68
#iterations: 422
currently lose_sum: 0.5943487286567688
time_elpased: 1.668
#iterations: 423
currently lose_sum: 0.6974408030509949
time_elpased: 1.737
#iterations: 424
currently lose_sum: 0.5906538963317871
time_elpased: 1.681
#iterations: 425
currently lose_sum: 0.6145904064178467
time_elpased: 1.677
#iterations: 426
currently lose_sum: 0.6795891523361206
time_elpased: 1.657
#iterations: 427
currently lose_sum: 0.6275272369384766
time_elpased: 1.7
#iterations: 428
currently lose_sum: 0.6088369488716125
time_elpased: 1.677
#iterations: 429
currently lose_sum: 0.6415868401527405
time_elpased: 1.703
#iterations: 430
currently lose_sum: 0.5825303792953491
time_elpased: 1.682
#iterations: 431
currently lose_sum: 0.6907520294189453
time_elpased: 1.756
#iterations: 432
currently lose_sum: 0.6083465814590454
time_elpased: 1.722
#iterations: 433
currently lose_sum: 0.7174361944198608
time_elpased: 1.735
#iterations: 434
currently lose_sum: 0.5664325952529907
time_elpased: 1.665
#iterations: 435
currently lose_sum: 0.6629654169082642
time_elpased: 1.698
#iterations: 436
currently lose_sum: 0.6591073274612427
time_elpased: 1.654
#iterations: 437
currently lose_sum: 0.6956012845039368
time_elpased: 1.689
#iterations: 438
currently lose_sum: 0.6805468201637268
time_elpased: 1.666
#iterations: 439
currently lose_sum: 0.621313750743866
time_elpased: 1.645
start validation test
0.604487179487
0.590811965812
0.702668360864
0.641903656413
0.603598087288
25.479
#iterations: 440
currently lose_sum: 0.6989578008651733
time_elpased: 1.644
#iterations: 441
currently lose_sum: 0.6509460806846619
time_elpased: 1.726
#iterations: 442
currently lose_sum: 0.6285544633865356
time_elpased: 1.658
#iterations: 443
currently lose_sum: 0.6269059777259827
time_elpased: 1.689
#iterations: 444
currently lose_sum: 0.6469948887825012
time_elpased: 1.638
#iterations: 445
currently lose_sum: 0.62557452917099
time_elpased: 1.657
#iterations: 446
currently lose_sum: 0.6849175691604614
time_elpased: 1.676
#iterations: 447
currently lose_sum: 0.6581056118011475
time_elpased: 1.666
#iterations: 448
currently lose_sum: 0.7286860942840576
time_elpased: 1.779
#iterations: 449
currently lose_sum: 0.6161490678787231
time_elpased: 1.639
#iterations: 450
currently lose_sum: 0.5577040910720825
time_elpased: 1.71
#iterations: 451
currently lose_sum: 0.6701748371124268
time_elpased: 1.639
#iterations: 452
currently lose_sum: 0.5961235165596008
time_elpased: 1.762
#iterations: 453
currently lose_sum: 0.6463991403579712
time_elpased: 1.674
#iterations: 454
currently lose_sum: 0.6445765495300293
time_elpased: 1.675
#iterations: 455
currently lose_sum: 0.6556008458137512
time_elpased: 1.679
#iterations: 456
currently lose_sum: 0.6382084488868713
time_elpased: 1.75
#iterations: 457
currently lose_sum: 0.5715624690055847
time_elpased: 1.652
#iterations: 458
currently lose_sum: 0.6243963837623596
time_elpased: 1.689
#iterations: 459
currently lose_sum: 0.6938245892524719
time_elpased: 1.671
start validation test
0.616025641026
0.595918367347
0.742058449809
0.661007357102
0.614884334866
25.395
#iterations: 460
currently lose_sum: 0.6153687238693237
time_elpased: 1.698
#iterations: 461
currently lose_sum: 0.696951687335968
time_elpased: 1.651
#iterations: 462
currently lose_sum: 0.6912253499031067
time_elpased: 1.673
#iterations: 463
currently lose_sum: 0.693999171257019
time_elpased: 1.669
#iterations: 464
currently lose_sum: 0.6594390869140625
time_elpased: 1.678
#iterations: 465
currently lose_sum: 0.6655827760696411
time_elpased: 1.694
#iterations: 466
currently lose_sum: 0.676274299621582
time_elpased: 1.718
#iterations: 467
currently lose_sum: 0.5702124834060669
time_elpased: 1.682
#iterations: 468
currently lose_sum: 0.6215470433235168
time_elpased: 1.693
#iterations: 469
currently lose_sum: 0.6456819772720337
time_elpased: 1.674
#iterations: 470
currently lose_sum: 0.5513803958892822
time_elpased: 1.656
#iterations: 471
currently lose_sum: 0.7000151872634888
time_elpased: 1.745
#iterations: 472
currently lose_sum: 0.6216956973075867
time_elpased: 1.701
#iterations: 473
currently lose_sum: 0.6678498983383179
time_elpased: 1.693
#iterations: 474
currently lose_sum: 0.630010724067688
time_elpased: 1.678
#iterations: 475
currently lose_sum: 0.6862772107124329
time_elpased: 1.671
#iterations: 476
currently lose_sum: 0.6739177107810974
time_elpased: 1.667
#iterations: 477
currently lose_sum: 0.6768973469734192
time_elpased: 1.656
#iterations: 478
currently lose_sum: 0.6554664373397827
time_elpased: 1.662
#iterations: 479
currently lose_sum: 0.5864170789718628
time_elpased: 1.695
start validation test
0.608333333333
0.589068825911
0.739517153748
0.655774647887
0.607145381531
25.410
#iterations: 480
currently lose_sum: 0.6526075601577759
time_elpased: 1.686
#iterations: 481
currently lose_sum: 0.6659919023513794
time_elpased: 1.681
#iterations: 482
currently lose_sum: 0.6217600107192993
time_elpased: 1.672
#iterations: 483
currently lose_sum: 0.7126046419143677
time_elpased: 1.657
#iterations: 484
currently lose_sum: 0.5966933369636536
time_elpased: 1.658
#iterations: 485
currently lose_sum: 0.5718346834182739
time_elpased: 1.647
#iterations: 486
currently lose_sum: 0.6770426630973816
time_elpased: 1.638
#iterations: 487
currently lose_sum: 0.6012520790100098
time_elpased: 1.666
#iterations: 488
currently lose_sum: 0.6420390605926514
time_elpased: 1.663
#iterations: 489
currently lose_sum: 0.6409603953361511
time_elpased: 1.692
#iterations: 490
currently lose_sum: 0.6272206902503967
time_elpased: 1.647
#iterations: 491
currently lose_sum: 0.6820287704467773
time_elpased: 1.658
#iterations: 492
currently lose_sum: 0.6720311045646667
time_elpased: 1.656
#iterations: 493
currently lose_sum: 0.6773064732551575
time_elpased: 1.644
#iterations: 494
currently lose_sum: 0.7236045002937317
time_elpased: 1.656
#iterations: 495
currently lose_sum: 0.6595924496650696
time_elpased: 1.644
#iterations: 496
currently lose_sum: 0.5949109196662903
time_elpased: 1.693
#iterations: 497
currently lose_sum: 0.6356059908866882
time_elpased: 1.67
#iterations: 498
currently lose_sum: 0.6752127408981323
time_elpased: 1.65
#iterations: 499
currently lose_sum: 0.6463125944137573
time_elpased: 1.692
start validation test
0.615384615385
0.593969849246
0.750952986023
0.6632996633
0.614156958729
25.467
#iterations: 500
currently lose_sum: 0.6726155281066895
time_elpased: 1.664
#iterations: 501
currently lose_sum: 0.7048522233963013
time_elpased: 1.699
#iterations: 502
currently lose_sum: 0.6429951190948486
time_elpased: 1.678
#iterations: 503
currently lose_sum: 0.6388934850692749
time_elpased: 1.655
#iterations: 504
currently lose_sum: 0.6249130964279175
time_elpased: 1.701
#iterations: 505
currently lose_sum: 0.5917519330978394
time_elpased: 1.681
#iterations: 506
currently lose_sum: 0.6553871631622314
time_elpased: 1.695
#iterations: 507
currently lose_sum: 0.730660617351532
time_elpased: 1.671
#iterations: 508
currently lose_sum: 0.7084082365036011
time_elpased: 1.671
#iterations: 509
currently lose_sum: 0.6593654751777649
time_elpased: 1.687
#iterations: 510
currently lose_sum: 0.6252077221870422
time_elpased: 1.667
#iterations: 511
currently lose_sum: 0.5522347688674927
time_elpased: 1.722
#iterations: 512
currently lose_sum: 0.6424609422683716
time_elpased: 1.667
#iterations: 513
currently lose_sum: 0.5614670515060425
time_elpased: 1.702
#iterations: 514
currently lose_sum: 0.6939142942428589
time_elpased: 1.719
#iterations: 515
currently lose_sum: 0.5545473098754883
time_elpased: 1.708
#iterations: 516
currently lose_sum: 0.6192153692245483
time_elpased: 1.804
#iterations: 517
currently lose_sum: 0.6454741358757019
time_elpased: 1.655
#iterations: 518
currently lose_sum: 0.5475368499755859
time_elpased: 1.702
#iterations: 519
currently lose_sum: 0.7417949438095093
time_elpased: 1.672
start validation test
0.609615384615
0.585907335907
0.771283354511
0.66593527153
0.608151379713
25.284
#iterations: 520
currently lose_sum: 0.6350776553153992
time_elpased: 1.708
#iterations: 521
currently lose_sum: 0.7502433061599731
time_elpased: 1.659
#iterations: 522
currently lose_sum: 0.6089168787002563
time_elpased: 1.657
#iterations: 523
currently lose_sum: 0.6497092843055725
time_elpased: 1.658
#iterations: 524
currently lose_sum: 0.689574122428894
time_elpased: 1.65
#iterations: 525
currently lose_sum: 0.5743274688720703
time_elpased: 1.656
#iterations: 526
currently lose_sum: 0.632295548915863
time_elpased: 1.68
#iterations: 527
currently lose_sum: 0.5694916844367981
time_elpased: 1.79
#iterations: 528
currently lose_sum: 0.735977828502655
time_elpased: 1.763
#iterations: 529
currently lose_sum: 0.5913422703742981
time_elpased: 1.702
#iterations: 530
currently lose_sum: 0.6436023116111755
time_elpased: 1.669
#iterations: 531
currently lose_sum: 0.642722487449646
time_elpased: 1.677
#iterations: 532
currently lose_sum: 0.6128508448600769
time_elpased: 1.785
#iterations: 533
currently lose_sum: 0.6644420623779297
time_elpased: 1.666
#iterations: 534
currently lose_sum: 0.7186419367790222
time_elpased: 1.688
#iterations: 535
currently lose_sum: 0.6230835318565369
time_elpased: 1.652
#iterations: 536
currently lose_sum: 0.6243752241134644
time_elpased: 1.671
#iterations: 537
currently lose_sum: 0.6007623672485352
time_elpased: 1.664
#iterations: 538
currently lose_sum: 0.6465162038803101
time_elpased: 1.719
#iterations: 539
currently lose_sum: 0.6119489073753357
time_elpased: 1.852
start validation test
0.617948717949
0.628532974428
0.593392630241
0.61045751634
0.61817108873
25.495
#iterations: 540
currently lose_sum: 0.5842061042785645
time_elpased: 1.663
#iterations: 541
currently lose_sum: 0.6037763953208923
time_elpased: 1.652
#iterations: 542
currently lose_sum: 0.6718072295188904
time_elpased: 1.671
#iterations: 543
currently lose_sum: 0.5867069959640503
time_elpased: 1.65
#iterations: 544
currently lose_sum: 0.6085707545280457
time_elpased: 1.67
#iterations: 545
currently lose_sum: 0.6656957864761353
time_elpased: 1.67
#iterations: 546
currently lose_sum: 0.6727238893508911
time_elpased: 1.652
#iterations: 547
currently lose_sum: 0.6468513607978821
time_elpased: 1.658
#iterations: 548
currently lose_sum: 0.5825594663619995
time_elpased: 1.656
#iterations: 549
currently lose_sum: 0.6871780157089233
time_elpased: 1.706
#iterations: 550
currently lose_sum: 0.6157530546188354
time_elpased: 1.676
#iterations: 551
currently lose_sum: 0.6475346684455872
time_elpased: 1.67
#iterations: 552
currently lose_sum: 0.6673212647438049
time_elpased: 1.711
#iterations: 553
currently lose_sum: 0.623264491558075
time_elpased: 1.75
#iterations: 554
currently lose_sum: 0.6267892718315125
time_elpased: 1.645
#iterations: 555
currently lose_sum: 0.5829182267189026
time_elpased: 1.685
#iterations: 556
currently lose_sum: 0.694125771522522
time_elpased: 1.67
#iterations: 557
currently lose_sum: 0.6393381357192993
time_elpased: 1.71
#iterations: 558
currently lose_sum: 0.5850569605827332
time_elpased: 1.643
#iterations: 559
currently lose_sum: 0.6400941610336304
time_elpased: 1.661
start validation test
0.602564102564
0.589688506982
0.697585768742
0.639115250291
0.601703621758
25.631
#iterations: 560
currently lose_sum: 0.6893137097358704
time_elpased: 1.681
#iterations: 561
currently lose_sum: 0.6679577827453613
time_elpased: 1.693
#iterations: 562
currently lose_sum: 0.6282665729522705
time_elpased: 1.669
#iterations: 563
currently lose_sum: 0.6433035135269165
time_elpased: 1.644
#iterations: 564
currently lose_sum: 0.5280367136001587
time_elpased: 1.686
#iterations: 565
currently lose_sum: 0.60918128490448
time_elpased: 1.691
#iterations: 566
currently lose_sum: 0.5591024160385132
time_elpased: 1.722
#iterations: 567
currently lose_sum: 0.6516101956367493
time_elpased: 1.678
#iterations: 568
currently lose_sum: 0.6356979012489319
time_elpased: 1.686
#iterations: 569
currently lose_sum: 0.6206852197647095
time_elpased: 1.708
#iterations: 570
currently lose_sum: 0.6551571488380432
time_elpased: 1.678
#iterations: 571
currently lose_sum: 0.6512130498886108
time_elpased: 1.706
#iterations: 572
currently lose_sum: 0.6398974657058716
time_elpased: 1.689
#iterations: 573
currently lose_sum: 0.6446207761764526
time_elpased: 1.745
#iterations: 574
currently lose_sum: 0.7072639465332031
time_elpased: 1.703
#iterations: 575
currently lose_sum: 0.6470631957054138
time_elpased: 1.682
#iterations: 576
currently lose_sum: 0.6738630533218384
time_elpased: 1.692
#iterations: 577
currently lose_sum: 0.5780736804008484
time_elpased: 1.686
#iterations: 578
currently lose_sum: 0.6600863933563232
time_elpased: 1.708
#iterations: 579
currently lose_sum: 0.6780127286911011
time_elpased: 1.698
start validation test
0.621794871795
0.632928475034
0.595933926302
0.61387434555
0.622029058882
25.446
#iterations: 580
currently lose_sum: 0.7342692613601685
time_elpased: 1.674
#iterations: 581
currently lose_sum: 0.5891744494438171
time_elpased: 1.679
#iterations: 582
currently lose_sum: 0.663608729839325
time_elpased: 1.714
#iterations: 583
currently lose_sum: 0.682102620601654
time_elpased: 1.697
#iterations: 584
currently lose_sum: 0.7160134315490723
time_elpased: 1.701
#iterations: 585
currently lose_sum: 0.563144326210022
time_elpased: 1.686
#iterations: 586
currently lose_sum: 0.6011371612548828
time_elpased: 1.693
#iterations: 587
currently lose_sum: 0.5819107294082642
time_elpased: 1.737
#iterations: 588
currently lose_sum: 0.6718181371688843
time_elpased: 1.661
#iterations: 589
currently lose_sum: 0.6372876167297363
time_elpased: 1.697
#iterations: 590
currently lose_sum: 0.6882318258285522
time_elpased: 1.695
#iterations: 591
currently lose_sum: 0.568494975566864
time_elpased: 1.732
#iterations: 592
currently lose_sum: 0.7115549445152283
time_elpased: 1.683
#iterations: 593
currently lose_sum: 0.6384846568107605
time_elpased: 1.692
#iterations: 594
currently lose_sum: 0.6182901263237
time_elpased: 1.701
#iterations: 595
currently lose_sum: 0.6173432469367981
time_elpased: 1.685
#iterations: 596
currently lose_sum: 0.6902158260345459
time_elpased: 1.692
#iterations: 597
currently lose_sum: 0.6146554946899414
time_elpased: 1.685
#iterations: 598
currently lose_sum: 0.6109544038772583
time_elpased: 1.677
#iterations: 599
currently lose_sum: 0.6238609552383423
time_elpased: 1.678
start validation test
0.621153846154
0.644542772861
0.555273189327
0.596587030717
0.621750436837
25.428
acc: 0.613
pre: 0.597
rec: 0.715
F1: 0.651
auc: 0.612
