start to construct computing graph
graph construct over
3803
epochs start
#iterations: 0
currently lose_sum: 0.6963870525360107
time_elpased: 8.788
#iterations: 1
currently lose_sum: 0.6935408115386963
time_elpased: 9.014
#iterations: 2
currently lose_sum: 0.7093533277511597
time_elpased: 8.776
#iterations: 3
currently lose_sum: 0.6961596608161926
time_elpased: 8.614
#iterations: 4
currently lose_sum: 0.685805082321167
time_elpased: 8.957
#iterations: 5
currently lose_sum: 0.6819157600402832
time_elpased: 8.504
#iterations: 6
currently lose_sum: 0.6948383450508118
time_elpased: 9.113
#iterations: 7
currently lose_sum: 0.6968103051185608
time_elpased: 8.822
#iterations: 8
currently lose_sum: 0.6734602451324463
time_elpased: 8.763
#iterations: 9
currently lose_sum: 0.6990720629692078
time_elpased: 8.734
#iterations: 10
currently lose_sum: 0.7028830647468567
time_elpased: 8.631
#iterations: 11
currently lose_sum: 0.7018214464187622
time_elpased: 9.203
#iterations: 12
currently lose_sum: 0.6708796620368958
time_elpased: 8.544
#iterations: 13
currently lose_sum: 0.7170649766921997
time_elpased: 8.354
#iterations: 14
currently lose_sum: 0.7164185047149658
time_elpased: 8.295
#iterations: 15
currently lose_sum: 0.6685178875923157
time_elpased: 8.73
#iterations: 16
currently lose_sum: 0.6857776045799255
time_elpased: 8.454
#iterations: 17
currently lose_sum: 0.6853911876678467
time_elpased: 8.73
#iterations: 18
currently lose_sum: 0.6891324520111084
time_elpased: 8.655
#iterations: 19
currently lose_sum: 0.695131242275238
time_elpased: 8.739
start validation test
0.5348
0.531683765842
0.694794952681
0.602393162393
0.532462411406
17.190
#iterations: 20
currently lose_sum: 0.7052661180496216
time_elpased: 6.24
#iterations: 21
currently lose_sum: 0.6817117929458618
time_elpased: 6.556
#iterations: 22
currently lose_sum: 0.6750534772872925
time_elpased: 6.834
#iterations: 23
currently lose_sum: 0.6795458793640137
time_elpased: 6.891
#iterations: 24
currently lose_sum: 0.693094789981842
time_elpased: 6.319
#iterations: 25
currently lose_sum: 0.6732125878334045
time_elpased: 6.896
#iterations: 26
currently lose_sum: 0.7013020515441895
time_elpased: 6.522
#iterations: 27
currently lose_sum: 0.7043663263320923
time_elpased: 6.059
#iterations: 28
currently lose_sum: 0.6982029676437378
time_elpased: 6.375
#iterations: 29
currently lose_sum: 0.6459182500839233
time_elpased: 6.098
#iterations: 30
currently lose_sum: 0.7097617983818054
time_elpased: 6.45
#iterations: 31
currently lose_sum: 0.6694080829620361
time_elpased: 6.908
#iterations: 32
currently lose_sum: 0.6656510829925537
time_elpased: 6.488
#iterations: 33
currently lose_sum: 0.6804100871086121
time_elpased: 6.35
#iterations: 34
currently lose_sum: 0.6686482429504395
time_elpased: 6.464
#iterations: 35
currently lose_sum: 0.6921825408935547
time_elpased: 6.088
#iterations: 36
currently lose_sum: 0.7023165822029114
time_elpased: 6.023
#iterations: 37
currently lose_sum: 0.7052900791168213
time_elpased: 6.066
#iterations: 38
currently lose_sum: 0.6945850849151611
time_elpased: 6.177
#iterations: 39
currently lose_sum: 0.6955825090408325
time_elpased: 6.151
start validation test
0.5444
0.563049853372
0.454258675079
0.502837189
0.545716999877
17.148
#iterations: 40
currently lose_sum: 0.6768874526023865
time_elpased: 6.059
#iterations: 41
currently lose_sum: 0.6659478545188904
time_elpased: 6.086
#iterations: 42
currently lose_sum: 0.6835577487945557
time_elpased: 6.139
#iterations: 43
currently lose_sum: 0.652442991733551
time_elpased: 6.099
#iterations: 44
currently lose_sum: 0.6676466464996338
time_elpased: 7.011
#iterations: 45
currently lose_sum: 0.6830153465270996
time_elpased: 6.09
#iterations: 46
currently lose_sum: 0.7106412649154663
time_elpased: 6.31
#iterations: 47
currently lose_sum: 0.6710231900215149
time_elpased: 6.66
#iterations: 48
currently lose_sum: 0.685627818107605
time_elpased: 6.095
#iterations: 49
currently lose_sum: 0.6849411129951477
time_elpased: 6.314
#iterations: 50
currently lose_sum: 0.6647874712944031
time_elpased: 6.31
#iterations: 51
currently lose_sum: 0.6825259327888489
time_elpased: 6.274
#iterations: 52
currently lose_sum: 0.6766943335533142
time_elpased: 6.544
#iterations: 53
currently lose_sum: 0.7028889656066895
time_elpased: 6.612
#iterations: 54
currently lose_sum: 0.6919459700584412
time_elpased: 6.486
#iterations: 55
currently lose_sum: 0.6830803155899048
time_elpased: 6.499
#iterations: 56
currently lose_sum: 0.6592747569084167
time_elpased: 6.288
#iterations: 57
currently lose_sum: 0.6903221011161804
time_elpased: 6.223
#iterations: 58
currently lose_sum: 0.6940392255783081
time_elpased: 6.573
#iterations: 59
currently lose_sum: 0.6564671993255615
time_elpased: 6.339
start validation test
0.5568
0.549443757726
0.701104100946
0.616077616078
0.554691660863
16.941
#iterations: 60
currently lose_sum: 0.6747076511383057
time_elpased: 6.286
#iterations: 61
currently lose_sum: 0.6927309632301331
time_elpased: 7.078
#iterations: 62
currently lose_sum: 0.6938530802726746
time_elpased: 6.524
#iterations: 63
currently lose_sum: 0.7045816779136658
time_elpased: 6.196
#iterations: 64
currently lose_sum: 0.6918846368789673
time_elpased: 6.361
#iterations: 65
currently lose_sum: 0.6972330212593079
time_elpased: 6.288
#iterations: 66
currently lose_sum: 0.7043915390968323
time_elpased: 6.639
#iterations: 67
currently lose_sum: 0.6869948506355286
time_elpased: 6.504
#iterations: 68
currently lose_sum: 0.6892915964126587
time_elpased: 6.4
#iterations: 69
currently lose_sum: 0.6688052415847778
time_elpased: 6.413
#iterations: 70
currently lose_sum: 0.6603150367736816
time_elpased: 6.372
#iterations: 71
currently lose_sum: 0.6442492604255676
time_elpased: 6.322
#iterations: 72
currently lose_sum: 0.6849277019500732
time_elpased: 6.406
#iterations: 73
currently lose_sum: 0.6651347279548645
time_elpased: 6.543
#iterations: 74
currently lose_sum: 0.6763769388198853
time_elpased: 6.435
#iterations: 75
currently lose_sum: 0.6727069020271301
time_elpased: 6.212
#iterations: 76
currently lose_sum: 0.6789590716362
time_elpased: 6.35
#iterations: 77
currently lose_sum: 0.660017728805542
time_elpased: 6.323
#iterations: 78
currently lose_sum: 0.6636662483215332
time_elpased: 6.006
#iterations: 79
currently lose_sum: 0.685791552066803
time_elpased: 6.412
start validation test
0.5368
0.654494382022
0.183753943218
0.286945812808
0.54195814044
17.378
#iterations: 80
currently lose_sum: 0.7085934281349182
time_elpased: 6.645
#iterations: 81
currently lose_sum: 0.6741294264793396
time_elpased: 6.66
#iterations: 82
currently lose_sum: 0.6605077981948853
time_elpased: 6.796
#iterations: 83
currently lose_sum: 0.6898437738418579
time_elpased: 6.341
#iterations: 84
currently lose_sum: 0.6634947061538696
time_elpased: 6.746
#iterations: 85
currently lose_sum: 0.7064241170883179
time_elpased: 6.512
#iterations: 86
currently lose_sum: 0.7029491662979126
time_elpased: 6.25
#iterations: 87
currently lose_sum: 0.6753594875335693
time_elpased: 6.635
#iterations: 88
currently lose_sum: 0.7509526014328003
time_elpased: 6.209
#iterations: 89
currently lose_sum: 0.6602127552032471
time_elpased: 6.26
#iterations: 90
currently lose_sum: 0.6709433197975159
time_elpased: 6.365
#iterations: 91
currently lose_sum: 0.6624976992607117
time_elpased: 6.339
#iterations: 92
currently lose_sum: 0.6779937148094177
time_elpased: 6.735
#iterations: 93
currently lose_sum: 0.6613690257072449
time_elpased: 6.52
#iterations: 94
currently lose_sum: 0.6543916463851929
time_elpased: 6.404
#iterations: 95
currently lose_sum: 0.6845253109931946
time_elpased: 6.412
#iterations: 96
currently lose_sum: 0.7045934796333313
time_elpased: 6.408
#iterations: 97
currently lose_sum: 0.7276924252510071
time_elpased: 6.399
#iterations: 98
currently lose_sum: 0.669590175151825
time_elpased: 6.352
#iterations: 99
currently lose_sum: 0.6442900896072388
time_elpased: 6.493
start validation test
0.5736
0.609782608696
0.442429022082
0.512797074954
0.575516459093
16.888
#iterations: 100
currently lose_sum: 0.6416851878166199
time_elpased: 6.178
#iterations: 101
currently lose_sum: 0.6579565405845642
time_elpased: 6.823
#iterations: 102
currently lose_sum: 0.65070641040802
time_elpased: 6.257
#iterations: 103
currently lose_sum: 0.6840373873710632
time_elpased: 6.514
#iterations: 104
currently lose_sum: 0.6571339964866638
time_elpased: 6.465
#iterations: 105
currently lose_sum: 0.6496559381484985
time_elpased: 6.326
#iterations: 106
currently lose_sum: 0.6701423525810242
time_elpased: 6.419
#iterations: 107
currently lose_sum: 0.6869022846221924
time_elpased: 6.702
#iterations: 108
currently lose_sum: 0.6745420098304749
time_elpased: 6.273
#iterations: 109
currently lose_sum: 0.692234218120575
time_elpased: 6.378
#iterations: 110
currently lose_sum: 0.645448625087738
time_elpased: 6.211
#iterations: 111
currently lose_sum: 0.6495988368988037
time_elpased: 6.868
#iterations: 112
currently lose_sum: 0.6886196136474609
time_elpased: 6.425
#iterations: 113
currently lose_sum: 0.6739411950111389
time_elpased: 6.969
#iterations: 114
currently lose_sum: 0.6830490231513977
time_elpased: 6.633
#iterations: 115
currently lose_sum: 0.6741605997085571
time_elpased: 7.051
#iterations: 116
currently lose_sum: 0.6752375960350037
time_elpased: 6.667
#iterations: 117
currently lose_sum: 0.6641666889190674
time_elpased: 6.242
#iterations: 118
currently lose_sum: 0.6729104518890381
time_elpased: 6.213
#iterations: 119
currently lose_sum: 0.6677613854408264
time_elpased: 6.146
start validation test
0.5584
0.612637362637
0.351735015773
0.446893787575
0.561419455938
17.253
#iterations: 120
currently lose_sum: 0.6653398275375366
time_elpased: 6.586
#iterations: 121
currently lose_sum: 0.6835060119628906
time_elpased: 6.054
#iterations: 122
currently lose_sum: 0.6918029189109802
time_elpased: 6.198
#iterations: 123
currently lose_sum: 0.6749753355979919
time_elpased: 6.26
#iterations: 124
currently lose_sum: 0.6919803023338318
time_elpased: 6.549
#iterations: 125
currently lose_sum: 0.6701756119728088
time_elpased: 6.438
#iterations: 126
currently lose_sum: 0.6709190607070923
time_elpased: 7.09
#iterations: 127
currently lose_sum: 0.6812980771064758
time_elpased: 6.728
#iterations: 128
currently lose_sum: 0.6730625629425049
time_elpased: 6.453
#iterations: 129
currently lose_sum: 0.7149546146392822
time_elpased: 6.406
#iterations: 130
currently lose_sum: 0.6661540269851685
time_elpased: 6.297
#iterations: 131
currently lose_sum: 0.6752057075500488
time_elpased: 6.367
#iterations: 132
currently lose_sum: 0.6503165364265442
time_elpased: 6.378
#iterations: 133
currently lose_sum: 0.6494770050048828
time_elpased: 6.099
#iterations: 134
currently lose_sum: 0.6852149963378906
time_elpased: 6.314
#iterations: 135
currently lose_sum: 0.6817209720611572
time_elpased: 6.25
#iterations: 136
currently lose_sum: 0.6550164818763733
time_elpased: 6.43
#iterations: 137
currently lose_sum: 0.6686668395996094
time_elpased: 6.566
#iterations: 138
currently lose_sum: 0.6639026403427124
time_elpased: 6.532
#iterations: 139
currently lose_sum: 0.6119503974914551
time_elpased: 6.373
start validation test
0.5676
0.583706356312
0.514195583596
0.546750524109
0.568380259331
16.933
#iterations: 140
currently lose_sum: 0.6942458152770996
time_elpased: 6.252
#iterations: 141
currently lose_sum: 0.673215389251709
time_elpased: 6.357
#iterations: 142
currently lose_sum: 0.6555390954017639
time_elpased: 6.185
#iterations: 143
currently lose_sum: 0.6819899082183838
time_elpased: 6.46
#iterations: 144
currently lose_sum: 0.6764036417007446
time_elpased: 6.568
#iterations: 145
currently lose_sum: 0.6782872080802917
time_elpased: 6.381
#iterations: 146
currently lose_sum: 0.670444667339325
time_elpased: 6.338
#iterations: 147
currently lose_sum: 0.6642256379127502
time_elpased: 6.254
#iterations: 148
currently lose_sum: 0.6489402651786804
time_elpased: 6.332
#iterations: 149
currently lose_sum: 0.6792986989021301
time_elpased: 6.518
#iterations: 150
currently lose_sum: 0.6452921032905579
time_elpased: 6.651
#iterations: 151
currently lose_sum: 0.6833032369613647
time_elpased: 6.318
#iterations: 152
currently lose_sum: 0.6565883755683899
time_elpased: 6.31
#iterations: 153
currently lose_sum: 0.6752054691314697
time_elpased: 6.329
#iterations: 154
currently lose_sum: 0.6723310947418213
time_elpased: 6.409
#iterations: 155
currently lose_sum: 0.6417374610900879
time_elpased: 6.37
#iterations: 156
currently lose_sum: 0.6813710927963257
time_elpased: 6.691
#iterations: 157
currently lose_sum: 0.650235652923584
time_elpased: 6.844
#iterations: 158
currently lose_sum: 0.7328288555145264
time_elpased: 6.555
#iterations: 159
currently lose_sum: 0.661710262298584
time_elpased: 6.449
start validation test
0.5504
0.538834951456
0.78785488959
0.6399743754
0.546930691548
16.825
#iterations: 160
currently lose_sum: 0.6738676428794861
time_elpased: 6.109
#iterations: 161
currently lose_sum: 0.6844403147697449
time_elpased: 6.701
#iterations: 162
currently lose_sum: 0.654975414276123
time_elpased: 6.366
#iterations: 163
currently lose_sum: 0.6186618804931641
time_elpased: 6.342
#iterations: 164
currently lose_sum: 0.7362068295478821
time_elpased: 6.181
#iterations: 165
currently lose_sum: 0.6973457336425781
time_elpased: 6.395
#iterations: 166
currently lose_sum: 0.621458113193512
time_elpased: 6.22
#iterations: 167
currently lose_sum: 0.6964229345321655
time_elpased: 6.304
#iterations: 168
currently lose_sum: 0.7053756713867188
time_elpased: 6.339
#iterations: 169
currently lose_sum: 0.7168963551521301
time_elpased: 6.573
#iterations: 170
currently lose_sum: 0.6721121072769165
time_elpased: 5.989
#iterations: 171
currently lose_sum: 0.6520620584487915
time_elpased: 6.182
#iterations: 172
currently lose_sum: 0.7037095427513123
time_elpased: 6.051
#iterations: 173
currently lose_sum: 0.6632136702537537
time_elpased: 6.852
#iterations: 174
currently lose_sum: 0.7123777866363525
time_elpased: 6.056
#iterations: 175
currently lose_sum: 0.6489590406417847
time_elpased: 6.456
#iterations: 176
currently lose_sum: 0.6812964677810669
time_elpased: 6.254
#iterations: 177
currently lose_sum: 0.6545990109443665
time_elpased: 6.45
#iterations: 178
currently lose_sum: 0.6527562737464905
time_elpased: 6.598
#iterations: 179
currently lose_sum: 0.6358408331871033
time_elpased: 6.342
start validation test
0.572
0.578821656051
0.57334384858
0.576069730586
0.571980365849
16.755
#iterations: 180
currently lose_sum: 0.6652204990386963
time_elpased: 6.12
#iterations: 181
currently lose_sum: 0.6415235996246338
time_elpased: 6.345
#iterations: 182
currently lose_sum: 0.6908397078514099
time_elpased: 6.363
#iterations: 183
currently lose_sum: 0.6701300144195557
time_elpased: 6.412
#iterations: 184
currently lose_sum: 0.6689865589141846
time_elpased: 6.751
#iterations: 185
currently lose_sum: 0.651202380657196
time_elpased: 6.481
#iterations: 186
currently lose_sum: 0.6256803870201111
time_elpased: 6.643
#iterations: 187
currently lose_sum: 0.6630018353462219
time_elpased: 6.592
#iterations: 188
currently lose_sum: 0.6734782457351685
time_elpased: 6.068
#iterations: 189
currently lose_sum: 0.6595401167869568
time_elpased: 6.382
#iterations: 190
currently lose_sum: 0.6977534294128418
time_elpased: 6.215
#iterations: 191
currently lose_sum: 0.6768028736114502
time_elpased: 6.469
#iterations: 192
currently lose_sum: 0.6708759069442749
time_elpased: 6.422
#iterations: 193
currently lose_sum: 0.6509152054786682
time_elpased: 6.29
#iterations: 194
currently lose_sum: 0.6853439211845398
time_elpased: 6.251
#iterations: 195
currently lose_sum: 0.6748142838478088
time_elpased: 6.318
#iterations: 196
currently lose_sum: 0.6635982990264893
time_elpased: 6.36
#iterations: 197
currently lose_sum: 0.6648483276367188
time_elpased: 6.565
#iterations: 198
currently lose_sum: 0.661771833896637
time_elpased: 6.478
#iterations: 199
currently lose_sum: 0.6683843731880188
time_elpased: 6.636
start validation test
0.5568
0.544345898004
0.774447949527
0.639322916667
0.55362007866
16.739
#iterations: 200
currently lose_sum: 0.7127000689506531
time_elpased: 6.634
#iterations: 201
currently lose_sum: 0.695233166217804
time_elpased: 6.492
#iterations: 202
currently lose_sum: 0.6579039096832275
time_elpased: 6.352
#iterations: 203
currently lose_sum: 0.713005542755127
time_elpased: 6.385
#iterations: 204
currently lose_sum: 0.6597374081611633
time_elpased: 6.511
#iterations: 205
currently lose_sum: 0.6758256554603577
time_elpased: 6.518
#iterations: 206
currently lose_sum: 0.6481469869613647
time_elpased: 6.531
#iterations: 207
currently lose_sum: 0.6503055691719055
time_elpased: 6.203
#iterations: 208
currently lose_sum: 0.6434423327445984
time_elpased: 6.769
#iterations: 209
currently lose_sum: 0.6523276567459106
time_elpased: 6.207
#iterations: 210
currently lose_sum: 0.6657205820083618
time_elpased: 6.514
#iterations: 211
currently lose_sum: 0.6774851083755493
time_elpased: 6.613
#iterations: 212
currently lose_sum: 0.6335547566413879
time_elpased: 6.091
#iterations: 213
currently lose_sum: 0.6323222517967224
time_elpased: 7.153
#iterations: 214
currently lose_sum: 0.6722933053970337
time_elpased: 6.42
#iterations: 215
currently lose_sum: 0.6769052147865295
time_elpased: 6.406
#iterations: 216
currently lose_sum: 0.6889562010765076
time_elpased: 6.201
#iterations: 217
currently lose_sum: 0.6431761384010315
time_elpased: 6.203
#iterations: 218
currently lose_sum: 0.6895295977592468
time_elpased: 6.206
#iterations: 219
currently lose_sum: 0.6966719031333923
time_elpased: 6.546
start validation test
0.5852
0.623003194888
0.461356466877
0.530131400091
0.58700940227
16.785
#iterations: 220
currently lose_sum: 0.6260262131690979
time_elpased: 6.605
#iterations: 221
currently lose_sum: 0.6414604187011719
time_elpased: 6.996
#iterations: 222
currently lose_sum: 0.6666685342788696
time_elpased: 6.577
#iterations: 223
currently lose_sum: 0.6542532444000244
time_elpased: 6.235
#iterations: 224
currently lose_sum: 0.6470496654510498
time_elpased: 6.204
#iterations: 225
currently lose_sum: 0.6592260599136353
time_elpased: 6.574
#iterations: 226
currently lose_sum: 0.6644047498703003
time_elpased: 6.701
#iterations: 227
currently lose_sum: 0.6624525189399719
time_elpased: 6.665
#iterations: 228
currently lose_sum: 0.669297456741333
time_elpased: 6.621
#iterations: 229
currently lose_sum: 0.629592776298523
time_elpased: 6.19
#iterations: 230
currently lose_sum: 0.6862635612487793
time_elpased: 6.412
#iterations: 231
currently lose_sum: 0.6546982526779175
time_elpased: 7.96
#iterations: 232
currently lose_sum: 0.6530829668045044
time_elpased: 6.254
#iterations: 233
currently lose_sum: 0.6909112334251404
time_elpased: 6.467
#iterations: 234
currently lose_sum: 0.6328801512718201
time_elpased: 6.505
#iterations: 235
currently lose_sum: 0.6592556834220886
time_elpased: 6.648
#iterations: 236
currently lose_sum: 0.6405943036079407
time_elpased: 6.408
#iterations: 237
currently lose_sum: 0.6329934000968933
time_elpased: 6.524
#iterations: 238
currently lose_sum: 0.6630712151527405
time_elpased: 6.445
#iterations: 239
currently lose_sum: 0.6863064765930176
time_elpased: 6.374
start validation test
0.5644
0.555349412492
0.708201892744
0.622530329289
0.56229899832
16.661
#iterations: 240
currently lose_sum: 0.6546007394790649
time_elpased: 6.565
#iterations: 241
currently lose_sum: 0.6550068855285645
time_elpased: 6.588
#iterations: 242
currently lose_sum: 0.6409898400306702
time_elpased: 6.642
#iterations: 243
currently lose_sum: 0.6885444521903992
time_elpased: 6.233
#iterations: 244
currently lose_sum: 0.6267839670181274
time_elpased: 6.645
#iterations: 245
currently lose_sum: 0.6805029511451721
time_elpased: 6.517
#iterations: 246
currently lose_sum: 0.6781215071678162
time_elpased: 6.532
#iterations: 247
currently lose_sum: 0.6877998113632202
time_elpased: 6.311
#iterations: 248
currently lose_sum: 0.6617138385772705
time_elpased: 6.665
#iterations: 249
currently lose_sum: 0.642610490322113
time_elpased: 6.594
#iterations: 250
currently lose_sum: 0.6290246248245239
time_elpased: 6.444
#iterations: 251
currently lose_sum: 0.6356289386749268
time_elpased: 6.493
#iterations: 252
currently lose_sum: 0.6799473762512207
time_elpased: 6.325
#iterations: 253
currently lose_sum: 0.6430906653404236
time_elpased: 6.669
#iterations: 254
currently lose_sum: 0.6547443270683289
time_elpased: 6.33
#iterations: 255
currently lose_sum: 0.6829912066459656
time_elpased: 6.425
#iterations: 256
currently lose_sum: 0.6753116846084595
time_elpased: 6.225
#iterations: 257
currently lose_sum: 0.6563922762870789
time_elpased: 6.823
#iterations: 258
currently lose_sum: 0.6549636125564575
time_elpased: 6.614
#iterations: 259
currently lose_sum: 0.6852356195449829
time_elpased: 6.602
start validation test
0.5628
0.552176505665
0.730283911672
0.628862478778
0.560352994797
16.800
#iterations: 260
currently lose_sum: 0.6538881063461304
time_elpased: 6.241
#iterations: 261
currently lose_sum: 0.6466777324676514
time_elpased: 6.586
#iterations: 262
currently lose_sum: 0.6367672681808472
time_elpased: 6.326
#iterations: 263
currently lose_sum: 0.6167253255844116
time_elpased: 6.576
#iterations: 264
currently lose_sum: 0.6631041765213013
time_elpased: 6.206
#iterations: 265
currently lose_sum: 0.651570737361908
time_elpased: 6.131
#iterations: 266
currently lose_sum: 0.6613804697990417
time_elpased: 6.563
#iterations: 267
currently lose_sum: 0.6412579417228699
time_elpased: 6.53
#iterations: 268
currently lose_sum: 0.6856796145439148
time_elpased: 6.601
#iterations: 269
currently lose_sum: 0.6510181427001953
time_elpased: 6.213
#iterations: 270
currently lose_sum: 0.6534391045570374
time_elpased: 6.032
#iterations: 271
currently lose_sum: 0.6808690428733826
time_elpased: 6.468
#iterations: 272
currently lose_sum: 0.6306203603744507
time_elpased: 6.235
#iterations: 273
currently lose_sum: 0.6901118755340576
time_elpased: 6.652
#iterations: 274
currently lose_sum: 0.6843736171722412
time_elpased: 6.317
#iterations: 275
currently lose_sum: 0.6267300248146057
time_elpased: 6.887
#iterations: 276
currently lose_sum: 0.6649959087371826
time_elpased: 6.522
#iterations: 277
currently lose_sum: 0.6351178884506226
time_elpased: 6.507
#iterations: 278
currently lose_sum: 0.741485595703125
time_elpased: 6.534
#iterations: 279
currently lose_sum: 0.7224786877632141
time_elpased: 6.464
start validation test
0.5716
0.682745825603
0.290220820189
0.407304925291
0.575711059445
16.865
#iterations: 280
currently lose_sum: 0.6076444983482361
time_elpased: 6.273
#iterations: 281
currently lose_sum: 0.6496299505233765
time_elpased: 6.441
#iterations: 282
currently lose_sum: 0.6431686282157898
time_elpased: 6.286
#iterations: 283
currently lose_sum: 0.6849626898765564
time_elpased: 6.371
#iterations: 284
currently lose_sum: 0.7023985981941223
time_elpased: 6.419
#iterations: 285
currently lose_sum: 0.6704549193382263
time_elpased: 6.182
#iterations: 286
currently lose_sum: 0.6741107106208801
time_elpased: 6.23
#iterations: 287
currently lose_sum: 0.6750602126121521
time_elpased: 6.672
#iterations: 288
currently lose_sum: 0.6573305726051331
time_elpased: 6.53
#iterations: 289
currently lose_sum: 0.6409657001495361
time_elpased: 6.335
#iterations: 290
currently lose_sum: 0.6631101965904236
time_elpased: 6.105
#iterations: 291
currently lose_sum: 0.6684183478355408
time_elpased: 6.492
#iterations: 292
currently lose_sum: 0.6505590677261353
time_elpased: 6.27
#iterations: 293
currently lose_sum: 0.6381024718284607
time_elpased: 6.488
#iterations: 294
currently lose_sum: 0.6542366147041321
time_elpased: 6.557
#iterations: 295
currently lose_sum: 0.6559656262397766
time_elpased: 6.257
#iterations: 296
currently lose_sum: 0.6755444407463074
time_elpased: 6.488
#iterations: 297
currently lose_sum: 0.6559281945228577
time_elpased: 6.599
#iterations: 298
currently lose_sum: 0.6157518029212952
time_elpased: 7.135
#iterations: 299
currently lose_sum: 0.6697834730148315
time_elpased: 7.057
start validation test
0.5704
0.563151041667
0.682176656151
0.61697574893
0.568766899504
16.625
#iterations: 300
currently lose_sum: 0.6705368161201477
time_elpased: 6.269
#iterations: 301
currently lose_sum: 0.7428112030029297
time_elpased: 6.966
#iterations: 302
currently lose_sum: 0.637066125869751
time_elpased: 6.749
#iterations: 303
currently lose_sum: 0.651163637638092
time_elpased: 6.548
#iterations: 304
currently lose_sum: 0.6301255226135254
time_elpased: 6.171
#iterations: 305
currently lose_sum: 0.6793124675750732
time_elpased: 6.217
#iterations: 306
currently lose_sum: 0.6632553935050964
time_elpased: 6.534
#iterations: 307
currently lose_sum: 0.6700697541236877
time_elpased: 6.32
#iterations: 308
currently lose_sum: 0.671257495880127
time_elpased: 6.067
#iterations: 309
currently lose_sum: 0.6268359422683716
time_elpased: 6.652
#iterations: 310
currently lose_sum: 0.6324271559715271
time_elpased: 6.344
#iterations: 311
currently lose_sum: 0.6381962299346924
time_elpased: 6.553
#iterations: 312
currently lose_sum: 0.6397812366485596
time_elpased: 6.254
#iterations: 313
currently lose_sum: 0.6810092926025391
time_elpased: 6.621
#iterations: 314
currently lose_sum: 0.6745547652244568
time_elpased: 6.535
#iterations: 315
currently lose_sum: 0.6455875635147095
time_elpased: 6.247
#iterations: 316
currently lose_sum: 0.6839112043380737
time_elpased: 6.311
#iterations: 317
currently lose_sum: 0.6524051427841187
time_elpased: 6.61
#iterations: 318
currently lose_sum: 0.6752774715423584
time_elpased: 6.74
#iterations: 319
currently lose_sum: 0.6661846041679382
time_elpased: 6.186
start validation test
0.5808
0.594501718213
0.545741324921
0.569078947368
0.581312220902
16.607
#iterations: 320
currently lose_sum: 0.6228373050689697
time_elpased: 6.619
#iterations: 321
currently lose_sum: 0.641767144203186
time_elpased: 6.156
#iterations: 322
currently lose_sum: 0.6416524648666382
time_elpased: 6.297
#iterations: 323
currently lose_sum: 0.6677614450454712
time_elpased: 6.818
#iterations: 324
currently lose_sum: 0.6683167815208435
time_elpased: 6.076
#iterations: 325
currently lose_sum: 0.6435174345970154
time_elpased: 6.43
#iterations: 326
currently lose_sum: 0.6694754958152771
time_elpased: 6.097
#iterations: 327
currently lose_sum: 0.6556805372238159
time_elpased: 6.483
#iterations: 328
currently lose_sum: 0.6388201117515564
time_elpased: 6.528
#iterations: 329
currently lose_sum: 0.618654191493988
time_elpased: 6.196
#iterations: 330
currently lose_sum: 0.655928373336792
time_elpased: 6.244
#iterations: 331
currently lose_sum: 0.6399009823799133
time_elpased: 6.486
#iterations: 332
currently lose_sum: 0.6496290564537048
time_elpased: 6.453
#iterations: 333
currently lose_sum: 0.5974570512771606
time_elpased: 6.842
#iterations: 334
currently lose_sum: 0.6368166208267212
time_elpased: 7.664
#iterations: 335
currently lose_sum: 0.611900269985199
time_elpased: 6.1
#iterations: 336
currently lose_sum: 0.6767771244049072
time_elpased: 6.146
#iterations: 337
currently lose_sum: 0.6507295966148376
time_elpased: 6.291
#iterations: 338
currently lose_sum: 0.6343143582344055
time_elpased: 6.465
#iterations: 339
currently lose_sum: 0.6350842118263245
time_elpased: 6.224
start validation test
0.602
0.627928772259
0.528391167192
0.573875802998
0.603075453726
16.535
#iterations: 340
currently lose_sum: 0.6324731707572937
time_elpased: 6.593
#iterations: 341
currently lose_sum: 0.6784811615943909
time_elpased: 6.825
#iterations: 342
currently lose_sum: 0.6697033643722534
time_elpased: 6.288
#iterations: 343
currently lose_sum: 0.6569911241531372
time_elpased: 6.443
#iterations: 344
currently lose_sum: 0.6942126750946045
time_elpased: 5.625
#iterations: 345
currently lose_sum: 0.65594482421875
time_elpased: 4.841
#iterations: 346
currently lose_sum: 0.6771625280380249
time_elpased: 4.689
#iterations: 347
currently lose_sum: 0.6106969118118286
time_elpased: 6.352
#iterations: 348
currently lose_sum: 0.6512097120285034
time_elpased: 6.524
#iterations: 349
currently lose_sum: 0.6675700545310974
time_elpased: 6.488
#iterations: 350
currently lose_sum: 0.6602081060409546
time_elpased: 6.994
#iterations: 351
currently lose_sum: 0.6460974216461182
time_elpased: 6.408
#iterations: 352
currently lose_sum: 0.7233137488365173
time_elpased: 6.531
#iterations: 353
currently lose_sum: 0.6175196766853333
time_elpased: 6.425
#iterations: 354
currently lose_sum: 0.6331455111503601
time_elpased: 6.502
#iterations: 355
currently lose_sum: 0.6654676795005798
time_elpased: 6.85
#iterations: 356
currently lose_sum: 0.6652807593345642
time_elpased: 6.849
#iterations: 357
currently lose_sum: 0.6750779747962952
time_elpased: 6.48
#iterations: 358
currently lose_sum: 0.6209893226623535
time_elpased: 6.738
#iterations: 359
currently lose_sum: 0.6392002701759338
time_elpased: 6.428
start validation test
0.59
0.630785791173
0.46214511041
0.53345471097
0.591868009751
16.725
#iterations: 360
currently lose_sum: 0.6733540892601013
time_elpased: 6.592
#iterations: 361
currently lose_sum: 0.63788241147995
time_elpased: 6.58
#iterations: 362
currently lose_sum: 0.6407942175865173
time_elpased: 6.319
#iterations: 363
currently lose_sum: 0.6483824253082275
time_elpased: 6.314
#iterations: 364
currently lose_sum: 0.6573348045349121
time_elpased: 6.378
#iterations: 365
currently lose_sum: 0.6409140825271606
time_elpased: 6.44
#iterations: 366
currently lose_sum: 0.6409407258033752
time_elpased: 6.441
#iterations: 367
currently lose_sum: 0.6541205048561096
time_elpased: 6.384
#iterations: 368
currently lose_sum: 0.6465238332748413
time_elpased: 6.407
#iterations: 369
currently lose_sum: 0.6638673543930054
time_elpased: 6.57
#iterations: 370
currently lose_sum: 0.6572135090827942
time_elpased: 6.982
#iterations: 371
currently lose_sum: 0.6610053777694702
time_elpased: 6.671
#iterations: 372
currently lose_sum: 0.6561868190765381
time_elpased: 6.369
#iterations: 373
currently lose_sum: 0.665771484375
time_elpased: 6.22
#iterations: 374
currently lose_sum: 0.6575883626937866
time_elpased: 6.311
#iterations: 375
currently lose_sum: 0.6698405742645264
time_elpased: 6.349
#iterations: 376
currently lose_sum: 0.6409608721733093
time_elpased: 6.246
#iterations: 377
currently lose_sum: 0.6491767764091492
time_elpased: 6.22
#iterations: 378
currently lose_sum: 0.6621965765953064
time_elpased: 6.23
#iterations: 379
currently lose_sum: 0.6187334656715393
time_elpased: 6.416
start validation test
0.5744
0.598076923077
0.490536277603
0.538994800693
0.575625281658
16.654
#iterations: 380
currently lose_sum: 0.6269810199737549
time_elpased: 6.374
#iterations: 381
currently lose_sum: 0.6254143714904785
time_elpased: 6.525
#iterations: 382
currently lose_sum: 0.691315770149231
time_elpased: 6.099
#iterations: 383
currently lose_sum: 0.6882187128067017
time_elpased: 6.943
#iterations: 384
currently lose_sum: 0.6248248815536499
time_elpased: 7.123
#iterations: 385
currently lose_sum: 0.6954940557479858
time_elpased: 7.176
#iterations: 386
currently lose_sum: 0.6904441714286804
time_elpased: 6.924
#iterations: 387
currently lose_sum: 0.6477146744728088
time_elpased: 7.168
#iterations: 388
currently lose_sum: 0.6704353094100952
time_elpased: 7.114
#iterations: 389
currently lose_sum: 0.6206151843070984
time_elpased: 6.709
#iterations: 390
currently lose_sum: 0.6374713778495789
time_elpased: 6.705
#iterations: 391
currently lose_sum: 0.6336880326271057
time_elpased: 7.297
#iterations: 392
currently lose_sum: 0.6402410864830017
time_elpased: 6.667
#iterations: 393
currently lose_sum: 0.636793315410614
time_elpased: 8.144
#iterations: 394
currently lose_sum: 0.6484017968177795
time_elpased: 6.809
#iterations: 395
currently lose_sum: 0.6277728080749512
time_elpased: 6.857
#iterations: 396
currently lose_sum: 0.6601213216781616
time_elpased: 6.92
#iterations: 397
currently lose_sum: 0.6753810048103333
time_elpased: 6.86
#iterations: 398
currently lose_sum: 0.6809699535369873
time_elpased: 6.994
#iterations: 399
currently lose_sum: 0.6643576622009277
time_elpased: 7.085
start validation test
0.58
0.58295281583
0.604100946372
0.593338497289
0.579647875784
16.579
#iterations: 400
currently lose_sum: 0.6884788274765015
time_elpased: 6.816
#iterations: 401
currently lose_sum: 0.6358767747879028
time_elpased: 6.698
#iterations: 402
currently lose_sum: 0.6816536784172058
time_elpased: 6.74
#iterations: 403
currently lose_sum: 0.7081863284111023
time_elpased: 6.82
#iterations: 404
currently lose_sum: 0.6322190165519714
time_elpased: 7.206
#iterations: 405
currently lose_sum: 0.6300174593925476
time_elpased: 6.788
#iterations: 406
currently lose_sum: 0.626778781414032
time_elpased: 6.738
#iterations: 407
currently lose_sum: 0.659107506275177
time_elpased: 6.836
#iterations: 408
currently lose_sum: 0.6343840956687927
time_elpased: 7.343
#iterations: 409
currently lose_sum: 0.6532484292984009
time_elpased: 6.942
#iterations: 410
currently lose_sum: 0.6534333825111389
time_elpased: 7.336
#iterations: 411
currently lose_sum: 0.6093244552612305
time_elpased: 6.923
#iterations: 412
currently lose_sum: 0.6320520639419556
time_elpased: 7.714
#iterations: 413
currently lose_sum: 0.6503980159759521
time_elpased: 6.796
#iterations: 414
currently lose_sum: 0.6487905979156494
time_elpased: 6.785
#iterations: 415
currently lose_sum: 0.6528843641281128
time_elpased: 6.754
#iterations: 416
currently lose_sum: 0.6375090479850769
time_elpased: 6.959
#iterations: 417
currently lose_sum: 0.681935727596283
time_elpased: 6.906
#iterations: 418
currently lose_sum: 0.6337392926216125
time_elpased: 7.303
#iterations: 419
currently lose_sum: 0.6504563689231873
time_elpased: 8.224
start validation test
0.5976
0.610269360269
0.571766561514
0.590390879479
0.597977436601
16.520
#iterations: 420
currently lose_sum: 0.6871018409729004
time_elpased: 6.814
#iterations: 421
currently lose_sum: 0.6350864171981812
time_elpased: 7.295
#iterations: 422
currently lose_sum: 0.670382559299469
time_elpased: 6.916
#iterations: 423
currently lose_sum: 0.6052578687667847
time_elpased: 6.882
#iterations: 424
currently lose_sum: 0.6003456115722656
time_elpased: 6.848
#iterations: 425
currently lose_sum: 0.6317228078842163
time_elpased: 6.905
#iterations: 426
currently lose_sum: 0.6182101964950562
time_elpased: 6.831
#iterations: 427
currently lose_sum: 0.6695523858070374
time_elpased: 6.813
#iterations: 428
currently lose_sum: 0.6776695251464844
time_elpased: 6.887
#iterations: 429
currently lose_sum: 0.6327405571937561
time_elpased: 7.082
#iterations: 430
currently lose_sum: 0.6817528605461121
time_elpased: 6.578
#iterations: 431
currently lose_sum: 0.6718418598175049
time_elpased: 6.803
#iterations: 432
currently lose_sum: 0.6558273434638977
time_elpased: 6.988
#iterations: 433
currently lose_sum: 0.6715081930160522
time_elpased: 6.62
#iterations: 434
currently lose_sum: 0.6342768669128418
time_elpased: 6.783
#iterations: 435
currently lose_sum: 0.6762204766273499
time_elpased: 7.016
#iterations: 436
currently lose_sum: 0.6917705535888672
time_elpased: 6.9
#iterations: 437
currently lose_sum: 0.6586204767227173
time_elpased: 6.745
#iterations: 438
currently lose_sum: 0.6559063792228699
time_elpased: 7.239
#iterations: 439
currently lose_sum: 0.6223224997520447
time_elpased: 6.845
start validation test
0.5708
0.583690987124
0.536277602524
0.558980682285
0.571304385677
16.628
#iterations: 440
currently lose_sum: 0.6507043242454529
time_elpased: 6.799
#iterations: 441
currently lose_sum: 0.6439773440361023
time_elpased: 6.723
#iterations: 442
currently lose_sum: 0.623971700668335
time_elpased: 6.898
#iterations: 443
currently lose_sum: 0.6531192064285278
time_elpased: 6.972
#iterations: 444
currently lose_sum: 0.6450675129890442
time_elpased: 6.865
#iterations: 445
currently lose_sum: 0.6535595655441284
time_elpased: 6.545
#iterations: 446
currently lose_sum: 0.6523051261901855
time_elpased: 6.816
#iterations: 447
currently lose_sum: 0.6460409760475159
time_elpased: 7.296
#iterations: 448
currently lose_sum: 0.6439683437347412
time_elpased: 6.641
#iterations: 449
currently lose_sum: 0.6387493014335632
time_elpased: 7.009
#iterations: 450
currently lose_sum: 0.6801235675811768
time_elpased: 7.112
#iterations: 451
currently lose_sum: 0.6130275130271912
time_elpased: 7.111
#iterations: 452
currently lose_sum: 0.6439639329910278
time_elpased: 6.897
#iterations: 453
currently lose_sum: 0.6669448614120483
time_elpased: 7.488
#iterations: 454
currently lose_sum: 0.6470524668693542
time_elpased: 7.164
#iterations: 455
currently lose_sum: 0.699868381023407
time_elpased: 6.912
#iterations: 456
currently lose_sum: 0.6221292018890381
time_elpased: 7.09
#iterations: 457
currently lose_sum: 0.6769999861717224
time_elpased: 7.364
#iterations: 458
currently lose_sum: 0.6457844376564026
time_elpased: 7.636
#iterations: 459
currently lose_sum: 0.6634521484375
time_elpased: 6.884
start validation test
0.5776
0.578986587183
0.612776025237
0.595402298851
0.577086064566
16.510
#iterations: 460
currently lose_sum: 0.6697798371315002
time_elpased: 7.519
#iterations: 461
currently lose_sum: 0.6806732416152954
time_elpased: 6.96
#iterations: 462
currently lose_sum: 0.6629159450531006
time_elpased: 7.191
#iterations: 463
currently lose_sum: 0.67027747631073
time_elpased: 6.883
#iterations: 464
currently lose_sum: 0.5939767360687256
time_elpased: 7.237
#iterations: 465
currently lose_sum: 0.6637933850288391
time_elpased: 7.008
#iterations: 466
currently lose_sum: 0.6308777332305908
time_elpased: 7.04
#iterations: 467
currently lose_sum: 0.6804515719413757
time_elpased: 6.911
#iterations: 468
currently lose_sum: 0.6533936858177185
time_elpased: 6.767
#iterations: 469
currently lose_sum: 0.6554802060127258
time_elpased: 6.757
#iterations: 470
currently lose_sum: 0.6513014435768127
time_elpased: 6.847
#iterations: 471
currently lose_sum: 0.6613764762878418
time_elpased: 7.489
#iterations: 472
currently lose_sum: 0.6413865685462952
time_elpased: 7.059
#iterations: 473
currently lose_sum: 0.612143874168396
time_elpased: 7.096
#iterations: 474
currently lose_sum: 0.6561012864112854
time_elpased: 7.639
#iterations: 475
currently lose_sum: 0.6613064408302307
time_elpased: 6.901
#iterations: 476
currently lose_sum: 0.6172642111778259
time_elpased: 6.986
#iterations: 477
currently lose_sum: 0.6773187518119812
time_elpased: 7.124
#iterations: 478
currently lose_sum: 0.6078284978866577
time_elpased: 6.929
#iterations: 479
currently lose_sum: 0.6429723501205444
time_elpased: 7.174
start validation test
0.5704
0.555302166477
0.768138801262
0.644606221046
0.567510959072
16.691
#iterations: 480
currently lose_sum: 0.6480055451393127
time_elpased: 6.83
#iterations: 481
currently lose_sum: 0.6655851602554321
time_elpased: 6.819
#iterations: 482
currently lose_sum: 0.6105800867080688
time_elpased: 6.813
#iterations: 483
currently lose_sum: 0.6345937848091125
time_elpased: 6.832
#iterations: 484
currently lose_sum: 0.6460955142974854
time_elpased: 6.949
#iterations: 485
currently lose_sum: 0.6266071200370789
time_elpased: 6.862
#iterations: 486
currently lose_sum: 0.6788066625595093
time_elpased: 6.717
#iterations: 487
currently lose_sum: 0.6333552002906799
time_elpased: 6.838
#iterations: 488
currently lose_sum: 0.6538461446762085
time_elpased: 7.247
#iterations: 489
currently lose_sum: 0.6280526518821716
time_elpased: 6.84
#iterations: 490
currently lose_sum: 0.5984287858009338
time_elpased: 7.084
#iterations: 491
currently lose_sum: 0.6318670511245728
time_elpased: 6.811
#iterations: 492
currently lose_sum: 0.647259533405304
time_elpased: 6.703
#iterations: 493
currently lose_sum: 0.649219274520874
time_elpased: 6.935
#iterations: 494
currently lose_sum: 0.5835108160972595
time_elpased: 6.886
#iterations: 495
currently lose_sum: 0.6221706867218018
time_elpased: 6.916
#iterations: 496
currently lose_sum: 0.6766505241394043
time_elpased: 6.958
#iterations: 497
currently lose_sum: 0.6760536432266235
time_elpased: 6.927
#iterations: 498
currently lose_sum: 0.6370836496353149
time_elpased: 6.983
#iterations: 499
currently lose_sum: 0.7049103379249573
time_elpased: 6.81
start validation test
0.588
0.596905537459
0.578075709779
0.58733974359
0.588144997747
16.501
#iterations: 500
currently lose_sum: 0.650403618812561
time_elpased: 7.306
#iterations: 501
currently lose_sum: 0.7139286994934082
time_elpased: 6.821
#iterations: 502
currently lose_sum: 0.6237303614616394
time_elpased: 6.759
#iterations: 503
currently lose_sum: 0.6696047782897949
time_elpased: 6.865
#iterations: 504
currently lose_sum: 0.6574547290802002
time_elpased: 7.275
#iterations: 505
currently lose_sum: 0.6418829560279846
time_elpased: 7.185
#iterations: 506
currently lose_sum: 0.6525804400444031
time_elpased: 7.2
#iterations: 507
currently lose_sum: 0.6873027086257935
time_elpased: 6.809
#iterations: 508
currently lose_sum: 0.6271039843559265
time_elpased: 7.083
#iterations: 509
currently lose_sum: 0.5537368655204773
time_elpased: 7.021
#iterations: 510
currently lose_sum: 0.622350811958313
time_elpased: 7.263
#iterations: 511
currently lose_sum: 0.6043626070022583
time_elpased: 6.852
#iterations: 512
currently lose_sum: 0.6019696593284607
time_elpased: 7.018
#iterations: 513
currently lose_sum: 0.6789272427558899
time_elpased: 7.032
#iterations: 514
currently lose_sum: 0.6694701910018921
time_elpased: 6.849
#iterations: 515
currently lose_sum: 0.723369300365448
time_elpased: 6.818
#iterations: 516
currently lose_sum: 0.631767988204956
time_elpased: 6.579
#iterations: 517
currently lose_sum: 0.6428081393241882
time_elpased: 6.714
#iterations: 518
currently lose_sum: 0.6424977779388428
time_elpased: 6.816
#iterations: 519
currently lose_sum: 0.6294305324554443
time_elpased: 7.234
start validation test
0.5708
0.69696969697
0.272082018927
0.391378332388
0.575164386087
17.048
#iterations: 520
currently lose_sum: 0.6190206408500671
time_elpased: 6.762
#iterations: 521
currently lose_sum: 0.6108848452568054
time_elpased: 6.931
#iterations: 522
currently lose_sum: 0.6458500027656555
time_elpased: 7.203
#iterations: 523
currently lose_sum: 0.6491642594337463
time_elpased: 6.832
#iterations: 524
currently lose_sum: 0.6353444457054138
time_elpased: 6.958
#iterations: 525
currently lose_sum: 0.6228423118591309
time_elpased: 7.038
#iterations: 526
currently lose_sum: 0.6779109835624695
time_elpased: 7.037
#iterations: 527
currently lose_sum: 0.6288394927978516
time_elpased: 6.908
#iterations: 528
currently lose_sum: 0.6261004209518433
time_elpased: 6.995
#iterations: 529
currently lose_sum: 0.6192523241043091
time_elpased: 6.828
#iterations: 530
currently lose_sum: 0.6494592428207397
time_elpased: 6.772
#iterations: 531
currently lose_sum: 0.679543137550354
time_elpased: 6.74
#iterations: 532
currently lose_sum: 0.6404067873954773
time_elpased: 6.456
#iterations: 533
currently lose_sum: 0.6572641134262085
time_elpased: 7.368
#iterations: 534
currently lose_sum: 0.6502249240875244
time_elpased: 7.098
#iterations: 535
currently lose_sum: 0.6893958449363708
time_elpased: 7.591
#iterations: 536
currently lose_sum: 0.6107175946235657
time_elpased: 6.939
#iterations: 537
currently lose_sum: 0.6625586152076721
time_elpased: 7.385
#iterations: 538
currently lose_sum: 0.6065202951431274
time_elpased: 7.629
#iterations: 539
currently lose_sum: 0.6643139719963074
time_elpased: 7.293
start validation test
0.5872
0.59500805153
0.582807570978
0.588844621514
0.587264175099
16.480
#iterations: 540
currently lose_sum: 0.6554243564605713
time_elpased: 6.805
#iterations: 541
currently lose_sum: 0.6056755185127258
time_elpased: 6.742
#iterations: 542
currently lose_sum: 0.7190475463867188
time_elpased: 6.978
#iterations: 543
currently lose_sum: 0.6906068325042725
time_elpased: 8.44
#iterations: 544
currently lose_sum: 0.6139801144599915
time_elpased: 6.841
#iterations: 545
currently lose_sum: 0.6445590853691101
time_elpased: 7.389
#iterations: 546
currently lose_sum: 0.6278696656227112
time_elpased: 6.911
#iterations: 547
currently lose_sum: 0.6069056987762451
time_elpased: 6.904
#iterations: 548
currently lose_sum: 0.62086421251297
time_elpased: 7.333
#iterations: 549
currently lose_sum: 0.6980745196342468
time_elpased: 7.349
#iterations: 550
currently lose_sum: 0.624218761920929
time_elpased: 7.0
#iterations: 551
currently lose_sum: 0.6182286143302917
time_elpased: 7.232
#iterations: 552
currently lose_sum: 0.650226354598999
time_elpased: 7.561
#iterations: 553
currently lose_sum: 0.6221426129341125
time_elpased: 6.782
#iterations: 554
currently lose_sum: 0.6018537878990173
time_elpased: 6.912
#iterations: 555
currently lose_sum: 0.6815592050552368
time_elpased: 7.021
#iterations: 556
currently lose_sum: 0.7142333388328552
time_elpased: 6.79
#iterations: 557
currently lose_sum: 0.6560142636299133
time_elpased: 6.951
#iterations: 558
currently lose_sum: 0.6896063089370728
time_elpased: 7.057
#iterations: 559
currently lose_sum: 0.6616889834403992
time_elpased: 6.814
start validation test
0.5764
0.577926920209
0.61119873817
0.594097355309
0.575891576877
16.550
#iterations: 560
currently lose_sum: 0.6787821054458618
time_elpased: 6.75
#iterations: 561
currently lose_sum: 0.6653940081596375
time_elpased: 7.016
#iterations: 562
currently lose_sum: 0.648735761642456
time_elpased: 7.87
#iterations: 563
currently lose_sum: 0.64705491065979
time_elpased: 6.822
#iterations: 564
currently lose_sum: 0.5937627553939819
time_elpased: 6.788
#iterations: 565
currently lose_sum: 0.6903266906738281
time_elpased: 6.818
#iterations: 566
currently lose_sum: 0.6692133545875549
time_elpased: 6.991
#iterations: 567
currently lose_sum: 0.5935576558113098
time_elpased: 6.886
#iterations: 568
currently lose_sum: 0.6108648777008057
time_elpased: 6.976
#iterations: 569
currently lose_sum: 0.6310878992080688
time_elpased: 7.408
#iterations: 570
currently lose_sum: 0.6277613639831543
time_elpased: 6.974
#iterations: 571
currently lose_sum: 0.6776158213615417
time_elpased: 6.712
#iterations: 572
currently lose_sum: 0.690381646156311
time_elpased: 6.863
#iterations: 573
currently lose_sum: 0.6183379888534546
time_elpased: 6.751
#iterations: 574
currently lose_sum: 0.6947994828224182
time_elpased: 6.646
#iterations: 575
currently lose_sum: 0.6637405157089233
time_elpased: 6.839
#iterations: 576
currently lose_sum: 0.6278176307678223
time_elpased: 6.93
#iterations: 577
currently lose_sum: 0.6964104175567627
time_elpased: 6.94
#iterations: 578
currently lose_sum: 0.6505287289619446
time_elpased: 6.876
#iterations: 579
currently lose_sum: 0.6349917650222778
time_elpased: 7.504
start validation test
0.5744
0.566929133858
0.681388012618
0.618911174785
0.572836863452
16.593
#iterations: 580
currently lose_sum: 0.676243007183075
time_elpased: 7.607
#iterations: 581
currently lose_sum: 0.6099686622619629
time_elpased: 7.671
#iterations: 582
currently lose_sum: 0.6334787607192993
time_elpased: 7.076
#iterations: 583
currently lose_sum: 0.5929582118988037
time_elpased: 6.906
#iterations: 584
currently lose_sum: 0.6710321307182312
time_elpased: 7.143
#iterations: 585
currently lose_sum: 0.6175094246864319
time_elpased: 6.917
#iterations: 586
currently lose_sum: 0.6276073455810547
time_elpased: 7.203
#iterations: 587
currently lose_sum: 0.6560416221618652
time_elpased: 7.23
#iterations: 588
currently lose_sum: 0.6612907648086548
time_elpased: 6.889
#iterations: 589
currently lose_sum: 0.7094932794570923
time_elpased: 6.918
#iterations: 590
currently lose_sum: 0.6332364678382874
time_elpased: 6.935
#iterations: 591
currently lose_sum: 0.6426811814308167
time_elpased: 8.125
#iterations: 592
currently lose_sum: 0.5608898401260376
time_elpased: 7.371
#iterations: 593
currently lose_sum: 0.6170201301574707
time_elpased: 7.175
#iterations: 594
currently lose_sum: 0.6534221172332764
time_elpased: 7.083
#iterations: 595
currently lose_sum: 0.5954042077064514
time_elpased: 7.241
#iterations: 596
currently lose_sum: 0.6159035563468933
time_elpased: 8.04
#iterations: 597
currently lose_sum: 0.6524998545646667
time_elpased: 7.084
#iterations: 598
currently lose_sum: 0.6679230332374573
time_elpased: 7.372
#iterations: 599
currently lose_sum: 0.6403770446777344
time_elpased: 7.674
start validation test
0.5792
0.575104311544
0.652208201893
0.611234294161
0.578133321726
16.554
acc: 0.573
pre: 0.582
rec: 0.556
F1: 0.569
auc: 0.573
