start to construct computing graph
graph construct over
3803
epochs start
#iterations: 0
currently lose_sum: 0.6969204545021057
time_elpased: 11.812
#iterations: 1
currently lose_sum: 0.6956356167793274
time_elpased: 11.661
#iterations: 2
currently lose_sum: 0.7569448947906494
time_elpased: 11.487
#iterations: 3
currently lose_sum: 0.6874392032623291
time_elpased: 11.679
#iterations: 4
currently lose_sum: 0.6860463619232178
time_elpased: 11.784
#iterations: 5
currently lose_sum: 0.6947402954101562
time_elpased: 11.595
#iterations: 6
currently lose_sum: 0.6926482319831848
time_elpased: 11.755
#iterations: 7
currently lose_sum: 0.7122461795806885
time_elpased: 11.741
#iterations: 8
currently lose_sum: 0.6856353878974915
time_elpased: 11.868
#iterations: 9
currently lose_sum: 0.7019718885421753
time_elpased: 11.747
#iterations: 10
currently lose_sum: 0.6936482191085815
time_elpased: 11.561
#iterations: 11
currently lose_sum: 0.704647958278656
time_elpased: 11.658
#iterations: 12
currently lose_sum: 0.6876084208488464
time_elpased: 12.026
#iterations: 13
currently lose_sum: 0.6729389429092407
time_elpased: 11.392
#iterations: 14
currently lose_sum: 0.7264938354492188
time_elpased: 11.699
#iterations: 15
currently lose_sum: 0.6955931186676025
time_elpased: 11.891
#iterations: 16
currently lose_sum: 0.6991426348686218
time_elpased: 11.504
#iterations: 17
currently lose_sum: 0.6752404570579529
time_elpased: 12.586
#iterations: 18
currently lose_sum: 0.7083451747894287
time_elpased: 11.391
#iterations: 19
currently lose_sum: 0.691260814666748
time_elpased: 11.479
start validation test
0.5328
0.561338289963
0.357537490134
0.436837029894
0.535216433632
17.292
#iterations: 20
currently lose_sum: 0.6783027648925781
time_elpased: 10.41
#iterations: 21
currently lose_sum: 0.686613142490387
time_elpased: 10.051
#iterations: 22
currently lose_sum: 0.6975230574607849
time_elpased: 10.82
#iterations: 23
currently lose_sum: 0.6726118326187134
time_elpased: 10.083
#iterations: 24
currently lose_sum: 0.6902501583099365
time_elpased: 10.026
#iterations: 25
currently lose_sum: 0.6822943687438965
time_elpased: 10.574
#iterations: 26
currently lose_sum: 0.6884394288063049
time_elpased: 10.45
#iterations: 27
currently lose_sum: 0.6893143653869629
time_elpased: 10.058
#iterations: 28
currently lose_sum: 0.688228964805603
time_elpased: 10.166
#iterations: 29
currently lose_sum: 0.6978440880775452
time_elpased: 9.932
#iterations: 30
currently lose_sum: 0.6959602236747742
time_elpased: 10.099
#iterations: 31
currently lose_sum: 0.6828994154930115
time_elpased: 10.077
#iterations: 32
currently lose_sum: 0.6793084740638733
time_elpased: 10.018
#iterations: 33
currently lose_sum: 0.6921467781066895
time_elpased: 9.717
#iterations: 34
currently lose_sum: 0.6769024729728699
time_elpased: 10.158
#iterations: 35
currently lose_sum: 0.6662892699241638
time_elpased: 10.407
#iterations: 36
currently lose_sum: 0.6859004497528076
time_elpased: 9.911
#iterations: 37
currently lose_sum: 0.6854232549667358
time_elpased: 10.255
#iterations: 38
currently lose_sum: 0.6693353056907654
time_elpased: 10.302
#iterations: 39
currently lose_sum: 0.6998672485351562
time_elpased: 10.519
start validation test
0.554
0.568345323741
0.498816101026
0.531315678857
0.554760848567
17.042
#iterations: 40
currently lose_sum: 0.6912684440612793
time_elpased: 10.478
#iterations: 41
currently lose_sum: 0.6835932731628418
time_elpased: 10.127
#iterations: 42
currently lose_sum: 0.6705778241157532
time_elpased: 10.287
#iterations: 43
currently lose_sum: 0.6858386397361755
time_elpased: 10.983
#iterations: 44
currently lose_sum: 0.6564119458198547
time_elpased: 10.9
#iterations: 45
currently lose_sum: 0.6850792169570923
time_elpased: 10.324
#iterations: 46
currently lose_sum: 0.6842378377914429
time_elpased: 10.209
#iterations: 47
currently lose_sum: 0.6988120079040527
time_elpased: 10.44
#iterations: 48
currently lose_sum: 0.7105165719985962
time_elpased: 10.403
#iterations: 49
currently lose_sum: 0.6891661882400513
time_elpased: 10.056
#iterations: 50
currently lose_sum: 0.6889781355857849
time_elpased: 10.296
#iterations: 51
currently lose_sum: 0.6518162488937378
time_elpased: 10.405
#iterations: 52
currently lose_sum: 0.6738526225090027
time_elpased: 10.498
#iterations: 53
currently lose_sum: 0.6736395359039307
time_elpased: 10.195
#iterations: 54
currently lose_sum: 0.6890611052513123
time_elpased: 10.322
#iterations: 55
currently lose_sum: 0.6601265072822571
time_elpased: 9.779
#iterations: 56
currently lose_sum: 0.6957200765609741
time_elpased: 7.18
#iterations: 57
currently lose_sum: 0.6743829846382141
time_elpased: 8.188
#iterations: 58
currently lose_sum: 0.6882684230804443
time_elpased: 9.707
#iterations: 59
currently lose_sum: 0.683247983455658
time_elpased: 10.007
start validation test
0.5508
0.541763341067
0.737174427782
0.624540287529
0.548230360688
17.070
#iterations: 60
currently lose_sum: 0.68511563539505
time_elpased: 10.125
#iterations: 61
currently lose_sum: 0.7360733151435852
time_elpased: 9.96
#iterations: 62
currently lose_sum: 0.6838372945785522
time_elpased: 10.313
#iterations: 63
currently lose_sum: 0.7038343548774719
time_elpased: 9.886
#iterations: 64
currently lose_sum: 0.6832959651947021
time_elpased: 9.895
#iterations: 65
currently lose_sum: 0.6606019735336304
time_elpased: 9.77
#iterations: 66
currently lose_sum: 0.7071676850318909
time_elpased: 9.912
#iterations: 67
currently lose_sum: 0.665117084980011
time_elpased: 9.819
#iterations: 68
currently lose_sum: 0.690782368183136
time_elpased: 10.156
#iterations: 69
currently lose_sum: 0.6790867447853088
time_elpased: 9.952
#iterations: 70
currently lose_sum: 0.6887544989585876
time_elpased: 9.552
#iterations: 71
currently lose_sum: 0.6830379962921143
time_elpased: 10.121
#iterations: 72
currently lose_sum: 0.6391898989677429
time_elpased: 9.814
#iterations: 73
currently lose_sum: 0.6805403232574463
time_elpased: 9.649
#iterations: 74
currently lose_sum: 0.717784583568573
time_elpased: 9.966
#iterations: 75
currently lose_sum: 0.697578489780426
time_elpased: 10.468
#iterations: 76
currently lose_sum: 0.674582839012146
time_elpased: 9.922
#iterations: 77
currently lose_sum: 0.6607121229171753
time_elpased: 10.073
#iterations: 78
currently lose_sum: 0.6582172513008118
time_elpased: 9.877
#iterations: 79
currently lose_sum: 0.6504025459289551
time_elpased: 10.833
start validation test
0.5448
0.538692261548
0.708760852407
0.612133605999
0.542539388085
17.060
#iterations: 80
currently lose_sum: 0.6628602743148804
time_elpased: 10.338
#iterations: 81
currently lose_sum: 0.6577513217926025
time_elpased: 11.231
#iterations: 82
currently lose_sum: 0.6709581613540649
time_elpased: 10.342
#iterations: 83
currently lose_sum: 0.6741086840629578
time_elpased: 10.424
#iterations: 84
currently lose_sum: 0.7047839164733887
time_elpased: 9.983
#iterations: 85
currently lose_sum: 0.6928120255470276
time_elpased: 10.261
#iterations: 86
currently lose_sum: 0.6589769124984741
time_elpased: 10.167
#iterations: 87
currently lose_sum: 0.6507620215415955
time_elpased: 10.091
#iterations: 88
currently lose_sum: 0.6827820539474487
time_elpased: 9.818
#iterations: 89
currently lose_sum: 0.6552187204360962
time_elpased: 10.201
#iterations: 90
currently lose_sum: 0.681868314743042
time_elpased: 10.111
#iterations: 91
currently lose_sum: 0.6753779053688049
time_elpased: 10.227
#iterations: 92
currently lose_sum: 0.6886053681373596
time_elpased: 10.304
#iterations: 93
currently lose_sum: 0.6776243448257446
time_elpased: 10.151
#iterations: 94
currently lose_sum: 0.6836725473403931
time_elpased: 11.24
#iterations: 95
currently lose_sum: 0.654411792755127
time_elpased: 10.148
#iterations: 96
currently lose_sum: 0.6973397135734558
time_elpased: 10.319
#iterations: 97
currently lose_sum: 0.6880229115486145
time_elpased: 9.963
#iterations: 98
currently lose_sum: 0.6483612060546875
time_elpased: 10.377
#iterations: 99
currently lose_sum: 0.7057846784591675
time_elpased: 10.481
start validation test
0.5468
0.539880952381
0.715864246251
0.615541228368
0.544469024991
16.988
#iterations: 100
currently lose_sum: 0.6850748658180237
time_elpased: 10.146
#iterations: 101
currently lose_sum: 0.6637722849845886
time_elpased: 10.085
#iterations: 102
currently lose_sum: 0.690936267375946
time_elpased: 10.179
#iterations: 103
currently lose_sum: 0.6801574230194092
time_elpased: 10.126
#iterations: 104
currently lose_sum: 0.6690967082977295
time_elpased: 10.288
#iterations: 105
currently lose_sum: 0.6649416089057922
time_elpased: 9.965
#iterations: 106
currently lose_sum: 0.6588801741600037
time_elpased: 10.296
#iterations: 107
currently lose_sum: 0.6880517601966858
time_elpased: 10.008
#iterations: 108
currently lose_sum: 0.6682559251785278
time_elpased: 10.079
#iterations: 109
currently lose_sum: 0.6851248145103455
time_elpased: 10.46
#iterations: 110
currently lose_sum: 0.6983073353767395
time_elpased: 10.03
#iterations: 111
currently lose_sum: 0.6764417886734009
time_elpased: 10.139
#iterations: 112
currently lose_sum: 0.6787684559822083
time_elpased: 10.516
#iterations: 113
currently lose_sum: 0.6775785088539124
time_elpased: 10.281
#iterations: 114
currently lose_sum: 0.666495144367218
time_elpased: 10.593
#iterations: 115
currently lose_sum: 0.6664292812347412
time_elpased: 10.243
#iterations: 116
currently lose_sum: 0.6965909600257874
time_elpased: 11.053
#iterations: 117
currently lose_sum: 0.6639175415039062
time_elpased: 11.459
#iterations: 118
currently lose_sum: 0.6780157685279846
time_elpased: 10.381
#iterations: 119
currently lose_sum: 0.6636801362037659
time_elpased: 11.279
start validation test
0.5572
0.622324159021
0.321231254933
0.423737636648
0.560453421465
17.082
#iterations: 120
currently lose_sum: 0.648668646812439
time_elpased: 10.138
#iterations: 121
currently lose_sum: 0.6882588863372803
time_elpased: 10.286
#iterations: 122
currently lose_sum: 0.6546232104301453
time_elpased: 10.053
#iterations: 123
currently lose_sum: 0.6558878421783447
time_elpased: 10.975
#iterations: 124
currently lose_sum: 0.6975473165512085
time_elpased: 10.151
#iterations: 125
currently lose_sum: 0.6599932909011841
time_elpased: 10.073
#iterations: 126
currently lose_sum: 0.6613726615905762
time_elpased: 10.499
#iterations: 127
currently lose_sum: 0.6359599828720093
time_elpased: 10.166
#iterations: 128
currently lose_sum: 0.6900688409805298
time_elpased: 10.236
#iterations: 129
currently lose_sum: 0.6586454510688782
time_elpased: 10.304
#iterations: 130
currently lose_sum: 0.6631489396095276
time_elpased: 10.171
#iterations: 131
currently lose_sum: 0.7000995874404907
time_elpased: 9.821
#iterations: 132
currently lose_sum: 0.6289480328559875
time_elpased: 10.372
#iterations: 133
currently lose_sum: 0.6539855003356934
time_elpased: 10.438
#iterations: 134
currently lose_sum: 0.7067961096763611
time_elpased: 10.454
#iterations: 135
currently lose_sum: 0.662443995475769
time_elpased: 10.317
#iterations: 136
currently lose_sum: 0.6725785732269287
time_elpased: 10.159
#iterations: 137
currently lose_sum: 0.6822506785392761
time_elpased: 10.063
#iterations: 138
currently lose_sum: 0.6778542995452881
time_elpased: 10.625
#iterations: 139
currently lose_sum: 0.676154375076294
time_elpased: 10.015
start validation test
0.5384
0.632318501171
0.213101815312
0.318772136954
0.542885052019
17.202
#iterations: 140
currently lose_sum: 0.6841554045677185
time_elpased: 10.208
#iterations: 141
currently lose_sum: 0.7296804785728455
time_elpased: 10.538
#iterations: 142
currently lose_sum: 0.7212457060813904
time_elpased: 10.109
#iterations: 143
currently lose_sum: 0.6811488270759583
time_elpased: 10.063
#iterations: 144
currently lose_sum: 0.6783950328826904
time_elpased: 10.405
#iterations: 145
currently lose_sum: 0.6636604070663452
time_elpased: 10.12
#iterations: 146
currently lose_sum: 0.6929646134376526
time_elpased: 10.172
#iterations: 147
currently lose_sum: 0.6521306037902832
time_elpased: 10.135
#iterations: 148
currently lose_sum: 0.6530870199203491
time_elpased: 10.32
#iterations: 149
currently lose_sum: 0.6651028394699097
time_elpased: 10.124
#iterations: 150
currently lose_sum: 0.6535688042640686
time_elpased: 11.02
#iterations: 151
currently lose_sum: 0.6850639581680298
time_elpased: 10.153
#iterations: 152
currently lose_sum: 0.6496562957763672
time_elpased: 9.935
#iterations: 153
currently lose_sum: 0.7027732729911804
time_elpased: 10.476
#iterations: 154
currently lose_sum: 0.6670634746551514
time_elpased: 10.586
#iterations: 155
currently lose_sum: 0.6545974612236023
time_elpased: 10.308
#iterations: 156
currently lose_sum: 0.6682671904563904
time_elpased: 10.445
#iterations: 157
currently lose_sum: 0.6492571830749512
time_elpased: 10.212
#iterations: 158
currently lose_sum: 0.6835087537765503
time_elpased: 9.841
#iterations: 159
currently lose_sum: 0.6339461803436279
time_elpased: 10.257
start validation test
0.566
0.575082508251
0.550118389897
0.562323517547
0.56621896786
16.855
#iterations: 160
currently lose_sum: 0.6601389050483704
time_elpased: 10.155
#iterations: 161
currently lose_sum: 0.6169596314430237
time_elpased: 10.826
#iterations: 162
currently lose_sum: 0.6590887308120728
time_elpased: 9.812
#iterations: 163
currently lose_sum: 0.675646960735321
time_elpased: 10.241
#iterations: 164
currently lose_sum: 0.6863021850585938
time_elpased: 10.338
#iterations: 165
currently lose_sum: 0.7087274789810181
time_elpased: 10.946
#iterations: 166
currently lose_sum: 0.6629917025566101
time_elpased: 10.623
#iterations: 167
currently lose_sum: 0.6874703168869019
time_elpased: 10.374
#iterations: 168
currently lose_sum: 0.6787689328193665
time_elpased: 10.157
#iterations: 169
currently lose_sum: 0.7045185565948486
time_elpased: 10.754
#iterations: 170
currently lose_sum: 0.6683335304260254
time_elpased: 10.246
#iterations: 171
currently lose_sum: 0.6557772755622864
time_elpased: 10.759
#iterations: 172
currently lose_sum: 0.6610807776451111
time_elpased: 10.196
#iterations: 173
currently lose_sum: 0.6701457500457764
time_elpased: 10.184
#iterations: 174
currently lose_sum: 0.6737055778503418
time_elpased: 10.021
#iterations: 175
currently lose_sum: 0.649567723274231
time_elpased: 10.248
#iterations: 176
currently lose_sum: 0.6330863833427429
time_elpased: 10.349
#iterations: 177
currently lose_sum: 0.7075563669204712
time_elpased: 10.356
#iterations: 178
currently lose_sum: 0.6744769215583801
time_elpased: 10.247
#iterations: 179
currently lose_sum: 0.6893812417984009
time_elpased: 10.376
start validation test
0.5372
0.652777777778
0.185477505919
0.288875230486
0.542049377453
17.415
#iterations: 180
currently lose_sum: 0.7043761610984802
time_elpased: 10.316
#iterations: 181
currently lose_sum: 0.6913356184959412
time_elpased: 10.149
#iterations: 182
currently lose_sum: 0.6632127165794373
time_elpased: 12.417
#iterations: 183
currently lose_sum: 0.7090661525726318
time_elpased: 10.612
#iterations: 184
currently lose_sum: 0.6854865550994873
time_elpased: 10.228
#iterations: 185
currently lose_sum: 0.663291335105896
time_elpased: 10.057
#iterations: 186
currently lose_sum: 0.6739192008972168
time_elpased: 10.343
#iterations: 187
currently lose_sum: 0.7014620900154114
time_elpased: 10.225
#iterations: 188
currently lose_sum: 0.6594482660293579
time_elpased: 10.333
#iterations: 189
currently lose_sum: 0.6673269867897034
time_elpased: 10.674
#iterations: 190
currently lose_sum: 0.6708526015281677
time_elpased: 10.36
#iterations: 191
currently lose_sum: 0.6639500260353088
time_elpased: 10.289
#iterations: 192
currently lose_sum: 0.6590442061424255
time_elpased: 10.545
#iterations: 193
currently lose_sum: 0.672431468963623
time_elpased: 10.273
#iterations: 194
currently lose_sum: 0.6992994546890259
time_elpased: 10.387
#iterations: 195
currently lose_sum: 0.6769784688949585
time_elpased: 10.313
#iterations: 196
currently lose_sum: 0.6922741532325745
time_elpased: 10.711
#iterations: 197
currently lose_sum: 0.672213613986969
time_elpased: 10.536
#iterations: 198
currently lose_sum: 0.689658522605896
time_elpased: 10.804
#iterations: 199
currently lose_sum: 0.6494146585464478
time_elpased: 10.302
start validation test
0.5744
0.580619539317
0.576953433307
0.578780680918
0.574364794512
16.858
#iterations: 200
currently lose_sum: 0.67108154296875
time_elpased: 10.348
#iterations: 201
currently lose_sum: 0.6804130673408508
time_elpased: 10.764
#iterations: 202
currently lose_sum: 0.6411435008049011
time_elpased: 10.202
#iterations: 203
currently lose_sum: 0.7301403880119324
time_elpased: 10.461
#iterations: 204
currently lose_sum: 0.682793140411377
time_elpased: 10.043
#iterations: 205
currently lose_sum: 0.6845149397850037
time_elpased: 9.953
#iterations: 206
currently lose_sum: 0.6599926948547363
time_elpased: 10.164
#iterations: 207
currently lose_sum: 0.7123385071754456
time_elpased: 10.162
#iterations: 208
currently lose_sum: 0.6808121204376221
time_elpased: 10.555
#iterations: 209
currently lose_sum: 0.7109881639480591
time_elpased: 10.925
#iterations: 210
currently lose_sum: 0.662280261516571
time_elpased: 10.223
#iterations: 211
currently lose_sum: 0.6738914251327515
time_elpased: 10.409
#iterations: 212
currently lose_sum: 0.6797229051589966
time_elpased: 10.099
#iterations: 213
currently lose_sum: 0.6810542345046997
time_elpased: 10.458
#iterations: 214
currently lose_sum: 0.638771653175354
time_elpased: 9.977
#iterations: 215
currently lose_sum: 0.6918894052505493
time_elpased: 10.223
#iterations: 216
currently lose_sum: 0.6534044146537781
time_elpased: 10.263
#iterations: 217
currently lose_sum: 0.6856588125228882
time_elpased: 10.502
#iterations: 218
currently lose_sum: 0.6516513228416443
time_elpased: 10.356
#iterations: 219
currently lose_sum: 0.6613214015960693
time_elpased: 10.653
start validation test
0.5744
0.567174056916
0.676400947119
0.616990640749
0.572993660908
16.838
#iterations: 220
currently lose_sum: 0.6915388703346252
time_elpased: 10.731
#iterations: 221
currently lose_sum: 0.6884536743164062
time_elpased: 9.847
#iterations: 222
currently lose_sum: 0.6483513712882996
time_elpased: 10.388
#iterations: 223
currently lose_sum: 0.6577633619308472
time_elpased: 10.383
#iterations: 224
currently lose_sum: 0.653655469417572
time_elpased: 10.665
#iterations: 225
currently lose_sum: 0.6891299486160278
time_elpased: 10.257
#iterations: 226
currently lose_sum: 0.688475489616394
time_elpased: 10.221
#iterations: 227
currently lose_sum: 0.6856143474578857
time_elpased: 10.2
#iterations: 228
currently lose_sum: 0.6737632751464844
time_elpased: 10.515
#iterations: 229
currently lose_sum: 0.6384457945823669
time_elpased: 10.163
#iterations: 230
currently lose_sum: 0.6631535291671753
time_elpased: 10.451
#iterations: 231
currently lose_sum: 0.6263364553451538
time_elpased: 10.539
#iterations: 232
currently lose_sum: 0.6708701848983765
time_elpased: 10.862
#iterations: 233
currently lose_sum: 0.6396429538726807
time_elpased: 10.449
#iterations: 234
currently lose_sum: 0.6484847068786621
time_elpased: 10.188
#iterations: 235
currently lose_sum: 0.6936135292053223
time_elpased: 11.04
#iterations: 236
currently lose_sum: 0.696251392364502
time_elpased: 10.232
#iterations: 237
currently lose_sum: 0.6518284678459167
time_elpased: 10.221
#iterations: 238
currently lose_sum: 0.646401584148407
time_elpased: 10.335
#iterations: 239
currently lose_sum: 0.6473543047904968
time_elpased: 10.83
start validation test
0.5652
0.605386416862
0.408050513023
0.487505893446
0.567366700145
16.964
#iterations: 240
currently lose_sum: 0.6924450397491455
time_elpased: 10.098
#iterations: 241
currently lose_sum: 0.6293759942054749
time_elpased: 10.186
#iterations: 242
currently lose_sum: 0.6984677910804749
time_elpased: 10.096
#iterations: 243
currently lose_sum: 0.6935716271400452
time_elpased: 10.125
#iterations: 244
currently lose_sum: 0.6644420027732849
time_elpased: 10.125
#iterations: 245
currently lose_sum: 0.6488707065582275
time_elpased: 10.335
#iterations: 246
currently lose_sum: 0.6925442218780518
time_elpased: 10.02
#iterations: 247
currently lose_sum: 0.6846315264701843
time_elpased: 10.15
#iterations: 248
currently lose_sum: 0.690833568572998
time_elpased: 10.164
#iterations: 249
currently lose_sum: 0.726015031337738
time_elpased: 10.16
#iterations: 250
currently lose_sum: 0.6582671999931335
time_elpased: 10.185
#iterations: 251
currently lose_sum: 0.663015604019165
time_elpased: 9.641
#iterations: 252
currently lose_sum: 0.6511356830596924
time_elpased: 10.206
#iterations: 253
currently lose_sum: 0.6786488890647888
time_elpased: 9.914
#iterations: 254
currently lose_sum: 0.6255789399147034
time_elpased: 10.624
#iterations: 255
currently lose_sum: 0.6869018077850342
time_elpased: 10.578
#iterations: 256
currently lose_sum: 0.65708327293396
time_elpased: 10.498
#iterations: 257
currently lose_sum: 0.6658169031143188
time_elpased: 10.024
#iterations: 258
currently lose_sum: 0.6524707078933716
time_elpased: 10.775
#iterations: 259
currently lose_sum: 0.6792271137237549
time_elpased: 10.252
start validation test
0.558
0.621621621622
0.326756116811
0.428349715468
0.561188277384
17.035
#iterations: 260
currently lose_sum: 0.6553278565406799
time_elpased: 10.578
#iterations: 261
currently lose_sum: 0.6657428741455078
time_elpased: 11.271
#iterations: 262
currently lose_sum: 0.6989890933036804
time_elpased: 10.222
#iterations: 263
currently lose_sum: 0.661827564239502
time_elpased: 10.204
#iterations: 264
currently lose_sum: 0.6718782186508179
time_elpased: 10.195
#iterations: 265
currently lose_sum: 0.6876586675643921
time_elpased: 9.758
#iterations: 266
currently lose_sum: 0.638766884803772
time_elpased: 10.601
#iterations: 267
currently lose_sum: 0.6549850702285767
time_elpased: 10.116
#iterations: 268
currently lose_sum: 0.67303866147995
time_elpased: 10.35
#iterations: 269
currently lose_sum: 0.6527764797210693
time_elpased: 10.247
#iterations: 270
currently lose_sum: 0.6588332653045654
time_elpased: 10.437
#iterations: 271
currently lose_sum: 0.6485053896903992
time_elpased: 10.246
#iterations: 272
currently lose_sum: 0.6873928904533386
time_elpased: 10.151
#iterations: 273
currently lose_sum: 0.683616042137146
time_elpased: 10.435
#iterations: 274
currently lose_sum: 0.6394455432891846
time_elpased: 10.391
#iterations: 275
currently lose_sum: 0.712157130241394
time_elpased: 10.606
#iterations: 276
currently lose_sum: 0.6610856652259827
time_elpased: 10.215
#iterations: 277
currently lose_sum: 0.6804060339927673
time_elpased: 10.523
#iterations: 278
currently lose_sum: 0.6365253925323486
time_elpased: 10.356
#iterations: 279
currently lose_sum: 0.6496317982673645
time_elpased: 10.243
start validation test
0.574
0.559763313609
0.746645619574
0.639837673318
0.57161964677
16.798
#iterations: 280
currently lose_sum: 0.678953230381012
time_elpased: 10.013
#iterations: 281
currently lose_sum: 0.711728036403656
time_elpased: 10.324
#iterations: 282
currently lose_sum: 0.6532677412033081
time_elpased: 11.456
#iterations: 283
currently lose_sum: 0.6516445875167847
time_elpased: 10.166
#iterations: 284
currently lose_sum: 0.6255251169204712
time_elpased: 10.167
#iterations: 285
currently lose_sum: 0.6468150615692139
time_elpased: 10.318
#iterations: 286
currently lose_sum: 0.6761480569839478
time_elpased: 9.89
#iterations: 287
currently lose_sum: 0.6524072885513306
time_elpased: 10.13
#iterations: 288
currently lose_sum: 0.6733795404434204
time_elpased: 11.636
#iterations: 289
currently lose_sum: 0.6527053117752075
time_elpased: 10.213
#iterations: 290
currently lose_sum: 0.6464097499847412
time_elpased: 10.239
#iterations: 291
currently lose_sum: 0.6221863031387329
time_elpased: 10.303
#iterations: 292
currently lose_sum: 0.6417012810707092
time_elpased: 10.37
#iterations: 293
currently lose_sum: 0.7269744873046875
time_elpased: 10.564
#iterations: 294
currently lose_sum: 0.6547492742538452
time_elpased: 10.495
#iterations: 295
currently lose_sum: 0.6251869797706604
time_elpased: 10.211
#iterations: 296
currently lose_sum: 0.6398284435272217
time_elpased: 9.435
#iterations: 297
currently lose_sum: 0.6444778442382812
time_elpased: 10.552
#iterations: 298
currently lose_sum: 0.6303301453590393
time_elpased: 10.287
#iterations: 299
currently lose_sum: 0.6478663682937622
time_elpased: 10.108
start validation test
0.562
0.54540654699
0.815311760063
0.653590635875
0.55850746154
16.857
#iterations: 300
currently lose_sum: 0.630808413028717
time_elpased: 10.426
#iterations: 301
currently lose_sum: 0.6686460971832275
time_elpased: 11.065
#iterations: 302
currently lose_sum: 0.6668951511383057
time_elpased: 9.879
#iterations: 303
currently lose_sum: 0.6661842465400696
time_elpased: 10.155
#iterations: 304
currently lose_sum: 0.6769601702690125
time_elpased: 9.948
#iterations: 305
currently lose_sum: 0.6928141713142395
time_elpased: 10.688
#iterations: 306
currently lose_sum: 0.642744243144989
time_elpased: 9.714
#iterations: 307
currently lose_sum: 0.637976884841919
time_elpased: 10.17
#iterations: 308
currently lose_sum: 0.6679023504257202
time_elpased: 10.605
#iterations: 309
currently lose_sum: 0.6505047082901001
time_elpased: 10.191
#iterations: 310
currently lose_sum: 0.6354326605796814
time_elpased: 10.889
#iterations: 311
currently lose_sum: 0.6234700083732605
time_elpased: 10.127
#iterations: 312
currently lose_sum: 0.6611878871917725
time_elpased: 10.715
#iterations: 313
currently lose_sum: 0.688292384147644
time_elpased: 10.161
#iterations: 314
currently lose_sum: 0.6740365028381348
time_elpased: 10.667
#iterations: 315
currently lose_sum: 0.6778175234794617
time_elpased: 10.82
#iterations: 316
currently lose_sum: 0.6908741593360901
time_elpased: 10.25
#iterations: 317
currently lose_sum: 0.6578981876373291
time_elpased: 10.534
#iterations: 318
currently lose_sum: 0.6623536944389343
time_elpased: 9.978
#iterations: 319
currently lose_sum: 0.6550330519676208
time_elpased: 10.16
start validation test
0.5852
0.585949177877
0.618784530387
0.601919385797
0.584736952947
16.765
#iterations: 320
currently lose_sum: 0.6835949420928955
time_elpased: 11.537
#iterations: 321
currently lose_sum: 0.66590416431427
time_elpased: 10.166
#iterations: 322
currently lose_sum: 0.668772280216217
time_elpased: 10.456
#iterations: 323
currently lose_sum: 0.6684870719909668
time_elpased: 10.553
#iterations: 324
currently lose_sum: 0.6434445977210999
time_elpased: 10.451
#iterations: 325
currently lose_sum: 0.6438496112823486
time_elpased: 10.204
#iterations: 326
currently lose_sum: 0.6684788465499878
time_elpased: 10.288
#iterations: 327
currently lose_sum: 0.6278526186943054
time_elpased: 10.642
#iterations: 328
currently lose_sum: 0.63373202085495
time_elpased: 10.911
#iterations: 329
currently lose_sum: 0.7096892595291138
time_elpased: 11.358
#iterations: 330
currently lose_sum: 0.6801814436912537
time_elpased: 10.379
#iterations: 331
currently lose_sum: 0.6812589764595032
time_elpased: 10.425
#iterations: 332
currently lose_sum: 0.6321046948432922
time_elpased: 9.943
#iterations: 333
currently lose_sum: 0.6427887082099915
time_elpased: 10.261
#iterations: 334
currently lose_sum: 0.6165066361427307
time_elpased: 10.531
#iterations: 335
currently lose_sum: 0.6431565880775452
time_elpased: 9.992
#iterations: 336
currently lose_sum: 0.6665173172950745
time_elpased: 10.285
#iterations: 337
currently lose_sum: 0.6349518299102783
time_elpased: 10.551
#iterations: 338
currently lose_sum: 0.6438782215118408
time_elpased: 10.177
#iterations: 339
currently lose_sum: 0.6563639044761658
time_elpased: 10.876
start validation test
0.576
0.615384615385
0.435674822415
0.510166358595
0.577934734809
16.924
#iterations: 340
currently lose_sum: 0.6376309394836426
time_elpased: 10.125
#iterations: 341
currently lose_sum: 0.6297352313995361
time_elpased: 10.235
#iterations: 342
currently lose_sum: 0.6423556804656982
time_elpased: 9.751
#iterations: 343
currently lose_sum: 0.6544458270072937
time_elpased: 10.085
#iterations: 344
currently lose_sum: 0.6428543329238892
time_elpased: 10.257
#iterations: 345
currently lose_sum: 0.6807993054389954
time_elpased: 10.538
#iterations: 346
currently lose_sum: 0.6713122725486755
time_elpased: 10.525
#iterations: 347
currently lose_sum: 0.660958468914032
time_elpased: 10.672
#iterations: 348
currently lose_sum: 0.6290157437324524
time_elpased: 10.265
#iterations: 349
currently lose_sum: 0.6443111300468445
time_elpased: 9.969
#iterations: 350
currently lose_sum: 0.6363656520843506
time_elpased: 10.242
#iterations: 351
currently lose_sum: 0.6390345096588135
time_elpased: 10.206
#iterations: 352
currently lose_sum: 0.635509192943573
time_elpased: 10.171
#iterations: 353
currently lose_sum: 0.6450852155685425
time_elpased: 10.634
#iterations: 354
currently lose_sum: 0.6550190448760986
time_elpased: 10.166
#iterations: 355
currently lose_sum: 0.6372615098953247
time_elpased: 10.24
#iterations: 356
currently lose_sum: 0.6389052867889404
time_elpased: 10.353
#iterations: 357
currently lose_sum: 0.6591745018959045
time_elpased: 10.21
#iterations: 358
currently lose_sum: 0.6664623022079468
time_elpased: 10.215
#iterations: 359
currently lose_sum: 0.6689035296440125
time_elpased: 10.011
start validation test
0.5832
0.595419847328
0.554064719811
0.573998364677
0.583601702971
16.745
#iterations: 360
currently lose_sum: 0.6882525086402893
time_elpased: 10.428
#iterations: 361
currently lose_sum: 0.6635041832923889
time_elpased: 11.017
#iterations: 362
currently lose_sum: 0.6405490636825562
time_elpased: 10.311
#iterations: 363
currently lose_sum: 0.6469413638114929
time_elpased: 10.213
#iterations: 364
currently lose_sum: 0.6271248459815979
time_elpased: 10.24
#iterations: 365
currently lose_sum: 0.6544381976127625
time_elpased: 10.38
#iterations: 366
currently lose_sum: 0.6478403210639954
time_elpased: 10.154
#iterations: 367
currently lose_sum: 0.6356282830238342
time_elpased: 10.221
#iterations: 368
currently lose_sum: 0.6609299182891846
time_elpased: 9.546
#iterations: 369
currently lose_sum: 0.6443881392478943
time_elpased: 10.177
#iterations: 370
currently lose_sum: 0.6793875098228455
time_elpased: 11.044
#iterations: 371
currently lose_sum: 0.6652470231056213
time_elpased: 10.179
#iterations: 372
currently lose_sum: 0.6135596632957458
time_elpased: 10.137
#iterations: 373
currently lose_sum: 0.6596502065658569
time_elpased: 10.125
#iterations: 374
currently lose_sum: 0.6749128103256226
time_elpased: 10.94
#iterations: 375
currently lose_sum: 0.6681725978851318
time_elpased: 10.434
#iterations: 376
currently lose_sum: 0.6647560596466064
time_elpased: 10.302
#iterations: 377
currently lose_sum: 0.7059848308563232
time_elpased: 9.702
#iterations: 378
currently lose_sum: 0.6577799320220947
time_elpased: 10.175
#iterations: 379
currently lose_sum: 0.6304738521575928
time_elpased: 11.17
start validation test
0.5656
0.55019412091
0.782951854775
0.646254071661
0.562603259099
17.161
#iterations: 380
currently lose_sum: 0.6676193475723267
time_elpased: 10.41
#iterations: 381
currently lose_sum: 0.642680823802948
time_elpased: 10.365
#iterations: 382
currently lose_sum: 0.6505346894264221
time_elpased: 10.135
#iterations: 383
currently lose_sum: 0.677248477935791
time_elpased: 10.245
#iterations: 384
currently lose_sum: 0.6152244806289673
time_elpased: 10.183
#iterations: 385
currently lose_sum: 0.6672645807266235
time_elpased: 10.278
#iterations: 386
currently lose_sum: 0.6763874888420105
time_elpased: 10.391
#iterations: 387
currently lose_sum: 0.6622625589370728
time_elpased: 10.484
#iterations: 388
currently lose_sum: 0.6603497862815857
time_elpased: 10.406
#iterations: 389
currently lose_sum: 0.6679321527481079
time_elpased: 11.602
#iterations: 390
currently lose_sum: 0.6768180727958679
time_elpased: 10.144
#iterations: 391
currently lose_sum: 0.6281147599220276
time_elpased: 10.095
#iterations: 392
currently lose_sum: 0.6042631268501282
time_elpased: 11.114
#iterations: 393
currently lose_sum: 0.7068254351615906
time_elpased: 11.151
#iterations: 394
currently lose_sum: 0.6360610723495483
time_elpased: 10.631
#iterations: 395
currently lose_sum: 0.6358348727226257
time_elpased: 10.01
#iterations: 396
currently lose_sum: 0.6127613186836243
time_elpased: 10.144
#iterations: 397
currently lose_sum: 0.663465142250061
time_elpased: 10.319
#iterations: 398
currently lose_sum: 0.6737306118011475
time_elpased: 10.675
#iterations: 399
currently lose_sum: 0.659315288066864
time_elpased: 10.256
start validation test
0.5652
0.602974828375
0.415943172849
0.492293320878
0.567257880017
16.801
#iterations: 400
currently lose_sum: 0.6563200950622559
time_elpased: 10.604
#iterations: 401
currently lose_sum: 0.6578730940818787
time_elpased: 10.025
#iterations: 402
currently lose_sum: 0.6597903966903687
time_elpased: 10.207
#iterations: 403
currently lose_sum: 0.6986253261566162
time_elpased: 10.102
#iterations: 404
currently lose_sum: 0.6996696591377258
time_elpased: 10.889
#iterations: 405
currently lose_sum: 0.6479007005691528
time_elpased: 10.197
#iterations: 406
currently lose_sum: 0.6442229747772217
time_elpased: 10.305
#iterations: 407
currently lose_sum: 0.6220366954803467
time_elpased: 10.029
#iterations: 408
currently lose_sum: 0.651457667350769
time_elpased: 10.162
#iterations: 409
currently lose_sum: 0.6516319513320923
time_elpased: 10.537
#iterations: 410
currently lose_sum: 0.6285694241523743
time_elpased: 10.454
#iterations: 411
currently lose_sum: 0.6593219041824341
time_elpased: 10.231
#iterations: 412
currently lose_sum: 0.648089587688446
time_elpased: 10.387
#iterations: 413
currently lose_sum: 0.6694035530090332
time_elpased: 10.134
#iterations: 414
currently lose_sum: 0.6556603312492371
time_elpased: 10.636
#iterations: 415
currently lose_sum: 0.6537480354309082
time_elpased: 10.15
#iterations: 416
currently lose_sum: 0.6647411584854126
time_elpased: 10.14
#iterations: 417
currently lose_sum: 0.676154613494873
time_elpased: 10.228
#iterations: 418
currently lose_sum: 0.6305416226387024
time_elpased: 10.242
#iterations: 419
currently lose_sum: 0.6619333028793335
time_elpased: 10.157
start validation test
0.5724
0.58347386172
0.546172059984
0.564207093355
0.572761617989
16.903
#iterations: 420
currently lose_sum: 0.6353902220726013
time_elpased: 9.816
#iterations: 421
currently lose_sum: 0.6669910550117493
time_elpased: 10.283
#iterations: 422
currently lose_sum: 0.6664398908615112
time_elpased: 10.002
#iterations: 423
currently lose_sum: 0.6366433501243591
time_elpased: 10.222
#iterations: 424
currently lose_sum: 0.6719344854354858
time_elpased: 10.225
#iterations: 425
currently lose_sum: 0.6729716658592224
time_elpased: 10.752
#iterations: 426
currently lose_sum: 0.6763202548027039
time_elpased: 10.442
#iterations: 427
currently lose_sum: 0.6727665066719055
time_elpased: 11.88
#iterations: 428
currently lose_sum: 0.7295535206794739
time_elpased: 10.146
#iterations: 429
currently lose_sum: 0.6738447546958923
time_elpased: 10.014
#iterations: 430
currently lose_sum: 0.6649726033210754
time_elpased: 10.176
#iterations: 431
currently lose_sum: 0.6427467465400696
time_elpased: 9.963
#iterations: 432
currently lose_sum: 0.6772469282150269
time_elpased: 10.282
#iterations: 433
currently lose_sum: 0.6304343938827515
time_elpased: 11.031
#iterations: 434
currently lose_sum: 0.6692414879798889
time_elpased: 10.279
#iterations: 435
currently lose_sum: 0.6355851888656616
time_elpased: 10.172
#iterations: 436
currently lose_sum: 0.6213332414627075
time_elpased: 10.16
#iterations: 437
currently lose_sum: 0.6673850417137146
time_elpased: 10.462
#iterations: 438
currently lose_sum: 0.6542549729347229
time_elpased: 10.199
#iterations: 439
currently lose_sum: 0.6732744574546814
time_elpased: 11.348
start validation test
0.576
0.565135305223
0.708760852407
0.628851540616
0.574169558402
16.805
#iterations: 440
currently lose_sum: 0.6185469627380371
time_elpased: 10.741
#iterations: 441
currently lose_sum: 0.6606918573379517
time_elpased: 9.867
#iterations: 442
currently lose_sum: 0.6474525332450867
time_elpased: 10.25
#iterations: 443
currently lose_sum: 0.6442498564720154
time_elpased: 10.693
#iterations: 444
currently lose_sum: 0.729522705078125
time_elpased: 10.119
#iterations: 445
currently lose_sum: 0.6465846300125122
time_elpased: 10.013
#iterations: 446
currently lose_sum: 0.6501071453094482
time_elpased: 11.442
#iterations: 447
currently lose_sum: 0.6235448718070984
time_elpased: 10.282
#iterations: 448
currently lose_sum: 0.6350802779197693
time_elpased: 10.675
#iterations: 449
currently lose_sum: 0.6321180462837219
time_elpased: 9.693
#iterations: 450
currently lose_sum: 0.6824276447296143
time_elpased: 10.467
#iterations: 451
currently lose_sum: 0.6486184597015381
time_elpased: 10.244
#iterations: 452
currently lose_sum: 0.6264989376068115
time_elpased: 10.047
#iterations: 453
currently lose_sum: 0.6305695176124573
time_elpased: 10.025
#iterations: 454
currently lose_sum: 0.6507405042648315
time_elpased: 10.62
#iterations: 455
currently lose_sum: 0.6404590010643005
time_elpased: 10.894
#iterations: 456
currently lose_sum: 0.6480230093002319
time_elpased: 10.577
#iterations: 457
currently lose_sum: 0.6294696927070618
time_elpased: 10.248
#iterations: 458
currently lose_sum: 0.6156054735183716
time_elpased: 10.24
#iterations: 459
currently lose_sum: 0.6608781218528748
time_elpased: 10.244
start validation test
0.5828
0.598245614035
0.538279400158
0.566680515164
0.583413828222
16.896
#iterations: 460
currently lose_sum: 0.6300305724143982
time_elpased: 10.085
#iterations: 461
currently lose_sum: 0.6687902808189392
time_elpased: 10.295
#iterations: 462
currently lose_sum: 0.6618812084197998
time_elpased: 10.248
#iterations: 463
currently lose_sum: 0.6536522507667542
time_elpased: 10.122
#iterations: 464
currently lose_sum: 0.6919503808021545
time_elpased: 9.745
#iterations: 465
currently lose_sum: 0.6574947834014893
time_elpased: 10.93
#iterations: 466
currently lose_sum: 0.6640946865081787
time_elpased: 10.217
#iterations: 467
currently lose_sum: 0.7064266204833984
time_elpased: 10.285
#iterations: 468
currently lose_sum: 0.6840599775314331
time_elpased: 10.263
#iterations: 469
currently lose_sum: 0.6866676211357117
time_elpased: 10.189
#iterations: 470
currently lose_sum: 0.6576632857322693
time_elpased: 9.977
#iterations: 471
currently lose_sum: 0.6972021460533142
time_elpased: 10.147
#iterations: 472
currently lose_sum: 0.6612414717674255
time_elpased: 10.141
#iterations: 473
currently lose_sum: 0.6860754489898682
time_elpased: 10.238
#iterations: 474
currently lose_sum: 0.6570127606391907
time_elpased: 10.065
#iterations: 475
currently lose_sum: 0.6335732936859131
time_elpased: 10.41
#iterations: 476
currently lose_sum: 0.6706922650337219
time_elpased: 10.377
#iterations: 477
currently lose_sum: 0.623616635799408
time_elpased: 10.289
#iterations: 478
currently lose_sum: 0.6615272760391235
time_elpased: 10.12
#iterations: 479
currently lose_sum: 0.6373594403266907
time_elpased: 10.174
start validation test
0.5572
0.596852300242
0.38910812944
0.471094123268
0.559517568369
17.198
#iterations: 480
currently lose_sum: 0.6632657647132874
time_elpased: 10.176
#iterations: 481
currently lose_sum: 0.696047842502594
time_elpased: 10.05
#iterations: 482
currently lose_sum: 0.6656674146652222
time_elpased: 10.346
#iterations: 483
currently lose_sum: 0.6258807182312012
time_elpased: 10.152
#iterations: 484
currently lose_sum: 0.6524341106414795
time_elpased: 10.263
#iterations: 485
currently lose_sum: 0.6418031454086304
time_elpased: 10.173
#iterations: 486
currently lose_sum: 0.644034743309021
time_elpased: 10.138
#iterations: 487
currently lose_sum: 0.6486574411392212
time_elpased: 10.028
#iterations: 488
currently lose_sum: 0.6683284044265747
time_elpased: 10.614
#iterations: 489
currently lose_sum: 0.6942813992500305
time_elpased: 10.248
#iterations: 490
currently lose_sum: 0.6904534697532654
time_elpased: 10.671
#iterations: 491
currently lose_sum: 0.6423805356025696
time_elpased: 10.256
#iterations: 492
currently lose_sum: 0.6448948383331299
time_elpased: 10.267
#iterations: 493
currently lose_sum: 0.6550756692886353
time_elpased: 10.912
#iterations: 494
currently lose_sum: 0.6048505306243896
time_elpased: 10.768
#iterations: 495
currently lose_sum: 0.6831357479095459
time_elpased: 10.287
#iterations: 496
currently lose_sum: 0.5973008871078491
time_elpased: 11.123
#iterations: 497
currently lose_sum: 0.6161121129989624
time_elpased: 10.364
#iterations: 498
currently lose_sum: 0.6363847255706787
time_elpased: 10.153
#iterations: 499
currently lose_sum: 0.6478064060211182
time_elpased: 10.13
start validation test
0.5788
0.569390402075
0.692975532755
0.625133499466
0.577225803685
16.919
#iterations: 500
currently lose_sum: 0.6594384908676147
time_elpased: 10.233
#iterations: 501
currently lose_sum: 0.6607268452644348
time_elpased: 10.094
#iterations: 502
currently lose_sum: 0.6371526122093201
time_elpased: 10.204
#iterations: 503
currently lose_sum: 0.6451112627983093
time_elpased: 10.226
#iterations: 504
currently lose_sum: 0.6596617698669434
time_elpased: 11.337
#iterations: 505
currently lose_sum: 0.7004302144050598
time_elpased: 10.565
#iterations: 506
currently lose_sum: 0.6241639256477356
time_elpased: 10.873
#iterations: 507
currently lose_sum: 0.6983945965766907
time_elpased: 10.427
#iterations: 508
currently lose_sum: 0.6611314415931702
time_elpased: 10.49
#iterations: 509
currently lose_sum: 0.6723220944404602
time_elpased: 10.272
#iterations: 510
currently lose_sum: 0.7245461940765381
time_elpased: 10.28
#iterations: 511
currently lose_sum: 0.6263768672943115
time_elpased: 10.448
#iterations: 512
currently lose_sum: 0.6844630241394043
time_elpased: 10.241
#iterations: 513
currently lose_sum: 0.6668800115585327
time_elpased: 10.29
#iterations: 514
currently lose_sum: 0.6712109446525574
time_elpased: 9.892
#iterations: 515
currently lose_sum: 0.6430644392967224
time_elpased: 10.223
#iterations: 516
currently lose_sum: 0.690601646900177
time_elpased: 10.473
#iterations: 517
currently lose_sum: 0.6506078243255615
time_elpased: 10.355
#iterations: 518
currently lose_sum: 0.6647840142250061
time_elpased: 10.269
#iterations: 519
currently lose_sum: 0.6957085132598877
time_elpased: 10.276
start validation test
0.5688
0.551498637602
0.798737174428
0.652482269504
0.565629738877
16.916
#iterations: 520
currently lose_sum: 0.6640918254852295
time_elpased: 10.376
#iterations: 521
currently lose_sum: 0.6080183386802673
time_elpased: 10.294
#iterations: 522
currently lose_sum: 0.6614326238632202
time_elpased: 10.502
#iterations: 523
currently lose_sum: 0.7351453304290771
time_elpased: 10.427
#iterations: 524
currently lose_sum: 0.6323783993721008
time_elpased: 10.794
#iterations: 525
currently lose_sum: 0.6307551860809326
time_elpased: 11.032
#iterations: 526
currently lose_sum: 0.6286656260490417
time_elpased: 10.167
#iterations: 527
currently lose_sum: 0.6317553520202637
time_elpased: 10.211
#iterations: 528
currently lose_sum: 0.6906158924102783
time_elpased: 10.39
#iterations: 529
currently lose_sum: 0.6035832166671753
time_elpased: 10.081
#iterations: 530
currently lose_sum: 0.670565664768219
time_elpased: 10.083
#iterations: 531
currently lose_sum: 0.6485874652862549
time_elpased: 10.262
#iterations: 532
currently lose_sum: 0.6668985486030579
time_elpased: 10.261
#iterations: 533
currently lose_sum: 0.6606737375259399
time_elpased: 10.609
#iterations: 534
currently lose_sum: 0.7213833332061768
time_elpased: 10.713
#iterations: 535
currently lose_sum: 0.6633226871490479
time_elpased: 10.18
#iterations: 536
currently lose_sum: 0.6927583813667297
time_elpased: 10.227
#iterations: 537
currently lose_sum: 0.6389583349227905
time_elpased: 10.156
#iterations: 538
currently lose_sum: 0.6398491859436035
time_elpased: 10.328
#iterations: 539
currently lose_sum: 0.6871629357337952
time_elpased: 10.139
start validation test
0.5804
0.578192252511
0.636148382005
0.605787298008
0.579631368618
16.847
#iterations: 540
currently lose_sum: 0.644118070602417
time_elpased: 10.257
#iterations: 541
currently lose_sum: 0.5831121802330017
time_elpased: 10.14
#iterations: 542
currently lose_sum: 0.6526745557785034
time_elpased: 10.397
#iterations: 543
currently lose_sum: 0.6682438850402832
time_elpased: 10.188
#iterations: 544
currently lose_sum: 0.6303514838218689
time_elpased: 10.793
#iterations: 545
currently lose_sum: 0.6583912372589111
time_elpased: 10.509
#iterations: 546
currently lose_sum: 0.6361345052719116
time_elpased: 10.427
#iterations: 547
currently lose_sum: 0.6641420722007751
time_elpased: 11.068
#iterations: 548
currently lose_sum: 0.6649229526519775
time_elpased: 10.852
#iterations: 549
currently lose_sum: 0.669485867023468
time_elpased: 9.957
#iterations: 550
currently lose_sum: 0.6588173508644104
time_elpased: 10.7
#iterations: 551
currently lose_sum: 0.6621497869491577
time_elpased: 10.306
#iterations: 552
currently lose_sum: 0.6655499935150146
time_elpased: 10.276
#iterations: 553
currently lose_sum: 0.6610524654388428
time_elpased: 10.288
#iterations: 554
currently lose_sum: 0.5705511569976807
time_elpased: 10.15
#iterations: 555
currently lose_sum: 0.6672117710113525
time_elpased: 11.841
#iterations: 556
currently lose_sum: 0.6590803265571594
time_elpased: 10.336
#iterations: 557
currently lose_sum: 0.6460833549499512
time_elpased: 10.277
#iterations: 558
currently lose_sum: 0.6343677639961243
time_elpased: 11.038
#iterations: 559
currently lose_sum: 0.6861974596977234
time_elpased: 10.83
start validation test
0.5752
0.600195503421
0.484609313339
0.536244541485
0.576449020011
16.886
#iterations: 560
currently lose_sum: 0.6548576354980469
time_elpased: 10.304
#iterations: 561
currently lose_sum: 0.6692982316017151
time_elpased: 10.112
#iterations: 562
currently lose_sum: 0.6551015377044678
time_elpased: 9.694
#iterations: 563
currently lose_sum: 0.6436543464660645
time_elpased: 9.844
#iterations: 564
currently lose_sum: 0.6156622171401978
time_elpased: 10.552
#iterations: 565
currently lose_sum: 0.6000149250030518
time_elpased: 10.449
#iterations: 566
currently lose_sum: 0.7093852758407593
time_elpased: 10.756
#iterations: 567
currently lose_sum: 0.6153655648231506
time_elpased: 11.149
#iterations: 568
currently lose_sum: 0.6688238382339478
time_elpased: 10.001
#iterations: 569
currently lose_sum: 0.6463478207588196
time_elpased: 10.014
#iterations: 570
currently lose_sum: 0.6197466850280762
time_elpased: 10.158
#iterations: 571
currently lose_sum: 0.6709182858467102
time_elpased: 10.443
#iterations: 572
currently lose_sum: 0.6624074578285217
time_elpased: 10.537
#iterations: 573
currently lose_sum: 0.6219403743743896
time_elpased: 10.179
#iterations: 574
currently lose_sum: 0.6457663178443909
time_elpased: 10.109
#iterations: 575
currently lose_sum: 0.6258065700531006
time_elpased: 10.372
#iterations: 576
currently lose_sum: 0.6938360333442688
time_elpased: 10.173
#iterations: 577
currently lose_sum: 0.6063218116760254
time_elpased: 10.485
#iterations: 578
currently lose_sum: 0.7048500180244446
time_elpased: 10.418
#iterations: 579
currently lose_sum: 0.6596537232398987
time_elpased: 10.206
start validation test
0.5836
0.593388429752
0.566692975533
0.579733548648
0.583833105771
16.755
#iterations: 580
currently lose_sum: 0.6623094081878662
time_elpased: 10.234
#iterations: 581
currently lose_sum: 0.6439923644065857
time_elpased: 10.167
#iterations: 582
currently lose_sum: 0.651701807975769
time_elpased: 10.477
#iterations: 583
currently lose_sum: 0.6508041620254517
time_elpased: 10.161
#iterations: 584
currently lose_sum: 0.6384746432304382
time_elpased: 10.358
#iterations: 585
currently lose_sum: 0.6445465087890625
time_elpased: 10.142
#iterations: 586
currently lose_sum: 0.693917453289032
time_elpased: 11.225
#iterations: 587
currently lose_sum: 0.6485828161239624
time_elpased: 10.39
#iterations: 588
currently lose_sum: 0.6713106036186218
time_elpased: 10.416
#iterations: 589
currently lose_sum: 0.6569041609764099
time_elpased: 10.431
#iterations: 590
currently lose_sum: 0.6381452679634094
time_elpased: 10.201
#iterations: 591
currently lose_sum: 0.6130497455596924
time_elpased: 9.883
#iterations: 592
currently lose_sum: 0.6507750153541565
time_elpased: 10.941
#iterations: 593
currently lose_sum: 0.6878792643547058
time_elpased: 10.212
#iterations: 594
currently lose_sum: 0.6715745329856873
time_elpased: 10.719
#iterations: 595
currently lose_sum: 0.6365001797676086
time_elpased: 10.197
#iterations: 596
currently lose_sum: 0.6868240237236023
time_elpased: 10.188
#iterations: 597
currently lose_sum: 0.67840176820755
time_elpased: 10.572
#iterations: 598
currently lose_sum: 0.6494703888893127
time_elpased: 10.786
#iterations: 599
currently lose_sum: 0.6682462096214294
time_elpased: 10.271
start validation test
0.5708
0.583910034602
0.532754538279
0.557160544779
0.571324552189
16.896
acc: 0.572
pre: 0.586
rec: 0.527
F1: 0.555
auc: 0.572
