start to construct computing graph
graph construct over
3802
epochs start
#iterations: 0
currently lose_sum: 0.7106982469558716
time_elpased: 11.644
#iterations: 1
currently lose_sum: 0.7045059204101562
time_elpased: 11.615
#iterations: 2
currently lose_sum: 0.7065566778182983
time_elpased: 11.827
#iterations: 3
currently lose_sum: 0.7049559950828552
time_elpased: 11.862
#iterations: 4
currently lose_sum: 0.688317060470581
time_elpased: 11.618
#iterations: 5
currently lose_sum: 0.6850278973579407
time_elpased: 11.705
#iterations: 6
currently lose_sum: 0.6864307522773743
time_elpased: 11.573
#iterations: 7
currently lose_sum: 0.7012174725532532
time_elpased: 11.667
#iterations: 8
currently lose_sum: 0.6786086559295654
time_elpased: 11.69
#iterations: 9
currently lose_sum: 0.6936760544776917
time_elpased: 11.641
#iterations: 10
currently lose_sum: 0.7033958435058594
time_elpased: 11.597
#iterations: 11
currently lose_sum: 0.7518748641014099
time_elpased: 11.545
#iterations: 12
currently lose_sum: 0.681413471698761
time_elpased: 11.55
#iterations: 13
currently lose_sum: 0.6911501884460449
time_elpased: 11.271
#iterations: 14
currently lose_sum: 0.6984129548072815
time_elpased: 11.71
#iterations: 15
currently lose_sum: 0.6734559535980225
time_elpased: 11.895
#iterations: 16
currently lose_sum: 0.6877501606941223
time_elpased: 11.783
#iterations: 17
currently lose_sum: 0.6853215098381042
time_elpased: 11.855
#iterations: 18
currently lose_sum: 0.6865968108177185
time_elpased: 11.517
#iterations: 19
currently lose_sum: 0.6906985640525818
time_elpased: 11.657
start validation test
0.534
0.542667771334
0.516561514196
0.529292929293
0.534254783072
17.180
#iterations: 20
currently lose_sum: 0.6918659806251526
time_elpased: 9.86
#iterations: 21
currently lose_sum: 0.6941531300544739
time_elpased: 9.353
#iterations: 22
currently lose_sum: 0.6794610619544983
time_elpased: 9.375
#iterations: 23
currently lose_sum: 0.7006323933601379
time_elpased: 9.396
#iterations: 24
currently lose_sum: 0.6881117224693298
time_elpased: 9.568
#iterations: 25
currently lose_sum: 0.7204980254173279
time_elpased: 9.6
#iterations: 26
currently lose_sum: 0.6775326728820801
time_elpased: 9.778
#iterations: 27
currently lose_sum: 0.7141267657279968
time_elpased: 9.264
#iterations: 28
currently lose_sum: 0.6836658716201782
time_elpased: 9.53
#iterations: 29
currently lose_sum: 0.683063268661499
time_elpased: 9.533
#iterations: 30
currently lose_sum: 0.6904252767562866
time_elpased: 9.517
#iterations: 31
currently lose_sum: 0.6776675581932068
time_elpased: 9.445
#iterations: 32
currently lose_sum: 0.6707061529159546
time_elpased: 9.455
#iterations: 33
currently lose_sum: 0.6808608770370483
time_elpased: 9.826
#iterations: 34
currently lose_sum: 0.6921660900115967
time_elpased: 9.503
#iterations: 35
currently lose_sum: 0.6919004321098328
time_elpased: 9.28
#iterations: 36
currently lose_sum: 0.6887813806533813
time_elpased: 9.425
#iterations: 37
currently lose_sum: 0.6807281970977783
time_elpased: 9.474
#iterations: 38
currently lose_sum: 0.6733564734458923
time_elpased: 9.585
#iterations: 39
currently lose_sum: 0.7267090678215027
time_elpased: 9.309
start validation test
0.5484
0.559656652361
0.514195583596
0.535963830662
0.54889973985
17.106
#iterations: 40
currently lose_sum: 0.6896278262138367
time_elpased: 9.369
#iterations: 41
currently lose_sum: 0.701231062412262
time_elpased: 9.165
#iterations: 42
currently lose_sum: 0.6691508293151855
time_elpased: 9.873
#iterations: 43
currently lose_sum: 0.6733474731445312
time_elpased: 9.549
#iterations: 44
currently lose_sum: 0.6718292236328125
time_elpased: 9.508
#iterations: 45
currently lose_sum: 0.716937780380249
time_elpased: 9.454
#iterations: 46
currently lose_sum: 0.6827471852302551
time_elpased: 8.963
#iterations: 47
currently lose_sum: 0.6827630400657654
time_elpased: 9.392
#iterations: 48
currently lose_sum: 0.6904727220535278
time_elpased: 9.335
#iterations: 49
currently lose_sum: 0.6773291826248169
time_elpased: 9.473
#iterations: 50
currently lose_sum: 0.6903481483459473
time_elpased: 9.352
#iterations: 51
currently lose_sum: 0.6694153547286987
time_elpased: 9.53
#iterations: 52
currently lose_sum: 0.6820074319839478
time_elpased: 9.451
#iterations: 53
currently lose_sum: 0.6869813799858093
time_elpased: 9.408
#iterations: 54
currently lose_sum: 0.6778927445411682
time_elpased: 9.378
#iterations: 55
currently lose_sum: 0.6855188012123108
time_elpased: 10.018
#iterations: 56
currently lose_sum: 0.6854390501976013
time_elpased: 9.546
#iterations: 57
currently lose_sum: 0.7016527056694031
time_elpased: 9.62
#iterations: 58
currently lose_sum: 0.676401674747467
time_elpased: 9.47
#iterations: 59
currently lose_sum: 0.6852284073829651
time_elpased: 9.422
start validation test
0.5544
0.589953271028
0.398264984227
0.475517890772
0.556681193412
17.146
#iterations: 60
currently lose_sum: 0.6667568683624268
time_elpased: 9.248
#iterations: 61
currently lose_sum: 0.6839404106140137
time_elpased: 9.303
#iterations: 62
currently lose_sum: 0.6733428835868835
time_elpased: 9.605
#iterations: 63
currently lose_sum: 0.6809511780738831
time_elpased: 9.478
#iterations: 64
currently lose_sum: 0.6720128059387207
time_elpased: 9.439
#iterations: 65
currently lose_sum: 0.7151556611061096
time_elpased: 9.717
#iterations: 66
currently lose_sum: 0.6812154650688171
time_elpased: 9.585
#iterations: 67
currently lose_sum: 0.6658746600151062
time_elpased: 9.56
#iterations: 68
currently lose_sum: 0.7103908061981201
time_elpased: 9.527
#iterations: 69
currently lose_sum: 0.6814179420471191
time_elpased: 9.566
#iterations: 70
currently lose_sum: 0.6545892953872681
time_elpased: 9.285
#iterations: 71
currently lose_sum: 0.7015470862388611
time_elpased: 9.249
#iterations: 72
currently lose_sum: 0.6749810576438904
time_elpased: 9.382
#iterations: 73
currently lose_sum: 0.6906052231788635
time_elpased: 9.222
#iterations: 74
currently lose_sum: 0.6854446530342102
time_elpased: 9.189
#iterations: 75
currently lose_sum: 0.6927560567855835
time_elpased: 9.191
#iterations: 76
currently lose_sum: 0.6827417612075806
time_elpased: 9.308
#iterations: 77
currently lose_sum: 0.7028242349624634
time_elpased: 9.162
#iterations: 78
currently lose_sum: 0.6663922667503357
time_elpased: 9.213
#iterations: 79
currently lose_sum: 0.6792872548103333
time_elpased: 9.426
start validation test
0.5596
0.553150859325
0.685331230284
0.612187389926
0.557763017739
16.944
#iterations: 80
currently lose_sum: 0.6601409912109375
time_elpased: 9.188
#iterations: 81
currently lose_sum: 0.681205689907074
time_elpased: 9.325
#iterations: 82
currently lose_sum: 0.6730989217758179
time_elpased: 9.471
#iterations: 83
currently lose_sum: 0.6925456523895264
time_elpased: 9.641
#iterations: 84
currently lose_sum: 0.7048927545547485
time_elpased: 9.49
#iterations: 85
currently lose_sum: 0.6752656698226929
time_elpased: 9.242
#iterations: 86
currently lose_sum: 0.681239902973175
time_elpased: 9.382
#iterations: 87
currently lose_sum: 0.6808582544326782
time_elpased: 9.251
#iterations: 88
currently lose_sum: 0.6705823540687561
time_elpased: 9.406
#iterations: 89
currently lose_sum: 0.6789717078208923
time_elpased: 9.461
#iterations: 90
currently lose_sum: 0.6378141641616821
time_elpased: 9.164
#iterations: 91
currently lose_sum: 0.6921675205230713
time_elpased: 9.356
#iterations: 92
currently lose_sum: 0.6718891859054565
time_elpased: 9.469
#iterations: 93
currently lose_sum: 0.7048423290252686
time_elpased: 9.372
#iterations: 94
currently lose_sum: 0.7001289129257202
time_elpased: 9.444
#iterations: 95
currently lose_sum: 0.6735633611679077
time_elpased: 9.349
#iterations: 96
currently lose_sum: 0.6602641344070435
time_elpased: 9.381
#iterations: 97
currently lose_sum: 0.6717087626457214
time_elpased: 9.455
#iterations: 98
currently lose_sum: 0.6922622919082642
time_elpased: 9.432
#iterations: 99
currently lose_sum: 0.6864019632339478
time_elpased: 9.28
start validation test
0.5712
0.616666666667
0.408517350158
0.491461100569
0.573576856897
16.954
#iterations: 100
currently lose_sum: 0.6704888939857483
time_elpased: 9.502
#iterations: 101
currently lose_sum: 0.6952215433120728
time_elpased: 9.701
#iterations: 102
currently lose_sum: 0.6710816025733948
time_elpased: 9.329
#iterations: 103
currently lose_sum: 0.6567019820213318
time_elpased: 9.472
#iterations: 104
currently lose_sum: 0.6874606609344482
time_elpased: 9.422
#iterations: 105
currently lose_sum: 0.6772915124893188
time_elpased: 9.364
#iterations: 106
currently lose_sum: 0.6954715251922607
time_elpased: 9.326
#iterations: 107
currently lose_sum: 0.6735861301422119
time_elpased: 9.314
#iterations: 108
currently lose_sum: 0.6896255612373352
time_elpased: 9.631
#iterations: 109
currently lose_sum: 0.6746468544006348
time_elpased: 9.393
#iterations: 110
currently lose_sum: 0.6717104315757751
time_elpased: 9.23
#iterations: 111
currently lose_sum: 0.643318772315979
time_elpased: 9.287
#iterations: 112
currently lose_sum: 0.6612043976783752
time_elpased: 9.247
#iterations: 113
currently lose_sum: 0.64788818359375
time_elpased: 9.459
#iterations: 114
currently lose_sum: 0.6639381647109985
time_elpased: 9.138
#iterations: 115
currently lose_sum: 0.6643678545951843
time_elpased: 9.311
#iterations: 116
currently lose_sum: 0.6919177770614624
time_elpased: 9.676
#iterations: 117
currently lose_sum: 0.6461897492408752
time_elpased: 9.389
#iterations: 118
currently lose_sum: 0.6807344555854797
time_elpased: 9.828
#iterations: 119
currently lose_sum: 0.6602553725242615
time_elpased: 9.504
start validation test
0.5544
0.588100686499
0.405362776025
0.479925303455
0.556577491909
17.020
#iterations: 120
currently lose_sum: 0.6660095453262329
time_elpased: 9.559
#iterations: 121
currently lose_sum: 0.6389901041984558
time_elpased: 9.521
#iterations: 122
currently lose_sum: 0.6569626331329346
time_elpased: 9.367
#iterations: 123
currently lose_sum: 0.6751208305358887
time_elpased: 9.423
#iterations: 124
currently lose_sum: 0.6657809615135193
time_elpased: 9.506
#iterations: 125
currently lose_sum: 0.6706847548484802
time_elpased: 9.255
#iterations: 126
currently lose_sum: 0.6655175685882568
time_elpased: 9.602
#iterations: 127
currently lose_sum: 0.6758021712303162
time_elpased: 9.335
#iterations: 128
currently lose_sum: 0.6928587555885315
time_elpased: 9.698
#iterations: 129
currently lose_sum: 0.6775129437446594
time_elpased: 9.655
#iterations: 130
currently lose_sum: 0.7074787616729736
time_elpased: 9.703
#iterations: 131
currently lose_sum: 0.669262170791626
time_elpased: 9.27
#iterations: 132
currently lose_sum: 0.638204038143158
time_elpased: 9.638
#iterations: 133
currently lose_sum: 0.6286705136299133
time_elpased: 9.269
#iterations: 134
currently lose_sum: 0.6827293634414673
time_elpased: 9.402
#iterations: 135
currently lose_sum: 0.651334285736084
time_elpased: 8.957
#iterations: 136
currently lose_sum: 0.6874405741691589
time_elpased: 9.324
#iterations: 137
currently lose_sum: 0.6851212382316589
time_elpased: 9.604
#iterations: 138
currently lose_sum: 0.6937177777290344
time_elpased: 9.373
#iterations: 139
currently lose_sum: 0.6893247961997986
time_elpased: 9.022
start validation test
0.5628
0.579617834395
0.502365930599
0.538234051542
0.5636829653
16.934
#iterations: 140
currently lose_sum: 0.6821531653404236
time_elpased: 9.212
#iterations: 141
currently lose_sum: 0.6871171593666077
time_elpased: 9.329
#iterations: 142
currently lose_sum: 0.6552352905273438
time_elpased: 9.26
#iterations: 143
currently lose_sum: 0.6868037581443787
time_elpased: 9.167
#iterations: 144
currently lose_sum: 0.6668164134025574
time_elpased: 9.365
#iterations: 145
currently lose_sum: 0.6877821087837219
time_elpased: 9.201
#iterations: 146
currently lose_sum: 0.654222846031189
time_elpased: 9.622
#iterations: 147
currently lose_sum: 0.6786035299301147
time_elpased: 9.524
#iterations: 148
currently lose_sum: 0.6614505052566528
time_elpased: 9.498
#iterations: 149
currently lose_sum: 0.6868849396705627
time_elpased: 9.377
#iterations: 150
currently lose_sum: 0.6792423725128174
time_elpased: 9.446
#iterations: 151
currently lose_sum: 0.6426255702972412
time_elpased: 9.408
#iterations: 152
currently lose_sum: 0.6249541640281677
time_elpased: 9.533
#iterations: 153
currently lose_sum: 0.6630441546440125
time_elpased: 9.217
#iterations: 154
currently lose_sum: 0.6873615384101868
time_elpased: 9.655
#iterations: 155
currently lose_sum: 0.7145321369171143
time_elpased: 9.418
#iterations: 156
currently lose_sum: 0.6576421856880188
time_elpased: 9.453
#iterations: 157
currently lose_sum: 0.6479767560958862
time_elpased: 9.465
#iterations: 158
currently lose_sum: 0.6869362592697144
time_elpased: 9.352
#iterations: 159
currently lose_sum: 0.6763595342636108
time_elpased: 9.437
start validation test
0.5692
0.581138487681
0.539432176656
0.559509202454
0.569634919497
16.889
#iterations: 160
currently lose_sum: 0.6269334554672241
time_elpased: 9.48
#iterations: 161
currently lose_sum: 0.6277139186859131
time_elpased: 9.783
#iterations: 162
currently lose_sum: 0.6715061664581299
time_elpased: 9.57
#iterations: 163
currently lose_sum: 0.6567667126655579
time_elpased: 9.51
#iterations: 164
currently lose_sum: 0.6539973616600037
time_elpased: 9.415
#iterations: 165
currently lose_sum: 0.6677169799804688
time_elpased: 9.202
#iterations: 166
currently lose_sum: 0.7027929425239563
time_elpased: 9.137
#iterations: 167
currently lose_sum: 0.691315233707428
time_elpased: 8.984
#iterations: 168
currently lose_sum: 0.6967509388923645
time_elpased: 9.542
#iterations: 169
currently lose_sum: 0.7144166827201843
time_elpased: 9.392
#iterations: 170
currently lose_sum: 0.6439588665962219
time_elpased: 9.44
#iterations: 171
currently lose_sum: 0.6601232886314392
time_elpased: 9.363
#iterations: 172
currently lose_sum: 0.6644087433815002
time_elpased: 9.422
#iterations: 173
currently lose_sum: 0.6754695177078247
time_elpased: 9.197
#iterations: 174
currently lose_sum: 0.6177417635917664
time_elpased: 9.264
#iterations: 175
currently lose_sum: 0.6576990485191345
time_elpased: 9.184
#iterations: 176
currently lose_sum: 0.6591598391532898
time_elpased: 9.263
#iterations: 177
currently lose_sum: 0.652163028717041
time_elpased: 9.149
#iterations: 178
currently lose_sum: 0.6597168445587158
time_elpased: 9.035
#iterations: 179
currently lose_sum: 0.6639457941055298
time_elpased: 9.569
start validation test
0.5632
0.55459057072
0.705047318612
0.620833333333
0.56112755541
17.101
#iterations: 180
currently lose_sum: 0.6846354603767395
time_elpased: 9.309
#iterations: 181
currently lose_sum: 0.6639227271080017
time_elpased: 9.038
#iterations: 182
currently lose_sum: 0.6062911748886108
time_elpased: 8.054
#iterations: 183
currently lose_sum: 0.6576806902885437
time_elpased: 7.513
#iterations: 184
currently lose_sum: 0.6663034558296204
time_elpased: 9.472
#iterations: 185
currently lose_sum: 0.6644728183746338
time_elpased: 9.635
#iterations: 186
currently lose_sum: 0.6773583889007568
time_elpased: 9.425
#iterations: 187
currently lose_sum: 0.6323142051696777
time_elpased: 9.574
#iterations: 188
currently lose_sum: 0.6669600009918213
time_elpased: 9.391
#iterations: 189
currently lose_sum: 0.6613195538520813
time_elpased: 9.885
#iterations: 190
currently lose_sum: 0.6982056498527527
time_elpased: 9.652
#iterations: 191
currently lose_sum: 0.6797986030578613
time_elpased: 9.538
#iterations: 192
currently lose_sum: 0.651340663433075
time_elpased: 9.345
#iterations: 193
currently lose_sum: 0.6759886145591736
time_elpased: 9.359
#iterations: 194
currently lose_sum: 0.6918693780899048
time_elpased: 9.77
#iterations: 195
currently lose_sum: 0.6115589141845703
time_elpased: 9.546
#iterations: 196
currently lose_sum: 0.6733332872390747
time_elpased: 9.68
#iterations: 197
currently lose_sum: 0.6816466450691223
time_elpased: 9.793
#iterations: 198
currently lose_sum: 0.6357067227363586
time_elpased: 9.934
#iterations: 199
currently lose_sum: 0.6279042959213257
time_elpased: 9.663
start validation test
0.5776
0.571524966262
0.667981072555
0.616
0.576279497317
16.784
#iterations: 200
currently lose_sum: 0.7000645995140076
time_elpased: 9.54
#iterations: 201
currently lose_sum: 0.6655918955802917
time_elpased: 9.497
#iterations: 202
currently lose_sum: 0.6580499410629272
time_elpased: 9.513
#iterations: 203
currently lose_sum: 0.6855976581573486
time_elpased: 9.954
#iterations: 204
currently lose_sum: 0.6480391025543213
time_elpased: 9.655
#iterations: 205
currently lose_sum: 0.6092727780342102
time_elpased: 9.515
#iterations: 206
currently lose_sum: 0.6559475064277649
time_elpased: 9.597
#iterations: 207
currently lose_sum: 0.643980085849762
time_elpased: 9.609
#iterations: 208
currently lose_sum: 0.6620792150497437
time_elpased: 9.563
#iterations: 209
currently lose_sum: 0.7160021066665649
time_elpased: 9.451
#iterations: 210
currently lose_sum: 0.6852232217788696
time_elpased: 9.744
#iterations: 211
currently lose_sum: 0.662865161895752
time_elpased: 11.051
#iterations: 212
currently lose_sum: 0.646546483039856
time_elpased: 10.733
#iterations: 213
currently lose_sum: 0.6407293677330017
time_elpased: 10.713
#iterations: 214
currently lose_sum: 0.6448050141334534
time_elpased: 10.65
#iterations: 215
currently lose_sum: 0.6661246418952942
time_elpased: 11.001
#iterations: 216
currently lose_sum: 0.6481077671051025
time_elpased: 10.745
#iterations: 217
currently lose_sum: 0.6366745233535767
time_elpased: 10.276
#iterations: 218
currently lose_sum: 0.678733229637146
time_elpased: 10.213
#iterations: 219
currently lose_sum: 0.7035484313964844
time_elpased: 10.114
start validation test
0.574
0.564773452457
0.697949526814
0.624338624339
0.572189049121
16.865
#iterations: 220
currently lose_sum: 0.6283221244812012
time_elpased: 10.909
#iterations: 221
currently lose_sum: 0.656107485294342
time_elpased: 10.757
#iterations: 222
currently lose_sum: 0.6256078481674194
time_elpased: 10.233
#iterations: 223
currently lose_sum: 0.6528730988502502
time_elpased: 10.905
#iterations: 224
currently lose_sum: 0.6896853446960449
time_elpased: 10.884
#iterations: 225
currently lose_sum: 0.6529145836830139
time_elpased: 10.633
#iterations: 226
currently lose_sum: 0.6361936330795288
time_elpased: 10.89
#iterations: 227
currently lose_sum: 0.6686781048774719
time_elpased: 10.779
#iterations: 228
currently lose_sum: 0.6489012241363525
time_elpased: 10.844
#iterations: 229
currently lose_sum: 0.7149549722671509
time_elpased: 10.725
#iterations: 230
currently lose_sum: 0.6836196184158325
time_elpased: 10.165
#iterations: 231
currently lose_sum: 0.6647836565971375
time_elpased: 10.738
#iterations: 232
currently lose_sum: 0.6902856230735779
time_elpased: 10.785
#iterations: 233
currently lose_sum: 0.6469128131866455
time_elpased: 10.797
#iterations: 234
currently lose_sum: 0.7170819044113159
time_elpased: 10.253
#iterations: 235
currently lose_sum: 0.6405083537101746
time_elpased: 10.926
#iterations: 236
currently lose_sum: 0.6636698246002197
time_elpased: 10.254
#iterations: 237
currently lose_sum: 0.6790776252746582
time_elpased: 10.907
#iterations: 238
currently lose_sum: 0.6614912152290344
time_elpased: 10.229
#iterations: 239
currently lose_sum: 0.6598312258720398
time_elpased: 10.276
start validation test
0.5868
0.58854559156
0.615930599369
0.601926782274
0.586374390594
16.768
#iterations: 240
currently lose_sum: 0.6762352585792542
time_elpased: 10.877
#iterations: 241
currently lose_sum: 0.6450707912445068
time_elpased: 10.971
#iterations: 242
currently lose_sum: 0.6988601088523865
time_elpased: 10.725
#iterations: 243
currently lose_sum: 0.6721348762512207
time_elpased: 11.216
#iterations: 244
currently lose_sum: 0.6776081919670105
time_elpased: 10.834
#iterations: 245
currently lose_sum: 0.6719710826873779
time_elpased: 10.817
#iterations: 246
currently lose_sum: 0.6682279706001282
time_elpased: 10.193
#iterations: 247
currently lose_sum: 0.6750361919403076
time_elpased: 10.221
#iterations: 248
currently lose_sum: 0.634829044342041
time_elpased: 10.158
#iterations: 249
currently lose_sum: 0.626471996307373
time_elpased: 10.137
#iterations: 250
currently lose_sum: 0.6581569910049438
time_elpased: 10.658
#iterations: 251
currently lose_sum: 0.6348927021026611
time_elpased: 10.345
#iterations: 252
currently lose_sum: 0.6666200160980225
time_elpased: 10.377
#iterations: 253
currently lose_sum: 0.686622142791748
time_elpased: 10.936
#iterations: 254
currently lose_sum: 0.6895074248313904
time_elpased: 10.871
#iterations: 255
currently lose_sum: 0.6670583486557007
time_elpased: 10.867
#iterations: 256
currently lose_sum: 0.6716286540031433
time_elpased: 10.921
#iterations: 257
currently lose_sum: 0.6677177548408508
time_elpased: 10.856
#iterations: 258
currently lose_sum: 0.7035914659500122
time_elpased: 10.217
#iterations: 259
currently lose_sum: 0.6620855927467346
time_elpased: 10.813
start validation test
0.576
0.600386100386
0.490536277603
0.539930555556
0.577248658282
16.769
#iterations: 260
currently lose_sum: 0.6808319687843323
time_elpased: 10.829
#iterations: 261
currently lose_sum: 0.6527658104896545
time_elpased: 10.936
#iterations: 262
currently lose_sum: 0.6789426207542419
time_elpased: 10.765
#iterations: 263
currently lose_sum: 0.6871188282966614
time_elpased: 10.623
#iterations: 264
currently lose_sum: 0.6692407727241516
time_elpased: 10.9
#iterations: 265
currently lose_sum: 0.7068067789077759
time_elpased: 10.978
#iterations: 266
currently lose_sum: 0.649974524974823
time_elpased: 10.925
#iterations: 267
currently lose_sum: 0.6590976119041443
time_elpased: 10.715
#iterations: 268
currently lose_sum: 0.6363632082939148
time_elpased: 10.375
#iterations: 269
currently lose_sum: 0.6537436842918396
time_elpased: 10.323
#iterations: 270
currently lose_sum: 0.6776443719863892
time_elpased: 10.86
#iterations: 271
currently lose_sum: 0.6647030711174011
time_elpased: 10.513
#iterations: 272
currently lose_sum: 0.7002056241035461
time_elpased: 10.962
#iterations: 273
currently lose_sum: 0.6811288595199585
time_elpased: 10.93
#iterations: 274
currently lose_sum: 0.7355698943138123
time_elpased: 10.705
#iterations: 275
currently lose_sum: 0.6447799801826477
time_elpased: 10.277
#iterations: 276
currently lose_sum: 0.7019702196121216
time_elpased: 10.963
#iterations: 277
currently lose_sum: 0.6568159461021423
time_elpased: 10.945
#iterations: 278
currently lose_sum: 0.6847310066223145
time_elpased: 10.897
#iterations: 279
currently lose_sum: 0.6286904811859131
time_elpased: 10.698
start validation test
0.5684
0.551611141453
0.796529968454
0.651823168764
0.565066932279
17.021
#iterations: 280
currently lose_sum: 0.6671959161758423
time_elpased: 10.677
#iterations: 281
currently lose_sum: 0.6452445983886719
time_elpased: 10.911
#iterations: 282
currently lose_sum: 0.683993399143219
time_elpased: 10.881
#iterations: 283
currently lose_sum: 0.6776043772697449
time_elpased: 10.669
#iterations: 284
currently lose_sum: 0.6210751533508301
time_elpased: 10.814
#iterations: 285
currently lose_sum: 0.6763673424720764
time_elpased: 10.67
#iterations: 286
currently lose_sum: 0.6704537272453308
time_elpased: 10.728
#iterations: 287
currently lose_sum: 0.6485775113105774
time_elpased: 11.136
#iterations: 288
currently lose_sum: 0.6331060528755188
time_elpased: 11.044
#iterations: 289
currently lose_sum: 0.6522712707519531
time_elpased: 10.892
#iterations: 290
currently lose_sum: 0.6280980110168457
time_elpased: 10.969
#iterations: 291
currently lose_sum: 0.653428316116333
time_elpased: 10.452
#iterations: 292
currently lose_sum: 0.6529545783996582
time_elpased: 10.762
#iterations: 293
currently lose_sum: 0.6686971187591553
time_elpased: 10.922
#iterations: 294
currently lose_sum: 0.612734854221344
time_elpased: 10.962
#iterations: 295
currently lose_sum: 0.6530048251152039
time_elpased: 10.469
#iterations: 296
currently lose_sum: 0.6815322041511536
time_elpased: 10.608
#iterations: 297
currently lose_sum: 0.6905661225318909
time_elpased: 10.835
#iterations: 298
currently lose_sum: 0.6257185935974121
time_elpased: 10.656
#iterations: 299
currently lose_sum: 0.6604471802711487
time_elpased: 11.13
start validation test
0.5804
0.621531631521
0.441640378549
0.516366989396
0.582427332132
16.877
#iterations: 300
currently lose_sum: 0.6338093280792236
time_elpased: 10.443
#iterations: 301
currently lose_sum: 0.6342163681983948
time_elpased: 10.951
#iterations: 302
currently lose_sum: 0.6451500058174133
time_elpased: 10.738
#iterations: 303
currently lose_sum: 0.6694804430007935
time_elpased: 10.816
#iterations: 304
currently lose_sum: 0.693210780620575
time_elpased: 10.413
#iterations: 305
currently lose_sum: 0.6371368169784546
time_elpased: 10.348
#iterations: 306
currently lose_sum: 0.6926264762878418
time_elpased: 10.169
#iterations: 307
currently lose_sum: 0.650653600692749
time_elpased: 10.161
#iterations: 308
currently lose_sum: 0.675524890422821
time_elpased: 10.821
#iterations: 309
currently lose_sum: 0.6634271144866943
time_elpased: 10.905
#iterations: 310
currently lose_sum: 0.6239519119262695
time_elpased: 11.128
#iterations: 311
currently lose_sum: 0.6509124040603638
time_elpased: 10.204
#iterations: 312
currently lose_sum: 0.6316520571708679
time_elpased: 10.219
#iterations: 313
currently lose_sum: 0.6295105218887329
time_elpased: 10.663
#iterations: 314
currently lose_sum: 0.6438595652580261
time_elpased: 10.445
#iterations: 315
currently lose_sum: 0.6481838822364807
time_elpased: 10.709
#iterations: 316
currently lose_sum: 0.64861661195755
time_elpased: 10.917
#iterations: 317
currently lose_sum: 0.6626560091972351
time_elpased: 10.801
#iterations: 318
currently lose_sum: 0.67351895570755
time_elpased: 10.242
#iterations: 319
currently lose_sum: 0.6685738563537598
time_elpased: 10.203
start validation test
0.5784
0.602294455067
0.496845425868
0.544511668107
0.579591544103
16.845
#iterations: 320
currently lose_sum: 0.6591840386390686
time_elpased: 10.618
#iterations: 321
currently lose_sum: 0.6658540368080139
time_elpased: 10.378
#iterations: 322
currently lose_sum: 0.6634756326675415
time_elpased: 10.62
#iterations: 323
currently lose_sum: 0.6527256965637207
time_elpased: 10.456
#iterations: 324
currently lose_sum: 0.6236478686332703
time_elpased: 10.689
#iterations: 325
currently lose_sum: 0.6692019701004028
time_elpased: 10.791
#iterations: 326
currently lose_sum: 0.6368752121925354
time_elpased: 10.566
#iterations: 327
currently lose_sum: 0.6542350649833679
time_elpased: 10.787
#iterations: 328
currently lose_sum: 0.6692761778831482
time_elpased: 10.854
#iterations: 329
currently lose_sum: 0.6335102319717407
time_elpased: 10.432
#iterations: 330
currently lose_sum: 0.6471132040023804
time_elpased: 10.917
#iterations: 331
currently lose_sum: 0.6418993473052979
time_elpased: 10.671
#iterations: 332
currently lose_sum: 0.6695356965065002
time_elpased: 10.326
#iterations: 333
currently lose_sum: 0.6552680134773254
time_elpased: 10.219
#iterations: 334
currently lose_sum: 0.6802994012832642
time_elpased: 10.989
#iterations: 335
currently lose_sum: 0.6569765210151672
time_elpased: 10.779
#iterations: 336
currently lose_sum: 0.6459219455718994
time_elpased: 10.98
#iterations: 337
currently lose_sum: 0.6548965573310852
time_elpased: 10.941
#iterations: 338
currently lose_sum: 0.6583647727966309
time_elpased: 10.85
#iterations: 339
currently lose_sum: 0.6280105710029602
time_elpased: 10.944
start validation test
0.5928
0.601791530945
0.582807570978
0.592147435897
0.592945993281
16.727
#iterations: 340
currently lose_sum: 0.667509138584137
time_elpased: 10.949
#iterations: 341
currently lose_sum: 0.6383552551269531
time_elpased: 10.634
#iterations: 342
currently lose_sum: 0.6243284344673157
time_elpased: 10.81
#iterations: 343
currently lose_sum: 0.6395052075386047
time_elpased: 10.881
#iterations: 344
currently lose_sum: 0.6734849810600281
time_elpased: 10.987
#iterations: 345
currently lose_sum: 0.6193215250968933
time_elpased: 10.183
#iterations: 346
currently lose_sum: 0.656379222869873
time_elpased: 10.986
#iterations: 347
currently lose_sum: 0.6758854389190674
time_elpased: 10.91
#iterations: 348
currently lose_sum: 0.6653425693511963
time_elpased: 10.656
#iterations: 349
currently lose_sum: 0.6581096649169922
time_elpased: 10.185
#iterations: 350
currently lose_sum: 0.6518600583076477
time_elpased: 10.898
#iterations: 351
currently lose_sum: 0.6363635659217834
time_elpased: 10.924
#iterations: 352
currently lose_sum: 0.6558570265769958
time_elpased: 10.266
#iterations: 353
currently lose_sum: 0.6464495658874512
time_elpased: 10.659
#iterations: 354
currently lose_sum: 0.6507814526557922
time_elpased: 10.754
#iterations: 355
currently lose_sum: 0.620413064956665
time_elpased: 10.882
#iterations: 356
currently lose_sum: 0.6487740874290466
time_elpased: 10.89
#iterations: 357
currently lose_sum: 0.6584718227386475
time_elpased: 10.582
#iterations: 358
currently lose_sum: 0.6896002292633057
time_elpased: 10.911
#iterations: 359
currently lose_sum: 0.630013108253479
time_elpased: 10.914
start validation test
0.5948
0.610198789974
0.556782334385
0.582268041237
0.595355452907
16.660
#iterations: 360
currently lose_sum: 0.6094458103179932
time_elpased: 10.689
#iterations: 361
currently lose_sum: 0.6409612894058228
time_elpased: 10.562
#iterations: 362
currently lose_sum: 0.6125779747962952
time_elpased: 10.934
#iterations: 363
currently lose_sum: 0.640052318572998
time_elpased: 10.978
#iterations: 364
currently lose_sum: 0.6702633500099182
time_elpased: 10.915
#iterations: 365
currently lose_sum: 0.6803072094917297
time_elpased: 10.333
#iterations: 366
currently lose_sum: 0.656684935092926
time_elpased: 10.182
#iterations: 367
currently lose_sum: 0.624276340007782
time_elpased: 10.423
#iterations: 368
currently lose_sum: 0.6239063739776611
time_elpased: 10.924
#iterations: 369
currently lose_sum: 0.6554365754127502
time_elpased: 10.706
#iterations: 370
currently lose_sum: 0.6544519066810608
time_elpased: 10.472
#iterations: 371
currently lose_sum: 0.6435657739639282
time_elpased: 10.92
#iterations: 372
currently lose_sum: 0.6439520120620728
time_elpased: 10.353
#iterations: 373
currently lose_sum: 0.6468883752822876
time_elpased: 10.277
#iterations: 374
currently lose_sum: 0.6106435656547546
time_elpased: 10.398
#iterations: 375
currently lose_sum: 0.6585789322853088
time_elpased: 10.661
#iterations: 376
currently lose_sum: 0.6594377160072327
time_elpased: 10.524
#iterations: 377
currently lose_sum: 0.664126455783844
time_elpased: 10.525
#iterations: 378
currently lose_sum: 0.6100969910621643
time_elpased: 10.891
#iterations: 379
currently lose_sum: 0.6286660432815552
time_elpased: 10.541
start validation test
0.5948
0.624148003895
0.505520504732
0.558605664488
0.59610440821
16.928
#iterations: 380
currently lose_sum: 0.6350581049919128
time_elpased: 10.795
#iterations: 381
currently lose_sum: 0.6886744499206543
time_elpased: 10.951
#iterations: 382
currently lose_sum: 0.5922455787658691
time_elpased: 10.948
#iterations: 383
currently lose_sum: 0.6698833703994751
time_elpased: 10.841
#iterations: 384
currently lose_sum: 0.6125434041023254
time_elpased: 10.901
#iterations: 385
currently lose_sum: 0.6759292483329773
time_elpased: 10.452
#iterations: 386
currently lose_sum: 0.6566740274429321
time_elpased: 10.218
#iterations: 387
currently lose_sum: 0.6704318523406982
time_elpased: 10.64
#iterations: 388
currently lose_sum: 0.6229099035263062
time_elpased: 10.728
#iterations: 389
currently lose_sum: 0.636944591999054
time_elpased: 10.437
#iterations: 390
currently lose_sum: 0.6498475670814514
time_elpased: 10.934
#iterations: 391
currently lose_sum: 0.6430338025093079
time_elpased: 10.604
#iterations: 392
currently lose_sum: 0.6431341767311096
time_elpased: 10.228
#iterations: 393
currently lose_sum: 0.6509715914726257
time_elpased: 10.788
#iterations: 394
currently lose_sum: 0.6303210258483887
time_elpased: 10.678
#iterations: 395
currently lose_sum: 0.6503103375434875
time_elpased: 10.72
#iterations: 396
currently lose_sum: 0.6576301455497742
time_elpased: 10.865
#iterations: 397
currently lose_sum: 0.6391780972480774
time_elpased: 10.951
#iterations: 398
currently lose_sum: 0.6486271619796753
time_elpased: 11.015
#iterations: 399
currently lose_sum: 0.6471052765846252
time_elpased: 10.713
start validation test
0.5936
0.615384615385
0.529968454259
0.569491525424
0.594529681675
16.872
#iterations: 400
currently lose_sum: 0.6187903881072998
time_elpased: 10.629
#iterations: 401
currently lose_sum: 0.6621918678283691
time_elpased: 10.108
#iterations: 402
currently lose_sum: 0.5850428938865662
time_elpased: 10.658
#iterations: 403
currently lose_sum: 0.6691230535507202
time_elpased: 10.551
#iterations: 404
currently lose_sum: 0.7254242897033691
time_elpased: 10.884
#iterations: 405
currently lose_sum: 0.637500524520874
time_elpased: 10.938
#iterations: 406
currently lose_sum: 0.6615530252456665
time_elpased: 10.186
#iterations: 407
currently lose_sum: 0.6659925580024719
time_elpased: 10.273
#iterations: 408
currently lose_sum: 0.653550922870636
time_elpased: 10.918
#iterations: 409
currently lose_sum: 0.6363170146942139
time_elpased: 10.72
#iterations: 410
currently lose_sum: 0.6333987712860107
time_elpased: 10.93
#iterations: 411
currently lose_sum: 0.6387206315994263
time_elpased: 10.877
#iterations: 412
currently lose_sum: 0.6428005695343018
time_elpased: 10.611
#iterations: 413
currently lose_sum: 0.6460549831390381
time_elpased: 10.519
#iterations: 414
currently lose_sum: 0.6454187035560608
time_elpased: 10.39
#iterations: 415
currently lose_sum: 0.6452621221542358
time_elpased: 10.226
#iterations: 416
currently lose_sum: 0.6274064779281616
time_elpased: 10.334
#iterations: 417
currently lose_sum: 0.609237015247345
time_elpased: 10.771
#iterations: 418
currently lose_sum: 0.6635398268699646
time_elpased: 10.901
#iterations: 419
currently lose_sum: 0.6849644184112549
time_elpased: 10.95
start validation test
0.5856
0.655080213904
0.38643533123
0.486111111111
0.588509873407
16.895
#iterations: 420
currently lose_sum: 0.6107351183891296
time_elpased: 10.563
#iterations: 421
currently lose_sum: 0.6571980118751526
time_elpased: 10.61
#iterations: 422
currently lose_sum: 0.6593217253684998
time_elpased: 10.149
#iterations: 423
currently lose_sum: 0.6125455498695374
time_elpased: 11.067
#iterations: 424
currently lose_sum: 0.6672760248184204
time_elpased: 9.609
#iterations: 425
currently lose_sum: 0.623954713344574
time_elpased: 10.729
#iterations: 426
currently lose_sum: 0.7159271240234375
time_elpased: 10.725
#iterations: 427
currently lose_sum: 0.5999939441680908
time_elpased: 10.87
#iterations: 428
currently lose_sum: 0.6051241159439087
time_elpased: 10.675
#iterations: 429
currently lose_sum: 0.665148913860321
time_elpased: 10.42
#iterations: 430
currently lose_sum: 0.6306556463241577
time_elpased: 10.346
#iterations: 431
currently lose_sum: 0.6601791381835938
time_elpased: 10.96
#iterations: 432
currently lose_sum: 0.6379354000091553
time_elpased: 11.079
#iterations: 433
currently lose_sum: 0.65362548828125
time_elpased: 10.618
#iterations: 434
currently lose_sum: 0.6938945055007935
time_elpased: 10.912
#iterations: 435
currently lose_sum: 0.6389637589454651
time_elpased: 10.17
#iterations: 436
currently lose_sum: 0.6517578363418579
time_elpased: 10.699
#iterations: 437
currently lose_sum: 0.632741391658783
time_elpased: 10.438
#iterations: 438
currently lose_sum: 0.6387318968772888
time_elpased: 10.85
#iterations: 439
currently lose_sum: 0.6480932831764221
time_elpased: 10.816
start validation test
0.5744
0.564556962025
0.703470031546
0.626404494382
0.572514236552
16.772
#iterations: 440
currently lose_sum: 0.6129425764083862
time_elpased: 10.623
#iterations: 441
currently lose_sum: 0.6739980578422546
time_elpased: 10.994
#iterations: 442
currently lose_sum: 0.6571693420410156
time_elpased: 10.395
#iterations: 443
currently lose_sum: 0.635335385799408
time_elpased: 10.436
#iterations: 444
currently lose_sum: 0.6543060541152954
time_elpased: 10.902
#iterations: 445
currently lose_sum: 0.6376185417175293
time_elpased: 10.966
#iterations: 446
currently lose_sum: 0.6075347065925598
time_elpased: 10.293
#iterations: 447
currently lose_sum: 0.616807758808136
time_elpased: 10.894
#iterations: 448
currently lose_sum: 0.6367696523666382
time_elpased: 10.799
#iterations: 449
currently lose_sum: 0.6654019951820374
time_elpased: 10.907
#iterations: 450
currently lose_sum: 0.680691123008728
time_elpased: 10.331
#iterations: 451
currently lose_sum: 0.684161365032196
time_elpased: 10.161
#iterations: 452
currently lose_sum: 0.6348389387130737
time_elpased: 10.644
#iterations: 453
currently lose_sum: 0.5896570086479187
time_elpased: 10.78
#iterations: 454
currently lose_sum: 0.6408255100250244
time_elpased: 10.448
#iterations: 455
currently lose_sum: 0.6251459717750549
time_elpased: 10.937
#iterations: 456
currently lose_sum: 0.7019686102867126
time_elpased: 10.791
#iterations: 457
currently lose_sum: 0.6477355360984802
time_elpased: 10.804
#iterations: 458
currently lose_sum: 0.6700654625892639
time_elpased: 10.856
#iterations: 459
currently lose_sum: 0.6676954030990601
time_elpased: 10.841
start validation test
0.5904
0.622244488978
0.489747634069
0.548102383054
0.591870570281
16.625
#iterations: 460
currently lose_sum: 0.6544647216796875
time_elpased: 10.763
#iterations: 461
currently lose_sum: 0.6323341727256775
time_elpased: 10.973
#iterations: 462
currently lose_sum: 0.6313607096672058
time_elpased: 10.476
#iterations: 463
currently lose_sum: 0.62506502866745
time_elpased: 10.943
#iterations: 464
currently lose_sum: 0.680815577507019
time_elpased: 10.938
#iterations: 465
currently lose_sum: 0.6756117343902588
time_elpased: 10.989
#iterations: 466
currently lose_sum: 0.653731107711792
time_elpased: 10.345
#iterations: 467
currently lose_sum: 0.6502118110656738
time_elpased: 10.43
#iterations: 468
currently lose_sum: 0.6494467854499817
time_elpased: 10.959
#iterations: 469
currently lose_sum: 0.6546006798744202
time_elpased: 10.756
#iterations: 470
currently lose_sum: 0.6562167406082153
time_elpased: 10.912
#iterations: 471
currently lose_sum: 0.6511623859405518
time_elpased: 10.973
#iterations: 472
currently lose_sum: 0.6432325839996338
time_elpased: 10.862
#iterations: 473
currently lose_sum: 0.6406463384628296
time_elpased: 10.645
#iterations: 474
currently lose_sum: 0.608852744102478
time_elpased: 10.937
#iterations: 475
currently lose_sum: 0.6028187870979309
time_elpased: 10.654
#iterations: 476
currently lose_sum: 0.6432505249977112
time_elpased: 10.9
#iterations: 477
currently lose_sum: 0.6741569638252258
time_elpased: 10.985
#iterations: 478
currently lose_sum: 0.6505048871040344
time_elpased: 10.603
#iterations: 479
currently lose_sum: 0.622283399105072
time_elpased: 10.809
start validation test
0.5868
0.637426900585
0.429810725552
0.513424399435
0.589093674464
16.744
#iterations: 480
currently lose_sum: 0.6363540291786194
time_elpased: 10.914
#iterations: 481
currently lose_sum: 0.6202015280723572
time_elpased: 10.842
#iterations: 482
currently lose_sum: 0.6692565083503723
time_elpased: 10.959
#iterations: 483
currently lose_sum: 0.6293606758117676
time_elpased: 10.928
#iterations: 484
currently lose_sum: 0.6340930461883545
time_elpased: 10.56
#iterations: 485
currently lose_sum: 0.693184494972229
time_elpased: 10.949
#iterations: 486
currently lose_sum: 0.6404958963394165
time_elpased: 10.844
#iterations: 487
currently lose_sum: 0.6030053496360779
time_elpased: 10.885
#iterations: 488
currently lose_sum: 0.6337726712226868
time_elpased: 10.347
#iterations: 489
currently lose_sum: 0.6856471300125122
time_elpased: 10.597
#iterations: 490
currently lose_sum: 0.6655611991882324
time_elpased: 10.737
#iterations: 491
currently lose_sum: 0.6466511487960815
time_elpased: 10.821
#iterations: 492
currently lose_sum: 0.6275385618209839
time_elpased: 10.058
#iterations: 493
currently lose_sum: 0.6497564911842346
time_elpased: 10.326
#iterations: 494
currently lose_sum: 0.6342461109161377
time_elpased: 10.311
#iterations: 495
currently lose_sum: 0.6566519141197205
time_elpased: 10.626
#iterations: 496
currently lose_sum: 0.7090222239494324
time_elpased: 10.338
#iterations: 497
currently lose_sum: 0.6589052081108093
time_elpased: 10.967
#iterations: 498
currently lose_sum: 0.652493417263031
time_elpased: 10.583
#iterations: 499
currently lose_sum: 0.6095367670059204
time_elpased: 10.282
start validation test
0.5688
0.678571428571
0.284700315457
0.401111111111
0.572950807079
17.225
#iterations: 500
currently lose_sum: 0.6702903509140015
time_elpased: 10.341
#iterations: 501
currently lose_sum: 0.623045027256012
time_elpased: 10.873
#iterations: 502
currently lose_sum: 0.6262297630310059
time_elpased: 10.943
#iterations: 503
currently lose_sum: 0.6186820864677429
time_elpased: 10.399
#iterations: 504
currently lose_sum: 0.6764875650405884
time_elpased: 10.706
#iterations: 505
currently lose_sum: 0.6558886766433716
time_elpased: 10.942
#iterations: 506
currently lose_sum: 0.6559335589408875
time_elpased: 10.728
#iterations: 507
currently lose_sum: 0.63409823179245
time_elpased: 10.564
#iterations: 508
currently lose_sum: 0.6619209051132202
time_elpased: 10.892
#iterations: 509
currently lose_sum: 0.6248875856399536
time_elpased: 10.95
#iterations: 510
currently lose_sum: 0.6734837293624878
time_elpased: 10.926
#iterations: 511
currently lose_sum: 0.6261568665504456
time_elpased: 10.83
#iterations: 512
currently lose_sum: 0.6872119903564453
time_elpased: 10.428
#iterations: 513
currently lose_sum: 0.6329439282417297
time_elpased: 10.857
#iterations: 514
currently lose_sum: 0.6282159686088562
time_elpased: 10.339
#iterations: 515
currently lose_sum: 0.6092190146446228
time_elpased: 10.586
#iterations: 516
currently lose_sum: 0.6469970941543579
time_elpased: 10.887
#iterations: 517
currently lose_sum: 0.6032271385192871
time_elpased: 10.72
#iterations: 518
currently lose_sum: 0.585727870464325
time_elpased: 10.366
#iterations: 519
currently lose_sum: 0.6372615694999695
time_elpased: 10.69
start validation test
0.5868
0.631578947368
0.444794952681
0.521980564553
0.588874749068
16.826
#iterations: 520
currently lose_sum: 0.6701867580413818
time_elpased: 10.849
#iterations: 521
currently lose_sum: 0.5856665372848511
time_elpased: 11.013
#iterations: 522
currently lose_sum: 0.591945469379425
time_elpased: 10.791
#iterations: 523
currently lose_sum: 0.6649882793426514
time_elpased: 10.347
#iterations: 524
currently lose_sum: 0.6212844252586365
time_elpased: 10.969
#iterations: 525
currently lose_sum: 0.626793384552002
time_elpased: 10.73
#iterations: 526
currently lose_sum: 0.6630771160125732
time_elpased: 10.51
#iterations: 527
currently lose_sum: 0.6311423778533936
time_elpased: 10.503
#iterations: 528
currently lose_sum: 0.6965707540512085
time_elpased: 9.775
#iterations: 529
currently lose_sum: 0.6148668527603149
time_elpased: 10.669
#iterations: 530
currently lose_sum: 0.6311315298080444
time_elpased: 10.939
#iterations: 531
currently lose_sum: 0.5926147699356079
time_elpased: 10.839
#iterations: 532
currently lose_sum: 0.6280275583267212
time_elpased: 10.726
#iterations: 533
currently lose_sum: 0.6155945062637329
time_elpased: 10.903
#iterations: 534
currently lose_sum: 0.6435487866401672
time_elpased: 10.675
#iterations: 535
currently lose_sum: 0.5922670960426331
time_elpased: 10.704
#iterations: 536
currently lose_sum: 0.6468936800956726
time_elpased: 10.559
#iterations: 537
currently lose_sum: 0.6338565349578857
time_elpased: 10.712
#iterations: 538
currently lose_sum: 0.630833625793457
time_elpased: 10.705
#iterations: 539
currently lose_sum: 0.667457103729248
time_elpased: 10.152
start validation test
0.5876
0.646115906289
0.413249211356
0.504088504089
0.590147332951
16.731
#iterations: 540
currently lose_sum: 0.6605519652366638
time_elpased: 10.803
#iterations: 541
currently lose_sum: 0.6487563252449036
time_elpased: 11.089
#iterations: 542
currently lose_sum: 0.6311720609664917
time_elpased: 10.831
#iterations: 543
currently lose_sum: 0.6312825083732605
time_elpased: 10.912
#iterations: 544
currently lose_sum: 0.6289418339729309
time_elpased: 10.962
#iterations: 545
currently lose_sum: 0.6828147768974304
time_elpased: 10.128
#iterations: 546
currently lose_sum: 0.6251027584075928
time_elpased: 10.023
#iterations: 547
currently lose_sum: 0.6291276812553406
time_elpased: 10.711
#iterations: 548
currently lose_sum: 0.6602624654769897
time_elpased: 10.71
#iterations: 549
currently lose_sum: 0.6415860056877136
time_elpased: 10.657
#iterations: 550
currently lose_sum: 0.6261909604072571
time_elpased: 10.179
#iterations: 551
currently lose_sum: 0.640249490737915
time_elpased: 10.566
#iterations: 552
currently lose_sum: 0.6548768877983093
time_elpased: 10.881
#iterations: 553
currently lose_sum: 0.6226077675819397
time_elpased: 10.222
#iterations: 554
currently lose_sum: 0.6522862911224365
time_elpased: 10.384
#iterations: 555
currently lose_sum: 0.6026614308357239
time_elpased: 10.159
#iterations: 556
currently lose_sum: 0.6867925524711609
time_elpased: 10.598
#iterations: 557
currently lose_sum: 0.661827027797699
time_elpased: 10.151
#iterations: 558
currently lose_sum: 0.6378737092018127
time_elpased: 10.258
#iterations: 559
currently lose_sum: 0.6142734289169312
time_elpased: 10.06
start validation test
0.5844
0.569859670531
0.736593059937
0.642586859305
0.582176400098
16.819
#iterations: 560
currently lose_sum: 0.6664093732833862
time_elpased: 10.77
#iterations: 561
currently lose_sum: 0.6397867798805237
time_elpased: 10.933
#iterations: 562
currently lose_sum: 0.6100380420684814
time_elpased: 10.486
#iterations: 563
currently lose_sum: 0.6245580911636353
time_elpased: 10.823
#iterations: 564
currently lose_sum: 0.6573618054389954
time_elpased: 10.463
#iterations: 565
currently lose_sum: 0.603567898273468
time_elpased: 10.527
#iterations: 566
currently lose_sum: 0.6611568331718445
time_elpased: 10.247
#iterations: 567
currently lose_sum: 0.6164796948432922
time_elpased: 10.678
#iterations: 568
currently lose_sum: 0.5960295796394348
time_elpased: 10.94
#iterations: 569
currently lose_sum: 0.6510378122329712
time_elpased: 10.158
#iterations: 570
currently lose_sum: 0.6423724889755249
time_elpased: 10.519
#iterations: 571
currently lose_sum: 0.6081276535987854
time_elpased: 10.948
#iterations: 572
currently lose_sum: 0.6477552652359009
time_elpased: 10.914
#iterations: 573
currently lose_sum: 0.6809872984886169
time_elpased: 10.861
#iterations: 574
currently lose_sum: 0.6404037475585938
time_elpased: 10.967
#iterations: 575
currently lose_sum: 0.6823914051055908
time_elpased: 10.833
#iterations: 576
currently lose_sum: 0.6402162313461304
time_elpased: 10.907
#iterations: 577
currently lose_sum: 0.6317562460899353
time_elpased: 10.739
#iterations: 578
currently lose_sum: 0.6372236013412476
time_elpased: 10.891
#iterations: 579
currently lose_sum: 0.6001532673835754
time_elpased: 10.622
start validation test
0.5944
0.601762820513
0.592271293375
0.596979332273
0.594431101233
16.709
#iterations: 580
currently lose_sum: 0.6623172760009766
time_elpased: 10.608
#iterations: 581
currently lose_sum: 0.6150349378585815
time_elpased: 10.581
#iterations: 582
currently lose_sum: 0.6788520216941833
time_elpased: 10.832
#iterations: 583
currently lose_sum: 0.7054722309112549
time_elpased: 10.32
#iterations: 584
currently lose_sum: 0.7152593731880188
time_elpased: 10.367
#iterations: 585
currently lose_sum: 0.6871166825294495
time_elpased: 10.43
#iterations: 586
currently lose_sum: 0.6970718502998352
time_elpased: 10.563
#iterations: 587
currently lose_sum: 0.5903697609901428
time_elpased: 10.898
#iterations: 588
currently lose_sum: 0.6759802103042603
time_elpased: 11.149
#iterations: 589
currently lose_sum: 0.6244099140167236
time_elpased: 9.735
#iterations: 590
currently lose_sum: 0.6406565308570862
time_elpased: 10.949
#iterations: 591
currently lose_sum: 0.679930567741394
time_elpased: 11.136
#iterations: 592
currently lose_sum: 0.662900447845459
time_elpased: 10.893
#iterations: 593
currently lose_sum: 0.6740216612815857
time_elpased: 10.407
#iterations: 594
currently lose_sum: 0.6000339388847351
time_elpased: 10.403
#iterations: 595
currently lose_sum: 0.689382791519165
time_elpased: 10.329
#iterations: 596
currently lose_sum: 0.5892401337623596
time_elpased: 10.727
#iterations: 597
currently lose_sum: 0.5825186371803284
time_elpased: 10.174
#iterations: 598
currently lose_sum: 0.6556480526924133
time_elpased: 10.323
#iterations: 599
currently lose_sum: 0.633482038974762
time_elpased: 10.288
start validation test
0.5668
0.700650759219
0.254731861199
0.373626373626
0.571359437093
17.343
acc: 0.587
pre: 0.612
rec: 0.505
F1: 0.553
auc: 0.588
