start to construct computing graph
graph construct over
3803
epochs start
#iterations: 0
currently lose_sum: 0.6946440935134888
time_elpased: 10.881
#iterations: 1
currently lose_sum: 0.6952781677246094
time_elpased: 10.551
#iterations: 2
currently lose_sum: 0.7365505695343018
time_elpased: 10.451
#iterations: 3
currently lose_sum: 0.6922277808189392
time_elpased: 10.597
#iterations: 4
currently lose_sum: 0.68853360414505
time_elpased: 10.635
#iterations: 5
currently lose_sum: 0.6942497491836548
time_elpased: 10.613
#iterations: 6
currently lose_sum: 0.703623354434967
time_elpased: 10.565
#iterations: 7
currently lose_sum: 0.7012667655944824
time_elpased: 10.376
#iterations: 8
currently lose_sum: 0.6834883093833923
time_elpased: 10.305
#iterations: 9
currently lose_sum: 0.7012020349502563
time_elpased: 10.343
#iterations: 10
currently lose_sum: 0.6857627630233765
time_elpased: 10.465
#iterations: 11
currently lose_sum: 0.7000560164451599
time_elpased: 10.591
#iterations: 12
currently lose_sum: 0.6925313472747803
time_elpased: 10.538
#iterations: 13
currently lose_sum: 0.6762306690216064
time_elpased: 10.391
#iterations: 14
currently lose_sum: 0.7006317377090454
time_elpased: 10.42
#iterations: 15
currently lose_sum: 0.6998165845870972
time_elpased: 10.479
#iterations: 16
currently lose_sum: 0.703158438205719
time_elpased: 10.407
#iterations: 17
currently lose_sum: 0.6737695932388306
time_elpased: 11.49
#iterations: 18
currently lose_sum: 0.7130366563796997
time_elpased: 10.49
#iterations: 19
currently lose_sum: 0.6959118843078613
time_elpased: 10.351
start validation test
0.5324
0.556064073227
0.383583267561
0.453993461
0.534451812207
17.413
#iterations: 20
currently lose_sum: 0.678099513053894
time_elpased: 9.053
#iterations: 21
currently lose_sum: 0.6870719790458679
time_elpased: 9.001
#iterations: 22
currently lose_sum: 0.7100871205329895
time_elpased: 9.29
#iterations: 23
currently lose_sum: 0.6781414747238159
time_elpased: 9.093
#iterations: 24
currently lose_sum: 0.7014997005462646
time_elpased: 9.046
#iterations: 25
currently lose_sum: 0.6806965470314026
time_elpased: 8.975
#iterations: 26
currently lose_sum: 0.6817558407783508
time_elpased: 9.153
#iterations: 27
currently lose_sum: 0.6876922845840454
time_elpased: 9.271
#iterations: 28
currently lose_sum: 0.689253032207489
time_elpased: 9.26
#iterations: 29
currently lose_sum: 0.7075486183166504
time_elpased: 9.105
#iterations: 30
currently lose_sum: 0.6930152177810669
time_elpased: 9.057
#iterations: 31
currently lose_sum: 0.6773812174797058
time_elpased: 9.085
#iterations: 32
currently lose_sum: 0.6870143413543701
time_elpased: 9.301
#iterations: 33
currently lose_sum: 0.6907221078872681
time_elpased: 9.146
#iterations: 34
currently lose_sum: 0.6720283627510071
time_elpased: 9.06
#iterations: 35
currently lose_sum: 0.6677972674369812
time_elpased: 9.201
#iterations: 36
currently lose_sum: 0.6944373250007629
time_elpased: 8.976
#iterations: 37
currently lose_sum: 0.6805456280708313
time_elpased: 9.298
#iterations: 38
currently lose_sum: 0.6830572485923767
time_elpased: 9.185
#iterations: 39
currently lose_sum: 0.7032851576805115
time_elpased: 9.087
start validation test
0.54
0.534594914252
0.713496448303
0.611223799865
0.53760791596
17.069
#iterations: 40
currently lose_sum: 0.6992884874343872
time_elpased: 9.697
#iterations: 41
currently lose_sum: 0.6911958456039429
time_elpased: 9.178
#iterations: 42
currently lose_sum: 0.660280168056488
time_elpased: 9.417
#iterations: 43
currently lose_sum: 0.6738300323486328
time_elpased: 10.201
#iterations: 44
currently lose_sum: 0.6672548651695251
time_elpased: 10.244
#iterations: 45
currently lose_sum: 0.7008978128433228
time_elpased: 9.569
#iterations: 46
currently lose_sum: 0.6955694556236267
time_elpased: 9.474
#iterations: 47
currently lose_sum: 0.6786019802093506
time_elpased: 8.946
#iterations: 48
currently lose_sum: 0.7128903865814209
time_elpased: 8.94
#iterations: 49
currently lose_sum: 0.6860100030899048
time_elpased: 8.811
#iterations: 50
currently lose_sum: 0.6849673390388489
time_elpased: 9.003
#iterations: 51
currently lose_sum: 0.6562227010726929
time_elpased: 8.958
#iterations: 52
currently lose_sum: 0.673725426197052
time_elpased: 7.919
#iterations: 53
currently lose_sum: 0.6859462261199951
time_elpased: 6.839
#iterations: 54
currently lose_sum: 0.6623422503471375
time_elpased: 9.188
#iterations: 55
currently lose_sum: 0.6555052995681763
time_elpased: 9.484
#iterations: 56
currently lose_sum: 0.6877454519271851
time_elpased: 9.538
#iterations: 57
currently lose_sum: 0.6798886656761169
time_elpased: 9.391
#iterations: 58
currently lose_sum: 0.6813240051269531
time_elpased: 9.449
#iterations: 59
currently lose_sum: 0.6792156100273132
time_elpased: 9.835
start validation test
0.5644
0.593291404612
0.446724546172
0.509680324178
0.566022451513
16.996
#iterations: 60
currently lose_sum: 0.6830953359603882
time_elpased: 10.027
#iterations: 61
currently lose_sum: 0.6804299354553223
time_elpased: 9.859
#iterations: 62
currently lose_sum: 0.677967369556427
time_elpased: 9.715
#iterations: 63
currently lose_sum: 0.6831938028335571
time_elpased: 10.033
#iterations: 64
currently lose_sum: 0.6608031988143921
time_elpased: 10.159
#iterations: 65
currently lose_sum: 0.673022449016571
time_elpased: 9.861
#iterations: 66
currently lose_sum: 0.7078513503074646
time_elpased: 10.04
#iterations: 67
currently lose_sum: 0.6551042199134827
time_elpased: 9.978
#iterations: 68
currently lose_sum: 0.6811487078666687
time_elpased: 10.17
#iterations: 69
currently lose_sum: 0.6706184148788452
time_elpased: 9.579
#iterations: 70
currently lose_sum: 0.6925473809242249
time_elpased: 10.11
#iterations: 71
currently lose_sum: 0.6721330285072327
time_elpased: 9.975
#iterations: 72
currently lose_sum: 0.674071729183197
time_elpased: 9.812
#iterations: 73
currently lose_sum: 0.6655598282814026
time_elpased: 9.967
#iterations: 74
currently lose_sum: 0.6884385943412781
time_elpased: 9.86
#iterations: 75
currently lose_sum: 0.6980166435241699
time_elpased: 10.023
#iterations: 76
currently lose_sum: 0.6727741956710815
time_elpased: 9.323
#iterations: 77
currently lose_sum: 0.6799054741859436
time_elpased: 10.668
#iterations: 78
currently lose_sum: 0.6558231115341187
time_elpased: 10.579
#iterations: 79
currently lose_sum: 0.6680198907852173
time_elpased: 11.144
start validation test
0.5564
0.56454248366
0.545382794002
0.554797270173
0.556551899839
16.887
#iterations: 80
currently lose_sum: 0.6658265590667725
time_elpased: 10.108
#iterations: 81
currently lose_sum: 0.6665989756584167
time_elpased: 11.175
#iterations: 82
currently lose_sum: 0.6642154455184937
time_elpased: 10.304
#iterations: 83
currently lose_sum: 0.6753642559051514
time_elpased: 10.032
#iterations: 84
currently lose_sum: 0.6789389252662659
time_elpased: 10.0
#iterations: 85
currently lose_sum: 0.6976959109306335
time_elpased: 9.77
#iterations: 86
currently lose_sum: 0.6986151933670044
time_elpased: 9.867
#iterations: 87
currently lose_sum: 0.6543203592300415
time_elpased: 9.944
#iterations: 88
currently lose_sum: 0.6750985980033875
time_elpased: 10.639
#iterations: 89
currently lose_sum: 0.6415124535560608
time_elpased: 10.556
#iterations: 90
currently lose_sum: 0.6917384266853333
time_elpased: 10.516
#iterations: 91
currently lose_sum: 0.674638032913208
time_elpased: 10.421
#iterations: 92
currently lose_sum: 0.6867356300354004
time_elpased: 10.511
#iterations: 93
currently lose_sum: 0.6690446734428406
time_elpased: 10.007
#iterations: 94
currently lose_sum: 0.6774353981018066
time_elpased: 11.628
#iterations: 95
currently lose_sum: 0.6597936749458313
time_elpased: 10.506
#iterations: 96
currently lose_sum: 0.6999360918998718
time_elpased: 10.339
#iterations: 97
currently lose_sum: 0.671002984046936
time_elpased: 10.49
#iterations: 98
currently lose_sum: 0.6721151471138
time_elpased: 10.256
#iterations: 99
currently lose_sum: 0.672244668006897
time_elpased: 10.634
start validation test
0.576
0.581431943352
0.583267561168
0.582348305753
0.575899798427
16.774
#iterations: 100
currently lose_sum: 0.6631503105163574
time_elpased: 9.954
#iterations: 101
currently lose_sum: 0.6603500247001648
time_elpased: 10.197
#iterations: 102
currently lose_sum: 0.6858128309249878
time_elpased: 10.613
#iterations: 103
currently lose_sum: 0.6747891902923584
time_elpased: 10.359
#iterations: 104
currently lose_sum: 0.7079838514328003
time_elpased: 10.27
#iterations: 105
currently lose_sum: 0.6726611256599426
time_elpased: 10.43
#iterations: 106
currently lose_sum: 0.6514442563056946
time_elpased: 10.011
#iterations: 107
currently lose_sum: 0.6694438457489014
time_elpased: 10.607
#iterations: 108
currently lose_sum: 0.666090190410614
time_elpased: 10.452
#iterations: 109
currently lose_sum: 0.6829661726951599
time_elpased: 10.334
#iterations: 110
currently lose_sum: 0.6796683669090271
time_elpased: 9.851
#iterations: 111
currently lose_sum: 0.6571303606033325
time_elpased: 9.844
#iterations: 112
currently lose_sum: 0.6667936444282532
time_elpased: 11.062
#iterations: 113
currently lose_sum: 0.6621014475822449
time_elpased: 10.686
#iterations: 114
currently lose_sum: 0.660993218421936
time_elpased: 10.348
#iterations: 115
currently lose_sum: 0.7002134919166565
time_elpased: 10.404
#iterations: 116
currently lose_sum: 0.683928370475769
time_elpased: 10.618
#iterations: 117
currently lose_sum: 0.665317714214325
time_elpased: 11.307
#iterations: 118
currently lose_sum: 0.6624075174331665
time_elpased: 9.915
#iterations: 119
currently lose_sum: 0.6521775722503662
time_elpased: 10.921
start validation test
0.5464
0.596237337192
0.325177584846
0.420837589377
0.549450106292
17.171
#iterations: 120
currently lose_sum: 0.6633285284042358
time_elpased: 10.673
#iterations: 121
currently lose_sum: 0.6680821776390076
time_elpased: 10.777
#iterations: 122
currently lose_sum: 0.6722050309181213
time_elpased: 10.523
#iterations: 123
currently lose_sum: 0.6531320214271545
time_elpased: 10.992
#iterations: 124
currently lose_sum: 0.7014051675796509
time_elpased: 10.706
#iterations: 125
currently lose_sum: 0.6623303294181824
time_elpased: 10.377
#iterations: 126
currently lose_sum: 0.6566517353057861
time_elpased: 10.481
#iterations: 127
currently lose_sum: 0.6481225490570068
time_elpased: 10.002
#iterations: 128
currently lose_sum: 0.6631228923797607
time_elpased: 10.337
#iterations: 129
currently lose_sum: 0.6657432317733765
time_elpased: 10.612
#iterations: 130
currently lose_sum: 0.6533685326576233
time_elpased: 10.605
#iterations: 131
currently lose_sum: 0.6967659592628479
time_elpased: 10.528
#iterations: 132
currently lose_sum: 0.6495051383972168
time_elpased: 10.603
#iterations: 133
currently lose_sum: 0.6481786966323853
time_elpased: 10.833
#iterations: 134
currently lose_sum: 0.6810544729232788
time_elpased: 10.121
#iterations: 135
currently lose_sum: 0.6691067218780518
time_elpased: 9.755
#iterations: 136
currently lose_sum: 0.6840273141860962
time_elpased: 10.232
#iterations: 137
currently lose_sum: 0.6572675108909607
time_elpased: 9.96
#iterations: 138
currently lose_sum: 0.6581360101699829
time_elpased: 9.963
#iterations: 139
currently lose_sum: 0.6553283929824829
time_elpased: 10.258
start validation test
0.5668
0.611922141119
0.397000789266
0.481570129248
0.569141108339
16.900
#iterations: 140
currently lose_sum: 0.6791651248931885
time_elpased: 10.233
#iterations: 141
currently lose_sum: 0.7058904767036438
time_elpased: 10.58
#iterations: 142
currently lose_sum: 0.6840066313743591
time_elpased: 10.639
#iterations: 143
currently lose_sum: 0.6592986583709717
time_elpased: 10.585
#iterations: 144
currently lose_sum: 0.6802067756652832
time_elpased: 10.223
#iterations: 145
currently lose_sum: 0.6697458028793335
time_elpased: 10.098
#iterations: 146
currently lose_sum: 0.6847695708274841
time_elpased: 10.178
#iterations: 147
currently lose_sum: 0.6542215943336487
time_elpased: 10.037
#iterations: 148
currently lose_sum: 0.6419619917869568
time_elpased: 9.946
#iterations: 149
currently lose_sum: 0.6791529059410095
time_elpased: 9.837
#iterations: 150
currently lose_sum: 0.6403282284736633
time_elpased: 11.255
#iterations: 151
currently lose_sum: 0.6900711059570312
time_elpased: 10.616
#iterations: 152
currently lose_sum: 0.6591161489486694
time_elpased: 10.264
#iterations: 153
currently lose_sum: 0.6797330379486084
time_elpased: 10.405
#iterations: 154
currently lose_sum: 0.6636247038841248
time_elpased: 10.752
#iterations: 155
currently lose_sum: 0.649910569190979
time_elpased: 10.198
#iterations: 156
currently lose_sum: 0.6792400479316711
time_elpased: 10.366
#iterations: 157
currently lose_sum: 0.6418997049331665
time_elpased: 10.194
#iterations: 158
currently lose_sum: 0.6516781449317932
time_elpased: 10.144
#iterations: 159
currently lose_sum: 0.6452179551124573
time_elpased: 10.031
start validation test
0.5748
0.597701149425
0.492501973165
0.540025962787
0.575934684879
16.826
#iterations: 160
currently lose_sum: 0.6526594758033752
time_elpased: 10.597
#iterations: 161
currently lose_sum: 0.6259934902191162
time_elpased: 11.363
#iterations: 162
currently lose_sum: 0.6517763733863831
time_elpased: 10.493
#iterations: 163
currently lose_sum: 0.6812417507171631
time_elpased: 10.668
#iterations: 164
currently lose_sum: 0.6583814024925232
time_elpased: 10.651
#iterations: 165
currently lose_sum: 0.6826179623603821
time_elpased: 10.63
#iterations: 166
currently lose_sum: 0.6875703930854797
time_elpased: 10.16
#iterations: 167
currently lose_sum: 0.6759622693061829
time_elpased: 9.892
#iterations: 168
currently lose_sum: 0.6530525088310242
time_elpased: 9.823
#iterations: 169
currently lose_sum: 0.6865503787994385
time_elpased: 10.863
#iterations: 170
currently lose_sum: 0.665769636631012
time_elpased: 9.762
#iterations: 171
currently lose_sum: 0.6757526993751526
time_elpased: 9.997
#iterations: 172
currently lose_sum: 0.6734890937805176
time_elpased: 10.462
#iterations: 173
currently lose_sum: 0.6680216193199158
time_elpased: 10.672
#iterations: 174
currently lose_sum: 0.6714138984680176
time_elpased: 10.558
#iterations: 175
currently lose_sum: 0.630424976348877
time_elpased: 10.643
#iterations: 176
currently lose_sum: 0.651421308517456
time_elpased: 10.472
#iterations: 177
currently lose_sum: 0.6980822682380676
time_elpased: 10.274
#iterations: 178
currently lose_sum: 0.6583300828933716
time_elpased: 10.548
#iterations: 179
currently lose_sum: 0.668039083480835
time_elpased: 10.819
start validation test
0.5568
0.616058394161
0.333070244672
0.43237704918
0.55988467627
17.276
#iterations: 180
currently lose_sum: 0.6928210258483887
time_elpased: 9.918
#iterations: 181
currently lose_sum: 0.6712159514427185
time_elpased: 10.358
#iterations: 182
currently lose_sum: 0.6181115508079529
time_elpased: 11.756
#iterations: 183
currently lose_sum: 0.6829902529716492
time_elpased: 10.821
#iterations: 184
currently lose_sum: 0.6848905086517334
time_elpased: 9.87
#iterations: 185
currently lose_sum: 0.676902174949646
time_elpased: 9.828
#iterations: 186
currently lose_sum: 0.6816779971122742
time_elpased: 10.061
#iterations: 187
currently lose_sum: 0.6973365545272827
time_elpased: 10.153
#iterations: 188
currently lose_sum: 0.652279794216156
time_elpased: 10.36
#iterations: 189
currently lose_sum: 0.6646543741226196
time_elpased: 9.77
#iterations: 190
currently lose_sum: 0.6623141765594482
time_elpased: 9.896
#iterations: 191
currently lose_sum: 0.6761181354522705
time_elpased: 10.125
#iterations: 192
currently lose_sum: 0.678741455078125
time_elpased: 10.434
#iterations: 193
currently lose_sum: 0.6606321930885315
time_elpased: 10.34
#iterations: 194
currently lose_sum: 0.6666153073310852
time_elpased: 10.595
#iterations: 195
currently lose_sum: 0.6605139374732971
time_elpased: 10.642
#iterations: 196
currently lose_sum: 0.6693505644798279
time_elpased: 10.559
#iterations: 197
currently lose_sum: 0.6459988355636597
time_elpased: 10.405
#iterations: 198
currently lose_sum: 0.6899887323379517
time_elpased: 9.982
#iterations: 199
currently lose_sum: 0.6206324100494385
time_elpased: 9.864
start validation test
0.5928
0.586880669923
0.663772691397
0.622962962963
0.591821463298
16.599
#iterations: 200
currently lose_sum: 0.6823597550392151
time_elpased: 9.944
#iterations: 201
currently lose_sum: 0.6922593116760254
time_elpased: 10.548
#iterations: 202
currently lose_sum: 0.6625636219978333
time_elpased: 10.291
#iterations: 203
currently lose_sum: 0.7011874318122864
time_elpased: 10.481
#iterations: 204
currently lose_sum: 0.6517036557197571
time_elpased: 10.661
#iterations: 205
currently lose_sum: 0.6604762077331543
time_elpased: 10.054
#iterations: 206
currently lose_sum: 0.6684150695800781
time_elpased: 10.64
#iterations: 207
currently lose_sum: 0.6801515817642212
time_elpased: 10.659
#iterations: 208
currently lose_sum: 0.6711437702178955
time_elpased: 11.244
#iterations: 209
currently lose_sum: 0.7059353590011597
time_elpased: 10.237
#iterations: 210
currently lose_sum: 0.6369208693504333
time_elpased: 9.7
#iterations: 211
currently lose_sum: 0.6542900204658508
time_elpased: 10.27
#iterations: 212
currently lose_sum: 0.6636364459991455
time_elpased: 10.247
#iterations: 213
currently lose_sum: 0.6681020855903625
time_elpased: 10.033
#iterations: 214
currently lose_sum: 0.6020371317863464
time_elpased: 10.542
#iterations: 215
currently lose_sum: 0.6587751507759094
time_elpased: 10.351
#iterations: 216
currently lose_sum: 0.649981677532196
time_elpased: 10.534
#iterations: 217
currently lose_sum: 0.6765769124031067
time_elpased: 9.917
#iterations: 218
currently lose_sum: 0.6583032011985779
time_elpased: 10.218
#iterations: 219
currently lose_sum: 0.6293821930885315
time_elpased: 10.27
start validation test
0.5844
0.599476439791
0.542225730071
0.569415665147
0.584981478174
16.636
#iterations: 220
currently lose_sum: 0.6985217332839966
time_elpased: 10.696
#iterations: 221
currently lose_sum: 0.6656399369239807
time_elpased: 10.119
#iterations: 222
currently lose_sum: 0.6528083086013794
time_elpased: 10.327
#iterations: 223
currently lose_sum: 0.6718387603759766
time_elpased: 9.85
#iterations: 224
currently lose_sum: 0.6303552389144897
time_elpased: 10.236
#iterations: 225
currently lose_sum: 0.6433930993080139
time_elpased: 10.544
#iterations: 226
currently lose_sum: 0.6631606221199036
time_elpased: 10.574
#iterations: 227
currently lose_sum: 0.6784077286720276
time_elpased: 10.422
#iterations: 228
currently lose_sum: 0.6588017344474792
time_elpased: 10.476
#iterations: 229
currently lose_sum: 0.6561407446861267
time_elpased: 10.286
#iterations: 230
currently lose_sum: 0.6597320437431335
time_elpased: 10.549
#iterations: 231
currently lose_sum: 0.6618523597717285
time_elpased: 10.588
#iterations: 232
currently lose_sum: 0.6738076210021973
time_elpased: 10.793
#iterations: 233
currently lose_sum: 0.6468318700790405
time_elpased: 10.564
#iterations: 234
currently lose_sum: 0.6529326438903809
time_elpased: 10.371
#iterations: 235
currently lose_sum: 0.6990936398506165
time_elpased: 11.022
#iterations: 236
currently lose_sum: 0.6875144839286804
time_elpased: 10.288
#iterations: 237
currently lose_sum: 0.6354993581771851
time_elpased: 10.254
#iterations: 238
currently lose_sum: 0.6527391076087952
time_elpased: 10.52
#iterations: 239
currently lose_sum: 0.6602884531021118
time_elpased: 10.358
start validation test
0.5636
0.606280193237
0.396211523283
0.47923627685
0.56590787032
16.932
#iterations: 240
currently lose_sum: 0.6703855991363525
time_elpased: 9.856
#iterations: 241
currently lose_sum: 0.6423218250274658
time_elpased: 9.902
#iterations: 242
currently lose_sum: 0.6626995801925659
time_elpased: 10.052
#iterations: 243
currently lose_sum: 0.7006790041923523
time_elpased: 9.779
#iterations: 244
currently lose_sum: 0.6427287459373474
time_elpased: 9.872
#iterations: 245
currently lose_sum: 0.634091854095459
time_elpased: 10.005
#iterations: 246
currently lose_sum: 0.6900797486305237
time_elpased: 10.546
#iterations: 247
currently lose_sum: 0.6751357316970825
time_elpased: 9.898
#iterations: 248
currently lose_sum: 0.6758728623390198
time_elpased: 10.629
#iterations: 249
currently lose_sum: 0.6966037154197693
time_elpased: 10.621
#iterations: 250
currently lose_sum: 0.6545687317848206
time_elpased: 10.373
#iterations: 251
currently lose_sum: 0.644909679889679
time_elpased: 10.53
#iterations: 252
currently lose_sum: 0.6673839092254639
time_elpased: 10.64
#iterations: 253
currently lose_sum: 0.6687960624694824
time_elpased: 10.65
#iterations: 254
currently lose_sum: 0.6247501373291016
time_elpased: 10.331
#iterations: 255
currently lose_sum: 0.6923940181732178
time_elpased: 10.813
#iterations: 256
currently lose_sum: 0.6269990801811218
time_elpased: 10.625
#iterations: 257
currently lose_sum: 0.6562095880508423
time_elpased: 10.09
#iterations: 258
currently lose_sum: 0.6695454120635986
time_elpased: 10.097
#iterations: 259
currently lose_sum: 0.6576471924781799
time_elpased: 10.616
start validation test
0.5912
0.609865470852
0.536700868193
0.570948782536
0.591951407332
16.717
#iterations: 260
currently lose_sum: 0.6478416323661804
time_elpased: 10.657
#iterations: 261
currently lose_sum: 0.65586256980896
time_elpased: 10.753
#iterations: 262
currently lose_sum: 0.6770742535591125
time_elpased: 9.432
#iterations: 263
currently lose_sum: 0.6168212890625
time_elpased: 9.914
#iterations: 264
currently lose_sum: 0.6613053679466248
time_elpased: 9.798
#iterations: 265
currently lose_sum: 0.6755746603012085
time_elpased: 9.93
#iterations: 266
currently lose_sum: 0.6714769005775452
time_elpased: 10.68
#iterations: 267
currently lose_sum: 0.6719659566879272
time_elpased: 10.35
#iterations: 268
currently lose_sum: 0.6993215680122375
time_elpased: 10.014
#iterations: 269
currently lose_sum: 0.6833337545394897
time_elpased: 9.87
#iterations: 270
currently lose_sum: 0.6353902220726013
time_elpased: 10.399
#iterations: 271
currently lose_sum: 0.6483219861984253
time_elpased: 10.602
#iterations: 272
currently lose_sum: 0.7107322216033936
time_elpased: 10.532
#iterations: 273
currently lose_sum: 0.6834093332290649
time_elpased: 10.728
#iterations: 274
currently lose_sum: 0.6578614711761475
time_elpased: 10.195
#iterations: 275
currently lose_sum: 0.6970874071121216
time_elpased: 10.47
#iterations: 276
currently lose_sum: 0.6690657734870911
time_elpased: 10.573
#iterations: 277
currently lose_sum: 0.6743903160095215
time_elpased: 10.076
#iterations: 278
currently lose_sum: 0.6500133275985718
time_elpased: 10.345
#iterations: 279
currently lose_sum: 0.6764490008354187
time_elpased: 10.06
start validation test
0.5964
0.598774885145
0.617205998421
0.60785075787
0.596113137086
16.549
#iterations: 280
currently lose_sum: 0.634937047958374
time_elpased: 10.603
#iterations: 281
currently lose_sum: 0.6599889397621155
time_elpased: 10.573
#iterations: 282
currently lose_sum: 0.6333321928977966
time_elpased: 11.283
#iterations: 283
currently lose_sum: 0.6724342107772827
time_elpased: 9.92
#iterations: 284
currently lose_sum: 0.6522853374481201
time_elpased: 9.696
#iterations: 285
currently lose_sum: 0.6643018126487732
time_elpased: 9.889
#iterations: 286
currently lose_sum: 0.6409448981285095
time_elpased: 9.949
#iterations: 287
currently lose_sum: 0.6755882501602173
time_elpased: 9.891
#iterations: 288
currently lose_sum: 0.6621620059013367
time_elpased: 11.217
#iterations: 289
currently lose_sum: 0.650947093963623
time_elpased: 9.892
#iterations: 290
currently lose_sum: 0.6218372583389282
time_elpased: 9.942
#iterations: 291
currently lose_sum: 0.6142200231552124
time_elpased: 10.573
#iterations: 292
currently lose_sum: 0.6156454086303711
time_elpased: 10.592
#iterations: 293
currently lose_sum: 0.7045318484306335
time_elpased: 9.68
#iterations: 294
currently lose_sum: 0.6187682151794434
time_elpased: 10.518
#iterations: 295
currently lose_sum: 0.6052659749984741
time_elpased: 10.577
#iterations: 296
currently lose_sum: 0.6084694862365723
time_elpased: 10.508
#iterations: 297
currently lose_sum: 0.6371777057647705
time_elpased: 10.206
#iterations: 298
currently lose_sum: 0.6492332220077515
time_elpased: 10.545
#iterations: 299
currently lose_sum: 0.6488127112388611
time_elpased: 10.171
start validation test
0.59
0.581867388363
0.678768745067
0.626593806922
0.588776100027
16.604
#iterations: 300
currently lose_sum: 0.6148069500923157
time_elpased: 10.604
#iterations: 301
currently lose_sum: 0.6674354672431946
time_elpased: 10.491
#iterations: 302
currently lose_sum: 0.6699075102806091
time_elpased: 9.981
#iterations: 303
currently lose_sum: 0.6814082860946655
time_elpased: 10.481
#iterations: 304
currently lose_sum: 0.6607118844985962
time_elpased: 9.848
#iterations: 305
currently lose_sum: 0.6389378905296326
time_elpased: 9.866
#iterations: 306
currently lose_sum: 0.6221738457679749
time_elpased: 10.152
#iterations: 307
currently lose_sum: 0.6647900342941284
time_elpased: 10.655
#iterations: 308
currently lose_sum: 0.6482465863227844
time_elpased: 10.556
#iterations: 309
currently lose_sum: 0.6245459914207458
time_elpased: 10.215
#iterations: 310
currently lose_sum: 0.6279476284980774
time_elpased: 10.732
#iterations: 311
currently lose_sum: 0.6672201752662659
time_elpased: 9.758
#iterations: 312
currently lose_sum: 0.6561829447746277
time_elpased: 11.0
#iterations: 313
currently lose_sum: 0.6805971264839172
time_elpased: 10.737
#iterations: 314
currently lose_sum: 0.639064610004425
time_elpased: 10.853
#iterations: 315
currently lose_sum: 0.6749106049537659
time_elpased: 10.62
#iterations: 316
currently lose_sum: 0.6950526237487793
time_elpased: 10.214
#iterations: 317
currently lose_sum: 0.6568548083305359
time_elpased: 10.72
#iterations: 318
currently lose_sum: 0.6423165202140808
time_elpased: 10.561
#iterations: 319
currently lose_sum: 0.6291337013244629
time_elpased: 10.351
start validation test
0.5968
0.604519774011
0.591160220994
0.597765363128
0.59687775851
16.598
#iterations: 320
currently lose_sum: 0.6612793207168579
time_elpased: 11.201
#iterations: 321
currently lose_sum: 0.6721388101577759
time_elpased: 10.019
#iterations: 322
currently lose_sum: 0.6530993580818176
time_elpased: 10.639
#iterations: 323
currently lose_sum: 0.6719878911972046
time_elpased: 10.77
#iterations: 324
currently lose_sum: 0.628603458404541
time_elpased: 10.537
#iterations: 325
currently lose_sum: 0.6352000832557678
time_elpased: 10.6
#iterations: 326
currently lose_sum: 0.7030119299888611
time_elpased: 10.626
#iterations: 327
currently lose_sum: 0.6095475554466248
time_elpased: 10.65
#iterations: 328
currently lose_sum: 0.6329152584075928
time_elpased: 10.467
#iterations: 329
currently lose_sum: 0.6909663677215576
time_elpased: 10.896
#iterations: 330
currently lose_sum: 0.6997639536857605
time_elpased: 10.521
#iterations: 331
currently lose_sum: 0.6591603755950928
time_elpased: 10.237
#iterations: 332
currently lose_sum: 0.6606342792510986
time_elpased: 10.433
#iterations: 333
currently lose_sum: 0.6123700141906738
time_elpased: 10.163
#iterations: 334
currently lose_sum: 0.6349397301673889
time_elpased: 10.075
#iterations: 335
currently lose_sum: 0.6329676508903503
time_elpased: 10.608
#iterations: 336
currently lose_sum: 0.63583904504776
time_elpased: 10.376
#iterations: 337
currently lose_sum: 0.6095646619796753
time_elpased: 10.075
#iterations: 338
currently lose_sum: 0.6537646651268005
time_elpased: 10.591
#iterations: 339
currently lose_sum: 0.619202196598053
time_elpased: 9.877
start validation test
0.5932
0.601957585644
0.582478295185
0.592057761733
0.593347825614
16.539
#iterations: 340
currently lose_sum: 0.6576852202415466
time_elpased: 10.399
#iterations: 341
currently lose_sum: 0.5984863042831421
time_elpased: 10.617
#iterations: 342
currently lose_sum: 0.6334304213523865
time_elpased: 10.663
#iterations: 343
currently lose_sum: 0.6298904418945312
time_elpased: 10.525
#iterations: 344
currently lose_sum: 0.6303724646568298
time_elpased: 10.307
#iterations: 345
currently lose_sum: 0.686374306678772
time_elpased: 10.088
#iterations: 346
currently lose_sum: 0.6695733070373535
time_elpased: 10.626
#iterations: 347
currently lose_sum: 0.6084774732589722
time_elpased: 10.978
#iterations: 348
currently lose_sum: 0.609382688999176
time_elpased: 10.567
#iterations: 349
currently lose_sum: 0.6511355638504028
time_elpased: 10.487
#iterations: 350
currently lose_sum: 0.6593771576881409
time_elpased: 10.562
#iterations: 351
currently lose_sum: 0.638155460357666
time_elpased: 10.672
#iterations: 352
currently lose_sum: 0.6672784686088562
time_elpased: 10.569
#iterations: 353
currently lose_sum: 0.6722352504730225
time_elpased: 10.549
#iterations: 354
currently lose_sum: 0.6462535858154297
time_elpased: 10.47
#iterations: 355
currently lose_sum: 0.664272129535675
time_elpased: 9.985
#iterations: 356
currently lose_sum: 0.6498383283615112
time_elpased: 9.965
#iterations: 357
currently lose_sum: 0.7116641402244568
time_elpased: 10.289
#iterations: 358
currently lose_sum: 0.6524510383605957
time_elpased: 10.005
#iterations: 359
currently lose_sum: 0.6452537775039673
time_elpased: 10.47
start validation test
0.5908
0.59918699187
0.581689029203
0.590308370044
0.590925617602
16.593
#iterations: 360
currently lose_sum: 0.6394511461257935
time_elpased: 10.514
#iterations: 361
currently lose_sum: 0.6427475214004517
time_elpased: 11.063
#iterations: 362
currently lose_sum: 0.6438915133476257
time_elpased: 10.605
#iterations: 363
currently lose_sum: 0.650706946849823
time_elpased: 10.508
#iterations: 364
currently lose_sum: 0.6023200154304504
time_elpased: 10.4
#iterations: 365
currently lose_sum: 0.6499217748641968
time_elpased: 10.078
#iterations: 366
currently lose_sum: 0.6502059698104858
time_elpased: 10.643
#iterations: 367
currently lose_sum: 0.6327998638153076
time_elpased: 10.621
#iterations: 368
currently lose_sum: 0.637118399143219
time_elpased: 10.621
#iterations: 369
currently lose_sum: 0.6246381998062134
time_elpased: 10.169
#iterations: 370
currently lose_sum: 0.656119704246521
time_elpased: 10.829
#iterations: 371
currently lose_sum: 0.6756261587142944
time_elpased: 9.992
#iterations: 372
currently lose_sum: 0.6507452130317688
time_elpased: 10.489
#iterations: 373
currently lose_sum: 0.6541322469711304
time_elpased: 10.036
#iterations: 374
currently lose_sum: 0.6447708010673523
time_elpased: 10.845
#iterations: 375
currently lose_sum: 0.6627913117408752
time_elpased: 10.705
#iterations: 376
currently lose_sum: 0.6684419512748718
time_elpased: 9.801
#iterations: 377
currently lose_sum: 0.6564944386482239
time_elpased: 10.601
#iterations: 378
currently lose_sum: 0.676102876663208
time_elpased: 9.966
#iterations: 379
currently lose_sum: 0.6418691873550415
time_elpased: 10.919
start validation test
0.5712
0.552447552448
0.810576164167
0.657069737684
0.56789959871
17.002
#iterations: 380
currently lose_sum: 0.6427484154701233
time_elpased: 10.26
#iterations: 381
currently lose_sum: 0.6395760178565979
time_elpased: 10.177
#iterations: 382
currently lose_sum: 0.6503366827964783
time_elpased: 10.633
#iterations: 383
currently lose_sum: 0.6739292740821838
time_elpased: 10.62
#iterations: 384
currently lose_sum: 0.6134231686592102
time_elpased: 10.545
#iterations: 385
currently lose_sum: 0.6871969699859619
time_elpased: 10.442
#iterations: 386
currently lose_sum: 0.6574322581291199
time_elpased: 10.615
#iterations: 387
currently lose_sum: 0.6399989128112793
time_elpased: 10.839
#iterations: 388
currently lose_sum: 0.6897976398468018
time_elpased: 10.164
#iterations: 389
currently lose_sum: 0.6532102227210999
time_elpased: 11.821
#iterations: 390
currently lose_sum: 0.6562211513519287
time_elpased: 10.544
#iterations: 391
currently lose_sum: 0.6446039080619812
time_elpased: 10.439
#iterations: 392
currently lose_sum: 0.6297407150268555
time_elpased: 11.432
#iterations: 393
currently lose_sum: 0.6725004315376282
time_elpased: 10.394
#iterations: 394
currently lose_sum: 0.646574854850769
time_elpased: 10.482
#iterations: 395
currently lose_sum: 0.6592475771903992
time_elpased: 10.713
#iterations: 396
currently lose_sum: 0.5869243741035461
time_elpased: 10.585
#iterations: 397
currently lose_sum: 0.6460002660751343
time_elpased: 10.396
#iterations: 398
currently lose_sum: 0.6599072813987732
time_elpased: 10.095
#iterations: 399
currently lose_sum: 0.6499224901199341
time_elpased: 10.611
start validation test
0.596
0.597570235383
0.621152328335
0.609133126935
0.595653212018
16.592
#iterations: 400
currently lose_sum: 0.6529325246810913
time_elpased: 10.843
#iterations: 401
currently lose_sum: 0.6393200159072876
time_elpased: 10.694
#iterations: 402
currently lose_sum: 0.6561974287033081
time_elpased: 10.635
#iterations: 403
currently lose_sum: 0.6901782751083374
time_elpased: 10.557
#iterations: 404
currently lose_sum: 0.687489926815033
time_elpased: 10.315
#iterations: 405
currently lose_sum: 0.6208574175834656
time_elpased: 9.886
#iterations: 406
currently lose_sum: 0.6695719957351685
time_elpased: 9.911
#iterations: 407
currently lose_sum: 0.6210563778877258
time_elpased: 10.441
#iterations: 408
currently lose_sum: 0.6126707196235657
time_elpased: 10.644
#iterations: 409
currently lose_sum: 0.6338273286819458
time_elpased: 10.231
#iterations: 410
currently lose_sum: 0.640419065952301
time_elpased: 9.86
#iterations: 411
currently lose_sum: 0.676565945148468
time_elpased: 10.05
#iterations: 412
currently lose_sum: 0.6832942366600037
time_elpased: 10.111
#iterations: 413
currently lose_sum: 0.6509837508201599
time_elpased: 10.409
#iterations: 414
currently lose_sum: 0.6321138143539429
time_elpased: 10.591
#iterations: 415
currently lose_sum: 0.6555057764053345
time_elpased: 10.602
#iterations: 416
currently lose_sum: 0.655509352684021
time_elpased: 10.545
#iterations: 417
currently lose_sum: 0.6487584114074707
time_elpased: 10.114
#iterations: 418
currently lose_sum: 0.6559736728668213
time_elpased: 10.214
#iterations: 419
currently lose_sum: 0.7096317410469055
time_elpased: 10.476
start validation test
0.5828
0.593959731544
0.558800315706
0.575843838959
0.583130895891
16.774
#iterations: 420
currently lose_sum: 0.6574701070785522
time_elpased: 10.593
#iterations: 421
currently lose_sum: 0.643582284450531
time_elpased: 10.283
#iterations: 422
currently lose_sum: 0.6661831140518188
time_elpased: 9.805
#iterations: 423
currently lose_sum: 0.6482205390930176
time_elpased: 10.464
#iterations: 424
currently lose_sum: 0.6365944147109985
time_elpased: 10.194
#iterations: 425
currently lose_sum: 0.6881905198097229
time_elpased: 10.639
#iterations: 426
currently lose_sum: 0.6792982220649719
time_elpased: 10.148
#iterations: 427
currently lose_sum: 0.6713315844535828
time_elpased: 11.808
#iterations: 428
currently lose_sum: 0.6808279156684875
time_elpased: 9.897
#iterations: 429
currently lose_sum: 0.6503564715385437
time_elpased: 10.657
#iterations: 430
currently lose_sum: 0.6648945808410645
time_elpased: 10.434
#iterations: 431
currently lose_sum: 0.6281018853187561
time_elpased: 10.458
#iterations: 432
currently lose_sum: 0.670045018196106
time_elpased: 10.611
#iterations: 433
currently lose_sum: 0.6154600381851196
time_elpased: 10.948
#iterations: 434
currently lose_sum: 0.6357764601707458
time_elpased: 10.605
#iterations: 435
currently lose_sum: 0.5911386609077454
time_elpased: 10.022
#iterations: 436
currently lose_sum: 0.6327751278877258
time_elpased: 9.9
#iterations: 437
currently lose_sum: 0.6895882487297058
time_elpased: 9.926
#iterations: 438
currently lose_sum: 0.6689071655273438
time_elpased: 10.017
#iterations: 439
currently lose_sum: 0.6778306365013123
time_elpased: 11.291
start validation test
0.598
0.592907801418
0.659826361484
0.624579753455
0.597147568414
16.473
#iterations: 440
currently lose_sum: 0.6369668841362
time_elpased: 10.338
#iterations: 441
currently lose_sum: 0.6322887539863586
time_elpased: 10.107
#iterations: 442
currently lose_sum: 0.6518741846084595
time_elpased: 10.079
#iterations: 443
currently lose_sum: 0.6625728011131287
time_elpased: 9.92
#iterations: 444
currently lose_sum: 0.676741361618042
time_elpased: 9.923
#iterations: 445
currently lose_sum: 0.620704174041748
time_elpased: 10.498
#iterations: 446
currently lose_sum: 0.6387838125228882
time_elpased: 10.424
#iterations: 447
currently lose_sum: 0.6442536115646362
time_elpased: 10.655
#iterations: 448
currently lose_sum: 0.6214186549186707
time_elpased: 10.633
#iterations: 449
currently lose_sum: 0.6170129179954529
time_elpased: 10.328
#iterations: 450
currently lose_sum: 0.6453781127929688
time_elpased: 9.713
#iterations: 451
currently lose_sum: 0.6540835499763489
time_elpased: 10.388
#iterations: 452
currently lose_sum: 0.6294035911560059
time_elpased: 10.591
#iterations: 453
currently lose_sum: 0.646657407283783
time_elpased: 10.563
#iterations: 454
currently lose_sum: 0.6633668541908264
time_elpased: 10.132
#iterations: 455
currently lose_sum: 0.6210144758224487
time_elpased: 10.758
#iterations: 456
currently lose_sum: 0.676525890827179
time_elpased: 10.747
#iterations: 457
currently lose_sum: 0.6479528546333313
time_elpased: 10.625
#iterations: 458
currently lose_sum: 0.6345632076263428
time_elpased: 10.358
#iterations: 459
currently lose_sum: 0.7068044543266296
time_elpased: 10.296
start validation test
0.5844
0.614688128773
0.482241515391
0.540468819107
0.585808511142
16.944
#iterations: 460
currently lose_sum: 0.664015531539917
time_elpased: 10.303
#iterations: 461
currently lose_sum: 0.6698482632637024
time_elpased: 9.988
#iterations: 462
currently lose_sum: 0.6588428616523743
time_elpased: 10.594
#iterations: 463
currently lose_sum: 0.6900476217269897
time_elpased: 10.54
#iterations: 464
currently lose_sum: 0.6529811024665833
time_elpased: 10.585
#iterations: 465
currently lose_sum: 0.6460989117622375
time_elpased: 11.187
#iterations: 466
currently lose_sum: 0.6731463670730591
time_elpased: 10.297
#iterations: 467
currently lose_sum: 0.6854112148284912
time_elpased: 10.385
#iterations: 468
currently lose_sum: 0.6580418348312378
time_elpased: 10.597
#iterations: 469
currently lose_sum: 0.6681480407714844
time_elpased: 10.511
#iterations: 470
currently lose_sum: 0.6130948662757874
time_elpased: 10.454
#iterations: 471
currently lose_sum: 0.710561215877533
time_elpased: 9.734
#iterations: 472
currently lose_sum: 0.6299567222595215
time_elpased: 10.309
#iterations: 473
currently lose_sum: 0.6691120266914368
time_elpased: 10.614
#iterations: 474
currently lose_sum: 0.6814504861831665
time_elpased: 10.61
#iterations: 475
currently lose_sum: 0.6658569574356079
time_elpased: 10.596
#iterations: 476
currently lose_sum: 0.6608603596687317
time_elpased: 10.577
#iterations: 477
currently lose_sum: 0.6458016037940979
time_elpased: 10.216
#iterations: 478
currently lose_sum: 0.6385800838470459
time_elpased: 10.221
#iterations: 479
currently lose_sum: 0.648543119430542
time_elpased: 9.933
start validation test
0.602
0.615843270869
0.570639305446
0.592380172061
0.602432385894
16.499
#iterations: 480
currently lose_sum: 0.6480337381362915
time_elpased: 10.18
#iterations: 481
currently lose_sum: 0.6360623836517334
time_elpased: 10.199
#iterations: 482
currently lose_sum: 0.6945653557777405
time_elpased: 10.647
#iterations: 483
currently lose_sum: 0.6380193829536438
time_elpased: 10.655
#iterations: 484
currently lose_sum: 0.6230612993240356
time_elpased: 10.449
#iterations: 485
currently lose_sum: 0.6482718586921692
time_elpased: 10.549
#iterations: 486
currently lose_sum: 0.6261362433433533
time_elpased: 10.518
#iterations: 487
currently lose_sum: 0.6415680050849915
time_elpased: 10.654
#iterations: 488
currently lose_sum: 0.6617407202720642
time_elpased: 10.892
#iterations: 489
currently lose_sum: 0.6478968858718872
time_elpased: 10.725
#iterations: 490
currently lose_sum: 0.6748918294906616
time_elpased: 10.611
#iterations: 491
currently lose_sum: 0.6647282242774963
time_elpased: 10.481
#iterations: 492
currently lose_sum: 0.6319852471351624
time_elpased: 10.628
#iterations: 493
currently lose_sum: 0.6599031090736389
time_elpased: 10.494
#iterations: 494
currently lose_sum: 0.6234644055366516
time_elpased: 10.446
#iterations: 495
currently lose_sum: 0.7145500183105469
time_elpased: 9.927
#iterations: 496
currently lose_sum: 0.6090216636657715
time_elpased: 11.197
#iterations: 497
currently lose_sum: 0.6301426887512207
time_elpased: 10.024
#iterations: 498
currently lose_sum: 0.6435244083404541
time_elpased: 10.691
#iterations: 499
currently lose_sum: 0.6263077259063721
time_elpased: 10.129
start validation test
0.578
0.56220657277
0.756116811365
0.644900706833
0.575544212658
16.896
#iterations: 500
currently lose_sum: 0.6612299084663391
time_elpased: 10.603
#iterations: 501
currently lose_sum: 0.6337650418281555
time_elpased: 10.594
#iterations: 502
currently lose_sum: 0.6406527757644653
time_elpased: 10.579
#iterations: 503
currently lose_sum: 0.6326084733009338
time_elpased: 10.551
#iterations: 504
currently lose_sum: 0.6573030352592468
time_elpased: 10.988
#iterations: 505
currently lose_sum: 0.6892721652984619
time_elpased: 10.859
#iterations: 506
currently lose_sum: 0.6511234045028687
time_elpased: 11.194
#iterations: 507
currently lose_sum: 0.6773383617401123
time_elpased: 10.393
#iterations: 508
currently lose_sum: 0.6743127703666687
time_elpased: 10.891
#iterations: 509
currently lose_sum: 0.6425694227218628
time_elpased: 9.943
#iterations: 510
currently lose_sum: 0.6659112572669983
time_elpased: 10.39
#iterations: 511
currently lose_sum: 0.6372796893119812
time_elpased: 10.208
#iterations: 512
currently lose_sum: 0.6645727753639221
time_elpased: 10.701
#iterations: 513
currently lose_sum: 0.6607180833816528
time_elpased: 10.508
#iterations: 514
currently lose_sum: 0.6097630858421326
time_elpased: 10.291
#iterations: 515
currently lose_sum: 0.6541894674301147
time_elpased: 10.611
#iterations: 516
currently lose_sum: 0.6089707016944885
time_elpased: 10.005
#iterations: 517
currently lose_sum: 0.6273350715637207
time_elpased: 10.616
#iterations: 518
currently lose_sum: 0.6398069858551025
time_elpased: 10.604
#iterations: 519
currently lose_sum: 0.6978442668914795
time_elpased: 10.183
start validation test
0.6008
0.594121763471
0.670086819258
0.629821958457
0.599844707277
16.527
#iterations: 520
currently lose_sum: 0.6335757970809937
time_elpased: 10.613
#iterations: 521
currently lose_sum: 0.6004564166069031
time_elpased: 10.619
#iterations: 522
currently lose_sum: 0.6724840402603149
time_elpased: 10.526
#iterations: 523
currently lose_sum: 0.7146627902984619
time_elpased: 10.004
#iterations: 524
currently lose_sum: 0.6221212148666382
time_elpased: 10.074
#iterations: 525
currently lose_sum: 0.6386709213256836
time_elpased: 11.197
#iterations: 526
currently lose_sum: 0.6320256590843201
time_elpased: 10.361
#iterations: 527
currently lose_sum: 0.6480249166488647
time_elpased: 10.486
#iterations: 528
currently lose_sum: 0.6646959185600281
time_elpased: 10.053
#iterations: 529
currently lose_sum: 0.634183943271637
time_elpased: 10.482
#iterations: 530
currently lose_sum: 0.6936706304550171
time_elpased: 10.683
#iterations: 531
currently lose_sum: 0.6513236165046692
time_elpased: 10.016
#iterations: 532
currently lose_sum: 0.6545011401176453
time_elpased: 10.313
#iterations: 533
currently lose_sum: 0.629713773727417
time_elpased: 10.365
#iterations: 534
currently lose_sum: 0.6561843752861023
time_elpased: 11.087
#iterations: 535
currently lose_sum: 0.691439688205719
time_elpased: 10.642
#iterations: 536
currently lose_sum: 0.6697700619697571
time_elpased: 10.696
#iterations: 537
currently lose_sum: 0.6341286301612854
time_elpased: 10.575
#iterations: 538
currently lose_sum: 0.5971227288246155
time_elpased: 9.917
#iterations: 539
currently lose_sum: 0.6885831952095032
time_elpased: 10.257
start validation test
0.5996
0.594729344729
0.659037095501
0.625233994759
0.598780510443
16.559
#iterations: 540
currently lose_sum: 0.6394672393798828
time_elpased: 10.501
#iterations: 541
currently lose_sum: 0.6175913214683533
time_elpased: 10.612
#iterations: 542
currently lose_sum: 0.6310790777206421
time_elpased: 9.755
#iterations: 543
currently lose_sum: 0.6519271731376648
time_elpased: 10.483
#iterations: 544
currently lose_sum: 0.6448456048965454
time_elpased: 10.931
#iterations: 545
currently lose_sum: 0.6323686838150024
time_elpased: 10.331
#iterations: 546
currently lose_sum: 0.6181530952453613
time_elpased: 9.819
#iterations: 547
currently lose_sum: 0.6291965842247009
time_elpased: 10.423
#iterations: 548
currently lose_sum: 0.6484789848327637
time_elpased: 10.33
#iterations: 549
currently lose_sum: 0.660866916179657
time_elpased: 10.073
#iterations: 550
currently lose_sum: 0.6583126187324524
time_elpased: 10.388
#iterations: 551
currently lose_sum: 0.6475746631622314
time_elpased: 10.821
#iterations: 552
currently lose_sum: 0.6669306755065918
time_elpased: 10.544
#iterations: 553
currently lose_sum: 0.6465989947319031
time_elpased: 10.329
#iterations: 554
currently lose_sum: 0.5954681634902954
time_elpased: 10.59
#iterations: 555
currently lose_sum: 0.6538472771644592
time_elpased: 11.601
#iterations: 556
currently lose_sum: 0.6862492561340332
time_elpased: 9.881
#iterations: 557
currently lose_sum: 0.6667327880859375
time_elpased: 9.801
#iterations: 558
currently lose_sum: 0.5944008827209473
time_elpased: 9.688
#iterations: 559
currently lose_sum: 0.69392991065979
time_elpased: 10.134
start validation test
0.5852
0.574675324675
0.698500394633
0.63056644104
0.58363786966
16.626
#iterations: 560
currently lose_sum: 0.6039834022521973
time_elpased: 9.971
#iterations: 561
currently lose_sum: 0.6642017364501953
time_elpased: 10.36
#iterations: 562
currently lose_sum: 0.6674925088882446
time_elpased: 10.021
#iterations: 563
currently lose_sum: 0.6238653063774109
time_elpased: 10.252
#iterations: 564
currently lose_sum: 0.6027802228927612
time_elpased: 10.521
#iterations: 565
currently lose_sum: 0.5658175945281982
time_elpased: 9.938
#iterations: 566
currently lose_sum: 0.6689422130584717
time_elpased: 9.555
#iterations: 567
currently lose_sum: 0.5887167453765869
time_elpased: 10.519
#iterations: 568
currently lose_sum: 0.6569166779518127
time_elpased: 10.609
#iterations: 569
currently lose_sum: 0.6235039234161377
time_elpased: 10.591
#iterations: 570
currently lose_sum: 0.6288765668869019
time_elpased: 10.657
#iterations: 571
currently lose_sum: 0.657619297504425
time_elpased: 10.627
#iterations: 572
currently lose_sum: 0.6458631753921509
time_elpased: 10.413
#iterations: 573
currently lose_sum: 0.5851960778236389
time_elpased: 10.359
#iterations: 574
currently lose_sum: 0.6372862458229065
time_elpased: 10.167
#iterations: 575
currently lose_sum: 0.6172147393226624
time_elpased: 10.509
#iterations: 576
currently lose_sum: 0.6611059308052063
time_elpased: 9.996
#iterations: 577
currently lose_sum: 0.6137630343437195
time_elpased: 10.532
#iterations: 578
currently lose_sum: 0.6763038635253906
time_elpased: 10.765
#iterations: 579
currently lose_sum: 0.6693591475486755
time_elpased: 10.327
start validation test
0.6
0.594479830149
0.662983425414
0.626865671642
0.599131615384
16.540
#iterations: 580
currently lose_sum: 0.6513167023658752
time_elpased: 10.136
#iterations: 581
currently lose_sum: 0.6226621866226196
time_elpased: 10.348
#iterations: 582
currently lose_sum: 0.603335440158844
time_elpased: 10.792
#iterations: 583
currently lose_sum: 0.6244504451751709
time_elpased: 9.996
#iterations: 584
currently lose_sum: 0.6407008171081543
time_elpased: 10.496
#iterations: 585
currently lose_sum: 0.6284377574920654
time_elpased: 10.416
#iterations: 586
currently lose_sum: 0.6564558148384094
time_elpased: 10.492
#iterations: 587
currently lose_sum: 0.6172167062759399
time_elpased: 10.47
#iterations: 588
currently lose_sum: 0.6750262379646301
time_elpased: 10.851
#iterations: 589
currently lose_sum: 0.6340103149414062
time_elpased: 10.148
#iterations: 590
currently lose_sum: 0.6257356405258179
time_elpased: 10.12
#iterations: 591
currently lose_sum: 0.6004979610443115
time_elpased: 10.516
#iterations: 592
currently lose_sum: 0.6444758772850037
time_elpased: 11.266
#iterations: 593
currently lose_sum: 0.6528228521347046
time_elpased: 10.653
#iterations: 594
currently lose_sum: 0.6286577582359314
time_elpased: 10.504
#iterations: 595
currently lose_sum: 0.631377637386322
time_elpased: 9.865
#iterations: 596
currently lose_sum: 0.6207887530326843
time_elpased: 10.605
#iterations: 597
currently lose_sum: 0.6601069569587708
time_elpased: 10.519
#iterations: 598
currently lose_sum: 0.6257326006889343
time_elpased: 10.623
#iterations: 599
currently lose_sum: 0.6817280650138855
time_elpased: 10.195
start validation test
0.5912
0.648125755744
0.423046566693
0.51193887297
0.593518417166
16.703
acc: 0.587
pre: 0.587
rec: 0.627
F1: 0.606
auc: 0.587
