start to construct computing graph
graph construct over
3804
epochs start
#iterations: 0
currently lose_sum: 0.6914362907409668
time_elpased: 5.69
#iterations: 1
currently lose_sum: 0.7238500714302063
time_elpased: 5.627
#iterations: 2
currently lose_sum: 0.7036750316619873
time_elpased: 5.603
#iterations: 3
currently lose_sum: 0.6959580183029175
time_elpased: 5.609
#iterations: 4
currently lose_sum: 0.7088018655776978
time_elpased: 5.458
#iterations: 5
currently lose_sum: 0.7181257605552673
time_elpased: 5.826
#iterations: 6
currently lose_sum: 0.6911090016365051
time_elpased: 5.675
#iterations: 7
currently lose_sum: 0.6858352422714233
time_elpased: 5.711
#iterations: 8
currently lose_sum: 0.700664758682251
time_elpased: 5.554
#iterations: 9
currently lose_sum: 0.6995776295661926
time_elpased: 5.532
#iterations: 10
currently lose_sum: 0.682900071144104
time_elpased: 5.465
#iterations: 11
currently lose_sum: 0.7072407007217407
time_elpased: 5.491
#iterations: 12
currently lose_sum: 0.7206838726997375
time_elpased: 5.513
#iterations: 13
currently lose_sum: 0.6966941952705383
time_elpased: 5.954
#iterations: 14
currently lose_sum: 0.6836638450622559
time_elpased: 6.019
#iterations: 15
currently lose_sum: 0.6844112873077393
time_elpased: 5.523
#iterations: 16
currently lose_sum: 0.6966459155082703
time_elpased: 5.491
#iterations: 17
currently lose_sum: 0.6928656101226807
time_elpased: 5.419
#iterations: 18
currently lose_sum: 0.6948764324188232
time_elpased: 5.541
#iterations: 19
currently lose_sum: 0.6935985088348389
time_elpased: 5.512
start validation test
0.534
0.553459119497
0.416732438832
0.475461503827
0.535616827688
17.184
#iterations: 20
currently lose_sum: 0.6787137389183044
time_elpased: 4.291
#iterations: 21
currently lose_sum: 0.6874008178710938
time_elpased: 4.364
#iterations: 22
currently lose_sum: 0.6790100336074829
time_elpased: 4.202
#iterations: 23
currently lose_sum: 0.6879217028617859
time_elpased: 4.302
#iterations: 24
currently lose_sum: 0.662534773349762
time_elpased: 4.596
#iterations: 25
currently lose_sum: 0.6949338316917419
time_elpased: 4.634
#iterations: 26
currently lose_sum: 0.6760542988777161
time_elpased: 4.423
#iterations: 27
currently lose_sum: 0.6845294237136841
time_elpased: 4.337
#iterations: 28
currently lose_sum: 0.6961288452148438
time_elpased: 4.823
#iterations: 29
currently lose_sum: 0.7178040146827698
time_elpased: 5.081
#iterations: 30
currently lose_sum: 0.7145301103591919
time_elpased: 4.197
#iterations: 31
currently lose_sum: 0.6759638786315918
time_elpased: 4.426
#iterations: 32
currently lose_sum: 0.6951907873153687
time_elpased: 4.311
#iterations: 33
currently lose_sum: 0.6830790042877197
time_elpased: 4.32
#iterations: 34
currently lose_sum: 0.6682934761047363
time_elpased: 4.564
#iterations: 35
currently lose_sum: 0.7091305255889893
time_elpased: 4.237
#iterations: 36
currently lose_sum: 0.7104857563972473
time_elpased: 4.332
#iterations: 37
currently lose_sum: 0.6768313646316528
time_elpased: 4.815
#iterations: 38
currently lose_sum: 0.6718270182609558
time_elpased: 4.377
#iterations: 39
currently lose_sum: 0.6709568500518799
time_elpased: 4.701
start validation test
0.5308
0.524152106886
0.805051302289
0.634920634921
0.527018757389
17.162
#iterations: 40
currently lose_sum: 0.6859904527664185
time_elpased: 4.222
#iterations: 41
currently lose_sum: 0.6917930841445923
time_elpased: 4.985
#iterations: 42
currently lose_sum: 0.686826765537262
time_elpased: 4.215
#iterations: 43
currently lose_sum: 0.668587863445282
time_elpased: 4.365
#iterations: 44
currently lose_sum: 0.6701840162277222
time_elpased: 4.578
#iterations: 45
currently lose_sum: 0.6895762085914612
time_elpased: 4.18
#iterations: 46
currently lose_sum: 0.6879630088806152
time_elpased: 4.237
#iterations: 47
currently lose_sum: 0.659981369972229
time_elpased: 4.502
#iterations: 48
currently lose_sum: 0.6918852925300598
time_elpased: 4.33
#iterations: 49
currently lose_sum: 0.6975603699684143
time_elpased: 4.518
#iterations: 50
currently lose_sum: 0.7123399376869202
time_elpased: 3.9
#iterations: 51
currently lose_sum: 0.6919488310813904
time_elpased: 4.697
#iterations: 52
currently lose_sum: 0.6677494645118713
time_elpased: 4.297
#iterations: 53
currently lose_sum: 0.6858651041984558
time_elpased: 4.14
#iterations: 54
currently lose_sum: 0.6730930805206299
time_elpased: 4.179
#iterations: 55
currently lose_sum: 0.7191838026046753
time_elpased: 4.267
#iterations: 56
currently lose_sum: 0.7049077749252319
time_elpased: 4.383
#iterations: 57
currently lose_sum: 0.6709679365158081
time_elpased: 4.616
#iterations: 58
currently lose_sum: 0.6950504183769226
time_elpased: 4.394
#iterations: 59
currently lose_sum: 0.6403675675392151
time_elpased: 4.482
start validation test
0.5212
0.520491803279
0.701657458564
0.597647058824
0.518711940961
17.151
#iterations: 60
currently lose_sum: 0.6805372834205627
time_elpased: 4.373
#iterations: 61
currently lose_sum: 0.6690987944602966
time_elpased: 4.405
#iterations: 62
currently lose_sum: 0.6917381286621094
time_elpased: 4.445
#iterations: 63
currently lose_sum: 0.6681588888168335
time_elpased: 4.179
#iterations: 64
currently lose_sum: 0.6685928106307983
time_elpased: 4.128
#iterations: 65
currently lose_sum: 0.6511389017105103
time_elpased: 4.371
#iterations: 66
currently lose_sum: 0.6780359148979187
time_elpased: 4.199
#iterations: 67
currently lose_sum: 0.6659457683563232
time_elpased: 4.181
#iterations: 68
currently lose_sum: 0.6642347574234009
time_elpased: 4.226
#iterations: 69
currently lose_sum: 0.7063978314399719
time_elpased: 4.203
#iterations: 70
currently lose_sum: 0.6987841129302979
time_elpased: 4.364
#iterations: 71
currently lose_sum: 0.6762920618057251
time_elpased: 4.96
#iterations: 72
currently lose_sum: 0.6801832318305969
time_elpased: 4.216
#iterations: 73
currently lose_sum: 0.6491364240646362
time_elpased: 4.22
#iterations: 74
currently lose_sum: 0.6796290874481201
time_elpased: 4.214
#iterations: 75
currently lose_sum: 0.658589780330658
time_elpased: 4.325
#iterations: 76
currently lose_sum: 0.6642302870750427
time_elpased: 4.231
#iterations: 77
currently lose_sum: 0.6812858581542969
time_elpased: 4.357
#iterations: 78
currently lose_sum: 0.668487012386322
time_elpased: 4.671
#iterations: 79
currently lose_sum: 0.6817782521247864
time_elpased: 4.21
start validation test
0.5324
0.525309917355
0.802683504341
0.635029659694
0.528673463444
17.106
#iterations: 80
currently lose_sum: 0.6859394311904907
time_elpased: 4.283
#iterations: 81
currently lose_sum: 0.6799957156181335
time_elpased: 4.507
#iterations: 82
currently lose_sum: 0.6673816442489624
time_elpased: 4.103
#iterations: 83
currently lose_sum: 0.6593978404998779
time_elpased: 4.22
#iterations: 84
currently lose_sum: 0.6862127780914307
time_elpased: 4.325
#iterations: 85
currently lose_sum: 0.6774927377700806
time_elpased: 4.28
#iterations: 86
currently lose_sum: 0.6719139814376831
time_elpased: 4.301
#iterations: 87
currently lose_sum: 0.6685359477996826
time_elpased: 4.229
#iterations: 88
currently lose_sum: 0.6866305470466614
time_elpased: 4.208
#iterations: 89
currently lose_sum: 0.6570385694503784
time_elpased: 4.297
#iterations: 90
currently lose_sum: 0.6633070111274719
time_elpased: 4.234
#iterations: 91
currently lose_sum: 0.6837207078933716
time_elpased: 4.598
#iterations: 92
currently lose_sum: 0.6871991753578186
time_elpased: 4.614
#iterations: 93
currently lose_sum: 0.6811089515686035
time_elpased: 4.437
#iterations: 94
currently lose_sum: 0.6557824611663818
time_elpased: 4.141
#iterations: 95
currently lose_sum: 0.6682556867599487
time_elpased: 4.248
#iterations: 96
currently lose_sum: 0.6723721027374268
time_elpased: 4.343
#iterations: 97
currently lose_sum: 0.6843686699867249
time_elpased: 4.118
#iterations: 98
currently lose_sum: 0.6623425483703613
time_elpased: 4.932
#iterations: 99
currently lose_sum: 0.655590832233429
time_elpased: 4.256
start validation test
0.5504
0.545862732521
0.671665351223
0.602264685067
0.548728052741
16.942
#iterations: 100
currently lose_sum: 0.6867297291755676
time_elpased: 5.072
#iterations: 101
currently lose_sum: 0.67258620262146
time_elpased: 4.456
#iterations: 102
currently lose_sum: 0.7038803100585938
time_elpased: 5.275
#iterations: 103
currently lose_sum: 0.6844709515571594
time_elpased: 4.041
#iterations: 104
currently lose_sum: 0.6711472868919373
time_elpased: 4.219
#iterations: 105
currently lose_sum: 0.7091996669769287
time_elpased: 4.636
#iterations: 106
currently lose_sum: 0.6659339666366577
time_elpased: 4.164
#iterations: 107
currently lose_sum: 0.6657031774520874
time_elpased: 4.242
#iterations: 108
currently lose_sum: 0.7075535655021667
time_elpased: 4.337
#iterations: 109
currently lose_sum: 0.6556824445724487
time_elpased: 4.712
#iterations: 110
currently lose_sum: 0.6804040670394897
time_elpased: 4.161
#iterations: 111
currently lose_sum: 0.6602632403373718
time_elpased: 4.305
#iterations: 112
currently lose_sum: 0.6673071384429932
time_elpased: 4.249
#iterations: 113
currently lose_sum: 0.6499582529067993
time_elpased: 4.369
#iterations: 114
currently lose_sum: 0.6872971057891846
time_elpased: 4.788
#iterations: 115
currently lose_sum: 0.6753523349761963
time_elpased: 4.286
#iterations: 116
currently lose_sum: 0.6578937768936157
time_elpased: 4.034
#iterations: 117
currently lose_sum: 0.7134663462638855
time_elpased: 4.287
#iterations: 118
currently lose_sum: 0.6813390851020813
time_elpased: 4.128
#iterations: 119
currently lose_sum: 0.6697654128074646
time_elpased: 4.197
start validation test
0.5536
0.601615074024
0.352801894238
0.444776119403
0.556368505919
17.099
#iterations: 120
currently lose_sum: 0.652744472026825
time_elpased: 4.26
#iterations: 121
currently lose_sum: 0.6485874652862549
time_elpased: 4.171
#iterations: 122
currently lose_sum: 0.6530248522758484
time_elpased: 4.37
#iterations: 123
currently lose_sum: 0.6794763207435608
time_elpased: 4.357
#iterations: 124
currently lose_sum: 0.6692202687263489
time_elpased: 4.37
#iterations: 125
currently lose_sum: 0.6476202607154846
time_elpased: 4.815
#iterations: 126
currently lose_sum: 0.648464560508728
time_elpased: 4.291
#iterations: 127
currently lose_sum: 0.6832015514373779
time_elpased: 4.119
#iterations: 128
currently lose_sum: 0.6779971122741699
time_elpased: 4.24
#iterations: 129
currently lose_sum: 0.6867948770523071
time_elpased: 4.176
#iterations: 130
currently lose_sum: 0.6258241534233093
time_elpased: 4.134
#iterations: 131
currently lose_sum: 0.7162269353866577
time_elpased: 4.36
#iterations: 132
currently lose_sum: 0.6829795837402344
time_elpased: 4.425
#iterations: 133
currently lose_sum: 0.6398048996925354
time_elpased: 4.223
#iterations: 134
currently lose_sum: 0.7103723287582397
time_elpased: 4.175
#iterations: 135
currently lose_sum: 0.679654061794281
time_elpased: 4.489
#iterations: 136
currently lose_sum: 0.6635791063308716
time_elpased: 4.574
#iterations: 137
currently lose_sum: 0.7007739543914795
time_elpased: 4.248
#iterations: 138
currently lose_sum: 0.6991508603096008
time_elpased: 4.248
#iterations: 139
currently lose_sum: 0.6644560098648071
time_elpased: 4.315
start validation test
0.5528
0.612368024133
0.32044198895
0.420725388601
0.556003638433
17.131
#iterations: 140
currently lose_sum: 0.6500734686851501
time_elpased: 4.29
#iterations: 141
currently lose_sum: 0.6554072499275208
time_elpased: 4.341
#iterations: 142
currently lose_sum: 0.6791081428527832
time_elpased: 4.16
#iterations: 143
currently lose_sum: 0.6652317643165588
time_elpased: 4.305
#iterations: 144
currently lose_sum: 0.6821111440658569
time_elpased: 4.781
#iterations: 145
currently lose_sum: 0.7074629068374634
time_elpased: 4.546
#iterations: 146
currently lose_sum: 0.6858961582183838
time_elpased: 4.26
#iterations: 147
currently lose_sum: 0.69205641746521
time_elpased: 4.385
#iterations: 148
currently lose_sum: 0.6559083461761475
time_elpased: 4.813
#iterations: 149
currently lose_sum: 0.6935569047927856
time_elpased: 4.257
#iterations: 150
currently lose_sum: 0.6395870447158813
time_elpased: 4.472
#iterations: 151
currently lose_sum: 0.662523627281189
time_elpased: 4.322
#iterations: 152
currently lose_sum: 0.678882360458374
time_elpased: 4.302
#iterations: 153
currently lose_sum: 0.6690241098403931
time_elpased: 4.611
#iterations: 154
currently lose_sum: 0.6639178395271301
time_elpased: 4.149
#iterations: 155
currently lose_sum: 0.6513412594795227
time_elpased: 4.215
#iterations: 156
currently lose_sum: 0.6611242890357971
time_elpased: 4.326
#iterations: 157
currently lose_sum: 0.6864471435546875
time_elpased: 4.582
#iterations: 158
currently lose_sum: 0.6571109890937805
time_elpased: 4.248
#iterations: 159
currently lose_sum: 0.7022298574447632
time_elpased: 4.344
start validation test
0.542
0.541105121294
0.633780584057
0.583787713559
0.540734574267
16.980
#iterations: 160
currently lose_sum: 0.6655937433242798
time_elpased: 4.279
#iterations: 161
currently lose_sum: 0.6477408409118652
time_elpased: 4.945
#iterations: 162
currently lose_sum: 0.6741417050361633
time_elpased: 4.369
#iterations: 163
currently lose_sum: 0.6471666097640991
time_elpased: 4.336
#iterations: 164
currently lose_sum: 0.6859899759292603
time_elpased: 4.167
#iterations: 165
currently lose_sum: 0.6545467972755432
time_elpased: 4.184
#iterations: 166
currently lose_sum: 0.6502510905265808
time_elpased: 4.308
#iterations: 167
currently lose_sum: 0.6455026268959045
time_elpased: 4.307
#iterations: 168
currently lose_sum: 0.6407121419906616
time_elpased: 4.303
#iterations: 169
currently lose_sum: 0.6593660116195679
time_elpased: 4.269
#iterations: 170
currently lose_sum: 0.659528374671936
time_elpased: 4.439
#iterations: 171
currently lose_sum: 0.6901029944419861
time_elpased: 4.318
#iterations: 172
currently lose_sum: 0.6951049566268921
time_elpased: 4.398
#iterations: 173
currently lose_sum: 0.6421651244163513
time_elpased: 4.061
#iterations: 174
currently lose_sum: 0.6316751837730408
time_elpased: 4.212
#iterations: 175
currently lose_sum: 0.674665093421936
time_elpased: 4.276
#iterations: 176
currently lose_sum: 0.6561647057533264
time_elpased: 4.199
#iterations: 177
currently lose_sum: 0.6051952242851257
time_elpased: 4.465
#iterations: 178
currently lose_sum: 0.6509135365486145
time_elpased: 4.297
#iterations: 179
currently lose_sum: 0.6579610705375671
time_elpased: 4.299
start validation test
0.562
0.577898550725
0.503551696922
0.538169548714
0.562805856571
16.883
#iterations: 180
currently lose_sum: 0.686810314655304
time_elpased: 4.412
#iterations: 181
currently lose_sum: 0.6693713665008545
time_elpased: 4.25
#iterations: 182
currently lose_sum: 0.7111164331436157
time_elpased: 4.235
#iterations: 183
currently lose_sum: 0.6680877804756165
time_elpased: 4.217
#iterations: 184
currently lose_sum: 0.6775624752044678
time_elpased: 4.262
#iterations: 185
currently lose_sum: 0.6640914082527161
time_elpased: 4.39
#iterations: 186
currently lose_sum: 0.6318174600601196
time_elpased: 4.589
#iterations: 187
currently lose_sum: 0.6845362782478333
time_elpased: 4.373
#iterations: 188
currently lose_sum: 0.6582179069519043
time_elpased: 4.632
#iterations: 189
currently lose_sum: 0.6514408588409424
time_elpased: 4.205
#iterations: 190
currently lose_sum: 0.6574232578277588
time_elpased: 5.281
#iterations: 191
currently lose_sum: 0.605907142162323
time_elpased: 4.257
#iterations: 192
currently lose_sum: 0.6427375674247742
time_elpased: 4.333
#iterations: 193
currently lose_sum: 0.656006932258606
time_elpased: 4.565
#iterations: 194
currently lose_sum: 0.6302326321601868
time_elpased: 4.147
#iterations: 195
currently lose_sum: 0.7215022444725037
time_elpased: 4.159
#iterations: 196
currently lose_sum: 0.6321554780006409
time_elpased: 4.061
#iterations: 197
currently lose_sum: 0.672864556312561
time_elpased: 5.122
#iterations: 198
currently lose_sum: 0.6077958941459656
time_elpased: 4.335
#iterations: 199
currently lose_sum: 0.6696417331695557
time_elpased: 4.35
start validation test
0.556
0.613275613276
0.33543804262
0.433673469388
0.559041000223
17.212
#iterations: 200
currently lose_sum: 0.625328004360199
time_elpased: 4.146
#iterations: 201
currently lose_sum: 0.6875765323638916
time_elpased: 4.218
#iterations: 202
currently lose_sum: 0.6556751728057861
time_elpased: 4.237
#iterations: 203
currently lose_sum: 0.6710498929023743
time_elpased: 4.224
#iterations: 204
currently lose_sum: 0.6784889698028564
time_elpased: 4.224
#iterations: 205
currently lose_sum: 0.6893446445465088
time_elpased: 5.581
#iterations: 206
currently lose_sum: 0.653333306312561
time_elpased: 4.268
#iterations: 207
currently lose_sum: 0.6886615753173828
time_elpased: 4.235
#iterations: 208
currently lose_sum: 0.687706470489502
time_elpased: 4.174
#iterations: 209
currently lose_sum: 0.6518959999084473
time_elpased: 4.278
#iterations: 210
currently lose_sum: 0.6382601857185364
time_elpased: 4.293
#iterations: 211
currently lose_sum: 0.6696467399597168
time_elpased: 4.304
#iterations: 212
currently lose_sum: 0.6640497446060181
time_elpased: 4.166
#iterations: 213
currently lose_sum: 0.6465530395507812
time_elpased: 4.354
#iterations: 214
currently lose_sum: 0.6566554307937622
time_elpased: 4.291
#iterations: 215
currently lose_sum: 0.6516268849372864
time_elpased: 4.321
#iterations: 216
currently lose_sum: 0.6332931518554688
time_elpased: 3.954
#iterations: 217
currently lose_sum: 0.692897617816925
time_elpased: 4.877
#iterations: 218
currently lose_sum: 0.6790366172790527
time_elpased: 4.314
#iterations: 219
currently lose_sum: 0.6507764458656311
time_elpased: 4.419
start validation test
0.5652
0.569444444444
0.582478295185
0.575887631682
0.56496177533
16.811
#iterations: 220
currently lose_sum: 0.661183774471283
time_elpased: 4.967
#iterations: 221
currently lose_sum: 0.6297618746757507
time_elpased: 4.202
#iterations: 222
currently lose_sum: 0.6480522155761719
time_elpased: 4.006
#iterations: 223
currently lose_sum: 0.6759335398674011
time_elpased: 4.29
#iterations: 224
currently lose_sum: 0.7007172107696533
time_elpased: 4.353
#iterations: 225
currently lose_sum: 0.6138704419136047
time_elpased: 4.142
#iterations: 226
currently lose_sum: 0.6092182397842407
time_elpased: 4.759
#iterations: 227
currently lose_sum: 0.66066575050354
time_elpased: 4.713
#iterations: 228
currently lose_sum: 0.6464925408363342
time_elpased: 4.481
#iterations: 229
currently lose_sum: 0.6903318762779236
time_elpased: 4.336
#iterations: 230
currently lose_sum: 0.6650621294975281
time_elpased: 4.424
#iterations: 231
currently lose_sum: 0.6582450866699219
time_elpased: 4.421
#iterations: 232
currently lose_sum: 0.6550905108451843
time_elpased: 4.298
#iterations: 233
currently lose_sum: 0.6717883944511414
time_elpased: 4.068
#iterations: 234
currently lose_sum: 0.6271057724952698
time_elpased: 4.247
#iterations: 235
currently lose_sum: 0.6457521915435791
time_elpased: 4.31
#iterations: 236
currently lose_sum: 0.659909725189209
time_elpased: 5.581
#iterations: 237
currently lose_sum: 0.6610022783279419
time_elpased: 4.396
#iterations: 238
currently lose_sum: 0.6372564435005188
time_elpased: 4.29
#iterations: 239
currently lose_sum: 0.6729453206062317
time_elpased: 4.2
start validation test
0.5384
0.529752501316
0.794001578532
0.635502210992
0.534875890645
17.288
#iterations: 240
currently lose_sum: 0.6557977199554443
time_elpased: 4.321
#iterations: 241
currently lose_sum: 0.6710006594657898
time_elpased: 4.84
#iterations: 242
currently lose_sum: 0.6741077303886414
time_elpased: 4.3
#iterations: 243
currently lose_sum: 0.7167755961418152
time_elpased: 4.251
#iterations: 244
currently lose_sum: 0.6785940527915955
time_elpased: 4.521
#iterations: 245
currently lose_sum: 0.7082013487815857
time_elpased: 5.072
#iterations: 246
currently lose_sum: 0.6802722215652466
time_elpased: 4.574
#iterations: 247
currently lose_sum: 0.6582322120666504
time_elpased: 4.312
#iterations: 248
currently lose_sum: 0.6777349710464478
time_elpased: 4.616
#iterations: 249
currently lose_sum: 0.6581317782402039
time_elpased: 4.462
#iterations: 250
currently lose_sum: 0.6466760039329529
time_elpased: 4.131
#iterations: 251
currently lose_sum: 0.6727712750434875
time_elpased: 4.288
#iterations: 252
currently lose_sum: 0.7118995189666748
time_elpased: 4.468
#iterations: 253
currently lose_sum: 0.6502966284751892
time_elpased: 4.311
#iterations: 254
currently lose_sum: 0.6287254095077515
time_elpased: 4.309
#iterations: 255
currently lose_sum: 0.6922042369842529
time_elpased: 4.202
#iterations: 256
currently lose_sum: 0.6567721366882324
time_elpased: 4.357
#iterations: 257
currently lose_sum: 0.653571605682373
time_elpased: 4.736
#iterations: 258
currently lose_sum: 0.7042462229728699
time_elpased: 4.182
#iterations: 259
currently lose_sum: 0.628450870513916
time_elpased: 5.005
start validation test
0.5688
0.580838323353
0.53591160221
0.557471264368
0.569253449118
16.859
#iterations: 260
currently lose_sum: 0.5994499325752258
time_elpased: 4.367
#iterations: 261
currently lose_sum: 0.6329887509346008
time_elpased: 4.371
#iterations: 262
currently lose_sum: 0.6468955278396606
time_elpased: 4.031
#iterations: 263
currently lose_sum: 0.6561658978462219
time_elpased: 4.175
#iterations: 264
currently lose_sum: 0.6468831896781921
time_elpased: 4.341
#iterations: 265
currently lose_sum: 0.6591061949729919
time_elpased: 4.287
#iterations: 266
currently lose_sum: 0.6636951565742493
time_elpased: 4.385
#iterations: 267
currently lose_sum: 0.6731393933296204
time_elpased: 4.281
#iterations: 268
currently lose_sum: 0.6654888987541199
time_elpased: 4.219
#iterations: 269
currently lose_sum: 0.6635095477104187
time_elpased: 4.363
#iterations: 270
currently lose_sum: 0.6591900587081909
time_elpased: 4.454
#iterations: 271
currently lose_sum: 0.683070957660675
time_elpased: 4.699
#iterations: 272
currently lose_sum: 0.6833250522613525
time_elpased: 4.299
#iterations: 273
currently lose_sum: 0.6878355145454407
time_elpased: 4.25
#iterations: 274
currently lose_sum: 0.6553909182548523
time_elpased: 5.088
#iterations: 275
currently lose_sum: 0.6807728409767151
time_elpased: 4.361
#iterations: 276
currently lose_sum: 0.6597095727920532
time_elpased: 4.378
#iterations: 277
currently lose_sum: 0.6874831914901733
time_elpased: 4.246
#iterations: 278
currently lose_sum: 0.6489027142524719
time_elpased: 4.355
#iterations: 279
currently lose_sum: 0.6758458018302917
time_elpased: 4.678
start validation test
0.5568
0.598757763975
0.380426203631
0.465250965251
0.559231755505
17.058
#iterations: 280
currently lose_sum: 0.6458609700202942
time_elpased: 4.18
#iterations: 281
currently lose_sum: 0.6594818234443665
time_elpased: 5.182
#iterations: 282
currently lose_sum: 0.6711575388908386
time_elpased: 4.674
#iterations: 283
currently lose_sum: 0.639080286026001
time_elpased: 4.312
#iterations: 284
currently lose_sum: 0.6590290069580078
time_elpased: 4.23
#iterations: 285
currently lose_sum: 0.661053478717804
time_elpased: 4.382
#iterations: 286
currently lose_sum: 0.6766530871391296
time_elpased: 4.75
#iterations: 287
currently lose_sum: 0.6294689774513245
time_elpased: 4.173
#iterations: 288
currently lose_sum: 0.6629737615585327
time_elpased: 4.924
#iterations: 289
currently lose_sum: 0.6584382057189941
time_elpased: 4.161
#iterations: 290
currently lose_sum: 0.6666960120201111
time_elpased: 4.146
#iterations: 291
currently lose_sum: 0.6290736198425293
time_elpased: 4.202
#iterations: 292
currently lose_sum: 0.6645791530609131
time_elpased: 4.311
#iterations: 293
currently lose_sum: 0.6386209726333618
time_elpased: 4.179
#iterations: 294
currently lose_sum: 0.6397595405578613
time_elpased: 4.461
#iterations: 295
currently lose_sum: 0.648671567440033
time_elpased: 4.408
#iterations: 296
currently lose_sum: 0.6236008405685425
time_elpased: 4.322
#iterations: 297
currently lose_sum: 0.6689916849136353
time_elpased: 4.548
#iterations: 298
currently lose_sum: 0.6803416609764099
time_elpased: 4.514
#iterations: 299
currently lose_sum: 0.617824912071228
time_elpased: 4.585
start validation test
0.5508
0.549315068493
0.632991318074
0.588192152549
0.549666786369
16.881
#iterations: 300
currently lose_sum: 0.6721678376197815
time_elpased: 4.276
#iterations: 301
currently lose_sum: 0.6726362705230713
time_elpased: 4.22
#iterations: 302
currently lose_sum: 0.6521284580230713
time_elpased: 4.055
#iterations: 303
currently lose_sum: 0.6484646797180176
time_elpased: 4.231
#iterations: 304
currently lose_sum: 0.6339353322982788
time_elpased: 4.351
#iterations: 305
currently lose_sum: 0.6249161958694458
time_elpased: 4.444
#iterations: 306
currently lose_sum: 0.635378897190094
time_elpased: 4.656
#iterations: 307
currently lose_sum: 0.6619210839271545
time_elpased: 4.99
#iterations: 308
currently lose_sum: 0.6318387389183044
time_elpased: 4.292
#iterations: 309
currently lose_sum: 0.6318590044975281
time_elpased: 4.277
#iterations: 310
currently lose_sum: 0.6611932516098022
time_elpased: 4.254
#iterations: 311
currently lose_sum: 0.6934364438056946
time_elpased: 4.169
#iterations: 312
currently lose_sum: 0.6433536410331726
time_elpased: 4.124
#iterations: 313
currently lose_sum: 0.6411903500556946
time_elpased: 4.191
#iterations: 314
currently lose_sum: 0.6642260551452637
time_elpased: 4.306
#iterations: 315
currently lose_sum: 0.667084276676178
time_elpased: 5.171
#iterations: 316
currently lose_sum: 0.6793568134307861
time_elpased: 4.338
#iterations: 317
currently lose_sum: 0.6443696022033691
time_elpased: 4.346
#iterations: 318
currently lose_sum: 0.6619645953178406
time_elpased: 5.23
#iterations: 319
currently lose_sum: 0.6254297494888306
time_elpased: 4.1
start validation test
0.5596
0.630503144654
0.316495659037
0.421439831844
0.562951803566
16.966
#iterations: 320
currently lose_sum: 0.6659537553787231
time_elpased: 4.504
#iterations: 321
currently lose_sum: 0.6430062651634216
time_elpased: 3.997
#iterations: 322
currently lose_sum: 0.635170578956604
time_elpased: 4.822
#iterations: 323
currently lose_sum: 0.674022376537323
time_elpased: 4.888
#iterations: 324
currently lose_sum: 0.6448543071746826
time_elpased: 4.119
#iterations: 325
currently lose_sum: 0.6716972589492798
time_elpased: 4.172
#iterations: 326
currently lose_sum: 0.6446811556816101
time_elpased: 4.238
#iterations: 327
currently lose_sum: 0.6638705730438232
time_elpased: 4.329
#iterations: 328
currently lose_sum: 0.6582899689674377
time_elpased: 4.483
#iterations: 329
currently lose_sum: 0.6353581547737122
time_elpased: 4.539
#iterations: 330
currently lose_sum: 0.6609826683998108
time_elpased: 4.177
#iterations: 331
currently lose_sum: 0.652172863483429
time_elpased: 4.353
#iterations: 332
currently lose_sum: 0.6865848302841187
time_elpased: 4.192
#iterations: 333
currently lose_sum: 0.6099705696105957
time_elpased: 4.633
#iterations: 334
currently lose_sum: 0.6116785407066345
time_elpased: 4.457
#iterations: 335
currently lose_sum: 0.6645568609237671
time_elpased: 4.946
#iterations: 336
currently lose_sum: 0.6076980829238892
time_elpased: 4.285
#iterations: 337
currently lose_sum: 0.6675671339035034
time_elpased: 4.308
#iterations: 338
currently lose_sum: 0.6300411224365234
time_elpased: 4.237
#iterations: 339
currently lose_sum: 0.6716222167015076
time_elpased: 4.46
start validation test
0.5624
0.549456832476
0.758484609313
0.637267904509
0.559696481461
16.863
#iterations: 340
currently lose_sum: 0.6741142272949219
time_elpased: 4.173
#iterations: 341
currently lose_sum: 0.6582574248313904
time_elpased: 4.208
#iterations: 342
currently lose_sum: 0.625344455242157
time_elpased: 4.273
#iterations: 343
currently lose_sum: 0.6459192037582397
time_elpased: 4.162
#iterations: 344
currently lose_sum: 0.7122411131858826
time_elpased: 4.214
#iterations: 345
currently lose_sum: 0.6587533354759216
time_elpased: 4.492
#iterations: 346
currently lose_sum: 0.659126877784729
time_elpased: 4.867
#iterations: 347
currently lose_sum: 0.6291218400001526
time_elpased: 4.306
#iterations: 348
currently lose_sum: 0.6292572617530823
time_elpased: 4.322
#iterations: 349
currently lose_sum: 0.6701605319976807
time_elpased: 4.126
#iterations: 350
currently lose_sum: 0.6477004885673523
time_elpased: 4.36
#iterations: 351
currently lose_sum: 0.6735635995864868
time_elpased: 4.796
#iterations: 352
currently lose_sum: 0.6420868039131165
time_elpased: 4.366
#iterations: 353
currently lose_sum: 0.6630672216415405
time_elpased: 4.26
#iterations: 354
currently lose_sum: 0.6347041726112366
time_elpased: 4.237
#iterations: 355
currently lose_sum: 0.6309515237808228
time_elpased: 4.428
#iterations: 356
currently lose_sum: 0.6446892023086548
time_elpased: 4.345
#iterations: 357
currently lose_sum: 0.6571357846260071
time_elpased: 4.233
#iterations: 358
currently lose_sum: 0.6598690152168274
time_elpased: 4.425
#iterations: 359
currently lose_sum: 0.6140128374099731
time_elpased: 4.603
start validation test
0.562
0.573005093379
0.532754538279
0.552147239264
0.5624032221
16.855
#iterations: 360
currently lose_sum: 0.6826918125152588
time_elpased: 4.527
#iterations: 361
currently lose_sum: 0.6449781656265259
time_elpased: 4.339
#iterations: 362
currently lose_sum: 0.6312961578369141
time_elpased: 4.221
#iterations: 363
currently lose_sum: 0.6612625122070312
time_elpased: 4.247
#iterations: 364
currently lose_sum: 0.6620765924453735
time_elpased: 4.293
#iterations: 365
currently lose_sum: 0.6422295570373535
time_elpased: 4.143
#iterations: 366
currently lose_sum: 0.6798560619354248
time_elpased: 4.384
#iterations: 367
currently lose_sum: 0.6688709855079651
time_elpased: 4.733
#iterations: 368
currently lose_sum: 0.6867157220840454
time_elpased: 4.371
#iterations: 369
currently lose_sum: 0.6653066277503967
time_elpased: 4.231
#iterations: 370
currently lose_sum: 0.6621216535568237
time_elpased: 4.807
#iterations: 371
currently lose_sum: 0.6616472005844116
time_elpased: 4.384
#iterations: 372
currently lose_sum: 0.6508709788322449
time_elpased: 4.344
#iterations: 373
currently lose_sum: 0.6903839707374573
time_elpased: 4.119
#iterations: 374
currently lose_sum: 0.6826918721199036
time_elpased: 4.339
#iterations: 375
currently lose_sum: 0.6316635608673096
time_elpased: 4.177
#iterations: 376
currently lose_sum: 0.683228611946106
time_elpased: 4.363
#iterations: 377
currently lose_sum: 0.7172698974609375
time_elpased: 4.636
#iterations: 378
currently lose_sum: 0.631456732749939
time_elpased: 4.09
#iterations: 379
currently lose_sum: 0.5981626510620117
time_elpased: 4.559
start validation test
0.562
0.563235294118
0.604577742699
0.58317472402
0.561412958941
16.820
#iterations: 380
currently lose_sum: 0.6805711984634399
time_elpased: 4.323
#iterations: 381
currently lose_sum: 0.6577479839324951
time_elpased: 4.31
#iterations: 382
currently lose_sum: 0.7180778384208679
time_elpased: 4.518
#iterations: 383
currently lose_sum: 0.6519837975502014
time_elpased: 4.39
#iterations: 384
currently lose_sum: 0.6637578010559082
time_elpased: 4.608
#iterations: 385
currently lose_sum: 0.6098812222480774
time_elpased: 4.216
#iterations: 386
currently lose_sum: 0.6818777322769165
time_elpased: 4.548
#iterations: 387
currently lose_sum: 0.6519851684570312
time_elpased: 5.458
#iterations: 388
currently lose_sum: 0.6216209530830383
time_elpased: 4.576
#iterations: 389
currently lose_sum: 0.6611945629119873
time_elpased: 4.354
#iterations: 390
currently lose_sum: 0.6469621062278748
time_elpased: 4.691
#iterations: 391
currently lose_sum: 0.5975068807601929
time_elpased: 4.892
#iterations: 392
currently lose_sum: 0.7160908579826355
time_elpased: 4.333
#iterations: 393
currently lose_sum: 0.6718272566795349
time_elpased: 4.465
#iterations: 394
currently lose_sum: 0.6809933185577393
time_elpased: 4.157
#iterations: 395
currently lose_sum: 0.603191077709198
time_elpased: 4.281
#iterations: 396
currently lose_sum: 0.6774870157241821
time_elpased: 4.362
#iterations: 397
currently lose_sum: 0.6078927516937256
time_elpased: 4.216
#iterations: 398
currently lose_sum: 0.6504323482513428
time_elpased: 4.289
#iterations: 399
currently lose_sum: 0.676850438117981
time_elpased: 4.144
start validation test
0.5628
0.580855018587
0.493291239148
0.533504054631
0.563758352745
16.835
#iterations: 400
currently lose_sum: 0.6178320050239563
time_elpased: 4.172
#iterations: 401
currently lose_sum: 0.6432148814201355
time_elpased: 4.228
#iterations: 402
currently lose_sum: 0.6428844332695007
time_elpased: 4.909
#iterations: 403
currently lose_sum: 0.6591312885284424
time_elpased: 4.323
#iterations: 404
currently lose_sum: 0.6776756048202515
time_elpased: 4.55
#iterations: 405
currently lose_sum: 0.6575861573219299
time_elpased: 4.318
#iterations: 406
currently lose_sum: 0.6271607875823975
time_elpased: 4.338
#iterations: 407
currently lose_sum: 0.7220647931098938
time_elpased: 4.183
#iterations: 408
currently lose_sum: 0.6668146252632141
time_elpased: 4.522
#iterations: 409
currently lose_sum: 0.6447331309318542
time_elpased: 4.535
#iterations: 410
currently lose_sum: 0.6446226239204407
time_elpased: 4.209
#iterations: 411
currently lose_sum: 0.719052791595459
time_elpased: 4.258
#iterations: 412
currently lose_sum: 0.6648440361022949
time_elpased: 4.728
#iterations: 413
currently lose_sum: 0.654295027256012
time_elpased: 4.38
#iterations: 414
currently lose_sum: 0.6223071813583374
time_elpased: 4.374
#iterations: 415
currently lose_sum: 0.6626890301704407
time_elpased: 4.335
#iterations: 416
currently lose_sum: 0.6587362885475159
time_elpased: 4.234
#iterations: 417
currently lose_sum: 0.6515469551086426
time_elpased: 4.293
#iterations: 418
currently lose_sum: 0.6487489342689514
time_elpased: 4.335
#iterations: 419
currently lose_sum: 0.6335027813911438
time_elpased: 4.563
start validation test
0.564
0.569850039463
0.569850039463
0.569850039463
0.563919342522
16.782
#iterations: 420
currently lose_sum: 0.6536163091659546
time_elpased: 4.449
#iterations: 421
currently lose_sum: 0.6377843618392944
time_elpased: 4.502
#iterations: 422
currently lose_sum: 0.6148708462715149
time_elpased: 4.32
#iterations: 423
currently lose_sum: 0.6358212828636169
time_elpased: 4.134
#iterations: 424
currently lose_sum: 0.6855267286300659
time_elpased: 4.155
#iterations: 425
currently lose_sum: 0.6312236785888672
time_elpased: 4.386
#iterations: 426
currently lose_sum: 0.676466703414917
time_elpased: 3.912
#iterations: 427
currently lose_sum: 0.6046376824378967
time_elpased: 4.445
#iterations: 428
currently lose_sum: 0.6647472381591797
time_elpased: 4.335
#iterations: 429
currently lose_sum: 0.6538589596748352
time_elpased: 4.269
#iterations: 430
currently lose_sum: 0.6575022339820862
time_elpased: 4.207
#iterations: 431
currently lose_sum: 0.6458982825279236
time_elpased: 4.601
#iterations: 432
currently lose_sum: 0.6503145098686218
time_elpased: 4.532
#iterations: 433
currently lose_sum: 0.6387845873832703
time_elpased: 4.301
#iterations: 434
currently lose_sum: 0.6361963748931885
time_elpased: 4.857
#iterations: 435
currently lose_sum: 0.6507246494293213
time_elpased: 4.125
#iterations: 436
currently lose_sum: 0.6646368503570557
time_elpased: 4.415
#iterations: 437
currently lose_sum: 0.6910865306854248
time_elpased: 4.146
#iterations: 438
currently lose_sum: 0.6743924617767334
time_elpased: 4.646
#iterations: 439
currently lose_sum: 0.6520141363143921
time_elpased: 4.203
start validation test
0.5556
0.577227722772
0.460142067877
0.512077294686
0.556916127207
16.871
#iterations: 440
currently lose_sum: 0.6603707671165466
time_elpased: 4.259
#iterations: 441
currently lose_sum: 0.6891052722930908
time_elpased: 4.277
#iterations: 442
currently lose_sum: 0.6598367094993591
time_elpased: 4.211
#iterations: 443
currently lose_sum: 0.6622766256332397
time_elpased: 4.419
#iterations: 444
currently lose_sum: 0.6665326952934265
time_elpased: 4.348
#iterations: 445
currently lose_sum: 0.6287397742271423
time_elpased: 4.219
#iterations: 446
currently lose_sum: 0.6397745609283447
time_elpased: 4.096
#iterations: 447
currently lose_sum: 0.6374894976615906
time_elpased: 4.33
#iterations: 448
currently lose_sum: 0.6341391801834106
time_elpased: 4.365
#iterations: 449
currently lose_sum: 0.6337718367576599
time_elpased: 4.315
#iterations: 450
currently lose_sum: 0.6665591597557068
time_elpased: 4.302
#iterations: 451
currently lose_sum: 0.6517935991287231
time_elpased: 4.4
#iterations: 452
currently lose_sum: 0.6214048266410828
time_elpased: 4.886
#iterations: 453
currently lose_sum: 0.6651352047920227
time_elpased: 4.314
#iterations: 454
currently lose_sum: 0.6409664750099182
time_elpased: 4.213
#iterations: 455
currently lose_sum: 0.6542484760284424
time_elpased: 4.557
#iterations: 456
currently lose_sum: 0.6140754222869873
time_elpased: 4.252
#iterations: 457
currently lose_sum: 0.6712128520011902
time_elpased: 4.271
#iterations: 458
currently lose_sum: 0.7107394337654114
time_elpased: 4.294
#iterations: 459
currently lose_sum: 0.6471685767173767
time_elpased: 4.368
start validation test
0.5712
0.608453837597
0.431728492502
0.505078485688
0.573122964824
16.964
#iterations: 460
currently lose_sum: 0.579887866973877
time_elpased: 4.429
#iterations: 461
currently lose_sum: 0.6351712942123413
time_elpased: 4.245
#iterations: 462
currently lose_sum: 0.6573375463485718
time_elpased: 4.304
#iterations: 463
currently lose_sum: 0.640800952911377
time_elpased: 5.003
#iterations: 464
currently lose_sum: 0.6572508811950684
time_elpased: 4.199
#iterations: 465
currently lose_sum: 0.59992516040802
time_elpased: 4.091
#iterations: 466
currently lose_sum: 0.6599199175834656
time_elpased: 4.304
#iterations: 467
currently lose_sum: 0.678672730922699
time_elpased: 4.158
#iterations: 468
currently lose_sum: 0.6554813981056213
time_elpased: 4.415
#iterations: 469
currently lose_sum: 0.6406088471412659
time_elpased: 4.131
#iterations: 470
currently lose_sum: 0.6511034965515137
time_elpased: 4.43
#iterations: 471
currently lose_sum: 0.652894914150238
time_elpased: 4.219
#iterations: 472
currently lose_sum: 0.6118207573890686
time_elpased: 5.054
#iterations: 473
currently lose_sum: 0.6281005144119263
time_elpased: 4.447
#iterations: 474
currently lose_sum: 0.6282259821891785
time_elpased: 4.467
#iterations: 475
currently lose_sum: 0.5858398675918579
time_elpased: 4.276
#iterations: 476
currently lose_sum: 0.6707047820091248
time_elpased: 4.3
#iterations: 477
currently lose_sum: 0.6378703117370605
time_elpased: 4.281
#iterations: 478
currently lose_sum: 0.6828149557113647
time_elpased: 4.582
#iterations: 479
currently lose_sum: 0.6153737902641296
time_elpased: 4.483
start validation test
0.5596
0.579198473282
0.47908445146
0.524406047516
0.560710108942
16.824
#iterations: 480
currently lose_sum: 0.631935179233551
time_elpased: 4.31
#iterations: 481
currently lose_sum: 0.6720665097236633
time_elpased: 4.522
#iterations: 482
currently lose_sum: 0.6685168743133545
time_elpased: 4.48
#iterations: 483
currently lose_sum: 0.6178948879241943
time_elpased: 4.388
#iterations: 484
currently lose_sum: 0.689460813999176
time_elpased: 4.331
#iterations: 485
currently lose_sum: 0.620842456817627
time_elpased: 4.581
#iterations: 486
currently lose_sum: 0.6894679069519043
time_elpased: 4.853
#iterations: 487
currently lose_sum: 0.6535499095916748
time_elpased: 5.596
#iterations: 488
currently lose_sum: 0.6450687646865845
time_elpased: 4.535
#iterations: 489
currently lose_sum: 0.6383493542671204
time_elpased: 5.032
#iterations: 490
currently lose_sum: 0.6616390347480774
time_elpased: 4.738
#iterations: 491
currently lose_sum: 0.6627342700958252
time_elpased: 4.572
#iterations: 492
currently lose_sum: 0.6428292989730835
time_elpased: 4.575
#iterations: 493
currently lose_sum: 0.684642493724823
time_elpased: 4.761
#iterations: 494
currently lose_sum: 0.6567254662513733
time_elpased: 4.542
#iterations: 495
currently lose_sum: 0.6942161321640015
time_elpased: 4.264
#iterations: 496
currently lose_sum: 0.6491125226020813
time_elpased: 4.419
#iterations: 497
currently lose_sum: 0.6654013991355896
time_elpased: 4.439
#iterations: 498
currently lose_sum: 0.6153272986412048
time_elpased: 4.405
#iterations: 499
currently lose_sum: 0.6337947845458984
time_elpased: 4.694
start validation test
0.57
0.573059360731
0.594317284925
0.583494769469
0.569664725188
16.766
#iterations: 500
currently lose_sum: 0.6405418515205383
time_elpased: 5.382
#iterations: 501
currently lose_sum: 0.6560338735580444
time_elpased: 4.975
#iterations: 502
currently lose_sum: 0.6749848127365112
time_elpased: 4.967
#iterations: 503
currently lose_sum: 0.6729683876037598
time_elpased: 4.664
#iterations: 504
currently lose_sum: 0.6061512231826782
time_elpased: 4.371
#iterations: 505
currently lose_sum: 0.6302411556243896
time_elpased: 4.387
#iterations: 506
currently lose_sum: 0.6492883563041687
time_elpased: 5.073
#iterations: 507
currently lose_sum: 0.6315904259681702
time_elpased: 4.258
#iterations: 508
currently lose_sum: 0.6357876062393188
time_elpased: 4.569
#iterations: 509
currently lose_sum: 0.63001948595047
time_elpased: 4.541
#iterations: 510
currently lose_sum: 0.6279824376106262
time_elpased: 4.518
#iterations: 511
currently lose_sum: 0.6178857684135437
time_elpased: 4.459
#iterations: 512
currently lose_sum: 0.6702224612236023
time_elpased: 4.63
#iterations: 513
currently lose_sum: 0.6116176843643188
time_elpased: 4.427
#iterations: 514
currently lose_sum: 0.660305380821228
time_elpased: 4.564
#iterations: 515
currently lose_sum: 0.6136345267295837
time_elpased: 4.453
#iterations: 516
currently lose_sum: 0.6396315097808838
time_elpased: 4.566
#iterations: 517
currently lose_sum: 0.6157135963439941
time_elpased: 4.915
#iterations: 518
currently lose_sum: 0.6612937450408936
time_elpased: 4.416
#iterations: 519
currently lose_sum: 0.6307640671730042
time_elpased: 4.51
start validation test
0.5608
0.613728129206
0.359905288082
0.453731343284
0.563569837877
17.057
#iterations: 520
currently lose_sum: 0.6382284164428711
time_elpased: 4.698
#iterations: 521
currently lose_sum: 0.657179057598114
time_elpased: 5.399
#iterations: 522
currently lose_sum: 0.6048566699028015
time_elpased: 4.647
#iterations: 523
currently lose_sum: 0.6594805717468262
time_elpased: 5.226
#iterations: 524
currently lose_sum: 0.6600394248962402
time_elpased: 4.332
#iterations: 525
currently lose_sum: 0.6411849856376648
time_elpased: 4.747
#iterations: 526
currently lose_sum: 0.666135847568512
time_elpased: 4.399
#iterations: 527
currently lose_sum: 0.6222963929176331
time_elpased: 4.843
#iterations: 528
currently lose_sum: 0.6269242763519287
time_elpased: 4.436
#iterations: 529
currently lose_sum: 0.6481900215148926
time_elpased: 5.333
#iterations: 530
currently lose_sum: 0.6308825612068176
time_elpased: 4.202
#iterations: 531
currently lose_sum: 0.6210646629333496
time_elpased: 3.589
#iterations: 532
currently lose_sum: 0.6533219814300537
time_elpased: 3.561
#iterations: 533
currently lose_sum: 0.6278284192085266
time_elpased: 3.709
#iterations: 534
currently lose_sum: 0.6038448810577393
time_elpased: 4.496
#iterations: 535
currently lose_sum: 0.6423941254615784
time_elpased: 4.537
#iterations: 536
currently lose_sum: 0.6361707448959351
time_elpased: 4.409
#iterations: 537
currently lose_sum: 0.6636213660240173
time_elpased: 4.736
#iterations: 538
currently lose_sum: 0.6075555682182312
time_elpased: 4.277
#iterations: 539
currently lose_sum: 0.6900566220283508
time_elpased: 4.453
start validation test
0.5632
0.552552552553
0.726124704025
0.6275579809
0.560953673992
16.906
#iterations: 540
currently lose_sum: 0.6582351922988892
time_elpased: 4.296
#iterations: 541
currently lose_sum: 0.6626113057136536
time_elpased: 4.46
#iterations: 542
currently lose_sum: 0.6553954482078552
time_elpased: 4.309
#iterations: 543
currently lose_sum: 0.636829137802124
time_elpased: 4.596
#iterations: 544
currently lose_sum: 0.6015139818191528
time_elpased: 4.427
#iterations: 545
currently lose_sum: 0.6210697293281555
time_elpased: 4.494
#iterations: 546
currently lose_sum: 0.6499587893486023
time_elpased: 4.262
#iterations: 547
currently lose_sum: 0.689749538898468
time_elpased: 4.598
#iterations: 548
currently lose_sum: 0.6192228198051453
time_elpased: 4.371
#iterations: 549
currently lose_sum: 0.6256499290466309
time_elpased: 4.013
#iterations: 550
currently lose_sum: 0.6113489270210266
time_elpased: 4.011
#iterations: 551
currently lose_sum: 0.6558952331542969
time_elpased: 4.083
#iterations: 552
currently lose_sum: 0.663256824016571
time_elpased: 4.063
#iterations: 553
currently lose_sum: 0.6472873091697693
time_elpased: 3.981
#iterations: 554
currently lose_sum: 0.6374465227127075
time_elpased: 4.019
#iterations: 555
currently lose_sum: 0.6321069598197937
time_elpased: 4.061
#iterations: 556
currently lose_sum: 0.636874794960022
time_elpased: 4.026
#iterations: 557
currently lose_sum: 0.6445879340171814
time_elpased: 3.983
#iterations: 558
currently lose_sum: 0.6454656720161438
time_elpased: 4.109
#iterations: 559
currently lose_sum: 0.6204524040222168
time_elpased: 4.062
start validation test
0.56
0.547578347578
0.758484609313
0.636002647253
0.557263391437
16.990
#iterations: 560
currently lose_sum: 0.6408237218856812
time_elpased: 4.204
#iterations: 561
currently lose_sum: 0.6546475887298584
time_elpased: 4.311
#iterations: 562
currently lose_sum: 0.6404614448547363
time_elpased: 4.269
#iterations: 563
currently lose_sum: 0.6369854211807251
time_elpased: 4.647
#iterations: 564
currently lose_sum: 0.6430055499076843
time_elpased: 4.686
#iterations: 565
currently lose_sum: 0.6383170485496521
time_elpased: 4.738
#iterations: 566
currently lose_sum: 0.6383498907089233
time_elpased: 4.343
#iterations: 567
currently lose_sum: 0.6311302185058594
time_elpased: 4.265
#iterations: 568
currently lose_sum: 0.6462612152099609
time_elpased: 4.359
#iterations: 569
currently lose_sum: 0.6358501315116882
time_elpased: 4.439
#iterations: 570
currently lose_sum: 0.6426053047180176
time_elpased: 4.203
#iterations: 571
currently lose_sum: 0.6368362307548523
time_elpased: 4.242
#iterations: 572
currently lose_sum: 0.6111243367195129
time_elpased: 4.327
#iterations: 573
currently lose_sum: 0.6641090512275696
time_elpased: 4.397
#iterations: 574
currently lose_sum: 0.6274632215499878
time_elpased: 4.356
#iterations: 575
currently lose_sum: 0.6505603790283203
time_elpased: 4.357
#iterations: 576
currently lose_sum: 0.6199714541435242
time_elpased: 4.409
#iterations: 577
currently lose_sum: 0.6129313707351685
time_elpased: 4.354
#iterations: 578
currently lose_sum: 0.6406956315040588
time_elpased: 4.751
#iterations: 579
currently lose_sum: 0.6592167615890503
time_elpased: 4.152
start validation test
0.5684
0.574960127592
0.569060773481
0.571995239984
0.568390889579
16.881
#iterations: 580
currently lose_sum: 0.6143296360969543
time_elpased: 4.96
#iterations: 581
currently lose_sum: 0.6514724493026733
time_elpased: 4.338
#iterations: 582
currently lose_sum: 0.6194608211517334
time_elpased: 5.452
#iterations: 583
currently lose_sum: 0.660768449306488
time_elpased: 4.07
#iterations: 584
currently lose_sum: 0.6266064047813416
time_elpased: 4.241
#iterations: 585
currently lose_sum: 0.6643343567848206
time_elpased: 4.905
#iterations: 586
currently lose_sum: 0.6412152051925659
time_elpased: 4.312
#iterations: 587
currently lose_sum: 0.6839845776557922
time_elpased: 4.172
#iterations: 588
currently lose_sum: 0.6654813885688782
time_elpased: 4.278
#iterations: 589
currently lose_sum: 0.612697958946228
time_elpased: 4.213
#iterations: 590
currently lose_sum: 0.6235044598579407
time_elpased: 4.102
#iterations: 591
currently lose_sum: 0.6371048092842102
time_elpased: 4.45
#iterations: 592
currently lose_sum: 0.6188650727272034
time_elpased: 4.171
#iterations: 593
currently lose_sum: 0.686473548412323
time_elpased: 4.154
#iterations: 594
currently lose_sum: 0.6325218081474304
time_elpased: 4.881
#iterations: 595
currently lose_sum: 0.5872702598571777
time_elpased: 4.77
#iterations: 596
currently lose_sum: 0.634711742401123
time_elpased: 4.295
#iterations: 597
currently lose_sum: 0.6123413443565369
time_elpased: 4.403
#iterations: 598
currently lose_sum: 0.6441108584403992
time_elpased: 4.451
#iterations: 599
currently lose_sum: 0.6432496905326843
time_elpased: 4.295
start validation test
0.5672
0.579948141746
0.529597474349
0.553630363036
0.567718445204
16.873
acc: 0.582
pre: 0.582
rec: 0.619
F1: 0.600
auc: 0.581
