start to construct computing graph
graph construct over
3802
epochs start
#iterations: 0
currently lose_sum: 0.6966708302497864
time_elpased: 2.668
#iterations: 1
currently lose_sum: 0.7013118267059326
time_elpased: 2.621
#iterations: 2
currently lose_sum: 0.7137560844421387
time_elpased: 2.642
#iterations: 3
currently lose_sum: 0.6921613216400146
time_elpased: 2.625
#iterations: 4
currently lose_sum: 0.710069477558136
time_elpased: 2.615
#iterations: 5
currently lose_sum: 0.6970487833023071
time_elpased: 2.611
#iterations: 6
currently lose_sum: 0.7056832909584045
time_elpased: 2.617
#iterations: 7
currently lose_sum: 0.697465717792511
time_elpased: 2.627
#iterations: 8
currently lose_sum: 0.7139045596122742
time_elpased: 2.785
#iterations: 9
currently lose_sum: 0.6877391934394836
time_elpased: 2.584
#iterations: 10
currently lose_sum: 0.68461012840271
time_elpased: 2.608
#iterations: 11
currently lose_sum: 0.6844196915626526
time_elpased: 2.667
#iterations: 12
currently lose_sum: 0.6851449608802795
time_elpased: 2.689
#iterations: 13
currently lose_sum: 0.6905128359794617
time_elpased: 2.605
#iterations: 14
currently lose_sum: 0.6851965188980103
time_elpased: 2.584
#iterations: 15
currently lose_sum: 0.6841964721679688
time_elpased: 2.716
#iterations: 16
currently lose_sum: 0.7102330923080444
time_elpased: 2.657
#iterations: 17
currently lose_sum: 0.6785376667976379
time_elpased: 2.633
#iterations: 18
currently lose_sum: 0.6866071820259094
time_elpased: 2.624
#iterations: 19
currently lose_sum: 0.6838594675064087
time_elpased: 2.619
start validation test
0.5296
0.560846560847
0.334384858044
0.418972332016
0.532452169282
17.252
#iterations: 20
currently lose_sum: 0.6930694580078125
time_elpased: 1.964
#iterations: 21
currently lose_sum: 0.6857417225837708
time_elpased: 2.064
#iterations: 22
currently lose_sum: 0.6784507036209106
time_elpased: 2.048
#iterations: 23
currently lose_sum: 0.6856974959373474
time_elpased: 2.066
#iterations: 24
currently lose_sum: 0.6982503533363342
time_elpased: 2.107
#iterations: 25
currently lose_sum: 0.6949211359024048
time_elpased: 2.096
#iterations: 26
currently lose_sum: 0.7108362317085266
time_elpased: 2.026
#iterations: 27
currently lose_sum: 0.6859319806098938
time_elpased: 2.07
#iterations: 28
currently lose_sum: 0.6868674755096436
time_elpased: 2.058
#iterations: 29
currently lose_sum: 0.691314160823822
time_elpased: 2.049
#iterations: 30
currently lose_sum: 0.6952282786369324
time_elpased: 2.02
#iterations: 31
currently lose_sum: 0.6964204907417297
time_elpased: 1.965
#iterations: 32
currently lose_sum: 0.6781695485115051
time_elpased: 2.033
#iterations: 33
currently lose_sum: 0.6810325384140015
time_elpased: 2.014
#iterations: 34
currently lose_sum: 0.7034742832183838
time_elpased: 2.001
#iterations: 35
currently lose_sum: 0.7067978382110596
time_elpased: 1.954
#iterations: 36
currently lose_sum: 0.6836552619934082
time_elpased: 2.065
#iterations: 37
currently lose_sum: 0.6873913407325745
time_elpased: 2.02
#iterations: 38
currently lose_sum: 0.6930786371231079
time_elpased: 2.001
#iterations: 39
currently lose_sum: 0.7053714990615845
time_elpased: 2.012
start validation test
0.5312
0.593385214008
0.240536277603
0.342312008979
0.53544671023
17.220
#iterations: 40
currently lose_sum: 0.6696754693984985
time_elpased: 2.007
#iterations: 41
currently lose_sum: 0.6808362007141113
time_elpased: 2.05
#iterations: 42
currently lose_sum: 0.685657799243927
time_elpased: 1.975
#iterations: 43
currently lose_sum: 0.6816079616546631
time_elpased: 2.022
#iterations: 44
currently lose_sum: 0.6780602931976318
time_elpased: 2.073
#iterations: 45
currently lose_sum: 0.6670536994934082
time_elpased: 1.982
#iterations: 46
currently lose_sum: 0.6882157921791077
time_elpased: 2.021
#iterations: 47
currently lose_sum: 0.661161482334137
time_elpased: 1.984
#iterations: 48
currently lose_sum: 0.6992418766021729
time_elpased: 2.028
#iterations: 49
currently lose_sum: 0.6919247508049011
time_elpased: 2.039
#iterations: 50
currently lose_sum: 0.6700593829154968
time_elpased: 2.066
#iterations: 51
currently lose_sum: 0.6711534857749939
time_elpased: 1.997
#iterations: 52
currently lose_sum: 0.6744533777236938
time_elpased: 2.066
#iterations: 53
currently lose_sum: 0.6607251167297363
time_elpased: 2.011
#iterations: 54
currently lose_sum: 0.6749831438064575
time_elpased: 2.001
#iterations: 55
currently lose_sum: 0.705712080001831
time_elpased: 1.992
#iterations: 56
currently lose_sum: 0.675201416015625
time_elpased: 1.979
#iterations: 57
currently lose_sum: 0.6783405542373657
time_elpased: 2.032
#iterations: 58
currently lose_sum: 0.6877710223197937
time_elpased: 1.979
#iterations: 59
currently lose_sum: 0.66562819480896
time_elpased: 2.025
start validation test
0.5548
0.570009033424
0.497634069401
0.531368421053
0.555635216518
16.969
#iterations: 60
currently lose_sum: 0.6560641527175903
time_elpased: 1.957
#iterations: 61
currently lose_sum: 0.695706307888031
time_elpased: 2.003
#iterations: 62
currently lose_sum: 0.6827038526535034
time_elpased: 2.013
#iterations: 63
currently lose_sum: 0.7072688341140747
time_elpased: 2.016
#iterations: 64
currently lose_sum: 0.6801139712333679
time_elpased: 2.041
#iterations: 65
currently lose_sum: 0.6833810210227966
time_elpased: 1.978
#iterations: 66
currently lose_sum: 0.6457241773605347
time_elpased: 1.991
#iterations: 67
currently lose_sum: 0.6981801390647888
time_elpased: 2.031
#iterations: 68
currently lose_sum: 0.6739050149917603
time_elpased: 2.041
#iterations: 69
currently lose_sum: 0.6576693058013916
time_elpased: 2.001
#iterations: 70
currently lose_sum: 0.6786656379699707
time_elpased: 2.101
#iterations: 71
currently lose_sum: 0.6740036010742188
time_elpased: 1.988
#iterations: 72
currently lose_sum: 0.6783599853515625
time_elpased: 1.993
#iterations: 73
currently lose_sum: 0.6951313614845276
time_elpased: 1.958
#iterations: 74
currently lose_sum: 0.6564332842826843
time_elpased: 1.96
#iterations: 75
currently lose_sum: 0.6902626752853394
time_elpased: 2.011
#iterations: 76
currently lose_sum: 0.680392324924469
time_elpased: 2.084
#iterations: 77
currently lose_sum: 0.691082775592804
time_elpased: 1.984
#iterations: 78
currently lose_sum: 0.6813517808914185
time_elpased: 2.156
#iterations: 79
currently lose_sum: 0.6723553538322449
time_elpased: 1.983
start validation test
0.5616
0.552825552826
0.709779179811
0.621546961326
0.559435044451
16.992
#iterations: 80
currently lose_sum: 0.6873533725738525
time_elpased: 1.945
#iterations: 81
currently lose_sum: 0.6762365698814392
time_elpased: 1.983
#iterations: 82
currently lose_sum: 0.6954347491264343
time_elpased: 1.95
#iterations: 83
currently lose_sum: 0.646090567111969
time_elpased: 1.958
#iterations: 84
currently lose_sum: 0.6770153641700745
time_elpased: 2.002
#iterations: 85
currently lose_sum: 0.6807568073272705
time_elpased: 1.979
#iterations: 86
currently lose_sum: 0.6540385484695435
time_elpased: 1.993
#iterations: 87
currently lose_sum: 0.6762760281562805
time_elpased: 2.085
#iterations: 88
currently lose_sum: 0.6529011726379395
time_elpased: 2.009
#iterations: 89
currently lose_sum: 0.6915538311004639
time_elpased: 1.994
#iterations: 90
currently lose_sum: 0.6790286898612976
time_elpased: 2.049
#iterations: 91
currently lose_sum: 0.689984142780304
time_elpased: 1.958
#iterations: 92
currently lose_sum: 0.6743324995040894
time_elpased: 2.034
#iterations: 93
currently lose_sum: 0.66778165102005
time_elpased: 2.024
#iterations: 94
currently lose_sum: 0.6686095595359802
time_elpased: 1.946
#iterations: 95
currently lose_sum: 0.697755753993988
time_elpased: 1.933
#iterations: 96
currently lose_sum: 0.678547203540802
time_elpased: 2.014
#iterations: 97
currently lose_sum: 0.6854182481765747
time_elpased: 1.995
#iterations: 98
currently lose_sum: 0.6773073673248291
time_elpased: 1.994
#iterations: 99
currently lose_sum: 0.6683047413825989
time_elpased: 1.982
start validation test
0.564
0.618037135279
0.367507886435
0.460929772502
0.566870826335
16.927
#iterations: 100
currently lose_sum: 0.6654791235923767
time_elpased: 1.988
#iterations: 101
currently lose_sum: 0.6753052473068237
time_elpased: 2.009
#iterations: 102
currently lose_sum: 0.6756831407546997
time_elpased: 1.982
#iterations: 103
currently lose_sum: 0.6801729798316956
time_elpased: 2.001
#iterations: 104
currently lose_sum: 0.6576268076896667
time_elpased: 1.983
#iterations: 105
currently lose_sum: 0.6960641741752625
time_elpased: 1.988
#iterations: 106
currently lose_sum: 0.6863744854927063
time_elpased: 2.039
#iterations: 107
currently lose_sum: 0.6581132411956787
time_elpased: 1.95
#iterations: 108
currently lose_sum: 0.6563594341278076
time_elpased: 1.996
#iterations: 109
currently lose_sum: 0.6702178120613098
time_elpased: 1.991
#iterations: 110
currently lose_sum: 0.6901803612709045
time_elpased: 2.037
#iterations: 111
currently lose_sum: 0.6309536695480347
time_elpased: 1.989
#iterations: 112
currently lose_sum: 0.6670118570327759
time_elpased: 2.012
#iterations: 113
currently lose_sum: 0.6825019717216492
time_elpased: 1.953
#iterations: 114
currently lose_sum: 0.6293818950653076
time_elpased: 2.009
#iterations: 115
currently lose_sum: 0.6391620635986328
time_elpased: 2.015
#iterations: 116
currently lose_sum: 0.669485330581665
time_elpased: 2.054
#iterations: 117
currently lose_sum: 0.6550999283790588
time_elpased: 1.962
#iterations: 118
currently lose_sum: 0.6731151342391968
time_elpased: 2.02
#iterations: 119
currently lose_sum: 0.6508282423019409
time_elpased: 2.043
start validation test
0.5724
0.578905630452
0.57570977918
0.57730328193
0.572351642837
16.840
#iterations: 120
currently lose_sum: 0.6426045894622803
time_elpased: 1.97
#iterations: 121
currently lose_sum: 0.6501835584640503
time_elpased: 1.961
#iterations: 122
currently lose_sum: 0.6495988368988037
time_elpased: 1.979
#iterations: 123
currently lose_sum: 0.708087146282196
time_elpased: 1.994
#iterations: 124
currently lose_sum: 0.6815261840820312
time_elpased: 1.988
#iterations: 125
currently lose_sum: 0.6541590690612793
time_elpased: 1.958
#iterations: 126
currently lose_sum: 0.6690261960029602
time_elpased: 1.998
#iterations: 127
currently lose_sum: 0.6697469353675842
time_elpased: 2.053
#iterations: 128
currently lose_sum: 0.714336097240448
time_elpased: 1.98
#iterations: 129
currently lose_sum: 0.701826810836792
time_elpased: 2.026
#iterations: 130
currently lose_sum: 0.664242684841156
time_elpased: 1.966
#iterations: 131
currently lose_sum: 0.6837307214736938
time_elpased: 1.985
#iterations: 132
currently lose_sum: 0.7078791856765747
time_elpased: 2.004
#iterations: 133
currently lose_sum: 0.661852240562439
time_elpased: 2.022
#iterations: 134
currently lose_sum: 0.6658744812011719
time_elpased: 2.056
#iterations: 135
currently lose_sum: 0.6663954257965088
time_elpased: 2.011
#iterations: 136
currently lose_sum: 0.6496807932853699
time_elpased: 2.005
#iterations: 137
currently lose_sum: 0.6897936463356018
time_elpased: 1.988
#iterations: 138
currently lose_sum: 0.6864286661148071
time_elpased: 2.065
#iterations: 139
currently lose_sum: 0.6797460317611694
time_elpased: 2.098
start validation test
0.5668
0.598930481283
0.441640378549
0.508397639582
0.568628630833
16.887
#iterations: 140
currently lose_sum: 0.6862385272979736
time_elpased: 1.978
#iterations: 141
currently lose_sum: 0.7107222676277161
time_elpased: 2.042
#iterations: 142
currently lose_sum: 0.6913841366767883
time_elpased: 1.982
#iterations: 143
currently lose_sum: 0.6543667316436768
time_elpased: 2.034
#iterations: 144
currently lose_sum: 0.652891993522644
time_elpased: 2.069
#iterations: 145
currently lose_sum: 0.6514774560928345
time_elpased: 1.994
#iterations: 146
currently lose_sum: 0.6665232181549072
time_elpased: 2.005
#iterations: 147
currently lose_sum: 0.6419589519500732
time_elpased: 2.021
#iterations: 148
currently lose_sum: 0.6804873943328857
time_elpased: 1.99
#iterations: 149
currently lose_sum: 0.6736646890640259
time_elpased: 1.976
#iterations: 150
currently lose_sum: 0.6950926184654236
time_elpased: 1.954
#iterations: 151
currently lose_sum: 0.6776385307312012
time_elpased: 2.051
#iterations: 152
currently lose_sum: 0.7002937197685242
time_elpased: 2.016
#iterations: 153
currently lose_sum: 0.653330385684967
time_elpased: 2.023
#iterations: 154
currently lose_sum: 0.6677438616752625
time_elpased: 1.98
#iterations: 155
currently lose_sum: 0.6664512753486633
time_elpased: 2.032
#iterations: 156
currently lose_sum: 0.6323933601379395
time_elpased: 2.003
#iterations: 157
currently lose_sum: 0.6416666507720947
time_elpased: 1.944
#iterations: 158
currently lose_sum: 0.6781935691833496
time_elpased: 1.985
#iterations: 159
currently lose_sum: 0.6646385192871094
time_elpased: 1.961
start validation test
0.5532
0.578727841502
0.437697160883
0.498428378985
0.554887541481
16.853
#iterations: 160
currently lose_sum: 0.663516104221344
time_elpased: 2.098
#iterations: 161
currently lose_sum: 0.6649338006973267
time_elpased: 2.115
#iterations: 162
currently lose_sum: 0.6556375026702881
time_elpased: 2.06
#iterations: 163
currently lose_sum: 0.6791654825210571
time_elpased: 1.968
#iterations: 164
currently lose_sum: 0.6605878472328186
time_elpased: 2.011
#iterations: 165
currently lose_sum: 0.6852841377258301
time_elpased: 2.018
#iterations: 166
currently lose_sum: 0.670335054397583
time_elpased: 2.037
#iterations: 167
currently lose_sum: 0.6896466612815857
time_elpased: 1.965
#iterations: 168
currently lose_sum: 0.6893174052238464
time_elpased: 2.008
#iterations: 169
currently lose_sum: 0.6631091833114624
time_elpased: 1.986
#iterations: 170
currently lose_sum: 0.6605538129806519
time_elpased: 1.959
#iterations: 171
currently lose_sum: 0.6678981184959412
time_elpased: 2.039
#iterations: 172
currently lose_sum: 0.6666517853736877
time_elpased: 1.983
#iterations: 173
currently lose_sum: 0.6813958883285522
time_elpased: 1.987
#iterations: 174
currently lose_sum: 0.6649350523948669
time_elpased: 1.982
#iterations: 175
currently lose_sum: 0.6753537058830261
time_elpased: 1.983
#iterations: 176
currently lose_sum: 0.6662181615829468
time_elpased: 1.999
#iterations: 177
currently lose_sum: 0.6772564053535461
time_elpased: 2.047
#iterations: 178
currently lose_sum: 0.6728505492210388
time_elpased: 1.962
#iterations: 179
currently lose_sum: 0.6642602682113647
time_elpased: 1.979
start validation test
0.5588
0.545554942021
0.779179810726
0.641766807405
0.555580165103
17.059
#iterations: 180
currently lose_sum: 0.666810929775238
time_elpased: 2.074
#iterations: 181
currently lose_sum: 0.6937692165374756
time_elpased: 1.998
#iterations: 182
currently lose_sum: 0.6661182641983032
time_elpased: 1.998
#iterations: 183
currently lose_sum: 0.6693581938743591
time_elpased: 1.953
#iterations: 184
currently lose_sum: 0.6355791091918945
time_elpased: 1.969
#iterations: 185
currently lose_sum: 0.6545935869216919
time_elpased: 1.986
#iterations: 186
currently lose_sum: 0.6778872013092041
time_elpased: 1.976
#iterations: 187
currently lose_sum: 0.6865555644035339
time_elpased: 1.988
#iterations: 188
currently lose_sum: 0.660158097743988
time_elpased: 1.993
#iterations: 189
currently lose_sum: 0.6507887244224548
time_elpased: 2.01
#iterations: 190
currently lose_sum: 0.6606460809707642
time_elpased: 1.962
#iterations: 191
currently lose_sum: 0.6891293525695801
time_elpased: 2.065
#iterations: 192
currently lose_sum: 0.6532461047172546
time_elpased: 2.0
#iterations: 193
currently lose_sum: 0.6765507459640503
time_elpased: 2.059
#iterations: 194
currently lose_sum: 0.6498168706893921
time_elpased: 2.003
#iterations: 195
currently lose_sum: 0.6391919851303101
time_elpased: 2.013
#iterations: 196
currently lose_sum: 0.6632688641548157
time_elpased: 2.01
#iterations: 197
currently lose_sum: 0.629774808883667
time_elpased: 2.081
#iterations: 198
currently lose_sum: 0.6601232886314392
time_elpased: 2.074
#iterations: 199
currently lose_sum: 0.6679935455322266
time_elpased: 2.041
start validation test
0.57
0.566689702833
0.646687697161
0.604051565378
0.568879562866
16.782
#iterations: 200
currently lose_sum: 0.6434128284454346
time_elpased: 1.975
#iterations: 201
currently lose_sum: 0.664467453956604
time_elpased: 1.991
#iterations: 202
currently lose_sum: 0.6593025326728821
time_elpased: 1.982
#iterations: 203
currently lose_sum: 0.6674087047576904
time_elpased: 2.001
#iterations: 204
currently lose_sum: 0.6390132308006287
time_elpased: 1.994
#iterations: 205
currently lose_sum: 0.6763137578964233
time_elpased: 1.993
#iterations: 206
currently lose_sum: 0.7118379473686218
time_elpased: 2.02
#iterations: 207
currently lose_sum: 0.6415212154388428
time_elpased: 1.972
#iterations: 208
currently lose_sum: 0.6576257348060608
time_elpased: 2.043
#iterations: 209
currently lose_sum: 0.653444230556488
time_elpased: 2.13
#iterations: 210
currently lose_sum: 0.656998872756958
time_elpased: 1.977
#iterations: 211
currently lose_sum: 0.6603519916534424
time_elpased: 2.055
#iterations: 212
currently lose_sum: 0.6859308481216431
time_elpased: 1.98
#iterations: 213
currently lose_sum: 0.6614521145820618
time_elpased: 2.022
#iterations: 214
currently lose_sum: 0.6879454851150513
time_elpased: 2.218
#iterations: 215
currently lose_sum: 0.6528881788253784
time_elpased: 2.024
#iterations: 216
currently lose_sum: 0.6358670592308044
time_elpased: 1.98
#iterations: 217
currently lose_sum: 0.7187870144844055
time_elpased: 1.984
#iterations: 218
currently lose_sum: 0.6618382334709167
time_elpased: 2.006
#iterations: 219
currently lose_sum: 0.6892611980438232
time_elpased: 2.048
start validation test
0.5756
0.626373626374
0.404574132492
0.491614758026
0.578098754558
16.879
#iterations: 220
currently lose_sum: 0.6772537231445312
time_elpased: 1.995
#iterations: 221
currently lose_sum: 0.6948989033699036
time_elpased: 2.024
#iterations: 222
currently lose_sum: 0.6736569404602051
time_elpased: 2.055
#iterations: 223
currently lose_sum: 0.6499233841896057
time_elpased: 1.974
#iterations: 224
currently lose_sum: 0.6538318395614624
time_elpased: 1.96
#iterations: 225
currently lose_sum: 0.6788383722305298
time_elpased: 1.995
#iterations: 226
currently lose_sum: 0.6638293266296387
time_elpased: 1.998
#iterations: 227
currently lose_sum: 0.6641462445259094
time_elpased: 1.983
#iterations: 228
currently lose_sum: 0.6353978514671326
time_elpased: 1.998
#iterations: 229
currently lose_sum: 0.6672854423522949
time_elpased: 1.965
#iterations: 230
currently lose_sum: 0.6728862524032593
time_elpased: 2.015
#iterations: 231
currently lose_sum: 0.6848417520523071
time_elpased: 1.995
#iterations: 232
currently lose_sum: 0.6857773065567017
time_elpased: 1.943
#iterations: 233
currently lose_sum: 0.6499571204185486
time_elpased: 2.006
#iterations: 234
currently lose_sum: 0.6926479935646057
time_elpased: 2.012
#iterations: 235
currently lose_sum: 0.6578853130340576
time_elpased: 2.025
#iterations: 236
currently lose_sum: 0.649482250213623
time_elpased: 2.037
#iterations: 237
currently lose_sum: 0.6386244893074036
time_elpased: 1.969
#iterations: 238
currently lose_sum: 0.6926088929176331
time_elpased: 1.984
#iterations: 239
currently lose_sum: 0.6525527834892273
time_elpased: 2.1
start validation test
0.5784
0.572199730094
0.668769716088
0.616727272727
0.577079663239
16.692
#iterations: 240
currently lose_sum: 0.6843138933181763
time_elpased: 1.98
#iterations: 241
currently lose_sum: 0.712501049041748
time_elpased: 1.982
#iterations: 242
currently lose_sum: 0.6636932492256165
time_elpased: 1.977
#iterations: 243
currently lose_sum: 0.637572705745697
time_elpased: 2.024
#iterations: 244
currently lose_sum: 0.6627668738365173
time_elpased: 1.963
#iterations: 245
currently lose_sum: 0.6411938667297363
time_elpased: 1.963
#iterations: 246
currently lose_sum: 0.6404597759246826
time_elpased: 2.055
#iterations: 247
currently lose_sum: 0.6720827221870422
time_elpased: 1.994
#iterations: 248
currently lose_sum: 0.6843270659446716
time_elpased: 1.995
#iterations: 249
currently lose_sum: 0.6552485823631287
time_elpased: 1.98
#iterations: 250
currently lose_sum: 0.6336880326271057
time_elpased: 1.965
#iterations: 251
currently lose_sum: 0.6455269455909729
time_elpased: 2.004
#iterations: 252
currently lose_sum: 0.6315337419509888
time_elpased: 1.977
#iterations: 253
currently lose_sum: 0.6362355351448059
time_elpased: 1.989
#iterations: 254
currently lose_sum: 0.672105073928833
time_elpased: 2.028
#iterations: 255
currently lose_sum: 0.6244111657142639
time_elpased: 2.011
#iterations: 256
currently lose_sum: 0.65711510181427
time_elpased: 1.979
#iterations: 257
currently lose_sum: 0.6677287220954895
time_elpased: 1.996
#iterations: 258
currently lose_sum: 0.6411097645759583
time_elpased: 1.992
#iterations: 259
currently lose_sum: 0.6462323069572449
time_elpased: 1.961
start validation test
0.5728
0.630890052356
0.380126182965
0.474409448819
0.575615039535
16.781
#iterations: 260
currently lose_sum: 0.6346510052680969
time_elpased: 1.975
#iterations: 261
currently lose_sum: 0.6708117723464966
time_elpased: 2.002
#iterations: 262
currently lose_sum: 0.6330514550209045
time_elpased: 2.001
#iterations: 263
currently lose_sum: 0.6753560900688171
time_elpased: 2.063
#iterations: 264
currently lose_sum: 0.6424914598464966
time_elpased: 2.001
#iterations: 265
currently lose_sum: 0.663698673248291
time_elpased: 2.024
#iterations: 266
currently lose_sum: 0.6664924621582031
time_elpased: 1.998
#iterations: 267
currently lose_sum: 0.6405901908874512
time_elpased: 1.994
#iterations: 268
currently lose_sum: 0.6681163311004639
time_elpased: 1.941
#iterations: 269
currently lose_sum: 0.6720121502876282
time_elpased: 2.025
#iterations: 270
currently lose_sum: 0.6252124309539795
time_elpased: 1.966
#iterations: 271
currently lose_sum: 0.6799529790878296
time_elpased: 1.985
#iterations: 272
currently lose_sum: 0.6741702556610107
time_elpased: 2.026
#iterations: 273
currently lose_sum: 0.6453382968902588
time_elpased: 2.009
#iterations: 274
currently lose_sum: 0.6709237694740295
time_elpased: 1.991
#iterations: 275
currently lose_sum: 0.6725080609321594
time_elpased: 2.031
#iterations: 276
currently lose_sum: 0.6344363689422607
time_elpased: 2.024
#iterations: 277
currently lose_sum: 0.6701498627662659
time_elpased: 2.008
#iterations: 278
currently lose_sum: 0.6569753885269165
time_elpased: 2.018
#iterations: 279
currently lose_sum: 0.6771827936172485
time_elpased: 1.944
start validation test
0.5456
0.632
0.249211356467
0.357466063348
0.549930353558
17.174
#iterations: 280
currently lose_sum: 0.6017904281616211
time_elpased: 1.999
#iterations: 281
currently lose_sum: 0.6377871036529541
time_elpased: 1.953
#iterations: 282
currently lose_sum: 0.6943210363388062
time_elpased: 2.004
#iterations: 283
currently lose_sum: 0.6638511419296265
time_elpased: 1.994
#iterations: 284
currently lose_sum: 0.6349726319313049
time_elpased: 2.075
#iterations: 285
currently lose_sum: 0.6343238353729248
time_elpased: 1.988
#iterations: 286
currently lose_sum: 0.6494588255882263
time_elpased: 1.966
#iterations: 287
currently lose_sum: 0.731893002986908
time_elpased: 2.006
#iterations: 288
currently lose_sum: 0.6155548691749573
time_elpased: 1.949
#iterations: 289
currently lose_sum: 0.6170717477798462
time_elpased: 1.991
#iterations: 290
currently lose_sum: 0.655476987361908
time_elpased: 2.002
#iterations: 291
currently lose_sum: 0.6206626296043396
time_elpased: 2.0
#iterations: 292
currently lose_sum: 0.6420871019363403
time_elpased: 1.997
#iterations: 293
currently lose_sum: 0.6170623898506165
time_elpased: 2.001
#iterations: 294
currently lose_sum: 0.6526911854743958
time_elpased: 2.027
#iterations: 295
currently lose_sum: 0.6728275418281555
time_elpased: 2.039
#iterations: 296
currently lose_sum: 0.6741126775741577
time_elpased: 2.012
#iterations: 297
currently lose_sum: 0.6653540134429932
time_elpased: 1.99
#iterations: 298
currently lose_sum: 0.6042125821113586
time_elpased: 1.972
#iterations: 299
currently lose_sum: 0.6654695272445679
time_elpased: 1.997
start validation test
0.5796
0.588139723802
0.570977917981
0.579431772709
0.579725971978
16.758
#iterations: 300
currently lose_sum: 0.6267223358154297
time_elpased: 2.111
#iterations: 301
currently lose_sum: 0.6292867660522461
time_elpased: 2.013
#iterations: 302
currently lose_sum: 0.6567228436470032
time_elpased: 1.981
#iterations: 303
currently lose_sum: 0.6805428266525269
time_elpased: 1.994
#iterations: 304
currently lose_sum: 0.7250505089759827
time_elpased: 1.996
#iterations: 305
currently lose_sum: 0.647817850112915
time_elpased: 1.966
#iterations: 306
currently lose_sum: 0.6725532412528992
time_elpased: 1.977
#iterations: 307
currently lose_sum: 0.6382074952125549
time_elpased: 2.002
#iterations: 308
currently lose_sum: 0.6216510534286499
time_elpased: 2.016
#iterations: 309
currently lose_sum: 0.6740147471427917
time_elpased: 1.988
#iterations: 310
currently lose_sum: 0.6862240433692932
time_elpased: 2.0
#iterations: 311
currently lose_sum: 0.695218026638031
time_elpased: 2.038
#iterations: 312
currently lose_sum: 0.6366857290267944
time_elpased: 1.995
#iterations: 313
currently lose_sum: 0.6363102793693542
time_elpased: 2.023
#iterations: 314
currently lose_sum: 0.6690297722816467
time_elpased: 1.94
#iterations: 315
currently lose_sum: 0.6734039187431335
time_elpased: 1.934
#iterations: 316
currently lose_sum: 0.7221399545669556
time_elpased: 1.978
#iterations: 317
currently lose_sum: 0.6398419141769409
time_elpased: 1.994
#iterations: 318
currently lose_sum: 0.6071719527244568
time_elpased: 1.94
#iterations: 319
currently lose_sum: 0.6235611438751221
time_elpased: 1.99
start validation test
0.5812
0.567916410572
0.728706624606
0.638341968912
0.579044870744
16.792
#iterations: 320
currently lose_sum: 0.6777507662773132
time_elpased: 1.999
#iterations: 321
currently lose_sum: 0.6687698364257812
time_elpased: 2.043
#iterations: 322
currently lose_sum: 0.7207643389701843
time_elpased: 2.012
#iterations: 323
currently lose_sum: 0.6579447388648987
time_elpased: 1.975
#iterations: 324
currently lose_sum: 0.642016589641571
time_elpased: 2.057
#iterations: 325
currently lose_sum: 0.6651533246040344
time_elpased: 2.021
#iterations: 326
currently lose_sum: 0.6125420928001404
time_elpased: 2.026
#iterations: 327
currently lose_sum: 0.7011289000511169
time_elpased: 2.03
#iterations: 328
currently lose_sum: 0.702075719833374
time_elpased: 2.049
#iterations: 329
currently lose_sum: 0.6815609931945801
time_elpased: 1.984
#iterations: 330
currently lose_sum: 0.6749717593193054
time_elpased: 2.01
#iterations: 331
currently lose_sum: 0.6678619980812073
time_elpased: 2.019
#iterations: 332
currently lose_sum: 0.6256788372993469
time_elpased: 2.014
#iterations: 333
currently lose_sum: 0.6629840135574341
time_elpased: 1.971
#iterations: 334
currently lose_sum: 0.6577520966529846
time_elpased: 2.021
#iterations: 335
currently lose_sum: 0.6229225993156433
time_elpased: 2.009
#iterations: 336
currently lose_sum: 0.6449418663978577
time_elpased: 1.957
#iterations: 337
currently lose_sum: 0.7082255482673645
time_elpased: 2.007
#iterations: 338
currently lose_sum: 0.6371408700942993
time_elpased: 2.029
#iterations: 339
currently lose_sum: 0.6766752600669861
time_elpased: 2.052
start validation test
0.5828
0.584396099025
0.614353312303
0.599000384468
0.582338993814
16.708
#iterations: 340
currently lose_sum: 0.6525123715400696
time_elpased: 2.017
#iterations: 341
currently lose_sum: 0.658854067325592
time_elpased: 1.979
#iterations: 342
currently lose_sum: 0.6509693264961243
time_elpased: 2.022
#iterations: 343
currently lose_sum: 0.6938165426254272
time_elpased: 1.987
#iterations: 344
currently lose_sum: 0.6483038067817688
time_elpased: 1.997
#iterations: 345
currently lose_sum: 0.6354969143867493
time_elpased: 1.971
#iterations: 346
currently lose_sum: 0.611891508102417
time_elpased: 1.976
#iterations: 347
currently lose_sum: 0.6994398236274719
time_elpased: 2.005
#iterations: 348
currently lose_sum: 0.6202784180641174
time_elpased: 1.988
#iterations: 349
currently lose_sum: 0.6646466255187988
time_elpased: 1.962
#iterations: 350
currently lose_sum: 0.6409916877746582
time_elpased: 2.01
#iterations: 351
currently lose_sum: 0.6633174419403076
time_elpased: 1.956
#iterations: 352
currently lose_sum: 0.6393751502037048
time_elpased: 1.993
#iterations: 353
currently lose_sum: 0.6589726209640503
time_elpased: 1.965
#iterations: 354
currently lose_sum: 0.6652510762214661
time_elpased: 1.999
#iterations: 355
currently lose_sum: 0.6543334722518921
time_elpased: 2.029
#iterations: 356
currently lose_sum: 0.7075221538543701
time_elpased: 2.022
#iterations: 357
currently lose_sum: 0.6595892310142517
time_elpased: 1.99
#iterations: 358
currently lose_sum: 0.6742243766784668
time_elpased: 1.982
#iterations: 359
currently lose_sum: 0.6515125036239624
time_elpased: 2.035
start validation test
0.5444
0.685878962536
0.187697160883
0.294736842105
0.549611567455
17.548
#iterations: 360
currently lose_sum: 0.6239244937896729
time_elpased: 2.066
#iterations: 361
currently lose_sum: 0.6515812873840332
time_elpased: 1.992
#iterations: 362
currently lose_sum: 0.6106688976287842
time_elpased: 1.98
#iterations: 363
currently lose_sum: 0.6399081945419312
time_elpased: 1.943
#iterations: 364
currently lose_sum: 0.6727415323257446
time_elpased: 2.17
#iterations: 365
currently lose_sum: 0.6758842468261719
time_elpased: 2.042
#iterations: 366
currently lose_sum: 0.6718958020210266
time_elpased: 1.984
#iterations: 367
currently lose_sum: 0.6504696607589722
time_elpased: 2.093
#iterations: 368
currently lose_sum: 0.6351212859153748
time_elpased: 2.017
#iterations: 369
currently lose_sum: 0.6319957971572876
time_elpased: 2.047
#iterations: 370
currently lose_sum: 0.6445488929748535
time_elpased: 1.97
#iterations: 371
currently lose_sum: 0.6811352372169495
time_elpased: 1.979
#iterations: 372
currently lose_sum: 0.6751853823661804
time_elpased: 1.988
#iterations: 373
currently lose_sum: 0.6695417761802673
time_elpased: 1.982
#iterations: 374
currently lose_sum: 0.6363445520401001
time_elpased: 1.969
#iterations: 375
currently lose_sum: 0.6543066501617432
time_elpased: 1.956
#iterations: 376
currently lose_sum: 0.6473708152770996
time_elpased: 2.003
#iterations: 377
currently lose_sum: 0.6427927613258362
time_elpased: 2.013
#iterations: 378
currently lose_sum: 0.6573151350021362
time_elpased: 1.981
#iterations: 379
currently lose_sum: 0.677672803401947
time_elpased: 1.973
start validation test
0.5844
0.601237842617
0.536277602524
0.566902876198
0.585103086976
16.725
#iterations: 380
currently lose_sum: 0.6087958812713623
time_elpased: 2.002
#iterations: 381
currently lose_sum: 0.6762109398841858
time_elpased: 2.012
#iterations: 382
currently lose_sum: 0.6858837604522705
time_elpased: 1.951
#iterations: 383
currently lose_sum: 0.6565240621566772
time_elpased: 1.994
#iterations: 384
currently lose_sum: 0.6901273131370544
time_elpased: 1.976
#iterations: 385
currently lose_sum: 0.6676310896873474
time_elpased: 2.009
#iterations: 386
currently lose_sum: 0.6595401763916016
time_elpased: 2.032
#iterations: 387
currently lose_sum: 0.6261332035064697
time_elpased: 1.973
#iterations: 388
currently lose_sum: 0.6788161993026733
time_elpased: 2.036
#iterations: 389
currently lose_sum: 0.6621295213699341
time_elpased: 2.048
#iterations: 390
currently lose_sum: 0.6643167734146118
time_elpased: 1.988
#iterations: 391
currently lose_sum: 0.6973147392272949
time_elpased: 1.99
#iterations: 392
currently lose_sum: 0.6401437520980835
time_elpased: 1.975
#iterations: 393
currently lose_sum: 0.6824939250946045
time_elpased: 1.979
#iterations: 394
currently lose_sum: 0.6588224768638611
time_elpased: 2.048
#iterations: 395
currently lose_sum: 0.6821079850196838
time_elpased: 2.028
#iterations: 396
currently lose_sum: 0.6549195051193237
time_elpased: 2.004
#iterations: 397
currently lose_sum: 0.6755447387695312
time_elpased: 1.997
#iterations: 398
currently lose_sum: 0.7141459584236145
time_elpased: 1.979
#iterations: 399
currently lose_sum: 0.6266620755195618
time_elpased: 1.987
start validation test
0.5856
0.597972972973
0.558359621451
0.57748776509
0.585997992544
16.725
#iterations: 400
currently lose_sum: 0.6307339668273926
time_elpased: 1.988
#iterations: 401
currently lose_sum: 0.6340416073799133
time_elpased: 2.1
#iterations: 402
currently lose_sum: 0.6377966403961182
time_elpased: 1.993
#iterations: 403
currently lose_sum: 0.6439836621284485
time_elpased: 1.969
#iterations: 404
currently lose_sum: 0.6476718187332153
time_elpased: 1.984
#iterations: 405
currently lose_sum: 0.6199904084205627
time_elpased: 2.047
#iterations: 406
currently lose_sum: 0.6732637882232666
time_elpased: 2.042
#iterations: 407
currently lose_sum: 0.6222221255302429
time_elpased: 2.1
#iterations: 408
currently lose_sum: 0.6701907515525818
time_elpased: 1.966
#iterations: 409
currently lose_sum: 0.6747612953186035
time_elpased: 2.044
#iterations: 410
currently lose_sum: 0.6760419607162476
time_elpased: 1.987
#iterations: 411
currently lose_sum: 0.7020490765571594
time_elpased: 1.991
#iterations: 412
currently lose_sum: 0.65018630027771
time_elpased: 2.018
#iterations: 413
currently lose_sum: 0.6674109101295471
time_elpased: 2.008
#iterations: 414
currently lose_sum: 0.6466059684753418
time_elpased: 1.955
#iterations: 415
currently lose_sum: 0.6385765671730042
time_elpased: 2.021
#iterations: 416
currently lose_sum: 0.6514936685562134
time_elpased: 2.029
#iterations: 417
currently lose_sum: 0.6892860531806946
time_elpased: 1.964
#iterations: 418
currently lose_sum: 0.6556056141853333
time_elpased: 2.033
#iterations: 419
currently lose_sum: 0.6862245202064514
time_elpased: 2.01
start validation test
0.5808
0.584097859327
0.602523659306
0.593167701863
0.580482608874
16.713
#iterations: 420
currently lose_sum: 0.6462699770927429
time_elpased: 1.976
#iterations: 421
currently lose_sum: 0.6448483467102051
time_elpased: 2.009
#iterations: 422
currently lose_sum: 0.6952189803123474
time_elpased: 1.968
#iterations: 423
currently lose_sum: 0.647779107093811
time_elpased: 1.962
#iterations: 424
currently lose_sum: 0.6500587463378906
time_elpased: 2.028
#iterations: 425
currently lose_sum: 0.6834444999694824
time_elpased: 2.062
#iterations: 426
currently lose_sum: 0.6818692684173584
time_elpased: 1.976
#iterations: 427
currently lose_sum: 0.6359590291976929
time_elpased: 1.97
#iterations: 428
currently lose_sum: 0.6615116000175476
time_elpased: 1.969
#iterations: 429
currently lose_sum: 0.7216717600822449
time_elpased: 2.051
#iterations: 430
currently lose_sum: 0.6837988495826721
time_elpased: 1.965
#iterations: 431
currently lose_sum: 0.6554293632507324
time_elpased: 1.97
#iterations: 432
currently lose_sum: 0.6814687848091125
time_elpased: 1.967
#iterations: 433
currently lose_sum: 0.6257553696632385
time_elpased: 2.018
#iterations: 434
currently lose_sum: 0.6726275086402893
time_elpased: 2.079
#iterations: 435
currently lose_sum: 0.6584082245826721
time_elpased: 2.005
#iterations: 436
currently lose_sum: 0.6167914867401123
time_elpased: 2.007
#iterations: 437
currently lose_sum: 0.6875578165054321
time_elpased: 2.004
#iterations: 438
currently lose_sum: 0.7030009627342224
time_elpased: 1.98
#iterations: 439
currently lose_sum: 0.6440337300300598
time_elpased: 2.005
start validation test
0.5852
0.583033788641
0.639589905363
0.610003760812
0.584405342292
16.719
#iterations: 440
currently lose_sum: 0.612449049949646
time_elpased: 2.039
#iterations: 441
currently lose_sum: 0.6679671406745911
time_elpased: 1.947
#iterations: 442
currently lose_sum: 0.6465653777122498
time_elpased: 1.973
#iterations: 443
currently lose_sum: 0.6358601450920105
time_elpased: 2.007
#iterations: 444
currently lose_sum: 0.6261892914772034
time_elpased: 1.984
#iterations: 445
currently lose_sum: 0.6487969756126404
time_elpased: 1.992
#iterations: 446
currently lose_sum: 0.6994428038597107
time_elpased: 1.989
#iterations: 447
currently lose_sum: 0.6636854410171509
time_elpased: 2.164
#iterations: 448
currently lose_sum: 0.6584900617599487
time_elpased: 2.02
#iterations: 449
currently lose_sum: 0.6653699278831482
time_elpased: 1.977
#iterations: 450
currently lose_sum: 0.6412431597709656
time_elpased: 1.981
#iterations: 451
currently lose_sum: 0.6562513709068298
time_elpased: 1.964
#iterations: 452
currently lose_sum: 0.6493041515350342
time_elpased: 1.996
#iterations: 453
currently lose_sum: 0.6187178492546082
time_elpased: 2.037
#iterations: 454
currently lose_sum: 0.6668017506599426
time_elpased: 1.982
#iterations: 455
currently lose_sum: 0.6811670660972595
time_elpased: 2.009
#iterations: 456
currently lose_sum: 0.6200539469718933
time_elpased: 2.003
#iterations: 457
currently lose_sum: 0.6368804574012756
time_elpased: 2.063
#iterations: 458
currently lose_sum: 0.6479151844978333
time_elpased: 1.982
#iterations: 459
currently lose_sum: 0.6567186117172241
time_elpased: 1.97
start validation test
0.5852
0.597140454163
0.559936908517
0.577940577941
0.585569103609
16.741
#iterations: 460
currently lose_sum: 0.6062648296356201
time_elpased: 1.991
#iterations: 461
currently lose_sum: 0.631416380405426
time_elpased: 2.033
#iterations: 462
currently lose_sum: 0.6247438788414001
time_elpased: 1.981
#iterations: 463
currently lose_sum: 0.6630004048347473
time_elpased: 2.03
#iterations: 464
currently lose_sum: 0.6693655252456665
time_elpased: 1.988
#iterations: 465
currently lose_sum: 0.6592689752578735
time_elpased: 2.018
#iterations: 466
currently lose_sum: 0.6510522365570068
time_elpased: 1.967
#iterations: 467
currently lose_sum: 0.6449440121650696
time_elpased: 1.958
#iterations: 468
currently lose_sum: 0.613075852394104
time_elpased: 1.965
#iterations: 469
currently lose_sum: 0.648374080657959
time_elpased: 2.009
#iterations: 470
currently lose_sum: 0.6452457308769226
time_elpased: 1.949
#iterations: 471
currently lose_sum: 0.6453070044517517
time_elpased: 2.002
#iterations: 472
currently lose_sum: 0.6401265859603882
time_elpased: 1.994
#iterations: 473
currently lose_sum: 0.7151661515235901
time_elpased: 1.981
#iterations: 474
currently lose_sum: 0.6534969806671143
time_elpased: 1.994
#iterations: 475
currently lose_sum: 0.6731213331222534
time_elpased: 1.982
#iterations: 476
currently lose_sum: 0.6738404035568237
time_elpased: 1.981
#iterations: 477
currently lose_sum: 0.6801350116729736
time_elpased: 1.97
#iterations: 478
currently lose_sum: 0.6561048626899719
time_elpased: 1.95
#iterations: 479
currently lose_sum: 0.6378297209739685
time_elpased: 2.042
start validation test
0.5872
0.596247960848
0.576498422713
0.586206896552
0.587356354214
16.799
#iterations: 480
currently lose_sum: 0.6381379961967468
time_elpased: 1.966
#iterations: 481
currently lose_sum: 0.6371896266937256
time_elpased: 1.983
#iterations: 482
currently lose_sum: 0.6775000095367432
time_elpased: 1.999
#iterations: 483
currently lose_sum: 0.6700826287269592
time_elpased: 2.006
#iterations: 484
currently lose_sum: 0.6479445695877075
time_elpased: 1.985
#iterations: 485
currently lose_sum: 0.6793526411056519
time_elpased: 2.009
#iterations: 486
currently lose_sum: 0.6846975088119507
time_elpased: 2.046
#iterations: 487
currently lose_sum: 0.6574578881263733
time_elpased: 2.016
#iterations: 488
currently lose_sum: 0.6563060283660889
time_elpased: 2.021
#iterations: 489
currently lose_sum: 0.6301918029785156
time_elpased: 1.986
#iterations: 490
currently lose_sum: 0.6165912747383118
time_elpased: 1.968
#iterations: 491
currently lose_sum: 0.6504830718040466
time_elpased: 2.051
#iterations: 492
currently lose_sum: 0.621816873550415
time_elpased: 1.982
#iterations: 493
currently lose_sum: 0.6947422027587891
time_elpased: 2.0
#iterations: 494
currently lose_sum: 0.641856849193573
time_elpased: 2.011
#iterations: 495
currently lose_sum: 0.6364730596542358
time_elpased: 1.987
#iterations: 496
currently lose_sum: 0.6403810381889343
time_elpased: 1.992
#iterations: 497
currently lose_sum: 0.6602229475975037
time_elpased: 2.035
#iterations: 498
currently lose_sum: 0.639664351940155
time_elpased: 1.985
#iterations: 499
currently lose_sum: 0.6148207187652588
time_elpased: 1.996
start validation test
0.5812
0.570247933884
0.707413249211
0.631467793031
0.579355975255
16.799
#iterations: 500
currently lose_sum: 0.6533069014549255
time_elpased: 1.99
#iterations: 501
currently lose_sum: 0.6786291599273682
time_elpased: 2.064
#iterations: 502
currently lose_sum: 0.6739403009414673
time_elpased: 2.06
#iterations: 503
currently lose_sum: 0.6699637770652771
time_elpased: 1.984
#iterations: 504
currently lose_sum: 0.6343809366226196
time_elpased: 1.988
#iterations: 505
currently lose_sum: 0.7144603133201599
time_elpased: 2.01
#iterations: 506
currently lose_sum: 0.6702613830566406
time_elpased: 1.963
#iterations: 507
currently lose_sum: 0.6284962296485901
time_elpased: 1.995
#iterations: 508
currently lose_sum: 0.6469342708587646
time_elpased: 2.049
#iterations: 509
currently lose_sum: 0.682567298412323
time_elpased: 1.964
#iterations: 510
currently lose_sum: 0.6777414083480835
time_elpased: 2.012
#iterations: 511
currently lose_sum: 0.6257673501968384
time_elpased: 2.088
#iterations: 512
currently lose_sum: 0.6403436064720154
time_elpased: 1.98
#iterations: 513
currently lose_sum: 0.6412858366966248
time_elpased: 1.958
#iterations: 514
currently lose_sum: 0.6675441265106201
time_elpased: 2.003
#iterations: 515
currently lose_sum: 0.6018203496932983
time_elpased: 2.042
#iterations: 516
currently lose_sum: 0.625986635684967
time_elpased: 2.041
#iterations: 517
currently lose_sum: 0.6720485091209412
time_elpased: 1.971
#iterations: 518
currently lose_sum: 0.6019243001937866
time_elpased: 2.049
#iterations: 519
currently lose_sum: 0.6103636622428894
time_elpased: 2.018
start validation test
0.5844
0.591526778577
0.583596214511
0.587534736006
0.584411743619
16.750
#iterations: 520
currently lose_sum: 0.6298525333404541
time_elpased: 1.967
#iterations: 521
currently lose_sum: 0.7079362273216248
time_elpased: 1.962
#iterations: 522
currently lose_sum: 0.6608923077583313
time_elpased: 2.054
#iterations: 523
currently lose_sum: 0.6203266382217407
time_elpased: 1.949
#iterations: 524
currently lose_sum: 0.633033812046051
time_elpased: 1.972
#iterations: 525
currently lose_sum: 0.6620243787765503
time_elpased: 2.011
#iterations: 526
currently lose_sum: 0.6317127346992493
time_elpased: 1.971
#iterations: 527
currently lose_sum: 0.6932059526443481
time_elpased: 2.01
#iterations: 528
currently lose_sum: 0.6259803175926208
time_elpased: 2.0
#iterations: 529
currently lose_sum: 0.6246169805526733
time_elpased: 1.96
#iterations: 530
currently lose_sum: 0.6347900629043579
time_elpased: 2.005
#iterations: 531
currently lose_sum: 0.622026801109314
time_elpased: 1.962
#iterations: 532
currently lose_sum: 0.6355310678482056
time_elpased: 2.032
#iterations: 533
currently lose_sum: 0.6358510851860046
time_elpased: 2.052
#iterations: 534
currently lose_sum: 0.6120645403862
time_elpased: 2.024
#iterations: 535
currently lose_sum: 0.6347945332527161
time_elpased: 2.019
#iterations: 536
currently lose_sum: 0.6428403258323669
time_elpased: 1.954
#iterations: 537
currently lose_sum: 0.6242481470108032
time_elpased: 1.982
#iterations: 538
currently lose_sum: 0.6710275411605835
time_elpased: 2.049
#iterations: 539
currently lose_sum: 0.652479887008667
time_elpased: 2.004
start validation test
0.5828
0.570977917981
0.713722397476
0.634419908868
0.580887172764
16.763
#iterations: 540
currently lose_sum: 0.6471388339996338
time_elpased: 1.992
#iterations: 541
currently lose_sum: 0.6496996283531189
time_elpased: 1.99
#iterations: 542
currently lose_sum: 0.6090965867042542
time_elpased: 1.965
#iterations: 543
currently lose_sum: 0.6861655712127686
time_elpased: 1.972
#iterations: 544
currently lose_sum: 0.6341050863265991
time_elpased: 2.02
#iterations: 545
currently lose_sum: 0.5935496687889099
time_elpased: 1.969
#iterations: 546
currently lose_sum: 0.6189793348312378
time_elpased: 2.024
#iterations: 547
currently lose_sum: 0.5990658402442932
time_elpased: 2.107
#iterations: 548
currently lose_sum: 0.6663769483566284
time_elpased: 1.967
#iterations: 549
currently lose_sum: 0.6686036586761475
time_elpased: 2.008
#iterations: 550
currently lose_sum: 0.6410425305366516
time_elpased: 1.991
#iterations: 551
currently lose_sum: 0.6183003187179565
time_elpased: 1.981
#iterations: 552
currently lose_sum: 0.6669890880584717
time_elpased: 1.968
#iterations: 553
currently lose_sum: 0.66376793384552
time_elpased: 1.995
#iterations: 554
currently lose_sum: 0.7069528102874756
time_elpased: 1.99
#iterations: 555
currently lose_sum: 0.6466660499572754
time_elpased: 1.954
#iterations: 556
currently lose_sum: 0.5925925374031067
time_elpased: 1.975
#iterations: 557
currently lose_sum: 0.6847227215766907
time_elpased: 1.98
#iterations: 558
currently lose_sum: 0.6186157464981079
time_elpased: 1.983
#iterations: 559
currently lose_sum: 0.6776487231254578
time_elpased: 2.046
start validation test
0.5824
0.623348017621
0.446372239748
0.520220588235
0.584387418575
16.863
#iterations: 560
currently lose_sum: 0.6973039507865906
time_elpased: 1.969
#iterations: 561
currently lose_sum: 0.6284509897232056
time_elpased: 1.986
#iterations: 562
currently lose_sum: 0.6753910183906555
time_elpased: 1.993
#iterations: 563
currently lose_sum: 0.6546729803085327
time_elpased: 1.986
#iterations: 564
currently lose_sum: 0.6565802097320557
time_elpased: 2.054
#iterations: 565
currently lose_sum: 0.6226918697357178
time_elpased: 1.998
#iterations: 566
currently lose_sum: 0.6157429218292236
time_elpased: 2.022
#iterations: 567
currently lose_sum: 0.6377054452896118
time_elpased: 1.977
#iterations: 568
currently lose_sum: 0.6473909616470337
time_elpased: 1.973
#iterations: 569
currently lose_sum: 0.638110339641571
time_elpased: 1.977
#iterations: 570
currently lose_sum: 0.6719393730163574
time_elpased: 1.984
#iterations: 571
currently lose_sum: 0.6569366455078125
time_elpased: 1.991
#iterations: 572
currently lose_sum: 0.6412275433540344
time_elpased: 2.08
#iterations: 573
currently lose_sum: 0.6628403663635254
time_elpased: 2.022
#iterations: 574
currently lose_sum: 0.620424211025238
time_elpased: 1.977
#iterations: 575
currently lose_sum: 0.6751323938369751
time_elpased: 1.994
#iterations: 576
currently lose_sum: 0.658424973487854
time_elpased: 2.029
#iterations: 577
currently lose_sum: 0.662707507610321
time_elpased: 1.956
#iterations: 578
currently lose_sum: 0.6395294666290283
time_elpased: 2.021
#iterations: 579
currently lose_sum: 0.6764938235282898
time_elpased: 2.067
start validation test
0.586
0.59209486166
0.590694006309
0.591393604422
0.585931418739
16.691
#iterations: 580
currently lose_sum: 0.6680989265441895
time_elpased: 2.003
#iterations: 581
currently lose_sum: 0.6196149587631226
time_elpased: 2.009
#iterations: 582
currently lose_sum: 0.6332552433013916
time_elpased: 1.941
#iterations: 583
currently lose_sum: 0.6577574014663696
time_elpased: 1.957
#iterations: 584
currently lose_sum: 0.6166691780090332
time_elpased: 1.982
#iterations: 585
currently lose_sum: 0.6100335121154785
time_elpased: 2.001
#iterations: 586
currently lose_sum: 0.6583908200263977
time_elpased: 2.021
#iterations: 587
currently lose_sum: 0.6584048271179199
time_elpased: 2.044
#iterations: 588
currently lose_sum: 0.6314199566841125
time_elpased: 1.978
#iterations: 589
currently lose_sum: 0.6263787150382996
time_elpased: 1.977
#iterations: 590
currently lose_sum: 0.6882882714271545
time_elpased: 1.955
#iterations: 591
currently lose_sum: 0.6685740947723389
time_elpased: 2.004
#iterations: 592
currently lose_sum: 0.6662480235099792
time_elpased: 1.998
#iterations: 593
currently lose_sum: 0.648597240447998
time_elpased: 2.003
#iterations: 594
currently lose_sum: 0.6007493138313293
time_elpased: 1.977
#iterations: 595
currently lose_sum: 0.7066919207572937
time_elpased: 2.054
#iterations: 596
currently lose_sum: 0.6197981834411621
time_elpased: 1.949
#iterations: 597
currently lose_sum: 0.6389386653900146
time_elpased: 2.025
#iterations: 598
currently lose_sum: 0.6530709266662598
time_elpased: 2.1
#iterations: 599
currently lose_sum: 0.626226544380188
time_elpased: 1.978
start validation test
0.5716
0.637762237762
0.359621451104
0.459909228442
0.574697089188
17.010
acc: 0.590
pre: 0.598
rec: 0.586
F1: 0.592
auc: 0.590
