start to construct computing graph
graph construct over
3804
epochs start
#iterations: 0
currently lose_sum: 0.7149026393890381
time_elpased: 7.853
#iterations: 1
currently lose_sum: 0.7374676465988159
time_elpased: 7.96
#iterations: 2
currently lose_sum: 0.7114007472991943
time_elpased: 7.679
#iterations: 3
currently lose_sum: 0.6833882331848145
time_elpased: 7.812
#iterations: 4
currently lose_sum: 0.7060236930847168
time_elpased: 7.65
#iterations: 5
currently lose_sum: 0.7216772437095642
time_elpased: 7.89
#iterations: 6
currently lose_sum: 0.6950749158859253
time_elpased: 7.868
#iterations: 7
currently lose_sum: 0.6834936738014221
time_elpased: 7.647
#iterations: 8
currently lose_sum: 0.702084481716156
time_elpased: 7.354
#iterations: 9
currently lose_sum: 0.695874035358429
time_elpased: 7.542
#iterations: 10
currently lose_sum: 0.6888788342475891
time_elpased: 7.504
#iterations: 11
currently lose_sum: 0.7137413024902344
time_elpased: 7.482
#iterations: 12
currently lose_sum: 0.7226295471191406
time_elpased: 7.609
#iterations: 13
currently lose_sum: 0.6985130310058594
time_elpased: 8.067
#iterations: 14
currently lose_sum: 0.6913616061210632
time_elpased: 8.251
#iterations: 15
currently lose_sum: 0.6825790405273438
time_elpased: 7.463
#iterations: 16
currently lose_sum: 0.6980677843093872
time_elpased: 7.644
#iterations: 17
currently lose_sum: 0.6930596828460693
time_elpased: 7.691
#iterations: 18
currently lose_sum: 0.6984747052192688
time_elpased: 7.602
#iterations: 19
currently lose_sum: 0.6912762522697449
time_elpased: 7.134
start validation test
0.5352
0.55614973262
0.410418310971
0.47229791099
0.536920428803
17.204
#iterations: 20
currently lose_sum: 0.6799381375312805
time_elpased: 6.099
#iterations: 21
currently lose_sum: 0.6897726655006409
time_elpased: 5.921
#iterations: 22
currently lose_sum: 0.6836181879043579
time_elpased: 5.929
#iterations: 23
currently lose_sum: 0.6879669427871704
time_elpased: 6.21
#iterations: 24
currently lose_sum: 0.6598870158195496
time_elpased: 6.484
#iterations: 25
currently lose_sum: 0.6922743916511536
time_elpased: 6.699
#iterations: 26
currently lose_sum: 0.6761060357093811
time_elpased: 6.287
#iterations: 27
currently lose_sum: 0.6847419738769531
time_elpased: 5.936
#iterations: 28
currently lose_sum: 0.698972225189209
time_elpased: 6.874
#iterations: 29
currently lose_sum: 0.7091944813728333
time_elpased: 6.791
#iterations: 30
currently lose_sum: 0.6896196603775024
time_elpased: 6.252
#iterations: 31
currently lose_sum: 0.6814404129981995
time_elpased: 6.403
#iterations: 32
currently lose_sum: 0.6852280497550964
time_elpased: 6.388
#iterations: 33
currently lose_sum: 0.6824357509613037
time_elpased: 6.21
#iterations: 34
currently lose_sum: 0.6709420680999756
time_elpased: 6.309
#iterations: 35
currently lose_sum: 0.7157245874404907
time_elpased: 6.023
#iterations: 36
currently lose_sum: 0.6984813809394836
time_elpased: 6.011
#iterations: 37
currently lose_sum: 0.6707014441490173
time_elpased: 6.385
#iterations: 38
currently lose_sum: 0.6720188856124878
time_elpased: 6.11
#iterations: 39
currently lose_sum: 0.6647868156433105
time_elpased: 6.566
start validation test
0.5204
0.516299137105
0.850039463299
0.642409782285
0.515855092558
17.359
#iterations: 40
currently lose_sum: 0.6772506237030029
time_elpased: 5.762
#iterations: 41
currently lose_sum: 0.6959114074707031
time_elpased: 6.371
#iterations: 42
currently lose_sum: 0.6879110932350159
time_elpased: 5.972
#iterations: 43
currently lose_sum: 0.6761590838432312
time_elpased: 5.873
#iterations: 44
currently lose_sum: 0.6689343452453613
time_elpased: 6.427
#iterations: 45
currently lose_sum: 0.6912007331848145
time_elpased: 6.403
#iterations: 46
currently lose_sum: 0.6918960809707642
time_elpased: 6.362
#iterations: 47
currently lose_sum: 0.6605959534645081
time_elpased: 6.285
#iterations: 48
currently lose_sum: 0.6897860765457153
time_elpased: 6.264
#iterations: 49
currently lose_sum: 0.6854161024093628
time_elpased: 6.801
#iterations: 50
currently lose_sum: 0.7138381004333496
time_elpased: 6.424
#iterations: 51
currently lose_sum: 0.688657283782959
time_elpased: 6.614
#iterations: 52
currently lose_sum: 0.6691197156906128
time_elpased: 6.301
#iterations: 53
currently lose_sum: 0.6858135461807251
time_elpased: 6.166
#iterations: 54
currently lose_sum: 0.6696671843528748
time_elpased: 5.887
#iterations: 55
currently lose_sum: 0.7241597175598145
time_elpased: 6.055
#iterations: 56
currently lose_sum: 0.6980554461479187
time_elpased: 6.185
#iterations: 57
currently lose_sum: 0.6699812412261963
time_elpased: 6.668
#iterations: 58
currently lose_sum: 0.6948073506355286
time_elpased: 5.908
#iterations: 59
currently lose_sum: 0.6412122249603271
time_elpased: 6.627
start validation test
0.5352
0.578475336323
0.30544593528
0.39979338843
0.538367736497
17.162
#iterations: 60
currently lose_sum: 0.6717891693115234
time_elpased: 6.248
#iterations: 61
currently lose_sum: 0.6658384799957275
time_elpased: 6.325
#iterations: 62
currently lose_sum: 0.6881496906280518
time_elpased: 6.382
#iterations: 63
currently lose_sum: 0.6685957312583923
time_elpased: 6.089
#iterations: 64
currently lose_sum: 0.6699510216712952
time_elpased: 5.938
#iterations: 65
currently lose_sum: 0.6550076007843018
time_elpased: 6.519
#iterations: 66
currently lose_sum: 0.6859561204910278
time_elpased: 6.349
#iterations: 67
currently lose_sum: 0.6671488881111145
time_elpased: 6.41
#iterations: 68
currently lose_sum: 0.6716963052749634
time_elpased: 6.311
#iterations: 69
currently lose_sum: 0.7043988704681396
time_elpased: 6.376
#iterations: 70
currently lose_sum: 0.687787652015686
time_elpased: 6.022
#iterations: 71
currently lose_sum: 0.6793085336685181
time_elpased: 6.827
#iterations: 72
currently lose_sum: 0.6713035702705383
time_elpased: 5.958
#iterations: 73
currently lose_sum: 0.6543897986412048
time_elpased: 6.321
#iterations: 74
currently lose_sum: 0.6722597479820251
time_elpased: 6.429
#iterations: 75
currently lose_sum: 0.6735191345214844
time_elpased: 5.915
#iterations: 76
currently lose_sum: 0.6625280976295471
time_elpased: 5.953
#iterations: 77
currently lose_sum: 0.6719287037849426
time_elpased: 6.042
#iterations: 78
currently lose_sum: 0.6731631755828857
time_elpased: 6.361
#iterations: 79
currently lose_sum: 0.6920201182365417
time_elpased: 5.986
start validation test
0.5512
0.553505535055
0.591949486977
0.572082379863
0.550638166035
16.998
#iterations: 80
currently lose_sum: 0.6879333257675171
time_elpased: 6.373
#iterations: 81
currently lose_sum: 0.6798202395439148
time_elpased: 6.605
#iterations: 82
currently lose_sum: 0.6660932898521423
time_elpased: 6.357
#iterations: 83
currently lose_sum: 0.6660870313644409
time_elpased: 6.46
#iterations: 84
currently lose_sum: 0.6806828379631042
time_elpased: 6.069
#iterations: 85
currently lose_sum: 0.6863033175468445
time_elpased: 5.783
#iterations: 86
currently lose_sum: 0.6770603656768799
time_elpased: 6.312
#iterations: 87
currently lose_sum: 0.6634063720703125
time_elpased: 6.294
#iterations: 88
currently lose_sum: 0.7029405236244202
time_elpased: 6.278
#iterations: 89
currently lose_sum: 0.6680853962898254
time_elpased: 6.445
#iterations: 90
currently lose_sum: 0.6567540168762207
time_elpased: 6.038
#iterations: 91
currently lose_sum: 0.6805067658424377
time_elpased: 6.662
#iterations: 92
currently lose_sum: 0.6848787665367126
time_elpased: 6.536
#iterations: 93
currently lose_sum: 0.6769393682479858
time_elpased: 6.501
#iterations: 94
currently lose_sum: 0.6484214067459106
time_elpased: 6.041
#iterations: 95
currently lose_sum: 0.6451429724693298
time_elpased: 6.275
#iterations: 96
currently lose_sum: 0.6795106530189514
time_elpased: 5.983
#iterations: 97
currently lose_sum: 0.6752156019210815
time_elpased: 5.894
#iterations: 98
currently lose_sum: 0.6553034782409668
time_elpased: 7.064
#iterations: 99
currently lose_sum: 0.6497039794921875
time_elpased: 6.342
start validation test
0.5464
0.541850220264
0.67955801105
0.602941176471
0.544564082573
17.005
#iterations: 100
currently lose_sum: 0.6889212131500244
time_elpased: 6.902
#iterations: 101
currently lose_sum: 0.6726661920547485
time_elpased: 6.212
#iterations: 102
currently lose_sum: 0.6939393877983093
time_elpased: 7.246
#iterations: 103
currently lose_sum: 0.6836545467376709
time_elpased: 5.985
#iterations: 104
currently lose_sum: 0.685853898525238
time_elpased: 6.223
#iterations: 105
currently lose_sum: 0.7118399143218994
time_elpased: 6.91
#iterations: 106
currently lose_sum: 0.675961971282959
time_elpased: 5.541
#iterations: 107
currently lose_sum: 0.6589927673339844
time_elpased: 6.221
#iterations: 108
currently lose_sum: 0.7111157178878784
time_elpased: 6.191
#iterations: 109
currently lose_sum: 0.6513526439666748
time_elpased: 6.658
#iterations: 110
currently lose_sum: 0.6860067248344421
time_elpased: 5.931
#iterations: 111
currently lose_sum: 0.660636842250824
time_elpased: 6.297
#iterations: 112
currently lose_sum: 0.6569122076034546
time_elpased: 6.307
#iterations: 113
currently lose_sum: 0.6461857557296753
time_elpased: 6.491
#iterations: 114
currently lose_sum: 0.6795274615287781
time_elpased: 6.826
#iterations: 115
currently lose_sum: 0.6753193736076355
time_elpased: 6.4
#iterations: 116
currently lose_sum: 0.6655317544937134
time_elpased: 5.877
#iterations: 117
currently lose_sum: 0.7198567390441895
time_elpased: 6.264
#iterations: 118
currently lose_sum: 0.6825735569000244
time_elpased: 5.982
#iterations: 119
currently lose_sum: 0.6661750674247742
time_elpased: 5.922
start validation test
0.5528
0.598155467721
0.358326756117
0.448173741362
0.555481301822
17.086
#iterations: 120
currently lose_sum: 0.653679370880127
time_elpased: 6.003
#iterations: 121
currently lose_sum: 0.6494663953781128
time_elpased: 5.917
#iterations: 122
currently lose_sum: 0.6461084485054016
time_elpased: 6.172
#iterations: 123
currently lose_sum: 0.6764019131660461
time_elpased: 6.461
#iterations: 124
currently lose_sum: 0.665558934211731
time_elpased: 6.137
#iterations: 125
currently lose_sum: 0.6610295176506042
time_elpased: 6.522
#iterations: 126
currently lose_sum: 0.6477847099304199
time_elpased: 6.377
#iterations: 127
currently lose_sum: 0.694394052028656
time_elpased: 6.229
#iterations: 128
currently lose_sum: 0.6880683898925781
time_elpased: 6.014
#iterations: 129
currently lose_sum: 0.6915693879127502
time_elpased: 5.929
#iterations: 130
currently lose_sum: 0.633593738079071
time_elpased: 6.266
#iterations: 131
currently lose_sum: 0.7141496539115906
time_elpased: 6.441
#iterations: 132
currently lose_sum: 0.7126146554946899
time_elpased: 6.118
#iterations: 133
currently lose_sum: 0.6495750546455383
time_elpased: 5.869
#iterations: 134
currently lose_sum: 0.7029551863670349
time_elpased: 5.984
#iterations: 135
currently lose_sum: 0.6766563653945923
time_elpased: 6.523
#iterations: 136
currently lose_sum: 0.6601744294166565
time_elpased: 6.388
#iterations: 137
currently lose_sum: 0.71246737241745
time_elpased: 5.937
#iterations: 138
currently lose_sum: 0.6858898401260376
time_elpased: 6.397
#iterations: 139
currently lose_sum: 0.6901248693466187
time_elpased: 6.449
start validation test
0.5584
0.564733915806
0.561168113654
0.562945368171
0.558361834605
16.999
#iterations: 140
currently lose_sum: 0.6541836261749268
time_elpased: 6.318
#iterations: 141
currently lose_sum: 0.6574963927268982
time_elpased: 6.142
#iterations: 142
currently lose_sum: 0.6810666918754578
time_elpased: 6.379
#iterations: 143
currently lose_sum: 0.6664668917655945
time_elpased: 5.996
#iterations: 144
currently lose_sum: 0.6781108975410461
time_elpased: 6.566
#iterations: 145
currently lose_sum: 0.7136744856834412
time_elpased: 6.228
#iterations: 146
currently lose_sum: 0.6862664818763733
time_elpased: 6.0
#iterations: 147
currently lose_sum: 0.699751615524292
time_elpased: 6.136
#iterations: 148
currently lose_sum: 0.6519025564193726
time_elpased: 6.987
#iterations: 149
currently lose_sum: 0.7010944485664368
time_elpased: 6.447
#iterations: 150
currently lose_sum: 0.641414999961853
time_elpased: 6.172
#iterations: 151
currently lose_sum: 0.6639748215675354
time_elpased: 5.931
#iterations: 152
currently lose_sum: 0.6976959109306335
time_elpased: 5.978
#iterations: 153
currently lose_sum: 0.6774518489837646
time_elpased: 6.619
#iterations: 154
currently lose_sum: 0.6733537316322327
time_elpased: 6.403
#iterations: 155
currently lose_sum: 0.6412293910980225
time_elpased: 6.406
#iterations: 156
currently lose_sum: 0.6578565835952759
time_elpased: 6.447
#iterations: 157
currently lose_sum: 0.6762518286705017
time_elpased: 6.556
#iterations: 158
currently lose_sum: 0.6532769799232483
time_elpased: 6.05
#iterations: 159
currently lose_sum: 0.6921553611755371
time_elpased: 5.817
start validation test
0.5384
0.543764523625
0.554064719811
0.548866301798
0.538184022517
16.950
#iterations: 160
currently lose_sum: 0.6682321429252625
time_elpased: 5.933
#iterations: 161
currently lose_sum: 0.6511526703834534
time_elpased: 6.799
#iterations: 162
currently lose_sum: 0.6706131100654602
time_elpased: 6.099
#iterations: 163
currently lose_sum: 0.6601832509040833
time_elpased: 6.165
#iterations: 164
currently lose_sum: 0.6865976452827454
time_elpased: 5.991
#iterations: 165
currently lose_sum: 0.6585740447044373
time_elpased: 5.933
#iterations: 166
currently lose_sum: 0.6399128437042236
time_elpased: 6.16
#iterations: 167
currently lose_sum: 0.6521602869033813
time_elpased: 6.046
#iterations: 168
currently lose_sum: 0.6505870223045349
time_elpased: 5.884
#iterations: 169
currently lose_sum: 0.6561326384544373
time_elpased: 5.921
#iterations: 170
currently lose_sum: 0.6955065727233887
time_elpased: 6.039
#iterations: 171
currently lose_sum: 0.7102184295654297
time_elpased: 6.168
#iterations: 172
currently lose_sum: 0.6906231045722961
time_elpased: 5.968
#iterations: 173
currently lose_sum: 0.642300546169281
time_elpased: 5.976
#iterations: 174
currently lose_sum: 0.6522834897041321
time_elpased: 5.923
#iterations: 175
currently lose_sum: 0.6803642511367798
time_elpased: 6.443
#iterations: 176
currently lose_sum: 0.6551160216331482
time_elpased: 5.922
#iterations: 177
currently lose_sum: 0.6102471947669983
time_elpased: 6.136
#iterations: 178
currently lose_sum: 0.6505868434906006
time_elpased: 6.142
#iterations: 179
currently lose_sum: 0.6606147885322571
time_elpased: 6.267
start validation test
0.5608
0.571308016878
0.534333070245
0.55220228385
0.561164913062
16.872
#iterations: 180
currently lose_sum: 0.6732750535011292
time_elpased: 6.1
#iterations: 181
currently lose_sum: 0.6678540110588074
time_elpased: 5.952
#iterations: 182
currently lose_sum: 0.7091498374938965
time_elpased: 6.115
#iterations: 183
currently lose_sum: 0.6738407611846924
time_elpased: 6.186
#iterations: 184
currently lose_sum: 0.6789371967315674
time_elpased: 5.987
#iterations: 185
currently lose_sum: 0.6648555994033813
time_elpased: 5.98
#iterations: 186
currently lose_sum: 0.6356874704360962
time_elpased: 6.488
#iterations: 187
currently lose_sum: 0.6885347962379456
time_elpased: 5.953
#iterations: 188
currently lose_sum: 0.6714763045310974
time_elpased: 6.587
#iterations: 189
currently lose_sum: 0.6901187896728516
time_elpased: 6.306
#iterations: 190
currently lose_sum: 0.647318959236145
time_elpased: 6.918
#iterations: 191
currently lose_sum: 0.6028035879135132
time_elpased: 6.436
#iterations: 192
currently lose_sum: 0.6435170769691467
time_elpased: 6.324
#iterations: 193
currently lose_sum: 0.6494627594947815
time_elpased: 6.292
#iterations: 194
currently lose_sum: 0.6424591541290283
time_elpased: 6.299
#iterations: 195
currently lose_sum: 0.7307790517807007
time_elpased: 6.412
#iterations: 196
currently lose_sum: 0.6193803548812866
time_elpased: 6.387
#iterations: 197
currently lose_sum: 0.6583598256111145
time_elpased: 7.299
#iterations: 198
currently lose_sum: 0.6056087613105774
time_elpased: 6.15
#iterations: 199
currently lose_sum: 0.6840226650238037
time_elpased: 6.213
start validation test
0.5468
0.602760736196
0.310181531176
0.409588327254
0.550062379538
17.123
#iterations: 200
currently lose_sum: 0.6227454543113708
time_elpased: 5.959
#iterations: 201
currently lose_sum: 0.6858040690422058
time_elpased: 6.087
#iterations: 202
currently lose_sum: 0.6579004526138306
time_elpased: 5.914
#iterations: 203
currently lose_sum: 0.6690733432769775
time_elpased: 6.057
#iterations: 204
currently lose_sum: 0.6823161244392395
time_elpased: 6.047
#iterations: 205
currently lose_sum: 0.6789450645446777
time_elpased: 7.252
#iterations: 206
currently lose_sum: 0.6529715061187744
time_elpased: 5.986
#iterations: 207
currently lose_sum: 0.679628312587738
time_elpased: 6.205
#iterations: 208
currently lose_sum: 0.6879333257675171
time_elpased: 5.971
#iterations: 209
currently lose_sum: 0.6670997738838196
time_elpased: 6.246
#iterations: 210
currently lose_sum: 0.6388570666313171
time_elpased: 6.421
#iterations: 211
currently lose_sum: 0.6683948040008545
time_elpased: 5.951
#iterations: 212
currently lose_sum: 0.6650791764259338
time_elpased: 5.759
#iterations: 213
currently lose_sum: 0.6510447859764099
time_elpased: 6.394
#iterations: 214
currently lose_sum: 0.6601251363754272
time_elpased: 6.469
#iterations: 215
currently lose_sum: 0.6494726538658142
time_elpased: 6.11
#iterations: 216
currently lose_sum: 0.6062848567962646
time_elpased: 5.95
#iterations: 217
currently lose_sum: 0.6706927418708801
time_elpased: 6.392
#iterations: 218
currently lose_sum: 0.6873191595077515
time_elpased: 6.413
#iterations: 219
currently lose_sum: 0.6428428888320923
time_elpased: 6.211
start validation test
0.5656
0.555623847572
0.713496448303
0.624740843124
0.56356087622
16.785
#iterations: 220
currently lose_sum: 0.673464298248291
time_elpased: 6.592
#iterations: 221
currently lose_sum: 0.6410795450210571
time_elpased: 6.417
#iterations: 222
currently lose_sum: 0.6427183747291565
time_elpased: 6.386
#iterations: 223
currently lose_sum: 0.6767840385437012
time_elpased: 6.129
#iterations: 224
currently lose_sum: 0.6979910135269165
time_elpased: 6.488
#iterations: 225
currently lose_sum: 0.6265629529953003
time_elpased: 6.372
#iterations: 226
currently lose_sum: 0.6045749187469482
time_elpased: 6.855
#iterations: 227
currently lose_sum: 0.6660177707672119
time_elpased: 6.631
#iterations: 228
currently lose_sum: 0.6479222774505615
time_elpased: 6.362
#iterations: 229
currently lose_sum: 0.7019705772399902
time_elpased: 6.401
#iterations: 230
currently lose_sum: 0.6646360754966736
time_elpased: 6.379
#iterations: 231
currently lose_sum: 0.6559391021728516
time_elpased: 6.142
#iterations: 232
currently lose_sum: 0.6690523028373718
time_elpased: 5.926
#iterations: 233
currently lose_sum: 0.6509866118431091
time_elpased: 5.964
#iterations: 234
currently lose_sum: 0.6208003759384155
time_elpased: 5.934
#iterations: 235
currently lose_sum: 0.6536450982093811
time_elpased: 6.148
#iterations: 236
currently lose_sum: 0.6635085940361023
time_elpased: 7.437
#iterations: 237
currently lose_sum: 0.6738316416740417
time_elpased: 6.142
#iterations: 238
currently lose_sum: 0.6497920751571655
time_elpased: 5.956
#iterations: 239
currently lose_sum: 0.6702415347099304
time_elpased: 6.056
start validation test
0.5472
0.535771065183
0.797947908445
0.641090678503
0.54374281067
17.104
#iterations: 240
currently lose_sum: 0.655666172504425
time_elpased: 6.102
#iterations: 241
currently lose_sum: 0.6809994578361511
time_elpased: 6.671
#iterations: 242
currently lose_sum: 0.6799530982971191
time_elpased: 6.307
#iterations: 243
currently lose_sum: 0.709218442440033
time_elpased: 5.712
#iterations: 244
currently lose_sum: 0.6747047305107117
time_elpased: 6.54
#iterations: 245
currently lose_sum: 0.6988697648048401
time_elpased: 6.999
#iterations: 246
currently lose_sum: 0.6834074258804321
time_elpased: 6.414
#iterations: 247
currently lose_sum: 0.666657030582428
time_elpased: 6.178
#iterations: 248
currently lose_sum: 0.6721328496932983
time_elpased: 6.46
#iterations: 249
currently lose_sum: 0.677563488483429
time_elpased: 6.317
#iterations: 250
currently lose_sum: 0.6527805924415588
time_elpased: 6.406
#iterations: 251
currently lose_sum: 0.6797378063201904
time_elpased: 6.439
#iterations: 252
currently lose_sum: 0.6726799011230469
time_elpased: 6.142
#iterations: 253
currently lose_sum: 0.6364074945449829
time_elpased: 6.275
#iterations: 254
currently lose_sum: 0.6320770382881165
time_elpased: 5.999
#iterations: 255
currently lose_sum: 0.6877522468566895
time_elpased: 6.326
#iterations: 256
currently lose_sum: 0.6628369688987732
time_elpased: 6.416
#iterations: 257
currently lose_sum: 0.6680485606193542
time_elpased: 6.59
#iterations: 258
currently lose_sum: 0.6963008046150208
time_elpased: 6.23
#iterations: 259
currently lose_sum: 0.625153124332428
time_elpased: 6.565
start validation test
0.56
0.624441132638
0.330702446725
0.432404540764
0.56316144234
16.958
#iterations: 260
currently lose_sum: 0.5955265164375305
time_elpased: 6.172
#iterations: 261
currently lose_sum: 0.6313259601593018
time_elpased: 6.57
#iterations: 262
currently lose_sum: 0.6375729441642761
time_elpased: 6.169
#iterations: 263
currently lose_sum: 0.6453661918640137
time_elpased: 5.947
#iterations: 264
currently lose_sum: 0.6510400176048279
time_elpased: 6.105
#iterations: 265
currently lose_sum: 0.6510728597640991
time_elpased: 6.509
#iterations: 266
currently lose_sum: 0.6461470127105713
time_elpased: 6.179
#iterations: 267
currently lose_sum: 0.6715200543403625
time_elpased: 6.377
#iterations: 268
currently lose_sum: 0.6616888642311096
time_elpased: 6.414
#iterations: 269
currently lose_sum: 0.6611227989196777
time_elpased: 6.201
#iterations: 270
currently lose_sum: 0.6466334462165833
time_elpased: 6.54
#iterations: 271
currently lose_sum: 0.7002256512641907
time_elpased: 6.595
#iterations: 272
currently lose_sum: 0.6845262050628662
time_elpased: 6.386
#iterations: 273
currently lose_sum: 0.6772218346595764
time_elpased: 6.185
#iterations: 274
currently lose_sum: 0.6459227204322815
time_elpased: 6.72
#iterations: 275
currently lose_sum: 0.6612786054611206
time_elpased: 6.032
#iterations: 276
currently lose_sum: 0.6596026420593262
time_elpased: 6.151
#iterations: 277
currently lose_sum: 0.7079768180847168
time_elpased: 6.153
#iterations: 278
currently lose_sum: 0.6589042544364929
time_elpased: 5.957
#iterations: 279
currently lose_sum: 0.664222240447998
time_elpased: 6.636
start validation test
0.5628
0.613577023499
0.370955011839
0.462370880472
0.565445064719
17.123
#iterations: 280
currently lose_sum: 0.6519802808761597
time_elpased: 5.983
#iterations: 281
currently lose_sum: 0.6661005616188049
time_elpased: 7.288
#iterations: 282
currently lose_sum: 0.6639183759689331
time_elpased: 6.524
#iterations: 283
currently lose_sum: 0.6348217129707336
time_elpased: 6.162
#iterations: 284
currently lose_sum: 0.6675039529800415
time_elpased: 5.884
#iterations: 285
currently lose_sum: 0.6416917443275452
time_elpased: 6.241
#iterations: 286
currently lose_sum: 0.6646909117698669
time_elpased: 6.497
#iterations: 287
currently lose_sum: 0.6428735852241516
time_elpased: 6.386
#iterations: 288
currently lose_sum: 0.6657578349113464
time_elpased: 6.838
#iterations: 289
currently lose_sum: 0.6692795753479004
time_elpased: 6.09
#iterations: 290
currently lose_sum: 0.6505922079086304
time_elpased: 5.943
#iterations: 291
currently lose_sum: 0.6436340808868408
time_elpased: 5.998
#iterations: 292
currently lose_sum: 0.6578020453453064
time_elpased: 5.926
#iterations: 293
currently lose_sum: 0.6466317772865295
time_elpased: 6.106
#iterations: 294
currently lose_sum: 0.637204110622406
time_elpased: 6.408
#iterations: 295
currently lose_sum: 0.6330797672271729
time_elpased: 6.452
#iterations: 296
currently lose_sum: 0.6182681918144226
time_elpased: 6.42
#iterations: 297
currently lose_sum: 0.6593798995018005
time_elpased: 6.462
#iterations: 298
currently lose_sum: 0.6835857629776001
time_elpased: 6.325
#iterations: 299
currently lose_sum: 0.621900200843811
time_elpased: 6.47
start validation test
0.5656
0.608124253286
0.401736385162
0.483840304183
0.567859271251
16.872
#iterations: 300
currently lose_sum: 0.6808010935783386
time_elpased: 5.947
#iterations: 301
currently lose_sum: 0.6716600060462952
time_elpased: 5.972
#iterations: 302
currently lose_sum: 0.6411626935005188
time_elpased: 5.764
#iterations: 303
currently lose_sum: 0.6539242267608643
time_elpased: 6.06
#iterations: 304
currently lose_sum: 0.6335983872413635
time_elpased: 5.989
#iterations: 305
currently lose_sum: 0.6498424410820007
time_elpased: 6.209
#iterations: 306
currently lose_sum: 0.6629050374031067
time_elpased: 6.331
#iterations: 307
currently lose_sum: 0.6513222455978394
time_elpased: 7.054
#iterations: 308
currently lose_sum: 0.6240742802619934
time_elpased: 6.206
#iterations: 309
currently lose_sum: 0.6330571174621582
time_elpased: 5.953
#iterations: 310
currently lose_sum: 0.656790018081665
time_elpased: 6.142
#iterations: 311
currently lose_sum: 0.6996459364891052
time_elpased: 6.26
#iterations: 312
currently lose_sum: 0.6504045128822327
time_elpased: 5.89
#iterations: 313
currently lose_sum: 0.6521990895271301
time_elpased: 6.416
#iterations: 314
currently lose_sum: 0.6668399572372437
time_elpased: 6.625
#iterations: 315
currently lose_sum: 0.672130823135376
time_elpased: 7.142
#iterations: 316
currently lose_sum: 0.6789542436599731
time_elpased: 6.091
#iterations: 317
currently lose_sum: 0.6626995801925659
time_elpased: 5.957
#iterations: 318
currently lose_sum: 0.6632353067398071
time_elpased: 7.217
#iterations: 319
currently lose_sum: 0.644762396812439
time_elpased: 6.179
start validation test
0.5588
0.645390070922
0.28729281768
0.397596941562
0.562543408029
17.182
#iterations: 320
currently lose_sum: 0.6537832617759705
time_elpased: 6.419
#iterations: 321
currently lose_sum: 0.649604320526123
time_elpased: 6.438
#iterations: 322
currently lose_sum: 0.6375410556793213
time_elpased: 6.743
#iterations: 323
currently lose_sum: 0.6832901239395142
time_elpased: 6.864
#iterations: 324
currently lose_sum: 0.6565388441085815
time_elpased: 6.093
#iterations: 325
currently lose_sum: 0.675380527973175
time_elpased: 6.005
#iterations: 326
currently lose_sum: 0.643623411655426
time_elpased: 6.062
#iterations: 327
currently lose_sum: 0.6614941358566284
time_elpased: 5.889
#iterations: 328
currently lose_sum: 0.6442462205886841
time_elpased: 5.941
#iterations: 329
currently lose_sum: 0.6559925675392151
time_elpased: 6.348
#iterations: 330
currently lose_sum: 0.6544000506401062
time_elpased: 6.301
#iterations: 331
currently lose_sum: 0.6575984954833984
time_elpased: 6.099
#iterations: 332
currently lose_sum: 0.6698259115219116
time_elpased: 6.189
#iterations: 333
currently lose_sum: 0.6062943935394287
time_elpased: 6.435
#iterations: 334
currently lose_sum: 0.6306509375572205
time_elpased: 5.969
#iterations: 335
currently lose_sum: 0.6650161743164062
time_elpased: 6.716
#iterations: 336
currently lose_sum: 0.6113281846046448
time_elpased: 6.254
#iterations: 337
currently lose_sum: 0.6560203433036804
time_elpased: 6.235
#iterations: 338
currently lose_sum: 0.6347472071647644
time_elpased: 6.419
#iterations: 339
currently lose_sum: 0.6851512789726257
time_elpased: 6.402
start validation test
0.5596
0.544962080173
0.794001578532
0.646321876004
0.55636818586
17.006
#iterations: 340
currently lose_sum: 0.6768295168876648
time_elpased: 6.373
#iterations: 341
currently lose_sum: 0.6548178195953369
time_elpased: 6.459
#iterations: 342
currently lose_sum: 0.6377644538879395
time_elpased: 6.153
#iterations: 343
currently lose_sum: 0.6369595527648926
time_elpased: 5.995
#iterations: 344
currently lose_sum: 0.6939823627471924
time_elpased: 6.299
#iterations: 345
currently lose_sum: 0.6691551804542542
time_elpased: 6.606
#iterations: 346
currently lose_sum: 0.6549971103668213
time_elpased: 7.05
#iterations: 347
currently lose_sum: 0.6342095136642456
time_elpased: 6.338
#iterations: 348
currently lose_sum: 0.6450619697570801
time_elpased: 6.176
#iterations: 349
currently lose_sum: 0.6743114590644836
time_elpased: 6.334
#iterations: 350
currently lose_sum: 0.6771547198295593
time_elpased: 5.726
#iterations: 351
currently lose_sum: 0.6624616980552673
time_elpased: 6.912
#iterations: 352
currently lose_sum: 0.6397759318351746
time_elpased: 6.35
#iterations: 353
currently lose_sum: 0.6688988208770752
time_elpased: 6.472
#iterations: 354
currently lose_sum: 0.6476342678070068
time_elpased: 6.484
#iterations: 355
currently lose_sum: 0.6173998117446899
time_elpased: 6.225
#iterations: 356
currently lose_sum: 0.6435210704803467
time_elpased: 5.731
#iterations: 357
currently lose_sum: 0.642577052116394
time_elpased: 5.96
#iterations: 358
currently lose_sum: 0.658824622631073
time_elpased: 6.366
#iterations: 359
currently lose_sum: 0.6171695590019226
time_elpased: 6.901
start validation test
0.5664
0.581478183437
0.515390686661
0.546443514644
0.567103291425
16.856
#iterations: 360
currently lose_sum: 0.6869708299636841
time_elpased: 6.385
#iterations: 361
currently lose_sum: 0.6534115076065063
time_elpased: 5.903
#iterations: 362
currently lose_sum: 0.6378109455108643
time_elpased: 5.949
#iterations: 363
currently lose_sum: 0.6605749726295471
time_elpased: 6.21
#iterations: 364
currently lose_sum: 0.6571986675262451
time_elpased: 6.411
#iterations: 365
currently lose_sum: 0.6381643414497375
time_elpased: 6.504
#iterations: 366
currently lose_sum: 0.653238832950592
time_elpased: 6.497
#iterations: 367
currently lose_sum: 0.6887776255607605
time_elpased: 6.5
#iterations: 368
currently lose_sum: 0.6767441034317017
time_elpased: 6.314
#iterations: 369
currently lose_sum: 0.655965268611908
time_elpased: 6.091
#iterations: 370
currently lose_sum: 0.6542669534683228
time_elpased: 6.637
#iterations: 371
currently lose_sum: 0.666950523853302
time_elpased: 6.414
#iterations: 372
currently lose_sum: 0.6467872858047485
time_elpased: 6.183
#iterations: 373
currently lose_sum: 0.6767480373382568
time_elpased: 6.01
#iterations: 374
currently lose_sum: 0.7111250162124634
time_elpased: 6.47
#iterations: 375
currently lose_sum: 0.6355241537094116
time_elpased: 5.973
#iterations: 376
currently lose_sum: 0.6890509128570557
time_elpased: 6.401
#iterations: 377
currently lose_sum: 0.7028266787528992
time_elpased: 6.284
#iterations: 378
currently lose_sum: 0.6465350389480591
time_elpased: 6.002
#iterations: 379
currently lose_sum: 0.5934920310974121
time_elpased: 6.327
start validation test
0.5776
0.575844716032
0.632202052092
0.602708803612
0.576847173653
16.732
#iterations: 380
currently lose_sum: 0.6962953805923462
time_elpased: 6.301
#iterations: 381
currently lose_sum: 0.6659956574440002
time_elpased: 6.037
#iterations: 382
currently lose_sum: 0.7255638241767883
time_elpased: 6.236
#iterations: 383
currently lose_sum: 0.655819833278656
time_elpased: 6.249
#iterations: 384
currently lose_sum: 0.6912038326263428
time_elpased: 6.806
#iterations: 385
currently lose_sum: 0.605134904384613
time_elpased: 6.32
#iterations: 386
currently lose_sum: 0.6911883354187012
time_elpased: 6.462
#iterations: 387
currently lose_sum: 0.6599136590957642
time_elpased: 7.159
#iterations: 388
currently lose_sum: 0.6510751843452454
time_elpased: 6.186
#iterations: 389
currently lose_sum: 0.6551750302314758
time_elpased: 6.118
#iterations: 390
currently lose_sum: 0.6459549069404602
time_elpased: 6.694
#iterations: 391
currently lose_sum: 0.6098461747169495
time_elpased: 7.158
#iterations: 392
currently lose_sum: 0.7019538283348083
time_elpased: 6.375
#iterations: 393
currently lose_sum: 0.6680549383163452
time_elpased: 6.468
#iterations: 394
currently lose_sum: 0.649933397769928
time_elpased: 6.41
#iterations: 395
currently lose_sum: 0.6092504262924194
time_elpased: 6.405
#iterations: 396
currently lose_sum: 0.6748815774917603
time_elpased: 6.27
#iterations: 397
currently lose_sum: 0.6034469604492188
time_elpased: 5.957
#iterations: 398
currently lose_sum: 0.6505901217460632
time_elpased: 5.976
#iterations: 399
currently lose_sum: 0.6667407155036926
time_elpased: 6.153
start validation test
0.5616
0.581661891117
0.480662983425
0.52636127917
0.562715919937
16.836
#iterations: 400
currently lose_sum: 0.6266499161720276
time_elpased: 6.162
#iterations: 401
currently lose_sum: 0.6636031866073608
time_elpased: 5.946
#iterations: 402
currently lose_sum: 0.6377643346786499
time_elpased: 6.821
#iterations: 403
currently lose_sum: 0.6608740091323853
time_elpased: 5.87
#iterations: 404
currently lose_sum: 0.657120943069458
time_elpased: 6.112
#iterations: 405
currently lose_sum: 0.6452040672302246
time_elpased: 5.919
#iterations: 406
currently lose_sum: 0.6353902220726013
time_elpased: 6.069
#iterations: 407
currently lose_sum: 0.7223089337348938
time_elpased: 5.931
#iterations: 408
currently lose_sum: 0.663848340511322
time_elpased: 6.241
#iterations: 409
currently lose_sum: 0.6455124020576477
time_elpased: 6.368
#iterations: 410
currently lose_sum: 0.6448609828948975
time_elpased: 6.107
#iterations: 411
currently lose_sum: 0.7310828566551208
time_elpased: 5.896
#iterations: 412
currently lose_sum: 0.6633422374725342
time_elpased: 6.607
#iterations: 413
currently lose_sum: 0.6435728669166565
time_elpased: 6.238
#iterations: 414
currently lose_sum: 0.6265508532524109
time_elpased: 5.911
#iterations: 415
currently lose_sum: 0.6458576917648315
time_elpased: 5.865
#iterations: 416
currently lose_sum: 0.6660017371177673
time_elpased: 6.136
#iterations: 417
currently lose_sum: 0.6634294390678406
time_elpased: 6.461
#iterations: 418
currently lose_sum: 0.6369473338127136
time_elpased: 5.89
#iterations: 419
currently lose_sum: 0.6345521807670593
time_elpased: 6.603
start validation test
0.5676
0.588571428571
0.487766377269
0.533448424687
0.568700706883
16.826
#iterations: 420
currently lose_sum: 0.6448879837989807
time_elpased: 6.398
#iterations: 421
currently lose_sum: 0.6355991363525391
time_elpased: 6.173
#iterations: 422
currently lose_sum: 0.6245977282524109
time_elpased: 6.006
#iterations: 423
currently lose_sum: 0.6481521725654602
time_elpased: 5.959
#iterations: 424
currently lose_sum: 0.6696584820747375
time_elpased: 5.961
#iterations: 425
currently lose_sum: 0.6401373147964478
time_elpased: 6.351
#iterations: 426
currently lose_sum: 0.6828628778457642
time_elpased: 5.867
#iterations: 427
currently lose_sum: 0.6024364829063416
time_elpased: 6.4
#iterations: 428
currently lose_sum: 0.6624330282211304
time_elpased: 6.401
#iterations: 429
currently lose_sum: 0.6506252884864807
time_elpased: 5.968
#iterations: 430
currently lose_sum: 0.6555949449539185
time_elpased: 5.939
#iterations: 431
currently lose_sum: 0.6573776006698608
time_elpased: 6.478
#iterations: 432
currently lose_sum: 0.6471954584121704
time_elpased: 6.632
#iterations: 433
currently lose_sum: 0.6316872239112854
time_elpased: 6.016
#iterations: 434
currently lose_sum: 0.630128026008606
time_elpased: 7.034
#iterations: 435
currently lose_sum: 0.660708487033844
time_elpased: 6.087
#iterations: 436
currently lose_sum: 0.6786735653877258
time_elpased: 6.326
#iterations: 437
currently lose_sum: 0.671832263469696
time_elpased: 6.206
#iterations: 438
currently lose_sum: 0.6587414741516113
time_elpased: 6.483
#iterations: 439
currently lose_sum: 0.6476579308509827
time_elpased: 6.332
start validation test
0.564
0.576889661164
0.52407261247
0.549214226634
0.56455049926
16.842
#iterations: 440
currently lose_sum: 0.6546417474746704
time_elpased: 6.289
#iterations: 441
currently lose_sum: 0.6813384294509888
time_elpased: 6.257
#iterations: 442
currently lose_sum: 0.6615504622459412
time_elpased: 6.292
#iterations: 443
currently lose_sum: 0.6586635112762451
time_elpased: 5.939
#iterations: 444
currently lose_sum: 0.6623767018318176
time_elpased: 6.271
#iterations: 445
currently lose_sum: 0.6417912244796753
time_elpased: 6.315
#iterations: 446
currently lose_sum: 0.6476603746414185
time_elpased: 6.339
#iterations: 447
currently lose_sum: 0.6343511343002319
time_elpased: 6.126
#iterations: 448
currently lose_sum: 0.6617156267166138
time_elpased: 6.061
#iterations: 449
currently lose_sum: 0.614287257194519
time_elpased: 6.375
#iterations: 450
currently lose_sum: 0.6747772097587585
time_elpased: 6.475
#iterations: 451
currently lose_sum: 0.6573677659034729
time_elpased: 6.205
#iterations: 452
currently lose_sum: 0.6228958964347839
time_elpased: 6.717
#iterations: 453
currently lose_sum: 0.6666548848152161
time_elpased: 5.906
#iterations: 454
currently lose_sum: 0.653420627117157
time_elpased: 5.946
#iterations: 455
currently lose_sum: 0.6742801070213318
time_elpased: 6.254
#iterations: 456
currently lose_sum: 0.6378337740898132
time_elpased: 6.387
#iterations: 457
currently lose_sum: 0.6718670725822449
time_elpased: 5.85
#iterations: 458
currently lose_sum: 0.7073369026184082
time_elpased: 6.217
#iterations: 459
currently lose_sum: 0.644625186920166
time_elpased: 6.012
start validation test
0.5664
0.613664596273
0.389897395422
0.476833976834
0.56883353145
17.032
#iterations: 460
currently lose_sum: 0.5828991532325745
time_elpased: 6.399
#iterations: 461
currently lose_sum: 0.6312921643257141
time_elpased: 6.411
#iterations: 462
currently lose_sum: 0.6662025451660156
time_elpased: 6.138
#iterations: 463
currently lose_sum: 0.6418691873550415
time_elpased: 7.023
#iterations: 464
currently lose_sum: 0.6378432512283325
time_elpased: 6.067
#iterations: 465
currently lose_sum: 0.6139408349990845
time_elpased: 6.259
#iterations: 466
currently lose_sum: 0.673687219619751
time_elpased: 6.22
#iterations: 467
currently lose_sum: 0.6873695254325867
time_elpased: 6.502
#iterations: 468
currently lose_sum: 0.6650710105895996
time_elpased: 6.394
#iterations: 469
currently lose_sum: 0.6345577239990234
time_elpased: 5.956
#iterations: 470
currently lose_sum: 0.6402776837348938
time_elpased: 5.962
#iterations: 471
currently lose_sum: 0.6479431390762329
time_elpased: 6.201
#iterations: 472
currently lose_sum: 0.6201969981193542
time_elpased: 6.851
#iterations: 473
currently lose_sum: 0.6379061937332153
time_elpased: 6.083
#iterations: 474
currently lose_sum: 0.6264716982841492
time_elpased: 6.082
#iterations: 475
currently lose_sum: 0.591488242149353
time_elpased: 5.904
#iterations: 476
currently lose_sum: 0.6748106479644775
time_elpased: 5.986
#iterations: 477
currently lose_sum: 0.6325672268867493
time_elpased: 6.001
#iterations: 478
currently lose_sum: 0.6785101294517517
time_elpased: 6.001
#iterations: 479
currently lose_sum: 0.6094217896461487
time_elpased: 6.023
start validation test
0.568
0.582963620231
0.518547750592
0.548872180451
0.56868182339
16.823
#iterations: 480
currently lose_sum: 0.6413288116455078
time_elpased: 6.164
#iterations: 481
currently lose_sum: 0.6627865433692932
time_elpased: 6.145
#iterations: 482
currently lose_sum: 0.6720278263092041
time_elpased: 6.506
#iterations: 483
currently lose_sum: 0.6235502362251282
time_elpased: 6.376
#iterations: 484
currently lose_sum: 0.6854123473167419
time_elpased: 6.594
#iterations: 485
currently lose_sum: 0.6289593577384949
time_elpased: 6.619
#iterations: 486
currently lose_sum: 0.6935814619064331
time_elpased: 6.556
#iterations: 487
currently lose_sum: 0.6438807845115662
time_elpased: 7.418
#iterations: 488
currently lose_sum: 0.6423450708389282
time_elpased: 6.307
#iterations: 489
currently lose_sum: 0.6247020959854126
time_elpased: 6.189
#iterations: 490
currently lose_sum: 0.650330662727356
time_elpased: 6.459
#iterations: 491
currently lose_sum: 0.6370949149131775
time_elpased: 6.677
#iterations: 492
currently lose_sum: 0.657016932964325
time_elpased: 5.993
#iterations: 493
currently lose_sum: 0.6754014492034912
time_elpased: 6.687
#iterations: 494
currently lose_sum: 0.650570809841156
time_elpased: 6.753
#iterations: 495
currently lose_sum: 0.6950756311416626
time_elpased: 6.251
#iterations: 496
currently lose_sum: 0.654828667640686
time_elpased: 5.972
#iterations: 497
currently lose_sum: 0.6705442667007446
time_elpased: 6.127
#iterations: 498
currently lose_sum: 0.621293842792511
time_elpased: 6.083
#iterations: 499
currently lose_sum: 0.6307917833328247
time_elpased: 6.419
start validation test
0.574
0.573401162791
0.6227308603
0.597048808173
0.57332812277
16.785
#iterations: 500
currently lose_sum: 0.6419462561607361
time_elpased: 7.118
#iterations: 501
currently lose_sum: 0.6462110280990601
time_elpased: 6.645
#iterations: 502
currently lose_sum: 0.6686021685600281
time_elpased: 6.571
#iterations: 503
currently lose_sum: 0.6986628174781799
time_elpased: 6.378
#iterations: 504
currently lose_sum: 0.6021252274513245
time_elpased: 5.975
#iterations: 505
currently lose_sum: 0.621263325214386
time_elpased: 6.029
#iterations: 506
currently lose_sum: 0.6316248774528503
time_elpased: 6.953
#iterations: 507
currently lose_sum: 0.6398230195045471
time_elpased: 6.222
#iterations: 508
currently lose_sum: 0.6459893584251404
time_elpased: 6.265
#iterations: 509
currently lose_sum: 0.6213318109512329
time_elpased: 6.049
#iterations: 510
currently lose_sum: 0.6438088417053223
time_elpased: 6.083
#iterations: 511
currently lose_sum: 0.6202153563499451
time_elpased: 6.232
#iterations: 512
currently lose_sum: 0.6624665856361389
time_elpased: 5.913
#iterations: 513
currently lose_sum: 0.6088255047798157
time_elpased: 6.281
#iterations: 514
currently lose_sum: 0.6682754755020142
time_elpased: 6.071
#iterations: 515
currently lose_sum: 0.6259755492210388
time_elpased: 5.954
#iterations: 516
currently lose_sum: 0.6463556885719299
time_elpased: 5.895
#iterations: 517
currently lose_sum: 0.6209385395050049
time_elpased: 6.381
#iterations: 518
currently lose_sum: 0.6762199401855469
time_elpased: 5.961
#iterations: 519
currently lose_sum: 0.6244308948516846
time_elpased: 6.265
start validation test
0.5612
0.602163461538
0.395422257301
0.477370176274
0.563485662308
16.896
#iterations: 520
currently lose_sum: 0.6494444012641907
time_elpased: 6.184
#iterations: 521
currently lose_sum: 0.6690528988838196
time_elpased: 6.848
#iterations: 522
currently lose_sum: 0.5898376107215881
time_elpased: 5.814
#iterations: 523
currently lose_sum: 0.6717429161071777
time_elpased: 4.791
#iterations: 524
currently lose_sum: 0.6585519313812256
time_elpased: 4.585
#iterations: 525
currently lose_sum: 0.6432182788848877
time_elpased: 6.512
#iterations: 526
currently lose_sum: 0.6711046099662781
time_elpased: 6.096
#iterations: 527
currently lose_sum: 0.6261266469955444
time_elpased: 6.775
#iterations: 528
currently lose_sum: 0.6334564685821533
time_elpased: 6.563
#iterations: 529
currently lose_sum: 0.6507996320724487
time_elpased: 6.801
#iterations: 530
currently lose_sum: 0.64251708984375
time_elpased: 6.501
#iterations: 531
currently lose_sum: 0.6145349740982056
time_elpased: 6.227
#iterations: 532
currently lose_sum: 0.6583461761474609
time_elpased: 6.37
#iterations: 533
currently lose_sum: 0.6185463666915894
time_elpased: 6.441
#iterations: 534
currently lose_sum: 0.6164494156837463
time_elpased: 6.257
#iterations: 535
currently lose_sum: 0.6444032788276672
time_elpased: 6.465
#iterations: 536
currently lose_sum: 0.6382539868354797
time_elpased: 6.488
#iterations: 537
currently lose_sum: 0.6478105187416077
time_elpased: 6.707
#iterations: 538
currently lose_sum: 0.6013343930244446
time_elpased: 6.467
#iterations: 539
currently lose_sum: 0.6814213395118713
time_elpased: 6.66
start validation test
0.566
0.561403508772
0.656669297553
0.60531102219
0.564749896141
16.799
#iterations: 540
currently lose_sum: 0.6723592877388
time_elpased: 6.584
#iterations: 541
currently lose_sum: 0.6494652032852173
time_elpased: 6.59
#iterations: 542
currently lose_sum: 0.6639347672462463
time_elpased: 6.308
#iterations: 543
currently lose_sum: 0.6530853509902954
time_elpased: 6.777
#iterations: 544
currently lose_sum: 0.59918612241745
time_elpased: 6.585
#iterations: 545
currently lose_sum: 0.6367291212081909
time_elpased: 6.662
#iterations: 546
currently lose_sum: 0.6629580855369568
time_elpased: 6.621
#iterations: 547
currently lose_sum: 0.6842682361602783
time_elpased: 6.376
#iterations: 548
currently lose_sum: 0.6031889915466309
time_elpased: 6.512
#iterations: 549
currently lose_sum: 0.6255624890327454
time_elpased: 6.499
#iterations: 550
currently lose_sum: 0.6236785054206848
time_elpased: 6.578
#iterations: 551
currently lose_sum: 0.6500900387763977
time_elpased: 6.513
#iterations: 552
currently lose_sum: 0.6613365411758423
time_elpased: 6.534
#iterations: 553
currently lose_sum: 0.6684382557868958
time_elpased: 5.878
#iterations: 554
currently lose_sum: 0.6297395825386047
time_elpased: 6.434
#iterations: 555
currently lose_sum: 0.633578360080719
time_elpased: 6.608
#iterations: 556
currently lose_sum: 0.6378630995750427
time_elpased: 6.538
#iterations: 557
currently lose_sum: 0.6315900683403015
time_elpased: 6.287
#iterations: 558
currently lose_sum: 0.6473091840744019
time_elpased: 6.827
#iterations: 559
currently lose_sum: 0.6221599578857422
time_elpased: 6.841
start validation test
0.5704
0.5583081571
0.729281767956
0.632443531828
0.568209416014
16.837
#iterations: 560
currently lose_sum: 0.620219349861145
time_elpased: 6.845
#iterations: 561
currently lose_sum: 0.6460816264152527
time_elpased: 6.575
#iterations: 562
currently lose_sum: 0.6577091813087463
time_elpased: 6.828
#iterations: 563
currently lose_sum: 0.6405851244926453
time_elpased: 6.973
#iterations: 564
currently lose_sum: 0.6265876293182373
time_elpased: 7.364
#iterations: 565
currently lose_sum: 0.642283022403717
time_elpased: 7.013
#iterations: 566
currently lose_sum: 0.6250640749931335
time_elpased: 6.695
#iterations: 567
currently lose_sum: 0.6346401572227478
time_elpased: 6.569
#iterations: 568
currently lose_sum: 0.644194483757019
time_elpased: 6.613
#iterations: 569
currently lose_sum: 0.6299571394920349
time_elpased: 6.802
#iterations: 570
currently lose_sum: 0.6476812958717346
time_elpased: 6.809
#iterations: 571
currently lose_sum: 0.6479924917221069
time_elpased: 6.722
#iterations: 572
currently lose_sum: 0.6250556111335754
time_elpased: 6.913
#iterations: 573
currently lose_sum: 0.6708150506019592
time_elpased: 6.732
#iterations: 574
currently lose_sum: 0.6393443942070007
time_elpased: 6.664
#iterations: 575
currently lose_sum: 0.6287805438041687
time_elpased: 7.0
#iterations: 576
currently lose_sum: 0.6075190901756287
time_elpased: 6.691
#iterations: 577
currently lose_sum: 0.6123874187469482
time_elpased: 6.671
#iterations: 578
currently lose_sum: 0.6440185308456421
time_elpased: 7.436
#iterations: 579
currently lose_sum: 0.6787350177764893
time_elpased: 6.83
start validation test
0.5616
0.550442477876
0.7363851618
0.629979743417
0.55919014781
16.932
#iterations: 580
currently lose_sum: 0.6577309966087341
time_elpased: 7.842
#iterations: 581
currently lose_sum: 0.6484627723693848
time_elpased: 6.683
#iterations: 582
currently lose_sum: 0.6240784525871277
time_elpased: 7.972
#iterations: 583
currently lose_sum: 0.6594007611274719
time_elpased: 6.688
#iterations: 584
currently lose_sum: 0.6361945271492004
time_elpased: 6.527
#iterations: 585
currently lose_sum: 0.6751388311386108
time_elpased: 7.695
#iterations: 586
currently lose_sum: 0.6435724496841431
time_elpased: 6.64
#iterations: 587
currently lose_sum: 0.6866564750671387
time_elpased: 6.732
#iterations: 588
currently lose_sum: 0.6720049381256104
time_elpased: 6.314
#iterations: 589
currently lose_sum: 0.6151378154754639
time_elpased: 6.635
#iterations: 590
currently lose_sum: 0.635407030582428
time_elpased: 6.547
#iterations: 591
currently lose_sum: 0.6334437131881714
time_elpased: 6.483
#iterations: 592
currently lose_sum: 0.6202935576438904
time_elpased: 6.664
#iterations: 593
currently lose_sum: 0.6748619079589844
time_elpased: 6.682
#iterations: 594
currently lose_sum: 0.6432058215141296
time_elpased: 7.354
#iterations: 595
currently lose_sum: 0.6055709719657898
time_elpased: 7.389
#iterations: 596
currently lose_sum: 0.6599104404449463
time_elpased: 7.14
#iterations: 597
currently lose_sum: 0.6236436367034912
time_elpased: 7.069
#iterations: 598
currently lose_sum: 0.6414854526519775
time_elpased: 6.867
#iterations: 599
currently lose_sum: 0.6307964324951172
time_elpased: 6.899
start validation test
0.5608
0.587023686921
0.449881610103
0.509383378016
0.562329288425
16.957
acc: 0.566
pre: 0.564
rec: 0.632
F1: 0.596
auc: 0.565
