start to construct computing graph
graph construct over
3372
epochs start
#iterations: 0
currently lose_sum: 0.6771966814994812
time_elpased: 8.931
#iterations: 1
currently lose_sum: 0.7172375321388245
time_elpased: 9.089
#iterations: 2
currently lose_sum: 0.725274384021759
time_elpased: 9.38
#iterations: 3
currently lose_sum: 0.6692570447921753
time_elpased: 8.963
#iterations: 4
currently lose_sum: 0.6499096155166626
time_elpased: 9.193
#iterations: 5
currently lose_sum: 0.6276350021362305
time_elpased: 9.243
#iterations: 6
currently lose_sum: 0.6269572973251343
time_elpased: 9.349
#iterations: 7
currently lose_sum: 0.6563267707824707
time_elpased: 9.077
#iterations: 8
currently lose_sum: 0.6448227763175964
time_elpased: 9.331
#iterations: 9
currently lose_sum: 0.7101999521255493
time_elpased: 9.156
#iterations: 10
currently lose_sum: 0.6136856079101562
time_elpased: 9.022
#iterations: 11
currently lose_sum: 0.5565724968910217
time_elpased: 9.394
#iterations: 12
currently lose_sum: 0.6074761152267456
time_elpased: 8.964
#iterations: 13
currently lose_sum: 0.7019913196563721
time_elpased: 9.357
#iterations: 14
currently lose_sum: 0.5285962820053101
time_elpased: 9.257
#iterations: 15
currently lose_sum: 0.5729291439056396
time_elpased: 9.306
#iterations: 16
currently lose_sum: 0.640781044960022
time_elpased: 9.335
#iterations: 17
currently lose_sum: 0.5348365306854248
time_elpased: 9.115
#iterations: 18
currently lose_sum: 0.6310518980026245
time_elpased: 9.207
#iterations: 19
currently lose_sum: 0.6419800519943237
time_elpased: 9.248
start validation test
0.616071428571
0.623255813953
0.595555555556
0.609090909091
0.616163428002
35.941
#iterations: 20
currently lose_sum: 0.6291511654853821
time_elpased: 8.408
#iterations: 21
currently lose_sum: 0.6501268148422241
time_elpased: 8.391
#iterations: 22
currently lose_sum: 0.6796963810920715
time_elpased: 8.269
#iterations: 23
currently lose_sum: 0.6111531257629395
time_elpased: 8.386
#iterations: 24
currently lose_sum: 0.5846784114837646
time_elpased: 8.375
#iterations: 25
currently lose_sum: 0.593493640422821
time_elpased: 8.269
#iterations: 26
currently lose_sum: 0.676649808883667
time_elpased: 8.368
#iterations: 27
currently lose_sum: 0.58500736951828
time_elpased: 8.493
#iterations: 28
currently lose_sum: 0.6042913198471069
time_elpased: 8.316
#iterations: 29
currently lose_sum: 0.6740334033966064
time_elpased: 8.326
#iterations: 30
currently lose_sum: 0.5995422601699829
time_elpased: 8.447
#iterations: 31
currently lose_sum: 0.6444389820098877
time_elpased: 8.447
#iterations: 32
currently lose_sum: 0.6041167974472046
time_elpased: 8.473
#iterations: 33
currently lose_sum: 0.6765575408935547
time_elpased: 8.423
#iterations: 34
currently lose_sum: 0.5930765867233276
time_elpased: 8.259
#iterations: 35
currently lose_sum: 0.631385862827301
time_elpased: 8.244
#iterations: 36
currently lose_sum: 0.5986647009849548
time_elpased: 8.458
#iterations: 37
currently lose_sum: 0.6523510813713074
time_elpased: 8.179
#iterations: 38
currently lose_sum: 0.5846666097640991
time_elpased: 8.246
#iterations: 39
currently lose_sum: 0.5728273987770081
time_elpased: 8.225
start validation test
0.619196428571
0.657407407407
0.504888888889
0.571141277024
0.619709018435
35.636
#iterations: 40
currently lose_sum: 0.6643086671829224
time_elpased: 8.584
#iterations: 41
currently lose_sum: 0.6412183046340942
time_elpased: 8.176
#iterations: 42
currently lose_sum: 0.656806468963623
time_elpased: 8.224
#iterations: 43
currently lose_sum: 0.5795561075210571
time_elpased: 8.518
#iterations: 44
currently lose_sum: 0.5386306047439575
time_elpased: 8.287
#iterations: 45
currently lose_sum: 0.5912067294120789
time_elpased: 8.271
#iterations: 46
currently lose_sum: 0.6466366052627563
time_elpased: 8.498
#iterations: 47
currently lose_sum: 0.571812629699707
time_elpased: 8.334
#iterations: 48
currently lose_sum: 0.6073695421218872
time_elpased: 8.333
#iterations: 49
currently lose_sum: 0.6940503716468811
time_elpased: 8.253
#iterations: 50
currently lose_sum: 0.5685200691223145
time_elpased: 8.494
#iterations: 51
currently lose_sum: 0.6467644572257996
time_elpased: 8.479
#iterations: 52
currently lose_sum: 0.5548155903816223
time_elpased: 8.452
#iterations: 53
currently lose_sum: 0.6580460667610168
time_elpased: 8.27
#iterations: 54
currently lose_sum: 0.5667811632156372
time_elpased: 8.432
#iterations: 55
currently lose_sum: 0.5774891972541809
time_elpased: 8.256
#iterations: 56
currently lose_sum: 0.6187688112258911
time_elpased: 8.245
#iterations: 57
currently lose_sum: 0.6167923212051392
time_elpased: 8.127
#iterations: 58
currently lose_sum: 0.5308615565299988
time_elpased: 8.476
#iterations: 59
currently lose_sum: 0.7019058465957642
time_elpased: 8.341
start validation test
0.624553571429
0.611111111111
0.694222222222
0.650020807324
0.624241155954
36.157
#iterations: 60
currently lose_sum: 0.6842395067214966
time_elpased: 8.474
#iterations: 61
currently lose_sum: 0.6449512243270874
time_elpased: 8.589
#iterations: 62
currently lose_sum: 0.6553319096565247
time_elpased: 8.385
#iterations: 63
currently lose_sum: 0.6161521673202515
time_elpased: 8.41
#iterations: 64
currently lose_sum: 0.5902504920959473
time_elpased: 8.431
#iterations: 65
currently lose_sum: 0.43396705389022827
time_elpased: 8.329
#iterations: 66
currently lose_sum: 0.6206480264663696
time_elpased: 8.501
#iterations: 67
currently lose_sum: 0.581569254398346
time_elpased: 8.405
#iterations: 68
currently lose_sum: 0.5906161069869995
time_elpased: 8.398
#iterations: 69
currently lose_sum: 0.5646692514419556
time_elpased: 8.321
#iterations: 70
currently lose_sum: 0.6568537950515747
time_elpased: 8.41
#iterations: 71
currently lose_sum: 0.6716195344924927
time_elpased: 8.29
#iterations: 72
currently lose_sum: 0.6267509460449219
time_elpased: 8.408
#iterations: 73
currently lose_sum: 0.6573145985603333
time_elpased: 8.604
#iterations: 74
currently lose_sum: 0.6028692722320557
time_elpased: 8.232
#iterations: 75
currently lose_sum: 0.5684353113174438
time_elpased: 8.396
#iterations: 76
currently lose_sum: 0.63642817735672
time_elpased: 8.524
#iterations: 77
currently lose_sum: 0.5568338632583618
time_elpased: 8.196
#iterations: 78
currently lose_sum: 0.6821953654289246
time_elpased: 8.278
#iterations: 79
currently lose_sum: 0.5886300802230835
time_elpased: 8.522
start validation test
0.623214285714
0.613949716139
0.672888888889
0.642069550466
0.622991529646
36.376
#iterations: 80
currently lose_sum: 0.5939826369285583
time_elpased: 8.232
#iterations: 81
currently lose_sum: 0.6635150909423828
time_elpased: 8.356
#iterations: 82
currently lose_sum: 0.6731261014938354
time_elpased: 8.309
#iterations: 83
currently lose_sum: 0.5485745668411255
time_elpased: 8.485
#iterations: 84
currently lose_sum: 0.5926929712295532
time_elpased: 8.364
#iterations: 85
currently lose_sum: 0.6075234413146973
time_elpased: 8.384
#iterations: 86
currently lose_sum: 0.49351468682289124
time_elpased: 8.624
#iterations: 87
currently lose_sum: 0.5472527742385864
time_elpased: 8.418
#iterations: 88
currently lose_sum: 0.5244578123092651
time_elpased: 8.639
#iterations: 89
currently lose_sum: 0.5997790694236755
time_elpased: 8.325
#iterations: 90
currently lose_sum: 0.5863863825798035
time_elpased: 8.337
#iterations: 91
currently lose_sum: 0.5882557034492493
time_elpased: 8.28
#iterations: 92
currently lose_sum: 0.7483595609664917
time_elpased: 8.427
#iterations: 93
currently lose_sum: 0.5672013163566589
time_elpased: 8.35
#iterations: 94
currently lose_sum: 0.5068331360816956
time_elpased: 8.54
#iterations: 95
currently lose_sum: 0.657845139503479
time_elpased: 8.43
#iterations: 96
currently lose_sum: 0.6259404420852661
time_elpased: 8.393
#iterations: 97
currently lose_sum: 0.6136211156845093
time_elpased: 8.173
#iterations: 98
currently lose_sum: 0.6298894882202148
time_elpased: 8.347
#iterations: 99
currently lose_sum: 0.6419881582260132
time_elpased: 8.437
start validation test
0.623660714286
0.628884826325
0.611555555556
0.620099143758
0.623714997509
36.601
#iterations: 100
currently lose_sum: 0.6157659292221069
time_elpased: 8.438
#iterations: 101
currently lose_sum: 0.5545310974121094
time_elpased: 8.395
#iterations: 102
currently lose_sum: 0.6232593059539795
time_elpased: 8.645
#iterations: 103
currently lose_sum: 0.5750883221626282
time_elpased: 8.504
#iterations: 104
currently lose_sum: 0.6108865737915039
time_elpased: 8.291
#iterations: 105
currently lose_sum: 0.5642498731613159
time_elpased: 8.257
#iterations: 106
currently lose_sum: 0.5674799680709839
time_elpased: 8.494
#iterations: 107
currently lose_sum: 0.6174448728561401
time_elpased: 8.183
#iterations: 108
currently lose_sum: 0.5780272483825684
time_elpased: 8.296
#iterations: 109
currently lose_sum: 0.5895686745643616
time_elpased: 8.42
#iterations: 110
currently lose_sum: 0.6015059947967529
time_elpased: 8.359
#iterations: 111
currently lose_sum: 0.6589956283569336
time_elpased: 8.324
#iterations: 112
currently lose_sum: 0.6019307971000671
time_elpased: 8.228
#iterations: 113
currently lose_sum: 0.6360249519348145
time_elpased: 8.206
#iterations: 114
currently lose_sum: 0.6660560369491577
time_elpased: 8.362
#iterations: 115
currently lose_sum: 0.5818111896514893
time_elpased: 8.38
#iterations: 116
currently lose_sum: 0.5940977931022644
time_elpased: 8.443
#iterations: 117
currently lose_sum: 0.6472511291503906
time_elpased: 8.485
#iterations: 118
currently lose_sum: 0.5856094360351562
time_elpased: 8.35
#iterations: 119
currently lose_sum: 0.5047451853752136
time_elpased: 8.565
start validation test
0.630357142857
0.620048504446
0.681777777778
0.649449618967
0.63012655705
36.366
#iterations: 120
currently lose_sum: 0.508323073387146
time_elpased: 8.536
#iterations: 121
currently lose_sum: 0.5555621981620789
time_elpased: 8.498
#iterations: 122
currently lose_sum: 0.6238606572151184
time_elpased: 8.622
#iterations: 123
currently lose_sum: 0.5168517827987671
time_elpased: 8.428
#iterations: 124
currently lose_sum: 0.6388479471206665
time_elpased: 8.418
#iterations: 125
currently lose_sum: 0.7062394022941589
time_elpased: 8.528
#iterations: 126
currently lose_sum: 0.5874652862548828
time_elpased: 8.271
#iterations: 127
currently lose_sum: 0.6258724927902222
time_elpased: 8.369
#iterations: 128
currently lose_sum: 0.5797756910324097
time_elpased: 8.505
#iterations: 129
currently lose_sum: 0.5808110237121582
time_elpased: 8.389
#iterations: 130
currently lose_sum: 0.5769627094268799
time_elpased: 8.285
#iterations: 131
currently lose_sum: 0.4790964126586914
time_elpased: 8.547
#iterations: 132
currently lose_sum: 0.5759209394454956
time_elpased: 8.645
#iterations: 133
currently lose_sum: 0.6093785166740417
time_elpased: 8.305
#iterations: 134
currently lose_sum: 0.6092625856399536
time_elpased: 8.278
#iterations: 135
currently lose_sum: 0.6005493402481079
time_elpased: 8.288
#iterations: 136
currently lose_sum: 0.5638256669044495
time_elpased: 8.348
#iterations: 137
currently lose_sum: 0.5792490243911743
time_elpased: 8.27
#iterations: 138
currently lose_sum: 0.5226621031761169
time_elpased: 8.472
#iterations: 139
currently lose_sum: 0.5723153352737427
time_elpased: 8.272
start validation test
0.625892857143
0.647179487179
0.560888888889
0.600952380952
0.626184354758
36.270
#iterations: 140
currently lose_sum: 0.5338634252548218
time_elpased: 8.488
#iterations: 141
currently lose_sum: 0.6413678526878357
time_elpased: 8.337
#iterations: 142
currently lose_sum: 0.5390008687973022
time_elpased: 8.351
#iterations: 143
currently lose_sum: 0.6840292811393738
time_elpased: 8.348
#iterations: 144
currently lose_sum: 0.6759687662124634
time_elpased: 8.239
#iterations: 145
currently lose_sum: 0.44266247749328613
time_elpased: 8.255
#iterations: 146
currently lose_sum: 0.6075665354728699
time_elpased: 8.257
#iterations: 147
currently lose_sum: 0.6090211272239685
time_elpased: 8.447
#iterations: 148
currently lose_sum: 0.6255886554718018
time_elpased: 8.361
#iterations: 149
currently lose_sum: 0.4938202500343323
time_elpased: 8.422
#iterations: 150
currently lose_sum: 0.539589524269104
time_elpased: 8.325
#iterations: 151
currently lose_sum: 0.5242443680763245
time_elpased: 8.375
#iterations: 152
currently lose_sum: 0.4985024333000183
time_elpased: 8.356
#iterations: 153
currently lose_sum: 0.6083602905273438
time_elpased: 8.296
#iterations: 154
currently lose_sum: 0.5760706067085266
time_elpased: 8.29
#iterations: 155
currently lose_sum: 0.510487973690033
time_elpased: 8.608
#iterations: 156
currently lose_sum: 0.700125515460968
time_elpased: 8.564
#iterations: 157
currently lose_sum: 0.5879150032997131
time_elpased: 8.345
#iterations: 158
currently lose_sum: 0.6165895462036133
time_elpased: 8.282
#iterations: 159
currently lose_sum: 0.677019476890564
time_elpased: 8.3
start validation test
0.625446428571
0.612776025237
0.690666666667
0.649394066026
0.625153961136
36.540
#iterations: 160
currently lose_sum: 0.5723227262496948
time_elpased: 8.556
#iterations: 161
currently lose_sum: 0.744198203086853
time_elpased: 8.312
#iterations: 162
currently lose_sum: 0.6373860239982605
time_elpased: 8.315
#iterations: 163
currently lose_sum: 0.6097842454910278
time_elpased: 8.358
#iterations: 164
currently lose_sum: 0.7591854333877563
time_elpased: 8.367
#iterations: 165
currently lose_sum: 0.464439332485199
time_elpased: 8.491
#iterations: 166
currently lose_sum: 0.5595899224281311
time_elpased: 8.454
#iterations: 167
currently lose_sum: 0.5038547515869141
time_elpased: 8.498
#iterations: 168
currently lose_sum: 0.5267916321754456
time_elpased: 8.43
#iterations: 169
currently lose_sum: 0.7490816116333008
time_elpased: 8.343
#iterations: 170
currently lose_sum: 0.5887934565544128
time_elpased: 8.282
#iterations: 171
currently lose_sum: 0.6849601864814758
time_elpased: 8.402
#iterations: 172
currently lose_sum: 0.535252571105957
time_elpased: 8.326
#iterations: 173
currently lose_sum: 0.6003368496894836
time_elpased: 8.522
#iterations: 174
currently lose_sum: 0.4489118456840515
time_elpased: 8.459
#iterations: 175
currently lose_sum: 0.5806307792663574
time_elpased: 8.442
#iterations: 176
currently lose_sum: 0.5775543451309204
time_elpased: 8.547
#iterations: 177
currently lose_sum: 0.5474206805229187
time_elpased: 8.17
#iterations: 178
currently lose_sum: 0.5293739438056946
time_elpased: 8.367
#iterations: 179
currently lose_sum: 0.6779033541679382
time_elpased: 8.333
start validation test
0.619642857143
0.643835616438
0.543111111111
0.589199614272
0.619986048829
36.556
#iterations: 180
currently lose_sum: 0.6259773969650269
time_elpased: 8.479
#iterations: 181
currently lose_sum: 0.4782795310020447
time_elpased: 8.388
#iterations: 182
currently lose_sum: 0.6071236729621887
time_elpased: 8.294
#iterations: 183
currently lose_sum: 0.4421113133430481
time_elpased: 8.293
#iterations: 184
currently lose_sum: 0.5981982350349426
time_elpased: 8.496
#iterations: 185
currently lose_sum: 0.5973747372627258
time_elpased: 8.392
#iterations: 186
currently lose_sum: 0.6386989951133728
time_elpased: 8.41
#iterations: 187
currently lose_sum: 0.5693698525428772
time_elpased: 8.214
#iterations: 188
currently lose_sum: 0.626754879951477
time_elpased: 8.29
#iterations: 189
currently lose_sum: 0.6047121286392212
time_elpased: 8.238
#iterations: 190
currently lose_sum: 0.5425679087638855
time_elpased: 8.359
#iterations: 191
currently lose_sum: 0.5235759615898132
time_elpased: 8.501
#iterations: 192
currently lose_sum: 0.5615624785423279
time_elpased: 8.505
#iterations: 193
currently lose_sum: 0.5645312666893005
time_elpased: 8.636
#iterations: 194
currently lose_sum: 0.4689099192619324
time_elpased: 8.385
#iterations: 195
currently lose_sum: 0.6649764776229858
time_elpased: 8.568
#iterations: 196
currently lose_sum: 0.519447922706604
time_elpased: 8.407
#iterations: 197
currently lose_sum: 0.47563663125038147
time_elpased: 8.124
#iterations: 198
currently lose_sum: 0.7585642337799072
time_elpased: 8.171
#iterations: 199
currently lose_sum: 0.5749834179878235
time_elpased: 8.393
start validation test
0.620535714286
0.610976594027
0.672888888889
0.640439932318
0.620300946687
36.940
#iterations: 200
currently lose_sum: 0.6137391328811646
time_elpased: 8.355
#iterations: 201
currently lose_sum: 0.5857730507850647
time_elpased: 8.446
#iterations: 202
currently lose_sum: 0.593218207359314
time_elpased: 8.426
#iterations: 203
currently lose_sum: 0.5499417185783386
time_elpased: 8.578
#iterations: 204
currently lose_sum: 0.4797329902648926
time_elpased: 8.569
#iterations: 205
currently lose_sum: 0.5806646347045898
time_elpased: 8.457
#iterations: 206
currently lose_sum: 0.6451384425163269
time_elpased: 8.296
#iterations: 207
currently lose_sum: 0.6101895570755005
time_elpased: 8.389
#iterations: 208
currently lose_sum: 0.4826587736606598
time_elpased: 8.52
#iterations: 209
currently lose_sum: 0.6412078142166138
time_elpased: 8.425
#iterations: 210
currently lose_sum: 0.6193443536758423
time_elpased: 8.338
#iterations: 211
currently lose_sum: 0.5372625589370728
time_elpased: 8.316
#iterations: 212
currently lose_sum: 0.5368350744247437
time_elpased: 8.375
#iterations: 213
currently lose_sum: 0.5907620787620544
time_elpased: 8.482
#iterations: 214
currently lose_sum: 0.622612476348877
time_elpased: 8.511
#iterations: 215
currently lose_sum: 0.5097103118896484
time_elpased: 8.375
#iterations: 216
currently lose_sum: 0.5194661021232605
time_elpased: 8.348
#iterations: 217
currently lose_sum: 0.48817044496536255
time_elpased: 8.222
#iterations: 218
currently lose_sum: 0.5497850179672241
time_elpased: 8.334
#iterations: 219
currently lose_sum: 0.6653107404708862
time_elpased: 8.338
start validation test
0.630803571429
0.611194029851
0.728
0.664503042596
0.630367713004
37.118
#iterations: 220
currently lose_sum: 0.7244086861610413
time_elpased: 8.529
#iterations: 221
currently lose_sum: 0.5712769627571106
time_elpased: 8.415
#iterations: 222
currently lose_sum: 0.5522433519363403
time_elpased: 8.314
#iterations: 223
currently lose_sum: 0.6649279594421387
time_elpased: 8.36
#iterations: 224
currently lose_sum: 0.627072811126709
time_elpased: 8.358
#iterations: 225
currently lose_sum: 0.5874464511871338
time_elpased: 8.356
#iterations: 226
currently lose_sum: 0.6190405488014221
time_elpased: 8.482
#iterations: 227
currently lose_sum: 0.5054524540901184
time_elpased: 8.56
#iterations: 228
currently lose_sum: 0.6047739386558533
time_elpased: 8.544
#iterations: 229
currently lose_sum: 0.5551079511642456
time_elpased: 8.3
#iterations: 230
currently lose_sum: 0.5664420127868652
time_elpased: 8.529
#iterations: 231
currently lose_sum: 0.49618348479270935
time_elpased: 8.374
#iterations: 232
currently lose_sum: 0.6028041243553162
time_elpased: 8.338
#iterations: 233
currently lose_sum: 0.5516684651374817
time_elpased: 8.482
#iterations: 234
currently lose_sum: 0.5769578218460083
time_elpased: 8.385
#iterations: 235
currently lose_sum: 0.6679679751396179
time_elpased: 8.296
#iterations: 236
currently lose_sum: 0.5232356786727905
time_elpased: 8.457
#iterations: 237
currently lose_sum: 0.6059940457344055
time_elpased: 8.394
#iterations: 238
currently lose_sum: 0.6090084910392761
time_elpased: 8.27
#iterations: 239
currently lose_sum: 0.7016254663467407
time_elpased: 8.424
start validation test
0.626339285714
0.622448979592
0.650666666667
0.636245110821
0.62623019432
36.784
#iterations: 240
currently lose_sum: 0.5520039200782776
time_elpased: 8.367
#iterations: 241
currently lose_sum: 0.5714966058731079
time_elpased: 8.313
#iterations: 242
currently lose_sum: 0.6755591630935669
time_elpased: 8.464
#iterations: 243
currently lose_sum: 0.5117942094802856
time_elpased: 8.436
#iterations: 244
currently lose_sum: 0.5599592924118042
time_elpased: 8.478
#iterations: 245
currently lose_sum: 0.5826416015625
time_elpased: 8.273
#iterations: 246
currently lose_sum: 0.4675063490867615
time_elpased: 8.218
#iterations: 247
currently lose_sum: 0.7252213358879089
time_elpased: 8.458
#iterations: 248
currently lose_sum: 0.618323564529419
time_elpased: 8.447
#iterations: 249
currently lose_sum: 0.5751171112060547
time_elpased: 8.394
#iterations: 250
currently lose_sum: 0.656624436378479
time_elpased: 8.442
#iterations: 251
currently lose_sum: 0.5795772075653076
time_elpased: 8.45
#iterations: 252
currently lose_sum: 0.5141814947128296
time_elpased: 8.461
#iterations: 253
currently lose_sum: 0.5097881555557251
time_elpased: 8.329
#iterations: 254
currently lose_sum: 0.5157643556594849
time_elpased: 8.442
#iterations: 255
currently lose_sum: 0.5589423179626465
time_elpased: 8.472
#iterations: 256
currently lose_sum: 0.46675771474838257
time_elpased: 8.555
#iterations: 257
currently lose_sum: 0.6083053350448608
time_elpased: 8.492
#iterations: 258
currently lose_sum: 0.5728417634963989
time_elpased: 8.205
#iterations: 259
currently lose_sum: 0.652336835861206
time_elpased: 8.26
start validation test
0.621875
0.641547861507
0.56
0.598006644518
0.622152466368
37.075
#iterations: 260
currently lose_sum: 0.5527213215827942
time_elpased: 8.305
#iterations: 261
currently lose_sum: 0.5424247980117798
time_elpased: 8.382
#iterations: 262
currently lose_sum: 0.6009796857833862
time_elpased: 8.374
#iterations: 263
currently lose_sum: 0.6356017589569092
time_elpased: 8.488
#iterations: 264
currently lose_sum: 0.4883291721343994
time_elpased: 8.255
#iterations: 265
currently lose_sum: 0.5187419652938843
time_elpased: 8.264
#iterations: 266
currently lose_sum: 0.5679699182510376
time_elpased: 8.523
#iterations: 267
currently lose_sum: 0.5127031207084656
time_elpased: 8.622
#iterations: 268
currently lose_sum: 0.47779178619384766
time_elpased: 8.339
#iterations: 269
currently lose_sum: 0.622706949710846
time_elpased: 8.357
#iterations: 270
currently lose_sum: 0.5818148255348206
time_elpased: 8.55
#iterations: 271
currently lose_sum: 0.6367942690849304
time_elpased: 8.332
#iterations: 272
currently lose_sum: 0.5891942977905273
time_elpased: 8.441
#iterations: 273
currently lose_sum: 0.6103464365005493
time_elpased: 8.36
#iterations: 274
currently lose_sum: 0.6851269006729126
time_elpased: 8.25
#iterations: 275
currently lose_sum: 0.661706268787384
time_elpased: 8.455
#iterations: 276
currently lose_sum: 0.6240339279174805
time_elpased: 8.447
#iterations: 277
currently lose_sum: 0.6378108263015747
time_elpased: 8.679
#iterations: 278
currently lose_sum: 0.492310106754303
time_elpased: 8.319
#iterations: 279
currently lose_sum: 0.5055519938468933
time_elpased: 8.59
start validation test
0.620982142857
0.611831442464
0.671111111111
0.640101738025
0.620757349278
37.082
#iterations: 280
currently lose_sum: 0.6797972917556763
time_elpased: 8.331
#iterations: 281
currently lose_sum: 0.5737876892089844
time_elpased: 8.39
#iterations: 282
currently lose_sum: 0.5532297492027283
time_elpased: 8.242
#iterations: 283
currently lose_sum: 0.5837342739105225
time_elpased: 8.476
#iterations: 284
currently lose_sum: 0.550136923789978
time_elpased: 8.223
#iterations: 285
currently lose_sum: 0.5764885544776917
time_elpased: 8.287
#iterations: 286
currently lose_sum: 0.5683560371398926
time_elpased: 8.346
#iterations: 287
currently lose_sum: 0.6767975687980652
time_elpased: 8.313
#iterations: 288
currently lose_sum: 0.6823235750198364
time_elpased: 8.44
#iterations: 289
currently lose_sum: 0.49899864196777344
time_elpased: 8.233
#iterations: 290
currently lose_sum: 0.6947423815727234
time_elpased: 8.264
#iterations: 291
currently lose_sum: 0.5459007024765015
time_elpased: 8.322
#iterations: 292
currently lose_sum: 0.5303686261177063
time_elpased: 8.332
#iterations: 293
currently lose_sum: 0.5667023658752441
time_elpased: 8.36
#iterations: 294
currently lose_sum: 0.7004522681236267
time_elpased: 8.43
#iterations: 295
currently lose_sum: 0.6174285411834717
time_elpased: 8.506
#iterations: 296
currently lose_sum: 0.6511751413345337
time_elpased: 8.662
#iterations: 297
currently lose_sum: 0.6054462790489197
time_elpased: 8.426
#iterations: 298
currently lose_sum: 0.5432268977165222
time_elpased: 8.213
#iterations: 299
currently lose_sum: 0.6326807737350464
time_elpased: 8.315
start validation test
0.621428571429
0.624887285843
0.616
0.620411817368
0.621452914798
37.495
#iterations: 300
currently lose_sum: 0.6374292373657227
time_elpased: 8.449
#iterations: 301
currently lose_sum: 0.578835129737854
time_elpased: 8.338
#iterations: 302
currently lose_sum: 0.6244927048683167
time_elpased: 8.381
#iterations: 303
currently lose_sum: 0.5215269327163696
time_elpased: 8.599
#iterations: 304
currently lose_sum: 0.5629116296768188
time_elpased: 8.567
#iterations: 305
currently lose_sum: 0.5384334325790405
time_elpased: 8.475
#iterations: 306
currently lose_sum: 0.5164099931716919
time_elpased: 8.643
#iterations: 307
currently lose_sum: 0.5584110021591187
time_elpased: 8.429
#iterations: 308
currently lose_sum: 0.6395336389541626
time_elpased: 8.381
#iterations: 309
currently lose_sum: 0.5774745941162109
time_elpased: 8.501
#iterations: 310
currently lose_sum: 0.46589961647987366
time_elpased: 8.328
#iterations: 311
currently lose_sum: 0.5550894737243652
time_elpased: 8.583
#iterations: 312
currently lose_sum: 0.6331580281257629
time_elpased: 8.702
#iterations: 313
currently lose_sum: 0.6702960133552551
time_elpased: 8.636
#iterations: 314
currently lose_sum: 0.5626224279403687
time_elpased: 8.469
#iterations: 315
currently lose_sum: 0.5015262365341187
time_elpased: 8.485
#iterations: 316
currently lose_sum: 0.6691397428512573
time_elpased: 8.41
#iterations: 317
currently lose_sum: 0.6800936460494995
time_elpased: 8.278
#iterations: 318
currently lose_sum: 0.5740925073623657
time_elpased: 8.346
#iterations: 319
currently lose_sum: 0.6184749603271484
time_elpased: 8.435
start validation test
0.628125
0.613707165109
0.700444444444
0.654213366542
0.627800697559
37.240
#iterations: 320
currently lose_sum: 0.6172012090682983
time_elpased: 8.359
#iterations: 321
currently lose_sum: 0.5647917985916138
time_elpased: 8.517
#iterations: 322
currently lose_sum: 0.5691289901733398
time_elpased: 8.562
#iterations: 323
currently lose_sum: 0.5604329109191895
time_elpased: 8.374
#iterations: 324
currently lose_sum: 0.5414484739303589
time_elpased: 8.361
#iterations: 325
currently lose_sum: 0.6971532702445984
time_elpased: 8.298
#iterations: 326
currently lose_sum: 0.5790656208992004
time_elpased: 8.507
#iterations: 327
currently lose_sum: 0.5540550351142883
time_elpased: 8.289
#iterations: 328
currently lose_sum: 0.4741758406162262
time_elpased: 8.419
#iterations: 329
currently lose_sum: 0.5944308042526245
time_elpased: 8.447
#iterations: 330
currently lose_sum: 0.4985903799533844
time_elpased: 8.411
#iterations: 331
currently lose_sum: 0.623420238494873
time_elpased: 8.275
#iterations: 332
currently lose_sum: 0.6465444564819336
time_elpased: 8.344
#iterations: 333
currently lose_sum: 0.5918126106262207
time_elpased: 8.493
#iterations: 334
currently lose_sum: 0.6556716561317444
time_elpased: 8.43
#iterations: 335
currently lose_sum: 0.5967070460319519
time_elpased: 8.366
#iterations: 336
currently lose_sum: 0.6253871917724609
time_elpased: 8.25
#iterations: 337
currently lose_sum: 0.5262569189071655
time_elpased: 8.489
#iterations: 338
currently lose_sum: 0.643790066242218
time_elpased: 8.099
#iterations: 339
currently lose_sum: 0.6287631392478943
time_elpased: 8.307
start validation test
0.629910714286
0.613323124043
0.712
0.658988070753
0.629542600897
37.169
#iterations: 340
currently lose_sum: 0.49338680505752563
time_elpased: 8.271
#iterations: 341
currently lose_sum: 0.6783615946769714
time_elpased: 8.376
#iterations: 342
currently lose_sum: 0.6228711009025574
time_elpased: 8.264
#iterations: 343
currently lose_sum: 0.46216869354248047
time_elpased: 8.261
#iterations: 344
currently lose_sum: 0.5507324934005737
time_elpased: 8.377
#iterations: 345
currently lose_sum: 0.5415850877761841
time_elpased: 8.319
#iterations: 346
currently lose_sum: 0.6440321207046509
time_elpased: 8.637
#iterations: 347
currently lose_sum: 0.5773868560791016
time_elpased: 8.264
#iterations: 348
currently lose_sum: 0.5472530126571655
time_elpased: 8.423
#iterations: 349
currently lose_sum: 0.5974686145782471
time_elpased: 8.358
#iterations: 350
currently lose_sum: 0.49164533615112305
time_elpased: 8.521
#iterations: 351
currently lose_sum: 0.5698772668838501
time_elpased: 8.244
#iterations: 352
currently lose_sum: 0.636909544467926
time_elpased: 8.275
#iterations: 353
currently lose_sum: 0.5254257917404175
time_elpased: 8.486
#iterations: 354
currently lose_sum: 0.5477627515792847
time_elpased: 8.608
#iterations: 355
currently lose_sum: 0.6196455955505371
time_elpased: 8.306
#iterations: 356
currently lose_sum: 0.6619345545768738
time_elpased: 8.461
#iterations: 357
currently lose_sum: 0.5359088778495789
time_elpased: 8.322
#iterations: 358
currently lose_sum: 0.5233734846115112
time_elpased: 8.405
#iterations: 359
currently lose_sum: 0.5881756544113159
time_elpased: 8.552
start validation test
0.630803571429
0.629116117851
0.645333333333
0.637121544537
0.630738415546
37.275
#iterations: 360
currently lose_sum: 0.47381335496902466
time_elpased: 8.42
#iterations: 361
currently lose_sum: 0.5242030024528503
time_elpased: 8.502
#iterations: 362
currently lose_sum: 0.5232524871826172
time_elpased: 8.493
#iterations: 363
currently lose_sum: 0.5892735719680786
time_elpased: 8.386
#iterations: 364
currently lose_sum: 0.5066137313842773
time_elpased: 8.307
#iterations: 365
currently lose_sum: 0.6188544034957886
time_elpased: 8.234
#iterations: 366
currently lose_sum: 0.5552339553833008
time_elpased: 8.324
#iterations: 367
currently lose_sum: 0.6402495503425598
time_elpased: 8.517
#iterations: 368
currently lose_sum: 0.5572835206985474
time_elpased: 8.366
#iterations: 369
currently lose_sum: 0.6537894010543823
time_elpased: 8.204
#iterations: 370
currently lose_sum: 0.553318977355957
time_elpased: 8.238
#iterations: 371
currently lose_sum: 0.5924949645996094
time_elpased: 8.385
#iterations: 372
currently lose_sum: 0.606772243976593
time_elpased: 8.472
#iterations: 373
currently lose_sum: 0.5878682136535645
time_elpased: 8.462
#iterations: 374
currently lose_sum: 0.5860732793807983
time_elpased: 8.384
#iterations: 375
currently lose_sum: 0.5942708849906921
time_elpased: 8.559
#iterations: 376
currently lose_sum: 0.6052770614624023
time_elpased: 8.661
#iterations: 377
currently lose_sum: 0.6456960439682007
time_elpased: 8.401
#iterations: 378
currently lose_sum: 0.6627538800239563
time_elpased: 8.454
#iterations: 379
currently lose_sum: 0.6237791776657104
time_elpased: 8.49
start validation test
0.628571428571
0.629074889868
0.634666666667
0.63185840708
0.628544095665
37.441
#iterations: 380
currently lose_sum: 0.4541040360927582
time_elpased: 8.332
#iterations: 381
currently lose_sum: 0.6218768954277039
time_elpased: 8.49
#iterations: 382
currently lose_sum: 0.5161011219024658
time_elpased: 8.688
#iterations: 383
currently lose_sum: 0.5828565359115601
time_elpased: 8.479
#iterations: 384
currently lose_sum: 0.5213524103164673
time_elpased: 8.343
#iterations: 385
currently lose_sum: 0.48802947998046875
time_elpased: 8.572
#iterations: 386
currently lose_sum: 0.6100559234619141
time_elpased: 8.271
#iterations: 387
currently lose_sum: 0.5634833574295044
time_elpased: 8.337
#iterations: 388
currently lose_sum: 0.6103211641311646
time_elpased: 8.473
#iterations: 389
currently lose_sum: 0.6098397970199585
time_elpased: 8.346
#iterations: 390
currently lose_sum: 0.6644107699394226
time_elpased: 8.547
#iterations: 391
currently lose_sum: 0.4903199076652527
time_elpased: 8.295
#iterations: 392
currently lose_sum: 0.5817816853523254
time_elpased: 8.278
#iterations: 393
currently lose_sum: 0.5297044515609741
time_elpased: 8.461
#iterations: 394
currently lose_sum: 0.5691572427749634
time_elpased: 8.499
#iterations: 395
currently lose_sum: 0.6115283370018005
time_elpased: 8.376
#iterations: 396
currently lose_sum: 0.6154508590698242
time_elpased: 8.684
#iterations: 397
currently lose_sum: 0.6172364950180054
time_elpased: 8.333
#iterations: 398
currently lose_sum: 0.5577539801597595
time_elpased: 8.188
#iterations: 399
currently lose_sum: 0.5110191702842712
time_elpased: 8.329
start validation test
0.625
0.6296633303
0.615111111111
0.622302158273
0.625044344793
37.653
#iterations: 400
currently lose_sum: 0.5548033118247986
time_elpased: 8.352
#iterations: 401
currently lose_sum: 0.5555242300033569
time_elpased: 8.545
#iterations: 402
currently lose_sum: 0.5926936864852905
time_elpased: 8.438
#iterations: 403
currently lose_sum: 0.582201361656189
time_elpased: 8.428
#iterations: 404
currently lose_sum: 0.4783431887626648
time_elpased: 8.546
#iterations: 405
currently lose_sum: 0.5720474123954773
time_elpased: 8.503
#iterations: 406
currently lose_sum: 0.6252384185791016
time_elpased: 8.645
#iterations: 407
currently lose_sum: 0.486245334148407
time_elpased: 8.616
#iterations: 408
currently lose_sum: 0.6077743768692017
time_elpased: 8.307
#iterations: 409
currently lose_sum: 0.5731741189956665
time_elpased: 8.293
#iterations: 410
currently lose_sum: 0.6081733703613281
time_elpased: 8.331
#iterations: 411
currently lose_sum: 0.6185256242752075
time_elpased: 8.384
#iterations: 412
currently lose_sum: 0.4749727249145508
time_elpased: 8.422
#iterations: 413
currently lose_sum: 0.5238665342330933
time_elpased: 8.506
#iterations: 414
currently lose_sum: 0.6178597807884216
time_elpased: 8.49
#iterations: 415
currently lose_sum: 0.5669506788253784
time_elpased: 8.394
#iterations: 416
currently lose_sum: 0.5496038198471069
time_elpased: 8.642
#iterations: 417
currently lose_sum: 0.5199383497238159
time_elpased: 8.427
#iterations: 418
currently lose_sum: 0.6217848062515259
time_elpased: 8.115
#iterations: 419
currently lose_sum: 0.6470217704772949
time_elpased: 8.42
start validation test
0.628571428571
0.617670682731
0.683555555556
0.648945147679
0.62832486298
37.615
#iterations: 420
currently lose_sum: 0.5162686109542847
time_elpased: 8.343
#iterations: 421
currently lose_sum: 0.5349097847938538
time_elpased: 8.338
#iterations: 422
currently lose_sum: 0.5875503420829773
time_elpased: 8.381
#iterations: 423
currently lose_sum: 0.5633913278579712
time_elpased: 8.32
#iterations: 424
currently lose_sum: 0.5722867250442505
time_elpased: 8.243
#iterations: 425
currently lose_sum: 0.5463765263557434
time_elpased: 8.335
#iterations: 426
currently lose_sum: 0.525631308555603
time_elpased: 8.444
#iterations: 427
currently lose_sum: 0.6077698469161987
time_elpased: 8.317
#iterations: 428
currently lose_sum: 0.6326983571052551
time_elpased: 8.288
#iterations: 429
currently lose_sum: 0.640558123588562
time_elpased: 8.643
#iterations: 430
currently lose_sum: 0.7059992551803589
time_elpased: 8.503
#iterations: 431
currently lose_sum: 0.626457691192627
time_elpased: 8.48
#iterations: 432
currently lose_sum: 0.551994800567627
time_elpased: 8.404
#iterations: 433
currently lose_sum: 0.5414896011352539
time_elpased: 8.562
#iterations: 434
currently lose_sum: 0.42664796113967896
time_elpased: 8.493
#iterations: 435
currently lose_sum: 0.6401879787445068
time_elpased: 8.408
#iterations: 436
currently lose_sum: 0.7209396362304688
time_elpased: 8.664
#iterations: 437
currently lose_sum: 0.6122677326202393
time_elpased: 8.433
#iterations: 438
currently lose_sum: 0.6281028389930725
time_elpased: 8.329
#iterations: 439
currently lose_sum: 0.6286258697509766
time_elpased: 8.455
start validation test
0.627678571429
0.633854645814
0.612444444444
0.622965641953
0.627746885899
37.571
#iterations: 440
currently lose_sum: 0.6260523796081543
time_elpased: 8.555
#iterations: 441
currently lose_sum: 0.5635619163513184
time_elpased: 8.373
#iterations: 442
currently lose_sum: 0.5038688778877258
time_elpased: 8.591
#iterations: 443
currently lose_sum: 0.5100637674331665
time_elpased: 8.471
#iterations: 444
currently lose_sum: 0.5078649520874023
time_elpased: 8.672
#iterations: 445
currently lose_sum: 0.6802963018417358
time_elpased: 8.467
#iterations: 446
currently lose_sum: 0.6220507621765137
time_elpased: 8.555
#iterations: 447
currently lose_sum: 0.5673044323921204
time_elpased: 8.382
#iterations: 448
currently lose_sum: 0.5805565118789673
time_elpased: 8.499
#iterations: 449
currently lose_sum: 0.5317596197128296
time_elpased: 8.492
#iterations: 450
currently lose_sum: 0.649116039276123
time_elpased: 8.418
#iterations: 451
currently lose_sum: 0.5724191069602966
time_elpased: 8.433
#iterations: 452
currently lose_sum: 0.562116801738739
time_elpased: 8.657
#iterations: 453
currently lose_sum: 0.5989137887954712
time_elpased: 8.468
#iterations: 454
currently lose_sum: 0.5942685604095459
time_elpased: 8.382
#iterations: 455
currently lose_sum: 0.6684476733207703
time_elpased: 8.386
#iterations: 456
currently lose_sum: 0.5153782963752747
time_elpased: 8.457
#iterations: 457
currently lose_sum: 0.6075087785720825
time_elpased: 8.35
#iterations: 458
currently lose_sum: 0.49610060453414917
time_elpased: 8.4
#iterations: 459
currently lose_sum: 0.609013557434082
time_elpased: 8.543
start validation test
0.63125
0.618368962787
0.694222222222
0.654103852596
0.630967613353
37.459
#iterations: 460
currently lose_sum: 0.5974668264389038
time_elpased: 8.43
#iterations: 461
currently lose_sum: 0.4420689642429352
time_elpased: 8.39
#iterations: 462
currently lose_sum: 0.5430222153663635
time_elpased: 8.358
#iterations: 463
currently lose_sum: 0.647955060005188
time_elpased: 8.566
#iterations: 464
currently lose_sum: 0.4113537669181824
time_elpased: 8.555
#iterations: 465
currently lose_sum: 0.7174771428108215
time_elpased: 8.349
#iterations: 466
currently lose_sum: 0.5759721398353577
time_elpased: 8.431
#iterations: 467
currently lose_sum: 0.5976280570030212
time_elpased: 8.313
#iterations: 468
currently lose_sum: 0.6641523241996765
time_elpased: 8.307
#iterations: 469
currently lose_sum: 0.617213249206543
time_elpased: 8.417
#iterations: 470
currently lose_sum: 0.5734413862228394
time_elpased: 8.521
#iterations: 471
currently lose_sum: 0.6348131895065308
time_elpased: 8.588
#iterations: 472
currently lose_sum: 0.5828743577003479
time_elpased: 8.532
#iterations: 473
currently lose_sum: 0.6775823831558228
time_elpased: 8.326
#iterations: 474
currently lose_sum: 0.7006003260612488
time_elpased: 8.4
#iterations: 475
currently lose_sum: 0.49133986234664917
time_elpased: 8.331
#iterations: 476
currently lose_sum: 0.5871325731277466
time_elpased: 8.432
#iterations: 477
currently lose_sum: 0.5920383334159851
time_elpased: 8.339
#iterations: 478
currently lose_sum: 0.537758469581604
time_elpased: 8.487
#iterations: 479
currently lose_sum: 0.5160629153251648
time_elpased: 8.313
start validation test
0.632589285714
0.619273301738
0.696888888889
0.655792555416
0.632300946687
37.683
#iterations: 480
currently lose_sum: 0.6049600839614868
time_elpased: 8.666
#iterations: 481
currently lose_sum: 0.5280603170394897
time_elpased: 8.49
#iterations: 482
currently lose_sum: 0.5585044026374817
time_elpased: 8.303
#iterations: 483
currently lose_sum: 0.557956874370575
time_elpased: 8.249
#iterations: 484
currently lose_sum: 0.40710020065307617
time_elpased: 8.485
#iterations: 485
currently lose_sum: 0.5386981964111328
time_elpased: 8.49
#iterations: 486
currently lose_sum: 0.5830795168876648
time_elpased: 8.422
#iterations: 487
currently lose_sum: 0.5935547947883606
time_elpased: 8.368
#iterations: 488
currently lose_sum: 0.6158539056777954
time_elpased: 8.327
#iterations: 489
currently lose_sum: 0.6238662600517273
time_elpased: 8.516
#iterations: 490
currently lose_sum: 0.6144411563873291
time_elpased: 8.383
#iterations: 491
currently lose_sum: 0.4595332145690918
time_elpased: 8.67
#iterations: 492
currently lose_sum: 0.5858170390129089
time_elpased: 8.419
#iterations: 493
currently lose_sum: 0.6197687983512878
time_elpased: 8.302
#iterations: 494
currently lose_sum: 0.608360767364502
time_elpased: 8.424
#iterations: 495
currently lose_sum: 0.6113852262496948
time_elpased: 8.299
#iterations: 496
currently lose_sum: 0.6191437840461731
time_elpased: 8.324
#iterations: 497
currently lose_sum: 0.5879660844802856
time_elpased: 8.302
#iterations: 498
currently lose_sum: 0.5833098292350769
time_elpased: 8.361
#iterations: 499
currently lose_sum: 0.5755629539489746
time_elpased: 8.274
start validation test
0.625
0.620050547599
0.654222222222
0.636678200692
0.624868958645
37.641
#iterations: 500
currently lose_sum: 0.4978342056274414
time_elpased: 8.31
#iterations: 501
currently lose_sum: 0.6185896992683411
time_elpased: 8.562
#iterations: 502
currently lose_sum: 0.6147484183311462
time_elpased: 8.384
#iterations: 503
currently lose_sum: 0.508439302444458
time_elpased: 8.409
#iterations: 504
currently lose_sum: 0.49085116386413574
time_elpased: 8.295
#iterations: 505
currently lose_sum: 0.6801584959030151
time_elpased: 8.546
#iterations: 506
currently lose_sum: 0.4765365719795227
time_elpased: 8.401
#iterations: 507
currently lose_sum: 0.5894034504890442
time_elpased: 8.404
#iterations: 508
currently lose_sum: 0.5619300603866577
time_elpased: 8.583
#iterations: 509
currently lose_sum: 0.5406712293624878
time_elpased: 8.631
#iterations: 510
currently lose_sum: 0.6533159017562866
time_elpased: 8.322
#iterations: 511
currently lose_sum: 0.5939255952835083
time_elpased: 8.55
#iterations: 512
currently lose_sum: 0.7524125576019287
time_elpased: 8.474
#iterations: 513
currently lose_sum: 0.6401973366737366
time_elpased: 8.675
#iterations: 514
currently lose_sum: 0.5766624212265015
time_elpased: 8.456
#iterations: 515
currently lose_sum: 0.5849341154098511
time_elpased: 8.291
#iterations: 516
currently lose_sum: 0.6310540437698364
time_elpased: 8.55
#iterations: 517
currently lose_sum: 0.6234243512153625
time_elpased: 8.574
#iterations: 518
currently lose_sum: 0.5451531410217285
time_elpased: 8.452
#iterations: 519
currently lose_sum: 0.49908217787742615
time_elpased: 8.47
start validation test
0.631696428571
0.630890052356
0.642666666667
0.636723910172
0.631647234679
37.709
#iterations: 520
currently lose_sum: 0.6229504942893982
time_elpased: 8.638
#iterations: 521
currently lose_sum: 0.6293994784355164
time_elpased: 8.573
#iterations: 522
currently lose_sum: 0.6289111375808716
time_elpased: 8.441
#iterations: 523
currently lose_sum: 0.6557022333145142
time_elpased: 8.437
#iterations: 524
currently lose_sum: 0.5712436437606812
time_elpased: 8.351
#iterations: 525
currently lose_sum: 0.6219400763511658
time_elpased: 8.359
#iterations: 526
currently lose_sum: 0.7097871899604797
time_elpased: 8.422
#iterations: 527
currently lose_sum: 0.6123793125152588
time_elpased: 8.608
#iterations: 528
currently lose_sum: 0.6178520321846008
time_elpased: 8.425
#iterations: 529
currently lose_sum: 0.6333038210868835
time_elpased: 8.636
#iterations: 530
currently lose_sum: 0.5963020324707031
time_elpased: 8.456
#iterations: 531
currently lose_sum: 0.5496556758880615
time_elpased: 8.571
#iterations: 532
currently lose_sum: 0.6268397569656372
time_elpased: 8.518
#iterations: 533
currently lose_sum: 0.6080247163772583
time_elpased: 8.451
#iterations: 534
currently lose_sum: 0.6745372414588928
time_elpased: 8.583
#iterations: 535
currently lose_sum: 0.5039159059524536
time_elpased: 8.462
#iterations: 536
currently lose_sum: 0.6119993329048157
time_elpased: 8.532
#iterations: 537
currently lose_sum: 0.5858867764472961
time_elpased: 8.55
#iterations: 538
currently lose_sum: 0.6184276342391968
time_elpased: 8.433
#iterations: 539
currently lose_sum: 0.5185301303863525
time_elpased: 8.459
start validation test
0.630803571429
0.616224648986
0.702222222222
0.656418778563
0.630483308421
38.042
#iterations: 540
currently lose_sum: 0.5971103310585022
time_elpased: 8.598
#iterations: 541
currently lose_sum: 0.6160672903060913
time_elpased: 8.488
#iterations: 542
currently lose_sum: 0.5959649085998535
time_elpased: 8.533
#iterations: 543
currently lose_sum: 0.5749748945236206
time_elpased: 8.31
#iterations: 544
currently lose_sum: 0.5512511134147644
time_elpased: 8.507
#iterations: 545
currently lose_sum: 0.6371917724609375
time_elpased: 8.61
#iterations: 546
currently lose_sum: 0.5623342990875244
time_elpased: 8.309
#iterations: 547
currently lose_sum: 0.6366797685623169
time_elpased: 8.583
#iterations: 548
currently lose_sum: 0.5500131845474243
time_elpased: 8.561
#iterations: 549
currently lose_sum: 0.5638862252235413
time_elpased: 8.524
#iterations: 550
currently lose_sum: 0.5137894153594971
time_elpased: 8.447
#iterations: 551
currently lose_sum: 0.5378300547599792
time_elpased: 8.451
#iterations: 552
currently lose_sum: 0.6320947408676147
time_elpased: 8.674
#iterations: 553
currently lose_sum: 0.5990161895751953
time_elpased: 8.508
#iterations: 554
currently lose_sum: 0.5859498977661133
time_elpased: 8.473
#iterations: 555
currently lose_sum: 0.6819061040878296
time_elpased: 8.528
#iterations: 556
currently lose_sum: 0.5134968757629395
time_elpased: 8.541
#iterations: 557
currently lose_sum: 0.5188329815864563
time_elpased: 8.655
#iterations: 558
currently lose_sum: 0.5416424870491028
time_elpased: 8.248
#iterations: 559
currently lose_sum: 0.5354694724082947
time_elpased: 8.409
start validation test
0.631696428571
0.632275132275
0.637333333333
0.634794156707
0.631671150972
37.800
#iterations: 560
currently lose_sum: 0.5864861607551575
time_elpased: 8.593
#iterations: 561
currently lose_sum: 0.5000947117805481
time_elpased: 8.441
#iterations: 562
currently lose_sum: 0.5675193071365356
time_elpased: 8.429
#iterations: 563
currently lose_sum: 0.6941297650337219
time_elpased: 8.328
#iterations: 564
currently lose_sum: 0.5665712356567383
time_elpased: 8.337
#iterations: 565
currently lose_sum: 0.602098822593689
time_elpased: 8.508
#iterations: 566
currently lose_sum: 0.5979450345039368
time_elpased: 8.543
#iterations: 567
currently lose_sum: 0.5342960357666016
time_elpased: 8.423
#iterations: 568
currently lose_sum: 0.5838412046432495
time_elpased: 8.583
#iterations: 569
currently lose_sum: 0.5800766348838806
time_elpased: 8.481
#iterations: 570
currently lose_sum: 0.5454503297805786
time_elpased: 8.359
#iterations: 571
currently lose_sum: 0.5789618492126465
time_elpased: 8.264
#iterations: 572
currently lose_sum: 0.6383215188980103
time_elpased: 8.419
#iterations: 573
currently lose_sum: 0.5979099273681641
time_elpased: 8.509
#iterations: 574
currently lose_sum: 0.5827335119247437
time_elpased: 8.435
#iterations: 575
currently lose_sum: 0.6590107083320618
time_elpased: 8.515
#iterations: 576
currently lose_sum: 0.5040605068206787
time_elpased: 8.503
#iterations: 577
currently lose_sum: 0.48291149735450745
time_elpased: 8.503
#iterations: 578
currently lose_sum: 0.5955669283866882
time_elpased: 8.407
#iterations: 579
currently lose_sum: 0.6016014218330383
time_elpased: 8.541
start validation test
0.623660714286
0.627949183303
0.615111111111
0.621463852717
0.623699053313
38.175
#iterations: 580
currently lose_sum: 0.521117091178894
time_elpased: 8.48
#iterations: 581
currently lose_sum: 0.5585435628890991
time_elpased: 8.46
#iterations: 582
currently lose_sum: 0.5269020199775696
time_elpased: 8.54
#iterations: 583
currently lose_sum: 0.47963517904281616
time_elpased: 8.614
#iterations: 584
currently lose_sum: 0.4787629246711731
time_elpased: 8.585
#iterations: 585
currently lose_sum: 0.5427349805831909
time_elpased: 8.641
#iterations: 586
currently lose_sum: 0.5286082029342651
time_elpased: 8.562
#iterations: 587
currently lose_sum: 0.6126148104667664
time_elpased: 8.416
#iterations: 588
currently lose_sum: 0.610246479511261
time_elpased: 8.563
#iterations: 589
currently lose_sum: 0.5648062825202942
time_elpased: 8.293
#iterations: 590
currently lose_sum: 0.6030609011650085
time_elpased: 8.275
#iterations: 591
currently lose_sum: 0.6802681088447571
time_elpased: 8.581
#iterations: 592
currently lose_sum: 0.6056076884269714
time_elpased: 8.546
#iterations: 593
currently lose_sum: 0.5928046107292175
time_elpased: 8.591
#iterations: 594
currently lose_sum: 0.5110775232315063
time_elpased: 8.37
#iterations: 595
currently lose_sum: 0.6519427299499512
time_elpased: 8.364
#iterations: 596
currently lose_sum: 0.6469805836677551
time_elpased: 8.544
#iterations: 597
currently lose_sum: 0.6377640962600708
time_elpased: 8.351
#iterations: 598
currently lose_sum: 0.6162812113761902
time_elpased: 8.047
#iterations: 599
currently lose_sum: 0.5821465253829956
time_elpased: 6.92
start validation test
0.623660714286
0.615008156607
0.670222222222
0.641429179073
0.623451918286
38.015
acc: 0.625
pre: 0.663
rec: 0.516
F1: 0.580
auc: 0.626
