start to construct computing graph
graph construct over
3372
epochs start
#iterations: 0
currently lose_sum: 0.6547414660453796
time_elpased: 7.383
#iterations: 1
currently lose_sum: 0.7053455114364624
time_elpased: 9.403
#iterations: 2
currently lose_sum: 0.6808189153671265
time_elpased: 9.213
#iterations: 3
currently lose_sum: 0.668828010559082
time_elpased: 9.263
#iterations: 4
currently lose_sum: 0.6314805150032043
time_elpased: 9.011
#iterations: 5
currently lose_sum: 0.6099608540534973
time_elpased: 9.254
#iterations: 6
currently lose_sum: 0.7058265209197998
time_elpased: 9.572
#iterations: 7
currently lose_sum: 0.6798886060714722
time_elpased: 9.251
#iterations: 8
currently lose_sum: 0.7359368205070496
time_elpased: 9.22
#iterations: 9
currently lose_sum: 0.7404986619949341
time_elpased: 9.3
#iterations: 10
currently lose_sum: 0.5954093933105469
time_elpased: 9.407
#iterations: 11
currently lose_sum: 0.6110579371452332
time_elpased: 9.278
#iterations: 12
currently lose_sum: 0.638576090335846
time_elpased: 9.414
#iterations: 13
currently lose_sum: 0.633368968963623
time_elpased: 9.258
#iterations: 14
currently lose_sum: 0.6837430596351624
time_elpased: 9.456
#iterations: 15
currently lose_sum: 0.517572820186615
time_elpased: 9.217
#iterations: 16
currently lose_sum: 0.5120824575424194
time_elpased: 9.491
#iterations: 17
currently lose_sum: 0.6736786365509033
time_elpased: 9.353
#iterations: 18
currently lose_sum: 0.645871639251709
time_elpased: 9.366
#iterations: 19
currently lose_sum: 0.5936819911003113
time_elpased: 9.459
start validation test
0.625
0.609399075501
0.703736654804
0.653179190751
0.624717789768
36.664
#iterations: 20
currently lose_sum: 0.6415436863899231
time_elpased: 8.249
#iterations: 21
currently lose_sum: 0.5786919593811035
time_elpased: 8.305
#iterations: 22
currently lose_sum: 0.6409830451011658
time_elpased: 8.443
#iterations: 23
currently lose_sum: 0.5850950479507446
time_elpased: 8.487
#iterations: 24
currently lose_sum: 0.7311050295829773
time_elpased: 8.436
#iterations: 25
currently lose_sum: 0.630477249622345
time_elpased: 8.479
#iterations: 26
currently lose_sum: 0.5494207143783569
time_elpased: 8.42
#iterations: 27
currently lose_sum: 0.5905956029891968
time_elpased: 8.402
#iterations: 28
currently lose_sum: 0.5742568373680115
time_elpased: 8.432
#iterations: 29
currently lose_sum: 0.6975682973861694
time_elpased: 8.711
#iterations: 30
currently lose_sum: 0.6742858290672302
time_elpased: 8.509
#iterations: 31
currently lose_sum: 0.594990611076355
time_elpased: 8.419
#iterations: 32
currently lose_sum: 0.695497989654541
time_elpased: 8.409
#iterations: 33
currently lose_sum: 0.6324623227119446
time_elpased: 8.465
#iterations: 34
currently lose_sum: 0.525331974029541
time_elpased: 8.422
#iterations: 35
currently lose_sum: 0.7401580810546875
time_elpased: 8.716
#iterations: 36
currently lose_sum: 0.6789405941963196
time_elpased: 8.413
#iterations: 37
currently lose_sum: 0.5585417747497559
time_elpased: 8.41
#iterations: 38
currently lose_sum: 0.6921336054801941
time_elpased: 8.445
#iterations: 39
currently lose_sum: 0.5963153839111328
time_elpased: 8.459
start validation test
0.633482142857
0.616270145817
0.714412811388
0.661722290894
0.633192068776
35.978
#iterations: 40
currently lose_sum: 0.6082118153572083
time_elpased: 8.426
#iterations: 41
currently lose_sum: 0.6670316457748413
time_elpased: 8.314
#iterations: 42
currently lose_sum: 0.6422446966171265
time_elpased: 8.439
#iterations: 43
currently lose_sum: 0.6311513185501099
time_elpased: 8.391
#iterations: 44
currently lose_sum: 0.61046302318573
time_elpased: 8.479
#iterations: 45
currently lose_sum: 0.5722308158874512
time_elpased: 8.449
#iterations: 46
currently lose_sum: 0.5967355370521545
time_elpased: 8.461
#iterations: 47
currently lose_sum: 0.5985609292984009
time_elpased: 8.5
#iterations: 48
currently lose_sum: 0.6541399955749512
time_elpased: 8.378
#iterations: 49
currently lose_sum: 0.6319355964660645
time_elpased: 8.458
#iterations: 50
currently lose_sum: 0.6522599458694458
time_elpased: 8.409
#iterations: 51
currently lose_sum: 0.5572136640548706
time_elpased: 8.444
#iterations: 52
currently lose_sum: 0.5056379437446594
time_elpased: 8.447
#iterations: 53
currently lose_sum: 0.6186143159866333
time_elpased: 8.385
#iterations: 54
currently lose_sum: 0.6799983978271484
time_elpased: 8.47
#iterations: 55
currently lose_sum: 0.5953730344772339
time_elpased: 8.452
#iterations: 56
currently lose_sum: 0.6345653533935547
time_elpased: 8.455
#iterations: 57
currently lose_sum: 0.6407559514045715
time_elpased: 8.612
#iterations: 58
currently lose_sum: 0.5795201063156128
time_elpased: 8.643
#iterations: 59
currently lose_sum: 0.6018721461296082
time_elpased: 8.511
start validation test
0.6375
0.625806451613
0.690391459075
0.656514382403
0.637310424878
35.444
#iterations: 60
currently lose_sum: 0.6097842454910278
time_elpased: 8.459
#iterations: 61
currently lose_sum: 0.6249600052833557
time_elpased: 8.575
#iterations: 62
currently lose_sum: 0.6276996731758118
time_elpased: 8.461
#iterations: 63
currently lose_sum: 0.6031821966171265
time_elpased: 8.465
#iterations: 64
currently lose_sum: 0.5491073131561279
time_elpased: 8.506
#iterations: 65
currently lose_sum: 0.6361076235771179
time_elpased: 8.43
#iterations: 66
currently lose_sum: 0.6873877644538879
time_elpased: 8.566
#iterations: 67
currently lose_sum: 0.5749479532241821
time_elpased: 8.421
#iterations: 68
currently lose_sum: 0.6293358206748962
time_elpased: 8.459
#iterations: 69
currently lose_sum: 0.6182292103767395
time_elpased: 8.681
#iterations: 70
currently lose_sum: 0.5661322474479675
time_elpased: 8.595
#iterations: 71
currently lose_sum: 0.5865438580513
time_elpased: 8.557
#iterations: 72
currently lose_sum: 0.5759447813034058
time_elpased: 8.662
#iterations: 73
currently lose_sum: 0.6764643788337708
time_elpased: 8.453
#iterations: 74
currently lose_sum: 0.5912615656852722
time_elpased: 8.491
#iterations: 75
currently lose_sum: 0.679597795009613
time_elpased: 8.435
#iterations: 76
currently lose_sum: 0.6513804197311401
time_elpased: 8.621
#iterations: 77
currently lose_sum: 0.6089624166488647
time_elpased: 8.559
#iterations: 78
currently lose_sum: 0.6359736323356628
time_elpased: 8.649
#iterations: 79
currently lose_sum: 0.5700944662094116
time_elpased: 8.454
start validation test
0.642410714286
0.623188405797
0.726868327402
0.671047227926
0.642107998827
35.142
#iterations: 80
currently lose_sum: 0.6937006711959839
time_elpased: 8.371
#iterations: 81
currently lose_sum: 0.6212867498397827
time_elpased: 8.585
#iterations: 82
currently lose_sum: 0.6323515176773071
time_elpased: 8.5
#iterations: 83
currently lose_sum: 0.6293773651123047
time_elpased: 8.824
#iterations: 84
currently lose_sum: 0.5336790084838867
time_elpased: 8.517
#iterations: 85
currently lose_sum: 0.6543134450912476
time_elpased: 8.468
#iterations: 86
currently lose_sum: 0.6141266822814941
time_elpased: 8.527
#iterations: 87
currently lose_sum: 0.634853720664978
time_elpased: 8.396
#iterations: 88
currently lose_sum: 0.5347616076469421
time_elpased: 8.589
#iterations: 89
currently lose_sum: 0.5955082178115845
time_elpased: 8.582
#iterations: 90
currently lose_sum: 0.5792210698127747
time_elpased: 8.525
#iterations: 91
currently lose_sum: 0.609389066696167
time_elpased: 8.464
#iterations: 92
currently lose_sum: 0.5486775636672974
time_elpased: 8.476
#iterations: 93
currently lose_sum: 0.5736369490623474
time_elpased: 8.461
#iterations: 94
currently lose_sum: 0.5580971240997314
time_elpased: 8.468
#iterations: 95
currently lose_sum: 0.5981053113937378
time_elpased: 8.446
#iterations: 96
currently lose_sum: 0.6483868956565857
time_elpased: 8.449
#iterations: 97
currently lose_sum: 0.6459532976150513
time_elpased: 8.465
#iterations: 98
currently lose_sum: 0.6301265358924866
time_elpased: 8.538
#iterations: 99
currently lose_sum: 0.5444016456604004
time_elpased: 8.427
start validation test
0.63125
0.683046683047
0.494661921708
0.573787409701
0.631739563005
35.101
#iterations: 100
currently lose_sum: 0.5321464538574219
time_elpased: 8.539
#iterations: 101
currently lose_sum: 0.7091711759567261
time_elpased: 8.534
#iterations: 102
currently lose_sum: 0.6223682761192322
time_elpased: 8.521
#iterations: 103
currently lose_sum: 0.6449133157730103
time_elpased: 8.449
#iterations: 104
currently lose_sum: 0.626407265663147
time_elpased: 8.439
#iterations: 105
currently lose_sum: 0.5894030332565308
time_elpased: 8.405
#iterations: 106
currently lose_sum: 0.5576967000961304
time_elpased: 8.45
#iterations: 107
currently lose_sum: 0.5361765623092651
time_elpased: 8.527
#iterations: 108
currently lose_sum: 0.5390340089797974
time_elpased: 8.429
#iterations: 109
currently lose_sum: 0.7050215601921082
time_elpased: 8.639
#iterations: 110
currently lose_sum: 0.566769003868103
time_elpased: 8.41
#iterations: 111
currently lose_sum: 0.4862070083618164
time_elpased: 8.902
#iterations: 112
currently lose_sum: 0.6042896509170532
time_elpased: 8.696
#iterations: 113
currently lose_sum: 0.5500752329826355
time_elpased: 8.565
#iterations: 114
currently lose_sum: 0.6490738391876221
time_elpased: 8.475
#iterations: 115
currently lose_sum: 0.5766218304634094
time_elpased: 8.482
#iterations: 116
currently lose_sum: 0.5662931203842163
time_elpased: 8.704
#iterations: 117
currently lose_sum: 0.624199628829956
time_elpased: 8.482
#iterations: 118
currently lose_sum: 0.5630699396133423
time_elpased: 8.435
#iterations: 119
currently lose_sum: 0.6111426949501038
time_elpased: 8.461
start validation test
0.629464285714
0.65671641791
0.548042704626
0.597478176528
0.629756119338
35.418
#iterations: 120
currently lose_sum: 0.5321643948554993
time_elpased: 8.469
#iterations: 121
currently lose_sum: 0.5248201489448547
time_elpased: 8.578
#iterations: 122
currently lose_sum: 0.6683796644210815
time_elpased: 8.536
#iterations: 123
currently lose_sum: 0.5006513595581055
time_elpased: 8.442
#iterations: 124
currently lose_sum: 0.5015971064567566
time_elpased: 8.453
#iterations: 125
currently lose_sum: 0.5290239453315735
time_elpased: 8.625
#iterations: 126
currently lose_sum: 0.6865348219871521
time_elpased: 8.666
#iterations: 127
currently lose_sum: 0.649293065071106
time_elpased: 8.502
#iterations: 128
currently lose_sum: 0.5770584344863892
time_elpased: 8.524
#iterations: 129
currently lose_sum: 0.6495985984802246
time_elpased: 8.59
#iterations: 130
currently lose_sum: 0.656100869178772
time_elpased: 8.714
#iterations: 131
currently lose_sum: 0.4966627061367035
time_elpased: 8.509
#iterations: 132
currently lose_sum: 0.621625542640686
time_elpased: 8.519
#iterations: 133
currently lose_sum: 0.5459095239639282
time_elpased: 8.544
#iterations: 134
currently lose_sum: 0.7339276671409607
time_elpased: 8.67
#iterations: 135
currently lose_sum: 0.6417549252510071
time_elpased: 8.509
#iterations: 136
currently lose_sum: 0.5141218304634094
time_elpased: 8.533
#iterations: 137
currently lose_sum: 0.7112116813659668
time_elpased: 8.661
#iterations: 138
currently lose_sum: 0.5684022307395935
time_elpased: 8.439
#iterations: 139
currently lose_sum: 0.5127331614494324
time_elpased: 8.454
start validation test
0.645089285714
0.645189761695
0.650355871886
0.647762516615
0.645070409061
35.334
#iterations: 140
currently lose_sum: 0.5533260703086853
time_elpased: 8.358
#iterations: 141
currently lose_sum: 0.6220093965530396
time_elpased: 8.429
#iterations: 142
currently lose_sum: 0.6233479976654053
time_elpased: 8.523
#iterations: 143
currently lose_sum: 0.5982372164726257
time_elpased: 8.589
#iterations: 144
currently lose_sum: 0.6149526238441467
time_elpased: 8.473
#iterations: 145
currently lose_sum: 0.5988036394119263
time_elpased: 8.482
#iterations: 146
currently lose_sum: 0.5808565020561218
time_elpased: 8.599
#iterations: 147
currently lose_sum: 0.7194889783859253
time_elpased: 8.519
#iterations: 148
currently lose_sum: 0.6210777163505554
time_elpased: 8.511
#iterations: 149
currently lose_sum: 0.5580910444259644
time_elpased: 8.56
#iterations: 150
currently lose_sum: 0.5920383334159851
time_elpased: 8.65
#iterations: 151
currently lose_sum: 0.652328610420227
time_elpased: 8.592
#iterations: 152
currently lose_sum: 0.5053533315658569
time_elpased: 8.679
#iterations: 153
currently lose_sum: 0.7402374148368835
time_elpased: 8.7
#iterations: 154
currently lose_sum: 0.6303526163101196
time_elpased: 8.817
#iterations: 155
currently lose_sum: 0.5225931406021118
time_elpased: 8.792
#iterations: 156
currently lose_sum: 0.6151686310768127
time_elpased: 8.678
#iterations: 157
currently lose_sum: 0.5113081336021423
time_elpased: 8.616
#iterations: 158
currently lose_sum: 0.7639225721359253
time_elpased: 8.632
#iterations: 159
currently lose_sum: 0.5985122919082642
time_elpased: 8.644
start validation test
0.638839285714
0.643051771117
0.629893238434
0.636404494382
0.6388713504
35.498
#iterations: 160
currently lose_sum: 0.6263867616653442
time_elpased: 8.555
#iterations: 161
currently lose_sum: 0.5247518420219421
time_elpased: 8.439
#iterations: 162
currently lose_sum: 0.5067588090896606
time_elpased: 8.489
#iterations: 163
currently lose_sum: 0.6525369882583618
time_elpased: 8.491
#iterations: 164
currently lose_sum: 0.5292457342147827
time_elpased: 8.568
#iterations: 165
currently lose_sum: 0.5226162075996399
time_elpased: 8.794
#iterations: 166
currently lose_sum: 0.44734659790992737
time_elpased: 8.419
#iterations: 167
currently lose_sum: 0.642577052116394
time_elpased: 8.482
#iterations: 168
currently lose_sum: 0.55454421043396
time_elpased: 8.472
#iterations: 169
currently lose_sum: 0.6574199795722961
time_elpased: 8.504
#iterations: 170
currently lose_sum: 0.5541009902954102
time_elpased: 8.479
#iterations: 171
currently lose_sum: 0.6583744883537292
time_elpased: 8.456
#iterations: 172
currently lose_sum: 0.5845556259155273
time_elpased: 8.687
#iterations: 173
currently lose_sum: 0.6114556789398193
time_elpased: 8.461
#iterations: 174
currently lose_sum: 0.5725389719009399
time_elpased: 8.582
#iterations: 175
currently lose_sum: 0.600817859172821
time_elpased: 8.488
#iterations: 176
currently lose_sum: 0.5876814723014832
time_elpased: 8.525
#iterations: 177
currently lose_sum: 0.6426741480827332
time_elpased: 8.559
#iterations: 178
currently lose_sum: 0.6018738150596619
time_elpased: 8.457
#iterations: 179
currently lose_sum: 0.5977347493171692
time_elpased: 8.634
start validation test
0.629910714286
0.653167185877
0.559608540925
0.602779108769
0.630162693402
35.581
#iterations: 180
currently lose_sum: 0.5290510654449463
time_elpased: 8.393
#iterations: 181
currently lose_sum: 0.6359947323799133
time_elpased: 8.682
#iterations: 182
currently lose_sum: 0.589123547077179
time_elpased: 8.497
#iterations: 183
currently lose_sum: 0.4376937747001648
time_elpased: 8.599
#iterations: 184
currently lose_sum: 0.6326397061347961
time_elpased: 8.612
#iterations: 185
currently lose_sum: 0.5736866593360901
time_elpased: 8.508
#iterations: 186
currently lose_sum: 0.5738887190818787
time_elpased: 8.55
#iterations: 187
currently lose_sum: 0.6659854650497437
time_elpased: 8.501
#iterations: 188
currently lose_sum: 0.5390408635139465
time_elpased: 8.487
#iterations: 189
currently lose_sum: 0.5951123237609863
time_elpased: 8.603
#iterations: 190
currently lose_sum: 0.5258766412734985
time_elpased: 8.515
#iterations: 191
currently lose_sum: 0.6417030096054077
time_elpased: 8.524
#iterations: 192
currently lose_sum: 0.6461740136146545
time_elpased: 8.5
#iterations: 193
currently lose_sum: 0.6227391362190247
time_elpased: 8.514
#iterations: 194
currently lose_sum: 0.6206550598144531
time_elpased: 8.643
#iterations: 195
currently lose_sum: 0.5635911226272583
time_elpased: 8.646
#iterations: 196
currently lose_sum: 0.6647791862487793
time_elpased: 8.565
#iterations: 197
currently lose_sum: 0.5320769548416138
time_elpased: 8.632
#iterations: 198
currently lose_sum: 0.6062320470809937
time_elpased: 8.627
#iterations: 199
currently lose_sum: 0.6365346312522888
time_elpased: 8.744
start validation test
0.645089285714
0.631494804157
0.702846975089
0.665263157895
0.644882268906
35.213
#iterations: 200
currently lose_sum: 0.6511901617050171
time_elpased: 8.388
#iterations: 201
currently lose_sum: 0.6483240127563477
time_elpased: 8.736
#iterations: 202
currently lose_sum: 0.5935640931129456
time_elpased: 8.624
#iterations: 203
currently lose_sum: 0.47549933195114136
time_elpased: 8.449
#iterations: 204
currently lose_sum: 0.7583200335502625
time_elpased: 8.713
#iterations: 205
currently lose_sum: 0.5975609421730042
time_elpased: 8.503
#iterations: 206
currently lose_sum: 0.5837732553482056
time_elpased: 8.555
#iterations: 207
currently lose_sum: 0.580532431602478
time_elpased: 8.637
#iterations: 208
currently lose_sum: 0.620189368724823
time_elpased: 8.766
#iterations: 209
currently lose_sum: 0.5583156943321228
time_elpased: 8.656
#iterations: 210
currently lose_sum: 0.6102239489555359
time_elpased: 8.608
#iterations: 211
currently lose_sum: 0.6012651920318604
time_elpased: 8.747
#iterations: 212
currently lose_sum: 0.5711790323257446
time_elpased: 8.64
#iterations: 213
currently lose_sum: 0.6065441966056824
time_elpased: 8.718
#iterations: 214
currently lose_sum: 0.5861737132072449
time_elpased: 8.645
#iterations: 215
currently lose_sum: 0.5019718408584595
time_elpased: 8.535
#iterations: 216
currently lose_sum: 0.6093200445175171
time_elpased: 8.488
#iterations: 217
currently lose_sum: 0.5608479380607605
time_elpased: 8.816
#iterations: 218
currently lose_sum: 0.5597785711288452
time_elpased: 8.738
#iterations: 219
currently lose_sum: 0.5862849950790405
time_elpased: 8.619
start validation test
0.644642857143
0.641379310345
0.661921708185
0.651488616462
0.644580925777
35.771
#iterations: 220
currently lose_sum: 0.7388692498207092
time_elpased: 8.62
#iterations: 221
currently lose_sum: 0.5567722320556641
time_elpased: 8.718
#iterations: 222
currently lose_sum: 0.6323565244674683
time_elpased: 8.862
#iterations: 223
currently lose_sum: 0.5774170756340027
time_elpased: 8.582
#iterations: 224
currently lose_sum: 0.5934720039367676
time_elpased: 8.785
#iterations: 225
currently lose_sum: 0.5822447538375854
time_elpased: 8.519
#iterations: 226
currently lose_sum: 0.49037599563598633
time_elpased: 8.594
#iterations: 227
currently lose_sum: 0.6125168800354004
time_elpased: 8.539
#iterations: 228
currently lose_sum: 0.5517545342445374
time_elpased: 8.482
#iterations: 229
currently lose_sum: 0.5867055058479309
time_elpased: 8.666
#iterations: 230
currently lose_sum: 0.5186037421226501
time_elpased: 8.479
#iterations: 231
currently lose_sum: 0.8225549459457397
time_elpased: 8.571
#iterations: 232
currently lose_sum: 0.707831084728241
time_elpased: 8.461
#iterations: 233
currently lose_sum: 0.7878494262695312
time_elpased: 8.448
#iterations: 234
currently lose_sum: 0.6637147665023804
time_elpased: 8.462
#iterations: 235
currently lose_sum: 0.5404925346374512
time_elpased: 8.498
#iterations: 236
currently lose_sum: 0.5383926630020142
time_elpased: 8.624
#iterations: 237
currently lose_sum: 0.5775965452194214
time_elpased: 8.55
#iterations: 238
currently lose_sum: 0.6486817598342896
time_elpased: 8.645
#iterations: 239
currently lose_sum: 0.5812815427780151
time_elpased: 8.427
start validation test
0.641964285714
0.630894308943
0.690391459075
0.659303313509
0.641790711616
35.842
#iterations: 240
currently lose_sum: 0.6300333738327026
time_elpased: 8.473
#iterations: 241
currently lose_sum: 0.5495408177375793
time_elpased: 8.584
#iterations: 242
currently lose_sum: 0.5794219970703125
time_elpased: 8.543
#iterations: 243
currently lose_sum: 0.6169742345809937
time_elpased: 8.522
#iterations: 244
currently lose_sum: 0.53955078125
time_elpased: 8.471
#iterations: 245
currently lose_sum: 0.5365350842475891
time_elpased: 8.518
#iterations: 246
currently lose_sum: 0.6099992990493774
time_elpased: 8.577
#iterations: 247
currently lose_sum: 0.6611091494560242
time_elpased: 8.465
#iterations: 248
currently lose_sum: 0.61087566614151
time_elpased: 8.585
#iterations: 249
currently lose_sum: 0.5927965044975281
time_elpased: 8.532
#iterations: 250
currently lose_sum: 0.6363328099250793
time_elpased: 8.489
#iterations: 251
currently lose_sum: 0.6163492202758789
time_elpased: 8.445
#iterations: 252
currently lose_sum: 0.531924843788147
time_elpased: 8.466
#iterations: 253
currently lose_sum: 0.5305075645446777
time_elpased: 8.742
#iterations: 254
currently lose_sum: 0.6633003950119019
time_elpased: 8.499
#iterations: 255
currently lose_sum: 0.6151604056358337
time_elpased: 8.522
#iterations: 256
currently lose_sum: 0.5102375745773315
time_elpased: 8.463
#iterations: 257
currently lose_sum: 0.5263516902923584
time_elpased: 8.528
#iterations: 258
currently lose_sum: 0.7183331251144409
time_elpased: 8.465
#iterations: 259
currently lose_sum: 0.6087234616279602
time_elpased: 8.539
start validation test
0.634821428571
0.612998522895
0.738434163701
0.669895076675
0.634450056761
35.820
#iterations: 260
currently lose_sum: 0.5809622406959534
time_elpased: 8.345
#iterations: 261
currently lose_sum: 0.583511471748352
time_elpased: 8.433
#iterations: 262
currently lose_sum: 0.632148265838623
time_elpased: 8.509
#iterations: 263
currently lose_sum: 0.569065272808075
time_elpased: 8.539
#iterations: 264
currently lose_sum: 0.5300065279006958
time_elpased: 8.643
#iterations: 265
currently lose_sum: 0.5911332368850708
time_elpased: 8.43
#iterations: 266
currently lose_sum: 0.6135672330856323
time_elpased: 8.696
#iterations: 267
currently lose_sum: 0.6483479738235474
time_elpased: 8.537
#iterations: 268
currently lose_sum: 0.6326460838317871
time_elpased: 8.596
#iterations: 269
currently lose_sum: 0.5847176313400269
time_elpased: 8.584
#iterations: 270
currently lose_sum: 0.6201379895210266
time_elpased: 8.61
#iterations: 271
currently lose_sum: 0.6033775210380554
time_elpased: 8.953
#iterations: 272
currently lose_sum: 0.5999482274055481
time_elpased: 8.537
#iterations: 273
currently lose_sum: 0.6537367701530457
time_elpased: 8.609
#iterations: 274
currently lose_sum: 0.5803740620613098
time_elpased: 8.682
#iterations: 275
currently lose_sum: 0.5781364440917969
time_elpased: 8.454
#iterations: 276
currently lose_sum: 0.5361312031745911
time_elpased: 8.622
#iterations: 277
currently lose_sum: 0.5876992344856262
time_elpased: 8.48
#iterations: 278
currently lose_sum: 0.5538715124130249
time_elpased: 8.692
#iterations: 279
currently lose_sum: 0.6704448461532593
time_elpased: 8.554
start validation test
0.640625
0.641025641026
0.645017793594
0.643015521064
0.64060925522
35.626
#iterations: 280
currently lose_sum: 0.6590253114700317
time_elpased: 8.329
#iterations: 281
currently lose_sum: 0.561712384223938
time_elpased: 8.634
#iterations: 282
currently lose_sum: 0.64979487657547
time_elpased: 8.519
#iterations: 283
currently lose_sum: 0.5544750690460205
time_elpased: 8.621
#iterations: 284
currently lose_sum: 0.531122088432312
time_elpased: 8.593
#iterations: 285
currently lose_sum: 0.701224148273468
time_elpased: 8.578
#iterations: 286
currently lose_sum: 0.6339144706726074
time_elpased: 8.485
#iterations: 287
currently lose_sum: 0.5765314102172852
time_elpased: 8.497
#iterations: 288
currently lose_sum: 0.5953978300094604
time_elpased: 8.505
#iterations: 289
currently lose_sum: 0.5237405896186829
time_elpased: 8.478
#iterations: 290
currently lose_sum: 0.581132173538208
time_elpased: 8.543
#iterations: 291
currently lose_sum: 0.5767542719841003
time_elpased: 8.483
#iterations: 292
currently lose_sum: 0.7078225016593933
time_elpased: 8.484
#iterations: 293
currently lose_sum: 0.7342024445533752
time_elpased: 8.426
#iterations: 294
currently lose_sum: 0.565574049949646
time_elpased: 8.497
#iterations: 295
currently lose_sum: 0.43109455704689026
time_elpased: 8.476
#iterations: 296
currently lose_sum: 0.5037878751754761
time_elpased: 8.567
#iterations: 297
currently lose_sum: 0.5833207964897156
time_elpased: 8.503
#iterations: 298
currently lose_sum: 0.6543854475021362
time_elpased: 8.648
#iterations: 299
currently lose_sum: 0.5444949269294739
time_elpased: 8.773
start validation test
0.625892857143
0.681472081218
0.477758007117
0.561715481172
0.626423806426
35.925
#iterations: 300
currently lose_sum: 0.5868467688560486
time_elpased: 8.59
#iterations: 301
currently lose_sum: 0.47292232513427734
time_elpased: 8.672
#iterations: 302
currently lose_sum: 0.5997021794319153
time_elpased: 8.793
#iterations: 303
currently lose_sum: 0.6564491987228394
time_elpased: 8.807
#iterations: 304
currently lose_sum: 0.5174738764762878
time_elpased: 8.681
#iterations: 305
currently lose_sum: 0.6136326789855957
time_elpased: 8.66
#iterations: 306
currently lose_sum: 0.5462862849235535
time_elpased: 8.634
#iterations: 307
currently lose_sum: 0.6151432394981384
time_elpased: 8.747
#iterations: 308
currently lose_sum: 0.5678459405899048
time_elpased: 8.82
#iterations: 309
currently lose_sum: 0.6386911273002625
time_elpased: 8.87
#iterations: 310
currently lose_sum: 0.60737144947052
time_elpased: 8.615
#iterations: 311
currently lose_sum: 0.604375958442688
time_elpased: 8.617
#iterations: 312
currently lose_sum: 0.6537588834762573
time_elpased: 8.562
#iterations: 313
currently lose_sum: 0.6290551424026489
time_elpased: 8.456
#iterations: 314
currently lose_sum: 0.413166344165802
time_elpased: 8.483
#iterations: 315
currently lose_sum: 0.745274543762207
time_elpased: 8.466
#iterations: 316
currently lose_sum: 0.6468937993049622
time_elpased: 8.442
#iterations: 317
currently lose_sum: 0.6661168336868286
time_elpased: 8.506
#iterations: 318
currently lose_sum: 0.6074826121330261
time_elpased: 8.512
#iterations: 319
currently lose_sum: 0.5132470726966858
time_elpased: 8.492
start validation test
0.639732142857
0.622963537626
0.714412811388
0.665561541649
0.63946447021
35.974
#iterations: 320
currently lose_sum: 0.6367708444595337
time_elpased: 8.4
#iterations: 321
currently lose_sum: 0.61516273021698
time_elpased: 8.418
#iterations: 322
currently lose_sum: 0.6876226663589478
time_elpased: 8.411
#iterations: 323
currently lose_sum: 0.6493178606033325
time_elpased: 8.449
#iterations: 324
currently lose_sum: 0.6194726824760437
time_elpased: 8.425
#iterations: 325
currently lose_sum: 0.5880061388015747
time_elpased: 8.599
#iterations: 326
currently lose_sum: 0.5786806344985962
time_elpased: 8.545
#iterations: 327
currently lose_sum: 0.6891797780990601
time_elpased: 8.514
#iterations: 328
currently lose_sum: 0.5308162569999695
time_elpased: 8.501
#iterations: 329
currently lose_sum: 0.5694245100021362
time_elpased: 8.46
#iterations: 330
currently lose_sum: 0.7585974931716919
time_elpased: 8.791
#iterations: 331
currently lose_sum: 0.6019549369812012
time_elpased: 8.512
#iterations: 332
currently lose_sum: 0.6139191389083862
time_elpased: 8.506
#iterations: 333
currently lose_sum: 0.5009332299232483
time_elpased: 8.416
#iterations: 334
currently lose_sum: 0.5602626800537109
time_elpased: 8.447
#iterations: 335
currently lose_sum: 0.5775107741355896
time_elpased: 8.458
#iterations: 336
currently lose_sum: 0.5746617317199707
time_elpased: 8.51
#iterations: 337
currently lose_sum: 0.5919166803359985
time_elpased: 8.447
#iterations: 338
currently lose_sum: 0.61841881275177
time_elpased: 8.474
#iterations: 339
currently lose_sum: 0.5281277894973755
time_elpased: 8.595
start validation test
0.645982142857
0.646850044366
0.648576512456
0.647712127943
0.645972844041
35.696
#iterations: 340
currently lose_sum: 0.6522270441055298
time_elpased: 8.433
#iterations: 341
currently lose_sum: 0.4235040545463562
time_elpased: 8.62
#iterations: 342
currently lose_sum: 0.5937792062759399
time_elpased: 8.506
#iterations: 343
currently lose_sum: 0.46917247772216797
time_elpased: 8.519
#iterations: 344
currently lose_sum: 0.7184206247329712
time_elpased: 8.428
#iterations: 345
currently lose_sum: 0.5819175839424133
time_elpased: 8.495
#iterations: 346
currently lose_sum: 0.595112681388855
time_elpased: 8.492
#iterations: 347
currently lose_sum: 0.561253011226654
time_elpased: 8.463
#iterations: 348
currently lose_sum: 0.6550270318984985
time_elpased: 8.49
#iterations: 349
currently lose_sum: 0.6179324388504028
time_elpased: 8.567
#iterations: 350
currently lose_sum: 0.4754783511161804
time_elpased: 8.623
#iterations: 351
currently lose_sum: 0.5899415612220764
time_elpased: 8.565
#iterations: 352
currently lose_sum: 0.5052887201309204
time_elpased: 8.524
#iterations: 353
currently lose_sum: 0.6591351628303528
time_elpased: 8.708
#iterations: 354
currently lose_sum: 0.6015602350234985
time_elpased: 8.499
#iterations: 355
currently lose_sum: 0.6850637793540955
time_elpased: 8.485
#iterations: 356
currently lose_sum: 0.6155327558517456
time_elpased: 8.543
#iterations: 357
currently lose_sum: 0.5575017929077148
time_elpased: 8.555
#iterations: 358
currently lose_sum: 0.5649654269218445
time_elpased: 8.549
#iterations: 359
currently lose_sum: 0.5350923538208008
time_elpased: 8.494
start validation test
0.64375
0.646846846847
0.638790035587
0.642793196061
0.64376777765
36.199
#iterations: 360
currently lose_sum: 0.514378547668457
time_elpased: 8.607
#iterations: 361
currently lose_sum: 0.6317449808120728
time_elpased: 8.726
#iterations: 362
currently lose_sum: 0.6400706171989441
time_elpased: 8.601
#iterations: 363
currently lose_sum: 0.7390114068984985
time_elpased: 8.683
#iterations: 364
currently lose_sum: 0.5887076258659363
time_elpased: 8.516
#iterations: 365
currently lose_sum: 0.6591264605522156
time_elpased: 8.553
#iterations: 366
currently lose_sum: 0.5224305391311646
time_elpased: 8.571
#iterations: 367
currently lose_sum: 0.5497354865074158
time_elpased: 8.501
#iterations: 368
currently lose_sum: 0.5224079489707947
time_elpased: 8.562
#iterations: 369
currently lose_sum: 0.580102264881134
time_elpased: 8.533
#iterations: 370
currently lose_sum: 0.5840985178947449
time_elpased: 8.587
#iterations: 371
currently lose_sum: 0.6013647317886353
time_elpased: 8.65
#iterations: 372
currently lose_sum: 0.5978400111198425
time_elpased: 8.493
#iterations: 373
currently lose_sum: 0.6687387228012085
time_elpased: 8.569
#iterations: 374
currently lose_sum: 0.5775398015975952
time_elpased: 8.564
#iterations: 375
currently lose_sum: 0.5359002351760864
time_elpased: 8.499
#iterations: 376
currently lose_sum: 0.7210652828216553
time_elpased: 8.523
#iterations: 377
currently lose_sum: 0.5854378342628479
time_elpased: 8.488
#iterations: 378
currently lose_sum: 0.524559497833252
time_elpased: 8.495
#iterations: 379
currently lose_sum: 0.6573929786682129
time_elpased: 8.479
start validation test
0.640625
0.641526175688
0.643238434164
0.642381163927
0.640615632852
35.749
#iterations: 380
currently lose_sum: 0.5624977946281433
time_elpased: 8.233
#iterations: 381
currently lose_sum: 0.5303540229797363
time_elpased: 8.629
#iterations: 382
currently lose_sum: 0.5619750022888184
time_elpased: 8.484
#iterations: 383
currently lose_sum: 0.5753637552261353
time_elpased: 8.461
#iterations: 384
currently lose_sum: 0.5561398267745972
time_elpased: 8.459
#iterations: 385
currently lose_sum: 0.5671373605728149
time_elpased: 8.496
#iterations: 386
currently lose_sum: 0.6639741063117981
time_elpased: 8.454
#iterations: 387
currently lose_sum: 0.5796954035758972
time_elpased: 8.709
#iterations: 388
currently lose_sum: 0.6290865540504456
time_elpased: 8.52
#iterations: 389
currently lose_sum: 0.6596407890319824
time_elpased: 8.479
#iterations: 390
currently lose_sum: 0.5495774149894714
time_elpased: 8.469
#iterations: 391
currently lose_sum: 0.5091077089309692
time_elpased: 8.403
#iterations: 392
currently lose_sum: 0.6789361834526062
time_elpased: 8.556
#iterations: 393
currently lose_sum: 0.5701175928115845
time_elpased: 8.448
#iterations: 394
currently lose_sum: 0.5491288900375366
time_elpased: 8.498
#iterations: 395
currently lose_sum: 0.5798319578170776
time_elpased: 8.547
#iterations: 396
currently lose_sum: 0.5449411869049072
time_elpased: 8.579
#iterations: 397
currently lose_sum: 0.5664796829223633
time_elpased: 8.624
#iterations: 398
currently lose_sum: 0.6234469413757324
time_elpased: 8.522
#iterations: 399
currently lose_sum: 0.6090649366378784
time_elpased: 8.49
start validation test
0.645089285714
0.649681528662
0.635231316726
0.642375168691
0.645124618936
36.029
#iterations: 400
currently lose_sum: 0.5740417838096619
time_elpased: 8.384
#iterations: 401
currently lose_sum: 0.5194499492645264
time_elpased: 8.634
#iterations: 402
currently lose_sum: 0.6047695875167847
time_elpased: 8.481
#iterations: 403
currently lose_sum: 0.5290048122406006
time_elpased: 8.461
#iterations: 404
currently lose_sum: 0.48582887649536133
time_elpased: 8.498
#iterations: 405
currently lose_sum: 0.5610822439193726
time_elpased: 8.715
#iterations: 406
currently lose_sum: 0.5982145071029663
time_elpased: 8.527
#iterations: 407
currently lose_sum: 0.6056824922561646
time_elpased: 8.522
#iterations: 408
currently lose_sum: 0.5613910555839539
time_elpased: 8.665
#iterations: 409
currently lose_sum: 0.4929010272026062
time_elpased: 8.637
#iterations: 410
currently lose_sum: 0.5522450804710388
time_elpased: 8.557
#iterations: 411
currently lose_sum: 0.6944286227226257
time_elpased: 8.498
#iterations: 412
currently lose_sum: 0.6775811910629272
time_elpased: 8.711
#iterations: 413
currently lose_sum: 0.5721108317375183
time_elpased: 8.558
#iterations: 414
currently lose_sum: 0.7147351503372192
time_elpased: 8.468
#iterations: 415
currently lose_sum: 0.6402983665466309
time_elpased: 8.444
#iterations: 416
currently lose_sum: 0.5797359347343445
time_elpased: 8.454
#iterations: 417
currently lose_sum: 0.6021666526794434
time_elpased: 8.453
#iterations: 418
currently lose_sum: 0.5603829622268677
time_elpased: 8.419
#iterations: 419
currently lose_sum: 0.54854816198349
time_elpased: 8.514
start validation test
0.638392857143
0.626003210273
0.693950177936
0.658227848101
0.638193726961
35.818
#iterations: 420
currently lose_sum: 0.6234104037284851
time_elpased: 8.63
#iterations: 421
currently lose_sum: 0.7787184715270996
time_elpased: 8.513
#iterations: 422
currently lose_sum: 0.5628039240837097
time_elpased: 8.548
#iterations: 423
currently lose_sum: 0.4935261607170105
time_elpased: 8.66
#iterations: 424
currently lose_sum: 0.5701719522476196
time_elpased: 8.517
#iterations: 425
currently lose_sum: 0.6677719354629517
time_elpased: 8.475
#iterations: 426
currently lose_sum: 0.6693838834762573
time_elpased: 8.532
#iterations: 427
currently lose_sum: 0.513076663017273
time_elpased: 8.474
#iterations: 428
currently lose_sum: 0.5356132388114929
time_elpased: 8.581
#iterations: 429
currently lose_sum: 0.5299125909805298
time_elpased: 8.563
#iterations: 430
currently lose_sum: 0.6500545740127563
time_elpased: 8.444
#iterations: 431
currently lose_sum: 0.5279022455215454
time_elpased: 8.497
#iterations: 432
currently lose_sum: 0.48341482877731323
time_elpased: 8.487
#iterations: 433
currently lose_sum: 0.640426754951477
time_elpased: 8.57
#iterations: 434
currently lose_sum: 0.5921355485916138
time_elpased: 8.502
#iterations: 435
currently lose_sum: 0.43899792432785034
time_elpased: 8.513
#iterations: 436
currently lose_sum: 0.6141917109489441
time_elpased: 8.488
#iterations: 437
currently lose_sum: 0.5632977485656738
time_elpased: 8.559
#iterations: 438
currently lose_sum: 0.596551775932312
time_elpased: 8.629
#iterations: 439
currently lose_sum: 0.6406981348991394
time_elpased: 8.649
start validation test
0.641517857143
0.628708901363
0.697508896797
0.661324335723
0.641317172413
36.053
#iterations: 440
currently lose_sum: 0.6663637757301331
time_elpased: 8.445
#iterations: 441
currently lose_sum: 0.5614640116691589
time_elpased: 8.555
#iterations: 442
currently lose_sum: 0.5803268551826477
time_elpased: 8.467
#iterations: 443
currently lose_sum: 0.5960226058959961
time_elpased: 8.543
#iterations: 444
currently lose_sum: 0.5568243265151978
time_elpased: 8.759
#iterations: 445
currently lose_sum: 0.5844676494598389
time_elpased: 8.439
#iterations: 446
currently lose_sum: 0.5275455713272095
time_elpased: 8.523
#iterations: 447
currently lose_sum: 0.537415087223053
time_elpased: 8.498
#iterations: 448
currently lose_sum: 0.5288106799125671
time_elpased: 8.465
#iterations: 449
currently lose_sum: 0.6493180990219116
time_elpased: 8.718
#iterations: 450
currently lose_sum: 0.5975342392921448
time_elpased: 8.48
#iterations: 451
currently lose_sum: 0.6777666211128235
time_elpased: 8.458
#iterations: 452
currently lose_sum: 0.5376134514808655
time_elpased: 8.534
#iterations: 453
currently lose_sum: 0.5970371961593628
time_elpased: 8.485
#iterations: 454
currently lose_sum: 0.7450087070465088
time_elpased: 8.418
#iterations: 455
currently lose_sum: 0.7475394606590271
time_elpased: 8.467
#iterations: 456
currently lose_sum: 0.5601779222488403
time_elpased: 8.491
#iterations: 457
currently lose_sum: 0.6254619359970093
time_elpased: 8.522
#iterations: 458
currently lose_sum: 0.5450499057769775
time_elpased: 8.519
#iterations: 459
currently lose_sum: 0.6625024080276489
time_elpased: 8.452
start validation test
0.643303571429
0.64192139738
0.653914590747
0.647862494491
0.643265539101
36.173
#iterations: 460
currently lose_sum: 0.627694845199585
time_elpased: 8.396
#iterations: 461
currently lose_sum: 0.530460000038147
time_elpased: 8.464
#iterations: 462
currently lose_sum: 0.6646841168403625
time_elpased: 8.678
#iterations: 463
currently lose_sum: 0.6542545557022095
time_elpased: 8.667
#iterations: 464
currently lose_sum: 0.6920604705810547
time_elpased: 8.472
#iterations: 465
currently lose_sum: 0.5478051900863647
time_elpased: 8.522
#iterations: 466
currently lose_sum: 0.6306099891662598
time_elpased: 8.468
#iterations: 467
currently lose_sum: 0.4870467185974121
time_elpased: 8.625
#iterations: 468
currently lose_sum: 0.5413199067115784
time_elpased: 8.524
#iterations: 469
currently lose_sum: 0.5894836187362671
time_elpased: 8.55
#iterations: 470
currently lose_sum: 0.5972767472267151
time_elpased: 8.517
#iterations: 471
currently lose_sum: 0.5962766408920288
time_elpased: 8.494
#iterations: 472
currently lose_sum: 0.5309945940971375
time_elpased: 8.499
#iterations: 473
currently lose_sum: 0.6053054928779602
time_elpased: 8.482
#iterations: 474
currently lose_sum: 0.5763968229293823
time_elpased: 8.838
#iterations: 475
currently lose_sum: 0.5044602155685425
time_elpased: 8.476
#iterations: 476
currently lose_sum: 0.5413161516189575
time_elpased: 8.553
#iterations: 477
currently lose_sum: 0.5850282907485962
time_elpased: 8.533
#iterations: 478
currently lose_sum: 0.6365259289741516
time_elpased: 8.715
#iterations: 479
currently lose_sum: 0.603939950466156
time_elpased: 8.651
start validation test
0.644196428571
0.641069887834
0.66103202847
0.650897941305
0.644136085919
36.185
#iterations: 480
currently lose_sum: 0.5557230710983276
time_elpased: 8.456
#iterations: 481
currently lose_sum: 0.5968595147132874
time_elpased: 8.515
#iterations: 482
currently lose_sum: 0.6447641849517822
time_elpased: 8.471
#iterations: 483
currently lose_sum: 0.6362212896347046
time_elpased: 8.467
#iterations: 484
currently lose_sum: 0.6045221090316772
time_elpased: 8.445
#iterations: 485
currently lose_sum: 0.6297313570976257
time_elpased: 8.391
#iterations: 486
currently lose_sum: 0.5325408577919006
time_elpased: 8.498
#iterations: 487
currently lose_sum: 0.6008886694908142
time_elpased: 8.473
#iterations: 488
currently lose_sum: 0.6203469038009644
time_elpased: 8.517
#iterations: 489
currently lose_sum: 0.488950252532959
time_elpased: 8.501
#iterations: 490
currently lose_sum: 0.6331139802932739
time_elpased: 8.547
#iterations: 491
currently lose_sum: 0.525457501411438
time_elpased: 8.456
#iterations: 492
currently lose_sum: 0.6404238939285278
time_elpased: 8.757
#iterations: 493
currently lose_sum: 0.5118876099586487
time_elpased: 8.448
#iterations: 494
currently lose_sum: 0.6060207486152649
time_elpased: 8.456
#iterations: 495
currently lose_sum: 0.5374320149421692
time_elpased: 8.414
#iterations: 496
currently lose_sum: 0.5406229496002197
time_elpased: 8.469
#iterations: 497
currently lose_sum: 0.6147952675819397
time_elpased: 8.506
#iterations: 498
currently lose_sum: 0.540204644203186
time_elpased: 8.627
#iterations: 499
currently lose_sum: 0.5373340249061584
time_elpased: 8.511
start validation test
0.634821428571
0.624796084829
0.681494661922
0.651914893617
0.634654140997
36.217
#iterations: 500
currently lose_sum: 0.6181861162185669
time_elpased: 8.267
#iterations: 501
currently lose_sum: 0.523016631603241
time_elpased: 8.454
#iterations: 502
currently lose_sum: 0.4660409986972809
time_elpased: 8.484
#iterations: 503
currently lose_sum: 0.6156104207038879
time_elpased: 8.459
#iterations: 504
currently lose_sum: 0.5898597240447998
time_elpased: 8.634
#iterations: 505
currently lose_sum: 0.5643348693847656
time_elpased: 8.513
#iterations: 506
currently lose_sum: 0.5574212074279785
time_elpased: 8.488
#iterations: 507
currently lose_sum: 0.5557830929756165
time_elpased: 8.479
#iterations: 508
currently lose_sum: 0.6667603850364685
time_elpased: 8.482
#iterations: 509
currently lose_sum: 0.6011907458305359
time_elpased: 8.453
#iterations: 510
currently lose_sum: 0.7155659794807434
time_elpased: 8.417
#iterations: 511
currently lose_sum: 0.6415596008300781
time_elpased: 8.454
#iterations: 512
currently lose_sum: 0.5180031061172485
time_elpased: 8.65
#iterations: 513
currently lose_sum: 0.6271083354949951
time_elpased: 8.548
#iterations: 514
currently lose_sum: 0.559217631816864
time_elpased: 8.477
#iterations: 515
currently lose_sum: 0.5934321880340576
time_elpased: 8.523
#iterations: 516
currently lose_sum: 0.46568503975868225
time_elpased: 8.687
#iterations: 517
currently lose_sum: 0.5181382894515991
time_elpased: 8.467
#iterations: 518
currently lose_sum: 0.540003776550293
time_elpased: 8.593
#iterations: 519
currently lose_sum: 0.571973443031311
time_elpased: 8.486
start validation test
0.637946428571
0.628383921247
0.681494661922
0.653862569356
0.637790341714
36.428
#iterations: 520
currently lose_sum: 0.6090757250785828
time_elpased: 8.478
#iterations: 521
currently lose_sum: 0.4328114986419678
time_elpased: 8.632
#iterations: 522
currently lose_sum: 0.5264454483985901
time_elpased: 8.647
#iterations: 523
currently lose_sum: 0.5108451843261719
time_elpased: 8.586
#iterations: 524
currently lose_sum: 0.5917891263961792
time_elpased: 8.671
#iterations: 525
currently lose_sum: 0.5621124505996704
time_elpased: 8.716
#iterations: 526
currently lose_sum: 0.5783796310424805
time_elpased: 8.839
#iterations: 527
currently lose_sum: 0.5451261401176453
time_elpased: 8.503
#iterations: 528
currently lose_sum: 0.5827460289001465
time_elpased: 8.506
#iterations: 529
currently lose_sum: 0.6423112750053406
time_elpased: 8.505
#iterations: 530
currently lose_sum: 0.40345048904418945
time_elpased: 8.58
#iterations: 531
currently lose_sum: 0.588645339012146
time_elpased: 8.639
#iterations: 532
currently lose_sum: 0.6017535328865051
time_elpased: 8.654
#iterations: 533
currently lose_sum: 0.5328496694564819
time_elpased: 8.473
#iterations: 534
currently lose_sum: 0.6031458377838135
time_elpased: 8.537
#iterations: 535
currently lose_sum: 0.525431752204895
time_elpased: 8.658
#iterations: 536
currently lose_sum: 0.7696067690849304
time_elpased: 8.532
#iterations: 537
currently lose_sum: 0.547858715057373
time_elpased: 8.591
#iterations: 538
currently lose_sum: 0.6363073587417603
time_elpased: 8.453
#iterations: 539
currently lose_sum: 0.7454637289047241
time_elpased: 8.515
start validation test
0.637053571429
0.626320064988
0.685943060498
0.654777070064
0.636878340285
36.480
#iterations: 540
currently lose_sum: 0.7085369229316711
time_elpased: 8.139
#iterations: 541
currently lose_sum: 0.6205536127090454
time_elpased: 8.569
#iterations: 542
currently lose_sum: 0.6365329027175903
time_elpased: 8.567
#iterations: 543
currently lose_sum: 0.6436753273010254
time_elpased: 8.56
#iterations: 544
currently lose_sum: 0.46865615248680115
time_elpased: 8.51
#iterations: 545
currently lose_sum: 0.5278398394584656
time_elpased: 8.623
#iterations: 546
currently lose_sum: 0.5823087692260742
time_elpased: 8.529
#iterations: 547
currently lose_sum: 0.6620107293128967
time_elpased: 8.459
#iterations: 548
currently lose_sum: 0.552634596824646
time_elpased: 8.532
#iterations: 549
currently lose_sum: 0.5945016145706177
time_elpased: 8.477
#iterations: 550
currently lose_sum: 0.5711695551872253
time_elpased: 8.526
#iterations: 551
currently lose_sum: 0.4837338924407959
time_elpased: 8.601
#iterations: 552
currently lose_sum: 0.6436998248100281
time_elpased: 8.778
#iterations: 553
currently lose_sum: 0.6021394729614258
time_elpased: 8.698
#iterations: 554
currently lose_sum: 0.5486396551132202
time_elpased: 8.616
#iterations: 555
currently lose_sum: 0.5657207369804382
time_elpased: 8.596
#iterations: 556
currently lose_sum: 0.535598635673523
time_elpased: 8.651
#iterations: 557
currently lose_sum: 0.5134541392326355
time_elpased: 8.553
#iterations: 558
currently lose_sum: 0.6340397596359253
time_elpased: 8.513
#iterations: 559
currently lose_sum: 0.625491738319397
time_elpased: 8.553
start validation test
0.644196428571
0.628841607565
0.709964412811
0.666945257
0.643960701029
36.476
#iterations: 560
currently lose_sum: 0.598505973815918
time_elpased: 8.424
#iterations: 561
currently lose_sum: 0.48184823989868164
time_elpased: 8.656
#iterations: 562
currently lose_sum: 0.7364241480827332
time_elpased: 8.581
#iterations: 563
currently lose_sum: 0.5375038385391235
time_elpased: 8.449
#iterations: 564
currently lose_sum: 0.49778443574905396
time_elpased: 8.506
#iterations: 565
currently lose_sum: 0.5385113954544067
time_elpased: 8.48
#iterations: 566
currently lose_sum: 0.49433794617652893
time_elpased: 8.36
#iterations: 567
currently lose_sum: 0.5464403629302979
time_elpased: 8.413
#iterations: 568
currently lose_sum: 0.5296451449394226
time_elpased: 8.555
#iterations: 569
currently lose_sum: 0.6181142926216125
time_elpased: 8.473
#iterations: 570
currently lose_sum: 0.6074153780937195
time_elpased: 8.633
#iterations: 571
currently lose_sum: 0.5758882761001587
time_elpased: 8.693
#iterations: 572
currently lose_sum: 0.7346669435501099
time_elpased: 8.573
#iterations: 573
currently lose_sum: 0.6083680391311646
time_elpased: 8.589
#iterations: 574
currently lose_sum: 0.5961506366729736
time_elpased: 8.48
#iterations: 575
currently lose_sum: 0.5589799284934998
time_elpased: 8.463
#iterations: 576
currently lose_sum: 0.597212553024292
time_elpased: 8.503
#iterations: 577
currently lose_sum: 0.48243483901023865
time_elpased: 8.513
#iterations: 578
currently lose_sum: 0.48080533742904663
time_elpased: 8.52
#iterations: 579
currently lose_sum: 0.5586195588111877
time_elpased: 8.599
start validation test
0.648660714286
0.652213188799
0.642348754448
0.647243388615
0.648683337798
36.186
#iterations: 580
currently lose_sum: 0.6418360471725464
time_elpased: 8.46
#iterations: 581
currently lose_sum: 0.6344696283340454
time_elpased: 8.526
#iterations: 582
currently lose_sum: 0.5805166959762573
time_elpased: 8.502
#iterations: 583
currently lose_sum: 0.5097147822380066
time_elpased: 8.555
#iterations: 584
currently lose_sum: 0.5736152529716492
time_elpased: 8.493
#iterations: 585
currently lose_sum: 0.5629690289497375
time_elpased: 8.509
#iterations: 586
currently lose_sum: 0.5829910039901733
time_elpased: 8.497
#iterations: 587
currently lose_sum: 0.5752512216567993
time_elpased: 8.639
#iterations: 588
currently lose_sum: 0.5050406455993652
time_elpased: 8.599
#iterations: 589
currently lose_sum: 0.6091169118881226
time_elpased: 8.768
#iterations: 590
currently lose_sum: 0.5098645687103271
time_elpased: 8.645
#iterations: 591
currently lose_sum: 0.6416668891906738
time_elpased: 8.607
#iterations: 592
currently lose_sum: 0.6402164697647095
time_elpased: 8.558
#iterations: 593
currently lose_sum: 0.6091469526290894
time_elpased: 8.635
#iterations: 594
currently lose_sum: 0.6023963689804077
time_elpased: 8.51
#iterations: 595
currently lose_sum: 0.5504299998283386
time_elpased: 8.518
#iterations: 596
currently lose_sum: 0.6336753368377686
time_elpased: 8.485
#iterations: 597
currently lose_sum: 0.6187649369239807
time_elpased: 8.48
#iterations: 598
currently lose_sum: 0.5704933404922485
time_elpased: 8.549
#iterations: 599
currently lose_sum: 0.6655467748641968
time_elpased: 8.564
start validation test
0.644642857143
0.652985074627
0.622775800712
0.63752276867
0.644721233689
36.261
acc: 0.617
pre: 0.661
rec: 0.485
F1: 0.560
auc: 0.617
