start to construct computing graph
graph construct over
3372
epochs start
#iterations: 0
currently lose_sum: 0.6812103986740112
time_elpased: 6.172
#iterations: 1
currently lose_sum: 0.7167508006095886
time_elpased: 5.995
#iterations: 2
currently lose_sum: 0.7436569929122925
time_elpased: 6.037
#iterations: 3
currently lose_sum: 0.6664403676986694
time_elpased: 6.044
#iterations: 4
currently lose_sum: 0.6400559544563293
time_elpased: 5.908
#iterations: 5
currently lose_sum: 0.6234946846961975
time_elpased: 6.02
#iterations: 6
currently lose_sum: 0.6352755427360535
time_elpased: 5.819
#iterations: 7
currently lose_sum: 0.6252497434616089
time_elpased: 5.895
#iterations: 8
currently lose_sum: 0.6666688919067383
time_elpased: 5.898
#iterations: 9
currently lose_sum: 0.7105582356452942
time_elpased: 6.064
#iterations: 10
currently lose_sum: 0.5999872088432312
time_elpased: 5.857
#iterations: 11
currently lose_sum: 0.5520855188369751
time_elpased: 6.001
#iterations: 12
currently lose_sum: 0.6014987826347351
time_elpased: 5.981
#iterations: 13
currently lose_sum: 0.7003359794616699
time_elpased: 5.944
#iterations: 14
currently lose_sum: 0.5600465536117554
time_elpased: 6.021
#iterations: 15
currently lose_sum: 0.562704861164093
time_elpased: 6.006
#iterations: 16
currently lose_sum: 0.5860207676887512
time_elpased: 5.875
#iterations: 17
currently lose_sum: 0.5488156080245972
time_elpased: 5.925
#iterations: 18
currently lose_sum: 0.6168319582939148
time_elpased: 5.891
#iterations: 19
currently lose_sum: 0.6744768023490906
time_elpased: 6.024
start validation test
0.6125
0.620884289746
0.586666666667
0.603290676417
0.612615844544
35.922
#iterations: 20
currently lose_sum: 0.6339988708496094
time_elpased: 5.162
#iterations: 21
currently lose_sum: 0.6144904494285583
time_elpased: 5.053
#iterations: 22
currently lose_sum: 0.6915108561515808
time_elpased: 5.186
#iterations: 23
currently lose_sum: 0.6037842035293579
time_elpased: 5.0
#iterations: 24
currently lose_sum: 0.6147161722183228
time_elpased: 5.014
#iterations: 25
currently lose_sum: 0.6296094059944153
time_elpased: 5.092
#iterations: 26
currently lose_sum: 0.6441045999526978
time_elpased: 5.106
#iterations: 27
currently lose_sum: 0.5769662261009216
time_elpased: 5.191
#iterations: 28
currently lose_sum: 0.5527512431144714
time_elpased: 5.141
#iterations: 29
currently lose_sum: 0.6871616244316101
time_elpased: 5.09
#iterations: 30
currently lose_sum: 0.5765649676322937
time_elpased: 5.031
#iterations: 31
currently lose_sum: 0.6509777307510376
time_elpased: 5.049
#iterations: 32
currently lose_sum: 0.5766341090202332
time_elpased: 5.01
#iterations: 33
currently lose_sum: 0.6958454847335815
time_elpased: 5.086
#iterations: 34
currently lose_sum: 0.5671018362045288
time_elpased: 5.008
#iterations: 35
currently lose_sum: 0.6121572256088257
time_elpased: 5.167
#iterations: 36
currently lose_sum: 0.5546706318855286
time_elpased: 4.998
#iterations: 37
currently lose_sum: 0.6301665306091309
time_elpased: 4.973
#iterations: 38
currently lose_sum: 0.64664626121521
time_elpased: 5.279
#iterations: 39
currently lose_sum: 0.6722613573074341
time_elpased: 5.221
start validation test
0.611160714286
0.64497716895
0.502222222222
0.564717641179
0.611649227703
36.005
#iterations: 40
currently lose_sum: 0.6374955177307129
time_elpased: 5.028
#iterations: 41
currently lose_sum: 0.6520707011222839
time_elpased: 4.983
#iterations: 42
currently lose_sum: 0.6742545366287231
time_elpased: 5.295
#iterations: 43
currently lose_sum: 0.5915727019309998
time_elpased: 5.242
#iterations: 44
currently lose_sum: 0.5476894378662109
time_elpased: 5.094
#iterations: 45
currently lose_sum: 0.5925158858299255
time_elpased: 4.983
#iterations: 46
currently lose_sum: 0.6093577146530151
time_elpased: 5.128
#iterations: 47
currently lose_sum: 0.5809973478317261
time_elpased: 5.088
#iterations: 48
currently lose_sum: 0.6565372347831726
time_elpased: 5.069
#iterations: 49
currently lose_sum: 0.6902287602424622
time_elpased: 5.054
#iterations: 50
currently lose_sum: 0.5568987131118774
time_elpased: 5.051
#iterations: 51
currently lose_sum: 0.6137875914573669
time_elpased: 5.152
#iterations: 52
currently lose_sum: 0.5355876088142395
time_elpased: 5.153
#iterations: 53
currently lose_sum: 0.6699069142341614
time_elpased: 5.03
#iterations: 54
currently lose_sum: 0.5798776745796204
time_elpased: 4.985
#iterations: 55
currently lose_sum: 0.5582021474838257
time_elpased: 5.14
#iterations: 56
currently lose_sum: 0.5938965082168579
time_elpased: 5.118
#iterations: 57
currently lose_sum: 0.6348335146903992
time_elpased: 5.097
#iterations: 58
currently lose_sum: 0.5357320308685303
time_elpased: 5.009
#iterations: 59
currently lose_sum: 0.6787940859794617
time_elpased: 5.097
start validation test
0.623214285714
0.609168609169
0.696888888889
0.65008291874
0.622883906328
36.247
#iterations: 60
currently lose_sum: 0.7300829887390137
time_elpased: 5.208
#iterations: 61
currently lose_sum: 0.6319543719291687
time_elpased: 5.02
#iterations: 62
currently lose_sum: 0.6287544965744019
time_elpased: 5.056
#iterations: 63
currently lose_sum: 0.6222437024116516
time_elpased: 5.227
#iterations: 64
currently lose_sum: 0.5685257315635681
time_elpased: 5.181
#iterations: 65
currently lose_sum: 0.4138316214084625
time_elpased: 5.055
#iterations: 66
currently lose_sum: 0.6224932670593262
time_elpased: 5.032
#iterations: 67
currently lose_sum: 0.6141325235366821
time_elpased: 5.142
#iterations: 68
currently lose_sum: 0.6431715488433838
time_elpased: 5.165
#iterations: 69
currently lose_sum: 0.5907607674598694
time_elpased: 5.073
#iterations: 70
currently lose_sum: 0.6136189699172974
time_elpased: 5.091
#iterations: 71
currently lose_sum: 0.6463397741317749
time_elpased: 5.045
#iterations: 72
currently lose_sum: 0.6682878732681274
time_elpased: 5.014
#iterations: 73
currently lose_sum: 0.6809297204017639
time_elpased: 5.003
#iterations: 74
currently lose_sum: 0.6834033727645874
time_elpased: 5.091
#iterations: 75
currently lose_sum: 0.5843468308448792
time_elpased: 5.059
#iterations: 76
currently lose_sum: 0.641318678855896
time_elpased: 5.091
#iterations: 77
currently lose_sum: 0.5555317997932434
time_elpased: 5.101
#iterations: 78
currently lose_sum: 0.6754596829414368
time_elpased: 5.063
#iterations: 79
currently lose_sum: 0.5158608555793762
time_elpased: 4.982
start validation test
0.623660714286
0.607142857143
0.710222222222
0.654649733716
0.623272546089
36.478
#iterations: 80
currently lose_sum: 0.6150904893875122
time_elpased: 5.144
#iterations: 81
currently lose_sum: 0.6285285949707031
time_elpased: 5.058
#iterations: 82
currently lose_sum: 0.6674724817276001
time_elpased: 5.194
#iterations: 83
currently lose_sum: 0.6412377953529358
time_elpased: 4.998
#iterations: 84
currently lose_sum: 0.5710911750793457
time_elpased: 5.18
#iterations: 85
currently lose_sum: 0.6003824472427368
time_elpased: 5.142
#iterations: 86
currently lose_sum: 0.5040139555931091
time_elpased: 5.155
#iterations: 87
currently lose_sum: 0.49784666299819946
time_elpased: 5.16
#iterations: 88
currently lose_sum: 0.5167802572250366
time_elpased: 5.103
#iterations: 89
currently lose_sum: 0.6065086126327515
time_elpased: 4.997
#iterations: 90
currently lose_sum: 0.61656653881073
time_elpased: 5.069
#iterations: 91
currently lose_sum: 0.5374810099601746
time_elpased: 5.088
#iterations: 92
currently lose_sum: 0.7056609988212585
time_elpased: 5.142
#iterations: 93
currently lose_sum: 0.5711046457290649
time_elpased: 5.148
#iterations: 94
currently lose_sum: 0.46924978494644165
time_elpased: 5.009
#iterations: 95
currently lose_sum: 0.5576252341270447
time_elpased: 5.201
#iterations: 96
currently lose_sum: 0.5825894474983215
time_elpased: 5.069
#iterations: 97
currently lose_sum: 0.627691388130188
time_elpased: 5.22
#iterations: 98
currently lose_sum: 0.6175796389579773
time_elpased: 4.991
#iterations: 99
currently lose_sum: 0.6046983003616333
time_elpased: 5.038
start validation test
0.622767857143
0.631332082552
0.598222222222
0.614331355545
0.622877927255
36.319
#iterations: 100
currently lose_sum: 0.5988198518753052
time_elpased: 5.139
#iterations: 101
currently lose_sum: 0.562060534954071
time_elpased: 5.024
#iterations: 102
currently lose_sum: 0.6308716535568237
time_elpased: 4.989
#iterations: 103
currently lose_sum: 0.5765208005905151
time_elpased: 5.092
#iterations: 104
currently lose_sum: 0.6098745465278625
time_elpased: 5.096
#iterations: 105
currently lose_sum: 0.570782482624054
time_elpased: 5.044
#iterations: 106
currently lose_sum: 0.56688392162323
time_elpased: 5.002
#iterations: 107
currently lose_sum: 0.6038116812705994
time_elpased: 5.042
#iterations: 108
currently lose_sum: 0.5872067213058472
time_elpased: 5.025
#iterations: 109
currently lose_sum: 0.5670650005340576
time_elpased: 4.998
#iterations: 110
currently lose_sum: 0.6446796655654907
time_elpased: 5.104
#iterations: 111
currently lose_sum: 0.6201068758964539
time_elpased: 5.168
#iterations: 112
currently lose_sum: 0.6140140891075134
time_elpased: 5.017
#iterations: 113
currently lose_sum: 0.6323467493057251
time_elpased: 4.986
#iterations: 114
currently lose_sum: 0.6196154356002808
time_elpased: 4.984
#iterations: 115
currently lose_sum: 0.5889390110969543
time_elpased: 5.335
#iterations: 116
currently lose_sum: 0.602679431438446
time_elpased: 5.086
#iterations: 117
currently lose_sum: 0.6378288269042969
time_elpased: 5.294
#iterations: 118
currently lose_sum: 0.5739490389823914
time_elpased: 5.126
#iterations: 119
currently lose_sum: 0.5271848440170288
time_elpased: 5.005
start validation test
0.626339285714
0.620805369128
0.657777777778
0.638757013379
0.626198305929
36.349
#iterations: 120
currently lose_sum: 0.502983808517456
time_elpased: 5.111
#iterations: 121
currently lose_sum: 0.5333029627799988
time_elpased: 5.098
#iterations: 122
currently lose_sum: 0.6030179262161255
time_elpased: 5.195
#iterations: 123
currently lose_sum: 0.5025672912597656
time_elpased: 5.18
#iterations: 124
currently lose_sum: 0.6487086415290833
time_elpased: 5.175
#iterations: 125
currently lose_sum: 0.6986897587776184
time_elpased: 5.191
#iterations: 126
currently lose_sum: 0.582028329372406
time_elpased: 5.208
#iterations: 127
currently lose_sum: 0.6907373666763306
time_elpased: 4.982
#iterations: 128
currently lose_sum: 0.5652505159378052
time_elpased: 5.062
#iterations: 129
currently lose_sum: 0.554864227771759
time_elpased: 5.055
#iterations: 130
currently lose_sum: 0.6040617227554321
time_elpased: 5.168
#iterations: 131
currently lose_sum: 0.4887774586677551
time_elpased: 5.087
#iterations: 132
currently lose_sum: 0.5904681086540222
time_elpased: 5.112
#iterations: 133
currently lose_sum: 0.5960338115692139
time_elpased: 5.008
#iterations: 134
currently lose_sum: 0.5783287286758423
time_elpased: 5.367
#iterations: 135
currently lose_sum: 0.5748909115791321
time_elpased: 5.324
#iterations: 136
currently lose_sum: 0.5877698063850403
time_elpased: 5.015
#iterations: 137
currently lose_sum: 0.5524917840957642
time_elpased: 5.216
#iterations: 138
currently lose_sum: 0.5523859262466431
time_elpased: 5.239
#iterations: 139
currently lose_sum: 0.5767718553543091
time_elpased: 5.018
start validation test
0.630357142857
0.65076142132
0.569777777778
0.607582938389
0.630628799203
36.056
#iterations: 140
currently lose_sum: 0.544889509677887
time_elpased: 5.294
#iterations: 141
currently lose_sum: 0.6445621848106384
time_elpased: 5.118
#iterations: 142
currently lose_sum: 0.5368093252182007
time_elpased: 5.137
#iterations: 143
currently lose_sum: 0.6757336258888245
time_elpased: 5.124
#iterations: 144
currently lose_sum: 0.6826392412185669
time_elpased: 5.053
#iterations: 145
currently lose_sum: 0.47920742630958557
time_elpased: 5.143
#iterations: 146
currently lose_sum: 0.5854427814483643
time_elpased: 5.036
#iterations: 147
currently lose_sum: 0.5846244096755981
time_elpased: 5.196
#iterations: 148
currently lose_sum: 0.642419159412384
time_elpased: 4.976
#iterations: 149
currently lose_sum: 0.5258284211158752
time_elpased: 4.99
#iterations: 150
currently lose_sum: 0.552271842956543
time_elpased: 5.055
#iterations: 151
currently lose_sum: 0.49814099073410034
time_elpased: 5.229
#iterations: 152
currently lose_sum: 0.48305264115333557
time_elpased: 5.127
#iterations: 153
currently lose_sum: 0.6260574460029602
time_elpased: 4.977
#iterations: 154
currently lose_sum: 0.5752796530723572
time_elpased: 5.088
#iterations: 155
currently lose_sum: 0.5295243263244629
time_elpased: 5.001
#iterations: 156
currently lose_sum: 0.6579738855361938
time_elpased: 5.045
#iterations: 157
currently lose_sum: 0.5862822532653809
time_elpased: 5.066
#iterations: 158
currently lose_sum: 0.5886271595954895
time_elpased: 5.026
#iterations: 159
currently lose_sum: 0.6339479684829712
time_elpased: 5.221
start validation test
0.629017857143
0.621688741722
0.667555555556
0.643806258037
0.628845042352
36.124
#iterations: 160
currently lose_sum: 0.5337068438529968
time_elpased: 5.086
#iterations: 161
currently lose_sum: 0.6851913332939148
time_elpased: 5.098
#iterations: 162
currently lose_sum: 0.6628793478012085
time_elpased: 5.273
#iterations: 163
currently lose_sum: 0.6451243162155151
time_elpased: 5.247
#iterations: 164
currently lose_sum: 0.741897463798523
time_elpased: 5.059
#iterations: 165
currently lose_sum: 0.5084986090660095
time_elpased: 5.262
#iterations: 166
currently lose_sum: 0.5325728058815002
time_elpased: 5.252
#iterations: 167
currently lose_sum: 0.5235728025436401
time_elpased: 5.086
#iterations: 168
currently lose_sum: 0.5308727025985718
time_elpased: 5.11
#iterations: 169
currently lose_sum: 0.7399889230728149
time_elpased: 5.005
#iterations: 170
currently lose_sum: 0.6004638671875
time_elpased: 4.963
#iterations: 171
currently lose_sum: 0.6708931922912598
time_elpased: 5.071
#iterations: 172
currently lose_sum: 0.5466732978820801
time_elpased: 5.066
#iterations: 173
currently lose_sum: 0.5621059536933899
time_elpased: 5.041
#iterations: 174
currently lose_sum: 0.5077942609786987
time_elpased: 5.335
#iterations: 175
currently lose_sum: 0.5353649854660034
time_elpased: 5.089
#iterations: 176
currently lose_sum: 0.5935727953910828
time_elpased: 5.082
#iterations: 177
currently lose_sum: 0.5469939112663269
time_elpased: 5.052
#iterations: 178
currently lose_sum: 0.541871190071106
time_elpased: 5.176
#iterations: 179
currently lose_sum: 0.6389118432998657
time_elpased: 5.032
start validation test
0.625892857143
0.633737185461
0.604444444444
0.618744313012
0.625989038366
36.025
#iterations: 180
currently lose_sum: 0.658852219581604
time_elpased: 5.084
#iterations: 181
currently lose_sum: 0.5071846842765808
time_elpased: 5.058
#iterations: 182
currently lose_sum: 0.6311608552932739
time_elpased: 5.112
#iterations: 183
currently lose_sum: 0.44248953461647034
time_elpased: 5.111
#iterations: 184
currently lose_sum: 0.6228566765785217
time_elpased: 5.211
#iterations: 185
currently lose_sum: 0.5721330642700195
time_elpased: 4.983
#iterations: 186
currently lose_sum: 0.6272497773170471
time_elpased: 5.009
#iterations: 187
currently lose_sum: 0.5835347175598145
time_elpased: 5.028
#iterations: 188
currently lose_sum: 0.6172889471054077
time_elpased: 5.136
#iterations: 189
currently lose_sum: 0.6525253057479858
time_elpased: 5.337
#iterations: 190
currently lose_sum: 0.5188781023025513
time_elpased: 5.001
#iterations: 191
currently lose_sum: 0.4907187521457672
time_elpased: 5.159
#iterations: 192
currently lose_sum: 0.5879815816879272
time_elpased: 5.111
#iterations: 193
currently lose_sum: 0.5619294047355652
time_elpased: 5.077
#iterations: 194
currently lose_sum: 0.48264408111572266
time_elpased: 5.176
#iterations: 195
currently lose_sum: 0.6419706344604492
time_elpased: 5.057
#iterations: 196
currently lose_sum: 0.5745692253112793
time_elpased: 5.114
#iterations: 197
currently lose_sum: 0.5017561316490173
time_elpased: 4.96
#iterations: 198
currently lose_sum: 0.720819354057312
time_elpased: 5.139
#iterations: 199
currently lose_sum: 0.6057595610618591
time_elpased: 5.072
start validation test
0.629464285714
0.619626926196
0.679111111111
0.648006785411
0.62924165421
36.298
#iterations: 200
currently lose_sum: 0.5859473943710327
time_elpased: 5.171
#iterations: 201
currently lose_sum: 0.5800703763961792
time_elpased: 5.235
#iterations: 202
currently lose_sum: 0.5675609707832336
time_elpased: 5.071
#iterations: 203
currently lose_sum: 0.514151930809021
time_elpased: 5.115
#iterations: 204
currently lose_sum: 0.4782540202140808
time_elpased: 5.054
#iterations: 205
currently lose_sum: 0.6270233392715454
time_elpased: 5.103
#iterations: 206
currently lose_sum: 0.6124750971794128
time_elpased: 5.102
#iterations: 207
currently lose_sum: 0.5917657017707825
time_elpased: 5.03
#iterations: 208
currently lose_sum: 0.4636146128177643
time_elpased: 5.158
#iterations: 209
currently lose_sum: 0.6214398145675659
time_elpased: 5.068
#iterations: 210
currently lose_sum: 0.6110274195671082
time_elpased: 5.027
#iterations: 211
currently lose_sum: 0.509220540523529
time_elpased: 5.084
#iterations: 212
currently lose_sum: 0.5591158866882324
time_elpased: 5.121
#iterations: 213
currently lose_sum: 0.6235207319259644
time_elpased: 5.109
#iterations: 214
currently lose_sum: 0.6266306638717651
time_elpased: 5.12
#iterations: 215
currently lose_sum: 0.5359259843826294
time_elpased: 5.228
#iterations: 216
currently lose_sum: 0.47841137647628784
time_elpased: 5.213
#iterations: 217
currently lose_sum: 0.49276986718177795
time_elpased: 5.096
#iterations: 218
currently lose_sum: 0.5800157785415649
time_elpased: 5.027
#iterations: 219
currently lose_sum: 0.6055789589881897
time_elpased: 5.127
start validation test
0.632142857143
0.616216216216
0.709333333333
0.659504132231
0.63179671151
36.496
#iterations: 220
currently lose_sum: 0.7243351936340332
time_elpased: 5.092
#iterations: 221
currently lose_sum: 0.5666607022285461
time_elpased: 5.042
#iterations: 222
currently lose_sum: 0.5831597447395325
time_elpased: 5.182
#iterations: 223
currently lose_sum: 0.6556277275085449
time_elpased: 5.063
#iterations: 224
currently lose_sum: 0.6139007210731506
time_elpased: 5.098
#iterations: 225
currently lose_sum: 0.6003745198249817
time_elpased: 5.101
#iterations: 226
currently lose_sum: 0.6695607900619507
time_elpased: 5.073
#iterations: 227
currently lose_sum: 0.5014694333076477
time_elpased: 5.037
#iterations: 228
currently lose_sum: 0.616538405418396
time_elpased: 5.143
#iterations: 229
currently lose_sum: 0.5590019226074219
time_elpased: 5.16
#iterations: 230
currently lose_sum: 0.588488757610321
time_elpased: 5.008
#iterations: 231
currently lose_sum: 0.5412009954452515
time_elpased: 5.039
#iterations: 232
currently lose_sum: 0.6112176179885864
time_elpased: 5.162
#iterations: 233
currently lose_sum: 0.5416339039802551
time_elpased: 5.204
#iterations: 234
currently lose_sum: 0.6245390176773071
time_elpased: 5.066
#iterations: 235
currently lose_sum: 0.7087339162826538
time_elpased: 5.093
#iterations: 236
currently lose_sum: 0.5575903654098511
time_elpased: 5.079
#iterations: 237
currently lose_sum: 0.6134825944900513
time_elpased: 5.009
#iterations: 238
currently lose_sum: 0.5506458282470703
time_elpased: 5.04
#iterations: 239
currently lose_sum: 0.6788908243179321
time_elpased: 5.208
start validation test
0.628571428571
0.623628691983
0.656888888889
0.639826839827
0.628444444444
36.221
#iterations: 240
currently lose_sum: 0.5153444409370422
time_elpased: 5.151
#iterations: 241
currently lose_sum: 0.5987229943275452
time_elpased: 5.102
#iterations: 242
currently lose_sum: 0.6756865978240967
time_elpased: 5.041
#iterations: 243
currently lose_sum: 0.496743381023407
time_elpased: 4.998
#iterations: 244
currently lose_sum: 0.5531128644943237
time_elpased: 5.078
#iterations: 245
currently lose_sum: 0.5825330018997192
time_elpased: 5.04
#iterations: 246
currently lose_sum: 0.48110610246658325
time_elpased: 5.307
#iterations: 247
currently lose_sum: 0.7002382278442383
time_elpased: 5.28
#iterations: 248
currently lose_sum: 0.592591404914856
time_elpased: 5.105
#iterations: 249
currently lose_sum: 0.5747132301330566
time_elpased: 5.044
#iterations: 250
currently lose_sum: 0.6623677611351013
time_elpased: 5.069
#iterations: 251
currently lose_sum: 0.5691725611686707
time_elpased: 5.15
#iterations: 252
currently lose_sum: 0.5732636451721191
time_elpased: 5.141
#iterations: 253
currently lose_sum: 0.5232608318328857
time_elpased: 5.116
#iterations: 254
currently lose_sum: 0.5120474100112915
time_elpased: 5.072
#iterations: 255
currently lose_sum: 0.5638569593429565
time_elpased: 5.055
#iterations: 256
currently lose_sum: 0.5231696367263794
time_elpased: 5.084
#iterations: 257
currently lose_sum: 0.6302419900894165
time_elpased: 5.094
#iterations: 258
currently lose_sum: 0.5491150617599487
time_elpased: 5.113
#iterations: 259
currently lose_sum: 0.6080526113510132
time_elpased: 5.11
start validation test
0.629464285714
0.632763276328
0.624888888889
0.628801431127
0.629484803189
36.335
#iterations: 260
currently lose_sum: 0.5566844940185547
time_elpased: 5.042
#iterations: 261
currently lose_sum: 0.5058518648147583
time_elpased: 5.041
#iterations: 262
currently lose_sum: 0.6182109713554382
time_elpased: 5.083
#iterations: 263
currently lose_sum: 0.6012060046195984
time_elpased: 5.015
#iterations: 264
currently lose_sum: 0.49202027916908264
time_elpased: 4.988
#iterations: 265
currently lose_sum: 0.549044132232666
time_elpased: 5.024
#iterations: 266
currently lose_sum: 0.5652016401290894
time_elpased: 5.083
#iterations: 267
currently lose_sum: 0.5737330317497253
time_elpased: 5.018
#iterations: 268
currently lose_sum: 0.49763044714927673
time_elpased: 5.056
#iterations: 269
currently lose_sum: 0.6391952633857727
time_elpased: 5.164
#iterations: 270
currently lose_sum: 0.5652417540550232
time_elpased: 5.088
#iterations: 271
currently lose_sum: 0.628832995891571
time_elpased: 4.939
#iterations: 272
currently lose_sum: 0.5163482427597046
time_elpased: 5.146
#iterations: 273
currently lose_sum: 0.6363672018051147
time_elpased: 5.083
#iterations: 274
currently lose_sum: 0.6810015439987183
time_elpased: 5.037
#iterations: 275
currently lose_sum: 0.6571545600891113
time_elpased: 5.145
#iterations: 276
currently lose_sum: 0.6192551851272583
time_elpased: 5.154
#iterations: 277
currently lose_sum: 0.6221144795417786
time_elpased: 5.085
#iterations: 278
currently lose_sum: 0.5416792035102844
time_elpased: 5.081
#iterations: 279
currently lose_sum: 0.51213538646698
time_elpased: 5.005
start validation test
0.628571428571
0.621375310688
0.666666666667
0.643224699828
0.628400597907
36.364
#iterations: 280
currently lose_sum: 0.6804631948471069
time_elpased: 5.021
#iterations: 281
currently lose_sum: 0.5678203701972961
time_elpased: 5.061
#iterations: 282
currently lose_sum: 0.5191653370857239
time_elpased: 5.143
#iterations: 283
currently lose_sum: 0.5766894221305847
time_elpased: 5.08
#iterations: 284
currently lose_sum: 0.5363214612007141
time_elpased: 4.97
#iterations: 285
currently lose_sum: 0.5859788060188293
time_elpased: 5.173
#iterations: 286
currently lose_sum: 0.5819419622421265
time_elpased: 5.129
#iterations: 287
currently lose_sum: 0.6587136387825012
time_elpased: 5.089
#iterations: 288
currently lose_sum: 0.690157413482666
time_elpased: 5.061
#iterations: 289
currently lose_sum: 0.48047947883605957
time_elpased: 5.003
#iterations: 290
currently lose_sum: 0.6730844378471375
time_elpased: 5.127
#iterations: 291
currently lose_sum: 0.5490815043449402
time_elpased: 5.058
#iterations: 292
currently lose_sum: 0.528777003288269
time_elpased: 5.129
#iterations: 293
currently lose_sum: 0.5397571325302124
time_elpased: 5.041
#iterations: 294
currently lose_sum: 0.7127785682678223
time_elpased: 5.143
#iterations: 295
currently lose_sum: 0.6329953074455261
time_elpased: 5.084
#iterations: 296
currently lose_sum: 0.6299164295196533
time_elpased: 5.151
#iterations: 297
currently lose_sum: 0.5870099067687988
time_elpased: 5.039
#iterations: 298
currently lose_sum: 0.5054051876068115
time_elpased: 5.183
#iterations: 299
currently lose_sum: 0.6298009157180786
time_elpased: 5.251
start validation test
0.625446428571
0.628597122302
0.621333333333
0.624944121591
0.625464872945
36.788
#iterations: 300
currently lose_sum: 0.5678139925003052
time_elpased: 5.076
#iterations: 301
currently lose_sum: 0.5894363522529602
time_elpased: 4.961
#iterations: 302
currently lose_sum: 0.6287092566490173
time_elpased: 5.075
#iterations: 303
currently lose_sum: 0.5509358048439026
time_elpased: 4.936
#iterations: 304
currently lose_sum: 0.5095566511154175
time_elpased: 5.154
#iterations: 305
currently lose_sum: 0.5296446681022644
time_elpased: 5.023
#iterations: 306
currently lose_sum: 0.47224530577659607
time_elpased: 5.055
#iterations: 307
currently lose_sum: 0.5651034116744995
time_elpased: 5.141
#iterations: 308
currently lose_sum: 0.6350593566894531
time_elpased: 5.204
#iterations: 309
currently lose_sum: 0.5687715411186218
time_elpased: 5.063
#iterations: 310
currently lose_sum: 0.46721258759498596
time_elpased: 5.11
#iterations: 311
currently lose_sum: 0.5326094627380371
time_elpased: 5.161
#iterations: 312
currently lose_sum: 0.5931208729743958
time_elpased: 5.011
#iterations: 313
currently lose_sum: 0.6746674180030823
time_elpased: 5.133
#iterations: 314
currently lose_sum: 0.5518800020217896
time_elpased: 5.164
#iterations: 315
currently lose_sum: 0.5273019075393677
time_elpased: 5.07
#iterations: 316
currently lose_sum: 0.6760347485542297
time_elpased: 5.009
#iterations: 317
currently lose_sum: 0.7080733180046082
time_elpased: 5.122
#iterations: 318
currently lose_sum: 0.5876896977424622
time_elpased: 5.055
#iterations: 319
currently lose_sum: 0.6392006278038025
time_elpased: 5.127
start validation test
0.634375
0.618788819876
0.708444444444
0.660588479072
0.634042850025
36.666
#iterations: 320
currently lose_sum: 0.6024070978164673
time_elpased: 4.998
#iterations: 321
currently lose_sum: 0.5434592962265015
time_elpased: 4.981
#iterations: 322
currently lose_sum: 0.5932998061180115
time_elpased: 5.191
#iterations: 323
currently lose_sum: 0.5771024823188782
time_elpased: 5.149
#iterations: 324
currently lose_sum: 0.5200999975204468
time_elpased: 5.17
#iterations: 325
currently lose_sum: 0.6332043409347534
time_elpased: 5.095
#iterations: 326
currently lose_sum: 0.5973973274230957
time_elpased: 5.038
#iterations: 327
currently lose_sum: 0.5505527257919312
time_elpased: 5.127
#iterations: 328
currently lose_sum: 0.47262173891067505
time_elpased: 5.131
#iterations: 329
currently lose_sum: 0.6115229725837708
time_elpased: 5.236
#iterations: 330
currently lose_sum: 0.4809493124485016
time_elpased: 5.059
#iterations: 331
currently lose_sum: 0.5995890498161316
time_elpased: 5.061
#iterations: 332
currently lose_sum: 0.6262670159339905
time_elpased: 5.11
#iterations: 333
currently lose_sum: 0.6084278225898743
time_elpased: 5.06
#iterations: 334
currently lose_sum: 0.6251834630966187
time_elpased: 5.07
#iterations: 335
currently lose_sum: 0.6011552810668945
time_elpased: 5.068
#iterations: 336
currently lose_sum: 0.6088141202926636
time_elpased: 5.087
#iterations: 337
currently lose_sum: 0.503137469291687
time_elpased: 5.094
#iterations: 338
currently lose_sum: 0.6495353579521179
time_elpased: 4.948
#iterations: 339
currently lose_sum: 0.6617449522018433
time_elpased: 5.172
start validation test
0.633035714286
0.619197482297
0.699555555556
0.656928213689
0.632737419033
36.455
#iterations: 340
currently lose_sum: 0.5187901258468628
time_elpased: 5.21
#iterations: 341
currently lose_sum: 0.6657736897468567
time_elpased: 5.105
#iterations: 342
currently lose_sum: 0.5978460311889648
time_elpased: 5.185
#iterations: 343
currently lose_sum: 0.5025492906570435
time_elpased: 5.118
#iterations: 344
currently lose_sum: 0.494978666305542
time_elpased: 5.223
#iterations: 345
currently lose_sum: 0.5632539987564087
time_elpased: 5.177
#iterations: 346
currently lose_sum: 0.6333401799201965
time_elpased: 5.187
#iterations: 347
currently lose_sum: 0.5996664762496948
time_elpased: 5.245
#iterations: 348
currently lose_sum: 0.5498203039169312
time_elpased: 5.267
#iterations: 349
currently lose_sum: 0.5509303212165833
time_elpased: 5.052
#iterations: 350
currently lose_sum: 0.47506770491600037
time_elpased: 5.157
#iterations: 351
currently lose_sum: 0.583063542842865
time_elpased: 5.247
#iterations: 352
currently lose_sum: 0.6356202363967896
time_elpased: 5.239
#iterations: 353
currently lose_sum: 0.5364583730697632
time_elpased: 5.249
#iterations: 354
currently lose_sum: 0.539736270904541
time_elpased: 5.159
#iterations: 355
currently lose_sum: 0.5278606414794922
time_elpased: 5.089
#iterations: 356
currently lose_sum: 0.668673574924469
time_elpased: 5.082
#iterations: 357
currently lose_sum: 0.5338506102561951
time_elpased: 5.121
#iterations: 358
currently lose_sum: 0.563193142414093
time_elpased: 5.036
#iterations: 359
currently lose_sum: 0.6381384134292603
time_elpased: 5.083
start validation test
0.625892857143
0.627782724844
0.626666666667
0.627224199288
0.625889387145
36.421
#iterations: 360
currently lose_sum: 0.5042786598205566
time_elpased: 5.13
#iterations: 361
currently lose_sum: 0.48524513840675354
time_elpased: 5.057
#iterations: 362
currently lose_sum: 0.5463332533836365
time_elpased: 5.043
#iterations: 363
currently lose_sum: 0.5930778384208679
time_elpased: 5.249
#iterations: 364
currently lose_sum: 0.5247281789779663
time_elpased: 5.12
#iterations: 365
currently lose_sum: 0.623203694820404
time_elpased: 5.178
#iterations: 366
currently lose_sum: 0.5463183522224426
time_elpased: 5.132
#iterations: 367
currently lose_sum: 0.6698715090751648
time_elpased: 5.113
#iterations: 368
currently lose_sum: 0.5561100840568542
time_elpased: 5.131
#iterations: 369
currently lose_sum: 0.6289000511169434
time_elpased: 5.207
#iterations: 370
currently lose_sum: 0.5874542593955994
time_elpased: 5.207
#iterations: 371
currently lose_sum: 0.5760937929153442
time_elpased: 5.14
#iterations: 372
currently lose_sum: 0.6785761117935181
time_elpased: 5.064
#iterations: 373
currently lose_sum: 0.5979005098342896
time_elpased: 5.037
#iterations: 374
currently lose_sum: 0.5704790949821472
time_elpased: 5.057
#iterations: 375
currently lose_sum: 0.6450449824333191
time_elpased: 4.976
#iterations: 376
currently lose_sum: 0.5989871621131897
time_elpased: 5.294
#iterations: 377
currently lose_sum: 0.6044526696205139
time_elpased: 5.189
#iterations: 378
currently lose_sum: 0.6385762095451355
time_elpased: 5.231
#iterations: 379
currently lose_sum: 0.6222056150436401
time_elpased: 5.214
start validation test
0.625446428571
0.627678571429
0.624888888889
0.626280623608
0.625448928749
36.540
#iterations: 380
currently lose_sum: 0.4591750204563141
time_elpased: 5.055
#iterations: 381
currently lose_sum: 0.6196956038475037
time_elpased: 5.033
#iterations: 382
currently lose_sum: 0.46871310472488403
time_elpased: 5.087
#iterations: 383
currently lose_sum: 0.5217734575271606
time_elpased: 5.309
#iterations: 384
currently lose_sum: 0.5189660787582397
time_elpased: 5.151
#iterations: 385
currently lose_sum: 0.5379190444946289
time_elpased: 5.294
#iterations: 386
currently lose_sum: 0.6095480918884277
time_elpased: 5.1
#iterations: 387
currently lose_sum: 0.5929305553436279
time_elpased: 5.204
#iterations: 388
currently lose_sum: 0.608536958694458
time_elpased: 5.155
#iterations: 389
currently lose_sum: 0.6147526502609253
time_elpased: 5.2
#iterations: 390
currently lose_sum: 0.5614112615585327
time_elpased: 5.22
#iterations: 391
currently lose_sum: 0.45358484983444214
time_elpased: 5.068
#iterations: 392
currently lose_sum: 0.5833526849746704
time_elpased: 5.062
#iterations: 393
currently lose_sum: 0.5476289987564087
time_elpased: 5.072
#iterations: 394
currently lose_sum: 0.5440120100975037
time_elpased: 5.104
#iterations: 395
currently lose_sum: 0.6026255488395691
time_elpased: 5.096
#iterations: 396
currently lose_sum: 0.6339859366416931
time_elpased: 5.183
#iterations: 397
currently lose_sum: 0.5811514854431152
time_elpased: 5.109
#iterations: 398
currently lose_sum: 0.5263551473617554
time_elpased: 5.071
#iterations: 399
currently lose_sum: 0.5167734622955322
time_elpased: 5.005
start validation test
0.628571428571
0.631390134529
0.625777777778
0.628571428571
0.628583956153
36.646
#iterations: 400
currently lose_sum: 0.5420097708702087
time_elpased: 5.168
#iterations: 401
currently lose_sum: 0.6236000657081604
time_elpased: 4.976
#iterations: 402
currently lose_sum: 0.592814564704895
time_elpased: 5.055
#iterations: 403
currently lose_sum: 0.6070594787597656
time_elpased: 5.021
#iterations: 404
currently lose_sum: 0.4945222735404968
time_elpased: 5.042
#iterations: 405
currently lose_sum: 0.5859525799751282
time_elpased: 5.252
#iterations: 406
currently lose_sum: 0.6051321029663086
time_elpased: 5.118
#iterations: 407
currently lose_sum: 0.49288830161094666
time_elpased: 5.09
#iterations: 408
currently lose_sum: 0.6451577544212341
time_elpased: 5.229
#iterations: 409
currently lose_sum: 0.6191261410713196
time_elpased: 5.083
#iterations: 410
currently lose_sum: 0.6045300364494324
time_elpased: 4.976
#iterations: 411
currently lose_sum: 0.6473659873008728
time_elpased: 5.111
#iterations: 412
currently lose_sum: 0.4952540397644043
time_elpased: 5.145
#iterations: 413
currently lose_sum: 0.4864342212677002
time_elpased: 5.02
#iterations: 414
currently lose_sum: 0.6183236837387085
time_elpased: 5.041
#iterations: 415
currently lose_sum: 0.5181015133857727
time_elpased: 4.996
#iterations: 416
currently lose_sum: 0.5857796669006348
time_elpased: 5.109
#iterations: 417
currently lose_sum: 0.5593059659004211
time_elpased: 5.086
#iterations: 418
currently lose_sum: 0.7069489359855652
time_elpased: 5.006
#iterations: 419
currently lose_sum: 0.6402641534805298
time_elpased: 5.032
start validation test
0.625446428571
0.615136876006
0.679111111111
0.645542881284
0.625205779771
36.889
#iterations: 420
currently lose_sum: 0.5273609161376953
time_elpased: 5.14
#iterations: 421
currently lose_sum: 0.5312925577163696
time_elpased: 5.257
#iterations: 422
currently lose_sum: 0.6265997886657715
time_elpased: 5.046
#iterations: 423
currently lose_sum: 0.5605267882347107
time_elpased: 5.157
#iterations: 424
currently lose_sum: 0.5765498280525208
time_elpased: 5.294
#iterations: 425
currently lose_sum: 0.5675140023231506
time_elpased: 5.112
#iterations: 426
currently lose_sum: 0.5205583572387695
time_elpased: 5.079
#iterations: 427
currently lose_sum: 0.5531955361366272
time_elpased: 5.114
#iterations: 428
currently lose_sum: 0.6272482872009277
time_elpased: 5.074
#iterations: 429
currently lose_sum: 0.6648023128509521
time_elpased: 5.073
#iterations: 430
currently lose_sum: 0.7034159898757935
time_elpased: 5.039
#iterations: 431
currently lose_sum: 0.6309930086135864
time_elpased: 5.101
#iterations: 432
currently lose_sum: 0.4932643473148346
time_elpased: 5.044
#iterations: 433
currently lose_sum: 0.572162389755249
time_elpased: 5.137
#iterations: 434
currently lose_sum: 0.4338105320930481
time_elpased: 5.034
#iterations: 435
currently lose_sum: 0.5732850432395935
time_elpased: 5.042
#iterations: 436
currently lose_sum: 0.6591955423355103
time_elpased: 4.995
#iterations: 437
currently lose_sum: 0.595582127571106
time_elpased: 5.094
#iterations: 438
currently lose_sum: 0.6541561484336853
time_elpased: 4.992
#iterations: 439
currently lose_sum: 0.5909149646759033
time_elpased: 5.217
start validation test
0.631696428571
0.63611615245
0.623111111111
0.629546475079
0.631734927753
36.676
#iterations: 440
currently lose_sum: 0.645161509513855
time_elpased: 5.046
#iterations: 441
currently lose_sum: 0.5771434903144836
time_elpased: 5.054
#iterations: 442
currently lose_sum: 0.5012844800949097
time_elpased: 5.102
#iterations: 443
currently lose_sum: 0.5031074285507202
time_elpased: 5.177
#iterations: 444
currently lose_sum: 0.5064129829406738
time_elpased: 5.13
#iterations: 445
currently lose_sum: 0.650265097618103
time_elpased: 5.187
#iterations: 446
currently lose_sum: 0.6167871356010437
time_elpased: 5.372
#iterations: 447
currently lose_sum: 0.5735031366348267
time_elpased: 5.341
#iterations: 448
currently lose_sum: 0.5772708058357239
time_elpased: 5.257
#iterations: 449
currently lose_sum: 0.5260685086250305
time_elpased: 5.615
#iterations: 450
currently lose_sum: 0.6204819679260254
time_elpased: 5.112
#iterations: 451
currently lose_sum: 0.5633602142333984
time_elpased: 5.17
#iterations: 452
currently lose_sum: 0.5502785444259644
time_elpased: 5.466
#iterations: 453
currently lose_sum: 0.5689752697944641
time_elpased: 5.084
#iterations: 454
currently lose_sum: 0.5718309879302979
time_elpased: 5.475
#iterations: 455
currently lose_sum: 0.6974441409111023
time_elpased: 5.148
#iterations: 456
currently lose_sum: 0.48695364594459534
time_elpased: 5.174
#iterations: 457
currently lose_sum: 0.6357983350753784
time_elpased: 5.362
#iterations: 458
currently lose_sum: 0.5260550379753113
time_elpased: 5.26
#iterations: 459
currently lose_sum: 0.6078174710273743
time_elpased: 5.349
start validation test
0.628571428571
0.617293835068
0.685333333333
0.649536647009
0.628316890882
36.587
#iterations: 460
currently lose_sum: 0.5396522879600525
time_elpased: 5.009
#iterations: 461
currently lose_sum: 0.4332413673400879
time_elpased: 5.08
#iterations: 462
currently lose_sum: 0.5583716630935669
time_elpased: 5.099
#iterations: 463
currently lose_sum: 0.562682569026947
time_elpased: 5.204
#iterations: 464
currently lose_sum: 0.41880226135253906
time_elpased: 5.153
#iterations: 465
currently lose_sum: 0.7140229940414429
time_elpased: 4.957
#iterations: 466
currently lose_sum: 0.6307549476623535
time_elpased: 5.062
#iterations: 467
currently lose_sum: 0.6006026864051819
time_elpased: 5.036
#iterations: 468
currently lose_sum: 0.6246580481529236
time_elpased: 4.949
#iterations: 469
currently lose_sum: 0.6261529326438904
time_elpased: 4.989
#iterations: 470
currently lose_sum: 0.593783974647522
time_elpased: 5.128
#iterations: 471
currently lose_sum: 0.6802213788032532
time_elpased: 4.95
#iterations: 472
currently lose_sum: 0.6051315665245056
time_elpased: 5.077
#iterations: 473
currently lose_sum: 0.6603277921676636
time_elpased: 5.146
#iterations: 474
currently lose_sum: 0.7019621133804321
time_elpased: 5.074
#iterations: 475
currently lose_sum: 0.46248117089271545
time_elpased: 5.241
#iterations: 476
currently lose_sum: 0.5669726729393005
time_elpased: 4.995
#iterations: 477
currently lose_sum: 0.5427476167678833
time_elpased: 5.069
#iterations: 478
currently lose_sum: 0.6130045056343079
time_elpased: 5.122
#iterations: 479
currently lose_sum: 0.5230554938316345
time_elpased: 5.052
start validation test
0.629017857143
0.61648177496
0.691555555556
0.651864264767
0.628737419033
36.838
#iterations: 480
currently lose_sum: 0.6216261982917786
time_elpased: 5.157
#iterations: 481
currently lose_sum: 0.5135623216629028
time_elpased: 5.208
#iterations: 482
currently lose_sum: 0.5951940417289734
time_elpased: 5.132
#iterations: 483
currently lose_sum: 0.5315922498703003
time_elpased: 5.158
#iterations: 484
currently lose_sum: 0.42632827162742615
time_elpased: 5.211
#iterations: 485
currently lose_sum: 0.559755802154541
time_elpased: 4.999
#iterations: 486
currently lose_sum: 0.571251392364502
time_elpased: 5.164
#iterations: 487
currently lose_sum: 0.5999831557273865
time_elpased: 5.201
#iterations: 488
currently lose_sum: 0.6326278448104858
time_elpased: 5.057
#iterations: 489
currently lose_sum: 0.6163315773010254
time_elpased: 5.195
#iterations: 490
currently lose_sum: 0.5766910314559937
time_elpased: 5.109
#iterations: 491
currently lose_sum: 0.4752950668334961
time_elpased: 5.096
#iterations: 492
currently lose_sum: 0.619830846786499
time_elpased: 5.122
#iterations: 493
currently lose_sum: 0.6001771092414856
time_elpased: 5.011
#iterations: 494
currently lose_sum: 0.6470975875854492
time_elpased: 5.068
#iterations: 495
currently lose_sum: 0.6494876146316528
time_elpased: 4.942
#iterations: 496
currently lose_sum: 0.6470808386802673
time_elpased: 4.971
#iterations: 497
currently lose_sum: 0.5634509325027466
time_elpased: 5.11
#iterations: 498
currently lose_sum: 0.5318006277084351
time_elpased: 4.959
#iterations: 499
currently lose_sum: 0.5669873952865601
time_elpased: 5.063
start validation test
0.634375
0.629881154499
0.659555555556
0.644376899696
0.634262082711
36.889
#iterations: 500
currently lose_sum: 0.4640398919582367
time_elpased: 5.139
#iterations: 501
currently lose_sum: 0.6092489957809448
time_elpased: 5.022
#iterations: 502
currently lose_sum: 0.5853689908981323
time_elpased: 5.035
#iterations: 503
currently lose_sum: 0.4831368327140808
time_elpased: 4.997
#iterations: 504
currently lose_sum: 0.49116572737693787
time_elpased: 5.074
#iterations: 505
currently lose_sum: 0.7259991765022278
time_elpased: 4.994
#iterations: 506
currently lose_sum: 0.4555104374885559
time_elpased: 5.116
#iterations: 507
currently lose_sum: 0.5911266207695007
time_elpased: 5.121
#iterations: 508
currently lose_sum: 0.5260986089706421
time_elpased: 5.08
#iterations: 509
currently lose_sum: 0.5539720058441162
time_elpased: 5.005
#iterations: 510
currently lose_sum: 0.6390402317047119
time_elpased: 5.132
#iterations: 511
currently lose_sum: 0.5908364057540894
time_elpased: 5.134
#iterations: 512
currently lose_sum: 0.6985095143318176
time_elpased: 5.149
#iterations: 513
currently lose_sum: 0.6538980603218079
time_elpased: 4.986
#iterations: 514
currently lose_sum: 0.5599220991134644
time_elpased: 5.073
#iterations: 515
currently lose_sum: 0.5546291470527649
time_elpased: 5.078
#iterations: 516
currently lose_sum: 0.5673796534538269
time_elpased: 4.934
#iterations: 517
currently lose_sum: 0.6702195405960083
time_elpased: 5.141
#iterations: 518
currently lose_sum: 0.5402852892875671
time_elpased: 5.031
#iterations: 519
currently lose_sum: 0.4834102690219879
time_elpased: 5.088
start validation test
0.632589285714
0.633628318584
0.636444444444
0.635033259424
0.632571998007
36.682
#iterations: 520
currently lose_sum: 0.6258672475814819
time_elpased: 5.174
#iterations: 521
currently lose_sum: 0.6560972332954407
time_elpased: 5.16
#iterations: 522
currently lose_sum: 0.6095690727233887
time_elpased: 4.989
#iterations: 523
currently lose_sum: 0.6279388666152954
time_elpased: 5.149
#iterations: 524
currently lose_sum: 0.5152390003204346
time_elpased: 5.141
#iterations: 525
currently lose_sum: 0.6262880563735962
time_elpased: 5.12
#iterations: 526
currently lose_sum: 0.7434148788452148
time_elpased: 4.968
#iterations: 527
currently lose_sum: 0.565559983253479
time_elpased: 5.17
#iterations: 528
currently lose_sum: 0.6036790013313293
time_elpased: 5.025
#iterations: 529
currently lose_sum: 0.614380955696106
time_elpased: 5.205
#iterations: 530
currently lose_sum: 0.6296943426132202
time_elpased: 5.093
#iterations: 531
currently lose_sum: 0.5523842573165894
time_elpased: 5.032
#iterations: 532
currently lose_sum: 0.5965760946273804
time_elpased: 5.008
#iterations: 533
currently lose_sum: 0.6045128107070923
time_elpased: 5.235
#iterations: 534
currently lose_sum: 0.6638675928115845
time_elpased: 4.976
#iterations: 535
currently lose_sum: 0.4612461030483246
time_elpased: 5.002
#iterations: 536
currently lose_sum: 0.60423344373703
time_elpased: 5.159
#iterations: 537
currently lose_sum: 0.582833468914032
time_elpased: 5.033
#iterations: 538
currently lose_sum: 0.6184481382369995
time_elpased: 5.053
#iterations: 539
currently lose_sum: 0.5066620111465454
time_elpased: 5.055
start validation test
0.629017857143
0.618548387097
0.681777777778
0.648625792812
0.628781265571
37.086
#iterations: 540
currently lose_sum: 0.5467332601547241
time_elpased: 5.099
#iterations: 541
currently lose_sum: 0.6227089762687683
time_elpased: 5.176
#iterations: 542
currently lose_sum: 0.5824960470199585
time_elpased: 5.056
#iterations: 543
currently lose_sum: 0.5708657503128052
time_elpased: 5.192
#iterations: 544
currently lose_sum: 0.478672593832016
time_elpased: 5.098
#iterations: 545
currently lose_sum: 0.6582790613174438
time_elpased: 5.228
#iterations: 546
currently lose_sum: 0.5537869930267334
time_elpased: 4.997
#iterations: 547
currently lose_sum: 0.6320606470108032
time_elpased: 5.058
#iterations: 548
currently lose_sum: 0.5441353917121887
time_elpased: 5.096
#iterations: 549
currently lose_sum: 0.5215303301811218
time_elpased: 5.018
#iterations: 550
currently lose_sum: 0.5448603630065918
time_elpased: 5.195
#iterations: 551
currently lose_sum: 0.5121219158172607
time_elpased: 5.152
#iterations: 552
currently lose_sum: 0.6553352475166321
time_elpased: 5.194
#iterations: 553
currently lose_sum: 0.5807633399963379
time_elpased: 5.018
#iterations: 554
currently lose_sum: 0.5556191205978394
time_elpased: 5.063
#iterations: 555
currently lose_sum: 0.7157379388809204
time_elpased: 5.015
#iterations: 556
currently lose_sum: 0.4728572964668274
time_elpased: 5.088
#iterations: 557
currently lose_sum: 0.5192260146141052
time_elpased: 5.131
#iterations: 558
currently lose_sum: 0.5481851100921631
time_elpased: 5.128
#iterations: 559
currently lose_sum: 0.5312756299972534
time_elpased: 5.173
start validation test
0.629910714286
0.631438721137
0.632
0.631719235895
0.629901345291
36.899
#iterations: 560
currently lose_sum: 0.5552292466163635
time_elpased: 5.196
#iterations: 561
currently lose_sum: 0.5143588781356812
time_elpased: 5.051
#iterations: 562
currently lose_sum: 0.5621957778930664
time_elpased: 5.251
#iterations: 563
currently lose_sum: 0.6594651937484741
time_elpased: 4.96
#iterations: 564
currently lose_sum: 0.5468323230743408
time_elpased: 5.021
#iterations: 565
currently lose_sum: 0.5689994692802429
time_elpased: 5.297
#iterations: 566
currently lose_sum: 0.6128782033920288
time_elpased: 5.06
#iterations: 567
currently lose_sum: 0.5556401014328003
time_elpased: 5.114
#iterations: 568
currently lose_sum: 0.5422362089157104
time_elpased: 5.086
#iterations: 569
currently lose_sum: 0.5136313438415527
time_elpased: 5.208
#iterations: 570
currently lose_sum: 0.5975044369697571
time_elpased: 5.073
#iterations: 571
currently lose_sum: 0.6113581657409668
time_elpased: 5.06
#iterations: 572
currently lose_sum: 0.6421977877616882
time_elpased: 4.994
#iterations: 573
currently lose_sum: 0.6050894856452942
time_elpased: 5.009
#iterations: 574
currently lose_sum: 0.564787745475769
time_elpased: 5.008
#iterations: 575
currently lose_sum: 0.6801338791847229
time_elpased: 5.236
#iterations: 576
currently lose_sum: 0.5458612442016602
time_elpased: 5.02
#iterations: 577
currently lose_sum: 0.5111624002456665
time_elpased: 5.159
#iterations: 578
currently lose_sum: 0.536331057548523
time_elpased: 5.035
#iterations: 579
currently lose_sum: 0.6924148201942444
time_elpased: 4.987
start validation test
0.621875
0.630639097744
0.596444444444
0.613065326633
0.621989038366
37.060
#iterations: 580
currently lose_sum: 0.5648221969604492
time_elpased: 4.95
#iterations: 581
currently lose_sum: 0.5733745694160461
time_elpased: 5.088
#iterations: 582
currently lose_sum: 0.5540719032287598
time_elpased: 5.125
#iterations: 583
currently lose_sum: 0.47012701630592346
time_elpased: 5.125
#iterations: 584
currently lose_sum: 0.5211697816848755
time_elpased: 5.158
#iterations: 585
currently lose_sum: 0.4840571880340576
time_elpased: 5.056
#iterations: 586
currently lose_sum: 0.5324705839157104
time_elpased: 5.172
#iterations: 587
currently lose_sum: 0.5263018608093262
time_elpased: 5.089
#iterations: 588
currently lose_sum: 0.6603315472602844
time_elpased: 5.179
#iterations: 589
currently lose_sum: 0.5248778462409973
time_elpased: 5.195
#iterations: 590
currently lose_sum: 0.5924552083015442
time_elpased: 5.278
#iterations: 591
currently lose_sum: 0.6827645897865295
time_elpased: 5.207
#iterations: 592
currently lose_sum: 0.612677812576294
time_elpased: 4.996
#iterations: 593
currently lose_sum: 0.5973356366157532
time_elpased: 5.115
#iterations: 594
currently lose_sum: 0.5230904817581177
time_elpased: 4.968
#iterations: 595
currently lose_sum: 0.6247679591178894
time_elpased: 5.02
#iterations: 596
currently lose_sum: 0.6458163857460022
time_elpased: 5.193
#iterations: 597
currently lose_sum: 0.6434584856033325
time_elpased: 5.123
#iterations: 598
currently lose_sum: 0.5823520421981812
time_elpased: 5.168
#iterations: 599
currently lose_sum: 0.5537961721420288
time_elpased: 5.115
start validation test
0.624107142857
0.62063086104
0.647111111111
0.633594429939
0.624003986049
37.169
acc: 0.637
pre: 0.643
rec: 0.623
F1: 0.633
auc: 0.637
