start to construct computing graph
graph construct over
3372
epochs start
#iterations: 0
currently lose_sum: 0.6944104433059692
time_elpased: 3.54
#iterations: 1
currently lose_sum: 0.7123639583587646
time_elpased: 3.483
#iterations: 2
currently lose_sum: 0.7465507388114929
time_elpased: 3.483
#iterations: 3
currently lose_sum: 0.6601027250289917
time_elpased: 3.469
#iterations: 4
currently lose_sum: 0.6735363602638245
time_elpased: 3.467
#iterations: 5
currently lose_sum: 0.6270438432693481
time_elpased: 3.521
#iterations: 6
currently lose_sum: 0.6668933629989624
time_elpased: 3.512
#iterations: 7
currently lose_sum: 0.6391924023628235
time_elpased: 3.463
#iterations: 8
currently lose_sum: 0.6549431681632996
time_elpased: 3.491
#iterations: 9
currently lose_sum: 0.726252555847168
time_elpased: 3.464
#iterations: 10
currently lose_sum: 0.5855486989021301
time_elpased: 3.44
#iterations: 11
currently lose_sum: 0.5769526362419128
time_elpased: 3.432
#iterations: 12
currently lose_sum: 0.6030108332633972
time_elpased: 3.464
#iterations: 13
currently lose_sum: 0.7170494198799133
time_elpased: 3.451
#iterations: 14
currently lose_sum: 0.5613712072372437
time_elpased: 3.415
#iterations: 15
currently lose_sum: 0.5766042470932007
time_elpased: 3.472
#iterations: 16
currently lose_sum: 0.5613104701042175
time_elpased: 3.55
#iterations: 17
currently lose_sum: 0.5548872351646423
time_elpased: 3.607
#iterations: 18
currently lose_sum: 0.6236867308616638
time_elpased: 3.609
#iterations: 19
currently lose_sum: 0.7127519845962524
time_elpased: 3.575
start validation test
0.623660714286
0.633776091082
0.593777777778
0.613125286829
0.623794718485
35.759
#iterations: 20
currently lose_sum: 0.6865712404251099
time_elpased: 2.511
#iterations: 21
currently lose_sum: 0.648807168006897
time_elpased: 2.559
#iterations: 22
currently lose_sum: 0.6450480818748474
time_elpased: 2.527
#iterations: 23
currently lose_sum: 0.6435438394546509
time_elpased: 2.597
#iterations: 24
currently lose_sum: 0.5816861391067505
time_elpased: 2.547
#iterations: 25
currently lose_sum: 0.6133359670639038
time_elpased: 2.539
#iterations: 26
currently lose_sum: 0.6880647540092468
time_elpased: 2.521
#iterations: 27
currently lose_sum: 0.5998721122741699
time_elpased: 2.548
#iterations: 28
currently lose_sum: 0.5516117215156555
time_elpased: 2.75
#iterations: 29
currently lose_sum: 0.6554949879646301
time_elpased: 2.652
#iterations: 30
currently lose_sum: 0.6076498031616211
time_elpased: 2.547
#iterations: 31
currently lose_sum: 0.6422175168991089
time_elpased: 2.529
#iterations: 32
currently lose_sum: 0.5566627383232117
time_elpased: 2.625
#iterations: 33
currently lose_sum: 0.7047430276870728
time_elpased: 2.499
#iterations: 34
currently lose_sum: 0.5984643697738647
time_elpased: 2.566
#iterations: 35
currently lose_sum: 0.631231427192688
time_elpased: 2.513
#iterations: 36
currently lose_sum: 0.5718076229095459
time_elpased: 2.538
#iterations: 37
currently lose_sum: 0.6213134527206421
time_elpased: 2.498
#iterations: 38
currently lose_sum: 0.602043628692627
time_elpased: 2.534
#iterations: 39
currently lose_sum: 0.6168166399002075
time_elpased: 2.521
start validation test
0.617410714286
0.640756302521
0.542222222222
0.587385652383
0.617747882412
35.550
#iterations: 40
currently lose_sum: 0.6243191957473755
time_elpased: 2.579
#iterations: 41
currently lose_sum: 0.652670681476593
time_elpased: 2.524
#iterations: 42
currently lose_sum: 0.6069391369819641
time_elpased: 2.586
#iterations: 43
currently lose_sum: 0.576008141040802
time_elpased: 2.683
#iterations: 44
currently lose_sum: 0.5609418749809265
time_elpased: 2.577
#iterations: 45
currently lose_sum: 0.6131607890129089
time_elpased: 2.539
#iterations: 46
currently lose_sum: 0.6580926179885864
time_elpased: 2.572
#iterations: 47
currently lose_sum: 0.5951415300369263
time_elpased: 2.58
#iterations: 48
currently lose_sum: 0.5978277325630188
time_elpased: 2.522
#iterations: 49
currently lose_sum: 0.6736233830451965
time_elpased: 2.544
#iterations: 50
currently lose_sum: 0.6133743524551392
time_elpased: 2.591
#iterations: 51
currently lose_sum: 0.6736322641372681
time_elpased: 2.562
#iterations: 52
currently lose_sum: 0.5506854057312012
time_elpased: 2.574
#iterations: 53
currently lose_sum: 0.6426709890365601
time_elpased: 2.653
#iterations: 54
currently lose_sum: 0.5798295140266418
time_elpased: 2.532
#iterations: 55
currently lose_sum: 0.5758682489395142
time_elpased: 2.569
#iterations: 56
currently lose_sum: 0.6283971071243286
time_elpased: 2.611
#iterations: 57
currently lose_sum: 0.6310333013534546
time_elpased: 2.535
#iterations: 58
currently lose_sum: 0.5306976437568665
time_elpased: 2.533
#iterations: 59
currently lose_sum: 0.6829245686531067
time_elpased: 2.556
start validation test
0.623660714286
0.618288590604
0.655111111111
0.63616745792
0.623519681116
35.963
#iterations: 60
currently lose_sum: 0.6932834386825562
time_elpased: 2.63
#iterations: 61
currently lose_sum: 0.6241430640220642
time_elpased: 2.548
#iterations: 62
currently lose_sum: 0.6703389883041382
time_elpased: 2.569
#iterations: 63
currently lose_sum: 0.6197170615196228
time_elpased: 2.541
#iterations: 64
currently lose_sum: 0.5643929243087769
time_elpased: 2.56
#iterations: 65
currently lose_sum: 0.42161697149276733
time_elpased: 2.538
#iterations: 66
currently lose_sum: 0.5768306851387024
time_elpased: 2.541
#iterations: 67
currently lose_sum: 0.601777195930481
time_elpased: 2.59
#iterations: 68
currently lose_sum: 0.6777241826057434
time_elpased: 2.532
#iterations: 69
currently lose_sum: 0.5646664500236511
time_elpased: 2.524
#iterations: 70
currently lose_sum: 0.5902171730995178
time_elpased: 2.546
#iterations: 71
currently lose_sum: 0.6619446873664856
time_elpased: 2.504
#iterations: 72
currently lose_sum: 0.6702278852462769
time_elpased: 2.517
#iterations: 73
currently lose_sum: 0.6392037272453308
time_elpased: 2.503
#iterations: 74
currently lose_sum: 0.6291531324386597
time_elpased: 2.536
#iterations: 75
currently lose_sum: 0.5709627270698547
time_elpased: 2.546
#iterations: 76
currently lose_sum: 0.6200159192085266
time_elpased: 2.716
#iterations: 77
currently lose_sum: 0.4785005450248718
time_elpased: 2.607
#iterations: 78
currently lose_sum: 0.7227908968925476
time_elpased: 2.534
#iterations: 79
currently lose_sum: 0.5542524456977844
time_elpased: 2.542
start validation test
0.625892857143
0.61416070008
0.686222222222
0.648194794291
0.625622321873
35.925
#iterations: 80
currently lose_sum: 0.6445156335830688
time_elpased: 2.516
#iterations: 81
currently lose_sum: 0.6250245571136475
time_elpased: 2.542
#iterations: 82
currently lose_sum: 0.7031053304672241
time_elpased: 2.526
#iterations: 83
currently lose_sum: 0.6485918760299683
time_elpased: 2.543
#iterations: 84
currently lose_sum: 0.5871326327323914
time_elpased: 2.529
#iterations: 85
currently lose_sum: 0.5982834696769714
time_elpased: 2.562
#iterations: 86
currently lose_sum: 0.546822726726532
time_elpased: 2.52
#iterations: 87
currently lose_sum: 0.5551373958587646
time_elpased: 2.565
#iterations: 88
currently lose_sum: 0.48398953676223755
time_elpased: 2.538
#iterations: 89
currently lose_sum: 0.6072803139686584
time_elpased: 2.533
#iterations: 90
currently lose_sum: 0.5855463147163391
time_elpased: 2.529
#iterations: 91
currently lose_sum: 0.5841075778007507
time_elpased: 2.508
#iterations: 92
currently lose_sum: 0.7744641900062561
time_elpased: 2.578
#iterations: 93
currently lose_sum: 0.5991772413253784
time_elpased: 2.557
#iterations: 94
currently lose_sum: 0.5273715257644653
time_elpased: 2.514
#iterations: 95
currently lose_sum: 0.552072286605835
time_elpased: 2.531
#iterations: 96
currently lose_sum: 0.6106759309768677
time_elpased: 2.518
#iterations: 97
currently lose_sum: 0.6085842847824097
time_elpased: 2.519
#iterations: 98
currently lose_sum: 0.616073727607727
time_elpased: 2.536
#iterations: 99
currently lose_sum: 0.5764116048812866
time_elpased: 2.561
start validation test
0.614285714286
0.621169916435
0.594666666667
0.607629427793
0.614373692078
36.397
#iterations: 100
currently lose_sum: 0.6134381294250488
time_elpased: 2.56
#iterations: 101
currently lose_sum: 0.5870148539543152
time_elpased: 2.596
#iterations: 102
currently lose_sum: 0.6461166143417358
time_elpased: 2.524
#iterations: 103
currently lose_sum: 0.5864598155021667
time_elpased: 2.512
#iterations: 104
currently lose_sum: 0.6056324243545532
time_elpased: 2.551
#iterations: 105
currently lose_sum: 0.5505374670028687
time_elpased: 2.511
#iterations: 106
currently lose_sum: 0.6046366691589355
time_elpased: 2.565
#iterations: 107
currently lose_sum: 0.591533362865448
time_elpased: 2.556
#iterations: 108
currently lose_sum: 0.5601399540901184
time_elpased: 2.545
#iterations: 109
currently lose_sum: 0.5587331652641296
time_elpased: 2.514
#iterations: 110
currently lose_sum: 0.6802231669425964
time_elpased: 2.557
#iterations: 111
currently lose_sum: 0.6302998065948486
time_elpased: 2.545
#iterations: 112
currently lose_sum: 0.6016286611557007
time_elpased: 2.545
#iterations: 113
currently lose_sum: 0.6567401885986328
time_elpased: 2.54
#iterations: 114
currently lose_sum: 0.6180858612060547
time_elpased: 2.566
#iterations: 115
currently lose_sum: 0.5943617820739746
time_elpased: 2.538
#iterations: 116
currently lose_sum: 0.6110942363739014
time_elpased: 2.54
#iterations: 117
currently lose_sum: 0.653924286365509
time_elpased: 2.594
#iterations: 118
currently lose_sum: 0.6047583818435669
time_elpased: 2.57
#iterations: 119
currently lose_sum: 0.526851236820221
time_elpased: 2.529
start validation test
0.626785714286
0.622147083686
0.654222222222
0.637781629116
0.626662680618
36.081
#iterations: 120
currently lose_sum: 0.49516019225120544
time_elpased: 2.601
#iterations: 121
currently lose_sum: 0.5219826102256775
time_elpased: 2.579
#iterations: 122
currently lose_sum: 0.5871239304542542
time_elpased: 2.54
#iterations: 123
currently lose_sum: 0.5251383185386658
time_elpased: 2.523
#iterations: 124
currently lose_sum: 0.6244159936904907
time_elpased: 2.556
#iterations: 125
currently lose_sum: 0.6727463006973267
time_elpased: 2.525
#iterations: 126
currently lose_sum: 0.573860764503479
time_elpased: 2.521
#iterations: 127
currently lose_sum: 0.6474980711936951
time_elpased: 2.627
#iterations: 128
currently lose_sum: 0.5466565489768982
time_elpased: 2.549
#iterations: 129
currently lose_sum: 0.5543890595436096
time_elpased: 2.53
#iterations: 130
currently lose_sum: 0.582659900188446
time_elpased: 2.542
#iterations: 131
currently lose_sum: 0.495337575674057
time_elpased: 2.544
#iterations: 132
currently lose_sum: 0.6259980797767639
time_elpased: 2.542
#iterations: 133
currently lose_sum: 0.5712957382202148
time_elpased: 2.516
#iterations: 134
currently lose_sum: 0.6271686553955078
time_elpased: 2.532
#iterations: 135
currently lose_sum: 0.5851893424987793
time_elpased: 2.54
#iterations: 136
currently lose_sum: 0.6110528707504272
time_elpased: 2.618
#iterations: 137
currently lose_sum: 0.5709988474845886
time_elpased: 2.536
#iterations: 138
currently lose_sum: 0.5724045634269714
time_elpased: 2.528
#iterations: 139
currently lose_sum: 0.5793971419334412
time_elpased: 2.547
start validation test
0.623660714286
0.653594771242
0.533333333333
0.587371512482
0.624065769806
36.056
#iterations: 140
currently lose_sum: 0.5112452507019043
time_elpased: 2.583
#iterations: 141
currently lose_sum: 0.6198345422744751
time_elpased: 2.525
#iterations: 142
currently lose_sum: 0.5602905750274658
time_elpased: 2.564
#iterations: 143
currently lose_sum: 0.7225974798202515
time_elpased: 2.519
#iterations: 144
currently lose_sum: 0.6452963352203369
time_elpased: 2.516
#iterations: 145
currently lose_sum: 0.4418109357357025
time_elpased: 2.558
#iterations: 146
currently lose_sum: 0.6004583835601807
time_elpased: 2.583
#iterations: 147
currently lose_sum: 0.5803963541984558
time_elpased: 2.547
#iterations: 148
currently lose_sum: 0.6446230411529541
time_elpased: 2.541
#iterations: 149
currently lose_sum: 0.5027333498001099
time_elpased: 2.551
#iterations: 150
currently lose_sum: 0.5713289380073547
time_elpased: 2.552
#iterations: 151
currently lose_sum: 0.4731444716453552
time_elpased: 2.573
#iterations: 152
currently lose_sum: 0.522101104259491
time_elpased: 2.567
#iterations: 153
currently lose_sum: 0.6001502275466919
time_elpased: 2.522
#iterations: 154
currently lose_sum: 0.6253262758255005
time_elpased: 2.512
#iterations: 155
currently lose_sum: 0.524602472782135
time_elpased: 2.553
#iterations: 156
currently lose_sum: 0.7100487351417542
time_elpased: 2.563
#iterations: 157
currently lose_sum: 0.6029757261276245
time_elpased: 2.522
#iterations: 158
currently lose_sum: 0.6798359155654907
time_elpased: 2.654
#iterations: 159
currently lose_sum: 0.6540122032165527
time_elpased: 2.532
start validation test
0.627678571429
0.61975308642
0.669333333333
0.64358974359
0.627491778774
36.039
#iterations: 160
currently lose_sum: 0.5631089806556702
time_elpased: 2.547
#iterations: 161
currently lose_sum: 0.6902651786804199
time_elpased: 2.535
#iterations: 162
currently lose_sum: 0.6137693524360657
time_elpased: 2.526
#iterations: 163
currently lose_sum: 0.6375755071640015
time_elpased: 2.528
#iterations: 164
currently lose_sum: 0.6925150156021118
time_elpased: 2.567
#iterations: 165
currently lose_sum: 0.4696144163608551
time_elpased: 2.568
#iterations: 166
currently lose_sum: 0.5387560725212097
time_elpased: 2.576
#iterations: 167
currently lose_sum: 0.5007272958755493
time_elpased: 2.539
#iterations: 168
currently lose_sum: 0.5663641095161438
time_elpased: 2.552
#iterations: 169
currently lose_sum: 0.7248210906982422
time_elpased: 2.523
#iterations: 170
currently lose_sum: 0.595906138420105
time_elpased: 2.509
#iterations: 171
currently lose_sum: 0.6418818235397339
time_elpased: 2.656
#iterations: 172
currently lose_sum: 0.5877970457077026
time_elpased: 2.506
#iterations: 173
currently lose_sum: 0.6119223833084106
time_elpased: 2.528
#iterations: 174
currently lose_sum: 0.5237854719161987
time_elpased: 2.75
#iterations: 175
currently lose_sum: 0.5598481893539429
time_elpased: 2.659
#iterations: 176
currently lose_sum: 0.5880587697029114
time_elpased: 2.539
#iterations: 177
currently lose_sum: 0.5573490858078003
time_elpased: 2.548
#iterations: 178
currently lose_sum: 0.5373626947402954
time_elpased: 2.573
#iterations: 179
currently lose_sum: 0.6137186884880066
time_elpased: 2.581
start validation test
0.626339285714
0.641453831041
0.580444444444
0.609426038264
0.626545092177
35.936
#iterations: 180
currently lose_sum: 0.6282770037651062
time_elpased: 2.539
#iterations: 181
currently lose_sum: 0.5279335975646973
time_elpased: 2.587
#iterations: 182
currently lose_sum: 0.5898336172103882
time_elpased: 2.522
#iterations: 183
currently lose_sum: 0.4569924771785736
time_elpased: 2.545
#iterations: 184
currently lose_sum: 0.645200252532959
time_elpased: 2.528
#iterations: 185
currently lose_sum: 0.5809346437454224
time_elpased: 2.522
#iterations: 186
currently lose_sum: 0.6351586580276489
time_elpased: 2.564
#iterations: 187
currently lose_sum: 0.5543646812438965
time_elpased: 2.528
#iterations: 188
currently lose_sum: 0.5839783549308777
time_elpased: 2.591
#iterations: 189
currently lose_sum: 0.6647669672966003
time_elpased: 2.545
#iterations: 190
currently lose_sum: 0.5245823860168457
time_elpased: 2.57
#iterations: 191
currently lose_sum: 0.4933585524559021
time_elpased: 2.567
#iterations: 192
currently lose_sum: 0.5915549993515015
time_elpased: 2.718
#iterations: 193
currently lose_sum: 0.5426356196403503
time_elpased: 2.563
#iterations: 194
currently lose_sum: 0.46034446358680725
time_elpased: 2.574
#iterations: 195
currently lose_sum: 0.7033608555793762
time_elpased: 2.554
#iterations: 196
currently lose_sum: 0.5656275153160095
time_elpased: 2.561
#iterations: 197
currently lose_sum: 0.490805059671402
time_elpased: 2.553
#iterations: 198
currently lose_sum: 0.6435485482215881
time_elpased: 2.533
#iterations: 199
currently lose_sum: 0.5854215621948242
time_elpased: 2.548
start validation test
0.614732142857
0.606158833063
0.664888888889
0.634167019924
0.614507224714
36.729
#iterations: 200
currently lose_sum: 0.6227725744247437
time_elpased: 2.594
#iterations: 201
currently lose_sum: 0.51933753490448
time_elpased: 2.554
#iterations: 202
currently lose_sum: 0.6013468503952026
time_elpased: 2.552
#iterations: 203
currently lose_sum: 0.5513333082199097
time_elpased: 2.557
#iterations: 204
currently lose_sum: 0.5068169832229614
time_elpased: 2.576
#iterations: 205
currently lose_sum: 0.6153598427772522
time_elpased: 2.651
#iterations: 206
currently lose_sum: 0.6393267512321472
time_elpased: 2.54
#iterations: 207
currently lose_sum: 0.621129035949707
time_elpased: 2.644
#iterations: 208
currently lose_sum: 0.5070675611495972
time_elpased: 2.592
#iterations: 209
currently lose_sum: 0.631095290184021
time_elpased: 2.587
#iterations: 210
currently lose_sum: 0.5999723672866821
time_elpased: 2.568
#iterations: 211
currently lose_sum: 0.5034573674201965
time_elpased: 2.543
#iterations: 212
currently lose_sum: 0.5739814043045044
time_elpased: 2.52
#iterations: 213
currently lose_sum: 0.6259607076644897
time_elpased: 2.578
#iterations: 214
currently lose_sum: 0.5463007688522339
time_elpased: 2.639
#iterations: 215
currently lose_sum: 0.5677464008331299
time_elpased: 2.557
#iterations: 216
currently lose_sum: 0.49462205171585083
time_elpased: 2.55
#iterations: 217
currently lose_sum: 0.5434584617614746
time_elpased: 2.553
#iterations: 218
currently lose_sum: 0.5842491388320923
time_elpased: 2.681
#iterations: 219
currently lose_sum: 0.6217065453529358
time_elpased: 2.545
start validation test
0.628571428571
0.614722004699
0.697777777778
0.653621981682
0.628261086198
36.062
#iterations: 220
currently lose_sum: 0.6899001002311707
time_elpased: 2.639
#iterations: 221
currently lose_sum: 0.5614732503890991
time_elpased: 2.544
#iterations: 222
currently lose_sum: 0.5955389738082886
time_elpased: 2.544
#iterations: 223
currently lose_sum: 0.6348956227302551
time_elpased: 2.589
#iterations: 224
currently lose_sum: 0.6116094589233398
time_elpased: 2.558
#iterations: 225
currently lose_sum: 0.5836843252182007
time_elpased: 2.619
#iterations: 226
currently lose_sum: 0.6377760171890259
time_elpased: 2.559
#iterations: 227
currently lose_sum: 0.49726372957229614
time_elpased: 2.532
#iterations: 228
currently lose_sum: 0.5794201493263245
time_elpased: 2.623
#iterations: 229
currently lose_sum: 0.5898336172103882
time_elpased: 2.602
#iterations: 230
currently lose_sum: 0.5863034129142761
time_elpased: 2.63
#iterations: 231
currently lose_sum: 0.513489842414856
time_elpased: 2.585
#iterations: 232
currently lose_sum: 0.6312435865402222
time_elpased: 2.571
#iterations: 233
currently lose_sum: 0.5379349589347839
time_elpased: 2.571
#iterations: 234
currently lose_sum: 0.6282232999801636
time_elpased: 2.589
#iterations: 235
currently lose_sum: 0.7011721134185791
time_elpased: 2.632
#iterations: 236
currently lose_sum: 0.5833354592323303
time_elpased: 2.599
#iterations: 237
currently lose_sum: 0.638457179069519
time_elpased: 2.61
#iterations: 238
currently lose_sum: 0.5842443704605103
time_elpased: 2.561
#iterations: 239
currently lose_sum: 0.6811488270759583
time_elpased: 2.573
start validation test
0.623214285714
0.619778346121
0.646222222222
0.63272410792
0.623111111111
36.288
#iterations: 240
currently lose_sum: 0.5566123723983765
time_elpased: 2.599
#iterations: 241
currently lose_sum: 0.5925901532173157
time_elpased: 2.559
#iterations: 242
currently lose_sum: 0.6687518358230591
time_elpased: 2.629
#iterations: 243
currently lose_sum: 0.5520910024642944
time_elpased: 2.567
#iterations: 244
currently lose_sum: 0.530656635761261
time_elpased: 2.587
#iterations: 245
currently lose_sum: 0.5863811373710632
time_elpased: 2.589
#iterations: 246
currently lose_sum: 0.5138086676597595
time_elpased: 2.553
#iterations: 247
currently lose_sum: 0.6766238212585449
time_elpased: 2.562
#iterations: 248
currently lose_sum: 0.6207565069198608
time_elpased: 2.596
#iterations: 249
currently lose_sum: 0.5677624344825745
time_elpased: 2.606
#iterations: 250
currently lose_sum: 0.6669845581054688
time_elpased: 2.591
#iterations: 251
currently lose_sum: 0.5985640287399292
time_elpased: 2.58
#iterations: 252
currently lose_sum: 0.5882114171981812
time_elpased: 2.569
#iterations: 253
currently lose_sum: 0.5046746730804443
time_elpased: 2.707
#iterations: 254
currently lose_sum: 0.5506457686424255
time_elpased: 2.554
#iterations: 255
currently lose_sum: 0.5703487396240234
time_elpased: 2.572
#iterations: 256
currently lose_sum: 0.5377777814865112
time_elpased: 2.582
#iterations: 257
currently lose_sum: 0.5895745754241943
time_elpased: 2.622
#iterations: 258
currently lose_sum: 0.52455073595047
time_elpased: 2.564
#iterations: 259
currently lose_sum: 0.5843849778175354
time_elpased: 2.577
start validation test
0.624107142857
0.631873252563
0.602666666667
0.616924476797
0.62420328849
36.305
#iterations: 260
currently lose_sum: 0.5870647430419922
time_elpased: 2.573
#iterations: 261
currently lose_sum: 0.5685678720474243
time_elpased: 2.566
#iterations: 262
currently lose_sum: 0.5939988493919373
time_elpased: 2.695
#iterations: 263
currently lose_sum: 0.6303245425224304
time_elpased: 2.591
#iterations: 264
currently lose_sum: 0.5386701822280884
time_elpased: 2.565
#iterations: 265
currently lose_sum: 0.5163072943687439
time_elpased: 2.562
#iterations: 266
currently lose_sum: 0.6201265454292297
time_elpased: 2.592
#iterations: 267
currently lose_sum: 0.5418332815170288
time_elpased: 2.597
#iterations: 268
currently lose_sum: 0.4827730059623718
time_elpased: 2.58
#iterations: 269
currently lose_sum: 0.5829141736030579
time_elpased: 2.655
#iterations: 270
currently lose_sum: 0.5598137974739075
time_elpased: 2.668
#iterations: 271
currently lose_sum: 0.6594165563583374
time_elpased: 2.635
#iterations: 272
currently lose_sum: 0.5176839828491211
time_elpased: 2.713
#iterations: 273
currently lose_sum: 0.5792895555496216
time_elpased: 2.671
#iterations: 274
currently lose_sum: 0.7511593699455261
time_elpased: 2.805
#iterations: 275
currently lose_sum: 0.6067787408828735
time_elpased: 2.701
#iterations: 276
currently lose_sum: 0.5961818695068359
time_elpased: 2.675
#iterations: 277
currently lose_sum: 0.6266614198684692
time_elpased: 2.729
#iterations: 278
currently lose_sum: 0.5266913175582886
time_elpased: 2.743
#iterations: 279
currently lose_sum: 0.5109869241714478
time_elpased: 2.792
start validation test
0.628125
0.620263591433
0.669333333333
0.64386489953
0.627940209268
36.249
#iterations: 280
currently lose_sum: 0.648899257183075
time_elpased: 2.721
#iterations: 281
currently lose_sum: 0.5483382344245911
time_elpased: 2.74
#iterations: 282
currently lose_sum: 0.5316294431686401
time_elpased: 2.768
#iterations: 283
currently lose_sum: 0.5606775879859924
time_elpased: 2.776
#iterations: 284
currently lose_sum: 0.5084803700447083
time_elpased: 2.804
#iterations: 285
currently lose_sum: 0.5707148313522339
time_elpased: 2.847
#iterations: 286
currently lose_sum: 0.5631017088890076
time_elpased: 2.777
#iterations: 287
currently lose_sum: 0.6568509340286255
time_elpased: 2.826
#iterations: 288
currently lose_sum: 0.6758828163146973
time_elpased: 2.823
#iterations: 289
currently lose_sum: 0.4531174600124359
time_elpased: 2.81
#iterations: 290
currently lose_sum: 0.6217747330665588
time_elpased: 2.848
#iterations: 291
currently lose_sum: 0.5642799139022827
time_elpased: 2.904
#iterations: 292
currently lose_sum: 0.5279254913330078
time_elpased: 2.8
#iterations: 293
currently lose_sum: 0.5898746252059937
time_elpased: 2.794
#iterations: 294
currently lose_sum: 0.6391407251358032
time_elpased: 2.859
#iterations: 295
currently lose_sum: 0.6130275130271912
time_elpased: 2.845
#iterations: 296
currently lose_sum: 0.663623034954071
time_elpased: 2.813
#iterations: 297
currently lose_sum: 0.6218529939651489
time_elpased: 2.752
#iterations: 298
currently lose_sum: 0.527511477470398
time_elpased: 2.752
#iterations: 299
currently lose_sum: 0.5862590670585632
time_elpased: 2.749
start validation test
0.624107142857
0.615134255492
0.672
0.642310960068
0.623892376682
36.599
#iterations: 300
currently lose_sum: 0.6290512084960938
time_elpased: 2.815
#iterations: 301
currently lose_sum: 0.5460359454154968
time_elpased: 2.798
#iterations: 302
currently lose_sum: 0.6445791125297546
time_elpased: 2.797
#iterations: 303
currently lose_sum: 0.5403271317481995
time_elpased: 2.743
#iterations: 304
currently lose_sum: 0.49597102403640747
time_elpased: 2.915
#iterations: 305
currently lose_sum: 0.5220252871513367
time_elpased: 2.872
#iterations: 306
currently lose_sum: 0.49789413809776306
time_elpased: 2.825
#iterations: 307
currently lose_sum: 0.6108149886131287
time_elpased: 2.913
#iterations: 308
currently lose_sum: 0.6448233723640442
time_elpased: 2.8
#iterations: 309
currently lose_sum: 0.5676032900810242
time_elpased: 2.701
#iterations: 310
currently lose_sum: 0.4688515067100525
time_elpased: 2.791
#iterations: 311
currently lose_sum: 0.5415052175521851
time_elpased: 2.863
#iterations: 312
currently lose_sum: 0.6775600910186768
time_elpased: 3.003
#iterations: 313
currently lose_sum: 0.6553968191146851
time_elpased: 2.731
#iterations: 314
currently lose_sum: 0.5345538854598999
time_elpased: 2.985
#iterations: 315
currently lose_sum: 0.5118242502212524
time_elpased: 2.734
#iterations: 316
currently lose_sum: 0.6345857381820679
time_elpased: 2.817
#iterations: 317
currently lose_sum: 0.6936768293380737
time_elpased: 2.859
#iterations: 318
currently lose_sum: 0.5795365571975708
time_elpased: 2.74
#iterations: 319
currently lose_sum: 0.6121919751167297
time_elpased: 2.816
start validation test
0.626339285714
0.630198915009
0.619555555556
0.62483191394
0.626369706029
36.362
#iterations: 320
currently lose_sum: 0.6197230219841003
time_elpased: 2.672
#iterations: 321
currently lose_sum: 0.5692906379699707
time_elpased: 2.706
#iterations: 322
currently lose_sum: 0.6077848672866821
time_elpased: 2.629
#iterations: 323
currently lose_sum: 0.6138258576393127
time_elpased: 2.643
#iterations: 324
currently lose_sum: 0.6271504163742065
time_elpased: 2.599
#iterations: 325
currently lose_sum: 0.6188451051712036
time_elpased: 2.596
#iterations: 326
currently lose_sum: 0.5980135798454285
time_elpased: 2.591
#iterations: 327
currently lose_sum: 0.552529513835907
time_elpased: 2.583
#iterations: 328
currently lose_sum: 0.5248297452926636
time_elpased: 2.595
#iterations: 329
currently lose_sum: 0.6105265617370605
time_elpased: 2.632
#iterations: 330
currently lose_sum: 0.5172439813613892
time_elpased: 2.655
#iterations: 331
currently lose_sum: 0.5795647501945496
time_elpased: 2.609
#iterations: 332
currently lose_sum: 0.6439620852470398
time_elpased: 2.601
#iterations: 333
currently lose_sum: 0.5825308561325073
time_elpased: 2.591
#iterations: 334
currently lose_sum: 0.5996747612953186
time_elpased: 2.623
#iterations: 335
currently lose_sum: 0.6065694093704224
time_elpased: 2.583
#iterations: 336
currently lose_sum: 0.5903469324111938
time_elpased: 2.595
#iterations: 337
currently lose_sum: 0.486726850271225
time_elpased: 2.613
#iterations: 338
currently lose_sum: 0.6750221848487854
time_elpased: 2.572
#iterations: 339
currently lose_sum: 0.6404735445976257
time_elpased: 2.605
start validation test
0.636607142857
0.620449264136
0.712
0.663079470199
0.636269058296
36.460
#iterations: 340
currently lose_sum: 0.5557466745376587
time_elpased: 2.626
#iterations: 341
currently lose_sum: 0.6589186787605286
time_elpased: 2.602
#iterations: 342
currently lose_sum: 0.6282955408096313
time_elpased: 2.578
#iterations: 343
currently lose_sum: 0.4595014154911041
time_elpased: 2.726
#iterations: 344
currently lose_sum: 0.5178777575492859
time_elpased: 2.562
#iterations: 345
currently lose_sum: 0.5723060965538025
time_elpased: 2.601
#iterations: 346
currently lose_sum: 0.6028560996055603
time_elpased: 2.578
#iterations: 347
currently lose_sum: 0.5835851430892944
time_elpased: 2.59
#iterations: 348
currently lose_sum: 0.5699571371078491
time_elpased: 2.593
#iterations: 349
currently lose_sum: 0.5566856265068054
time_elpased: 2.576
#iterations: 350
currently lose_sum: 0.5826678276062012
time_elpased: 2.56
#iterations: 351
currently lose_sum: 0.589590847492218
time_elpased: 2.548
#iterations: 352
currently lose_sum: 0.6414251327514648
time_elpased: 2.599
#iterations: 353
currently lose_sum: 0.5432982444763184
time_elpased: 2.655
#iterations: 354
currently lose_sum: 0.536773681640625
time_elpased: 2.677
#iterations: 355
currently lose_sum: 0.5209347605705261
time_elpased: 2.596
#iterations: 356
currently lose_sum: 0.6672999262809753
time_elpased: 2.589
#iterations: 357
currently lose_sum: 0.5109335780143738
time_elpased: 2.598
#iterations: 358
currently lose_sum: 0.5797470808029175
time_elpased: 2.608
#iterations: 359
currently lose_sum: 0.5859075784683228
time_elpased: 2.61
start validation test
0.619642857143
0.621549421193
0.620444444444
0.620996441281
0.619639262581
36.622
#iterations: 360
currently lose_sum: 0.5157105922698975
time_elpased: 2.612
#iterations: 361
currently lose_sum: 0.4868486821651459
time_elpased: 2.64
#iterations: 362
currently lose_sum: 0.5889517068862915
time_elpased: 2.657
#iterations: 363
currently lose_sum: 0.5834878087043762
time_elpased: 2.57
#iterations: 364
currently lose_sum: 0.5143715739250183
time_elpased: 2.577
#iterations: 365
currently lose_sum: 0.6032605767250061
time_elpased: 2.614
#iterations: 366
currently lose_sum: 0.5138782858848572
time_elpased: 2.626
#iterations: 367
currently lose_sum: 0.6843495965003967
time_elpased: 2.624
#iterations: 368
currently lose_sum: 0.5581167340278625
time_elpased: 2.595
#iterations: 369
currently lose_sum: 0.6447616815567017
time_elpased: 2.609
#iterations: 370
currently lose_sum: 0.5864318609237671
time_elpased: 2.602
#iterations: 371
currently lose_sum: 0.6199097037315369
time_elpased: 2.627
#iterations: 372
currently lose_sum: 0.6260579824447632
time_elpased: 2.576
#iterations: 373
currently lose_sum: 0.5847504138946533
time_elpased: 2.604
#iterations: 374
currently lose_sum: 0.571422815322876
time_elpased: 2.607
#iterations: 375
currently lose_sum: 0.618808388710022
time_elpased: 2.826
#iterations: 376
currently lose_sum: 0.6169134378433228
time_elpased: 3.05
#iterations: 377
currently lose_sum: 0.615284264087677
time_elpased: 2.772
#iterations: 378
currently lose_sum: 0.6564013957977295
time_elpased: 2.624
#iterations: 379
currently lose_sum: 0.6516531705856323
time_elpased: 2.657
start validation test
0.622321428571
0.630009319664
0.600888888889
0.615104640582
0.622417538615
36.712
#iterations: 380
currently lose_sum: 0.4729817509651184
time_elpased: 2.642
#iterations: 381
currently lose_sum: 0.6331939101219177
time_elpased: 2.565
#iterations: 382
currently lose_sum: 0.4523138105869293
time_elpased: 2.565
#iterations: 383
currently lose_sum: 0.5275699496269226
time_elpased: 2.548
#iterations: 384
currently lose_sum: 0.5373963117599487
time_elpased: 2.634
#iterations: 385
currently lose_sum: 0.5150421261787415
time_elpased: 2.625
#iterations: 386
currently lose_sum: 0.6163530945777893
time_elpased: 2.57
#iterations: 387
currently lose_sum: 0.577811598777771
time_elpased: 2.561
#iterations: 388
currently lose_sum: 0.6223457455635071
time_elpased: 2.588
#iterations: 389
currently lose_sum: 0.6153998970985413
time_elpased: 2.569
#iterations: 390
currently lose_sum: 0.5637328624725342
time_elpased: 2.512
#iterations: 391
currently lose_sum: 0.4694373607635498
time_elpased: 2.576
#iterations: 392
currently lose_sum: 0.5337870717048645
time_elpased: 2.536
#iterations: 393
currently lose_sum: 0.517280101776123
time_elpased: 2.527
#iterations: 394
currently lose_sum: 0.537118136882782
time_elpased: 2.565
#iterations: 395
currently lose_sum: 0.6032012104988098
time_elpased: 2.572
#iterations: 396
currently lose_sum: 0.6110388040542603
time_elpased: 2.608
#iterations: 397
currently lose_sum: 0.5981862545013428
time_elpased: 2.582
#iterations: 398
currently lose_sum: 0.5126127600669861
time_elpased: 2.611
#iterations: 399
currently lose_sum: 0.5459578633308411
time_elpased: 2.575
start validation test
0.623214285714
0.627843494086
0.613333333333
0.620503597122
0.623258594918
36.815
#iterations: 400
currently lose_sum: 0.513872504234314
time_elpased: 2.617
#iterations: 401
currently lose_sum: 0.6397435069084167
time_elpased: 2.745
#iterations: 402
currently lose_sum: 0.668646514415741
time_elpased: 2.566
#iterations: 403
currently lose_sum: 0.5980660915374756
time_elpased: 2.557
#iterations: 404
currently lose_sum: 0.4830794334411621
time_elpased: 2.613
#iterations: 405
currently lose_sum: 0.6280430555343628
time_elpased: 2.619
#iterations: 406
currently lose_sum: 0.6305264234542847
time_elpased: 2.602
#iterations: 407
currently lose_sum: 0.4905065596103668
time_elpased: 2.547
#iterations: 408
currently lose_sum: 0.6680633425712585
time_elpased: 2.556
#iterations: 409
currently lose_sum: 0.6265153884887695
time_elpased: 2.579
#iterations: 410
currently lose_sum: 0.5950249433517456
time_elpased: 2.557
#iterations: 411
currently lose_sum: 0.6947919726371765
time_elpased: 2.597
#iterations: 412
currently lose_sum: 0.49479860067367554
time_elpased: 2.58
#iterations: 413
currently lose_sum: 0.5232411623001099
time_elpased: 2.567
#iterations: 414
currently lose_sum: 0.6938040852546692
time_elpased: 2.605
#iterations: 415
currently lose_sum: 0.5342995524406433
time_elpased: 2.543
#iterations: 416
currently lose_sum: 0.5729135870933533
time_elpased: 2.529
#iterations: 417
currently lose_sum: 0.5298960208892822
time_elpased: 2.576
#iterations: 418
currently lose_sum: 0.7149174809455872
time_elpased: 2.587
#iterations: 419
currently lose_sum: 0.6135750412940979
time_elpased: 2.585
start validation test
0.626339285714
0.619800332779
0.662222222222
0.640309411259
0.626178375685
36.824
#iterations: 420
currently lose_sum: 0.5121482610702515
time_elpased: 2.597
#iterations: 421
currently lose_sum: 0.5253769755363464
time_elpased: 2.643
#iterations: 422
currently lose_sum: 0.6378580927848816
time_elpased: 2.634
#iterations: 423
currently lose_sum: 0.5827991366386414
time_elpased: 2.659
#iterations: 424
currently lose_sum: 0.5949527025222778
time_elpased: 2.739
#iterations: 425
currently lose_sum: 0.539458155632019
time_elpased: 2.688
#iterations: 426
currently lose_sum: 0.5067195892333984
time_elpased: 2.707
#iterations: 427
currently lose_sum: 0.55586838722229
time_elpased: 2.759
#iterations: 428
currently lose_sum: 0.6888996958732605
time_elpased: 2.718
#iterations: 429
currently lose_sum: 0.5817065834999084
time_elpased: 2.78
#iterations: 430
currently lose_sum: 0.6922787427902222
time_elpased: 2.806
#iterations: 431
currently lose_sum: 0.6532484292984009
time_elpased: 2.688
#iterations: 432
currently lose_sum: 0.5243781208992004
time_elpased: 2.71
#iterations: 433
currently lose_sum: 0.590986967086792
time_elpased: 2.739
#iterations: 434
currently lose_sum: 0.3970542252063751
time_elpased: 2.767
#iterations: 435
currently lose_sum: 0.5578200221061707
time_elpased: 2.719
#iterations: 436
currently lose_sum: 0.670751690864563
time_elpased: 2.72
#iterations: 437
currently lose_sum: 0.5713789463043213
time_elpased: 2.795
#iterations: 438
currently lose_sum: 0.6194145679473877
time_elpased: 2.76
#iterations: 439
currently lose_sum: 0.6248384714126587
time_elpased: 2.915
start validation test
0.622767857143
0.627272727273
0.613333333333
0.620224719101
0.622810164425
36.891
#iterations: 440
currently lose_sum: 0.6361330151557922
time_elpased: 2.766
#iterations: 441
currently lose_sum: 0.5878443717956543
time_elpased: 2.797
#iterations: 442
currently lose_sum: 0.6048048734664917
time_elpased: 2.742
#iterations: 443
currently lose_sum: 0.5486655831336975
time_elpased: 2.841
#iterations: 444
currently lose_sum: 0.5383545160293579
time_elpased: 2.921
#iterations: 445
currently lose_sum: 0.6378164291381836
time_elpased: 2.713
#iterations: 446
currently lose_sum: 0.5611597895622253
time_elpased: 2.815
#iterations: 447
currently lose_sum: 0.5204739570617676
time_elpased: 2.808
#iterations: 448
currently lose_sum: 0.6233727931976318
time_elpased: 2.725
#iterations: 449
currently lose_sum: 0.5099284052848816
time_elpased: 2.875
#iterations: 450
currently lose_sum: 0.5691109895706177
time_elpased: 2.762
#iterations: 451
currently lose_sum: 0.5113539695739746
time_elpased: 2.783
#iterations: 452
currently lose_sum: 0.5263885259628296
time_elpased: 2.959
#iterations: 453
currently lose_sum: 0.5791171193122864
time_elpased: 3.005
#iterations: 454
currently lose_sum: 0.5586915016174316
time_elpased: 2.824
#iterations: 455
currently lose_sum: 0.6764100790023804
time_elpased: 2.85
#iterations: 456
currently lose_sum: 0.5156532526016235
time_elpased: 2.677
#iterations: 457
currently lose_sum: 0.6362698674201965
time_elpased: 2.638
#iterations: 458
currently lose_sum: 0.5701323747634888
time_elpased: 2.658
#iterations: 459
currently lose_sum: 0.6345440149307251
time_elpased: 2.651
start validation test
0.627678571429
0.621757322176
0.660444444444
0.640517241379
0.627531639263
36.913
#iterations: 460
currently lose_sum: 0.590231716632843
time_elpased: 2.651
#iterations: 461
currently lose_sum: 0.4930466115474701
time_elpased: 2.777
#iterations: 462
currently lose_sum: 0.5518549084663391
time_elpased: 2.912
#iterations: 463
currently lose_sum: 0.6139975786209106
time_elpased: 3.087
#iterations: 464
currently lose_sum: 0.39807388186454773
time_elpased: 2.819
#iterations: 465
currently lose_sum: 0.699158787727356
time_elpased: 2.914
#iterations: 466
currently lose_sum: 0.6400411128997803
time_elpased: 3.051
#iterations: 467
currently lose_sum: 0.6258968710899353
time_elpased: 2.854
#iterations: 468
currently lose_sum: 0.6806045174598694
time_elpased: 2.735
#iterations: 469
currently lose_sum: 0.6295369863510132
time_elpased: 2.791
#iterations: 470
currently lose_sum: 0.5734879374504089
time_elpased: 2.825
#iterations: 471
currently lose_sum: 0.611024022102356
time_elpased: 2.759
#iterations: 472
currently lose_sum: 0.601531445980072
time_elpased: 2.747
#iterations: 473
currently lose_sum: 0.6489564180374146
time_elpased: 2.811
#iterations: 474
currently lose_sum: 0.6936925649642944
time_elpased: 2.761
#iterations: 475
currently lose_sum: 0.44494548439979553
time_elpased: 2.818
#iterations: 476
currently lose_sum: 0.5842075347900391
time_elpased: 2.794
#iterations: 477
currently lose_sum: 0.5534619092941284
time_elpased: 2.85
#iterations: 478
currently lose_sum: 0.5366117358207703
time_elpased: 2.756
#iterations: 479
currently lose_sum: 0.5044946074485779
time_elpased: 2.7
start validation test
0.628125
0.617932148627
0.68
0.647482014388
0.627892376682
36.892
#iterations: 480
currently lose_sum: 0.6098369359970093
time_elpased: 2.77
#iterations: 481
currently lose_sum: 0.5356903076171875
time_elpased: 2.872
#iterations: 482
currently lose_sum: 0.5720137357711792
time_elpased: 2.774
#iterations: 483
currently lose_sum: 0.5074635744094849
time_elpased: 2.787
#iterations: 484
currently lose_sum: 0.47877320647239685
time_elpased: 2.789
#iterations: 485
currently lose_sum: 0.5424719452857971
time_elpased: 2.851
#iterations: 486
currently lose_sum: 0.5932410955429077
time_elpased: 2.775
#iterations: 487
currently lose_sum: 0.5531248450279236
time_elpased: 2.839
#iterations: 488
currently lose_sum: 0.6213129758834839
time_elpased: 2.864
#iterations: 489
currently lose_sum: 0.6437103152275085
time_elpased: 2.785
#iterations: 490
currently lose_sum: 0.6413881778717041
time_elpased: 2.795
#iterations: 491
currently lose_sum: 0.4821840822696686
time_elpased: 2.778
#iterations: 492
currently lose_sum: 0.5770483016967773
time_elpased: 2.818
#iterations: 493
currently lose_sum: 0.5733432173728943
time_elpased: 2.799
#iterations: 494
currently lose_sum: 0.6298664808273315
time_elpased: 2.773
#iterations: 495
currently lose_sum: 0.7081032395362854
time_elpased: 2.821
#iterations: 496
currently lose_sum: 0.6126486659049988
time_elpased: 2.827
#iterations: 497
currently lose_sum: 0.6046366691589355
time_elpased: 2.77
#iterations: 498
currently lose_sum: 0.5260030627250671
time_elpased: 2.829
#iterations: 499
currently lose_sum: 0.5798915028572083
time_elpased: 2.953
start validation test
0.626339285714
0.613744075829
0.690666666667
0.649937264743
0.626050822123
36.885
#iterations: 500
currently lose_sum: 0.4723421633243561
time_elpased: 2.819
#iterations: 501
currently lose_sum: 0.6243258714675903
time_elpased: 2.798
#iterations: 502
currently lose_sum: 0.6196891069412231
time_elpased: 2.833
#iterations: 503
currently lose_sum: 0.517562985420227
time_elpased: 2.84
#iterations: 504
currently lose_sum: 0.5248567461967468
time_elpased: 2.849
#iterations: 505
currently lose_sum: 0.683895468711853
time_elpased: 2.885
#iterations: 506
currently lose_sum: 0.46645814180374146
time_elpased: 2.933
#iterations: 507
currently lose_sum: 0.5695736408233643
time_elpased: 2.868
#iterations: 508
currently lose_sum: 0.5246762037277222
time_elpased: 2.982
#iterations: 509
currently lose_sum: 0.5459710359573364
time_elpased: 2.846
#iterations: 510
currently lose_sum: 0.6378033757209778
time_elpased: 2.82
#iterations: 511
currently lose_sum: 0.5465353727340698
time_elpased: 2.838
#iterations: 512
currently lose_sum: 0.695923388004303
time_elpased: 3.013
#iterations: 513
currently lose_sum: 0.6302893757820129
time_elpased: 2.821
#iterations: 514
currently lose_sum: 0.636318564414978
time_elpased: 2.846
#iterations: 515
currently lose_sum: 0.5923186540603638
time_elpased: 2.87
#iterations: 516
currently lose_sum: 0.5913599133491516
time_elpased: 2.805
#iterations: 517
currently lose_sum: 0.7050269246101379
time_elpased: 2.836
#iterations: 518
currently lose_sum: 0.5792669057846069
time_elpased: 3.015
#iterations: 519
currently lose_sum: 0.4769233763217926
time_elpased: 2.935
start validation test
0.628571428571
0.63807728558
0.601777777778
0.619396157365
0.628691579472
36.841
#iterations: 520
currently lose_sum: 0.6933561563491821
time_elpased: 3.054
#iterations: 521
currently lose_sum: 0.6228218078613281
time_elpased: 3.083
#iterations: 522
currently lose_sum: 0.5748155117034912
time_elpased: 3.091
#iterations: 523
currently lose_sum: 0.5688163638114929
time_elpased: 3.078
#iterations: 524
currently lose_sum: 0.48869189620018005
time_elpased: 3.039
#iterations: 525
currently lose_sum: 0.6277651190757751
time_elpased: 3.06
#iterations: 526
currently lose_sum: 0.7486538887023926
time_elpased: 3.143
#iterations: 527
currently lose_sum: 0.5807088613510132
time_elpased: 2.955
#iterations: 528
currently lose_sum: 0.6008929014205933
time_elpased: 2.745
#iterations: 529
currently lose_sum: 0.6531786918640137
time_elpased: 2.659
#iterations: 530
currently lose_sum: 0.6173917055130005
time_elpased: 2.659
#iterations: 531
currently lose_sum: 0.5688908100128174
time_elpased: 2.64
#iterations: 532
currently lose_sum: 0.5801370739936829
time_elpased: 2.673
#iterations: 533
currently lose_sum: 0.6356593370437622
time_elpased: 2.688
#iterations: 534
currently lose_sum: 0.6368036270141602
time_elpased: 2.678
#iterations: 535
currently lose_sum: 0.4564310610294342
time_elpased: 2.646
#iterations: 536
currently lose_sum: 0.6076874136924744
time_elpased: 2.67
#iterations: 537
currently lose_sum: 0.5454004406929016
time_elpased: 2.678
#iterations: 538
currently lose_sum: 0.5975764393806458
time_elpased: 2.651
#iterations: 539
currently lose_sum: 0.5502962470054626
time_elpased: 2.7
start validation test
0.623660714286
0.614077669903
0.674666666667
0.642947903431
0.623431988042
37.126
#iterations: 540
currently lose_sum: 0.5317288041114807
time_elpased: 2.69
#iterations: 541
currently lose_sum: 0.6226426362991333
time_elpased: 2.692
#iterations: 542
currently lose_sum: 0.6445770263671875
time_elpased: 2.68
#iterations: 543
currently lose_sum: 0.6298425197601318
time_elpased: 2.687
#iterations: 544
currently lose_sum: 0.5119315385818481
time_elpased: 2.669
#iterations: 545
currently lose_sum: 0.6584357023239136
time_elpased: 2.668
#iterations: 546
currently lose_sum: 0.5389969944953918
time_elpased: 2.718
#iterations: 547
currently lose_sum: 0.6194666624069214
time_elpased: 2.666
#iterations: 548
currently lose_sum: 0.5864035487174988
time_elpased: 2.652
#iterations: 549
currently lose_sum: 0.5308045744895935
time_elpased: 2.654
#iterations: 550
currently lose_sum: 0.5540133714675903
time_elpased: 2.706
#iterations: 551
currently lose_sum: 0.520160973072052
time_elpased: 2.788
#iterations: 552
currently lose_sum: 0.6664248704910278
time_elpased: 2.694
#iterations: 553
currently lose_sum: 0.612616777420044
time_elpased: 2.654
#iterations: 554
currently lose_sum: 0.5843667984008789
time_elpased: 2.666
#iterations: 555
currently lose_sum: 0.7408757209777832
time_elpased: 2.746
#iterations: 556
currently lose_sum: 0.47590798139572144
time_elpased: 2.659
#iterations: 557
currently lose_sum: 0.5247623324394226
time_elpased: 2.677
#iterations: 558
currently lose_sum: 0.5791300535202026
time_elpased: 2.66
#iterations: 559
currently lose_sum: 0.49496158957481384
time_elpased: 2.675
start validation test
0.624553571429
0.614886731392
0.675555555556
0.643795002118
0.62432486298
36.952
#iterations: 560
currently lose_sum: 0.5878725647926331
time_elpased: 2.63
#iterations: 561
currently lose_sum: 0.5146293640136719
time_elpased: 2.604
#iterations: 562
currently lose_sum: 0.5727308392524719
time_elpased: 2.647
#iterations: 563
currently lose_sum: 0.7249552607536316
time_elpased: 2.807
#iterations: 564
currently lose_sum: 0.5854243040084839
time_elpased: 2.595
#iterations: 565
currently lose_sum: 0.5389592051506042
time_elpased: 2.658
#iterations: 566
currently lose_sum: 0.5619426369667053
time_elpased: 2.847
#iterations: 567
currently lose_sum: 0.5368335843086243
time_elpased: 2.752
#iterations: 568
currently lose_sum: 0.6100716590881348
time_elpased: 2.629
#iterations: 569
currently lose_sum: 0.5321506261825562
time_elpased: 2.593
#iterations: 570
currently lose_sum: 0.6306965947151184
time_elpased: 2.633
#iterations: 571
currently lose_sum: 0.6420790553092957
time_elpased: 2.605
#iterations: 572
currently lose_sum: 0.6272405385971069
time_elpased: 2.657
#iterations: 573
currently lose_sum: 0.6055589914321899
time_elpased: 2.614
#iterations: 574
currently lose_sum: 0.5475937128067017
time_elpased: 2.609
#iterations: 575
currently lose_sum: 0.6741365194320679
time_elpased: 2.603
#iterations: 576
currently lose_sum: 0.5699516534805298
time_elpased: 2.604
#iterations: 577
currently lose_sum: 0.506385087966919
time_elpased: 2.622
#iterations: 578
currently lose_sum: 0.5775289535522461
time_elpased: 2.67
#iterations: 579
currently lose_sum: 0.5935500860214233
time_elpased: 2.628
start validation test
0.625
0.631822386679
0.607111111111
0.61922030825
0.625080219233
37.029
#iterations: 580
currently lose_sum: 0.5612241625785828
time_elpased: 2.613
#iterations: 581
currently lose_sum: 0.5640262365341187
time_elpased: 2.634
#iterations: 582
currently lose_sum: 0.5657790899276733
time_elpased: 2.622
#iterations: 583
currently lose_sum: 0.4642151892185211
time_elpased: 2.627
#iterations: 584
currently lose_sum: 0.574964702129364
time_elpased: 2.631
#iterations: 585
currently lose_sum: 0.5181289911270142
time_elpased: 2.636
#iterations: 586
currently lose_sum: 0.4758947789669037
time_elpased: 2.669
#iterations: 587
currently lose_sum: 0.5644846558570862
time_elpased: 2.649
#iterations: 588
currently lose_sum: 0.6481364369392395
time_elpased: 2.698
#iterations: 589
currently lose_sum: 0.5309652090072632
time_elpased: 2.626
#iterations: 590
currently lose_sum: 0.6009287238121033
time_elpased: 2.615
#iterations: 591
currently lose_sum: 0.717741847038269
time_elpased: 2.681
#iterations: 592
currently lose_sum: 0.5910582542419434
time_elpased: 2.654
#iterations: 593
currently lose_sum: 0.6106763482093811
time_elpased: 2.644
#iterations: 594
currently lose_sum: 0.5235735177993774
time_elpased: 2.614
#iterations: 595
currently lose_sum: 0.650180995464325
time_elpased: 2.628
#iterations: 596
currently lose_sum: 0.632794976234436
time_elpased: 2.635
#iterations: 597
currently lose_sum: 0.6137635111808777
time_elpased: 2.659
#iterations: 598
currently lose_sum: 0.5882472991943359
time_elpased: 2.626
#iterations: 599
currently lose_sum: 0.5252705812454224
time_elpased: 2.632
start validation test
0.627232142857
0.621035058431
0.661333333333
0.640551011623
0.62707922272
37.058
acc: 0.626
pre: 0.647
rec: 0.560
F1: 0.600
auc: 0.626
