start to construct computing graph
graph construct over
3372
epochs start
#iterations: 0
currently lose_sum: 0.6766683459281921
time_elpased: 9.619
#iterations: 1
currently lose_sum: 0.718895673751831
time_elpased: 9.346
#iterations: 2
currently lose_sum: 0.7422103881835938
time_elpased: 9.03
#iterations: 3
currently lose_sum: 0.6542738676071167
time_elpased: 9.43
#iterations: 4
currently lose_sum: 0.6545942425727844
time_elpased: 9.571
#iterations: 5
currently lose_sum: 0.627113938331604
time_elpased: 9.352
#iterations: 6
currently lose_sum: 0.6528209447860718
time_elpased: 9.598
#iterations: 7
currently lose_sum: 0.621170163154602
time_elpased: 9.485
#iterations: 8
currently lose_sum: 0.673448920249939
time_elpased: 9.52
#iterations: 9
currently lose_sum: 0.6915238499641418
time_elpased: 9.432
#iterations: 10
currently lose_sum: 0.615797758102417
time_elpased: 9.406
#iterations: 11
currently lose_sum: 0.5772793889045715
time_elpased: 9.483
#iterations: 12
currently lose_sum: 0.5977738499641418
time_elpased: 9.524
#iterations: 13
currently lose_sum: 0.6905231475830078
time_elpased: 9.559
#iterations: 14
currently lose_sum: 0.5225090980529785
time_elpased: 9.335
#iterations: 15
currently lose_sum: 0.5680906176567078
time_elpased: 9.087
#iterations: 16
currently lose_sum: 0.6191288232803345
time_elpased: 9.486
#iterations: 17
currently lose_sum: 0.542892336845398
time_elpased: 9.471
#iterations: 18
currently lose_sum: 0.618618905544281
time_elpased: 9.01
#iterations: 19
currently lose_sum: 0.6694616079330444
time_elpased: 9.337
start validation test
0.619196428571
0.621212121212
0.619555555556
0.620382732532
0.619194818137
35.830
#iterations: 20
currently lose_sum: 0.6050891876220703
time_elpased: 8.546
#iterations: 21
currently lose_sum: 0.656791090965271
time_elpased: 8.605
#iterations: 22
currently lose_sum: 0.674418568611145
time_elpased: 8.451
#iterations: 23
currently lose_sum: 0.6275389194488525
time_elpased: 8.319
#iterations: 24
currently lose_sum: 0.6297970414161682
time_elpased: 8.3
#iterations: 25
currently lose_sum: 0.6432852745056152
time_elpased: 8.342
#iterations: 26
currently lose_sum: 0.6454871892929077
time_elpased: 8.572
#iterations: 27
currently lose_sum: 0.5574837923049927
time_elpased: 8.518
#iterations: 28
currently lose_sum: 0.5530076622962952
time_elpased: 8.405
#iterations: 29
currently lose_sum: 0.685646653175354
time_elpased: 8.317
#iterations: 30
currently lose_sum: 0.597525954246521
time_elpased: 8.319
#iterations: 31
currently lose_sum: 0.6692546606063843
time_elpased: 8.587
#iterations: 32
currently lose_sum: 0.55534428358078
time_elpased: 8.34
#iterations: 33
currently lose_sum: 0.7239044308662415
time_elpased: 8.517
#iterations: 34
currently lose_sum: 0.5894258618354797
time_elpased: 8.339
#iterations: 35
currently lose_sum: 0.6145777106285095
time_elpased: 8.37
#iterations: 36
currently lose_sum: 0.5866805911064148
time_elpased: 8.481
#iterations: 37
currently lose_sum: 0.6189973950386047
time_elpased: 8.454
#iterations: 38
currently lose_sum: 0.5784211754798889
time_elpased: 8.28
#iterations: 39
currently lose_sum: 0.6196502447128296
time_elpased: 8.479
start validation test
0.616071428571
0.664596273292
0.475555555556
0.554404145078
0.616701544594
35.808
#iterations: 40
currently lose_sum: 0.6302493810653687
time_elpased: 8.58
#iterations: 41
currently lose_sum: 0.6470300555229187
time_elpased: 8.75
#iterations: 42
currently lose_sum: 0.6645480394363403
time_elpased: 8.397
#iterations: 43
currently lose_sum: 0.6254050731658936
time_elpased: 8.71
#iterations: 44
currently lose_sum: 0.5689719915390015
time_elpased: 8.701
#iterations: 45
currently lose_sum: 0.6044269800186157
time_elpased: 8.403
#iterations: 46
currently lose_sum: 0.6176148653030396
time_elpased: 8.454
#iterations: 47
currently lose_sum: 0.590181291103363
time_elpased: 8.328
#iterations: 48
currently lose_sum: 0.6312886476516724
time_elpased: 8.587
#iterations: 49
currently lose_sum: 0.6715463995933533
time_elpased: 8.34
#iterations: 50
currently lose_sum: 0.5699248313903809
time_elpased: 8.314
#iterations: 51
currently lose_sum: 0.6326704621315002
time_elpased: 8.292
#iterations: 52
currently lose_sum: 0.5437637567520142
time_elpased: 8.373
#iterations: 53
currently lose_sum: 0.6473692655563354
time_elpased: 8.655
#iterations: 54
currently lose_sum: 0.573512077331543
time_elpased: 8.389
#iterations: 55
currently lose_sum: 0.5807305574417114
time_elpased: 8.444
#iterations: 56
currently lose_sum: 0.6187399625778198
time_elpased: 8.728
#iterations: 57
currently lose_sum: 0.658815860748291
time_elpased: 8.361
#iterations: 58
currently lose_sum: 0.5302196741104126
time_elpased: 8.284
#iterations: 59
currently lose_sum: 0.6460556983947754
time_elpased: 8.379
start validation test
0.627678571429
0.614476789929
0.694222222222
0.651919866444
0.627380169407
36.228
#iterations: 60
currently lose_sum: 0.7080239653587341
time_elpased: 8.434
#iterations: 61
currently lose_sum: 0.6218501329421997
time_elpased: 8.643
#iterations: 62
currently lose_sum: 0.6614428758621216
time_elpased: 8.576
#iterations: 63
currently lose_sum: 0.5978757739067078
time_elpased: 8.479
#iterations: 64
currently lose_sum: 0.5398147702217102
time_elpased: 8.386
#iterations: 65
currently lose_sum: 0.42339205741882324
time_elpased: 8.755
#iterations: 66
currently lose_sum: 0.6352888345718384
time_elpased: 8.386
#iterations: 67
currently lose_sum: 0.5696026086807251
time_elpased: 8.625
#iterations: 68
currently lose_sum: 0.6190524697303772
time_elpased: 8.313
#iterations: 69
currently lose_sum: 0.5636268854141235
time_elpased: 8.719
#iterations: 70
currently lose_sum: 0.6391451954841614
time_elpased: 8.334
#iterations: 71
currently lose_sum: 0.616524875164032
time_elpased: 8.454
#iterations: 72
currently lose_sum: 0.6198544502258301
time_elpased: 8.425
#iterations: 73
currently lose_sum: 0.6426727175712585
time_elpased: 8.668
#iterations: 74
currently lose_sum: 0.6221579313278198
time_elpased: 8.594
#iterations: 75
currently lose_sum: 0.5633079409599304
time_elpased: 8.287
#iterations: 76
currently lose_sum: 0.5998885035514832
time_elpased: 8.373
#iterations: 77
currently lose_sum: 0.5179680585861206
time_elpased: 8.262
#iterations: 78
currently lose_sum: 0.6854687929153442
time_elpased: 8.235
#iterations: 79
currently lose_sum: 0.5397243499755859
time_elpased: 8.384
start validation test
0.627678571429
0.609977324263
0.717333333333
0.65931372549
0.627276532138
36.318
#iterations: 80
currently lose_sum: 0.618118405342102
time_elpased: 8.518
#iterations: 81
currently lose_sum: 0.6255696415901184
time_elpased: 8.587
#iterations: 82
currently lose_sum: 0.6661486625671387
time_elpased: 8.659
#iterations: 83
currently lose_sum: 0.6341986656188965
time_elpased: 8.58
#iterations: 84
currently lose_sum: 0.5577507019042969
time_elpased: 8.312
#iterations: 85
currently lose_sum: 0.6189613938331604
time_elpased: 8.4
#iterations: 86
currently lose_sum: 0.5208655595779419
time_elpased: 8.479
#iterations: 87
currently lose_sum: 0.5042972564697266
time_elpased: 8.708
#iterations: 88
currently lose_sum: 0.5218684673309326
time_elpased: 8.375
#iterations: 89
currently lose_sum: 0.622269332408905
time_elpased: 8.53
#iterations: 90
currently lose_sum: 0.5746933817863464
time_elpased: 8.325
#iterations: 91
currently lose_sum: 0.5626289248466492
time_elpased: 8.503
#iterations: 92
currently lose_sum: 0.7201724052429199
time_elpased: 8.349
#iterations: 93
currently lose_sum: 0.570071816444397
time_elpased: 8.305
#iterations: 94
currently lose_sum: 0.517412543296814
time_elpased: 8.285
#iterations: 95
currently lose_sum: 0.653487503528595
time_elpased: 8.258
#iterations: 96
currently lose_sum: 0.6142655611038208
time_elpased: 8.287
#iterations: 97
currently lose_sum: 0.6597532033920288
time_elpased: 8.505
#iterations: 98
currently lose_sum: 0.63325035572052
time_elpased: 8.419
#iterations: 99
currently lose_sum: 0.6125267744064331
time_elpased: 8.329
start validation test
0.620982142857
0.632437619962
0.585777777778
0.608214120904
0.621140009965
36.327
#iterations: 100
currently lose_sum: 0.5907025933265686
time_elpased: 8.629
#iterations: 101
currently lose_sum: 0.5255002975463867
time_elpased: 8.639
#iterations: 102
currently lose_sum: 0.6097740530967712
time_elpased: 8.547
#iterations: 103
currently lose_sum: 0.6040105819702148
time_elpased: 8.559
#iterations: 104
currently lose_sum: 0.5995451211929321
time_elpased: 8.319
#iterations: 105
currently lose_sum: 0.5627514719963074
time_elpased: 8.322
#iterations: 106
currently lose_sum: 0.5708388090133667
time_elpased: 8.421
#iterations: 107
currently lose_sum: 0.5994293689727783
time_elpased: 8.656
#iterations: 108
currently lose_sum: 0.5750216245651245
time_elpased: 8.42
#iterations: 109
currently lose_sum: 0.5594974160194397
time_elpased: 8.483
#iterations: 110
currently lose_sum: 0.6080853343009949
time_elpased: 8.581
#iterations: 111
currently lose_sum: 0.6642401814460754
time_elpased: 8.342
#iterations: 112
currently lose_sum: 0.616198718547821
time_elpased: 8.579
#iterations: 113
currently lose_sum: 0.6300042271614075
time_elpased: 8.371
#iterations: 114
currently lose_sum: 0.6136070489883423
time_elpased: 8.501
#iterations: 115
currently lose_sum: 0.5475811958312988
time_elpased: 8.56
#iterations: 116
currently lose_sum: 0.6155585050582886
time_elpased: 8.351
#iterations: 117
currently lose_sum: 0.639184296131134
time_elpased: 8.363
#iterations: 118
currently lose_sum: 0.5774604082107544
time_elpased: 8.282
#iterations: 119
currently lose_sum: 0.5180045366287231
time_elpased: 8.677
start validation test
0.620089285714
0.607704402516
0.687111111111
0.64497288277
0.619788739412
36.432
#iterations: 120
currently lose_sum: 0.5029101371765137
time_elpased: 8.422
#iterations: 121
currently lose_sum: 0.5083611011505127
time_elpased: 8.431
#iterations: 122
currently lose_sum: 0.6287587285041809
time_elpased: 8.565
#iterations: 123
currently lose_sum: 0.5135806202888489
time_elpased: 8.495
#iterations: 124
currently lose_sum: 0.7026401162147522
time_elpased: 8.605
#iterations: 125
currently lose_sum: 0.6583654284477234
time_elpased: 8.586
#iterations: 126
currently lose_sum: 0.5659006834030151
time_elpased: 8.665
#iterations: 127
currently lose_sum: 0.680435836315155
time_elpased: 8.577
#iterations: 128
currently lose_sum: 0.5666888952255249
time_elpased: 8.364
#iterations: 129
currently lose_sum: 0.5569599866867065
time_elpased: 8.483
#iterations: 130
currently lose_sum: 0.6173454523086548
time_elpased: 8.608
#iterations: 131
currently lose_sum: 0.531279444694519
time_elpased: 8.337
#iterations: 132
currently lose_sum: 0.6260894536972046
time_elpased: 8.316
#iterations: 133
currently lose_sum: 0.5914662480354309
time_elpased: 8.256
#iterations: 134
currently lose_sum: 0.5974200963973999
time_elpased: 8.503
#iterations: 135
currently lose_sum: 0.554078221321106
time_elpased: 8.274
#iterations: 136
currently lose_sum: 0.5962567925453186
time_elpased: 8.396
#iterations: 137
currently lose_sum: 0.5552142262458801
time_elpased: 8.361
#iterations: 138
currently lose_sum: 0.5694543123245239
time_elpased: 8.479
#iterations: 139
currently lose_sum: 0.5454429984092712
time_elpased: 8.407
start validation test
0.630357142857
0.652935118435
0.563555555556
0.604961832061
0.630656701545
35.819
#iterations: 140
currently lose_sum: 0.5488799810409546
time_elpased: 8.506
#iterations: 141
currently lose_sum: 0.656228244304657
time_elpased: 8.484
#iterations: 142
currently lose_sum: 0.5286790728569031
time_elpased: 8.471
#iterations: 143
currently lose_sum: 0.6815520524978638
time_elpased: 8.536
#iterations: 144
currently lose_sum: 0.673939049243927
time_elpased: 8.495
#iterations: 145
currently lose_sum: 0.4459756016731262
time_elpased: 8.499
#iterations: 146
currently lose_sum: 0.5707255601882935
time_elpased: 8.628
#iterations: 147
currently lose_sum: 0.5935942530632019
time_elpased: 8.606
#iterations: 148
currently lose_sum: 0.6204252243041992
time_elpased: 8.639
#iterations: 149
currently lose_sum: 0.5317564010620117
time_elpased: 8.676
#iterations: 150
currently lose_sum: 0.5408182144165039
time_elpased: 8.668
#iterations: 151
currently lose_sum: 0.46358147263526917
time_elpased: 8.428
#iterations: 152
currently lose_sum: 0.5079818964004517
time_elpased: 8.303
#iterations: 153
currently lose_sum: 0.6350604295730591
time_elpased: 8.626
#iterations: 154
currently lose_sum: 0.566844642162323
time_elpased: 8.483
#iterations: 155
currently lose_sum: 0.5234681367874146
time_elpased: 8.621
#iterations: 156
currently lose_sum: 0.6622481346130371
time_elpased: 8.558
#iterations: 157
currently lose_sum: 0.547871470451355
time_elpased: 8.719
#iterations: 158
currently lose_sum: 0.6530028581619263
time_elpased: 8.411
#iterations: 159
currently lose_sum: 0.6833478212356567
time_elpased: 8.61
start validation test
0.627232142857
0.621440536013
0.659555555556
0.639931004743
0.627087194818
36.051
#iterations: 160
currently lose_sum: 0.5312982797622681
time_elpased: 8.551
#iterations: 161
currently lose_sum: 0.7006978392601013
time_elpased: 8.489
#iterations: 162
currently lose_sum: 0.6876459121704102
time_elpased: 8.374
#iterations: 163
currently lose_sum: 0.6398218274116516
time_elpased: 8.549
#iterations: 164
currently lose_sum: 0.7934953570365906
time_elpased: 8.666
#iterations: 165
currently lose_sum: 0.49739351868629456
time_elpased: 8.5
#iterations: 166
currently lose_sum: 0.5183911323547363
time_elpased: 8.57
#iterations: 167
currently lose_sum: 0.48752278089523315
time_elpased: 8.511
#iterations: 168
currently lose_sum: 0.5404243469238281
time_elpased: 8.751
#iterations: 169
currently lose_sum: 0.7280691862106323
time_elpased: 8.378
#iterations: 170
currently lose_sum: 0.6425416469573975
time_elpased: 8.352
#iterations: 171
currently lose_sum: 0.6536995768547058
time_elpased: 8.581
#iterations: 172
currently lose_sum: 0.5495162010192871
time_elpased: 8.739
#iterations: 173
currently lose_sum: 0.5735836029052734
time_elpased: 8.534
#iterations: 174
currently lose_sum: 0.44568341970443726
time_elpased: 8.316
#iterations: 175
currently lose_sum: 0.5507799386978149
time_elpased: 8.378
#iterations: 176
currently lose_sum: 0.5238441228866577
time_elpased: 8.458
#iterations: 177
currently lose_sum: 0.5606948733329773
time_elpased: 8.301
#iterations: 178
currently lose_sum: 0.5258896946907043
time_elpased: 8.151
#iterations: 179
currently lose_sum: 0.5789406895637512
time_elpased: 8.38
start validation test
0.622767857143
0.686170212766
0.458666666667
0.549813532232
0.623503736921
35.920
#iterations: 180
currently lose_sum: 0.6843850016593933
time_elpased: 8.593
#iterations: 181
currently lose_sum: 0.5124562382698059
time_elpased: 8.52
#iterations: 182
currently lose_sum: 0.5841871500015259
time_elpased: 8.471
#iterations: 183
currently lose_sum: 0.45456933975219727
time_elpased: 8.544
#iterations: 184
currently lose_sum: 0.6326299905776978
time_elpased: 8.573
#iterations: 185
currently lose_sum: 0.5661494731903076
time_elpased: 8.563
#iterations: 186
currently lose_sum: 0.6246578097343445
time_elpased: 8.375
#iterations: 187
currently lose_sum: 0.5875517129898071
time_elpased: 8.614
#iterations: 188
currently lose_sum: 0.6381913423538208
time_elpased: 8.541
#iterations: 189
currently lose_sum: 0.6234296560287476
time_elpased: 8.501
#iterations: 190
currently lose_sum: 0.5020359754562378
time_elpased: 8.734
#iterations: 191
currently lose_sum: 0.4859476089477539
time_elpased: 8.578
#iterations: 192
currently lose_sum: 0.5818439722061157
time_elpased: 8.484
#iterations: 193
currently lose_sum: 0.5413151979446411
time_elpased: 8.474
#iterations: 194
currently lose_sum: 0.4908093512058258
time_elpased: 8.386
#iterations: 195
currently lose_sum: 0.6496984362602234
time_elpased: 8.53
#iterations: 196
currently lose_sum: 0.5640486478805542
time_elpased: 8.317
#iterations: 197
currently lose_sum: 0.48432713747024536
time_elpased: 8.326
#iterations: 198
currently lose_sum: 0.7197736501693726
time_elpased: 8.251
#iterations: 199
currently lose_sum: 0.590157687664032
time_elpased: 8.31
start validation test
0.623660714286
0.6175
0.658666666667
0.637419354839
0.623503736921
36.150
#iterations: 200
currently lose_sum: 0.5844055414199829
time_elpased: 8.337
#iterations: 201
currently lose_sum: 0.5428519248962402
time_elpased: 8.592
#iterations: 202
currently lose_sum: 0.5513137578964233
time_elpased: 8.415
#iterations: 203
currently lose_sum: 0.5201289057731628
time_elpased: 8.496
#iterations: 204
currently lose_sum: 0.49665385484695435
time_elpased: 8.272
#iterations: 205
currently lose_sum: 0.5910468101501465
time_elpased: 8.447
#iterations: 206
currently lose_sum: 0.5838982462882996
time_elpased: 8.455
#iterations: 207
currently lose_sum: 0.571311354637146
time_elpased: 8.307
#iterations: 208
currently lose_sum: 0.49381762742996216
time_elpased: 8.392
#iterations: 209
currently lose_sum: 0.613521933555603
time_elpased: 8.499
#iterations: 210
currently lose_sum: 0.6004480123519897
time_elpased: 8.345
#iterations: 211
currently lose_sum: 0.5060664415359497
time_elpased: 8.314
#iterations: 212
currently lose_sum: 0.5376181602478027
time_elpased: 8.487
#iterations: 213
currently lose_sum: 0.6387227177619934
time_elpased: 8.254
#iterations: 214
currently lose_sum: 0.5773007869720459
time_elpased: 8.408
#iterations: 215
currently lose_sum: 0.5731948018074036
time_elpased: 8.459
#iterations: 216
currently lose_sum: 0.4995206892490387
time_elpased: 8.381
#iterations: 217
currently lose_sum: 0.4767169952392578
time_elpased: 8.414
#iterations: 218
currently lose_sum: 0.6134839653968811
time_elpased: 8.214
#iterations: 219
currently lose_sum: 0.6465851664543152
time_elpased: 8.581
start validation test
0.633482142857
0.61856474259
0.704888888889
0.658911508101
0.633161933234
36.545
#iterations: 220
currently lose_sum: 0.6619869470596313
time_elpased: 8.67
#iterations: 221
currently lose_sum: 0.5927087664604187
time_elpased: 8.521
#iterations: 222
currently lose_sum: 0.5689387917518616
time_elpased: 8.709
#iterations: 223
currently lose_sum: 0.6404708027839661
time_elpased: 8.399
#iterations: 224
currently lose_sum: 0.6380825638771057
time_elpased: 8.393
#iterations: 225
currently lose_sum: 0.5605250597000122
time_elpased: 8.372
#iterations: 226
currently lose_sum: 0.6257399320602417
time_elpased: 8.704
#iterations: 227
currently lose_sum: 0.5032089352607727
time_elpased: 8.685
#iterations: 228
currently lose_sum: 0.6285915374755859
time_elpased: 8.315
#iterations: 229
currently lose_sum: 0.5643250346183777
time_elpased: 8.624
#iterations: 230
currently lose_sum: 0.5949404835700989
time_elpased: 8.461
#iterations: 231
currently lose_sum: 0.5166333913803101
time_elpased: 8.29
#iterations: 232
currently lose_sum: 0.5889760255813599
time_elpased: 8.286
#iterations: 233
currently lose_sum: 0.5288351774215698
time_elpased: 8.341
#iterations: 234
currently lose_sum: 0.5969530344009399
time_elpased: 8.351
#iterations: 235
currently lose_sum: 0.6978168487548828
time_elpased: 8.553
#iterations: 236
currently lose_sum: 0.5670333504676819
time_elpased: 8.327
#iterations: 237
currently lose_sum: 0.604709804058075
time_elpased: 8.437
#iterations: 238
currently lose_sum: 0.5754058957099915
time_elpased: 8.164
#iterations: 239
currently lose_sum: 0.6538344621658325
time_elpased: 8.288
start validation test
0.623660714286
0.620307167235
0.646222222222
0.63299956465
0.623559541604
36.361
#iterations: 240
currently lose_sum: 0.5622031688690186
time_elpased: 8.295
#iterations: 241
currently lose_sum: 0.581956148147583
time_elpased: 8.356
#iterations: 242
currently lose_sum: 0.6580769419670105
time_elpased: 8.763
#iterations: 243
currently lose_sum: 0.5407911539077759
time_elpased: 8.492
#iterations: 244
currently lose_sum: 0.5660334825515747
time_elpased: 8.415
#iterations: 245
currently lose_sum: 0.5899947881698608
time_elpased: 8.475
#iterations: 246
currently lose_sum: 0.5099604725837708
time_elpased: 8.402
#iterations: 247
currently lose_sum: 0.7555426359176636
time_elpased: 8.511
#iterations: 248
currently lose_sum: 0.6175277233123779
time_elpased: 8.317
#iterations: 249
currently lose_sum: 0.543685793876648
time_elpased: 8.699
#iterations: 250
currently lose_sum: 0.6073068380355835
time_elpased: 8.567
#iterations: 251
currently lose_sum: 0.6522576808929443
time_elpased: 8.752
#iterations: 252
currently lose_sum: 0.531762421131134
time_elpased: 8.64
#iterations: 253
currently lose_sum: 0.5348219871520996
time_elpased: 8.647
#iterations: 254
currently lose_sum: 0.5043104290962219
time_elpased: 8.439
#iterations: 255
currently lose_sum: 0.597603440284729
time_elpased: 8.726
#iterations: 256
currently lose_sum: 0.5684230923652649
time_elpased: 8.539
#iterations: 257
currently lose_sum: 0.6335350275039673
time_elpased: 8.593
#iterations: 258
currently lose_sum: 0.5420229434967041
time_elpased: 8.14
#iterations: 259
currently lose_sum: 0.6476686000823975
time_elpased: 8.32
start validation test
0.626339285714
0.618811881188
0.666666666667
0.641848523748
0.626158445441
36.727
#iterations: 260
currently lose_sum: 0.5700971484184265
time_elpased: 8.644
#iterations: 261
currently lose_sum: 0.49362364411354065
time_elpased: 8.655
#iterations: 262
currently lose_sum: 0.5955336689949036
time_elpased: 8.585
#iterations: 263
currently lose_sum: 0.6217235326766968
time_elpased: 8.37
#iterations: 264
currently lose_sum: 0.48718228936195374
time_elpased: 8.483
#iterations: 265
currently lose_sum: 0.5277410745620728
time_elpased: 8.512
#iterations: 266
currently lose_sum: 0.5419875383377075
time_elpased: 8.345
#iterations: 267
currently lose_sum: 0.5367162823677063
time_elpased: 8.555
#iterations: 268
currently lose_sum: 0.5280129313468933
time_elpased: 8.632
#iterations: 269
currently lose_sum: 0.6092700958251953
time_elpased: 8.506
#iterations: 270
currently lose_sum: 0.5334154367446899
time_elpased: 8.589
#iterations: 271
currently lose_sum: 0.6175314784049988
time_elpased: 8.32
#iterations: 272
currently lose_sum: 0.47142210602760315
time_elpased: 8.413
#iterations: 273
currently lose_sum: 0.6384623646736145
time_elpased: 8.429
#iterations: 274
currently lose_sum: 0.7488040924072266
time_elpased: 8.374
#iterations: 275
currently lose_sum: 0.6506921648979187
time_elpased: 8.329
#iterations: 276
currently lose_sum: 0.580040454864502
time_elpased: 8.492
#iterations: 277
currently lose_sum: 0.6570485830307007
time_elpased: 8.327
#iterations: 278
currently lose_sum: 0.5585216283798218
time_elpased: 8.389
#iterations: 279
currently lose_sum: 0.5113550424575806
time_elpased: 8.414
start validation test
0.626785714286
0.625325238508
0.640888888889
0.633011413521
0.62672247135
36.443
#iterations: 280
currently lose_sum: 0.6795766353607178
time_elpased: 8.422
#iterations: 281
currently lose_sum: 0.5842992663383484
time_elpased: 8.348
#iterations: 282
currently lose_sum: 0.5211867094039917
time_elpased: 8.353
#iterations: 283
currently lose_sum: 0.5711702108383179
time_elpased: 8.392
#iterations: 284
currently lose_sum: 0.5545644760131836
time_elpased: 8.371
#iterations: 285
currently lose_sum: 0.5582376718521118
time_elpased: 8.342
#iterations: 286
currently lose_sum: 0.5847409963607788
time_elpased: 8.372
#iterations: 287
currently lose_sum: 0.7019085884094238
time_elpased: 8.482
#iterations: 288
currently lose_sum: 0.6549699902534485
time_elpased: 8.326
#iterations: 289
currently lose_sum: 0.4806113839149475
time_elpased: 8.324
#iterations: 290
currently lose_sum: 0.6421875357627869
time_elpased: 8.355
#iterations: 291
currently lose_sum: 0.5765855312347412
time_elpased: 8.39
#iterations: 292
currently lose_sum: 0.5193933248519897
time_elpased: 8.302
#iterations: 293
currently lose_sum: 0.5749022364616394
time_elpased: 8.502
#iterations: 294
currently lose_sum: 0.7020567059516907
time_elpased: 8.629
#iterations: 295
currently lose_sum: 0.5982754826545715
time_elpased: 8.46
#iterations: 296
currently lose_sum: 0.6740447282791138
time_elpased: 8.597
#iterations: 297
currently lose_sum: 0.5900219082832336
time_elpased: 8.414
#iterations: 298
currently lose_sum: 0.5084649920463562
time_elpased: 8.568
#iterations: 299
currently lose_sum: 0.6128394603729248
time_elpased: 8.665
start validation test
0.625892857143
0.633986928105
0.603555555556
0.61839708561
0.625993024415
37.072
#iterations: 300
currently lose_sum: 0.5601465106010437
time_elpased: 8.482
#iterations: 301
currently lose_sum: 0.5803599953651428
time_elpased: 8.517
#iterations: 302
currently lose_sum: 0.606464684009552
time_elpased: 8.302
#iterations: 303
currently lose_sum: 0.5228661298751831
time_elpased: 8.323
#iterations: 304
currently lose_sum: 0.48115628957748413
time_elpased: 8.556
#iterations: 305
currently lose_sum: 0.5614503622055054
time_elpased: 8.618
#iterations: 306
currently lose_sum: 0.4819062352180481
time_elpased: 8.481
#iterations: 307
currently lose_sum: 0.5940322279930115
time_elpased: 8.557
#iterations: 308
currently lose_sum: 0.6549034118652344
time_elpased: 8.452
#iterations: 309
currently lose_sum: 0.5661101937294006
time_elpased: 8.532
#iterations: 310
currently lose_sum: 0.45979318022727966
time_elpased: 8.456
#iterations: 311
currently lose_sum: 0.527789831161499
time_elpased: 8.243
#iterations: 312
currently lose_sum: 0.6033552885055542
time_elpased: 8.474
#iterations: 313
currently lose_sum: 0.6164162158966064
time_elpased: 8.552
#iterations: 314
currently lose_sum: 0.5700386166572571
time_elpased: 8.447
#iterations: 315
currently lose_sum: 0.4862850606441498
time_elpased: 8.56
#iterations: 316
currently lose_sum: 0.6561119556427002
time_elpased: 8.294
#iterations: 317
currently lose_sum: 0.6633092761039734
time_elpased: 8.626
#iterations: 318
currently lose_sum: 0.6054860353469849
time_elpased: 8.252
#iterations: 319
currently lose_sum: 0.6357837915420532
time_elpased: 8.433
start validation test
0.630803571429
0.617507886435
0.696
0.654408692018
0.630511210762
37.005
#iterations: 320
currently lose_sum: 0.555628776550293
time_elpased: 8.408
#iterations: 321
currently lose_sum: 0.5689786076545715
time_elpased: 8.355
#iterations: 322
currently lose_sum: 0.585940957069397
time_elpased: 8.287
#iterations: 323
currently lose_sum: 0.59754478931427
time_elpased: 8.452
#iterations: 324
currently lose_sum: 0.5456209778785706
time_elpased: 8.491
#iterations: 325
currently lose_sum: 0.6386100053787231
time_elpased: 8.561
#iterations: 326
currently lose_sum: 0.6224784255027771
time_elpased: 8.308
#iterations: 327
currently lose_sum: 0.5842307806015015
time_elpased: 8.408
#iterations: 328
currently lose_sum: 0.46148890256881714
time_elpased: 8.591
#iterations: 329
currently lose_sum: 0.6203665137290955
time_elpased: 8.547
#iterations: 330
currently lose_sum: 0.4678969979286194
time_elpased: 8.355
#iterations: 331
currently lose_sum: 0.5894590616226196
time_elpased: 8.64
#iterations: 332
currently lose_sum: 0.6367195248603821
time_elpased: 8.762
#iterations: 333
currently lose_sum: 0.6046940088272095
time_elpased: 8.465
#iterations: 334
currently lose_sum: 0.6466248631477356
time_elpased: 8.505
#iterations: 335
currently lose_sum: 0.6052064895629883
time_elpased: 8.324
#iterations: 336
currently lose_sum: 0.5752694010734558
time_elpased: 8.614
#iterations: 337
currently lose_sum: 0.4564749598503113
time_elpased: 8.302
#iterations: 338
currently lose_sum: 0.6465646028518677
time_elpased: 8.203
#iterations: 339
currently lose_sum: 0.6497644186019897
time_elpased: 8.542
start validation test
0.632589285714
0.620031796502
0.693333333333
0.65463701217
0.632316890882
36.856
#iterations: 340
currently lose_sum: 0.4775456488132477
time_elpased: 8.358
#iterations: 341
currently lose_sum: 0.6360815763473511
time_elpased: 8.305
#iterations: 342
currently lose_sum: 0.5912078619003296
time_elpased: 8.292
#iterations: 343
currently lose_sum: 0.4771641194820404
time_elpased: 8.339
#iterations: 344
currently lose_sum: 0.5391795039176941
time_elpased: 8.427
#iterations: 345
currently lose_sum: 0.5534361004829407
time_elpased: 8.508
#iterations: 346
currently lose_sum: 0.6487108469009399
time_elpased: 8.284
#iterations: 347
currently lose_sum: 0.5730015635490417
time_elpased: 8.561
#iterations: 348
currently lose_sum: 0.5338534116744995
time_elpased: 8.465
#iterations: 349
currently lose_sum: 0.5295831561088562
time_elpased: 8.487
#iterations: 350
currently lose_sum: 0.4625549912452698
time_elpased: 8.604
#iterations: 351
currently lose_sum: 0.5755939483642578
time_elpased: 8.454
#iterations: 352
currently lose_sum: 0.6142589449882507
time_elpased: 8.62
#iterations: 353
currently lose_sum: 0.5432142019271851
time_elpased: 8.596
#iterations: 354
currently lose_sum: 0.5327284932136536
time_elpased: 8.355
#iterations: 355
currently lose_sum: 0.5281775593757629
time_elpased: 8.341
#iterations: 356
currently lose_sum: 0.6377214193344116
time_elpased: 8.441
#iterations: 357
currently lose_sum: 0.5496678352355957
time_elpased: 8.465
#iterations: 358
currently lose_sum: 0.48868781328201294
time_elpased: 8.148
#iterations: 359
currently lose_sum: 0.6288339495658875
time_elpased: 8.401
start validation test
0.629910714286
0.634301270417
0.621333333333
0.627750336776
0.629949177877
36.851
#iterations: 360
currently lose_sum: 0.5133511424064636
time_elpased: 8.561
#iterations: 361
currently lose_sum: 0.4942464828491211
time_elpased: 8.348
#iterations: 362
currently lose_sum: 0.5489016175270081
time_elpased: 8.522
#iterations: 363
currently lose_sum: 0.5738233923912048
time_elpased: 8.315
#iterations: 364
currently lose_sum: 0.5397394299507141
time_elpased: 8.505
#iterations: 365
currently lose_sum: 0.6273189783096313
time_elpased: 8.278
#iterations: 366
currently lose_sum: 0.5471526980400085
time_elpased: 8.305
#iterations: 367
currently lose_sum: 0.6310576796531677
time_elpased: 8.617
#iterations: 368
currently lose_sum: 0.5696693658828735
time_elpased: 8.332
#iterations: 369
currently lose_sum: 0.6235355138778687
time_elpased: 8.383
#iterations: 370
currently lose_sum: 0.5841432809829712
time_elpased: 8.559
#iterations: 371
currently lose_sum: 0.6176778078079224
time_elpased: 8.491
#iterations: 372
currently lose_sum: 0.5917035341262817
time_elpased: 8.639
#iterations: 373
currently lose_sum: 0.5863798260688782
time_elpased: 8.361
#iterations: 374
currently lose_sum: 0.6229974031448364
time_elpased: 8.362
#iterations: 375
currently lose_sum: 0.6008834838867188
time_elpased: 8.493
#iterations: 376
currently lose_sum: 0.5923373103141785
time_elpased: 8.27
#iterations: 377
currently lose_sum: 0.5997022390365601
time_elpased: 8.625
#iterations: 378
currently lose_sum: 0.634588360786438
time_elpased: 8.476
#iterations: 379
currently lose_sum: 0.6385120153427124
time_elpased: 8.366
start validation test
0.629017857143
0.631016042781
0.629333333333
0.630173564753
0.629016442451
37.124
#iterations: 380
currently lose_sum: 0.4579581320285797
time_elpased: 8.538
#iterations: 381
currently lose_sum: 0.6208586692810059
time_elpased: 8.388
#iterations: 382
currently lose_sum: 0.44318026304244995
time_elpased: 8.504
#iterations: 383
currently lose_sum: 0.5392106771469116
time_elpased: 8.319
#iterations: 384
currently lose_sum: 0.5425678491592407
time_elpased: 8.269
#iterations: 385
currently lose_sum: 0.5158354043960571
time_elpased: 8.453
#iterations: 386
currently lose_sum: 0.599839985370636
time_elpased: 8.602
#iterations: 387
currently lose_sum: 0.5947341918945312
time_elpased: 8.417
#iterations: 388
currently lose_sum: 0.6127384901046753
time_elpased: 8.705
#iterations: 389
currently lose_sum: 0.581120491027832
time_elpased: 8.508
#iterations: 390
currently lose_sum: 0.5603297352790833
time_elpased: 8.32
#iterations: 391
currently lose_sum: 0.4435094892978668
time_elpased: 8.33
#iterations: 392
currently lose_sum: 0.5483350157737732
time_elpased: 8.282
#iterations: 393
currently lose_sum: 0.5033975839614868
time_elpased: 8.378
#iterations: 394
currently lose_sum: 0.5223228335380554
time_elpased: 8.585
#iterations: 395
currently lose_sum: 0.610928475856781
time_elpased: 8.513
#iterations: 396
currently lose_sum: 0.6392899751663208
time_elpased: 8.325
#iterations: 397
currently lose_sum: 0.6095851063728333
time_elpased: 8.426
#iterations: 398
currently lose_sum: 0.5329351425170898
time_elpased: 8.381
#iterations: 399
currently lose_sum: 0.5311522483825684
time_elpased: 8.316
start validation test
0.627232142857
0.633272058824
0.612444444444
0.622684139178
0.627298455406
37.009
#iterations: 400
currently lose_sum: 0.5625035762786865
time_elpased: 8.493
#iterations: 401
currently lose_sum: 0.63576340675354
time_elpased: 8.453
#iterations: 402
currently lose_sum: 0.590636134147644
time_elpased: 8.683
#iterations: 403
currently lose_sum: 0.5867705345153809
time_elpased: 8.405
#iterations: 404
currently lose_sum: 0.4996557831764221
time_elpased: 8.537
#iterations: 405
currently lose_sum: 0.5682253837585449
time_elpased: 8.507
#iterations: 406
currently lose_sum: 0.5996049046516418
time_elpased: 8.483
#iterations: 407
currently lose_sum: 0.4551476538181305
time_elpased: 8.43
#iterations: 408
currently lose_sum: 0.6222444772720337
time_elpased: 8.529
#iterations: 409
currently lose_sum: 0.6014235615730286
time_elpased: 8.292
#iterations: 410
currently lose_sum: 0.5991178750991821
time_elpased: 8.32
#iterations: 411
currently lose_sum: 0.6563559770584106
time_elpased: 8.306
#iterations: 412
currently lose_sum: 0.4791451394557953
time_elpased: 8.456
#iterations: 413
currently lose_sum: 0.4988324046134949
time_elpased: 8.766
#iterations: 414
currently lose_sum: 0.6314004063606262
time_elpased: 8.543
#iterations: 415
currently lose_sum: 0.5140543580055237
time_elpased: 8.535
#iterations: 416
currently lose_sum: 0.5822111368179321
time_elpased: 8.791
#iterations: 417
currently lose_sum: 0.5409783124923706
time_elpased: 8.552
#iterations: 418
currently lose_sum: 0.6778172254562378
time_elpased: 8.252
#iterations: 419
currently lose_sum: 0.5897376537322998
time_elpased: 8.482
start validation test
0.622321428571
0.615767634855
0.659555555556
0.636909871245
0.622154459392
37.414
#iterations: 420
currently lose_sum: 0.5286853909492493
time_elpased: 8.305
#iterations: 421
currently lose_sum: 0.521217942237854
time_elpased: 8.491
#iterations: 422
currently lose_sum: 0.6092068552970886
time_elpased: 8.647
#iterations: 423
currently lose_sum: 0.5868228077888489
time_elpased: 8.294
#iterations: 424
currently lose_sum: 0.574257493019104
time_elpased: 8.403
#iterations: 425
currently lose_sum: 0.515216052532196
time_elpased: 8.522
#iterations: 426
currently lose_sum: 0.5267822742462158
time_elpased: 8.28
#iterations: 427
currently lose_sum: 0.5638355016708374
time_elpased: 8.551
#iterations: 428
currently lose_sum: 0.6269024610519409
time_elpased: 8.304
#iterations: 429
currently lose_sum: 0.6375601887702942
time_elpased: 8.332
#iterations: 430
currently lose_sum: 0.6876462697982788
time_elpased: 8.464
#iterations: 431
currently lose_sum: 0.5716973543167114
time_elpased: 8.286
#iterations: 432
currently lose_sum: 0.5272353887557983
time_elpased: 8.418
#iterations: 433
currently lose_sum: 0.56705242395401
time_elpased: 8.699
#iterations: 434
currently lose_sum: 0.42134755849838257
time_elpased: 8.566
#iterations: 435
currently lose_sum: 0.5872288346290588
time_elpased: 8.603
#iterations: 436
currently lose_sum: 0.6606922745704651
time_elpased: 8.659
#iterations: 437
currently lose_sum: 0.6003161668777466
time_elpased: 8.495
#iterations: 438
currently lose_sum: 0.6262157559394836
time_elpased: 8.349
#iterations: 439
currently lose_sum: 0.6059219241142273
time_elpased: 8.798
start validation test
0.629464285714
0.620605069501
0.674666666667
0.646507666099
0.629261584454
37.119
#iterations: 440
currently lose_sum: 0.6219440698623657
time_elpased: 8.33
#iterations: 441
currently lose_sum: 0.5493752360343933
time_elpased: 8.438
#iterations: 442
currently lose_sum: 0.4820696711540222
time_elpased: 8.606
#iterations: 443
currently lose_sum: 0.5364030599594116
time_elpased: 8.497
#iterations: 444
currently lose_sum: 0.48291006684303284
time_elpased: 8.614
#iterations: 445
currently lose_sum: 0.6359618306159973
time_elpased: 8.566
#iterations: 446
currently lose_sum: 0.6433221101760864
time_elpased: 8.616
#iterations: 447
currently lose_sum: 0.5585848689079285
time_elpased: 8.399
#iterations: 448
currently lose_sum: 0.5982080698013306
time_elpased: 8.721
#iterations: 449
currently lose_sum: 0.4999486804008484
time_elpased: 8.535
#iterations: 450
currently lose_sum: 0.6038973927497864
time_elpased: 8.697
#iterations: 451
currently lose_sum: 0.5238243937492371
time_elpased: 8.62
#iterations: 452
currently lose_sum: 0.5907666683197021
time_elpased: 8.318
#iterations: 453
currently lose_sum: 0.6299840211868286
time_elpased: 8.278
#iterations: 454
currently lose_sum: 0.5880686044692993
time_elpased: 8.364
#iterations: 455
currently lose_sum: 0.7041314244270325
time_elpased: 8.354
#iterations: 456
currently lose_sum: 0.5021328330039978
time_elpased: 8.324
#iterations: 457
currently lose_sum: 0.5943358540534973
time_elpased: 8.477
#iterations: 458
currently lose_sum: 0.5310302376747131
time_elpased: 8.486
#iterations: 459
currently lose_sum: 0.6311958432197571
time_elpased: 8.408
start validation test
0.625
0.617091207888
0.667555555556
0.641332194705
0.624809167912
37.180
#iterations: 460
currently lose_sum: 0.5623542666435242
time_elpased: 8.572
#iterations: 461
currently lose_sum: 0.4120798110961914
time_elpased: 8.374
#iterations: 462
currently lose_sum: 0.5442400574684143
time_elpased: 8.418
#iterations: 463
currently lose_sum: 0.5903178453445435
time_elpased: 8.717
#iterations: 464
currently lose_sum: 0.38537126779556274
time_elpased: 8.534
#iterations: 465
currently lose_sum: 0.6918468475341797
time_elpased: 8.424
#iterations: 466
currently lose_sum: 0.6618154644966125
time_elpased: 8.316
#iterations: 467
currently lose_sum: 0.6033669114112854
time_elpased: 8.502
#iterations: 468
currently lose_sum: 0.6485336422920227
time_elpased: 8.612
#iterations: 469
currently lose_sum: 0.6332828402519226
time_elpased: 8.517
#iterations: 470
currently lose_sum: 0.6007286310195923
time_elpased: 8.489
#iterations: 471
currently lose_sum: 0.6474594473838806
time_elpased: 8.543
#iterations: 472
currently lose_sum: 0.5871410369873047
time_elpased: 8.34
#iterations: 473
currently lose_sum: 0.6725619435310364
time_elpased: 8.373
#iterations: 474
currently lose_sum: 0.7155384421348572
time_elpased: 8.823
#iterations: 475
currently lose_sum: 0.4781741499900818
time_elpased: 8.478
#iterations: 476
currently lose_sum: 0.517351508140564
time_elpased: 8.628
#iterations: 477
currently lose_sum: 0.5413181185722351
time_elpased: 8.577
#iterations: 478
currently lose_sum: 0.5285035967826843
time_elpased: 8.266
#iterations: 479
currently lose_sum: 0.47922325134277344
time_elpased: 8.433
start validation test
0.627232142857
0.618464052288
0.672888888889
0.644529587058
0.627027404086
37.438
#iterations: 480
currently lose_sum: 0.6169292330741882
time_elpased: 8.43
#iterations: 481
currently lose_sum: 0.5509289503097534
time_elpased: 8.618
#iterations: 482
currently lose_sum: 0.5900484919548035
time_elpased: 8.693
#iterations: 483
currently lose_sum: 0.5201236605644226
time_elpased: 8.564
#iterations: 484
currently lose_sum: 0.4274001121520996
time_elpased: 8.628
#iterations: 485
currently lose_sum: 0.5647306442260742
time_elpased: 8.619
#iterations: 486
currently lose_sum: 0.5586260557174683
time_elpased: 8.703
#iterations: 487
currently lose_sum: 0.5491669178009033
time_elpased: 8.559
#iterations: 488
currently lose_sum: 0.6362277269363403
time_elpased: 8.73
#iterations: 489
currently lose_sum: 0.5968947410583496
time_elpased: 8.601
#iterations: 490
currently lose_sum: 0.6784694790840149
time_elpased: 8.629
#iterations: 491
currently lose_sum: 0.48720788955688477
time_elpased: 8.583
#iterations: 492
currently lose_sum: 0.575695276260376
time_elpased: 8.554
#iterations: 493
currently lose_sum: 0.6451967358589172
time_elpased: 8.258
#iterations: 494
currently lose_sum: 0.5759041905403137
time_elpased: 8.449
#iterations: 495
currently lose_sum: 0.6228760480880737
time_elpased: 8.607
#iterations: 496
currently lose_sum: 0.6459129452705383
time_elpased: 8.635
#iterations: 497
currently lose_sum: 0.5737167596817017
time_elpased: 8.388
#iterations: 498
currently lose_sum: 0.5675622820854187
time_elpased: 8.309
#iterations: 499
currently lose_sum: 0.5652092099189758
time_elpased: 8.606
start validation test
0.636160714286
0.633851468048
0.652444444444
0.643013578625
0.636087693074
37.415
#iterations: 500
currently lose_sum: 0.4655003547668457
time_elpased: 8.393
#iterations: 501
currently lose_sum: 0.6516842842102051
time_elpased: 8.665
#iterations: 502
currently lose_sum: 0.623958945274353
time_elpased: 8.556
#iterations: 503
currently lose_sum: 0.5131229758262634
time_elpased: 8.425
#iterations: 504
currently lose_sum: 0.4865211844444275
time_elpased: 8.609
#iterations: 505
currently lose_sum: 0.7044617533683777
time_elpased: 8.311
#iterations: 506
currently lose_sum: 0.43579769134521484
time_elpased: 8.41
#iterations: 507
currently lose_sum: 0.5749921798706055
time_elpased: 8.576
#iterations: 508
currently lose_sum: 0.5494766235351562
time_elpased: 8.482
#iterations: 509
currently lose_sum: 0.5059078931808472
time_elpased: 8.329
#iterations: 510
currently lose_sum: 0.6170358657836914
time_elpased: 8.491
#iterations: 511
currently lose_sum: 0.5639668703079224
time_elpased: 8.404
#iterations: 512
currently lose_sum: 0.6754277348518372
time_elpased: 8.447
#iterations: 513
currently lose_sum: 0.6595572233200073
time_elpased: 8.411
#iterations: 514
currently lose_sum: 0.5951489210128784
time_elpased: 8.342
#iterations: 515
currently lose_sum: 0.5803235769271851
time_elpased: 8.403
#iterations: 516
currently lose_sum: 0.5798786282539368
time_elpased: 8.374
#iterations: 517
currently lose_sum: 0.699520468711853
time_elpased: 8.466
#iterations: 518
currently lose_sum: 0.564602792263031
time_elpased: 8.55
#iterations: 519
currently lose_sum: 0.5336140394210815
time_elpased: 8.558
start validation test
0.628571428571
0.633060853769
0.619555555556
0.62623539982
0.628611858495
37.387
#iterations: 520
currently lose_sum: 0.6626912355422974
time_elpased: 8.318
#iterations: 521
currently lose_sum: 0.599502444267273
time_elpased: 8.489
#iterations: 522
currently lose_sum: 0.6212436556816101
time_elpased: 8.627
#iterations: 523
currently lose_sum: 0.6823233366012573
time_elpased: 8.323
#iterations: 524
currently lose_sum: 0.5797185897827148
time_elpased: 8.502
#iterations: 525
currently lose_sum: 0.582473874092102
time_elpased: 8.503
#iterations: 526
currently lose_sum: 0.7274420857429504
time_elpased: 8.462
#iterations: 527
currently lose_sum: 0.5592285394668579
time_elpased: 8.555
#iterations: 528
currently lose_sum: 0.6053792238235474
time_elpased: 8.565
#iterations: 529
currently lose_sum: 0.6028847694396973
time_elpased: 8.63
#iterations: 530
currently lose_sum: 0.6077055335044861
time_elpased: 8.49
#iterations: 531
currently lose_sum: 0.5756460428237915
time_elpased: 8.44
#iterations: 532
currently lose_sum: 0.5983787775039673
time_elpased: 8.446
#iterations: 533
currently lose_sum: 0.5988412499427795
time_elpased: 8.587
#iterations: 534
currently lose_sum: 0.6230316162109375
time_elpased: 8.38
#iterations: 535
currently lose_sum: 0.49078646302223206
time_elpased: 8.41
#iterations: 536
currently lose_sum: 0.6696590185165405
time_elpased: 8.443
#iterations: 537
currently lose_sum: 0.5531197786331177
time_elpased: 8.382
#iterations: 538
currently lose_sum: 0.6264899373054504
time_elpased: 8.256
#iterations: 539
currently lose_sum: 0.5080188512802124
time_elpased: 8.353
start validation test
0.629464285714
0.621599340478
0.670222222222
0.64499572284
0.629281514699
37.850
#iterations: 540
currently lose_sum: 0.5709227919578552
time_elpased: 8.399
#iterations: 541
currently lose_sum: 0.6268460154533386
time_elpased: 8.532
#iterations: 542
currently lose_sum: 0.5641266107559204
time_elpased: 8.411
#iterations: 543
currently lose_sum: 0.5396373867988586
time_elpased: 8.291
#iterations: 544
currently lose_sum: 0.49286192655563354
time_elpased: 8.493
#iterations: 545
currently lose_sum: 0.671563446521759
time_elpased: 8.264
#iterations: 546
currently lose_sum: 0.5901504755020142
time_elpased: 8.556
#iterations: 547
currently lose_sum: 0.6004821062088013
time_elpased: 8.389
#iterations: 548
currently lose_sum: 0.5962550044059753
time_elpased: 8.344
#iterations: 549
currently lose_sum: 0.5215093493461609
time_elpased: 8.446
#iterations: 550
currently lose_sum: 0.5418913960456848
time_elpased: 8.358
#iterations: 551
currently lose_sum: 0.5201537609100342
time_elpased: 8.576
#iterations: 552
currently lose_sum: 0.637133777141571
time_elpased: 8.378
#iterations: 553
currently lose_sum: 0.5627948641777039
time_elpased: 8.304
#iterations: 554
currently lose_sum: 0.5805715322494507
time_elpased: 8.553
#iterations: 555
currently lose_sum: 0.7088495492935181
time_elpased: 8.492
#iterations: 556
currently lose_sum: 0.4505658745765686
time_elpased: 8.506
#iterations: 557
currently lose_sum: 0.5549222230911255
time_elpased: 8.398
#iterations: 558
currently lose_sum: 0.5530774593353271
time_elpased: 8.366
#iterations: 559
currently lose_sum: 0.5381227135658264
time_elpased: 8.551
start validation test
0.629017857143
0.63738317757
0.606222222222
0.621412300683
0.629120079721
37.584
#iterations: 560
currently lose_sum: 0.5879026651382446
time_elpased: 8.399
#iterations: 561
currently lose_sum: 0.5036077499389648
time_elpased: 8.334
#iterations: 562
currently lose_sum: 0.605674684047699
time_elpased: 8.421
#iterations: 563
currently lose_sum: 0.6275538206100464
time_elpased: 8.545
#iterations: 564
currently lose_sum: 0.613583505153656
time_elpased: 8.309
#iterations: 565
currently lose_sum: 0.5739520788192749
time_elpased: 8.486
#iterations: 566
currently lose_sum: 0.548683762550354
time_elpased: 8.335
#iterations: 567
currently lose_sum: 0.5352242588996887
time_elpased: 8.444
#iterations: 568
currently lose_sum: 0.574748694896698
time_elpased: 8.262
#iterations: 569
currently lose_sum: 0.5801383852958679
time_elpased: 8.346
#iterations: 570
currently lose_sum: 0.6320575475692749
time_elpased: 8.401
#iterations: 571
currently lose_sum: 0.6185522079467773
time_elpased: 8.448
#iterations: 572
currently lose_sum: 0.651300847530365
time_elpased: 8.393
#iterations: 573
currently lose_sum: 0.6064715385437012
time_elpased: 8.718
#iterations: 574
currently lose_sum: 0.5916696786880493
time_elpased: 8.402
#iterations: 575
currently lose_sum: 0.6453088521957397
time_elpased: 8.515
#iterations: 576
currently lose_sum: 0.5303675532341003
time_elpased: 8.526
#iterations: 577
currently lose_sum: 0.5283371806144714
time_elpased: 8.576
#iterations: 578
currently lose_sum: 0.5501962304115295
time_elpased: 8.268
#iterations: 579
currently lose_sum: 0.6694797873497009
time_elpased: 8.332
start validation test
0.630357142857
0.633663366337
0.625777777778
0.62969588551
0.630377678127
37.712
#iterations: 580
currently lose_sum: 0.6257984042167664
time_elpased: 8.276
#iterations: 581
currently lose_sum: 0.5801838636398315
time_elpased: 8.339
#iterations: 582
currently lose_sum: 0.5426454544067383
time_elpased: 8.602
#iterations: 583
currently lose_sum: 0.47804006934165955
time_elpased: 8.756
#iterations: 584
currently lose_sum: 0.5078118443489075
time_elpased: 8.312
#iterations: 585
currently lose_sum: 0.4633064866065979
time_elpased: 8.308
#iterations: 586
currently lose_sum: 0.517900824546814
time_elpased: 8.711
#iterations: 587
currently lose_sum: 0.5168393850326538
time_elpased: 8.5
#iterations: 588
currently lose_sum: 0.6160694360733032
time_elpased: 8.361
#iterations: 589
currently lose_sum: 0.5449951887130737
time_elpased: 8.624
#iterations: 590
currently lose_sum: 0.6307634115219116
time_elpased: 8.296
#iterations: 591
currently lose_sum: 0.7552434206008911
time_elpased: 8.371
#iterations: 592
currently lose_sum: 0.6105435490608215
time_elpased: 8.479
#iterations: 593
currently lose_sum: 0.586544930934906
time_elpased: 8.331
#iterations: 594
currently lose_sum: 0.5031582117080688
time_elpased: 8.321
#iterations: 595
currently lose_sum: 0.6312912106513977
time_elpased: 8.404
#iterations: 596
currently lose_sum: 0.6968075037002563
time_elpased: 8.296
#iterations: 597
currently lose_sum: 0.6367286443710327
time_elpased: 8.497
#iterations: 598
currently lose_sum: 0.631565272808075
time_elpased: 8.102
#iterations: 599
currently lose_sum: 0.5350055694580078
time_elpased: 6.224
start validation test
0.63125
0.626587637595
0.657777777778
0.641803989592
0.631131041355
37.712
acc: 0.629
pre: 0.668
rec: 0.516
F1: 0.582
auc: 0.629
