start to construct computing graph
graph construct over
3373
epochs start
#iterations: 0
currently lose_sum: 0.6779022216796875
time_elpased: 2.692
#iterations: 1
currently lose_sum: 0.6831450462341309
time_elpased: 2.392
#iterations: 2
currently lose_sum: 0.6714016199111938
time_elpased: 2.364
#iterations: 3
currently lose_sum: 0.6402167081832886
time_elpased: 2.595
#iterations: 4
currently lose_sum: 0.6252424120903015
time_elpased: 3.149
#iterations: 5
currently lose_sum: 0.6940614581108093
time_elpased: 2.516
#iterations: 6
currently lose_sum: 0.6797506213188171
time_elpased: 2.705
#iterations: 7
currently lose_sum: 0.6593530774116516
time_elpased: 2.489
#iterations: 8
currently lose_sum: 0.6081005930900574
time_elpased: 2.735
#iterations: 9
currently lose_sum: 0.5925607681274414
time_elpased: 2.51
#iterations: 10
currently lose_sum: 0.688423752784729
time_elpased: 2.477
#iterations: 11
currently lose_sum: 0.6416221261024475
time_elpased: 2.82
#iterations: 12
currently lose_sum: 0.6244242787361145
time_elpased: 2.487
#iterations: 13
currently lose_sum: 0.615387499332428
time_elpased: 2.46
#iterations: 14
currently lose_sum: 0.5839709043502808
time_elpased: 2.481
#iterations: 15
currently lose_sum: 0.5653354525566101
time_elpased: 2.5
#iterations: 16
currently lose_sum: 0.6862390637397766
time_elpased: 2.529
#iterations: 17
currently lose_sum: 0.6180744171142578
time_elpased: 2.556
#iterations: 18
currently lose_sum: 0.5117700099945068
time_elpased: 2.494
#iterations: 19
currently lose_sum: 0.6693075895309448
time_elpased: 2.496
start validation test
0.619642857143
0.638775510204
0.556939501779
0.595057034221
0.619867600352
35.837
#iterations: 20
currently lose_sum: 0.6740292310714722
time_elpased: 2.955
#iterations: 21
currently lose_sum: 0.598659098148346
time_elpased: 2.464
#iterations: 22
currently lose_sum: 0.5076189637184143
time_elpased: 2.468
#iterations: 23
currently lose_sum: 0.5221341252326965
time_elpased: 2.458
#iterations: 24
currently lose_sum: 0.46414971351623535
time_elpased: 2.474
#iterations: 25
currently lose_sum: 0.680324912071228
time_elpased: 2.486
#iterations: 26
currently lose_sum: 0.674587607383728
time_elpased: 2.463
#iterations: 27
currently lose_sum: 0.6374541521072388
time_elpased: 2.505
#iterations: 28
currently lose_sum: 0.6365870237350464
time_elpased: 2.551
#iterations: 29
currently lose_sum: 0.5771545767784119
time_elpased: 2.514
#iterations: 30
currently lose_sum: 0.5930594801902771
time_elpased: 2.474
#iterations: 31
currently lose_sum: 0.6064443588256836
time_elpased: 2.506
#iterations: 32
currently lose_sum: 0.587081789970398
time_elpased: 2.52
#iterations: 33
currently lose_sum: 0.5471717715263367
time_elpased: 2.609
#iterations: 34
currently lose_sum: 0.5155910849571228
time_elpased: 2.811
#iterations: 35
currently lose_sum: 0.6092547178268433
time_elpased: 2.666
#iterations: 36
currently lose_sum: 0.5601415634155273
time_elpased: 2.595
#iterations: 37
currently lose_sum: 0.7431802749633789
time_elpased: 2.739
#iterations: 38
currently lose_sum: 0.5498098134994507
time_elpased: 2.563
#iterations: 39
currently lose_sum: 0.6315206289291382
time_elpased: 2.56
start validation test
0.627678571429
0.628546099291
0.630782918149
0.629662522202
0.627667444738
36.297
#iterations: 40
currently lose_sum: 0.5551095008850098
time_elpased: 2.533
#iterations: 41
currently lose_sum: 0.6666824817657471
time_elpased: 2.637
#iterations: 42
currently lose_sum: 0.5755654573440552
time_elpased: 2.585
#iterations: 43
currently lose_sum: 0.5835944414138794
time_elpased: 2.559
#iterations: 44
currently lose_sum: 0.680624783039093
time_elpased: 2.587
#iterations: 45
currently lose_sum: 0.5683170557022095
time_elpased: 2.639
#iterations: 46
currently lose_sum: 0.5968955755233765
time_elpased: 2.628
#iterations: 47
currently lose_sum: 0.6244381666183472
time_elpased: 2.536
#iterations: 48
currently lose_sum: 0.48010921478271484
time_elpased: 2.509
#iterations: 49
currently lose_sum: 0.6815502047538757
time_elpased: 2.583
#iterations: 50
currently lose_sum: 0.6072412729263306
time_elpased: 2.782
#iterations: 51
currently lose_sum: 0.5720151662826538
time_elpased: 2.541
#iterations: 52
currently lose_sum: 0.6563090085983276
time_elpased: 2.79
#iterations: 53
currently lose_sum: 0.5720845460891724
time_elpased: 2.659
#iterations: 54
currently lose_sum: 0.688038170337677
time_elpased: 2.534
#iterations: 55
currently lose_sum: 0.6700202226638794
time_elpased: 2.547
#iterations: 56
currently lose_sum: 0.6170417070388794
time_elpased: 2.522
#iterations: 57
currently lose_sum: 0.6191992163658142
time_elpased: 2.512
#iterations: 58
currently lose_sum: 0.6116560101509094
time_elpased: 2.908
#iterations: 59
currently lose_sum: 0.6403997540473938
time_elpased: 2.566
start validation test
0.627678571429
0.615262321145
0.688612099644
0.649874055416
0.627460171686
36.580
#iterations: 60
currently lose_sum: 0.561472475528717
time_elpased: 2.565
#iterations: 61
currently lose_sum: 0.5516132116317749
time_elpased: 2.558
#iterations: 62
currently lose_sum: 0.5779436230659485
time_elpased: 2.605
#iterations: 63
currently lose_sum: 0.6142871975898743
time_elpased: 2.529
#iterations: 64
currently lose_sum: 0.5905105471611023
time_elpased: 2.505
#iterations: 65
currently lose_sum: 0.5379018783569336
time_elpased: 2.506
#iterations: 66
currently lose_sum: 0.6808671951293945
time_elpased: 2.532
#iterations: 67
currently lose_sum: 0.5807415246963501
time_elpased: 2.522
#iterations: 68
currently lose_sum: 0.5276910662651062
time_elpased: 2.514
#iterations: 69
currently lose_sum: 0.5772424936294556
time_elpased: 2.544
#iterations: 70
currently lose_sum: 0.5249814391136169
time_elpased: 2.579
#iterations: 71
currently lose_sum: 0.6576029658317566
time_elpased: 2.634
#iterations: 72
currently lose_sum: 0.4653640389442444
time_elpased: 2.657
#iterations: 73
currently lose_sum: 0.5473000407218933
time_elpased: 2.508
#iterations: 74
currently lose_sum: 0.5727876424789429
time_elpased: 2.619
#iterations: 75
currently lose_sum: 0.5952755212783813
time_elpased: 2.665
#iterations: 76
currently lose_sum: 0.6305753588676453
time_elpased: 2.863
#iterations: 77
currently lose_sum: 0.5339691042900085
time_elpased: 2.557
#iterations: 78
currently lose_sum: 0.6019231677055359
time_elpased: 2.648
#iterations: 79
currently lose_sum: 0.574371337890625
time_elpased: 2.633
start validation test
0.621428571429
0.622340425532
0.624555160142
0.623445825933
0.621417365017
36.659
#iterations: 80
currently lose_sum: 0.660472571849823
time_elpased: 2.491
#iterations: 81
currently lose_sum: 0.6733708381652832
time_elpased: 2.516
#iterations: 82
currently lose_sum: 0.6470355987548828
time_elpased: 2.502
#iterations: 83
currently lose_sum: 0.6156378984451294
time_elpased: 2.585
#iterations: 84
currently lose_sum: 0.6504150629043579
time_elpased: 2.513
#iterations: 85
currently lose_sum: 0.5850951671600342
time_elpased: 2.507
#iterations: 86
currently lose_sum: 0.564578652381897
time_elpased: 2.531
#iterations: 87
currently lose_sum: 0.5937843322753906
time_elpased: 2.559
#iterations: 88
currently lose_sum: 0.6488581895828247
time_elpased: 2.494
#iterations: 89
currently lose_sum: 0.6054821610450745
time_elpased: 2.505
#iterations: 90
currently lose_sum: 0.5631221532821655
time_elpased: 2.537
#iterations: 91
currently lose_sum: 0.6388893127441406
time_elpased: 2.752
#iterations: 92
currently lose_sum: 0.6537388563156128
time_elpased: 2.712
#iterations: 93
currently lose_sum: 0.6411907076835632
time_elpased: 2.546
#iterations: 94
currently lose_sum: 0.7187410593032837
time_elpased: 2.763
#iterations: 95
currently lose_sum: 0.5313949584960938
time_elpased: 2.465
#iterations: 96
currently lose_sum: 0.5484238862991333
time_elpased: 2.526
#iterations: 97
currently lose_sum: 0.5371099710464478
time_elpased: 2.511
#iterations: 98
currently lose_sum: 0.4989999830722809
time_elpased: 2.644
#iterations: 99
currently lose_sum: 0.5900031924247742
time_elpased: 2.512
start validation test
0.626339285714
0.617142857143
0.672597864769
0.64367816092
0.626173484356
36.319
#iterations: 100
currently lose_sum: 0.6706143617630005
time_elpased: 2.549
#iterations: 101
currently lose_sum: 0.6122234463691711
time_elpased: 2.529
#iterations: 102
currently lose_sum: 0.6392073631286621
time_elpased: 2.476
#iterations: 103
currently lose_sum: 0.6334049105644226
time_elpased: 2.47
#iterations: 104
currently lose_sum: 0.6616548895835876
time_elpased: 2.598
#iterations: 105
currently lose_sum: 0.5771312117576599
time_elpased: 2.716
#iterations: 106
currently lose_sum: 0.5439349412918091
time_elpased: 2.682
#iterations: 107
currently lose_sum: 0.589287281036377
time_elpased: 2.546
#iterations: 108
currently lose_sum: 0.6174125075340271
time_elpased: 2.479
#iterations: 109
currently lose_sum: 0.6338746547698975
time_elpased: 2.516
#iterations: 110
currently lose_sum: 0.6236581206321716
time_elpased: 2.59
#iterations: 111
currently lose_sum: 0.6321574449539185
time_elpased: 2.833
#iterations: 112
currently lose_sum: 0.5070980787277222
time_elpased: 2.541
#iterations: 113
currently lose_sum: 0.6504042744636536
time_elpased: 2.547
#iterations: 114
currently lose_sum: 0.6261858344078064
time_elpased: 3.035
#iterations: 115
currently lose_sum: 0.6504999399185181
time_elpased: 2.732
#iterations: 116
currently lose_sum: 0.5917118787765503
time_elpased: 2.525
#iterations: 117
currently lose_sum: 0.6103503108024597
time_elpased: 2.527
#iterations: 118
currently lose_sum: 0.5790077447891235
time_elpased: 2.833
#iterations: 119
currently lose_sum: 0.5237663388252258
time_elpased: 2.776
start validation test
0.633482142857
0.644148430067
0.60231316726
0.622528735632
0.633593859616
36.896
#iterations: 120
currently lose_sum: 0.6050289273262024
time_elpased: 2.696
#iterations: 121
currently lose_sum: 0.5683060884475708
time_elpased: 3.06
#iterations: 122
currently lose_sum: 0.5984733700752258
time_elpased: 2.553
#iterations: 123
currently lose_sum: 0.5847769975662231
time_elpased: 2.518
#iterations: 124
currently lose_sum: 0.7213751673698425
time_elpased: 2.666
#iterations: 125
currently lose_sum: 0.5889689326286316
time_elpased: 2.502
#iterations: 126
currently lose_sum: 0.5694575905799866
time_elpased: 2.509
#iterations: 127
currently lose_sum: 0.5874046683311462
time_elpased: 2.656
#iterations: 128
currently lose_sum: 0.5541923642158508
time_elpased: 2.536
#iterations: 129
currently lose_sum: 0.5725321769714355
time_elpased: 2.546
#iterations: 130
currently lose_sum: 0.5401371717453003
time_elpased: 2.535
#iterations: 131
currently lose_sum: 0.49188584089279175
time_elpased: 2.645
#iterations: 132
currently lose_sum: 0.6169872879981995
time_elpased: 2.677
#iterations: 133
currently lose_sum: 0.461229145526886
time_elpased: 2.483
#iterations: 134
currently lose_sum: 0.6073799133300781
time_elpased: 2.663
#iterations: 135
currently lose_sum: 0.5771906971931458
time_elpased: 2.513
#iterations: 136
currently lose_sum: 0.6092497706413269
time_elpased: 2.512
#iterations: 137
currently lose_sum: 0.6191474795341492
time_elpased: 2.672
#iterations: 138
currently lose_sum: 0.5998703241348267
time_elpased: 2.494
#iterations: 139
currently lose_sum: 0.6206534504890442
time_elpased: 2.563
start validation test
0.633928571429
0.638433515483
0.623665480427
0.63096309631
0.633965356701
36.917
#iterations: 140
currently lose_sum: 0.6690689325332642
time_elpased: 2.533
#iterations: 141
currently lose_sum: 0.6546999216079712
time_elpased: 2.585
#iterations: 142
currently lose_sum: 0.6230834722518921
time_elpased: 2.567
#iterations: 143
currently lose_sum: 0.5926544070243835
time_elpased: 2.562
#iterations: 144
currently lose_sum: 0.7453728914260864
time_elpased: 2.638
#iterations: 145
currently lose_sum: 0.6176906228065491
time_elpased: 2.622
#iterations: 146
currently lose_sum: 0.6640878915786743
time_elpased: 2.553
#iterations: 147
currently lose_sum: 0.5369699597358704
time_elpased: 2.603
#iterations: 148
currently lose_sum: 0.6369735598564148
time_elpased: 2.468
#iterations: 149
currently lose_sum: 0.5840594172477722
time_elpased: 2.518
#iterations: 150
currently lose_sum: 0.5816791653633118
time_elpased: 2.556
#iterations: 151
currently lose_sum: 0.6253381967544556
time_elpased: 2.566
#iterations: 152
currently lose_sum: 0.5468449592590332
time_elpased: 2.922
#iterations: 153
currently lose_sum: 0.601842999458313
time_elpased: 2.509
#iterations: 154
currently lose_sum: 0.624519944190979
time_elpased: 2.476
#iterations: 155
currently lose_sum: 0.5911470651626587
time_elpased: 2.525
#iterations: 156
currently lose_sum: 0.5385524034500122
time_elpased: 2.506
#iterations: 157
currently lose_sum: 0.5484073162078857
time_elpased: 2.571
#iterations: 158
currently lose_sum: 0.5672459602355957
time_elpased: 2.677
#iterations: 159
currently lose_sum: 0.5450543165206909
time_elpased: 2.584
start validation test
0.640178571429
0.64533820841
0.628113879004
0.636609558161
0.640221814054
36.979
#iterations: 160
currently lose_sum: 0.6262134313583374
time_elpased: 2.55
#iterations: 161
currently lose_sum: 0.629489541053772
time_elpased: 2.516
#iterations: 162
currently lose_sum: 0.6911710500717163
time_elpased: 2.584
#iterations: 163
currently lose_sum: 0.5402576923370361
time_elpased: 2.543
#iterations: 164
currently lose_sum: 0.5556982755661011
time_elpased: 2.63
#iterations: 165
currently lose_sum: 0.4981231093406677
time_elpased: 2.49
#iterations: 166
currently lose_sum: 0.5954803824424744
time_elpased: 2.695
#iterations: 167
currently lose_sum: 0.689850926399231
time_elpased: 2.585
#iterations: 168
currently lose_sum: 0.5908452868461609
time_elpased: 2.488
#iterations: 169
currently lose_sum: 0.6092300415039062
time_elpased: 2.489
#iterations: 170
currently lose_sum: 0.7098098397254944
time_elpased: 2.832
#iterations: 171
currently lose_sum: 0.592851459980011
time_elpased: 2.484
#iterations: 172
currently lose_sum: 0.6139861941337585
time_elpased: 2.714
#iterations: 173
currently lose_sum: 0.6333863139152527
time_elpased: 2.501
#iterations: 174
currently lose_sum: 0.653065025806427
time_elpased: 2.512
#iterations: 175
currently lose_sum: 0.579076886177063
time_elpased: 2.528
#iterations: 176
currently lose_sum: 0.6448912620544434
time_elpased: 2.871
#iterations: 177
currently lose_sum: 0.6026773452758789
time_elpased: 2.714
#iterations: 178
currently lose_sum: 0.6158963441848755
time_elpased: 2.645
#iterations: 179
currently lose_sum: 0.5649107098579407
time_elpased: 2.653
start validation test
0.627678571429
0.618657937807
0.672597864769
0.644501278772
0.627517570377
37.171
#iterations: 180
currently lose_sum: 0.5615348815917969
time_elpased: 2.562
#iterations: 181
currently lose_sum: 0.6976757049560547
time_elpased: 2.385
#iterations: 182
currently lose_sum: 0.5912132263183594
time_elpased: 2.517
#iterations: 183
currently lose_sum: 0.5787458419799805
time_elpased: 2.82
#iterations: 184
currently lose_sum: 0.5957744717597961
time_elpased: 2.537
#iterations: 185
currently lose_sum: 0.5283929109573364
time_elpased: 2.508
#iterations: 186
currently lose_sum: 0.5645219087600708
time_elpased: 2.51
#iterations: 187
currently lose_sum: 0.5221758484840393
time_elpased: 2.461
#iterations: 188
currently lose_sum: 0.6191962361335754
time_elpased: 2.469
#iterations: 189
currently lose_sum: 0.5711769461631775
time_elpased: 2.649
#iterations: 190
currently lose_sum: 0.667077898979187
time_elpased: 2.537
#iterations: 191
currently lose_sum: 0.6004717946052551
time_elpased: 2.491
#iterations: 192
currently lose_sum: 0.600039005279541
time_elpased: 2.481
#iterations: 193
currently lose_sum: 0.6376028060913086
time_elpased: 2.497
#iterations: 194
currently lose_sum: 0.608157753944397
time_elpased: 2.597
#iterations: 195
currently lose_sum: 0.5273678302764893
time_elpased: 2.521
#iterations: 196
currently lose_sum: 0.6173948049545288
time_elpased: 2.516
#iterations: 197
currently lose_sum: 0.5829731225967407
time_elpased: 2.554
#iterations: 198
currently lose_sum: 0.6052421927452087
time_elpased: 2.565
#iterations: 199
currently lose_sum: 0.5438735485076904
time_elpased: 2.533
start validation test
0.632589285714
0.631441048035
0.643238434164
0.637285147642
0.632551116723
37.571
#iterations: 200
currently lose_sum: 0.5607658624649048
time_elpased: 2.624
#iterations: 201
currently lose_sum: 0.5491969585418701
time_elpased: 2.739
#iterations: 202
currently lose_sum: 0.7069307565689087
time_elpased: 2.893
#iterations: 203
currently lose_sum: 0.6517072319984436
time_elpased: 2.527
#iterations: 204
currently lose_sum: 0.691405713558197
time_elpased: 2.499
#iterations: 205
currently lose_sum: 0.6074713468551636
time_elpased: 2.772
#iterations: 206
currently lose_sum: 0.6707104444503784
time_elpased: 2.518
#iterations: 207
currently lose_sum: 0.5852639079093933
time_elpased: 2.537
#iterations: 208
currently lose_sum: 0.6100573539733887
time_elpased: 2.862
#iterations: 209
currently lose_sum: 0.6270730495452881
time_elpased: 2.544
#iterations: 210
currently lose_sum: 0.6470252871513367
time_elpased: 2.782
#iterations: 211
currently lose_sum: 0.6044278144836426
time_elpased: 2.504
#iterations: 212
currently lose_sum: 0.5978438258171082
time_elpased: 2.556
#iterations: 213
currently lose_sum: 0.6554840803146362
time_elpased: 2.508
#iterations: 214
currently lose_sum: 0.7189980745315552
time_elpased: 2.477
#iterations: 215
currently lose_sum: 0.5871682167053223
time_elpased: 2.756
#iterations: 216
currently lose_sum: 0.5792563557624817
time_elpased: 2.543
#iterations: 217
currently lose_sum: 0.657767653465271
time_elpased: 2.526
#iterations: 218
currently lose_sum: 0.6059221029281616
time_elpased: 2.555
#iterations: 219
currently lose_sum: 0.5862222909927368
time_elpased: 2.572
start validation test
0.626785714286
0.619402985075
0.664590747331
0.641201716738
0.626650212375
37.187
#iterations: 220
currently lose_sum: 0.5085581541061401
time_elpased: 2.541
#iterations: 221
currently lose_sum: 0.5440047979354858
time_elpased: 2.714
#iterations: 222
currently lose_sum: 0.613141655921936
time_elpased: 2.811
#iterations: 223
currently lose_sum: 0.7036860585212708
time_elpased: 2.53
#iterations: 224
currently lose_sum: 0.7060831785202026
time_elpased: 2.602
#iterations: 225
currently lose_sum: 0.4973376393318176
time_elpased: 2.519
#iterations: 226
currently lose_sum: 0.5383440852165222
time_elpased: 2.553
#iterations: 227
currently lose_sum: 0.6015208959579468
time_elpased: 2.613
#iterations: 228
currently lose_sum: 0.6656271815299988
time_elpased: 2.624
#iterations: 229
currently lose_sum: 0.5783936381340027
time_elpased: 2.562
#iterations: 230
currently lose_sum: 0.7042979001998901
time_elpased: 2.531
#iterations: 231
currently lose_sum: 0.564099907875061
time_elpased: 2.55
#iterations: 232
currently lose_sum: 0.5935897827148438
time_elpased: 2.508
#iterations: 233
currently lose_sum: 0.5486261248588562
time_elpased: 2.521
#iterations: 234
currently lose_sum: 0.5955855250358582
time_elpased: 3.016
#iterations: 235
currently lose_sum: 0.5333119034767151
time_elpased: 2.531
#iterations: 236
currently lose_sum: 0.5710800886154175
time_elpased: 2.437
#iterations: 237
currently lose_sum: 0.635220468044281
time_elpased: 2.61
#iterations: 238
currently lose_sum: 0.5234163999557495
time_elpased: 2.501
#iterations: 239
currently lose_sum: 0.5798884630203247
time_elpased: 2.485
start validation test
0.630803571429
0.619469026549
0.685053380783
0.650612589776
0.630609127667
37.648
#iterations: 240
currently lose_sum: 0.6522096395492554
time_elpased: 2.514
#iterations: 241
currently lose_sum: 0.6007230877876282
time_elpased: 2.812
#iterations: 242
currently lose_sum: 0.5020744800567627
time_elpased: 2.514
#iterations: 243
currently lose_sum: 0.5805845856666565
time_elpased: 2.552
#iterations: 244
currently lose_sum: 0.5525151491165161
time_elpased: 2.53
#iterations: 245
currently lose_sum: 0.6239277720451355
time_elpased: 2.631
#iterations: 246
currently lose_sum: 0.7070568203926086
time_elpased: 2.704
#iterations: 247
currently lose_sum: 0.5815207362174988
time_elpased: 2.583
#iterations: 248
currently lose_sum: 0.6808056235313416
time_elpased: 2.569
#iterations: 249
currently lose_sum: 0.6331599950790405
time_elpased: 2.528
#iterations: 250
currently lose_sum: 0.5929489731788635
time_elpased: 2.598
#iterations: 251
currently lose_sum: 0.5361324548721313
time_elpased: 2.53
#iterations: 252
currently lose_sum: 0.5256520509719849
time_elpased: 2.644
#iterations: 253
currently lose_sum: 0.6444665193557739
time_elpased: 2.851
#iterations: 254
currently lose_sum: 0.6016644239425659
time_elpased: 2.62
#iterations: 255
currently lose_sum: 0.5264617204666138
time_elpased: 2.518
#iterations: 256
currently lose_sum: 0.4726107716560364
time_elpased: 2.618
#iterations: 257
currently lose_sum: 0.5509229898452759
time_elpased: 2.801
#iterations: 258
currently lose_sum: 0.49101191759109497
time_elpased: 2.497
#iterations: 259
currently lose_sum: 0.516619086265564
time_elpased: 2.49
start validation test
0.637053571429
0.644114921223
0.618327402135
0.630957784839
0.637120690315
37.571
#iterations: 260
currently lose_sum: 0.6434956192970276
time_elpased: 2.674
#iterations: 261
currently lose_sum: 0.546617865562439
time_elpased: 2.559
#iterations: 262
currently lose_sum: 0.5584767460823059
time_elpased: 2.597
#iterations: 263
currently lose_sum: 0.5964845418930054
time_elpased: 2.603
#iterations: 264
currently lose_sum: 0.6265890598297119
time_elpased: 2.494
#iterations: 265
currently lose_sum: 0.6326745748519897
time_elpased: 2.472
#iterations: 266
currently lose_sum: 0.5948290228843689
time_elpased: 2.695
#iterations: 267
currently lose_sum: 0.6263785362243652
time_elpased: 2.496
#iterations: 268
currently lose_sum: 0.6147769093513489
time_elpased: 2.569
#iterations: 269
currently lose_sum: 0.5274815559387207
time_elpased: 2.523
#iterations: 270
currently lose_sum: 0.6178972125053406
time_elpased: 2.567
#iterations: 271
currently lose_sum: 0.5785561800003052
time_elpased: 2.525
#iterations: 272
currently lose_sum: 0.5965296030044556
time_elpased: 2.463
#iterations: 273
currently lose_sum: 0.48199263215065
time_elpased: 2.652
#iterations: 274
currently lose_sum: 0.5740231275558472
time_elpased: 2.739
#iterations: 275
currently lose_sum: 0.5539405941963196
time_elpased: 2.502
#iterations: 276
currently lose_sum: 0.6951943635940552
time_elpased: 2.55
#iterations: 277
currently lose_sum: 0.7021368145942688
time_elpased: 2.524
#iterations: 278
currently lose_sum: 0.6513250470161438
time_elpased: 2.572
#iterations: 279
currently lose_sum: 0.6958947777748108
time_elpased: 2.658
start validation test
0.635267857143
0.641998149861
0.61743772242
0.62947845805
0.635331764436
37.449
#iterations: 280
currently lose_sum: 0.5147044062614441
time_elpased: 2.553
#iterations: 281
currently lose_sum: 0.5979228615760803
time_elpased: 2.539
#iterations: 282
currently lose_sum: 0.5426198840141296
time_elpased: 2.591
#iterations: 283
currently lose_sum: 0.5749655961990356
time_elpased: 2.948
#iterations: 284
currently lose_sum: 0.6340208053588867
time_elpased: 2.508
#iterations: 285
currently lose_sum: 0.6194435358047485
time_elpased: 2.82
#iterations: 286
currently lose_sum: 0.5067516565322876
time_elpased: 2.63
#iterations: 287
currently lose_sum: 0.5307632684707642
time_elpased: 2.562
#iterations: 288
currently lose_sum: 0.5914662480354309
time_elpased: 2.547
#iterations: 289
currently lose_sum: 0.6878606677055359
time_elpased: 2.578
#iterations: 290
currently lose_sum: 0.5760509371757507
time_elpased: 2.783
#iterations: 291
currently lose_sum: 0.5335665941238403
time_elpased: 2.601
#iterations: 292
currently lose_sum: 0.4885159134864807
time_elpased: 2.792
#iterations: 293
currently lose_sum: 0.6184417605400085
time_elpased: 2.548
#iterations: 294
currently lose_sum: 0.5468494296073914
time_elpased: 2.535
#iterations: 295
currently lose_sum: 0.5854594707489014
time_elpased: 2.7
#iterations: 296
currently lose_sum: 0.6223618388175964
time_elpased: 3.316
#iterations: 297
currently lose_sum: 0.6210664510726929
time_elpased: 2.576
#iterations: 298
currently lose_sum: 0.6392598152160645
time_elpased: 2.547
#iterations: 299
currently lose_sum: 0.6164659261703491
time_elpased: 2.563
start validation test
0.631696428571
0.641706161137
0.60231316726
0.621385956861
0.63180174492
37.820
#iterations: 300
currently lose_sum: 0.5363247990608215
time_elpased: 2.539
#iterations: 301
currently lose_sum: 0.5569621324539185
time_elpased: 2.572
#iterations: 302
currently lose_sum: 0.6710435748100281
time_elpased: 2.725
#iterations: 303
currently lose_sum: 0.6715179681777954
time_elpased: 2.514
#iterations: 304
currently lose_sum: 0.6075218915939331
time_elpased: 2.582
#iterations: 305
currently lose_sum: 0.5307547450065613
time_elpased: 2.526
#iterations: 306
currently lose_sum: 0.6175785064697266
time_elpased: 2.577
#iterations: 307
currently lose_sum: 0.5334268808364868
time_elpased: 2.574
#iterations: 308
currently lose_sum: 0.5192306041717529
time_elpased: 2.459
#iterations: 309
currently lose_sum: 0.5442073345184326
time_elpased: 2.518
#iterations: 310
currently lose_sum: 0.5885134935379028
time_elpased: 2.974
#iterations: 311
currently lose_sum: 0.6603444814682007
time_elpased: 2.526
#iterations: 312
currently lose_sum: 0.5847690105438232
time_elpased: 2.68
#iterations: 313
currently lose_sum: 0.5942217111587524
time_elpased: 2.578
#iterations: 314
currently lose_sum: 0.5156314969062805
time_elpased: 2.594
#iterations: 315
currently lose_sum: 0.6423162817955017
time_elpased: 2.704
#iterations: 316
currently lose_sum: 0.5367560386657715
time_elpased: 2.623
#iterations: 317
currently lose_sum: 0.5865804553031921
time_elpased: 2.633
#iterations: 318
currently lose_sum: 0.46883097290992737
time_elpased: 2.588
#iterations: 319
currently lose_sum: 0.697708249092102
time_elpased: 2.605
start validation test
0.633035714286
0.637773722628
0.621886120996
0.62972972973
0.633075676986
38.056
#iterations: 320
currently lose_sum: 0.5061076879501343
time_elpased: 2.535
#iterations: 321
currently lose_sum: 0.5007279515266418
time_elpased: 2.805
#iterations: 322
currently lose_sum: 0.6498311758041382
time_elpased: 2.55
#iterations: 323
currently lose_sum: 0.6093271374702454
time_elpased: 2.539
#iterations: 324
currently lose_sum: 0.6683851480484009
time_elpased: 2.713
#iterations: 325
currently lose_sum: 0.5432324409484863
time_elpased: 2.514
#iterations: 326
currently lose_sum: 0.5341469049453735
time_elpased: 2.82
#iterations: 327
currently lose_sum: 0.5624390840530396
time_elpased: 2.582
#iterations: 328
currently lose_sum: 0.6048997640609741
time_elpased: 2.624
#iterations: 329
currently lose_sum: 0.5561323165893555
time_elpased: 2.727
#iterations: 330
currently lose_sum: 0.7556909322738647
time_elpased: 2.556
#iterations: 331
currently lose_sum: 0.6435497999191284
time_elpased: 3.106
#iterations: 332
currently lose_sum: 0.4976656436920166
time_elpased: 3.015
#iterations: 333
currently lose_sum: 0.5773593783378601
time_elpased: 2.614
#iterations: 334
currently lose_sum: 0.6108407974243164
time_elpased: 2.526
#iterations: 335
currently lose_sum: 0.44868579506874084
time_elpased: 2.572
#iterations: 336
currently lose_sum: 0.5723146796226501
time_elpased: 2.574
#iterations: 337
currently lose_sum: 0.5165722966194153
time_elpased: 2.524
#iterations: 338
currently lose_sum: 0.591537594795227
time_elpased: 2.551
#iterations: 339
currently lose_sum: 0.543749213218689
time_elpased: 2.538
start validation test
0.635267857143
0.637176050045
0.634341637011
0.635755684351
0.635271176928
37.835
#iterations: 340
currently lose_sum: 0.641714870929718
time_elpased: 2.496
#iterations: 341
currently lose_sum: 0.6133603453636169
time_elpased: 2.63
#iterations: 342
currently lose_sum: 0.623203694820404
time_elpased: 2.719
#iterations: 343
currently lose_sum: 0.6269350051879883
time_elpased: 2.543
#iterations: 344
currently lose_sum: 0.5490058660507202
time_elpased: 2.515
#iterations: 345
currently lose_sum: 0.4863460958003998
time_elpased: 2.477
#iterations: 346
currently lose_sum: 0.7536072134971619
time_elpased: 2.549
#iterations: 347
currently lose_sum: 0.547685980796814
time_elpased: 2.605
#iterations: 348
currently lose_sum: 0.6056383848190308
time_elpased: 2.602
#iterations: 349
currently lose_sum: 0.5998646020889282
time_elpased: 2.534
#iterations: 350
currently lose_sum: 0.5326589941978455
time_elpased: 2.52
#iterations: 351
currently lose_sum: 0.5649657845497131
time_elpased: 2.542
#iterations: 352
currently lose_sum: 0.526881992816925
time_elpased: 2.699
#iterations: 353
currently lose_sum: 0.6468601226806641
time_elpased: 2.777
#iterations: 354
currently lose_sum: 0.641426682472229
time_elpased: 2.578
#iterations: 355
currently lose_sum: 0.5105746984481812
time_elpased: 2.485
#iterations: 356
currently lose_sum: 0.45586061477661133
time_elpased: 2.499
#iterations: 357
currently lose_sum: 0.5384916663169861
time_elpased: 2.527
#iterations: 358
currently lose_sum: 0.5233796834945679
time_elpased: 2.528
#iterations: 359
currently lose_sum: 0.7350325584411621
time_elpased: 2.552
start validation test
0.634821428571
0.639598540146
0.623665480427
0.631531531532
0.634861414049
38.010
#iterations: 360
currently lose_sum: 0.6711317896842957
time_elpased: 2.58
#iterations: 361
currently lose_sum: 0.621966540813446
time_elpased: 2.534
#iterations: 362
currently lose_sum: 0.5541473627090454
time_elpased: 2.583
#iterations: 363
currently lose_sum: 0.5658936500549316
time_elpased: 2.518
#iterations: 364
currently lose_sum: 0.7261353731155396
time_elpased: 2.569
#iterations: 365
currently lose_sum: 0.5598527789115906
time_elpased: 2.556
#iterations: 366
currently lose_sum: 0.5829843282699585
time_elpased: 2.501
#iterations: 367
currently lose_sum: 0.5689839124679565
time_elpased: 2.53
#iterations: 368
currently lose_sum: 0.5242694616317749
time_elpased: 2.914
#iterations: 369
currently lose_sum: 0.6476224064826965
time_elpased: 2.554
#iterations: 370
currently lose_sum: 0.5618718862533569
time_elpased: 2.508
#iterations: 371
currently lose_sum: 0.5687509775161743
time_elpased: 2.9
#iterations: 372
currently lose_sum: 0.5456160306930542
time_elpased: 2.56
#iterations: 373
currently lose_sum: 0.5678278207778931
time_elpased: 2.583
#iterations: 374
currently lose_sum: 0.6483071446418762
time_elpased: 2.473
#iterations: 375
currently lose_sum: 0.6602689027786255
time_elpased: 2.505
#iterations: 376
currently lose_sum: 0.5693613290786743
time_elpased: 2.774
#iterations: 377
currently lose_sum: 0.546225905418396
time_elpased: 2.514
#iterations: 378
currently lose_sum: 0.6755222082138062
time_elpased: 2.548
#iterations: 379
currently lose_sum: 0.5931683778762817
time_elpased: 2.581
start validation test
0.628125
0.619950535862
0.669039145907
0.643560119812
0.627978354316
38.189
#iterations: 380
currently lose_sum: 0.4576863646507263
time_elpased: 2.667
#iterations: 381
currently lose_sum: 0.641198992729187
time_elpased: 2.635
#iterations: 382
currently lose_sum: 0.6432994604110718
time_elpased: 2.701
#iterations: 383
currently lose_sum: 0.5054426789283752
time_elpased: 2.698
#iterations: 384
currently lose_sum: 0.4808730483055115
time_elpased: 2.619
#iterations: 385
currently lose_sum: 0.6280859708786011
time_elpased: 2.73
#iterations: 386
currently lose_sum: 0.613440215587616
time_elpased: 2.675
#iterations: 387
currently lose_sum: 0.5879963040351868
time_elpased: 2.772
#iterations: 388
currently lose_sum: 0.6223629713058472
time_elpased: 2.961
#iterations: 389
currently lose_sum: 0.5130003690719604
time_elpased: 2.773
#iterations: 390
currently lose_sum: 0.49660104513168335
time_elpased: 3.314
#iterations: 391
currently lose_sum: 0.5833026766777039
time_elpased: 2.705
#iterations: 392
currently lose_sum: 0.5537711381912231
time_elpased: 2.798
#iterations: 393
currently lose_sum: 0.6100355386734009
time_elpased: 3.377
#iterations: 394
currently lose_sum: 0.6535197496414185
time_elpased: 2.699
#iterations: 395
currently lose_sum: 0.7107594609260559
time_elpased: 2.973
#iterations: 396
currently lose_sum: 0.5846338272094727
time_elpased: 2.972
#iterations: 397
currently lose_sum: 0.6754480600357056
time_elpased: 2.758
#iterations: 398
currently lose_sum: 0.5109783411026001
time_elpased: 3.025
#iterations: 399
currently lose_sum: 0.6838353872299194
time_elpased: 2.757
start validation test
0.630357142857
0.624579124579
0.660142348754
0.641868512111
0.630250385847
38.211
#iterations: 400
currently lose_sum: 0.5897035002708435
time_elpased: 2.76
#iterations: 401
currently lose_sum: 0.6466915011405945
time_elpased: 2.708
#iterations: 402
currently lose_sum: 0.6558859944343567
time_elpased: 3.107
#iterations: 403
currently lose_sum: 0.601228654384613
time_elpased: 3.213
#iterations: 404
currently lose_sum: 0.5354893207550049
time_elpased: 2.66
#iterations: 405
currently lose_sum: 0.6015371680259705
time_elpased: 3.004
#iterations: 406
currently lose_sum: 0.6340501308441162
time_elpased: 2.81
#iterations: 407
currently lose_sum: 0.5384253263473511
time_elpased: 2.729
#iterations: 408
currently lose_sum: 0.5585227608680725
time_elpased: 2.759
#iterations: 409
currently lose_sum: 0.5985989570617676
time_elpased: 2.679
#iterations: 410
currently lose_sum: 0.670931339263916
time_elpased: 2.737
#iterations: 411
currently lose_sum: 0.5737888216972351
time_elpased: 2.739
#iterations: 412
currently lose_sum: 0.6258338093757629
time_elpased: 2.857
#iterations: 413
currently lose_sum: 0.5389569997787476
time_elpased: 2.806
#iterations: 414
currently lose_sum: 0.5909326672554016
time_elpased: 2.701
#iterations: 415
currently lose_sum: 0.6128033399581909
time_elpased: 2.699
#iterations: 416
currently lose_sum: 0.662204384803772
time_elpased: 2.755
#iterations: 417
currently lose_sum: 0.5709015727043152
time_elpased: 2.728
#iterations: 418
currently lose_sum: 0.6329134702682495
time_elpased: 3.009
#iterations: 419
currently lose_sum: 0.5513502955436707
time_elpased: 2.794
start validation test
0.629464285714
0.621487603306
0.669039145907
0.644387317909
0.629322440337
38.267
#iterations: 420
currently lose_sum: 0.5175457000732422
time_elpased: 2.704
#iterations: 421
currently lose_sum: 0.6827951669692993
time_elpased: 2.636
#iterations: 422
currently lose_sum: 0.6256511807441711
time_elpased: 2.831
#iterations: 423
currently lose_sum: 0.5969938039779663
time_elpased: 2.767
#iterations: 424
currently lose_sum: 0.5437451601028442
time_elpased: 2.709
#iterations: 425
currently lose_sum: 0.5905789136886597
time_elpased: 3.176
#iterations: 426
currently lose_sum: 0.5818991661071777
time_elpased: 2.776
#iterations: 427
currently lose_sum: 0.654796302318573
time_elpased: 2.806
#iterations: 428
currently lose_sum: 0.6941208243370056
time_elpased: 2.804
#iterations: 429
currently lose_sum: 0.671504020690918
time_elpased: 2.84
#iterations: 430
currently lose_sum: 0.545016884803772
time_elpased: 2.76
#iterations: 431
currently lose_sum: 0.5801748037338257
time_elpased: 2.818
#iterations: 432
currently lose_sum: 0.6394199132919312
time_elpased: 3.115
#iterations: 433
currently lose_sum: 0.5010498762130737
time_elpased: 2.779
#iterations: 434
currently lose_sum: 0.6755045056343079
time_elpased: 3.098
#iterations: 435
currently lose_sum: 0.6771668195724487
time_elpased: 3.041
#iterations: 436
currently lose_sum: 0.5953274965286255
time_elpased: 2.826
#iterations: 437
currently lose_sum: 0.6143423318862915
time_elpased: 3.535
#iterations: 438
currently lose_sum: 0.676234245300293
time_elpased: 2.8
#iterations: 439
currently lose_sum: 0.597821056842804
time_elpased: 2.788
start validation test
0.629910714286
0.618855761483
0.683274021352
0.649471458774
0.629719447952
38.294
#iterations: 440
currently lose_sum: 0.7248040437698364
time_elpased: 2.752
#iterations: 441
currently lose_sum: 0.5833578109741211
time_elpased: 2.784
#iterations: 442
currently lose_sum: 0.529123067855835
time_elpased: 2.799
#iterations: 443
currently lose_sum: 0.5865871906280518
time_elpased: 2.742
#iterations: 444
currently lose_sum: 0.4946625828742981
time_elpased: 2.903
#iterations: 445
currently lose_sum: 0.4965798258781433
time_elpased: 2.821
#iterations: 446
currently lose_sum: 0.5935638546943665
time_elpased: 3.071
#iterations: 447
currently lose_sum: 0.5951530337333679
time_elpased: 2.694
#iterations: 448
currently lose_sum: 0.5763114094734192
time_elpased: 2.779
#iterations: 449
currently lose_sum: 0.6694656610488892
time_elpased: 2.744
#iterations: 450
currently lose_sum: 0.5755683779716492
time_elpased: 2.777
#iterations: 451
currently lose_sum: 0.5655784606933594
time_elpased: 2.757
#iterations: 452
currently lose_sum: 0.5327948331832886
time_elpased: 2.815
#iterations: 453
currently lose_sum: 0.5149039030075073
time_elpased: 3.268
#iterations: 454
currently lose_sum: 0.556219756603241
time_elpased: 2.848
#iterations: 455
currently lose_sum: 0.6216413974761963
time_elpased: 2.897
#iterations: 456
currently lose_sum: 0.6272687911987305
time_elpased: 2.886
#iterations: 457
currently lose_sum: 0.5121949911117554
time_elpased: 2.822
#iterations: 458
currently lose_sum: 0.7439391613006592
time_elpased: 2.802
#iterations: 459
currently lose_sum: 0.5765283703804016
time_elpased: 2.892
start validation test
0.6375
0.640287769784
0.633451957295
0.636851520572
0.637514509114
38.249
#iterations: 460
currently lose_sum: 0.5675532221794128
time_elpased: 2.783
#iterations: 461
currently lose_sum: 0.49254757165908813
time_elpased: 3.148
#iterations: 462
currently lose_sum: 0.6295844316482544
time_elpased: 2.823
#iterations: 463
currently lose_sum: 0.7004119157791138
time_elpased: 2.833
#iterations: 464
currently lose_sum: 0.5041969418525696
time_elpased: 2.84
#iterations: 465
currently lose_sum: 0.6236235499382019
time_elpased: 2.796
#iterations: 466
currently lose_sum: 0.6016265153884888
time_elpased: 2.876
#iterations: 467
currently lose_sum: 0.48147258162498474
time_elpased: 3.386
#iterations: 468
currently lose_sum: 0.614698588848114
time_elpased: 2.729
#iterations: 469
currently lose_sum: 0.6237635612487793
time_elpased: 3.086
#iterations: 470
currently lose_sum: 0.647596538066864
time_elpased: 2.801
#iterations: 471
currently lose_sum: 0.5105187296867371
time_elpased: 2.757
#iterations: 472
currently lose_sum: 0.6181795597076416
time_elpased: 2.823
#iterations: 473
currently lose_sum: 0.6081277132034302
time_elpased: 2.805
#iterations: 474
currently lose_sum: 0.5972537398338318
time_elpased: 2.77
#iterations: 475
currently lose_sum: 0.504910945892334
time_elpased: 3.08
#iterations: 476
currently lose_sum: 0.5330041646957397
time_elpased: 2.751
#iterations: 477
currently lose_sum: 0.6611496210098267
time_elpased: 2.739
#iterations: 478
currently lose_sum: 0.5951483845710754
time_elpased: 2.936
#iterations: 479
currently lose_sum: 0.5615321397781372
time_elpased: 2.856
start validation test
0.628571428571
0.62146422629
0.664590747331
0.642304385211
0.62844232707
38.596
#iterations: 480
currently lose_sum: 0.6061059832572937
time_elpased: 2.998
#iterations: 481
currently lose_sum: 0.5703417062759399
time_elpased: 2.766
#iterations: 482
currently lose_sum: 0.6026344299316406
time_elpased: 2.831
#iterations: 483
currently lose_sum: 0.658288300037384
time_elpased: 2.893
#iterations: 484
currently lose_sum: 0.5645672678947449
time_elpased: 2.951
#iterations: 485
currently lose_sum: 0.6570309996604919
time_elpased: 2.782
#iterations: 486
currently lose_sum: 0.5880194306373596
time_elpased: 2.811
#iterations: 487
currently lose_sum: 0.5330712199211121
time_elpased: 2.901
#iterations: 488
currently lose_sum: 0.5807210206985474
time_elpased: 2.751
#iterations: 489
currently lose_sum: 0.48825836181640625
time_elpased: 2.774
#iterations: 490
currently lose_sum: 0.6121591329574585
time_elpased: 2.728
#iterations: 491
currently lose_sum: 0.6010169386863708
time_elpased: 2.787
#iterations: 492
currently lose_sum: 0.6894136667251587
time_elpased: 2.825
#iterations: 493
currently lose_sum: 0.6071432828903198
time_elpased: 2.785
#iterations: 494
currently lose_sum: 0.6110333204269409
time_elpased: 2.801
#iterations: 495
currently lose_sum: 0.5838769674301147
time_elpased: 2.818
#iterations: 496
currently lose_sum: 0.5969849228858948
time_elpased: 2.992
#iterations: 497
currently lose_sum: 0.5619514584541321
time_elpased: 2.981
#iterations: 498
currently lose_sum: 0.6692453622817993
time_elpased: 2.973
#iterations: 499
currently lose_sum: 0.5593158006668091
time_elpased: 2.81
start validation test
0.632589285714
0.64
0.612099644128
0.62573897226
0.63266272529
38.739
#iterations: 500
currently lose_sum: 0.6252622604370117
time_elpased: 2.899
#iterations: 501
currently lose_sum: 0.63746178150177
time_elpased: 2.745
#iterations: 502
currently lose_sum: 0.5803257822990417
time_elpased: 2.945
#iterations: 503
currently lose_sum: 0.5364760160446167
time_elpased: 2.857
#iterations: 504
currently lose_sum: 0.6212030649185181
time_elpased: 2.783
#iterations: 505
currently lose_sum: 0.5598292946815491
time_elpased: 2.812
#iterations: 506
currently lose_sum: 0.47929516434669495
time_elpased: 2.983
#iterations: 507
currently lose_sum: 0.5614936947822571
time_elpased: 2.802
#iterations: 508
currently lose_sum: 0.634642481803894
time_elpased: 2.784
#iterations: 509
currently lose_sum: 0.5971593856811523
time_elpased: 2.8
#iterations: 510
currently lose_sum: 0.544877290725708
time_elpased: 2.816
#iterations: 511
currently lose_sum: 0.5046159029006958
time_elpased: 2.859
#iterations: 512
currently lose_sum: 0.563540518283844
time_elpased: 2.949
#iterations: 513
currently lose_sum: 0.6917942762374878
time_elpased: 2.962
#iterations: 514
currently lose_sum: 0.5371143221855164
time_elpased: 2.932
#iterations: 515
currently lose_sum: 0.58831387758255
time_elpased: 3.192
#iterations: 516
currently lose_sum: 0.5687060356140137
time_elpased: 3.064
#iterations: 517
currently lose_sum: 0.5596483945846558
time_elpased: 2.988
#iterations: 518
currently lose_sum: 0.569378674030304
time_elpased: 2.819
#iterations: 519
currently lose_sum: 0.6680428981781006
time_elpased: 2.65
start validation test
0.629910714286
0.617342879873
0.690391459075
0.651826963461
0.629693937423
38.628
#iterations: 520
currently lose_sum: 0.5938922762870789
time_elpased: 3.012
#iterations: 521
currently lose_sum: 0.5441771745681763
time_elpased: 2.728
#iterations: 522
currently lose_sum: 0.44319066405296326
time_elpased: 2.606
#iterations: 523
currently lose_sum: 0.5142733454704285
time_elpased: 2.691
#iterations: 524
currently lose_sum: 0.4741952419281006
time_elpased: 2.735
#iterations: 525
currently lose_sum: 0.6133405566215515
time_elpased: 2.639
#iterations: 526
currently lose_sum: 0.5553813576698303
time_elpased: 2.68
#iterations: 527
currently lose_sum: 0.5805778503417969
time_elpased: 2.673
#iterations: 528
currently lose_sum: 0.6623069047927856
time_elpased: 2.69
#iterations: 529
currently lose_sum: 0.5085816383361816
time_elpased: 2.552
#iterations: 530
currently lose_sum: 0.5592417120933533
time_elpased: 3.135
#iterations: 531
currently lose_sum: 0.47957390546798706
time_elpased: 2.597
#iterations: 532
currently lose_sum: 0.5587317943572998
time_elpased: 2.623
#iterations: 533
currently lose_sum: 0.6153405904769897
time_elpased: 2.654
#iterations: 534
currently lose_sum: 0.5838786959648132
time_elpased: 2.563
#iterations: 535
currently lose_sum: 0.574762225151062
time_elpased: 2.593
#iterations: 536
currently lose_sum: 0.5870641469955444
time_elpased: 2.635
#iterations: 537
currently lose_sum: 0.595863938331604
time_elpased: 2.608
#iterations: 538
currently lose_sum: 0.5403696894645691
time_elpased: 2.798
#iterations: 539
currently lose_sum: 0.6004807949066162
time_elpased: 2.614
start validation test
0.632142857143
0.637362637363
0.619217081851
0.628158844765
0.632189186087
38.724
#iterations: 540
currently lose_sum: 0.5473510026931763
time_elpased: 2.559
#iterations: 541
currently lose_sum: 0.6491981744766235
time_elpased: 2.859
#iterations: 542
currently lose_sum: 0.4914019703865051
time_elpased: 2.667
#iterations: 543
currently lose_sum: 0.5191882848739624
time_elpased: 2.614
#iterations: 544
currently lose_sum: 0.5986610651016235
time_elpased: 2.625
#iterations: 545
currently lose_sum: 0.7145224809646606
time_elpased: 2.646
#iterations: 546
currently lose_sum: 0.5664995908737183
time_elpased: 2.856
#iterations: 547
currently lose_sum: 0.5089260339736938
time_elpased: 2.967
#iterations: 548
currently lose_sum: 0.524466335773468
time_elpased: 2.6
#iterations: 549
currently lose_sum: 0.559013843536377
time_elpased: 2.591
#iterations: 550
currently lose_sum: 0.5642349720001221
time_elpased: 2.61
#iterations: 551
currently lose_sum: 0.6520034670829773
time_elpased: 2.579
#iterations: 552
currently lose_sum: 0.5367249250411987
time_elpased: 2.612
#iterations: 553
currently lose_sum: 0.6577142477035522
time_elpased: 2.594
#iterations: 554
currently lose_sum: 0.5314211845397949
time_elpased: 2.587
#iterations: 555
currently lose_sum: 0.6315024495124817
time_elpased: 2.756
#iterations: 556
currently lose_sum: 0.6451679468154907
time_elpased: 2.607
#iterations: 557
currently lose_sum: 0.6448313593864441
time_elpased: 2.58
#iterations: 558
currently lose_sum: 0.5271345376968384
time_elpased: 2.727
#iterations: 559
currently lose_sum: 0.6303366422653198
time_elpased: 2.624
start validation test
0.633482142857
0.639889196676
0.616548042705
0.628001812415
0.633542838557
38.885
#iterations: 560
currently lose_sum: 0.5997921824455261
time_elpased: 2.6
#iterations: 561
currently lose_sum: 0.5793617963790894
time_elpased: 2.631
#iterations: 562
currently lose_sum: 0.6132491827011108
time_elpased: 2.485
#iterations: 563
currently lose_sum: 0.5737956762313843
time_elpased: 2.604
#iterations: 564
currently lose_sum: 0.6248577237129211
time_elpased: 2.629
#iterations: 565
currently lose_sum: 0.5549017190933228
time_elpased: 2.614
#iterations: 566
currently lose_sum: 0.5053700804710388
time_elpased: 2.583
#iterations: 567
currently lose_sum: 0.6994253396987915
time_elpased: 2.698
#iterations: 568
currently lose_sum: 0.5072243809700012
time_elpased: 2.614
#iterations: 569
currently lose_sum: 0.6080213189125061
time_elpased: 2.713
#iterations: 570
currently lose_sum: 0.4828556180000305
time_elpased: 2.918
#iterations: 571
currently lose_sum: 0.5193769335746765
time_elpased: 2.749
#iterations: 572
currently lose_sum: 0.5889126658439636
time_elpased: 2.663
#iterations: 573
currently lose_sum: 0.5337303876876831
time_elpased: 2.583
#iterations: 574
currently lose_sum: 0.6003717184066772
time_elpased: 2.621
#iterations: 575
currently lose_sum: 0.5959404110908508
time_elpased: 2.917
#iterations: 576
currently lose_sum: 0.6503089666366577
time_elpased: 2.599
#iterations: 577
currently lose_sum: 0.6661229133605957
time_elpased: 2.918
#iterations: 578
currently lose_sum: 0.5343325138092041
time_elpased: 3.248
#iterations: 579
currently lose_sum: 0.5842187404632568
time_elpased: 2.614
start validation test
0.627232142857
0.620116375727
0.663701067616
0.641168886979
0.627101429865
38.586
#iterations: 580
currently lose_sum: 0.6773321032524109
time_elpased: 2.628
#iterations: 581
currently lose_sum: 0.6054254770278931
time_elpased: 2.593
#iterations: 582
currently lose_sum: 0.6669472455978394
time_elpased: 2.852
#iterations: 583
currently lose_sum: 0.6405002474784851
time_elpased: 2.612
#iterations: 584
currently lose_sum: 0.6935490369796753
time_elpased: 2.645
#iterations: 585
currently lose_sum: 0.5921249389648438
time_elpased: 2.607
#iterations: 586
currently lose_sum: 0.5179100632667542
time_elpased: 2.606
#iterations: 587
currently lose_sum: 0.6166820526123047
time_elpased: 2.587
#iterations: 588
currently lose_sum: 0.5465941429138184
time_elpased: 2.638
#iterations: 589
currently lose_sum: 0.6574923992156982
time_elpased: 2.821
#iterations: 590
currently lose_sum: 0.6598700284957886
time_elpased: 3.114
#iterations: 591
currently lose_sum: 0.6266210079193115
time_elpased: 2.728
#iterations: 592
currently lose_sum: 0.6191819906234741
time_elpased: 2.561
#iterations: 593
currently lose_sum: 0.6073797941207886
time_elpased: 2.637
#iterations: 594
currently lose_sum: 0.5376030802726746
time_elpased: 2.531
#iterations: 595
currently lose_sum: 0.5597172975540161
time_elpased: 2.812
#iterations: 596
currently lose_sum: 0.6819233298301697
time_elpased: 2.657
#iterations: 597
currently lose_sum: 0.628267765045166
time_elpased: 2.653
#iterations: 598
currently lose_sum: 0.6142951846122742
time_elpased: 2.708
#iterations: 599
currently lose_sum: 0.6710394620895386
time_elpased: 2.612
start validation test
0.630357142857
0.624161073826
0.661921708185
0.642487046632
0.630244008214
38.635
acc: 0.635
pre: 0.652
rec: 0.584
F1: 0.616
auc: 0.635
