start to construct computing graph
graph construct over
3372
epochs start
#iterations: 0
currently lose_sum: 0.672614336013794
time_elpased: 4.266
#iterations: 1
currently lose_sum: 0.7229669690132141
time_elpased: 4.208
#iterations: 2
currently lose_sum: 0.7599717378616333
time_elpased: 3.751
#iterations: 3
currently lose_sum: 0.6563806533813477
time_elpased: 3.704
#iterations: 4
currently lose_sum: 0.6608186364173889
time_elpased: 4.024
#iterations: 5
currently lose_sum: 0.6221132278442383
time_elpased: 3.998
#iterations: 6
currently lose_sum: 0.6598877906799316
time_elpased: 3.997
#iterations: 7
currently lose_sum: 0.6559123396873474
time_elpased: 3.924
#iterations: 8
currently lose_sum: 0.6482178568840027
time_elpased: 3.951
#iterations: 9
currently lose_sum: 0.7308033108711243
time_elpased: 3.988
#iterations: 10
currently lose_sum: 0.5895646214485168
time_elpased: 4.01
#iterations: 11
currently lose_sum: 0.5448193550109863
time_elpased: 3.993
#iterations: 12
currently lose_sum: 0.6026395559310913
time_elpased: 3.92
#iterations: 13
currently lose_sum: 0.7229955792427063
time_elpased: 3.888
#iterations: 14
currently lose_sum: 0.5453864932060242
time_elpased: 3.899
#iterations: 15
currently lose_sum: 0.5889258980751038
time_elpased: 3.952
#iterations: 16
currently lose_sum: 0.6227501630783081
time_elpased: 3.947
#iterations: 17
currently lose_sum: 0.5598641633987427
time_elpased: 3.874
#iterations: 18
currently lose_sum: 0.6276931166648865
time_elpased: 3.846
#iterations: 19
currently lose_sum: 0.6638739109039307
time_elpased: 3.831
start validation test
0.621428571429
0.627414903404
0.606222222222
0.616636528029
0.621496761335
35.593
#iterations: 20
currently lose_sum: 0.6561529636383057
time_elpased: 2.83
#iterations: 21
currently lose_sum: 0.6592585444450378
time_elpased: 2.842
#iterations: 22
currently lose_sum: 0.7135605812072754
time_elpased: 2.808
#iterations: 23
currently lose_sum: 0.6205908060073853
time_elpased: 2.794
#iterations: 24
currently lose_sum: 0.56406569480896
time_elpased: 2.792
#iterations: 25
currently lose_sum: 0.6335048675537109
time_elpased: 2.881
#iterations: 26
currently lose_sum: 0.6558354496955872
time_elpased: 2.947
#iterations: 27
currently lose_sum: 0.5754798054695129
time_elpased: 2.925
#iterations: 28
currently lose_sum: 0.5795688629150391
time_elpased: 2.918
#iterations: 29
currently lose_sum: 0.6881545186042786
time_elpased: 2.958
#iterations: 30
currently lose_sum: 0.5800395011901855
time_elpased: 2.943
#iterations: 31
currently lose_sum: 0.6442487835884094
time_elpased: 2.979
#iterations: 32
currently lose_sum: 0.5697193145751953
time_elpased: 2.883
#iterations: 33
currently lose_sum: 0.6801638603210449
time_elpased: 2.91
#iterations: 34
currently lose_sum: 0.5709142088890076
time_elpased: 2.905
#iterations: 35
currently lose_sum: 0.5592532157897949
time_elpased: 2.913
#iterations: 36
currently lose_sum: 0.56951904296875
time_elpased: 2.93
#iterations: 37
currently lose_sum: 0.6196751594543457
time_elpased: 2.888
#iterations: 38
currently lose_sum: 0.5817674398422241
time_elpased: 2.914
#iterations: 39
currently lose_sum: 0.5816792249679565
time_elpased: 2.922
start validation test
0.617410714286
0.63453815261
0.561777777778
0.595945308817
0.617660189337
35.519
#iterations: 40
currently lose_sum: 0.6328251957893372
time_elpased: 2.95
#iterations: 41
currently lose_sum: 0.6295729875564575
time_elpased: 2.88
#iterations: 42
currently lose_sum: 0.5983220934867859
time_elpased: 2.889
#iterations: 43
currently lose_sum: 0.5851276516914368
time_elpased: 2.962
#iterations: 44
currently lose_sum: 0.5480073690414429
time_elpased: 2.922
#iterations: 45
currently lose_sum: 0.6191777586936951
time_elpased: 2.918
#iterations: 46
currently lose_sum: 0.6438124775886536
time_elpased: 2.919
#iterations: 47
currently lose_sum: 0.6246422529220581
time_elpased: 2.934
#iterations: 48
currently lose_sum: 0.6045253872871399
time_elpased: 2.91
#iterations: 49
currently lose_sum: 0.6811782121658325
time_elpased: 2.969
#iterations: 50
currently lose_sum: 0.5580965280532837
time_elpased: 2.948
#iterations: 51
currently lose_sum: 0.6675320863723755
time_elpased: 2.962
#iterations: 52
currently lose_sum: 0.5328648686408997
time_elpased: 3.024
#iterations: 53
currently lose_sum: 0.6412547826766968
time_elpased: 2.919
#iterations: 54
currently lose_sum: 0.5764482617378235
time_elpased: 2.957
#iterations: 55
currently lose_sum: 0.5630882382392883
time_elpased: 2.941
#iterations: 56
currently lose_sum: 0.619804322719574
time_elpased: 3.08
#iterations: 57
currently lose_sum: 0.6422256231307983
time_elpased: 2.967
#iterations: 58
currently lose_sum: 0.5289363265037537
time_elpased: 2.966
#iterations: 59
currently lose_sum: 0.65473473072052
time_elpased: 2.906
start validation test
0.635267857143
0.622416534181
0.696
0.657154846832
0.634995515695
35.773
#iterations: 60
currently lose_sum: 0.701396644115448
time_elpased: 2.939
#iterations: 61
currently lose_sum: 0.6208861470222473
time_elpased: 2.959
#iterations: 62
currently lose_sum: 0.635979413986206
time_elpased: 2.952
#iterations: 63
currently lose_sum: 0.6074552536010742
time_elpased: 2.972
#iterations: 64
currently lose_sum: 0.519869327545166
time_elpased: 2.921
#iterations: 65
currently lose_sum: 0.43151503801345825
time_elpased: 2.927
#iterations: 66
currently lose_sum: 0.6434467434883118
time_elpased: 2.917
#iterations: 67
currently lose_sum: 0.6384992599487305
time_elpased: 2.942
#iterations: 68
currently lose_sum: 0.6296345591545105
time_elpased: 2.956
#iterations: 69
currently lose_sum: 0.5819530487060547
time_elpased: 2.927
#iterations: 70
currently lose_sum: 0.6695737242698669
time_elpased: 2.893
#iterations: 71
currently lose_sum: 0.6185345649719238
time_elpased: 2.916
#iterations: 72
currently lose_sum: 0.6453020572662354
time_elpased: 2.903
#iterations: 73
currently lose_sum: 0.6661921739578247
time_elpased: 2.932
#iterations: 74
currently lose_sum: 0.630928635597229
time_elpased: 2.908
#iterations: 75
currently lose_sum: 0.5777657628059387
time_elpased: 2.932
#iterations: 76
currently lose_sum: 0.6225693821907043
time_elpased: 2.905
#iterations: 77
currently lose_sum: 0.5100916624069214
time_elpased: 2.944
#iterations: 78
currently lose_sum: 0.6531081199645996
time_elpased: 3.092
#iterations: 79
currently lose_sum: 0.5671374201774597
time_elpased: 2.92
start validation test
0.623660714286
0.610675039246
0.691555555556
0.648603584827
0.623356253114
35.725
#iterations: 80
currently lose_sum: 0.5910435914993286
time_elpased: 2.995
#iterations: 81
currently lose_sum: 0.646471381187439
time_elpased: 2.982
#iterations: 82
currently lose_sum: 0.6534520387649536
time_elpased: 2.955
#iterations: 83
currently lose_sum: 0.5960030555725098
time_elpased: 2.97
#iterations: 84
currently lose_sum: 0.5998133420944214
time_elpased: 2.959
#iterations: 85
currently lose_sum: 0.6095324754714966
time_elpased: 2.922
#iterations: 86
currently lose_sum: 0.5082696080207825
time_elpased: 2.92
#iterations: 87
currently lose_sum: 0.4896017909049988
time_elpased: 2.923
#iterations: 88
currently lose_sum: 0.5328190922737122
time_elpased: 2.923
#iterations: 89
currently lose_sum: 0.6188725233078003
time_elpased: 2.896
#iterations: 90
currently lose_sum: 0.596365213394165
time_elpased: 2.894
#iterations: 91
currently lose_sum: 0.5822701454162598
time_elpased: 2.925
#iterations: 92
currently lose_sum: 0.781875729560852
time_elpased: 2.943
#iterations: 93
currently lose_sum: 0.5814807415008545
time_elpased: 2.921
#iterations: 94
currently lose_sum: 0.5218523144721985
time_elpased: 2.913
#iterations: 95
currently lose_sum: 0.6305630803108215
time_elpased: 2.909
#iterations: 96
currently lose_sum: 0.6214584112167358
time_elpased: 2.96
#iterations: 97
currently lose_sum: 0.6475123763084412
time_elpased: 2.957
#iterations: 98
currently lose_sum: 0.6116534471511841
time_elpased: 2.908
#iterations: 99
currently lose_sum: 0.6168414950370789
time_elpased: 2.926
start validation test
0.625
0.639296187683
0.581333333333
0.608938547486
0.625195814649
36.219
#iterations: 100
currently lose_sum: 0.6086217164993286
time_elpased: 2.885
#iterations: 101
currently lose_sum: 0.5520521402359009
time_elpased: 2.947
#iterations: 102
currently lose_sum: 0.6250637769699097
time_elpased: 2.912
#iterations: 103
currently lose_sum: 0.5664807558059692
time_elpased: 2.913
#iterations: 104
currently lose_sum: 0.6076728105545044
time_elpased: 3.063
#iterations: 105
currently lose_sum: 0.5609990954399109
time_elpased: 2.921
#iterations: 106
currently lose_sum: 0.5707780122756958
time_elpased: 2.96
#iterations: 107
currently lose_sum: 0.5910788774490356
time_elpased: 2.935
#iterations: 108
currently lose_sum: 0.5796923637390137
time_elpased: 3.021
#iterations: 109
currently lose_sum: 0.5770996809005737
time_elpased: 2.987
#iterations: 110
currently lose_sum: 0.5999547839164734
time_elpased: 2.997
#iterations: 111
currently lose_sum: 0.6489266753196716
time_elpased: 2.915
#iterations: 112
currently lose_sum: 0.6203510165214539
time_elpased: 2.935
#iterations: 113
currently lose_sum: 0.6556728482246399
time_elpased: 2.919
#iterations: 114
currently lose_sum: 0.6271068453788757
time_elpased: 2.852
#iterations: 115
currently lose_sum: 0.5551163554191589
time_elpased: 2.91
#iterations: 116
currently lose_sum: 0.6189498901367188
time_elpased: 2.908
#iterations: 117
currently lose_sum: 0.6271547079086304
time_elpased: 2.952
#iterations: 118
currently lose_sum: 0.5771328210830688
time_elpased: 2.906
#iterations: 119
currently lose_sum: 0.5199607610702515
time_elpased: 2.947
start validation test
0.629910714286
0.623333333333
0.664888888889
0.643440860215
0.629753861485
36.149
#iterations: 120
currently lose_sum: 0.5131942629814148
time_elpased: 2.859
#iterations: 121
currently lose_sum: 0.5359290838241577
time_elpased: 2.913
#iterations: 122
currently lose_sum: 0.6037054657936096
time_elpased: 2.903
#iterations: 123
currently lose_sum: 0.5292472839355469
time_elpased: 2.907
#iterations: 124
currently lose_sum: 0.6549737453460693
time_elpased: 2.894
#iterations: 125
currently lose_sum: 0.6500770449638367
time_elpased: 2.925
#iterations: 126
currently lose_sum: 0.5691570043563843
time_elpased: 2.982
#iterations: 127
currently lose_sum: 0.6838683485984802
time_elpased: 2.927
#iterations: 128
currently lose_sum: 0.5592153668403625
time_elpased: 2.952
#iterations: 129
currently lose_sum: 0.5584735870361328
time_elpased: 2.928
#iterations: 130
currently lose_sum: 0.6102412939071655
time_elpased: 2.958
#iterations: 131
currently lose_sum: 0.498988538980484
time_elpased: 2.911
#iterations: 132
currently lose_sum: 0.58185875415802
time_elpased: 2.936
#iterations: 133
currently lose_sum: 0.5751322507858276
time_elpased: 2.967
#iterations: 134
currently lose_sum: 0.5674459338188171
time_elpased: 2.899
#iterations: 135
currently lose_sum: 0.551693320274353
time_elpased: 2.948
#iterations: 136
currently lose_sum: 0.5805570483207703
time_elpased: 2.936
#iterations: 137
currently lose_sum: 0.5491963624954224
time_elpased: 2.956
#iterations: 138
currently lose_sum: 0.5808648467063904
time_elpased: 2.926
#iterations: 139
currently lose_sum: 0.5504318475723267
time_elpased: 2.894
start validation test
0.634375
0.657407407407
0.568
0.609442060086
0.63467264574
35.933
#iterations: 140
currently lose_sum: 0.5585648417472839
time_elpased: 2.963
#iterations: 141
currently lose_sum: 0.6190674304962158
time_elpased: 2.901
#iterations: 142
currently lose_sum: 0.5076741576194763
time_elpased: 2.901
#iterations: 143
currently lose_sum: 0.6583870649337769
time_elpased: 2.941
#iterations: 144
currently lose_sum: 0.668502151966095
time_elpased: 2.96
#iterations: 145
currently lose_sum: 0.4381679594516754
time_elpased: 2.938
#iterations: 146
currently lose_sum: 0.5960351228713989
time_elpased: 3.051
#iterations: 147
currently lose_sum: 0.5935594439506531
time_elpased: 2.932
#iterations: 148
currently lose_sum: 0.6540673971176147
time_elpased: 2.945
#iterations: 149
currently lose_sum: 0.5280981063842773
time_elpased: 2.862
#iterations: 150
currently lose_sum: 0.5435028672218323
time_elpased: 2.924
#iterations: 151
currently lose_sum: 0.46831798553466797
time_elpased: 2.937
#iterations: 152
currently lose_sum: 0.4817606806755066
time_elpased: 3.067
#iterations: 153
currently lose_sum: 0.6054785847663879
time_elpased: 3.039
#iterations: 154
currently lose_sum: 0.5815536379814148
time_elpased: 2.902
#iterations: 155
currently lose_sum: 0.5390721559524536
time_elpased: 2.886
#iterations: 156
currently lose_sum: 0.6621304750442505
time_elpased: 2.962
#iterations: 157
currently lose_sum: 0.6290014982223511
time_elpased: 2.93
#iterations: 158
currently lose_sum: 0.631044864654541
time_elpased: 2.892
#iterations: 159
currently lose_sum: 0.6154025197029114
time_elpased: 2.92
start validation test
0.632589285714
0.621578099839
0.686222222222
0.652302492607
0.632348779273
36.269
#iterations: 160
currently lose_sum: 0.5269060134887695
time_elpased: 2.93
#iterations: 161
currently lose_sum: 0.7151480913162231
time_elpased: 2.92
#iterations: 162
currently lose_sum: 0.6332353353500366
time_elpased: 2.952
#iterations: 163
currently lose_sum: 0.6299811601638794
time_elpased: 2.913
#iterations: 164
currently lose_sum: 0.7110975980758667
time_elpased: 2.927
#iterations: 165
currently lose_sum: 0.4757632315158844
time_elpased: 2.917
#iterations: 166
currently lose_sum: 0.5177927017211914
time_elpased: 2.893
#iterations: 167
currently lose_sum: 0.5254615545272827
time_elpased: 3.032
#iterations: 168
currently lose_sum: 0.5270880460739136
time_elpased: 2.896
#iterations: 169
currently lose_sum: 0.7217352390289307
time_elpased: 2.9
#iterations: 170
currently lose_sum: 0.6418998837471008
time_elpased: 2.9
#iterations: 171
currently lose_sum: 0.6757757663726807
time_elpased: 2.951
#iterations: 172
currently lose_sum: 0.5195124745368958
time_elpased: 2.885
#iterations: 173
currently lose_sum: 0.6031360626220703
time_elpased: 2.941
#iterations: 174
currently lose_sum: 0.46484413743019104
time_elpased: 2.936
#iterations: 175
currently lose_sum: 0.516108512878418
time_elpased: 2.9
#iterations: 176
currently lose_sum: 0.6148409247398376
time_elpased: 2.912
#iterations: 177
currently lose_sum: 0.5554854273796082
time_elpased: 2.874
#iterations: 178
currently lose_sum: 0.5281457304954529
time_elpased: 2.871
#iterations: 179
currently lose_sum: 0.6020761728286743
time_elpased: 2.974
start validation test
0.626339285714
0.639805825243
0.585777777778
0.611600928074
0.626521175884
36.190
#iterations: 180
currently lose_sum: 0.640402615070343
time_elpased: 2.888
#iterations: 181
currently lose_sum: 0.5170506238937378
time_elpased: 2.899
#iterations: 182
currently lose_sum: 0.6231099367141724
time_elpased: 2.958
#iterations: 183
currently lose_sum: 0.42819976806640625
time_elpased: 2.9
#iterations: 184
currently lose_sum: 0.6347045302391052
time_elpased: 2.91
#iterations: 185
currently lose_sum: 0.5691483616828918
time_elpased: 2.936
#iterations: 186
currently lose_sum: 0.6486033201217651
time_elpased: 2.937
#iterations: 187
currently lose_sum: 0.5720243453979492
time_elpased: 2.936
#iterations: 188
currently lose_sum: 0.6098875999450684
time_elpased: 2.972
#iterations: 189
currently lose_sum: 0.6251233816146851
time_elpased: 2.931
#iterations: 190
currently lose_sum: 0.48055028915405273
time_elpased: 2.939
#iterations: 191
currently lose_sum: 0.45944732427597046
time_elpased: 2.939
#iterations: 192
currently lose_sum: 0.5952104330062866
time_elpased: 2.934
#iterations: 193
currently lose_sum: 0.5515643358230591
time_elpased: 2.943
#iterations: 194
currently lose_sum: 0.48291629552841187
time_elpased: 2.899
#iterations: 195
currently lose_sum: 0.6234593987464905
time_elpased: 2.932
#iterations: 196
currently lose_sum: 0.5617687106132507
time_elpased: 2.93
#iterations: 197
currently lose_sum: 0.486985981464386
time_elpased: 2.961
#iterations: 198
currently lose_sum: 0.6813596487045288
time_elpased: 2.929
#iterations: 199
currently lose_sum: 0.5830737948417664
time_elpased: 2.907
start validation test
0.632142857143
0.622060016221
0.681777777778
0.650551314673
0.631920279023
36.295
#iterations: 200
currently lose_sum: 0.5965478420257568
time_elpased: 2.952
#iterations: 201
currently lose_sum: 0.5420714616775513
time_elpased: 2.945
#iterations: 202
currently lose_sum: 0.5568532347679138
time_elpased: 2.921
#iterations: 203
currently lose_sum: 0.5109928250312805
time_elpased: 2.897
#iterations: 204
currently lose_sum: 0.4872971475124359
time_elpased: 3.002
#iterations: 205
currently lose_sum: 0.6082996129989624
time_elpased: 3.196
#iterations: 206
currently lose_sum: 0.6153690218925476
time_elpased: 3.053
#iterations: 207
currently lose_sum: 0.5740875601768494
time_elpased: 2.925
#iterations: 208
currently lose_sum: 0.5158709287643433
time_elpased: 2.976
#iterations: 209
currently lose_sum: 0.6434987783432007
time_elpased: 2.944
#iterations: 210
currently lose_sum: 0.6266387104988098
time_elpased: 2.926
#iterations: 211
currently lose_sum: 0.5253499150276184
time_elpased: 2.926
#iterations: 212
currently lose_sum: 0.5469604134559631
time_elpased: 2.903
#iterations: 213
currently lose_sum: 0.6247340440750122
time_elpased: 2.901
#iterations: 214
currently lose_sum: 0.6007550954818726
time_elpased: 2.957
#iterations: 215
currently lose_sum: 0.5109511017799377
time_elpased: 2.979
#iterations: 216
currently lose_sum: 0.5090736150741577
time_elpased: 2.892
#iterations: 217
currently lose_sum: 0.4923287332057953
time_elpased: 2.898
#iterations: 218
currently lose_sum: 0.5843375325202942
time_elpased: 2.971
#iterations: 219
currently lose_sum: 0.6432873606681824
time_elpased: 2.888
start validation test
0.629464285714
0.614429790535
0.704
0.656172328086
0.629130044843
36.624
#iterations: 220
currently lose_sum: 0.7150778770446777
time_elpased: 2.929
#iterations: 221
currently lose_sum: 0.5587509870529175
time_elpased: 2.9
#iterations: 222
currently lose_sum: 0.5628823041915894
time_elpased: 2.896
#iterations: 223
currently lose_sum: 0.6711565256118774
time_elpased: 2.942
#iterations: 224
currently lose_sum: 0.5967875719070435
time_elpased: 2.92
#iterations: 225
currently lose_sum: 0.5905383825302124
time_elpased: 2.93
#iterations: 226
currently lose_sum: 0.649400532245636
time_elpased: 2.961
#iterations: 227
currently lose_sum: 0.5122894048690796
time_elpased: 2.928
#iterations: 228
currently lose_sum: 0.6157809495925903
time_elpased: 2.978
#iterations: 229
currently lose_sum: 0.5774795413017273
time_elpased: 2.939
#iterations: 230
currently lose_sum: 0.5945504903793335
time_elpased: 2.99
#iterations: 231
currently lose_sum: 0.5370809435844421
time_elpased: 2.923
#iterations: 232
currently lose_sum: 0.5967371463775635
time_elpased: 2.904
#iterations: 233
currently lose_sum: 0.5371317863464355
time_elpased: 2.923
#iterations: 234
currently lose_sum: 0.6260668039321899
time_elpased: 2.953
#iterations: 235
currently lose_sum: 0.7086871862411499
time_elpased: 2.907
#iterations: 236
currently lose_sum: 0.5526899099349976
time_elpased: 2.916
#iterations: 237
currently lose_sum: 0.6061740517616272
time_elpased: 2.945
#iterations: 238
currently lose_sum: 0.5873852968215942
time_elpased: 2.911
#iterations: 239
currently lose_sum: 0.6702679395675659
time_elpased: 2.925
start validation test
0.625446428571
0.620777027027
0.653333333333
0.636639237765
0.625321375187
36.760
#iterations: 240
currently lose_sum: 0.5384360551834106
time_elpased: 2.887
#iterations: 241
currently lose_sum: 0.5771628618240356
time_elpased: 2.936
#iterations: 242
currently lose_sum: 0.6463242769241333
time_elpased: 2.908
#iterations: 243
currently lose_sum: 0.539742112159729
time_elpased: 2.939
#iterations: 244
currently lose_sum: 0.5583385229110718
time_elpased: 2.897
#iterations: 245
currently lose_sum: 0.6095699667930603
time_elpased: 2.913
#iterations: 246
currently lose_sum: 0.4903704524040222
time_elpased: 2.904
#iterations: 247
currently lose_sum: 0.7066481709480286
time_elpased: 2.934
#iterations: 248
currently lose_sum: 0.5979217290878296
time_elpased: 2.921
#iterations: 249
currently lose_sum: 0.5672414302825928
time_elpased: 2.96
#iterations: 250
currently lose_sum: 0.6401655673980713
time_elpased: 2.919
#iterations: 251
currently lose_sum: 0.6142096519470215
time_elpased: 2.964
#iterations: 252
currently lose_sum: 0.5445548295974731
time_elpased: 2.955
#iterations: 253
currently lose_sum: 0.5312663316726685
time_elpased: 2.949
#iterations: 254
currently lose_sum: 0.5060199499130249
time_elpased: 2.894
#iterations: 255
currently lose_sum: 0.577579140663147
time_elpased: 2.91
#iterations: 256
currently lose_sum: 0.5429023504257202
time_elpased: 2.968
#iterations: 257
currently lose_sum: 0.6210944056510925
time_elpased: 2.955
#iterations: 258
currently lose_sum: 0.5530574917793274
time_elpased: 3.005
#iterations: 259
currently lose_sum: 0.6065602898597717
time_elpased: 2.905
start validation test
0.633482142857
0.639449541284
0.619555555556
0.62934537246
0.633544593921
36.370
#iterations: 260
currently lose_sum: 0.5855860710144043
time_elpased: 2.981
#iterations: 261
currently lose_sum: 0.51716548204422
time_elpased: 2.94
#iterations: 262
currently lose_sum: 0.6263197064399719
time_elpased: 2.898
#iterations: 263
currently lose_sum: 0.5958793759346008
time_elpased: 3.075
#iterations: 264
currently lose_sum: 0.48621654510498047
time_elpased: 2.9
#iterations: 265
currently lose_sum: 0.525032639503479
time_elpased: 2.982
#iterations: 266
currently lose_sum: 0.5387505292892456
time_elpased: 2.974
#iterations: 267
currently lose_sum: 0.571577250957489
time_elpased: 2.969
#iterations: 268
currently lose_sum: 0.5427247881889343
time_elpased: 2.912
#iterations: 269
currently lose_sum: 0.6183355450630188
time_elpased: 2.916
#iterations: 270
currently lose_sum: 0.5526953339576721
time_elpased: 2.961
#iterations: 271
currently lose_sum: 0.606216311454773
time_elpased: 2.908
#iterations: 272
currently lose_sum: 0.5172296166419983
time_elpased: 2.925
#iterations: 273
currently lose_sum: 0.5666732788085938
time_elpased: 2.961
#iterations: 274
currently lose_sum: 0.6790680885314941
time_elpased: 2.903
#iterations: 275
currently lose_sum: 0.6618310809135437
time_elpased: 2.921
#iterations: 276
currently lose_sum: 0.6068089604377747
time_elpased: 2.883
#iterations: 277
currently lose_sum: 0.6208000779151917
time_elpased: 2.922
#iterations: 278
currently lose_sum: 0.5572193264961243
time_elpased: 2.904
#iterations: 279
currently lose_sum: 0.531754195690155
time_elpased: 2.95
start validation test
0.629017857143
0.626288659794
0.648
0.636959370904
0.628932735426
36.614
#iterations: 280
currently lose_sum: 0.6767410039901733
time_elpased: 2.874
#iterations: 281
currently lose_sum: 0.5476683378219604
time_elpased: 2.907
#iterations: 282
currently lose_sum: 0.5047329664230347
time_elpased: 2.928
#iterations: 283
currently lose_sum: 0.5886247754096985
time_elpased: 2.937
#iterations: 284
currently lose_sum: 0.5267953872680664
time_elpased: 2.947
#iterations: 285
currently lose_sum: 0.5732648968696594
time_elpased: 2.923
#iterations: 286
currently lose_sum: 0.5896443128585815
time_elpased: 2.977
#iterations: 287
currently lose_sum: 0.6800155639648438
time_elpased: 2.945
#iterations: 288
currently lose_sum: 0.6823602318763733
time_elpased: 2.945
#iterations: 289
currently lose_sum: 0.4927578866481781
time_elpased: 2.964
#iterations: 290
currently lose_sum: 0.6706841588020325
time_elpased: 3.005
#iterations: 291
currently lose_sum: 0.5253905057907104
time_elpased: 2.964
#iterations: 292
currently lose_sum: 0.4917775094509125
time_elpased: 2.94
#iterations: 293
currently lose_sum: 0.5627208948135376
time_elpased: 2.963
#iterations: 294
currently lose_sum: 0.7033811807632446
time_elpased: 2.885
#iterations: 295
currently lose_sum: 0.6467117071151733
time_elpased: 2.92
#iterations: 296
currently lose_sum: 0.6579415202140808
time_elpased: 2.984
#iterations: 297
currently lose_sum: 0.6172129511833191
time_elpased: 2.941
#iterations: 298
currently lose_sum: 0.5064969658851624
time_elpased: 2.919
#iterations: 299
currently lose_sum: 0.6280670166015625
time_elpased: 2.895
start validation test
0.628571428571
0.6355226642
0.610666666667
0.622846781505
0.628651718984
37.094
#iterations: 300
currently lose_sum: 0.6013199090957642
time_elpased: 2.893
#iterations: 301
currently lose_sum: 0.5891974568367004
time_elpased: 2.901
#iterations: 302
currently lose_sum: 0.6433147192001343
time_elpased: 2.892
#iterations: 303
currently lose_sum: 0.5443414449691772
time_elpased: 2.911
#iterations: 304
currently lose_sum: 0.5088008046150208
time_elpased: 2.944
#iterations: 305
currently lose_sum: 0.5088664293289185
time_elpased: 2.931
#iterations: 306
currently lose_sum: 0.46610838174819946
time_elpased: 2.913
#iterations: 307
currently lose_sum: 0.571973443031311
time_elpased: 2.973
#iterations: 308
currently lose_sum: 0.6299875378608704
time_elpased: 2.943
#iterations: 309
currently lose_sum: 0.5753254294395447
time_elpased: 2.94
#iterations: 310
currently lose_sum: 0.43464136123657227
time_elpased: 2.872
#iterations: 311
currently lose_sum: 0.5572313070297241
time_elpased: 2.935
#iterations: 312
currently lose_sum: 0.6084133386611938
time_elpased: 2.939
#iterations: 313
currently lose_sum: 0.6601401567459106
time_elpased: 2.89
#iterations: 314
currently lose_sum: 0.5591692924499512
time_elpased: 2.888
#iterations: 315
currently lose_sum: 0.5236020088195801
time_elpased: 2.921
#iterations: 316
currently lose_sum: 0.6340049505233765
time_elpased: 2.912
#iterations: 317
currently lose_sum: 0.7132205367088318
time_elpased: 2.942
#iterations: 318
currently lose_sum: 0.553416907787323
time_elpased: 2.936
#iterations: 319
currently lose_sum: 0.6246640086174011
time_elpased: 2.975
start validation test
0.637946428571
0.626205787781
0.692444444444
0.657661460532
0.63770204285
36.781
#iterations: 320
currently lose_sum: 0.6032739877700806
time_elpased: 2.958
#iterations: 321
currently lose_sum: 0.5394792556762695
time_elpased: 2.949
#iterations: 322
currently lose_sum: 0.5771650671958923
time_elpased: 2.873
#iterations: 323
currently lose_sum: 0.6195523142814636
time_elpased: 2.947
#iterations: 324
currently lose_sum: 0.5919912457466125
time_elpased: 2.932
#iterations: 325
currently lose_sum: 0.6442411541938782
time_elpased: 2.931
#iterations: 326
currently lose_sum: 0.5996139645576477
time_elpased: 2.927
#iterations: 327
currently lose_sum: 0.550399899482727
time_elpased: 3.041
#iterations: 328
currently lose_sum: 0.510600209236145
time_elpased: 2.978
#iterations: 329
currently lose_sum: 0.6368876695632935
time_elpased: 2.932
#iterations: 330
currently lose_sum: 0.4835345149040222
time_elpased: 2.934
#iterations: 331
currently lose_sum: 0.6055631637573242
time_elpased: 2.92
#iterations: 332
currently lose_sum: 0.6531733274459839
time_elpased: 2.901
#iterations: 333
currently lose_sum: 0.6078384518623352
time_elpased: 2.901
#iterations: 334
currently lose_sum: 0.637451708316803
time_elpased: 2.896
#iterations: 335
currently lose_sum: 0.5871642827987671
time_elpased: 2.961
#iterations: 336
currently lose_sum: 0.5762383341789246
time_elpased: 2.915
#iterations: 337
currently lose_sum: 0.4985229969024658
time_elpased: 2.896
#iterations: 338
currently lose_sum: 0.6387898921966553
time_elpased: 2.963
#iterations: 339
currently lose_sum: 0.6512050628662109
time_elpased: 2.952
start validation test
0.634821428571
0.620581304006
0.702222222222
0.658882402002
0.63451918286
36.862
#iterations: 340
currently lose_sum: 0.49822935461997986
time_elpased: 2.938
#iterations: 341
currently lose_sum: 0.65818190574646
time_elpased: 2.869
#iterations: 342
currently lose_sum: 0.5978423357009888
time_elpased: 2.94
#iterations: 343
currently lose_sum: 0.48954421281814575
time_elpased: 2.886
#iterations: 344
currently lose_sum: 0.48905104398727417
time_elpased: 2.92
#iterations: 345
currently lose_sum: 0.5681232810020447
time_elpased: 2.954
#iterations: 346
currently lose_sum: 0.619966983795166
time_elpased: 2.902
#iterations: 347
currently lose_sum: 0.5699574947357178
time_elpased: 2.932
#iterations: 348
currently lose_sum: 0.5150454044342041
time_elpased: 2.931
#iterations: 349
currently lose_sum: 0.5295983552932739
time_elpased: 2.883
#iterations: 350
currently lose_sum: 0.4733182489871979
time_elpased: 2.957
#iterations: 351
currently lose_sum: 0.5834827423095703
time_elpased: 2.979
#iterations: 352
currently lose_sum: 0.655517578125
time_elpased: 2.924
#iterations: 353
currently lose_sum: 0.5614465475082397
time_elpased: 2.96
#iterations: 354
currently lose_sum: 0.5548250079154968
time_elpased: 2.971
#iterations: 355
currently lose_sum: 0.5272350907325745
time_elpased: 2.957
#iterations: 356
currently lose_sum: 0.6575605869293213
time_elpased: 2.938
#iterations: 357
currently lose_sum: 0.5317218899726868
time_elpased: 2.871
#iterations: 358
currently lose_sum: 0.5033539533615112
time_elpased: 2.948
#iterations: 359
currently lose_sum: 0.6222649812698364
time_elpased: 2.971
start validation test
0.628125
0.630357142857
0.627555555556
0.628953229399
0.628127553563
36.778
#iterations: 360
currently lose_sum: 0.49498072266578674
time_elpased: 2.94
#iterations: 361
currently lose_sum: 0.48452362418174744
time_elpased: 3.047
#iterations: 362
currently lose_sum: 0.5730012655258179
time_elpased: 3.171
#iterations: 363
currently lose_sum: 0.5281797647476196
time_elpased: 3.163
#iterations: 364
currently lose_sum: 0.5129461288452148
time_elpased: 2.967
#iterations: 365
currently lose_sum: 0.616350531578064
time_elpased: 2.95
#iterations: 366
currently lose_sum: 0.5229936838150024
time_elpased: 2.938
#iterations: 367
currently lose_sum: 0.66414475440979
time_elpased: 2.977
#iterations: 368
currently lose_sum: 0.5554010272026062
time_elpased: 2.943
#iterations: 369
currently lose_sum: 0.621167778968811
time_elpased: 2.954
#iterations: 370
currently lose_sum: 0.5614044070243835
time_elpased: 2.953
#iterations: 371
currently lose_sum: 0.6094297170639038
time_elpased: 2.997
#iterations: 372
currently lose_sum: 0.6423053741455078
time_elpased: 2.927
#iterations: 373
currently lose_sum: 0.5815359354019165
time_elpased: 2.926
#iterations: 374
currently lose_sum: 0.6014041900634766
time_elpased: 2.913
#iterations: 375
currently lose_sum: 0.6343129277229309
time_elpased: 3.112
#iterations: 376
currently lose_sum: 0.6128648519515991
time_elpased: 2.946
#iterations: 377
currently lose_sum: 0.605451226234436
time_elpased: 2.89
#iterations: 378
currently lose_sum: 0.6389872431755066
time_elpased: 2.907
#iterations: 379
currently lose_sum: 0.6325727701187134
time_elpased: 2.947
start validation test
0.625892857143
0.629162916292
0.621333333333
0.625223613596
0.625913303438
36.977
#iterations: 380
currently lose_sum: 0.4544387757778168
time_elpased: 3.011
#iterations: 381
currently lose_sum: 0.5956518650054932
time_elpased: 2.925
#iterations: 382
currently lose_sum: 0.47610312700271606
time_elpased: 2.924
#iterations: 383
currently lose_sum: 0.5314107537269592
time_elpased: 2.896
#iterations: 384
currently lose_sum: 0.5229911804199219
time_elpased: 2.949
#iterations: 385
currently lose_sum: 0.5257963538169861
time_elpased: 2.953
#iterations: 386
currently lose_sum: 0.6140400171279907
time_elpased: 2.888
#iterations: 387
currently lose_sum: 0.5791802406311035
time_elpased: 2.916
#iterations: 388
currently lose_sum: 0.6103790402412415
time_elpased: 2.953
#iterations: 389
currently lose_sum: 0.6100479364395142
time_elpased: 2.921
#iterations: 390
currently lose_sum: 0.5615501403808594
time_elpased: 2.938
#iterations: 391
currently lose_sum: 0.4504275321960449
time_elpased: 2.919
#iterations: 392
currently lose_sum: 0.5577235817909241
time_elpased: 2.901
#iterations: 393
currently lose_sum: 0.5618858337402344
time_elpased: 2.971
#iterations: 394
currently lose_sum: 0.5725297331809998
time_elpased: 2.929
#iterations: 395
currently lose_sum: 0.6140097975730896
time_elpased: 2.93
#iterations: 396
currently lose_sum: 0.649482011795044
time_elpased: 2.937
#iterations: 397
currently lose_sum: 0.5969966053962708
time_elpased: 2.935
#iterations: 398
currently lose_sum: 0.5198580026626587
time_elpased: 2.963
#iterations: 399
currently lose_sum: 0.534002959728241
time_elpased: 2.932
start validation test
0.634375
0.638086642599
0.628444444444
0.633228840125
0.63440159442
37.070
#iterations: 400
currently lose_sum: 0.548130452632904
time_elpased: 2.938
#iterations: 401
currently lose_sum: 0.6099672317504883
time_elpased: 3.021
#iterations: 402
currently lose_sum: 0.580146849155426
time_elpased: 2.976
#iterations: 403
currently lose_sum: 0.5994091033935547
time_elpased: 3.091
#iterations: 404
currently lose_sum: 0.49303674697875977
time_elpased: 3.011
#iterations: 405
currently lose_sum: 0.592690646648407
time_elpased: 2.996
#iterations: 406
currently lose_sum: 0.5873732566833496
time_elpased: 3.065
#iterations: 407
currently lose_sum: 0.48165401816368103
time_elpased: 2.98
#iterations: 408
currently lose_sum: 0.6720658540725708
time_elpased: 3.022
#iterations: 409
currently lose_sum: 0.6143720746040344
time_elpased: 2.981
#iterations: 410
currently lose_sum: 0.6084653735160828
time_elpased: 2.943
#iterations: 411
currently lose_sum: 0.6340571045875549
time_elpased: 3.149
#iterations: 412
currently lose_sum: 0.4923727512359619
time_elpased: 2.969
#iterations: 413
currently lose_sum: 0.4875044822692871
time_elpased: 2.947
#iterations: 414
currently lose_sum: 0.6540812253952026
time_elpased: 2.98
#iterations: 415
currently lose_sum: 0.5252469778060913
time_elpased: 2.981
#iterations: 416
currently lose_sum: 0.5584478378295898
time_elpased: 3.066
#iterations: 417
currently lose_sum: 0.5150997042655945
time_elpased: 3.002
#iterations: 418
currently lose_sum: 0.652570903301239
time_elpased: 3.051
#iterations: 419
currently lose_sum: 0.6225546002388
time_elpased: 3.034
start validation test
0.631696428571
0.621359223301
0.682666666667
0.650571791614
0.631467862481
37.180
#iterations: 420
currently lose_sum: 0.5546700954437256
time_elpased: 3.032
#iterations: 421
currently lose_sum: 0.5174959301948547
time_elpased: 2.941
#iterations: 422
currently lose_sum: 0.6279605627059937
time_elpased: 3.005
#iterations: 423
currently lose_sum: 0.54620760679245
time_elpased: 3.058
#iterations: 424
currently lose_sum: 0.577724277973175
time_elpased: 3.018
#iterations: 425
currently lose_sum: 0.5293647050857544
time_elpased: 2.96
#iterations: 426
currently lose_sum: 0.4896937906742096
time_elpased: 2.975
#iterations: 427
currently lose_sum: 0.5361241102218628
time_elpased: 2.95
#iterations: 428
currently lose_sum: 0.6435412764549255
time_elpased: 2.99
#iterations: 429
currently lose_sum: 0.6327499747276306
time_elpased: 2.954
#iterations: 430
currently lose_sum: 0.6802047491073608
time_elpased: 2.961
#iterations: 431
currently lose_sum: 0.6299370527267456
time_elpased: 2.947
#iterations: 432
currently lose_sum: 0.49904757738113403
time_elpased: 2.96
#iterations: 433
currently lose_sum: 0.5861088037490845
time_elpased: 2.916
#iterations: 434
currently lose_sum: 0.44145554304122925
time_elpased: 2.941
#iterations: 435
currently lose_sum: 0.5382372140884399
time_elpased: 2.898
#iterations: 436
currently lose_sum: 0.677377462387085
time_elpased: 2.949
#iterations: 437
currently lose_sum: 0.5843973755836487
time_elpased: 2.958
#iterations: 438
currently lose_sum: 0.6647250056266785
time_elpased: 3.014
#iterations: 439
currently lose_sum: 0.6350928544998169
time_elpased: 2.954
start validation test
0.629910714286
0.640952380952
0.598222222222
0.618850574713
0.630052815147
37.153
#iterations: 440
currently lose_sum: 0.6287887692451477
time_elpased: 3.0
#iterations: 441
currently lose_sum: 0.5679669976234436
time_elpased: 3.069
#iterations: 442
currently lose_sum: 0.49762097001075745
time_elpased: 2.992
#iterations: 443
currently lose_sum: 0.5155810117721558
time_elpased: 3.027
#iterations: 444
currently lose_sum: 0.48090916872024536
time_elpased: 3.1
#iterations: 445
currently lose_sum: 0.6155360341072083
time_elpased: 2.948
#iterations: 446
currently lose_sum: 0.6080314517021179
time_elpased: 3.376
#iterations: 447
currently lose_sum: 0.550369918346405
time_elpased: 3.318
#iterations: 448
currently lose_sum: 0.617756724357605
time_elpased: 3.372
#iterations: 449
currently lose_sum: 0.5019255876541138
time_elpased: 3.364
#iterations: 450
currently lose_sum: 0.5664867162704468
time_elpased: 3.438
#iterations: 451
currently lose_sum: 0.5478628873825073
time_elpased: 3.415
#iterations: 452
currently lose_sum: 0.5445325970649719
time_elpased: 3.33
#iterations: 453
currently lose_sum: 0.5826639533042908
time_elpased: 3.352
#iterations: 454
currently lose_sum: 0.570320725440979
time_elpased: 3.22
#iterations: 455
currently lose_sum: 0.7047684788703918
time_elpased: 3.218
#iterations: 456
currently lose_sum: 0.4980262219905853
time_elpased: 3.176
#iterations: 457
currently lose_sum: 0.6257323622703552
time_elpased: 3.232
#iterations: 458
currently lose_sum: 0.5287390947341919
time_elpased: 3.257
#iterations: 459
currently lose_sum: 0.6297769546508789
time_elpased: 3.204
start validation test
0.631696428571
0.622549019608
0.677333333333
0.648786717752
0.631491778774
37.064
#iterations: 460
currently lose_sum: 0.5669326186180115
time_elpased: 3.2
#iterations: 461
currently lose_sum: 0.44222092628479004
time_elpased: 3.185
#iterations: 462
currently lose_sum: 0.5616062879562378
time_elpased: 3.238
#iterations: 463
currently lose_sum: 0.5747526288032532
time_elpased: 3.192
#iterations: 464
currently lose_sum: 0.3888922333717346
time_elpased: 3.295
#iterations: 465
currently lose_sum: 0.6739052534103394
time_elpased: 3.184
#iterations: 466
currently lose_sum: 0.6472729444503784
time_elpased: 3.318
#iterations: 467
currently lose_sum: 0.6063197255134583
time_elpased: 3.198
#iterations: 468
currently lose_sum: 0.6058290600776672
time_elpased: 3.286
#iterations: 469
currently lose_sum: 0.6470667123794556
time_elpased: 3.076
#iterations: 470
currently lose_sum: 0.5757573246955872
time_elpased: 3.19
#iterations: 471
currently lose_sum: 0.6574039459228516
time_elpased: 3.363
#iterations: 472
currently lose_sum: 0.5943506956100464
time_elpased: 3.179
#iterations: 473
currently lose_sum: 0.6712259650230408
time_elpased: 3.216
#iterations: 474
currently lose_sum: 0.726083517074585
time_elpased: 3.16
#iterations: 475
currently lose_sum: 0.4719962179660797
time_elpased: 3.132
#iterations: 476
currently lose_sum: 0.5698785781860352
time_elpased: 3.266
#iterations: 477
currently lose_sum: 0.5541935563087463
time_elpased: 3.297
#iterations: 478
currently lose_sum: 0.6207684278488159
time_elpased: 3.17
#iterations: 479
currently lose_sum: 0.5258676409721375
time_elpased: 3.197
start validation test
0.63125
0.620080321285
0.686222222222
0.651476793249
0.631003487793
37.215
#iterations: 480
currently lose_sum: 0.5841068029403687
time_elpased: 3.309
#iterations: 481
currently lose_sum: 0.5504328608512878
time_elpased: 3.19
#iterations: 482
currently lose_sum: 0.6098663806915283
time_elpased: 3.236
#iterations: 483
currently lose_sum: 0.5103870034217834
time_elpased: 3.271
#iterations: 484
currently lose_sum: 0.4367609918117523
time_elpased: 3.335
#iterations: 485
currently lose_sum: 0.5210719108581543
time_elpased: 3.164
#iterations: 486
currently lose_sum: 0.6413977146148682
time_elpased: 3.167
#iterations: 487
currently lose_sum: 0.5582287311553955
time_elpased: 3.273
#iterations: 488
currently lose_sum: 0.6073883771896362
time_elpased: 3.256
#iterations: 489
currently lose_sum: 0.6200264692306519
time_elpased: 3.194
#iterations: 490
currently lose_sum: 0.6121582388877869
time_elpased: 3.247
#iterations: 491
currently lose_sum: 0.48400169610977173
time_elpased: 3.1
#iterations: 492
currently lose_sum: 0.6110097169876099
time_elpased: 3.31
#iterations: 493
currently lose_sum: 0.6070681810379028
time_elpased: 3.291
#iterations: 494
currently lose_sum: 0.6444724202156067
time_elpased: 3.242
#iterations: 495
currently lose_sum: 0.6555689573287964
time_elpased: 3.192
#iterations: 496
currently lose_sum: 0.6311324238777161
time_elpased: 3.224
#iterations: 497
currently lose_sum: 0.5824806690216064
time_elpased: 3.197
#iterations: 498
currently lose_sum: 0.5179083943367004
time_elpased: 3.156
#iterations: 499
currently lose_sum: 0.6301458477973938
time_elpased: 3.181
start validation test
0.639732142857
0.623447204969
0.713777777778
0.665561541649
0.639400099651
37.172
#iterations: 500
currently lose_sum: 0.4805683195590973
time_elpased: 3.108
#iterations: 501
currently lose_sum: 0.6039446592330933
time_elpased: 3.142
#iterations: 502
currently lose_sum: 0.5954134464263916
time_elpased: 3.052
#iterations: 503
currently lose_sum: 0.49386635422706604
time_elpased: 3.034
#iterations: 504
currently lose_sum: 0.5507863163948059
time_elpased: 3.009
#iterations: 505
currently lose_sum: 0.6731659173965454
time_elpased: 3.277
#iterations: 506
currently lose_sum: 0.46109431982040405
time_elpased: 3.321
#iterations: 507
currently lose_sum: 0.5773726105690002
time_elpased: 3.209
#iterations: 508
currently lose_sum: 0.5403046011924744
time_elpased: 3.155
#iterations: 509
currently lose_sum: 0.5365325808525085
time_elpased: 3.044
#iterations: 510
currently lose_sum: 0.6413196921348572
time_elpased: 3.041
#iterations: 511
currently lose_sum: 0.5794306993484497
time_elpased: 3.087
#iterations: 512
currently lose_sum: 0.7189929485321045
time_elpased: 3.067
#iterations: 513
currently lose_sum: 0.700341522693634
time_elpased: 3.105
#iterations: 514
currently lose_sum: 0.5908471941947937
time_elpased: 3.075
#iterations: 515
currently lose_sum: 0.5651808977127075
time_elpased: 3.174
#iterations: 516
currently lose_sum: 0.5843961238861084
time_elpased: 3.127
#iterations: 517
currently lose_sum: 0.6965816020965576
time_elpased: 3.174
#iterations: 518
currently lose_sum: 0.554652988910675
time_elpased: 3.119
#iterations: 519
currently lose_sum: 0.48309463262557983
time_elpased: 3.042
start validation test
0.628125
0.633211678832
0.616888888889
0.624943719045
0.628175386148
37.232
#iterations: 520
currently lose_sum: 0.6439144015312195
time_elpased: 3.295
#iterations: 521
currently lose_sum: 0.6408265829086304
time_elpased: 3.187
#iterations: 522
currently lose_sum: 0.5829544067382812
time_elpased: 3.277
#iterations: 523
currently lose_sum: 0.6494919657707214
time_elpased: 3.053
#iterations: 524
currently lose_sum: 0.49580806493759155
time_elpased: 2.998
#iterations: 525
currently lose_sum: 0.6277889013290405
time_elpased: 3.008
#iterations: 526
currently lose_sum: 0.7510082125663757
time_elpased: 3.246
#iterations: 527
currently lose_sum: 0.6557945013046265
time_elpased: 2.992
#iterations: 528
currently lose_sum: 0.5985783338546753
time_elpased: 3.046
#iterations: 529
currently lose_sum: 0.6355433464050293
time_elpased: 3.012
#iterations: 530
currently lose_sum: 0.6113095879554749
time_elpased: 2.988
#iterations: 531
currently lose_sum: 0.5650421977043152
time_elpased: 3.029
#iterations: 532
currently lose_sum: 0.5991951823234558
time_elpased: 2.98
#iterations: 533
currently lose_sum: 0.5873684883117676
time_elpased: 3.012
#iterations: 534
currently lose_sum: 0.6437682509422302
time_elpased: 2.984
#iterations: 535
currently lose_sum: 0.47967520356178284
time_elpased: 2.977
#iterations: 536
currently lose_sum: 0.6048828363418579
time_elpased: 3.064
#iterations: 537
currently lose_sum: 0.5686673521995544
time_elpased: 3.029
#iterations: 538
currently lose_sum: 0.5922951698303223
time_elpased: 2.961
#iterations: 539
currently lose_sum: 0.5294108986854553
time_elpased: 3.242
start validation test
0.632142857143
0.623058053966
0.677333333333
0.649063032368
0.631940209268
37.536
#iterations: 540
currently lose_sum: 0.5543078184127808
time_elpased: 2.97
#iterations: 541
currently lose_sum: 0.6208536028862
time_elpased: 3.032
#iterations: 542
currently lose_sum: 0.5880194902420044
time_elpased: 2.988
#iterations: 543
currently lose_sum: 0.5481919050216675
time_elpased: 3.004
#iterations: 544
currently lose_sum: 0.49879398941993713
time_elpased: 2.988
#iterations: 545
currently lose_sum: 0.6532976031303406
time_elpased: 2.954
#iterations: 546
currently lose_sum: 0.6053091883659363
time_elpased: 2.959
#iterations: 547
currently lose_sum: 0.6027520895004272
time_elpased: 2.961
#iterations: 548
currently lose_sum: 0.5452907681465149
time_elpased: 3.138
#iterations: 549
currently lose_sum: 0.537298321723938
time_elpased: 3.033
#iterations: 550
currently lose_sum: 0.5513694882392883
time_elpased: 2.955
#iterations: 551
currently lose_sum: 0.5358191728591919
time_elpased: 3.005
#iterations: 552
currently lose_sum: 0.6737344264984131
time_elpased: 2.978
#iterations: 553
currently lose_sum: 0.5808371305465698
time_elpased: 2.99
#iterations: 554
currently lose_sum: 0.5425613522529602
time_elpased: 3.01
#iterations: 555
currently lose_sum: 0.7023098468780518
time_elpased: 2.977
#iterations: 556
currently lose_sum: 0.46910911798477173
time_elpased: 2.98
#iterations: 557
currently lose_sum: 0.5342505574226379
time_elpased: 2.947
#iterations: 558
currently lose_sum: 0.5458589792251587
time_elpased: 2.942
#iterations: 559
currently lose_sum: 0.5066344738006592
time_elpased: 2.991
start validation test
0.630357142857
0.632471008029
0.630222222222
0.631344612645
0.630357747882
37.460
#iterations: 560
currently lose_sum: 0.5744407773017883
time_elpased: 2.953
#iterations: 561
currently lose_sum: 0.5203301310539246
time_elpased: 2.944
#iterations: 562
currently lose_sum: 0.5858501195907593
time_elpased: 2.957
#iterations: 563
currently lose_sum: 0.6364109516143799
time_elpased: 2.951
#iterations: 564
currently lose_sum: 0.5717689990997314
time_elpased: 2.933
#iterations: 565
currently lose_sum: 0.6070801019668579
time_elpased: 3.0
#iterations: 566
currently lose_sum: 0.5683534741401672
time_elpased: 2.961
#iterations: 567
currently lose_sum: 0.5409239530563354
time_elpased: 2.944
#iterations: 568
currently lose_sum: 0.5844053030014038
time_elpased: 2.955
#iterations: 569
currently lose_sum: 0.5879271626472473
time_elpased: 2.978
#iterations: 570
currently lose_sum: 0.5823248624801636
time_elpased: 3.014
#iterations: 571
currently lose_sum: 0.6049291491508484
time_elpased: 2.953
#iterations: 572
currently lose_sum: 0.6112979054450989
time_elpased: 2.946
#iterations: 573
currently lose_sum: 0.5841015577316284
time_elpased: 2.921
#iterations: 574
currently lose_sum: 0.5528542995452881
time_elpased: 2.962
#iterations: 575
currently lose_sum: 0.6816003918647766
time_elpased: 2.927
#iterations: 576
currently lose_sum: 0.5395522713661194
time_elpased: 2.948
#iterations: 577
currently lose_sum: 0.5085827112197876
time_elpased: 3.017
#iterations: 578
currently lose_sum: 0.5723946690559387
time_elpased: 3.333
#iterations: 579
currently lose_sum: 0.6827573180198669
time_elpased: 3.238
start validation test
0.628125
0.633944954128
0.614222222222
0.623927765237
0.628187344295
37.565
#iterations: 580
currently lose_sum: 0.6015523076057434
time_elpased: 3.273
#iterations: 581
currently lose_sum: 0.5614106059074402
time_elpased: 3.28
#iterations: 582
currently lose_sum: 0.5689688920974731
time_elpased: 2.999
#iterations: 583
currently lose_sum: 0.4808364510536194
time_elpased: 3.244
#iterations: 584
currently lose_sum: 0.5543695092201233
time_elpased: 3.012
#iterations: 585
currently lose_sum: 0.4913530945777893
time_elpased: 2.986
#iterations: 586
currently lose_sum: 0.5175260305404663
time_elpased: 3.013
#iterations: 587
currently lose_sum: 0.5117740631103516
time_elpased: 3.014
#iterations: 588
currently lose_sum: 0.6597276926040649
time_elpased: 3.077
#iterations: 589
currently lose_sum: 0.5232251286506653
time_elpased: 3.081
#iterations: 590
currently lose_sum: 0.6162143349647522
time_elpased: 3.029
#iterations: 591
currently lose_sum: 0.6927459836006165
time_elpased: 2.959
#iterations: 592
currently lose_sum: 0.6096309423446655
time_elpased: 3.03
#iterations: 593
currently lose_sum: 0.5978854298591614
time_elpased: 3.043
#iterations: 594
currently lose_sum: 0.5404040217399597
time_elpased: 2.965
#iterations: 595
currently lose_sum: 0.6715526580810547
time_elpased: 3.059
#iterations: 596
currently lose_sum: 0.6333659291267395
time_elpased: 3.1
#iterations: 597
currently lose_sum: 0.5848981738090515
time_elpased: 3.443
#iterations: 598
currently lose_sum: 0.6174615025520325
time_elpased: 3.267
#iterations: 599
currently lose_sum: 0.5204920768737793
time_elpased: 3.246
start validation test
0.622321428571
0.619948409286
0.640888888889
0.630244755245
0.622238166418
37.585
acc: 0.617
pre: 0.632
rec: 0.569
F1: 0.599
auc: 0.618
