start to construct computing graph
graph construct over
3372
epochs start
#iterations: 0
currently lose_sum: 0.6919077038764954
time_elpased: 3.645
#iterations: 1
currently lose_sum: 0.732546865940094
time_elpased: 3.573
#iterations: 2
currently lose_sum: 0.7380548715591431
time_elpased: 3.545
#iterations: 3
currently lose_sum: 0.6610690951347351
time_elpased: 3.517
#iterations: 4
currently lose_sum: 0.6692731976509094
time_elpased: 3.589
#iterations: 5
currently lose_sum: 0.6351171135902405
time_elpased: 3.633
#iterations: 6
currently lose_sum: 0.6469848155975342
time_elpased: 3.588
#iterations: 7
currently lose_sum: 0.6468415260314941
time_elpased: 3.501
#iterations: 8
currently lose_sum: 0.644412100315094
time_elpased: 3.537
#iterations: 9
currently lose_sum: 0.7230340242385864
time_elpased: 3.502
#iterations: 10
currently lose_sum: 0.5977208018302917
time_elpased: 3.532
#iterations: 11
currently lose_sum: 0.5654667615890503
time_elpased: 3.62
#iterations: 12
currently lose_sum: 0.5873844623565674
time_elpased: 3.494
#iterations: 13
currently lose_sum: 0.692180335521698
time_elpased: 3.526
#iterations: 14
currently lose_sum: 0.5345495939254761
time_elpased: 3.535
#iterations: 15
currently lose_sum: 0.5633245706558228
time_elpased: 3.486
#iterations: 16
currently lose_sum: 0.5970263481140137
time_elpased: 3.541
#iterations: 17
currently lose_sum: 0.5495815873146057
time_elpased: 3.578
#iterations: 18
currently lose_sum: 0.628271758556366
time_elpased: 3.497
#iterations: 19
currently lose_sum: 0.6824728846549988
time_elpased: 3.501
start validation test
0.618303571429
0.630560928433
0.579555555556
0.603983325614
0.618477329347
35.857
#iterations: 20
currently lose_sum: 0.6698444485664368
time_elpased: 2.519
#iterations: 21
currently lose_sum: 0.6521352529525757
time_elpased: 2.552
#iterations: 22
currently lose_sum: 0.6577286124229431
time_elpased: 2.518
#iterations: 23
currently lose_sum: 0.6206175088882446
time_elpased: 2.502
#iterations: 24
currently lose_sum: 0.6111129522323608
time_elpased: 2.551
#iterations: 25
currently lose_sum: 0.6331895589828491
time_elpased: 2.55
#iterations: 26
currently lose_sum: 0.6892691850662231
time_elpased: 2.532
#iterations: 27
currently lose_sum: 0.5954335927963257
time_elpased: 2.569
#iterations: 28
currently lose_sum: 0.5368126034736633
time_elpased: 2.522
#iterations: 29
currently lose_sum: 0.6593948006629944
time_elpased: 2.761
#iterations: 30
currently lose_sum: 0.6185123920440674
time_elpased: 2.621
#iterations: 31
currently lose_sum: 0.6592592000961304
time_elpased: 2.574
#iterations: 32
currently lose_sum: 0.5401881337165833
time_elpased: 2.549
#iterations: 33
currently lose_sum: 0.6848254203796387
time_elpased: 2.514
#iterations: 34
currently lose_sum: 0.5861443281173706
time_elpased: 2.579
#iterations: 35
currently lose_sum: 0.6180980205535889
time_elpased: 2.516
#iterations: 36
currently lose_sum: 0.5791221857070923
time_elpased: 2.531
#iterations: 37
currently lose_sum: 0.6744683980941772
time_elpased: 2.528
#iterations: 38
currently lose_sum: 0.5818487405776978
time_elpased: 2.533
#iterations: 39
currently lose_sum: 0.6102203130722046
time_elpased: 2.531
start validation test
0.620089285714
0.649563318777
0.528888888889
0.583047525723
0.620498256104
35.508
#iterations: 40
currently lose_sum: 0.6306450366973877
time_elpased: 2.548
#iterations: 41
currently lose_sum: 0.6698426008224487
time_elpased: 2.54
#iterations: 42
currently lose_sum: 0.6265214681625366
time_elpased: 2.527
#iterations: 43
currently lose_sum: 0.6545981764793396
time_elpased: 2.527
#iterations: 44
currently lose_sum: 0.5620195269584656
time_elpased: 2.495
#iterations: 45
currently lose_sum: 0.6281223893165588
time_elpased: 2.53
#iterations: 46
currently lose_sum: 0.6721286773681641
time_elpased: 2.533
#iterations: 47
currently lose_sum: 0.600710391998291
time_elpased: 2.523
#iterations: 48
currently lose_sum: 0.6399078369140625
time_elpased: 2.511
#iterations: 49
currently lose_sum: 0.6684343218803406
time_elpased: 2.535
#iterations: 50
currently lose_sum: 0.6123196482658386
time_elpased: 2.521
#iterations: 51
currently lose_sum: 0.6370502710342407
time_elpased: 2.524
#iterations: 52
currently lose_sum: 0.5476807355880737
time_elpased: 2.538
#iterations: 53
currently lose_sum: 0.6257957220077515
time_elpased: 2.503
#iterations: 54
currently lose_sum: 0.5510926246643066
time_elpased: 2.535
#iterations: 55
currently lose_sum: 0.544110894203186
time_elpased: 2.5
#iterations: 56
currently lose_sum: 0.6586154699325562
time_elpased: 2.51
#iterations: 57
currently lose_sum: 0.6460057497024536
time_elpased: 2.5
#iterations: 58
currently lose_sum: 0.5194512009620667
time_elpased: 2.527
#iterations: 59
currently lose_sum: 0.6857502460479736
time_elpased: 2.5
start validation test
0.614285714286
0.599846977812
0.696888888889
0.644736842105
0.613915296462
36.031
#iterations: 60
currently lose_sum: 0.6872723698616028
time_elpased: 2.533
#iterations: 61
currently lose_sum: 0.6232401132583618
time_elpased: 2.495
#iterations: 62
currently lose_sum: 0.63166743516922
time_elpased: 2.549
#iterations: 63
currently lose_sum: 0.611138641834259
time_elpased: 2.53
#iterations: 64
currently lose_sum: 0.5422212481498718
time_elpased: 2.703
#iterations: 65
currently lose_sum: 0.43398547172546387
time_elpased: 2.514
#iterations: 66
currently lose_sum: 0.6231468319892883
time_elpased: 2.485
#iterations: 67
currently lose_sum: 0.6409705281257629
time_elpased: 2.526
#iterations: 68
currently lose_sum: 0.6805780529975891
time_elpased: 2.513
#iterations: 69
currently lose_sum: 0.5537177920341492
time_elpased: 2.524
#iterations: 70
currently lose_sum: 0.5664317011833191
time_elpased: 2.562
#iterations: 71
currently lose_sum: 0.6518765091896057
time_elpased: 2.535
#iterations: 72
currently lose_sum: 0.6671856641769409
time_elpased: 2.539
#iterations: 73
currently lose_sum: 0.6468048095703125
time_elpased: 2.554
#iterations: 74
currently lose_sum: 0.6366890072822571
time_elpased: 2.531
#iterations: 75
currently lose_sum: 0.563031792640686
time_elpased: 2.558
#iterations: 76
currently lose_sum: 0.6276936531066895
time_elpased: 2.561
#iterations: 77
currently lose_sum: 0.4984506070613861
time_elpased: 2.54
#iterations: 78
currently lose_sum: 0.6786794662475586
time_elpased: 2.569
#iterations: 79
currently lose_sum: 0.5393515825271606
time_elpased: 2.538
start validation test
0.621428571429
0.608287724785
0.691555555556
0.647254575707
0.621114100648
35.768
#iterations: 80
currently lose_sum: 0.6660385131835938
time_elpased: 2.569
#iterations: 81
currently lose_sum: 0.637195348739624
time_elpased: 2.524
#iterations: 82
currently lose_sum: 0.6850423216819763
time_elpased: 2.533
#iterations: 83
currently lose_sum: 0.6333903074264526
time_elpased: 2.549
#iterations: 84
currently lose_sum: 0.5860971212387085
time_elpased: 2.55
#iterations: 85
currently lose_sum: 0.6075055599212646
time_elpased: 2.563
#iterations: 86
currently lose_sum: 0.5247230529785156
time_elpased: 2.553
#iterations: 87
currently lose_sum: 0.5131936073303223
time_elpased: 2.559
#iterations: 88
currently lose_sum: 0.45579203963279724
time_elpased: 2.554
#iterations: 89
currently lose_sum: 0.6198115348815918
time_elpased: 2.623
#iterations: 90
currently lose_sum: 0.5895333290100098
time_elpased: 2.53
#iterations: 91
currently lose_sum: 0.5930274724960327
time_elpased: 2.578
#iterations: 92
currently lose_sum: 0.7164760231971741
time_elpased: 2.54
#iterations: 93
currently lose_sum: 0.5928988456726074
time_elpased: 2.527
#iterations: 94
currently lose_sum: 0.506001353263855
time_elpased: 2.549
#iterations: 95
currently lose_sum: 0.5689147114753723
time_elpased: 2.528
#iterations: 96
currently lose_sum: 0.6310655474662781
time_elpased: 2.556
#iterations: 97
currently lose_sum: 0.6236531138420105
time_elpased: 2.522
#iterations: 98
currently lose_sum: 0.6205962896347046
time_elpased: 2.513
#iterations: 99
currently lose_sum: 0.573904275894165
time_elpased: 2.539
start validation test
0.621428571429
0.632282712512
0.588444444444
0.609576427256
0.621576482312
35.827
#iterations: 100
currently lose_sum: 0.6009076237678528
time_elpased: 2.564
#iterations: 101
currently lose_sum: 0.5622045397758484
time_elpased: 2.538
#iterations: 102
currently lose_sum: 0.6596199870109558
time_elpased: 2.515
#iterations: 103
currently lose_sum: 0.5663448572158813
time_elpased: 2.526
#iterations: 104
currently lose_sum: 0.6071247458457947
time_elpased: 2.51
#iterations: 105
currently lose_sum: 0.5560881495475769
time_elpased: 2.549
#iterations: 106
currently lose_sum: 0.588476300239563
time_elpased: 2.535
#iterations: 107
currently lose_sum: 0.5833596587181091
time_elpased: 2.499
#iterations: 108
currently lose_sum: 0.550012469291687
time_elpased: 2.544
#iterations: 109
currently lose_sum: 0.5613023638725281
time_elpased: 2.524
#iterations: 110
currently lose_sum: 0.635311484336853
time_elpased: 2.546
#iterations: 111
currently lose_sum: 0.7181568741798401
time_elpased: 2.549
#iterations: 112
currently lose_sum: 0.6456659436225891
time_elpased: 2.556
#iterations: 113
currently lose_sum: 0.6218072772026062
time_elpased: 2.555
#iterations: 114
currently lose_sum: 0.5818942785263062
time_elpased: 2.554
#iterations: 115
currently lose_sum: 0.5842358469963074
time_elpased: 2.52
#iterations: 116
currently lose_sum: 0.6460760235786438
time_elpased: 2.574
#iterations: 117
currently lose_sum: 0.6329506635665894
time_elpased: 2.565
#iterations: 118
currently lose_sum: 0.58842533826828
time_elpased: 2.511
#iterations: 119
currently lose_sum: 0.5180385112762451
time_elpased: 2.516
start validation test
0.624553571429
0.615635179153
0.672
0.642583935402
0.624340807175
35.692
#iterations: 120
currently lose_sum: 0.5002782940864563
time_elpased: 2.547
#iterations: 121
currently lose_sum: 0.5268967151641846
time_elpased: 2.514
#iterations: 122
currently lose_sum: 0.5967504382133484
time_elpased: 2.507
#iterations: 123
currently lose_sum: 0.5287171602249146
time_elpased: 2.513
#iterations: 124
currently lose_sum: 0.6511923670768738
time_elpased: 2.535
#iterations: 125
currently lose_sum: 0.6645270586013794
time_elpased: 2.491
#iterations: 126
currently lose_sum: 0.5771321058273315
time_elpased: 2.52
#iterations: 127
currently lose_sum: 0.6081746816635132
time_elpased: 2.542
#iterations: 128
currently lose_sum: 0.5482415556907654
time_elpased: 2.543
#iterations: 129
currently lose_sum: 0.574672520160675
time_elpased: 2.522
#iterations: 130
currently lose_sum: 0.5992228984832764
time_elpased: 2.533
#iterations: 131
currently lose_sum: 0.5032961368560791
time_elpased: 2.509
#iterations: 132
currently lose_sum: 0.6371674537658691
time_elpased: 2.542
#iterations: 133
currently lose_sum: 0.56683349609375
time_elpased: 2.519
#iterations: 134
currently lose_sum: 0.6284813284873962
time_elpased: 2.561
#iterations: 135
currently lose_sum: 0.5715702772140503
time_elpased: 2.588
#iterations: 136
currently lose_sum: 0.5912801623344421
time_elpased: 2.532
#iterations: 137
currently lose_sum: 0.5898669362068176
time_elpased: 2.528
#iterations: 138
currently lose_sum: 0.5468729734420776
time_elpased: 2.542
#iterations: 139
currently lose_sum: 0.5744566917419434
time_elpased: 2.542
start validation test
0.629910714286
0.660173160173
0.542222222222
0.595412396291
0.630303936223
35.787
#iterations: 140
currently lose_sum: 0.5218521952629089
time_elpased: 2.603
#iterations: 141
currently lose_sum: 0.6181134581565857
time_elpased: 2.703
#iterations: 142
currently lose_sum: 0.5026487112045288
time_elpased: 2.547
#iterations: 143
currently lose_sum: 0.697264552116394
time_elpased: 2.563
#iterations: 144
currently lose_sum: 0.6443409323692322
time_elpased: 2.535
#iterations: 145
currently lose_sum: 0.4379104673862457
time_elpased: 2.515
#iterations: 146
currently lose_sum: 0.5759320259094238
time_elpased: 2.49
#iterations: 147
currently lose_sum: 0.5803450345993042
time_elpased: 2.518
#iterations: 148
currently lose_sum: 0.6765571236610413
time_elpased: 2.721
#iterations: 149
currently lose_sum: 0.5262930989265442
time_elpased: 2.54
#iterations: 150
currently lose_sum: 0.5435722470283508
time_elpased: 2.56
#iterations: 151
currently lose_sum: 0.5112084746360779
time_elpased: 2.529
#iterations: 152
currently lose_sum: 0.5120459198951721
time_elpased: 2.648
#iterations: 153
currently lose_sum: 0.6042677164077759
time_elpased: 2.518
#iterations: 154
currently lose_sum: 0.593170702457428
time_elpased: 2.536
#iterations: 155
currently lose_sum: 0.5331404209136963
time_elpased: 2.5
#iterations: 156
currently lose_sum: 0.6936690807342529
time_elpased: 2.559
#iterations: 157
currently lose_sum: 0.5957469940185547
time_elpased: 2.539
#iterations: 158
currently lose_sum: 0.633920431137085
time_elpased: 2.539
#iterations: 159
currently lose_sum: 0.6272305250167847
time_elpased: 2.517
start validation test
0.632589285714
0.621382636656
0.687111111111
0.652596032081
0.632344793224
35.825
#iterations: 160
currently lose_sum: 0.5660838484764099
time_elpased: 2.547
#iterations: 161
currently lose_sum: 0.6800493001937866
time_elpased: 2.583
#iterations: 162
currently lose_sum: 0.6650246381759644
time_elpased: 2.515
#iterations: 163
currently lose_sum: 0.6311806440353394
time_elpased: 2.545
#iterations: 164
currently lose_sum: 0.7039879560470581
time_elpased: 2.518
#iterations: 165
currently lose_sum: 0.47342005372047424
time_elpased: 2.511
#iterations: 166
currently lose_sum: 0.5311247110366821
time_elpased: 2.549
#iterations: 167
currently lose_sum: 0.5099055171012878
time_elpased: 2.514
#iterations: 168
currently lose_sum: 0.5453430414199829
time_elpased: 2.53
#iterations: 169
currently lose_sum: 0.7312071323394775
time_elpased: 2.519
#iterations: 170
currently lose_sum: 0.6041823625564575
time_elpased: 2.541
#iterations: 171
currently lose_sum: 0.6472955346107483
time_elpased: 2.532
#iterations: 172
currently lose_sum: 0.5850079655647278
time_elpased: 2.523
#iterations: 173
currently lose_sum: 0.610537052154541
time_elpased: 2.586
#iterations: 174
currently lose_sum: 0.4571210741996765
time_elpased: 2.581
#iterations: 175
currently lose_sum: 0.5499510765075684
time_elpased: 2.592
#iterations: 176
currently lose_sum: 0.5875591039657593
time_elpased: 2.584
#iterations: 177
currently lose_sum: 0.5514682531356812
time_elpased: 2.566
#iterations: 178
currently lose_sum: 0.534572958946228
time_elpased: 2.554
#iterations: 179
currently lose_sum: 0.6095297336578369
time_elpased: 2.586
start validation test
0.624107142857
0.632614807873
0.6
0.615875912409
0.624215246637
35.903
#iterations: 180
currently lose_sum: 0.6825337409973145
time_elpased: 2.553
#iterations: 181
currently lose_sum: 0.5127021670341492
time_elpased: 2.62
#iterations: 182
currently lose_sum: 0.5928484201431274
time_elpased: 2.55
#iterations: 183
currently lose_sum: 0.44366130232810974
time_elpased: 2.54
#iterations: 184
currently lose_sum: 0.5889683365821838
time_elpased: 2.553
#iterations: 185
currently lose_sum: 0.5877540707588196
time_elpased: 2.55
#iterations: 186
currently lose_sum: 0.6197857856750488
time_elpased: 2.534
#iterations: 187
currently lose_sum: 0.5682767629623413
time_elpased: 2.562
#iterations: 188
currently lose_sum: 0.6132321357727051
time_elpased: 2.537
#iterations: 189
currently lose_sum: 0.6568809747695923
time_elpased: 2.523
#iterations: 190
currently lose_sum: 0.5305672287940979
time_elpased: 2.608
#iterations: 191
currently lose_sum: 0.4956844449043274
time_elpased: 2.534
#iterations: 192
currently lose_sum: 0.5935376882553101
time_elpased: 2.529
#iterations: 193
currently lose_sum: 0.5434012413024902
time_elpased: 2.535
#iterations: 194
currently lose_sum: 0.48573118448257446
time_elpased: 2.56
#iterations: 195
currently lose_sum: 0.6460558176040649
time_elpased: 2.547
#iterations: 196
currently lose_sum: 0.5950747728347778
time_elpased: 2.533
#iterations: 197
currently lose_sum: 0.5384477972984314
time_elpased: 2.485
#iterations: 198
currently lose_sum: 0.6898714303970337
time_elpased: 2.498
#iterations: 199
currently lose_sum: 0.6110675930976868
time_elpased: 2.502
start validation test
0.629464285714
0.618855761483
0.682666666667
0.649196956889
0.629225710015
36.128
#iterations: 200
currently lose_sum: 0.6157094836235046
time_elpased: 2.526
#iterations: 201
currently lose_sum: 0.5164576768875122
time_elpased: 2.529
#iterations: 202
currently lose_sum: 0.5700895190238953
time_elpased: 2.522
#iterations: 203
currently lose_sum: 0.5523008108139038
time_elpased: 2.532
#iterations: 204
currently lose_sum: 0.5035810470581055
time_elpased: 2.543
#iterations: 205
currently lose_sum: 0.6225771903991699
time_elpased: 2.564
#iterations: 206
currently lose_sum: 0.6300264596939087
time_elpased: 2.551
#iterations: 207
currently lose_sum: 0.5620347857475281
time_elpased: 2.518
#iterations: 208
currently lose_sum: 0.49607276916503906
time_elpased: 2.556
#iterations: 209
currently lose_sum: 0.6389347314834595
time_elpased: 2.545
#iterations: 210
currently lose_sum: 0.5876930356025696
time_elpased: 2.556
#iterations: 211
currently lose_sum: 0.5052194595336914
time_elpased: 2.533
#iterations: 212
currently lose_sum: 0.5542837977409363
time_elpased: 2.531
#iterations: 213
currently lose_sum: 0.6701959371566772
time_elpased: 2.542
#iterations: 214
currently lose_sum: 0.6376031637191772
time_elpased: 2.526
#iterations: 215
currently lose_sum: 0.5602532625198364
time_elpased: 2.548
#iterations: 216
currently lose_sum: 0.4926002621650696
time_elpased: 2.537
#iterations: 217
currently lose_sum: 0.5106486082077026
time_elpased: 2.537
#iterations: 218
currently lose_sum: 0.5823174715042114
time_elpased: 2.541
#iterations: 219
currently lose_sum: 0.651803731918335
time_elpased: 2.564
start validation test
0.634375
0.621044303797
0.697777777778
0.657178735873
0.634090682611
36.046
#iterations: 220
currently lose_sum: 0.6694210171699524
time_elpased: 2.524
#iterations: 221
currently lose_sum: 0.5576879382133484
time_elpased: 2.514
#iterations: 222
currently lose_sum: 0.556566596031189
time_elpased: 2.532
#iterations: 223
currently lose_sum: 0.6549199223518372
time_elpased: 2.54
#iterations: 224
currently lose_sum: 0.6102737188339233
time_elpased: 2.543
#iterations: 225
currently lose_sum: 0.6023356318473816
time_elpased: 2.52
#iterations: 226
currently lose_sum: 0.646794319152832
time_elpased: 2.54
#iterations: 227
currently lose_sum: 0.48664408922195435
time_elpased: 2.8
#iterations: 228
currently lose_sum: 0.5793241858482361
time_elpased: 2.561
#iterations: 229
currently lose_sum: 0.6119643449783325
time_elpased: 2.549
#iterations: 230
currently lose_sum: 0.6065979599952698
time_elpased: 2.518
#iterations: 231
currently lose_sum: 0.5355654954910278
time_elpased: 2.54
#iterations: 232
currently lose_sum: 0.6221178770065308
time_elpased: 2.545
#iterations: 233
currently lose_sum: 0.5426279902458191
time_elpased: 2.554
#iterations: 234
currently lose_sum: 0.5694080591201782
time_elpased: 2.612
#iterations: 235
currently lose_sum: 0.6956964135169983
time_elpased: 2.522
#iterations: 236
currently lose_sum: 0.5932289361953735
time_elpased: 2.536
#iterations: 237
currently lose_sum: 0.6338597536087036
time_elpased: 2.551
#iterations: 238
currently lose_sum: 0.5411672592163086
time_elpased: 2.549
#iterations: 239
currently lose_sum: 0.689703106880188
time_elpased: 2.61
start validation test
0.635267857143
0.623794212219
0.689777777778
0.655128746306
0.635023418037
35.861
#iterations: 240
currently lose_sum: 0.5508610010147095
time_elpased: 2.551
#iterations: 241
currently lose_sum: 0.5790085196495056
time_elpased: 2.514
#iterations: 242
currently lose_sum: 0.6827624440193176
time_elpased: 2.547
#iterations: 243
currently lose_sum: 0.5335437655448914
time_elpased: 2.526
#iterations: 244
currently lose_sum: 0.547960638999939
time_elpased: 2.603
#iterations: 245
currently lose_sum: 0.5860452651977539
time_elpased: 2.591
#iterations: 246
currently lose_sum: 0.5205475091934204
time_elpased: 2.557
#iterations: 247
currently lose_sum: 0.6982415318489075
time_elpased: 2.549
#iterations: 248
currently lose_sum: 0.607878565788269
time_elpased: 2.544
#iterations: 249
currently lose_sum: 0.5679378509521484
time_elpased: 2.565
#iterations: 250
currently lose_sum: 0.634954571723938
time_elpased: 2.538
#iterations: 251
currently lose_sum: 0.6740875244140625
time_elpased: 2.595
#iterations: 252
currently lose_sum: 0.5415118932723999
time_elpased: 2.563
#iterations: 253
currently lose_sum: 0.5269203186035156
time_elpased: 2.517
#iterations: 254
currently lose_sum: 0.5064085721969604
time_elpased: 2.58
#iterations: 255
currently lose_sum: 0.5886408686637878
time_elpased: 2.547
#iterations: 256
currently lose_sum: 0.5333717465400696
time_elpased: 2.562
#iterations: 257
currently lose_sum: 0.6234003901481628
time_elpased: 2.61
#iterations: 258
currently lose_sum: 0.5455747842788696
time_elpased: 2.562
#iterations: 259
currently lose_sum: 0.5981968641281128
time_elpased: 2.54
start validation test
0.629017857143
0.632671480144
0.623111111111
0.627854903717
0.629044344793
35.943
#iterations: 260
currently lose_sum: 0.5484277009963989
time_elpased: 2.559
#iterations: 261
currently lose_sum: 0.5338679552078247
time_elpased: 2.56
#iterations: 262
currently lose_sum: 0.5936936140060425
time_elpased: 2.546
#iterations: 263
currently lose_sum: 0.6182488203048706
time_elpased: 2.533
#iterations: 264
currently lose_sum: 0.5303576588630676
time_elpased: 2.53
#iterations: 265
currently lose_sum: 0.523818850517273
time_elpased: 2.546
#iterations: 266
currently lose_sum: 0.568432629108429
time_elpased: 2.579
#iterations: 267
currently lose_sum: 0.519649863243103
time_elpased: 2.53
#iterations: 268
currently lose_sum: 0.5043879747390747
time_elpased: 2.51
#iterations: 269
currently lose_sum: 0.5854731798171997
time_elpased: 2.516
#iterations: 270
currently lose_sum: 0.5664799809455872
time_elpased: 2.581
#iterations: 271
currently lose_sum: 0.5917268991470337
time_elpased: 2.547
#iterations: 272
currently lose_sum: 0.5164465308189392
time_elpased: 2.576
#iterations: 273
currently lose_sum: 0.5937617421150208
time_elpased: 2.545
#iterations: 274
currently lose_sum: 0.7786511182785034
time_elpased: 2.521
#iterations: 275
currently lose_sum: 0.6477125883102417
time_elpased: 2.55
#iterations: 276
currently lose_sum: 0.5613447427749634
time_elpased: 2.516
#iterations: 277
currently lose_sum: 0.6308597326278687
time_elpased: 2.587
#iterations: 278
currently lose_sum: 0.5448004007339478
time_elpased: 2.576
#iterations: 279
currently lose_sum: 0.5342550277709961
time_elpased: 2.552
start validation test
0.639285714286
0.628340080972
0.689777777778
0.657627118644
0.639059292476
35.887
#iterations: 280
currently lose_sum: 0.6441391706466675
time_elpased: 2.507
#iterations: 281
currently lose_sum: 0.5524166822433472
time_elpased: 2.577
#iterations: 282
currently lose_sum: 0.5665044188499451
time_elpased: 2.522
#iterations: 283
currently lose_sum: 0.5968299508094788
time_elpased: 2.549
#iterations: 284
currently lose_sum: 0.5354501008987427
time_elpased: 2.533
#iterations: 285
currently lose_sum: 0.5686613321304321
time_elpased: 2.584
#iterations: 286
currently lose_sum: 0.5654348134994507
time_elpased: 2.557
#iterations: 287
currently lose_sum: 0.7005547285079956
time_elpased: 2.6
#iterations: 288
currently lose_sum: 0.681155264377594
time_elpased: 2.538
#iterations: 289
currently lose_sum: 0.4489298462867737
time_elpased: 2.573
#iterations: 290
currently lose_sum: 0.6442362070083618
time_elpased: 2.551
#iterations: 291
currently lose_sum: 0.5397453308105469
time_elpased: 2.565
#iterations: 292
currently lose_sum: 0.5287664532661438
time_elpased: 2.564
#iterations: 293
currently lose_sum: 0.5820595026016235
time_elpased: 2.566
#iterations: 294
currently lose_sum: 0.6909676194190979
time_elpased: 2.561
#iterations: 295
currently lose_sum: 0.6650415658950806
time_elpased: 2.545
#iterations: 296
currently lose_sum: 0.651275098323822
time_elpased: 2.56
#iterations: 297
currently lose_sum: 0.5976337790489197
time_elpased: 2.518
#iterations: 298
currently lose_sum: 0.5713928937911987
time_elpased: 2.56
#iterations: 299
currently lose_sum: 0.5950855016708374
time_elpased: 2.51
start validation test
0.632142857143
0.634016028495
0.632888888889
0.633451957295
0.632139511709
36.281
#iterations: 300
currently lose_sum: 0.603509783744812
time_elpased: 2.556
#iterations: 301
currently lose_sum: 0.5549696683883667
time_elpased: 2.509
#iterations: 302
currently lose_sum: 0.6400763392448425
time_elpased: 2.545
#iterations: 303
currently lose_sum: 0.532684326171875
time_elpased: 2.507
#iterations: 304
currently lose_sum: 0.5082802772521973
time_elpased: 2.598
#iterations: 305
currently lose_sum: 0.5013498067855835
time_elpased: 2.543
#iterations: 306
currently lose_sum: 0.4889236390590668
time_elpased: 2.508
#iterations: 307
currently lose_sum: 0.6127704381942749
time_elpased: 2.508
#iterations: 308
currently lose_sum: 0.6362203359603882
time_elpased: 2.502
#iterations: 309
currently lose_sum: 0.5557256937026978
time_elpased: 2.485
#iterations: 310
currently lose_sum: 0.4733802378177643
time_elpased: 2.509
#iterations: 311
currently lose_sum: 0.5545767545700073
time_elpased: 2.493
#iterations: 312
currently lose_sum: 0.6319270730018616
time_elpased: 2.544
#iterations: 313
currently lose_sum: 0.6483315229415894
time_elpased: 2.492
#iterations: 314
currently lose_sum: 0.5597677230834961
time_elpased: 2.533
#iterations: 315
currently lose_sum: 0.4924432337284088
time_elpased: 2.602
#iterations: 316
currently lose_sum: 0.6175137758255005
time_elpased: 2.49
#iterations: 317
currently lose_sum: 0.7068064212799072
time_elpased: 2.552
#iterations: 318
currently lose_sum: 0.5518524646759033
time_elpased: 2.543
#iterations: 319
currently lose_sum: 0.6293524503707886
time_elpased: 2.543
start validation test
0.639285714286
0.635585970915
0.660444444444
0.647776809067
0.639190832088
36.127
#iterations: 320
currently lose_sum: 0.6055223345756531
time_elpased: 2.519
#iterations: 321
currently lose_sum: 0.5454984903335571
time_elpased: 2.554
#iterations: 322
currently lose_sum: 0.5682986974716187
time_elpased: 2.557
#iterations: 323
currently lose_sum: 0.5901630520820618
time_elpased: 2.533
#iterations: 324
currently lose_sum: 0.5576009750366211
time_elpased: 2.566
#iterations: 325
currently lose_sum: 0.6187893748283386
time_elpased: 2.556
#iterations: 326
currently lose_sum: 0.5616269111633301
time_elpased: 2.548
#iterations: 327
currently lose_sum: 0.5498331785202026
time_elpased: 2.563
#iterations: 328
currently lose_sum: 0.4830142855644226
time_elpased: 2.563
#iterations: 329
currently lose_sum: 0.5891064405441284
time_elpased: 2.544
#iterations: 330
currently lose_sum: 0.49055618047714233
time_elpased: 2.552
#iterations: 331
currently lose_sum: 0.5753093361854553
time_elpased: 2.531
#iterations: 332
currently lose_sum: 0.634536623954773
time_elpased: 2.528
#iterations: 333
currently lose_sum: 0.5915728807449341
time_elpased: 2.708
#iterations: 334
currently lose_sum: 0.6208075284957886
time_elpased: 2.523
#iterations: 335
currently lose_sum: 0.6188379526138306
time_elpased: 2.551
#iterations: 336
currently lose_sum: 0.594413161277771
time_elpased: 2.546
#iterations: 337
currently lose_sum: 0.514098048210144
time_elpased: 2.497
#iterations: 338
currently lose_sum: 0.6392436623573303
time_elpased: 2.478
#iterations: 339
currently lose_sum: 0.6502392888069153
time_elpased: 2.511
start validation test
0.637053571429
0.621875
0.707555555556
0.661954261954
0.636737419033
36.076
#iterations: 340
currently lose_sum: 0.4976278245449066
time_elpased: 2.561
#iterations: 341
currently lose_sum: 0.6544984579086304
time_elpased: 2.662
#iterations: 342
currently lose_sum: 0.6193790435791016
time_elpased: 2.526
#iterations: 343
currently lose_sum: 0.45490899682044983
time_elpased: 2.578
#iterations: 344
currently lose_sum: 0.5192423462867737
time_elpased: 2.558
#iterations: 345
currently lose_sum: 0.5857193470001221
time_elpased: 2.607
#iterations: 346
currently lose_sum: 0.6177699565887451
time_elpased: 2.671
#iterations: 347
currently lose_sum: 0.5951266288757324
time_elpased: 2.552
#iterations: 348
currently lose_sum: 0.5718826651573181
time_elpased: 2.576
#iterations: 349
currently lose_sum: 0.5748721361160278
time_elpased: 2.572
#iterations: 350
currently lose_sum: 0.5465612411499023
time_elpased: 2.576
#iterations: 351
currently lose_sum: 0.5640674829483032
time_elpased: 2.613
#iterations: 352
currently lose_sum: 0.6614840030670166
time_elpased: 2.555
#iterations: 353
currently lose_sum: 0.5344243049621582
time_elpased: 2.572
#iterations: 354
currently lose_sum: 0.5355516076087952
time_elpased: 2.583
#iterations: 355
currently lose_sum: 0.5302562713623047
time_elpased: 2.549
#iterations: 356
currently lose_sum: 0.6269493103027344
time_elpased: 2.589
#iterations: 357
currently lose_sum: 0.5208383798599243
time_elpased: 2.561
#iterations: 358
currently lose_sum: 0.5756480693817139
time_elpased: 2.569
#iterations: 359
currently lose_sum: 0.6189745664596558
time_elpased: 2.555
start validation test
0.637946428571
0.634188034188
0.659555555556
0.646623093682
0.637849526657
36.157
#iterations: 360
currently lose_sum: 0.5252595543861389
time_elpased: 2.522
#iterations: 361
currently lose_sum: 0.48818239569664
time_elpased: 2.48
#iterations: 362
currently lose_sum: 0.6318963170051575
time_elpased: 2.577
#iterations: 363
currently lose_sum: 0.5576330423355103
time_elpased: 2.619
#iterations: 364
currently lose_sum: 0.5258469581604004
time_elpased: 2.585
#iterations: 365
currently lose_sum: 0.6280122995376587
time_elpased: 2.571
#iterations: 366
currently lose_sum: 0.5572910308837891
time_elpased: 2.617
#iterations: 367
currently lose_sum: 0.7018256187438965
time_elpased: 2.659
#iterations: 368
currently lose_sum: 0.5789858102798462
time_elpased: 2.578
#iterations: 369
currently lose_sum: 0.6621473431587219
time_elpased: 2.597
#iterations: 370
currently lose_sum: 0.5769976377487183
time_elpased: 2.535
#iterations: 371
currently lose_sum: 0.5853528380393982
time_elpased: 2.584
#iterations: 372
currently lose_sum: 0.6219961047172546
time_elpased: 2.582
#iterations: 373
currently lose_sum: 0.5908547043800354
time_elpased: 2.632
#iterations: 374
currently lose_sum: 0.60252845287323
time_elpased: 2.569
#iterations: 375
currently lose_sum: 0.6097918748855591
time_elpased: 2.55
#iterations: 376
currently lose_sum: 0.5942563414573669
time_elpased: 2.714
#iterations: 377
currently lose_sum: 0.6029070615768433
time_elpased: 2.516
#iterations: 378
currently lose_sum: 0.6829417943954468
time_elpased: 2.53
#iterations: 379
currently lose_sum: 0.6190606355667114
time_elpased: 2.734
start validation test
0.632142857143
0.631441048035
0.642666666667
0.637004405286
0.632095665172
36.185
#iterations: 380
currently lose_sum: 0.44842633605003357
time_elpased: 2.593
#iterations: 381
currently lose_sum: 0.6284505128860474
time_elpased: 2.552
#iterations: 382
currently lose_sum: 0.45760679244995117
time_elpased: 2.537
#iterations: 383
currently lose_sum: 0.5393959879875183
time_elpased: 2.534
#iterations: 384
currently lose_sum: 0.5468499064445496
time_elpased: 2.556
#iterations: 385
currently lose_sum: 0.5195115804672241
time_elpased: 2.539
#iterations: 386
currently lose_sum: 0.5994679927825928
time_elpased: 2.549
#iterations: 387
currently lose_sum: 0.5782259106636047
time_elpased: 2.551
#iterations: 388
currently lose_sum: 0.5911487340927124
time_elpased: 2.552
#iterations: 389
currently lose_sum: 0.6152538657188416
time_elpased: 2.589
#iterations: 390
currently lose_sum: 0.5758486986160278
time_elpased: 2.551
#iterations: 391
currently lose_sum: 0.46334561705589294
time_elpased: 2.581
#iterations: 392
currently lose_sum: 0.556477963924408
time_elpased: 2.571
#iterations: 393
currently lose_sum: 0.5331050157546997
time_elpased: 2.548
#iterations: 394
currently lose_sum: 0.5367344617843628
time_elpased: 2.539
#iterations: 395
currently lose_sum: 0.5947002172470093
time_elpased: 2.694
#iterations: 396
currently lose_sum: 0.6469219923019409
time_elpased: 2.522
#iterations: 397
currently lose_sum: 0.6127967834472656
time_elpased: 2.544
#iterations: 398
currently lose_sum: 0.49599218368530273
time_elpased: 2.546
#iterations: 399
currently lose_sum: 0.5477267503738403
time_elpased: 2.58
start validation test
0.631696428571
0.632978723404
0.634666666667
0.633821571238
0.631683109118
36.271
#iterations: 400
currently lose_sum: 0.5463829040527344
time_elpased: 2.56
#iterations: 401
currently lose_sum: 0.6308931112289429
time_elpased: 2.578
#iterations: 402
currently lose_sum: 0.6124625205993652
time_elpased: 2.574
#iterations: 403
currently lose_sum: 0.615486741065979
time_elpased: 2.55
#iterations: 404
currently lose_sum: 0.45808854699134827
time_elpased: 2.582
#iterations: 405
currently lose_sum: 0.6337184906005859
time_elpased: 2.68
#iterations: 406
currently lose_sum: 0.6197477579116821
time_elpased: 2.627
#iterations: 407
currently lose_sum: 0.4802738130092621
time_elpased: 2.72
#iterations: 408
currently lose_sum: 0.6567596197128296
time_elpased: 2.842
#iterations: 409
currently lose_sum: 0.6190532445907593
time_elpased: 2.706
#iterations: 410
currently lose_sum: 0.6090861558914185
time_elpased: 2.784
#iterations: 411
currently lose_sum: 0.644696831703186
time_elpased: 2.752
#iterations: 412
currently lose_sum: 0.5011824369430542
time_elpased: 2.699
#iterations: 413
currently lose_sum: 0.49727821350097656
time_elpased: 2.684
#iterations: 414
currently lose_sum: 0.659448504447937
time_elpased: 2.626
#iterations: 415
currently lose_sum: 0.5224497318267822
time_elpased: 2.572
#iterations: 416
currently lose_sum: 0.5733426809310913
time_elpased: 2.67
#iterations: 417
currently lose_sum: 0.5320043563842773
time_elpased: 2.661
#iterations: 418
currently lose_sum: 0.688814640045166
time_elpased: 2.651
#iterations: 419
currently lose_sum: 0.6036351919174194
time_elpased: 2.741
start validation test
0.629017857143
0.621688741722
0.667555555556
0.643806258037
0.628845042352
36.224
#iterations: 420
currently lose_sum: 0.5110043287277222
time_elpased: 2.688
#iterations: 421
currently lose_sum: 0.5332979559898376
time_elpased: 2.663
#iterations: 422
currently lose_sum: 0.6174371838569641
time_elpased: 2.676
#iterations: 423
currently lose_sum: 0.5901330709457397
time_elpased: 2.758
#iterations: 424
currently lose_sum: 0.5937474966049194
time_elpased: 2.694
#iterations: 425
currently lose_sum: 0.5356128811836243
time_elpased: 2.718
#iterations: 426
currently lose_sum: 0.4887380599975586
time_elpased: 2.746
#iterations: 427
currently lose_sum: 0.5725311040878296
time_elpased: 2.731
#iterations: 428
currently lose_sum: 0.655389130115509
time_elpased: 2.721
#iterations: 429
currently lose_sum: 0.6276203989982605
time_elpased: 2.778
#iterations: 430
currently lose_sum: 0.6731756329536438
time_elpased: 2.735
#iterations: 431
currently lose_sum: 0.6205809116363525
time_elpased: 2.764
#iterations: 432
currently lose_sum: 0.5435646176338196
time_elpased: 2.781
#iterations: 433
currently lose_sum: 0.5951353907585144
time_elpased: 2.767
#iterations: 434
currently lose_sum: 0.40596356987953186
time_elpased: 2.837
#iterations: 435
currently lose_sum: 0.5851978063583374
time_elpased: 2.778
#iterations: 436
currently lose_sum: 0.6903192400932312
time_elpased: 2.697
#iterations: 437
currently lose_sum: 0.6146116256713867
time_elpased: 2.83
#iterations: 438
currently lose_sum: 0.6194411516189575
time_elpased: 2.84
#iterations: 439
currently lose_sum: 0.6558371782302856
time_elpased: 2.767
start validation test
0.630357142857
0.637119113573
0.613333333333
0.625
0.63043348281
36.108
#iterations: 440
currently lose_sum: 0.6333910226821899
time_elpased: 2.807
#iterations: 441
currently lose_sum: 0.598476231098175
time_elpased: 2.82
#iterations: 442
currently lose_sum: 0.515783429145813
time_elpased: 2.783
#iterations: 443
currently lose_sum: 0.5342370271682739
time_elpased: 2.8
#iterations: 444
currently lose_sum: 0.4826661944389343
time_elpased: 2.769
#iterations: 445
currently lose_sum: 0.6174319982528687
time_elpased: 2.83
#iterations: 446
currently lose_sum: 0.5541583299636841
time_elpased: 2.787
#iterations: 447
currently lose_sum: 0.5452374815940857
time_elpased: 2.79
#iterations: 448
currently lose_sum: 0.6007871627807617
time_elpased: 2.804
#iterations: 449
currently lose_sum: 0.5569725632667542
time_elpased: 2.788
#iterations: 450
currently lose_sum: 0.5879533886909485
time_elpased: 2.803
#iterations: 451
currently lose_sum: 0.5374053716659546
time_elpased: 2.75
#iterations: 452
currently lose_sum: 0.5656172037124634
time_elpased: 2.771
#iterations: 453
currently lose_sum: 0.5426677465438843
time_elpased: 2.802
#iterations: 454
currently lose_sum: 0.5643142461776733
time_elpased: 2.78
#iterations: 455
currently lose_sum: 0.7358838319778442
time_elpased: 2.731
#iterations: 456
currently lose_sum: 0.5174453854560852
time_elpased: 2.736
#iterations: 457
currently lose_sum: 0.6343229413032532
time_elpased: 2.751
#iterations: 458
currently lose_sum: 0.5249245166778564
time_elpased: 2.925
#iterations: 459
currently lose_sum: 0.6087144613265991
time_elpased: 2.809
start validation test
0.631696428571
0.621359223301
0.682666666667
0.650571791614
0.631467862481
36.107
#iterations: 460
currently lose_sum: 0.588400661945343
time_elpased: 2.819
#iterations: 461
currently lose_sum: 0.49831897020339966
time_elpased: 2.854
#iterations: 462
currently lose_sum: 0.5481197237968445
time_elpased: 2.817
#iterations: 463
currently lose_sum: 0.6595240831375122
time_elpased: 2.772
#iterations: 464
currently lose_sum: 0.4050987660884857
time_elpased: 2.805
#iterations: 465
currently lose_sum: 0.6930587887763977
time_elpased: 2.885
#iterations: 466
currently lose_sum: 0.6404281854629517
time_elpased: 2.779
#iterations: 467
currently lose_sum: 0.6286230087280273
time_elpased: 2.752
#iterations: 468
currently lose_sum: 0.6197376847267151
time_elpased: 2.765
#iterations: 469
currently lose_sum: 0.6370477080345154
time_elpased: 2.777
#iterations: 470
currently lose_sum: 0.5901930928230286
time_elpased: 2.814
#iterations: 471
currently lose_sum: 0.5823935270309448
time_elpased: 2.775
#iterations: 472
currently lose_sum: 0.6134945154190063
time_elpased: 2.784
#iterations: 473
currently lose_sum: 0.6528599858283997
time_elpased: 2.791
#iterations: 474
currently lose_sum: 0.7223610877990723
time_elpased: 2.79
#iterations: 475
currently lose_sum: 0.43515753746032715
time_elpased: 2.734
#iterations: 476
currently lose_sum: 0.5783524513244629
time_elpased: 2.746
#iterations: 477
currently lose_sum: 0.553387463092804
time_elpased: 2.785
#iterations: 478
currently lose_sum: 0.5712732672691345
time_elpased: 2.884
#iterations: 479
currently lose_sum: 0.5163388252258301
time_elpased: 2.811
start validation test
0.631696428571
0.62
0.688888888889
0.652631578947
0.63143996014
36.325
#iterations: 480
currently lose_sum: 0.6072738766670227
time_elpased: 2.717
#iterations: 481
currently lose_sum: 0.5317860841751099
time_elpased: 2.824
#iterations: 482
currently lose_sum: 0.5958285331726074
time_elpased: 2.813
#iterations: 483
currently lose_sum: 0.5175052881240845
time_elpased: 2.8
#iterations: 484
currently lose_sum: 0.426992803812027
time_elpased: 2.602
#iterations: 485
currently lose_sum: 0.575666069984436
time_elpased: 2.629
#iterations: 486
currently lose_sum: 0.6119590997695923
time_elpased: 2.605
#iterations: 487
currently lose_sum: 0.5539246797561646
time_elpased: 2.55
#iterations: 488
currently lose_sum: 0.6222554445266724
time_elpased: 2.592
#iterations: 489
currently lose_sum: 0.6365639567375183
time_elpased: 2.584
#iterations: 490
currently lose_sum: 0.6573486328125
time_elpased: 2.584
#iterations: 491
currently lose_sum: 0.4847068190574646
time_elpased: 2.561
#iterations: 492
currently lose_sum: 0.5554035902023315
time_elpased: 2.618
#iterations: 493
currently lose_sum: 0.5999264717102051
time_elpased: 2.546
#iterations: 494
currently lose_sum: 0.6536752581596375
time_elpased: 2.565
#iterations: 495
currently lose_sum: 0.6574268341064453
time_elpased: 2.592
#iterations: 496
currently lose_sum: 0.6315470933914185
time_elpased: 2.592
#iterations: 497
currently lose_sum: 0.5703809857368469
time_elpased: 2.572
#iterations: 498
currently lose_sum: 0.5479632616043091
time_elpased: 2.536
#iterations: 499
currently lose_sum: 0.5825247168540955
time_elpased: 2.54
start validation test
0.63125
0.619504396483
0.688888888889
0.652356902357
0.630991529646
36.265
#iterations: 500
currently lose_sum: 0.4847884774208069
time_elpased: 2.558
#iterations: 501
currently lose_sum: 0.6162452697753906
time_elpased: 2.538
#iterations: 502
currently lose_sum: 0.6264117956161499
time_elpased: 2.526
#iterations: 503
currently lose_sum: 0.4972016215324402
time_elpased: 2.594
#iterations: 504
currently lose_sum: 0.5150825381278992
time_elpased: 2.553
#iterations: 505
currently lose_sum: 0.7027292251586914
time_elpased: 2.513
#iterations: 506
currently lose_sum: 0.4676364064216614
time_elpased: 2.51
#iterations: 507
currently lose_sum: 0.584322988986969
time_elpased: 2.55
#iterations: 508
currently lose_sum: 0.5453441739082336
time_elpased: 2.534
#iterations: 509
currently lose_sum: 0.5455622673034668
time_elpased: 2.548
#iterations: 510
currently lose_sum: 0.6163977384567261
time_elpased: 2.556
#iterations: 511
currently lose_sum: 0.5618907809257507
time_elpased: 2.538
#iterations: 512
currently lose_sum: 0.7169585227966309
time_elpased: 2.545
#iterations: 513
currently lose_sum: 0.626933217048645
time_elpased: 2.476
#iterations: 514
currently lose_sum: 0.6037400364875793
time_elpased: 2.536
#iterations: 515
currently lose_sum: 0.5993186235427856
time_elpased: 2.521
#iterations: 516
currently lose_sum: 0.5700840950012207
time_elpased: 2.517
#iterations: 517
currently lose_sum: 0.6608206033706665
time_elpased: 2.524
#iterations: 518
currently lose_sum: 0.5634856224060059
time_elpased: 2.524
#iterations: 519
currently lose_sum: 0.5070626139640808
time_elpased: 2.54
start validation test
0.632142857143
0.63974001857
0.612444444444
0.625794732062
0.632231190832
36.117
#iterations: 520
currently lose_sum: 0.6943319439888
time_elpased: 2.529
#iterations: 521
currently lose_sum: 0.6144838929176331
time_elpased: 2.543
#iterations: 522
currently lose_sum: 0.5833150148391724
time_elpased: 2.539
#iterations: 523
currently lose_sum: 0.5943639874458313
time_elpased: 2.547
#iterations: 524
currently lose_sum: 0.5133314728736877
time_elpased: 2.486
#iterations: 525
currently lose_sum: 0.6043720245361328
time_elpased: 2.514
#iterations: 526
currently lose_sum: 0.7594084143638611
time_elpased: 2.529
#iterations: 527
currently lose_sum: 0.6081023216247559
time_elpased: 2.516
#iterations: 528
currently lose_sum: 0.6069232225418091
time_elpased: 2.506
#iterations: 529
currently lose_sum: 0.6497229337692261
time_elpased: 2.519
#iterations: 530
currently lose_sum: 0.6349218487739563
time_elpased: 2.527
#iterations: 531
currently lose_sum: 0.5629217624664307
time_elpased: 2.522
#iterations: 532
currently lose_sum: 0.6177676320075989
time_elpased: 2.497
#iterations: 533
currently lose_sum: 0.5915643572807312
time_elpased: 2.531
#iterations: 534
currently lose_sum: 0.6714614629745483
time_elpased: 2.612
#iterations: 535
currently lose_sum: 0.44183745980262756
time_elpased: 2.552
#iterations: 536
currently lose_sum: 0.6480733156204224
time_elpased: 2.546
#iterations: 537
currently lose_sum: 0.5588029623031616
time_elpased: 2.533
#iterations: 538
currently lose_sum: 0.5887971520423889
time_elpased: 2.529
#iterations: 539
currently lose_sum: 0.5385306477546692
time_elpased: 2.517
start validation test
0.633035714286
0.622672064777
0.683555555556
0.651694915254
0.632809167912
36.404
#iterations: 540
currently lose_sum: 0.578639805316925
time_elpased: 2.645
#iterations: 541
currently lose_sum: 0.6017562747001648
time_elpased: 2.531
#iterations: 542
currently lose_sum: 0.6088767051696777
time_elpased: 2.489
#iterations: 543
currently lose_sum: 0.5597337484359741
time_elpased: 2.53
#iterations: 544
currently lose_sum: 0.5152558088302612
time_elpased: 2.506
#iterations: 545
currently lose_sum: 0.7094862461090088
time_elpased: 2.504
#iterations: 546
currently lose_sum: 0.5392550230026245
time_elpased: 2.552
#iterations: 547
currently lose_sum: 0.6037746667861938
time_elpased: 2.531
#iterations: 548
currently lose_sum: 0.5493650436401367
time_elpased: 2.552
#iterations: 549
currently lose_sum: 0.54761803150177
time_elpased: 2.549
#iterations: 550
currently lose_sum: 0.5299938321113586
time_elpased: 2.553
#iterations: 551
currently lose_sum: 0.5218371152877808
time_elpased: 2.547
#iterations: 552
currently lose_sum: 0.6327658891677856
time_elpased: 2.527
#iterations: 553
currently lose_sum: 0.6084133982658386
time_elpased: 2.518
#iterations: 554
currently lose_sum: 0.5562698841094971
time_elpased: 2.524
#iterations: 555
currently lose_sum: 0.6952409744262695
time_elpased: 2.563
#iterations: 556
currently lose_sum: 0.46951794624328613
time_elpased: 2.554
#iterations: 557
currently lose_sum: 0.572052001953125
time_elpased: 2.542
#iterations: 558
currently lose_sum: 0.5666794776916504
time_elpased: 2.542
#iterations: 559
currently lose_sum: 0.5278533697128296
time_elpased: 2.567
start validation test
0.630803571429
0.632092198582
0.633777777778
0.632933865957
0.63079023418
36.289
#iterations: 560
currently lose_sum: 0.5524859428405762
time_elpased: 2.507
#iterations: 561
currently lose_sum: 0.5538060665130615
time_elpased: 2.548
#iterations: 562
currently lose_sum: 0.5892471075057983
time_elpased: 2.511
#iterations: 563
currently lose_sum: 0.7021702527999878
time_elpased: 2.488
#iterations: 564
currently lose_sum: 0.6042742729187012
time_elpased: 2.522
#iterations: 565
currently lose_sum: 0.5394336581230164
time_elpased: 2.555
#iterations: 566
currently lose_sum: 0.5722732543945312
time_elpased: 2.553
#iterations: 567
currently lose_sum: 0.5505688190460205
time_elpased: 2.524
#iterations: 568
currently lose_sum: 0.5651039481163025
time_elpased: 2.523
#iterations: 569
currently lose_sum: 0.5213248133659363
time_elpased: 2.519
#iterations: 570
currently lose_sum: 0.6292661428451538
time_elpased: 2.517
#iterations: 571
currently lose_sum: 0.6301356554031372
time_elpased: 2.54
#iterations: 572
currently lose_sum: 0.6279093027114868
time_elpased: 2.554
#iterations: 573
currently lose_sum: 0.639823317527771
time_elpased: 2.55
#iterations: 574
currently lose_sum: 0.576399028301239
time_elpased: 2.57
#iterations: 575
currently lose_sum: 0.635417103767395
time_elpased: 2.514
#iterations: 576
currently lose_sum: 0.513274073600769
time_elpased: 2.538
#iterations: 577
currently lose_sum: 0.521459698677063
time_elpased: 2.553
#iterations: 578
currently lose_sum: 0.6072456240653992
time_elpased: 2.519
#iterations: 579
currently lose_sum: 0.6310569643974304
time_elpased: 2.535
start validation test
0.626785714286
0.63196347032
0.615111111111
0.623423423423
0.626838066766
36.481
#iterations: 580
currently lose_sum: 0.6132181882858276
time_elpased: 2.57
#iterations: 581
currently lose_sum: 0.570140540599823
time_elpased: 2.454
#iterations: 582
currently lose_sum: 0.5571631193161011
time_elpased: 2.373
#iterations: 583
currently lose_sum: 0.4671403467655182
time_elpased: 2.292
#iterations: 584
currently lose_sum: 0.5534511804580688
time_elpased: 2.312
#iterations: 585
currently lose_sum: 0.4532932639122009
time_elpased: 2.607
#iterations: 586
currently lose_sum: 0.4981999397277832
time_elpased: 2.504
#iterations: 587
currently lose_sum: 0.5565696954727173
time_elpased: 2.633
#iterations: 588
currently lose_sum: 0.6439107656478882
time_elpased: 2.501
#iterations: 589
currently lose_sum: 0.5165886878967285
time_elpased: 2.482
#iterations: 590
currently lose_sum: 0.5866931080818176
time_elpased: 2.746
#iterations: 591
currently lose_sum: 0.7149168848991394
time_elpased: 2.501
#iterations: 592
currently lose_sum: 0.5694640278816223
time_elpased: 2.465
#iterations: 593
currently lose_sum: 0.6064738035202026
time_elpased: 2.477
#iterations: 594
currently lose_sum: 0.5454851388931274
time_elpased: 2.588
#iterations: 595
currently lose_sum: 0.6416945457458496
time_elpased: 2.483
#iterations: 596
currently lose_sum: 0.6576917767524719
time_elpased: 2.457
#iterations: 597
currently lose_sum: 0.6475868225097656
time_elpased: 2.504
#iterations: 598
currently lose_sum: 0.5428887605667114
time_elpased: 2.629
#iterations: 599
currently lose_sum: 0.5304703116416931
time_elpased: 2.494
start validation test
0.629910714286
0.623333333333
0.664888888889
0.643440860215
0.629753861485
36.473
acc: 0.623
pre: 0.646
rec: 0.550
F1: 0.594
auc: 0.623
