start to construct computing graph
graph construct over
3373
epochs start
#iterations: 0
currently lose_sum: 0.6672918200492859
time_elpased: 4.407
#iterations: 1
currently lose_sum: 0.6325235962867737
time_elpased: 4.404
#iterations: 2
currently lose_sum: 0.6204557418823242
time_elpased: 4.369
#iterations: 3
currently lose_sum: 0.712269127368927
time_elpased: 4.435
#iterations: 4
currently lose_sum: 0.6342806816101074
time_elpased: 4.875
#iterations: 5
currently lose_sum: 0.6454793214797974
time_elpased: 4.363
#iterations: 6
currently lose_sum: 0.6866402626037598
time_elpased: 4.523
#iterations: 7
currently lose_sum: 0.5551868081092834
time_elpased: 4.338
#iterations: 8
currently lose_sum: 0.6288981437683105
time_elpased: 4.897
#iterations: 9
currently lose_sum: 0.647925078868866
time_elpased: 4.336
#iterations: 10
currently lose_sum: 0.6453214883804321
time_elpased: 4.316
#iterations: 11
currently lose_sum: 0.5918234586715698
time_elpased: 4.383
#iterations: 12
currently lose_sum: 0.7349424362182617
time_elpased: 4.329
#iterations: 13
currently lose_sum: 0.6871666312217712
time_elpased: 4.333
#iterations: 14
currently lose_sum: 0.698937714099884
time_elpased: 4.298
#iterations: 15
currently lose_sum: 0.565386950969696
time_elpased: 4.329
#iterations: 16
currently lose_sum: 0.6237955093383789
time_elpased: 4.366
#iterations: 17
currently lose_sum: 0.6489936113357544
time_elpased: 4.362
#iterations: 18
currently lose_sum: 0.6588495969772339
time_elpased: 4.335
#iterations: 19
currently lose_sum: 0.6177178621292114
time_elpased: 4.337
start validation test
0.617410714286
0.605868358446
0.679715302491
0.640670859539
0.617187400349
35.776
#iterations: 20
currently lose_sum: 0.639607310295105
time_elpased: 3.365
#iterations: 21
currently lose_sum: 0.6052069067955017
time_elpased: 2.874
#iterations: 22
currently lose_sum: 0.6232897043228149
time_elpased: 2.843
#iterations: 23
currently lose_sum: 0.58219313621521
time_elpased: 2.871
#iterations: 24
currently lose_sum: 0.6571706533432007
time_elpased: 2.906
#iterations: 25
currently lose_sum: 0.666955292224884
time_elpased: 2.841
#iterations: 26
currently lose_sum: 0.5916312336921692
time_elpased: 2.885
#iterations: 27
currently lose_sum: 0.5817716717720032
time_elpased: 3.213
#iterations: 28
currently lose_sum: 0.7419658899307251
time_elpased: 2.899
#iterations: 29
currently lose_sum: 0.5558114051818848
time_elpased: 2.868
#iterations: 30
currently lose_sum: 0.6874324679374695
time_elpased: 2.94
#iterations: 31
currently lose_sum: 0.5924701690673828
time_elpased: 3.042
#iterations: 32
currently lose_sum: 0.5982953906059265
time_elpased: 2.885
#iterations: 33
currently lose_sum: 0.6340550184249878
time_elpased: 3.504
#iterations: 34
currently lose_sum: 0.6514266729354858
time_elpased: 2.88
#iterations: 35
currently lose_sum: 0.5886158347129822
time_elpased: 3.022
#iterations: 36
currently lose_sum: 0.5222371816635132
time_elpased: 2.907
#iterations: 37
currently lose_sum: 0.6165003776550293
time_elpased: 2.863
#iterations: 38
currently lose_sum: 0.4433903694152832
time_elpased: 2.847
#iterations: 39
currently lose_sum: 0.5532862544059753
time_elpased: 2.825
start validation test
0.626339285714
0.614525139665
0.685053380783
0.647875473286
0.626128840929
35.295
#iterations: 40
currently lose_sum: 0.6302701830863953
time_elpased: 2.828
#iterations: 41
currently lose_sum: 0.7031294107437134
time_elpased: 2.824
#iterations: 42
currently lose_sum: 0.6766177415847778
time_elpased: 3.157
#iterations: 43
currently lose_sum: 0.619609534740448
time_elpased: 2.958
#iterations: 44
currently lose_sum: 0.623615562915802
time_elpased: 3.074
#iterations: 45
currently lose_sum: 0.5350606441497803
time_elpased: 2.845
#iterations: 46
currently lose_sum: 0.636562705039978
time_elpased: 2.862
#iterations: 47
currently lose_sum: 0.616315484046936
time_elpased: 2.824
#iterations: 48
currently lose_sum: 0.5041561722755432
time_elpased: 2.856
#iterations: 49
currently lose_sum: 0.6355071067810059
time_elpased: 2.872
#iterations: 50
currently lose_sum: 0.6780059933662415
time_elpased: 3.019
#iterations: 51
currently lose_sum: 0.5131312608718872
time_elpased: 2.919
#iterations: 52
currently lose_sum: 0.653606653213501
time_elpased: 3.165
#iterations: 53
currently lose_sum: 0.5453171730041504
time_elpased: 2.944
#iterations: 54
currently lose_sum: 0.6727401614189148
time_elpased: 2.881
#iterations: 55
currently lose_sum: 0.5894527435302734
time_elpased: 2.977
#iterations: 56
currently lose_sum: 0.6013317108154297
time_elpased: 3.018
#iterations: 57
currently lose_sum: 0.6056848764419556
time_elpased: 2.866
#iterations: 58
currently lose_sum: 0.7041013836860657
time_elpased: 3.212
#iterations: 59
currently lose_sum: 0.532967746257782
time_elpased: 2.887
start validation test
0.639285714286
0.654901960784
0.594306049822
0.623134328358
0.639446931721
35.399
#iterations: 60
currently lose_sum: 0.6827065348625183
time_elpased: 3.033
#iterations: 61
currently lose_sum: 0.5709482431411743
time_elpased: 2.862
#iterations: 62
currently lose_sum: 0.6262006759643555
time_elpased: 2.871
#iterations: 63
currently lose_sum: 0.6103183627128601
time_elpased: 2.865
#iterations: 64
currently lose_sum: 0.6803113222122192
time_elpased: 3.116
#iterations: 65
currently lose_sum: 0.6504664421081543
time_elpased: 2.863
#iterations: 66
currently lose_sum: 0.6778095960617065
time_elpased: 2.853
#iterations: 67
currently lose_sum: 0.6752724647521973
time_elpased: 2.863
#iterations: 68
currently lose_sum: 0.6620832681655884
time_elpased: 2.818
#iterations: 69
currently lose_sum: 0.6779690980911255
time_elpased: 2.82
#iterations: 70
currently lose_sum: 0.6225857138633728
time_elpased: 2.828
#iterations: 71
currently lose_sum: 0.5381391644477844
time_elpased: 3.115
#iterations: 72
currently lose_sum: 0.4585331082344055
time_elpased: 3.114
#iterations: 73
currently lose_sum: 0.5697377920150757
time_elpased: 2.869
#iterations: 74
currently lose_sum: 0.614089846611023
time_elpased: 3.096
#iterations: 75
currently lose_sum: 0.6348524689674377
time_elpased: 2.959
#iterations: 76
currently lose_sum: 0.6398723125457764
time_elpased: 3.151
#iterations: 77
currently lose_sum: 0.6179558634757996
time_elpased: 2.928
#iterations: 78
currently lose_sum: 0.5852335691452026
time_elpased: 2.938
#iterations: 79
currently lose_sum: 0.6054953336715698
time_elpased: 2.966
start validation test
0.646875
0.666001994018
0.594306049822
0.628114715562
0.647063419176
35.229
#iterations: 80
currently lose_sum: 0.6597549319267273
time_elpased: 2.913
#iterations: 81
currently lose_sum: 0.6050098538398743
time_elpased: 2.846
#iterations: 82
currently lose_sum: 0.5973312258720398
time_elpased: 2.861
#iterations: 83
currently lose_sum: 0.7096660137176514
time_elpased: 3.012
#iterations: 84
currently lose_sum: 0.5617766380310059
time_elpased: 2.834
#iterations: 85
currently lose_sum: 0.5349222421646118
time_elpased: 2.852
#iterations: 86
currently lose_sum: 0.6246846914291382
time_elpased: 2.852
#iterations: 87
currently lose_sum: 0.5678806900978088
time_elpased: 2.917
#iterations: 88
currently lose_sum: 0.6473513841629028
time_elpased: 2.833
#iterations: 89
currently lose_sum: 0.5216599702835083
time_elpased: 2.867
#iterations: 90
currently lose_sum: 0.6305678486824036
time_elpased: 2.854
#iterations: 91
currently lose_sum: 0.5285638570785522
time_elpased: 3.194
#iterations: 92
currently lose_sum: 0.6410912275314331
time_elpased: 3.029
#iterations: 93
currently lose_sum: 0.588234543800354
time_elpased: 2.854
#iterations: 94
currently lose_sum: 0.6332329511642456
time_elpased: 2.868
#iterations: 95
currently lose_sum: 0.5796867609024048
time_elpased: 2.848
#iterations: 96
currently lose_sum: 0.5811222791671753
time_elpased: 2.832
#iterations: 97
currently lose_sum: 0.6776987314224243
time_elpased: 2.865
#iterations: 98
currently lose_sum: 0.49119749665260315
time_elpased: 3.312
#iterations: 99
currently lose_sum: 0.5457789301872253
time_elpased: 2.874
start validation test
0.632589285714
0.617303195635
0.70462633452
0.658080598255
0.632331088407
35.643
#iterations: 100
currently lose_sum: 0.5037766695022583
time_elpased: 2.862
#iterations: 101
currently lose_sum: 0.5664018392562866
time_elpased: 2.879
#iterations: 102
currently lose_sum: 0.6805510520935059
time_elpased: 2.908
#iterations: 103
currently lose_sum: 0.6351103186607361
time_elpased: 2.847
#iterations: 104
currently lose_sum: 0.7468544840812683
time_elpased: 2.836
#iterations: 105
currently lose_sum: 0.6093643307685852
time_elpased: 2.851
#iterations: 106
currently lose_sum: 0.5751776099205017
time_elpased: 2.933
#iterations: 107
currently lose_sum: 0.5797140002250671
time_elpased: 2.86
#iterations: 108
currently lose_sum: 0.6100869178771973
time_elpased: 2.866
#iterations: 109
currently lose_sum: 0.6311112642288208
time_elpased: 2.873
#iterations: 110
currently lose_sum: 0.6194037199020386
time_elpased: 3.145
#iterations: 111
currently lose_sum: 0.5203804969787598
time_elpased: 2.84
#iterations: 112
currently lose_sum: 0.5715034008026123
time_elpased: 2.883
#iterations: 113
currently lose_sum: 0.6100603342056274
time_elpased: 2.847
#iterations: 114
currently lose_sum: 0.5118648409843445
time_elpased: 2.966
#iterations: 115
currently lose_sum: 0.5568853616714478
time_elpased: 2.899
#iterations: 116
currently lose_sum: 0.6408365368843079
time_elpased: 2.876
#iterations: 117
currently lose_sum: 0.600395143032074
time_elpased: 2.861
#iterations: 118
currently lose_sum: 0.686318039894104
time_elpased: 2.906
#iterations: 119
currently lose_sum: 0.5239681601524353
time_elpased: 3.072
start validation test
0.644196428571
0.643546971027
0.652135231317
0.647812638091
0.644167974081
35.439
#iterations: 120
currently lose_sum: 0.602504312992096
time_elpased: 3.024
#iterations: 121
currently lose_sum: 0.6058985590934753
time_elpased: 3.306
#iterations: 122
currently lose_sum: 0.6051217317581177
time_elpased: 2.84
#iterations: 123
currently lose_sum: 0.6655925512313843
time_elpased: 2.854
#iterations: 124
currently lose_sum: 0.6817670464515686
time_elpased: 2.875
#iterations: 125
currently lose_sum: 0.6476604342460632
time_elpased: 2.871
#iterations: 126
currently lose_sum: 0.5579128265380859
time_elpased: 2.864
#iterations: 127
currently lose_sum: 0.6879596710205078
time_elpased: 2.865
#iterations: 128
currently lose_sum: 0.6117005348205566
time_elpased: 2.861
#iterations: 129
currently lose_sum: 0.5299628973007202
time_elpased: 2.928
#iterations: 130
currently lose_sum: 0.5954409241676331
time_elpased: 2.879
#iterations: 131
currently lose_sum: 0.5617635250091553
time_elpased: 2.872
#iterations: 132
currently lose_sum: 0.5555420517921448
time_elpased: 3.125
#iterations: 133
currently lose_sum: 0.4575279653072357
time_elpased: 2.886
#iterations: 134
currently lose_sum: 0.669695258140564
time_elpased: 3.043
#iterations: 135
currently lose_sum: 0.6170421838760376
time_elpased: 2.864
#iterations: 136
currently lose_sum: 0.5837309956550598
time_elpased: 3.076
#iterations: 137
currently lose_sum: 0.6646476984024048
time_elpased: 3.216
#iterations: 138
currently lose_sum: 0.7013605833053589
time_elpased: 2.867
#iterations: 139
currently lose_sum: 0.5778605937957764
time_elpased: 2.841
start validation test
0.633928571429
0.620634920635
0.695729537367
0.656040268456
0.63370706259
35.568
#iterations: 140
currently lose_sum: 0.5199195146560669
time_elpased: 2.86
#iterations: 141
currently lose_sum: 0.6269732713699341
time_elpased: 3.007
#iterations: 142
currently lose_sum: 0.5521144866943359
time_elpased: 2.904
#iterations: 143
currently lose_sum: 0.5384805798530579
time_elpased: 2.928
#iterations: 144
currently lose_sum: 0.6721769571304321
time_elpased: 3.288
#iterations: 145
currently lose_sum: 0.5898903012275696
time_elpased: 2.867
#iterations: 146
currently lose_sum: 0.60502028465271
time_elpased: 2.877
#iterations: 147
currently lose_sum: 0.5339456796646118
time_elpased: 2.861
#iterations: 148
currently lose_sum: 0.5901713371276855
time_elpased: 2.879
#iterations: 149
currently lose_sum: 0.6339208483695984
time_elpased: 2.888
#iterations: 150
currently lose_sum: 0.597144603729248
time_elpased: 2.909
#iterations: 151
currently lose_sum: 0.5847641229629517
time_elpased: 2.885
#iterations: 152
currently lose_sum: 0.48003706336021423
time_elpased: 3.154
#iterations: 153
currently lose_sum: 0.5995496511459351
time_elpased: 2.867
#iterations: 154
currently lose_sum: 0.6081310510635376
time_elpased: 2.838
#iterations: 155
currently lose_sum: 0.6013807058334351
time_elpased: 2.846
#iterations: 156
currently lose_sum: 0.5652146339416504
time_elpased: 2.837
#iterations: 157
currently lose_sum: 0.6220026016235352
time_elpased: 2.931
#iterations: 158
currently lose_sum: 0.5289252400398254
time_elpased: 2.906
#iterations: 159
currently lose_sum: 0.5368160009384155
time_elpased: 2.859
start validation test
0.634375
0.632493483927
0.64768683274
0.64
0.634327287338
35.426
#iterations: 160
currently lose_sum: 0.6619030237197876
time_elpased: 2.868
#iterations: 161
currently lose_sum: 0.6340059041976929
time_elpased: 2.833
#iterations: 162
currently lose_sum: 0.5593143701553345
time_elpased: 2.913
#iterations: 163
currently lose_sum: 0.527292788028717
time_elpased: 2.863
#iterations: 164
currently lose_sum: 0.6771241426467896
time_elpased: 3.011
#iterations: 165
currently lose_sum: 0.6154674291610718
time_elpased: 2.868
#iterations: 166
currently lose_sum: 0.5809960961341858
time_elpased: 3.042
#iterations: 167
currently lose_sum: 0.6650457382202148
time_elpased: 3.059
#iterations: 168
currently lose_sum: 0.6159125566482544
time_elpased: 2.915
#iterations: 169
currently lose_sum: 0.6263834834098816
time_elpased: 2.883
#iterations: 170
currently lose_sum: 0.6322484016418457
time_elpased: 2.942
#iterations: 171
currently lose_sum: 0.6651355624198914
time_elpased: 2.826
#iterations: 172
currently lose_sum: 0.5677143335342407
time_elpased: 2.967
#iterations: 173
currently lose_sum: 0.5132549405097961
time_elpased: 2.875
#iterations: 174
currently lose_sum: 0.6960932016372681
time_elpased: 2.915
#iterations: 175
currently lose_sum: 0.5849226713180542
time_elpased: 2.867
#iterations: 176
currently lose_sum: 0.5158246755599976
time_elpased: 3.077
#iterations: 177
currently lose_sum: 0.5303099155426025
time_elpased: 2.89
#iterations: 178
currently lose_sum: 0.5980246663093567
time_elpased: 2.878
#iterations: 179
currently lose_sum: 0.6002216935157776
time_elpased: 3.061
start validation test
0.637053571429
0.620077220077
0.714412811388
0.663910706904
0.636776298167
35.868
#iterations: 180
currently lose_sum: 0.688239574432373
time_elpased: 2.831
#iterations: 181
currently lose_sum: 0.5591161251068115
time_elpased: 2.841
#iterations: 182
currently lose_sum: 0.5195806622505188
time_elpased: 2.877
#iterations: 183
currently lose_sum: 0.5458358526229858
time_elpased: 3.545
#iterations: 184
currently lose_sum: 0.6145271062850952
time_elpased: 2.873
#iterations: 185
currently lose_sum: 0.5678797960281372
time_elpased: 2.836
#iterations: 186
currently lose_sum: 0.5951274633407593
time_elpased: 2.826
#iterations: 187
currently lose_sum: 0.5985331535339355
time_elpased: 2.845
#iterations: 188
currently lose_sum: 0.5250006914138794
time_elpased: 2.824
#iterations: 189
currently lose_sum: 0.5857694745063782
time_elpased: 3.017
#iterations: 190
currently lose_sum: 0.6472161412239075
time_elpased: 2.858
#iterations: 191
currently lose_sum: 0.6712902784347534
time_elpased: 2.871
#iterations: 192
currently lose_sum: 0.6805688738822937
time_elpased: 2.886
#iterations: 193
currently lose_sum: 0.48814254999160767
time_elpased: 2.853
#iterations: 194
currently lose_sum: 0.6426557302474976
time_elpased: 2.908
#iterations: 195
currently lose_sum: 0.5695263743400574
time_elpased: 2.857
#iterations: 196
currently lose_sum: 0.566889226436615
time_elpased: 2.937
#iterations: 197
currently lose_sum: 0.5273929238319397
time_elpased: 2.904
#iterations: 198
currently lose_sum: 0.5884460210800171
time_elpased: 2.899
#iterations: 199
currently lose_sum: 0.5905970335006714
time_elpased: 2.862
start validation test
0.641517857143
0.649302325581
0.620996441281
0.634834015462
0.641591410605
35.764
#iterations: 200
currently lose_sum: 0.5868367552757263
time_elpased: 2.832
#iterations: 201
currently lose_sum: 0.6041183471679688
time_elpased: 3.024
#iterations: 202
currently lose_sum: 0.5472820997238159
time_elpased: 2.945
#iterations: 203
currently lose_sum: 0.5403085947036743
time_elpased: 2.833
#iterations: 204
currently lose_sum: 0.4933431148529053
time_elpased: 2.835
#iterations: 205
currently lose_sum: 0.5861068964004517
time_elpased: 2.864
#iterations: 206
currently lose_sum: 0.5821636915206909
time_elpased: 2.835
#iterations: 207
currently lose_sum: 0.546643078327179
time_elpased: 2.844
#iterations: 208
currently lose_sum: 0.5768341422080994
time_elpased: 2.949
#iterations: 209
currently lose_sum: 0.6247969269752502
time_elpased: 2.859
#iterations: 210
currently lose_sum: 0.6491893529891968
time_elpased: 3.231
#iterations: 211
currently lose_sum: 0.5625877380371094
time_elpased: 3.181
#iterations: 212
currently lose_sum: 0.5449100732803345
time_elpased: 2.905
#iterations: 213
currently lose_sum: 0.5934280157089233
time_elpased: 2.865
#iterations: 214
currently lose_sum: 0.5395403504371643
time_elpased: 2.883
#iterations: 215
currently lose_sum: 0.5730660557746887
time_elpased: 2.901
#iterations: 216
currently lose_sum: 0.6423572301864624
time_elpased: 2.823
#iterations: 217
currently lose_sum: 0.5428319573402405
time_elpased: 2.859
#iterations: 218
currently lose_sum: 0.522053062915802
time_elpased: 2.843
#iterations: 219
currently lose_sum: 0.6010991334915161
time_elpased: 2.923
start validation test
0.630803571429
0.623236514523
0.668149466192
0.64491197939
0.630669715175
36.114
#iterations: 220
currently lose_sum: 0.6180194616317749
time_elpased: 2.913
#iterations: 221
currently lose_sum: 0.4958040118217468
time_elpased: 2.989
#iterations: 222
currently lose_sum: 0.47807225584983826
time_elpased: 3.057
#iterations: 223
currently lose_sum: 0.6738510727882385
time_elpased: 2.859
#iterations: 224
currently lose_sum: 0.5806721448898315
time_elpased: 3.087
#iterations: 225
currently lose_sum: 0.5499192476272583
time_elpased: 2.877
#iterations: 226
currently lose_sum: 0.541988730430603
time_elpased: 2.862
#iterations: 227
currently lose_sum: 0.6014996767044067
time_elpased: 2.858
#iterations: 228
currently lose_sum: 0.6045777201652527
time_elpased: 2.879
#iterations: 229
currently lose_sum: 0.4910202920436859
time_elpased: 2.866
#iterations: 230
currently lose_sum: 0.5038779377937317
time_elpased: 2.866
#iterations: 231
currently lose_sum: 0.6016133427619934
time_elpased: 2.863
#iterations: 232
currently lose_sum: 0.6250711679458618
time_elpased: 2.948
#iterations: 233
currently lose_sum: 0.6126378774642944
time_elpased: 2.933
#iterations: 234
currently lose_sum: 0.5502804517745972
time_elpased: 2.955
#iterations: 235
currently lose_sum: 0.6033395528793335
time_elpased: 2.879
#iterations: 236
currently lose_sum: 0.46049752831459045
time_elpased: 2.92
#iterations: 237
currently lose_sum: 0.6659974455833435
time_elpased: 3.105
#iterations: 238
currently lose_sum: 0.5769538879394531
time_elpased: 2.926
#iterations: 239
currently lose_sum: 0.6158474683761597
time_elpased: 2.894
start validation test
0.630803571429
0.618705035971
0.688612099644
0.651789473684
0.630596372403
36.143
#iterations: 240
currently lose_sum: 0.5600431561470032
time_elpased: 2.908
#iterations: 241
currently lose_sum: 0.5515123605728149
time_elpased: 3.0
#iterations: 242
currently lose_sum: 0.557226300239563
time_elpased: 2.89
#iterations: 243
currently lose_sum: 0.5283900499343872
time_elpased: 2.91
#iterations: 244
currently lose_sum: 0.548012912273407
time_elpased: 2.866
#iterations: 245
currently lose_sum: 0.5383235812187195
time_elpased: 2.952
#iterations: 246
currently lose_sum: 0.5989378690719604
time_elpased: 3.089
#iterations: 247
currently lose_sum: 0.5802519917488098
time_elpased: 3.106
#iterations: 248
currently lose_sum: 0.6157474517822266
time_elpased: 3.006
#iterations: 249
currently lose_sum: 0.7296227216720581
time_elpased: 2.859
#iterations: 250
currently lose_sum: 0.7346181273460388
time_elpased: 3.044
#iterations: 251
currently lose_sum: 0.6392615437507629
time_elpased: 2.944
#iterations: 252
currently lose_sum: 0.6553924679756165
time_elpased: 2.948
#iterations: 253
currently lose_sum: 0.6315550804138184
time_elpased: 2.929
#iterations: 254
currently lose_sum: 0.6255558133125305
time_elpased: 3.348
#iterations: 255
currently lose_sum: 0.5447295308113098
time_elpased: 2.855
#iterations: 256
currently lose_sum: 0.5041433572769165
time_elpased: 2.875
#iterations: 257
currently lose_sum: 0.6311060190200806
time_elpased: 2.932
#iterations: 258
currently lose_sum: 0.5659890174865723
time_elpased: 2.903
#iterations: 259
currently lose_sum: 0.5987160801887512
time_elpased: 2.894
start validation test
0.637946428571
0.624305003971
0.699288256228
0.659672681494
0.63772656539
36.055
#iterations: 260
currently lose_sum: 0.6958198547363281
time_elpased: 3.17
#iterations: 261
currently lose_sum: 0.5609087944030762
time_elpased: 2.876
#iterations: 262
currently lose_sum: 0.6486119031906128
time_elpased: 3.067
#iterations: 263
currently lose_sum: 0.5249142646789551
time_elpased: 2.933
#iterations: 264
currently lose_sum: 0.6272746324539185
time_elpased: 2.856
#iterations: 265
currently lose_sum: 0.6970227360725403
time_elpased: 2.861
#iterations: 266
currently lose_sum: 0.5130447745323181
time_elpased: 2.943
#iterations: 267
currently lose_sum: 0.5894732475280762
time_elpased: 2.825
#iterations: 268
currently lose_sum: 0.490422785282135
time_elpased: 2.818
#iterations: 269
currently lose_sum: 0.5908830761909485
time_elpased: 2.85
#iterations: 270
currently lose_sum: 0.6547881364822388
time_elpased: 3.117
#iterations: 271
currently lose_sum: 0.48933106660842896
time_elpased: 2.852
#iterations: 272
currently lose_sum: 0.5776923298835754
time_elpased: 2.837
#iterations: 273
currently lose_sum: 0.5600247383117676
time_elpased: 2.868
#iterations: 274
currently lose_sum: 0.5970235466957092
time_elpased: 3.326
#iterations: 275
currently lose_sum: 0.5950654149055481
time_elpased: 2.886
#iterations: 276
currently lose_sum: 0.5939540266990662
time_elpased: 2.826
#iterations: 277
currently lose_sum: 0.7758724689483643
time_elpased: 2.809
#iterations: 278
currently lose_sum: 0.5360787510871887
time_elpased: 2.933
#iterations: 279
currently lose_sum: 0.6170244216918945
time_elpased: 3.519
start validation test
0.645982142857
0.64353859497
0.660142348754
0.651734738691
0.645931389431
36.361
#iterations: 280
currently lose_sum: 0.5176042318344116
time_elpased: 2.872
#iterations: 281
currently lose_sum: 0.6096409559249878
time_elpased: 2.862
#iterations: 282
currently lose_sum: 0.6211680769920349
time_elpased: 2.835
#iterations: 283
currently lose_sum: 0.6854838132858276
time_elpased: 3.504
#iterations: 284
currently lose_sum: 0.5475890040397644
time_elpased: 2.944
#iterations: 285
currently lose_sum: 0.5063284635543823
time_elpased: 3.072
#iterations: 286
currently lose_sum: 0.5688548684120178
time_elpased: 2.981
#iterations: 287
currently lose_sum: 0.5827898383140564
time_elpased: 2.906
#iterations: 288
currently lose_sum: 0.7478797435760498
time_elpased: 2.896
#iterations: 289
currently lose_sum: 0.6848253011703491
time_elpased: 2.869
#iterations: 290
currently lose_sum: 0.5862826108932495
time_elpased: 2.913
#iterations: 291
currently lose_sum: 0.6304343938827515
time_elpased: 3.062
#iterations: 292
currently lose_sum: 0.6485279202461243
time_elpased: 3.232
#iterations: 293
currently lose_sum: 0.5511606335639954
time_elpased: 2.923
#iterations: 294
currently lose_sum: 0.6278325319290161
time_elpased: 2.88
#iterations: 295
currently lose_sum: 0.5073214769363403
time_elpased: 3.459
#iterations: 296
currently lose_sum: 0.6072809100151062
time_elpased: 3.326
#iterations: 297
currently lose_sum: 0.621399998664856
time_elpased: 2.971
#iterations: 298
currently lose_sum: 0.5890273451805115
time_elpased: 2.888
#iterations: 299
currently lose_sum: 0.5003272891044617
time_elpased: 2.923
start validation test
0.642857142857
0.644128113879
0.644128113879
0.644128113879
0.642852587405
36.384
#iterations: 300
currently lose_sum: 0.684138298034668
time_elpased: 2.913
#iterations: 301
currently lose_sum: 0.5694390535354614
time_elpased: 2.904
#iterations: 302
currently lose_sum: 0.649532675743103
time_elpased: 3.136
#iterations: 303
currently lose_sum: 0.5465549826622009
time_elpased: 2.883
#iterations: 304
currently lose_sum: 0.5864852666854858
time_elpased: 2.897
#iterations: 305
currently lose_sum: 0.4443722367286682
time_elpased: 2.888
#iterations: 306
currently lose_sum: 0.6280003786087036
time_elpased: 3.035
#iterations: 307
currently lose_sum: 0.4946555495262146
time_elpased: 2.931
#iterations: 308
currently lose_sum: 0.5152052640914917
time_elpased: 2.931
#iterations: 309
currently lose_sum: 0.6758955717086792
time_elpased: 2.888
#iterations: 310
currently lose_sum: 0.5398316383361816
time_elpased: 3.334
#iterations: 311
currently lose_sum: 0.5109356045722961
time_elpased: 2.932
#iterations: 312
currently lose_sum: 0.5409321784973145
time_elpased: 3.216
#iterations: 313
currently lose_sum: 0.5332723259925842
time_elpased: 2.905
#iterations: 314
currently lose_sum: 0.568956196308136
time_elpased: 2.914
#iterations: 315
currently lose_sum: 0.5385804772377014
time_elpased: 3.058
#iterations: 316
currently lose_sum: 0.5490165948867798
time_elpased: 3.073
#iterations: 317
currently lose_sum: 0.5667976140975952
time_elpased: 3.168
#iterations: 318
currently lose_sum: 0.5551734566688538
time_elpased: 2.911
#iterations: 319
currently lose_sum: 0.5261523723602295
time_elpased: 2.9
start validation test
0.638839285714
0.644362969753
0.625444839858
0.634762979684
0.638887294481
36.675
#iterations: 320
currently lose_sum: 0.5518604516983032
time_elpased: 2.964
#iterations: 321
currently lose_sum: 0.6016761064529419
time_elpased: 3.147
#iterations: 322
currently lose_sum: 0.549757182598114
time_elpased: 2.908
#iterations: 323
currently lose_sum: 0.6320683360099792
time_elpased: 2.921
#iterations: 324
currently lose_sum: 0.4872424006462097
time_elpased: 2.921
#iterations: 325
currently lose_sum: 0.5804753303527832
time_elpased: 2.952
#iterations: 326
currently lose_sum: 0.6383249163627625
time_elpased: 3.124
#iterations: 327
currently lose_sum: 0.6203280687332153
time_elpased: 2.909
#iterations: 328
currently lose_sum: 0.5885841250419617
time_elpased: 3.084
#iterations: 329
currently lose_sum: 0.5849372744560242
time_elpased: 3.256
#iterations: 330
currently lose_sum: 0.7148857116699219
time_elpased: 2.92
#iterations: 331
currently lose_sum: 0.5552443265914917
time_elpased: 2.958
#iterations: 332
currently lose_sum: 0.4646807610988617
time_elpased: 3.125
#iterations: 333
currently lose_sum: 0.6178750991821289
time_elpased: 2.934
#iterations: 334
currently lose_sum: 0.5529822111129761
time_elpased: 2.916
#iterations: 335
currently lose_sum: 0.5371231436729431
time_elpased: 2.94
#iterations: 336
currently lose_sum: 0.4884551465511322
time_elpased: 2.918
#iterations: 337
currently lose_sum: 0.43197306990623474
time_elpased: 2.915
#iterations: 338
currently lose_sum: 0.5600544214248657
time_elpased: 2.931
#iterations: 339
currently lose_sum: 0.5508105158805847
time_elpased: 3.177
start validation test
0.633035714286
0.62216828479
0.684163701068
0.651694915254
0.632852459853
36.473
#iterations: 340
currently lose_sum: 0.6519830822944641
time_elpased: 2.911
#iterations: 341
currently lose_sum: 0.59755539894104
time_elpased: 3.114
#iterations: 342
currently lose_sum: 0.6174752116203308
time_elpased: 2.954
#iterations: 343
currently lose_sum: 0.6663699150085449
time_elpased: 2.95
#iterations: 344
currently lose_sum: 0.6672055721282959
time_elpased: 2.926
#iterations: 345
currently lose_sum: 0.5654283761978149
time_elpased: 2.9
#iterations: 346
currently lose_sum: 0.5266535878181458
time_elpased: 3.104
#iterations: 347
currently lose_sum: 0.556754469871521
time_elpased: 3.128
#iterations: 348
currently lose_sum: 0.5586137771606445
time_elpased: 2.946
#iterations: 349
currently lose_sum: 0.6501990556716919
time_elpased: 2.89
#iterations: 350
currently lose_sum: 0.6200870275497437
time_elpased: 2.909
#iterations: 351
currently lose_sum: 0.6335362195968628
time_elpased: 2.907
#iterations: 352
currently lose_sum: 0.6542098522186279
time_elpased: 3.069
#iterations: 353
currently lose_sum: 0.6190522909164429
time_elpased: 3.022
#iterations: 354
currently lose_sum: 0.5744084119796753
time_elpased: 3.01
#iterations: 355
currently lose_sum: 0.6222588419914246
time_elpased: 2.902
#iterations: 356
currently lose_sum: 0.552201509475708
time_elpased: 2.913
#iterations: 357
currently lose_sum: 0.6252169609069824
time_elpased: 2.961
#iterations: 358
currently lose_sum: 0.61344975233078
time_elpased: 2.943
#iterations: 359
currently lose_sum: 0.640489399433136
time_elpased: 3.081
start validation test
0.633928571429
0.621405750799
0.692170818505
0.654882154882
0.633719817855
36.658
#iterations: 360
currently lose_sum: 0.5751193761825562
time_elpased: 3.229
#iterations: 361
currently lose_sum: 0.5167309045791626
time_elpased: 2.948
#iterations: 362
currently lose_sum: 0.6180335879325867
time_elpased: 2.896
#iterations: 363
currently lose_sum: 0.5519997477531433
time_elpased: 2.934
#iterations: 364
currently lose_sum: 0.6694692373275757
time_elpased: 2.927
#iterations: 365
currently lose_sum: 0.5215805172920227
time_elpased: 2.896
#iterations: 366
currently lose_sum: 0.6488555669784546
time_elpased: 2.963
#iterations: 367
currently lose_sum: 0.49566221237182617
time_elpased: 2.923
#iterations: 368
currently lose_sum: 0.5797995328903198
time_elpased: 3.037
#iterations: 369
currently lose_sum: 0.5710721015930176
time_elpased: 2.891
#iterations: 370
currently lose_sum: 0.6860445141792297
time_elpased: 2.894
#iterations: 371
currently lose_sum: 0.5055128931999207
time_elpased: 2.94
#iterations: 372
currently lose_sum: 0.6218031048774719
time_elpased: 2.88
#iterations: 373
currently lose_sum: 0.556717038154602
time_elpased: 2.886
#iterations: 374
currently lose_sum: 0.5635403394699097
time_elpased: 2.911
#iterations: 375
currently lose_sum: 0.6599008440971375
time_elpased: 2.939
#iterations: 376
currently lose_sum: 0.6301867365837097
time_elpased: 2.893
#iterations: 377
currently lose_sum: 0.5146774053573608
time_elpased: 2.913
#iterations: 378
currently lose_sum: 0.5513469576835632
time_elpased: 2.964
#iterations: 379
currently lose_sum: 0.563725471496582
time_elpased: 2.94
start validation test
0.641964285714
0.651886792453
0.614768683274
0.632783882784
0.642061760992
36.551
#iterations: 380
currently lose_sum: 0.5616992712020874
time_elpased: 3.102
#iterations: 381
currently lose_sum: 0.5593751668930054
time_elpased: 2.938
#iterations: 382
currently lose_sum: 0.6770749092102051
time_elpased: 2.99
#iterations: 383
currently lose_sum: 0.541619598865509
time_elpased: 2.984
#iterations: 384
currently lose_sum: 0.5929706692695618
time_elpased: 2.925
#iterations: 385
currently lose_sum: 0.5610852241516113
time_elpased: 2.916
#iterations: 386
currently lose_sum: 0.5249289274215698
time_elpased: 2.905
#iterations: 387
currently lose_sum: 0.5809727311134338
time_elpased: 3.151
#iterations: 388
currently lose_sum: 0.5658139586448669
time_elpased: 2.962
#iterations: 389
currently lose_sum: 0.6235211491584778
time_elpased: 3.059
#iterations: 390
currently lose_sum: 0.4936862885951996
time_elpased: 3.112
#iterations: 391
currently lose_sum: 0.6214154958724976
time_elpased: 2.936
#iterations: 392
currently lose_sum: 0.6001874208450317
time_elpased: 2.918
#iterations: 393
currently lose_sum: 0.6335503458976746
time_elpased: 3.094
#iterations: 394
currently lose_sum: 0.4991787075996399
time_elpased: 2.916
#iterations: 395
currently lose_sum: 0.6313618421554565
time_elpased: 3.051
#iterations: 396
currently lose_sum: 0.5712343454360962
time_elpased: 2.945
#iterations: 397
currently lose_sum: 0.6107052564620972
time_elpased: 2.929
#iterations: 398
currently lose_sum: 0.5477755069732666
time_elpased: 3.05
#iterations: 399
currently lose_sum: 0.5148665308952332
time_elpased: 2.878
start validation test
0.636160714286
0.624096385542
0.69128113879
0.655972984382
0.63596315004
36.565
#iterations: 400
currently lose_sum: 0.5707699060440063
time_elpased: 2.895
#iterations: 401
currently lose_sum: 0.6213390231132507
time_elpased: 2.887
#iterations: 402
currently lose_sum: 0.6206718683242798
time_elpased: 3.056
#iterations: 403
currently lose_sum: 0.5677186250686646
time_elpased: 2.919
#iterations: 404
currently lose_sum: 0.5097254514694214
time_elpased: 2.87
#iterations: 405
currently lose_sum: 0.5661578178405762
time_elpased: 3.253
#iterations: 406
currently lose_sum: 0.7528272271156311
time_elpased: 3.016
#iterations: 407
currently lose_sum: 0.5533581972122192
time_elpased: 2.93
#iterations: 408
currently lose_sum: 0.5242437124252319
time_elpased: 2.908
#iterations: 409
currently lose_sum: 0.5414000153541565
time_elpased: 2.887
#iterations: 410
currently lose_sum: 0.4956633448600769
time_elpased: 2.92
#iterations: 411
currently lose_sum: 0.5251877903938293
time_elpased: 2.913
#iterations: 412
currently lose_sum: 0.5417643785476685
time_elpased: 2.934
#iterations: 413
currently lose_sum: 0.5480133295059204
time_elpased: 2.907
#iterations: 414
currently lose_sum: 0.6223311424255371
time_elpased: 2.94
#iterations: 415
currently lose_sum: 0.619770884513855
time_elpased: 2.918
#iterations: 416
currently lose_sum: 0.6473641991615295
time_elpased: 2.886
#iterations: 417
currently lose_sum: 0.5627007484436035
time_elpased: 2.896
#iterations: 418
currently lose_sum: 0.5105098485946655
time_elpased: 2.955
#iterations: 419
currently lose_sum: 0.5583215951919556
time_elpased: 2.895
start validation test
0.636160714286
0.620046620047
0.709964412811
0.661965989216
0.6358961849
36.674
#iterations: 420
currently lose_sum: 0.528396487236023
time_elpased: 2.928
#iterations: 421
currently lose_sum: 0.5590068101882935
time_elpased: 2.88
#iterations: 422
currently lose_sum: 0.6074583530426025
time_elpased: 2.908
#iterations: 423
currently lose_sum: 0.6317318677902222
time_elpased: 2.896
#iterations: 424
currently lose_sum: 0.7205955982208252
time_elpased: 2.861
#iterations: 425
currently lose_sum: 0.554608941078186
time_elpased: 2.936
#iterations: 426
currently lose_sum: 0.5857666730880737
time_elpased: 2.859
#iterations: 427
currently lose_sum: 0.611953616142273
time_elpased: 2.877
#iterations: 428
currently lose_sum: 0.5460292100906372
time_elpased: 3.05
#iterations: 429
currently lose_sum: 0.5920424461364746
time_elpased: 2.872
#iterations: 430
currently lose_sum: 0.5980380773544312
time_elpased: 2.877
#iterations: 431
currently lose_sum: 0.6591607332229614
time_elpased: 3.077
#iterations: 432
currently lose_sum: 0.7418462038040161
time_elpased: 3.03
#iterations: 433
currently lose_sum: 0.6349603533744812
time_elpased: 2.896
#iterations: 434
currently lose_sum: 0.6515412330627441
time_elpased: 3.102
#iterations: 435
currently lose_sum: 0.5732990503311157
time_elpased: 3.391
#iterations: 436
currently lose_sum: 0.49061155319213867
time_elpased: 2.935
#iterations: 437
currently lose_sum: 0.6292210817337036
time_elpased: 3.002
#iterations: 438
currently lose_sum: 0.6469972133636475
time_elpased: 3.012
#iterations: 439
currently lose_sum: 0.5892577171325684
time_elpased: 2.905
start validation test
0.634375
0.620363062352
0.699288256228
0.657465495609
0.634142335999
36.749
#iterations: 440
currently lose_sum: 0.671423077583313
time_elpased: 2.914
#iterations: 441
currently lose_sum: 0.5676853656768799
time_elpased: 2.888
#iterations: 442
currently lose_sum: 0.6393128037452698
time_elpased: 2.88
#iterations: 443
currently lose_sum: 0.6178653836250305
time_elpased: 2.871
#iterations: 444
currently lose_sum: 0.4730602204799652
time_elpased: 2.971
#iterations: 445
currently lose_sum: 0.5831376314163208
time_elpased: 3.281
#iterations: 446
currently lose_sum: 0.5516389012336731
time_elpased: 2.962
#iterations: 447
currently lose_sum: 0.6321664452552795
time_elpased: 2.872
#iterations: 448
currently lose_sum: 0.5229259133338928
time_elpased: 2.874
#iterations: 449
currently lose_sum: 0.5171679258346558
time_elpased: 2.863
#iterations: 450
currently lose_sum: 0.6627095937728882
time_elpased: 2.873
#iterations: 451
currently lose_sum: 0.5123467445373535
time_elpased: 2.884
#iterations: 452
currently lose_sum: 0.5158873796463013
time_elpased: 2.907
#iterations: 453
currently lose_sum: 0.7067143321037292
time_elpased: 2.97
#iterations: 454
currently lose_sum: 0.5608118176460266
time_elpased: 3.158
#iterations: 455
currently lose_sum: 0.46026507019996643
time_elpased: 2.898
#iterations: 456
currently lose_sum: 0.5898205041885376
time_elpased: 3.072
#iterations: 457
currently lose_sum: 0.5438550710678101
time_elpased: 2.899
#iterations: 458
currently lose_sum: 0.5595667958259583
time_elpased: 2.92
#iterations: 459
currently lose_sum: 0.5453779101371765
time_elpased: 3.047
start validation test
0.632589285714
0.620496397118
0.689501779359
0.653181626633
0.632385298282
36.686
#iterations: 460
currently lose_sum: 0.6732646226882935
time_elpased: 2.869
#iterations: 461
currently lose_sum: 0.533857524394989
time_elpased: 2.928
#iterations: 462
currently lose_sum: 0.5499588847160339
time_elpased: 2.899
#iterations: 463
currently lose_sum: 0.6119140386581421
time_elpased: 3.22
#iterations: 464
currently lose_sum: 0.6200700998306274
time_elpased: 2.911
#iterations: 465
currently lose_sum: 0.7054177522659302
time_elpased: 2.847
#iterations: 466
currently lose_sum: 0.4859161972999573
time_elpased: 2.952
#iterations: 467
currently lose_sum: 0.603922963142395
time_elpased: 2.903
#iterations: 468
currently lose_sum: 0.46636533737182617
time_elpased: 2.949
#iterations: 469
currently lose_sum: 0.6750863790512085
time_elpased: 3.207
#iterations: 470
currently lose_sum: 0.7108821272850037
time_elpased: 2.908
#iterations: 471
currently lose_sum: 0.4991481900215149
time_elpased: 2.935
#iterations: 472
currently lose_sum: 0.5721536874771118
time_elpased: 2.9
#iterations: 473
currently lose_sum: 0.6352640986442566
time_elpased: 2.909
#iterations: 474
currently lose_sum: 0.519350528717041
time_elpased: 2.874
#iterations: 475
currently lose_sum: 0.5506693124771118
time_elpased: 3.363
#iterations: 476
currently lose_sum: 0.6348418593406677
time_elpased: 2.939
#iterations: 477
currently lose_sum: 0.619999349117279
time_elpased: 2.873
#iterations: 478
currently lose_sum: 0.5829674005508423
time_elpased: 2.914
#iterations: 479
currently lose_sum: 0.5264511704444885
time_elpased: 2.872
start validation test
0.639732142857
0.643438914027
0.63256227758
0.637954239569
0.639757841299
36.842
#iterations: 480
currently lose_sum: 0.5367444157600403
time_elpased: 3.185
#iterations: 481
currently lose_sum: 0.6425377130508423
time_elpased: 2.856
#iterations: 482
currently lose_sum: 0.5414831638336182
time_elpased: 2.893
#iterations: 483
currently lose_sum: 0.6121894717216492
time_elpased: 2.915
#iterations: 484
currently lose_sum: 0.5760794281959534
time_elpased: 2.9
#iterations: 485
currently lose_sum: 0.6278263926506042
time_elpased: 2.925
#iterations: 486
currently lose_sum: 0.5803393125534058
time_elpased: 2.859
#iterations: 487
currently lose_sum: 0.4885067045688629
time_elpased: 2.914
#iterations: 488
currently lose_sum: 0.5489190220832825
time_elpased: 2.851
#iterations: 489
currently lose_sum: 0.5493680834770203
time_elpased: 2.861
#iterations: 490
currently lose_sum: 0.6208139657974243
time_elpased: 2.868
#iterations: 491
currently lose_sum: 0.5597002506256104
time_elpased: 2.854
#iterations: 492
currently lose_sum: 0.6615732908248901
time_elpased: 2.92
#iterations: 493
currently lose_sum: 0.5932965874671936
time_elpased: 2.877
#iterations: 494
currently lose_sum: 0.6018072962760925
time_elpased: 2.858
#iterations: 495
currently lose_sum: 0.5986358523368835
time_elpased: 2.877
#iterations: 496
currently lose_sum: 0.6065211296081543
time_elpased: 2.891
#iterations: 497
currently lose_sum: 0.5835011005401611
time_elpased: 2.966
#iterations: 498
currently lose_sum: 0.6152485609054565
time_elpased: 2.926
#iterations: 499
currently lose_sum: 0.5588021278381348
time_elpased: 2.869
start validation test
0.634821428571
0.621044303797
0.698398576512
0.657453936348
0.634593553489
36.895
#iterations: 500
currently lose_sum: 0.7048906087875366
time_elpased: 2.912
#iterations: 501
currently lose_sum: 0.595710277557373
time_elpased: 2.877
#iterations: 502
currently lose_sum: 0.5279214978218079
time_elpased: 2.932
#iterations: 503
currently lose_sum: 0.7548974752426147
time_elpased: 2.916
#iterations: 504
currently lose_sum: 0.7331207394599915
time_elpased: 2.902
#iterations: 505
currently lose_sum: 0.5868533849716187
time_elpased: 2.888
#iterations: 506
currently lose_sum: 0.5429234504699707
time_elpased: 3.341
#iterations: 507
currently lose_sum: 0.6299218535423279
time_elpased: 2.888
#iterations: 508
currently lose_sum: 0.5230041742324829
time_elpased: 2.875
#iterations: 509
currently lose_sum: 0.6222801804542542
time_elpased: 2.877
#iterations: 510
currently lose_sum: 0.6265326738357544
time_elpased: 2.867
#iterations: 511
currently lose_sum: 0.5442802906036377
time_elpased: 2.949
#iterations: 512
currently lose_sum: 0.6391163468360901
time_elpased: 2.941
#iterations: 513
currently lose_sum: 0.6061991453170776
time_elpased: 2.887
#iterations: 514
currently lose_sum: 0.5252969861030579
time_elpased: 2.91
#iterations: 515
currently lose_sum: 0.5662001371383667
time_elpased: 3.013
#iterations: 516
currently lose_sum: 0.5972409248352051
time_elpased: 2.913
#iterations: 517
currently lose_sum: 0.57656329870224
time_elpased: 2.904
#iterations: 518
currently lose_sum: 0.6058558225631714
time_elpased: 2.932
#iterations: 519
currently lose_sum: 0.5892536044120789
time_elpased: 2.877
start validation test
0.635714285714
0.62125984252
0.701957295374
0.659147869674
0.635476855572
37.040
#iterations: 520
currently lose_sum: 0.5837031006813049
time_elpased: 3.394
#iterations: 521
currently lose_sum: 0.7089462280273438
time_elpased: 3.314
#iterations: 522
currently lose_sum: 0.5491148233413696
time_elpased: 2.921
#iterations: 523
currently lose_sum: 0.5929912328720093
time_elpased: 2.938
#iterations: 524
currently lose_sum: 0.4316914677619934
time_elpased: 3.073
#iterations: 525
currently lose_sum: 0.5777305364608765
time_elpased: 2.938
#iterations: 526
currently lose_sum: 0.6610546112060547
time_elpased: 3.124
#iterations: 527
currently lose_sum: 0.625514030456543
time_elpased: 2.911
#iterations: 528
currently lose_sum: 0.6721872091293335
time_elpased: 2.93
#iterations: 529
currently lose_sum: 0.5750502347946167
time_elpased: 2.952
#iterations: 530
currently lose_sum: 0.47829094529151917
time_elpased: 2.98
#iterations: 531
currently lose_sum: 0.5991576910018921
time_elpased: 2.982
#iterations: 532
currently lose_sum: 0.5176421403884888
time_elpased: 3.407
#iterations: 533
currently lose_sum: 0.5945422649383545
time_elpased: 2.959
#iterations: 534
currently lose_sum: 0.744128406047821
time_elpased: 2.925
#iterations: 535
currently lose_sum: 0.5871742367744446
time_elpased: 2.936
#iterations: 536
currently lose_sum: 0.6850094795227051
time_elpased: 3.013
#iterations: 537
currently lose_sum: 0.6217145919799805
time_elpased: 2.954
#iterations: 538
currently lose_sum: 0.6557554006576538
time_elpased: 3.405
#iterations: 539
currently lose_sum: 0.6943522691726685
time_elpased: 2.928
start validation test
0.629464285714
0.617038216561
0.689501779359
0.651260504202
0.629249097565
37.139
#iterations: 540
currently lose_sum: 0.6778344511985779
time_elpased: 2.947
#iterations: 541
currently lose_sum: 0.602152943611145
time_elpased: 3.143
#iterations: 542
currently lose_sum: 0.5952737331390381
time_elpased: 2.976
#iterations: 543
currently lose_sum: 0.7246799468994141
time_elpased: 2.944
#iterations: 544
currently lose_sum: 0.6215977072715759
time_elpased: 2.917
#iterations: 545
currently lose_sum: 0.5802046656608582
time_elpased: 3.21
#iterations: 546
currently lose_sum: 0.6095526814460754
time_elpased: 2.978
#iterations: 547
currently lose_sum: 0.659909725189209
time_elpased: 3.335
#iterations: 548
currently lose_sum: 0.551616370677948
time_elpased: 2.882
#iterations: 549
currently lose_sum: 0.5148743391036987
time_elpased: 2.866
#iterations: 550
currently lose_sum: 0.6877883672714233
time_elpased: 2.887
#iterations: 551
currently lose_sum: 0.5337554216384888
time_elpased: 2.893
#iterations: 552
currently lose_sum: 0.639245331287384
time_elpased: 2.907
#iterations: 553
currently lose_sum: 0.6471480131149292
time_elpased: 2.925
#iterations: 554
currently lose_sum: 0.5581713914871216
time_elpased: 2.926
#iterations: 555
currently lose_sum: 0.5089824795722961
time_elpased: 2.942
#iterations: 556
currently lose_sum: 0.5495453476905823
time_elpased: 2.9
#iterations: 557
currently lose_sum: 0.5172508358955383
time_elpased: 2.922
#iterations: 558
currently lose_sum: 0.5924502611160278
time_elpased: 2.966
#iterations: 559
currently lose_sum: 0.555709183216095
time_elpased: 2.95
start validation test
0.641517857143
0.639930252833
0.653024911032
0.646411272567
0.641476613222
37.068
#iterations: 560
currently lose_sum: 0.5578922033309937
time_elpased: 2.892
#iterations: 561
currently lose_sum: 0.6023491024971008
time_elpased: 2.859
#iterations: 562
currently lose_sum: 0.6164947152137756
time_elpased: 2.882
#iterations: 563
currently lose_sum: 0.5400813817977905
time_elpased: 2.848
#iterations: 564
currently lose_sum: 0.5175842046737671
time_elpased: 2.859
#iterations: 565
currently lose_sum: 0.6744149923324585
time_elpased: 2.919
#iterations: 566
currently lose_sum: 0.6211786866188049
time_elpased: 2.868
#iterations: 567
currently lose_sum: 0.5245838761329651
time_elpased: 3.089
#iterations: 568
currently lose_sum: 0.5405867695808411
time_elpased: 2.905
#iterations: 569
currently lose_sum: 0.4350624084472656
time_elpased: 3.041
#iterations: 570
currently lose_sum: 0.5445537567138672
time_elpased: 2.935
#iterations: 571
currently lose_sum: 0.5042257905006409
time_elpased: 3.322
#iterations: 572
currently lose_sum: 0.5852673649787903
time_elpased: 3.251
#iterations: 573
currently lose_sum: 0.5373530983924866
time_elpased: 2.879
#iterations: 574
currently lose_sum: 0.6031177043914795
time_elpased: 2.888
#iterations: 575
currently lose_sum: 0.6122729778289795
time_elpased: 3.156
#iterations: 576
currently lose_sum: 0.5647484660148621
time_elpased: 2.903
#iterations: 577
currently lose_sum: 0.5775061845779419
time_elpased: 3.29
#iterations: 578
currently lose_sum: 0.5545204877853394
time_elpased: 3.08
#iterations: 579
currently lose_sum: 0.6412439346313477
time_elpased: 3.054
start validation test
0.634375
0.617942768755
0.710854092527
0.661150186181
0.634100881389
37.185
#iterations: 580
currently lose_sum: 0.6023484468460083
time_elpased: 2.867
#iterations: 581
currently lose_sum: 0.6895798444747925
time_elpased: 2.826
#iterations: 582
currently lose_sum: 0.5915407538414001
time_elpased: 2.853
#iterations: 583
currently lose_sum: 0.6403891444206238
time_elpased: 2.859
#iterations: 584
currently lose_sum: 0.4357861578464508
time_elpased: 2.984
#iterations: 585
currently lose_sum: 0.5792033076286316
time_elpased: 2.885
#iterations: 586
currently lose_sum: 0.6197089552879333
time_elpased: 2.908
#iterations: 587
currently lose_sum: 0.5781122446060181
time_elpased: 3.356
#iterations: 588
currently lose_sum: 0.5522071719169617
time_elpased: 2.912
#iterations: 589
currently lose_sum: 0.6615386009216309
time_elpased: 3.206
#iterations: 590
currently lose_sum: 0.43233948945999146
time_elpased: 3.645
#iterations: 591
currently lose_sum: 0.7048693895339966
time_elpased: 3.241
#iterations: 592
currently lose_sum: 0.4742698669433594
time_elpased: 2.91
#iterations: 593
currently lose_sum: 0.5981691479682922
time_elpased: 2.899
#iterations: 594
currently lose_sum: 0.5058128833770752
time_elpased: 2.887
#iterations: 595
currently lose_sum: 0.5614693760871887
time_elpased: 2.906
#iterations: 596
currently lose_sum: 0.6043344736099243
time_elpased: 2.933
#iterations: 597
currently lose_sum: 0.6514808535575867
time_elpased: 2.914
#iterations: 598
currently lose_sum: 0.5683087110519409
time_elpased: 2.892
#iterations: 599
currently lose_sum: 0.5861051678657532
time_elpased: 2.895
start validation test
0.641071428571
0.6393728223
0.653024911032
0.646126760563
0.641028584548
37.181
acc: 0.636
pre: 0.654
rec: 0.583
F1: 0.616
auc: 0.636
