start to construct computing graph
graph construct over
3372
epochs start
#iterations: 0
currently lose_sum: 0.6950567364692688
time_elpased: 3.481
#iterations: 1
currently lose_sum: 0.7187287211418152
time_elpased: 3.371
#iterations: 2
currently lose_sum: 0.7444184422492981
time_elpased: 3.411
#iterations: 3
currently lose_sum: 0.6656808257102966
time_elpased: 3.383
#iterations: 4
currently lose_sum: 0.674148440361023
time_elpased: 3.452
#iterations: 5
currently lose_sum: 0.6330931186676025
time_elpased: 3.452
#iterations: 6
currently lose_sum: 0.6572739481925964
time_elpased: 3.654
#iterations: 7
currently lose_sum: 0.6474003791809082
time_elpased: 3.645
#iterations: 8
currently lose_sum: 0.6473153829574585
time_elpased: 3.527
#iterations: 9
currently lose_sum: 0.7099012136459351
time_elpased: 3.577
#iterations: 10
currently lose_sum: 0.5927545428276062
time_elpased: 3.551
#iterations: 11
currently lose_sum: 0.5473452806472778
time_elpased: 3.528
#iterations: 12
currently lose_sum: 0.598626971244812
time_elpased: 3.522
#iterations: 13
currently lose_sum: 0.6934897303581238
time_elpased: 3.569
#iterations: 14
currently lose_sum: 0.5603742599487305
time_elpased: 3.535
#iterations: 15
currently lose_sum: 0.5863552093505859
time_elpased: 3.608
#iterations: 16
currently lose_sum: 0.5801399350166321
time_elpased: 3.593
#iterations: 17
currently lose_sum: 0.5429589152336121
time_elpased: 3.569
#iterations: 18
currently lose_sum: 0.6145559549331665
time_elpased: 3.548
#iterations: 19
currently lose_sum: 0.6530977487564087
time_elpased: 3.53
start validation test
0.628571428571
0.638862559242
0.599111111111
0.618348623853
0.628703537618
35.746
#iterations: 20
currently lose_sum: 0.67790687084198
time_elpased: 2.505
#iterations: 21
currently lose_sum: 0.6820386052131653
time_elpased: 2.534
#iterations: 22
currently lose_sum: 0.664664089679718
time_elpased: 2.541
#iterations: 23
currently lose_sum: 0.6457921266555786
time_elpased: 2.513
#iterations: 24
currently lose_sum: 0.5883814692497253
time_elpased: 2.584
#iterations: 25
currently lose_sum: 0.627534031867981
time_elpased: 2.515
#iterations: 26
currently lose_sum: 0.7180988192558289
time_elpased: 2.526
#iterations: 27
currently lose_sum: 0.5764858722686768
time_elpased: 2.652
#iterations: 28
currently lose_sum: 0.5350212454795837
time_elpased: 2.586
#iterations: 29
currently lose_sum: 0.6464182138442993
time_elpased: 2.575
#iterations: 30
currently lose_sum: 0.60837721824646
time_elpased: 2.587
#iterations: 31
currently lose_sum: 0.6695151925086975
time_elpased: 2.55
#iterations: 32
currently lose_sum: 0.5294281244277954
time_elpased: 2.602
#iterations: 33
currently lose_sum: 0.7015817761421204
time_elpased: 2.563
#iterations: 34
currently lose_sum: 0.583125114440918
time_elpased: 2.537
#iterations: 35
currently lose_sum: 0.6510319709777832
time_elpased: 2.557
#iterations: 36
currently lose_sum: 0.5579611659049988
time_elpased: 2.575
#iterations: 37
currently lose_sum: 0.6187593340873718
time_elpased: 2.568
#iterations: 38
currently lose_sum: 0.5784121751785278
time_elpased: 2.597
#iterations: 39
currently lose_sum: 0.5785397291183472
time_elpased: 2.592
start validation test
0.626339285714
0.653518123667
0.544888888889
0.594280174503
0.626704534131
35.536
#iterations: 40
currently lose_sum: 0.6003105640411377
time_elpased: 2.71
#iterations: 41
currently lose_sum: 0.6543976068496704
time_elpased: 2.714
#iterations: 42
currently lose_sum: 0.6096059679985046
time_elpased: 2.768
#iterations: 43
currently lose_sum: 0.6503958106040955
time_elpased: 2.734
#iterations: 44
currently lose_sum: 0.5776824951171875
time_elpased: 2.747
#iterations: 45
currently lose_sum: 0.6186617612838745
time_elpased: 2.771
#iterations: 46
currently lose_sum: 0.6838111877441406
time_elpased: 2.767
#iterations: 47
currently lose_sum: 0.597029983997345
time_elpased: 2.781
#iterations: 48
currently lose_sum: 0.6436953544616699
time_elpased: 2.746
#iterations: 49
currently lose_sum: 0.667868435382843
time_elpased: 2.747
#iterations: 50
currently lose_sum: 0.6211199760437012
time_elpased: 2.761
#iterations: 51
currently lose_sum: 0.6379068493843079
time_elpased: 2.788
#iterations: 52
currently lose_sum: 0.5882428884506226
time_elpased: 2.669
#iterations: 53
currently lose_sum: 0.6546847224235535
time_elpased: 2.749
#iterations: 54
currently lose_sum: 0.5865689516067505
time_elpased: 2.777
#iterations: 55
currently lose_sum: 0.5920222401618958
time_elpased: 2.765
#iterations: 56
currently lose_sum: 0.6417472958564758
time_elpased: 2.753
#iterations: 57
currently lose_sum: 0.6350333094596863
time_elpased: 2.773
#iterations: 58
currently lose_sum: 0.5546815991401672
time_elpased: 2.846
#iterations: 59
currently lose_sum: 0.6535826921463013
time_elpased: 2.772
start validation test
0.616964285714
0.602929838088
0.695111111111
0.645747316268
0.61661385152
36.180
#iterations: 60
currently lose_sum: 0.6692107915878296
time_elpased: 2.615
#iterations: 61
currently lose_sum: 0.6464647650718689
time_elpased: 2.624
#iterations: 62
currently lose_sum: 0.6716015338897705
time_elpased: 2.625
#iterations: 63
currently lose_sum: 0.6317828893661499
time_elpased: 2.589
#iterations: 64
currently lose_sum: 0.5855862498283386
time_elpased: 2.568
#iterations: 65
currently lose_sum: 0.43638166785240173
time_elpased: 2.594
#iterations: 66
currently lose_sum: 0.6221625804901123
time_elpased: 2.53
#iterations: 67
currently lose_sum: 0.6138737797737122
time_elpased: 2.59
#iterations: 68
currently lose_sum: 0.6478955149650574
time_elpased: 2.561
#iterations: 69
currently lose_sum: 0.5813676118850708
time_elpased: 2.556
#iterations: 70
currently lose_sum: 0.628555417060852
time_elpased: 2.545
#iterations: 71
currently lose_sum: 0.6979185938835144
time_elpased: 2.583
#iterations: 72
currently lose_sum: 0.5994591116905212
time_elpased: 2.535
#iterations: 73
currently lose_sum: 0.6542808413505554
time_elpased: 2.579
#iterations: 74
currently lose_sum: 0.6382023096084595
time_elpased: 2.553
#iterations: 75
currently lose_sum: 0.6238765716552734
time_elpased: 2.536
#iterations: 76
currently lose_sum: 0.5909790992736816
time_elpased: 2.556
#iterations: 77
currently lose_sum: 0.4919772148132324
time_elpased: 2.56
#iterations: 78
currently lose_sum: 0.7339312434196472
time_elpased: 2.536
#iterations: 79
currently lose_sum: 0.5709449052810669
time_elpased: 2.525
start validation test
0.624553571429
0.607250755287
0.714666666667
0.656594528379
0.624149476831
35.766
#iterations: 80
currently lose_sum: 0.643048882484436
time_elpased: 2.569
#iterations: 81
currently lose_sum: 0.631759762763977
time_elpased: 2.519
#iterations: 82
currently lose_sum: 0.6462432146072388
time_elpased: 2.557
#iterations: 83
currently lose_sum: 0.6384750604629517
time_elpased: 2.566
#iterations: 84
currently lose_sum: 0.5844358205795288
time_elpased: 2.554
#iterations: 85
currently lose_sum: 0.5956036448478699
time_elpased: 2.562
#iterations: 86
currently lose_sum: 0.542337954044342
time_elpased: 2.586
#iterations: 87
currently lose_sum: 0.5142116546630859
time_elpased: 2.563
#iterations: 88
currently lose_sum: 0.48727908730506897
time_elpased: 2.532
#iterations: 89
currently lose_sum: 0.6322183012962341
time_elpased: 2.52
#iterations: 90
currently lose_sum: 0.6181386113166809
time_elpased: 2.538
#iterations: 91
currently lose_sum: 0.5687977075576782
time_elpased: 2.575
#iterations: 92
currently lose_sum: 0.6915770769119263
time_elpased: 2.558
#iterations: 93
currently lose_sum: 0.6339585185050964
time_elpased: 2.554
#iterations: 94
currently lose_sum: 0.5336887836456299
time_elpased: 2.539
#iterations: 95
currently lose_sum: 0.592974841594696
time_elpased: 2.524
#iterations: 96
currently lose_sum: 0.6106612086296082
time_elpased: 2.549
#iterations: 97
currently lose_sum: 0.5886741876602173
time_elpased: 2.564
#iterations: 98
currently lose_sum: 0.6331137418746948
time_elpased: 2.523
#iterations: 99
currently lose_sum: 0.6156553030014038
time_elpased: 2.535
start validation test
0.623214285714
0.631185807656
0.600888888889
0.615664845173
0.623314399601
35.863
#iterations: 100
currently lose_sum: 0.5345168113708496
time_elpased: 2.542
#iterations: 101
currently lose_sum: 0.5948371887207031
time_elpased: 2.537
#iterations: 102
currently lose_sum: 0.6233183145523071
time_elpased: 2.538
#iterations: 103
currently lose_sum: 0.5636272430419922
time_elpased: 2.535
#iterations: 104
currently lose_sum: 0.6283098459243774
time_elpased: 2.532
#iterations: 105
currently lose_sum: 0.6148200035095215
time_elpased: 2.498
#iterations: 106
currently lose_sum: 0.5833530426025391
time_elpased: 2.53
#iterations: 107
currently lose_sum: 0.6176720857620239
time_elpased: 2.524
#iterations: 108
currently lose_sum: 0.5356041193008423
time_elpased: 2.574
#iterations: 109
currently lose_sum: 0.5578761696815491
time_elpased: 2.522
#iterations: 110
currently lose_sum: 0.7067890167236328
time_elpased: 2.512
#iterations: 111
currently lose_sum: 0.6640648245811462
time_elpased: 2.518
#iterations: 112
currently lose_sum: 0.6058548092842102
time_elpased: 2.517
#iterations: 113
currently lose_sum: 0.6695491671562195
time_elpased: 2.528
#iterations: 114
currently lose_sum: 0.6453121900558472
time_elpased: 2.546
#iterations: 115
currently lose_sum: 0.5836145877838135
time_elpased: 2.526
#iterations: 116
currently lose_sum: 0.6054266095161438
time_elpased: 2.535
#iterations: 117
currently lose_sum: 0.6555045247077942
time_elpased: 2.542
#iterations: 118
currently lose_sum: 0.5846555233001709
time_elpased: 2.547
#iterations: 119
currently lose_sum: 0.5261957049369812
time_elpased: 2.579
start validation test
0.633482142857
0.628161888702
0.662222222222
0.644742535699
0.633353263577
35.956
#iterations: 120
currently lose_sum: 0.4772734045982361
time_elpased: 2.574
#iterations: 121
currently lose_sum: 0.5201292634010315
time_elpased: 2.634
#iterations: 122
currently lose_sum: 0.6050399541854858
time_elpased: 2.541
#iterations: 123
currently lose_sum: 0.5314351916313171
time_elpased: 2.523
#iterations: 124
currently lose_sum: 0.6831077337265015
time_elpased: 2.553
#iterations: 125
currently lose_sum: 0.684141218662262
time_elpased: 2.562
#iterations: 126
currently lose_sum: 0.5765668153762817
time_elpased: 2.564
#iterations: 127
currently lose_sum: 0.6643999814987183
time_elpased: 2.554
#iterations: 128
currently lose_sum: 0.5452610850334167
time_elpased: 2.586
#iterations: 129
currently lose_sum: 0.5844199657440186
time_elpased: 2.526
#iterations: 130
currently lose_sum: 0.6265692710876465
time_elpased: 2.576
#iterations: 131
currently lose_sum: 0.5436277389526367
time_elpased: 2.583
#iterations: 132
currently lose_sum: 0.5769760012626648
time_elpased: 2.51
#iterations: 133
currently lose_sum: 0.5969463586807251
time_elpased: 2.54
#iterations: 134
currently lose_sum: 0.627774715423584
time_elpased: 2.527
#iterations: 135
currently lose_sum: 0.5762791633605957
time_elpased: 2.544
#iterations: 136
currently lose_sum: 0.594770073890686
time_elpased: 2.559
#iterations: 137
currently lose_sum: 0.5786983370780945
time_elpased: 2.509
#iterations: 138
currently lose_sum: 0.5927472114562988
time_elpased: 2.558
#iterations: 139
currently lose_sum: 0.5463012456893921
time_elpased: 2.532
start validation test
0.627232142857
0.663656884876
0.522666666667
0.584783689707
0.627701046338
35.686
#iterations: 140
currently lose_sum: 0.5114024877548218
time_elpased: 2.555
#iterations: 141
currently lose_sum: 0.6063395738601685
time_elpased: 2.624
#iterations: 142
currently lose_sum: 0.5630804300308228
time_elpased: 2.555
#iterations: 143
currently lose_sum: 0.6817030906677246
time_elpased: 2.566
#iterations: 144
currently lose_sum: 0.6427245140075684
time_elpased: 2.522
#iterations: 145
currently lose_sum: 0.4789109230041504
time_elpased: 2.551
#iterations: 146
currently lose_sum: 0.5939618349075317
time_elpased: 2.555
#iterations: 147
currently lose_sum: 0.6169814467430115
time_elpased: 2.574
#iterations: 148
currently lose_sum: 0.646551251411438
time_elpased: 2.564
#iterations: 149
currently lose_sum: 0.5366506576538086
time_elpased: 2.61
#iterations: 150
currently lose_sum: 0.5699838399887085
time_elpased: 2.58
#iterations: 151
currently lose_sum: 0.4424469470977783
time_elpased: 2.593
#iterations: 152
currently lose_sum: 0.507908821105957
time_elpased: 2.619
#iterations: 153
currently lose_sum: 0.6239479780197144
time_elpased: 2.568
#iterations: 154
currently lose_sum: 0.5761421918869019
time_elpased: 2.579
#iterations: 155
currently lose_sum: 0.5161294341087341
time_elpased: 2.587
#iterations: 156
currently lose_sum: 0.6522056460380554
time_elpased: 2.603
#iterations: 157
currently lose_sum: 0.6133963465690613
time_elpased: 2.528
#iterations: 158
currently lose_sum: 0.6698017120361328
time_elpased: 2.579
#iterations: 159
currently lose_sum: 0.6145085096359253
time_elpased: 2.609
start validation test
0.630803571429
0.62273476112
0.672
0.646430098333
0.630618834081
35.777
#iterations: 160
currently lose_sum: 0.5249330401420593
time_elpased: 2.587
#iterations: 161
currently lose_sum: 0.7118264436721802
time_elpased: 2.583
#iterations: 162
currently lose_sum: 0.6592684984207153
time_elpased: 2.657
#iterations: 163
currently lose_sum: 0.6358507871627808
time_elpased: 2.56
#iterations: 164
currently lose_sum: 0.746911883354187
time_elpased: 2.578
#iterations: 165
currently lose_sum: 0.46812161803245544
time_elpased: 2.548
#iterations: 166
currently lose_sum: 0.5473067164421082
time_elpased: 2.539
#iterations: 167
currently lose_sum: 0.5020695924758911
time_elpased: 2.611
#iterations: 168
currently lose_sum: 0.5698181390762329
time_elpased: 2.559
#iterations: 169
currently lose_sum: 0.7027246356010437
time_elpased: 2.549
#iterations: 170
currently lose_sum: 0.5895031094551086
time_elpased: 2.563
#iterations: 171
currently lose_sum: 0.6571711301803589
time_elpased: 2.565
#iterations: 172
currently lose_sum: 0.5680987238883972
time_elpased: 2.575
#iterations: 173
currently lose_sum: 0.600915253162384
time_elpased: 2.582
#iterations: 174
currently lose_sum: 0.5264366269111633
time_elpased: 2.527
#iterations: 175
currently lose_sum: 0.5781735181808472
time_elpased: 2.563
#iterations: 176
currently lose_sum: 0.5675201416015625
time_elpased: 2.588
#iterations: 177
currently lose_sum: 0.5267137289047241
time_elpased: 2.555
#iterations: 178
currently lose_sum: 0.5184078812599182
time_elpased: 2.562
#iterations: 179
currently lose_sum: 0.620727002620697
time_elpased: 2.538
start validation test
0.627678571429
0.639501438159
0.592888888889
0.615313653137
0.627834578974
35.855
#iterations: 180
currently lose_sum: 0.6561341285705566
time_elpased: 2.581
#iterations: 181
currently lose_sum: 0.4946196675300598
time_elpased: 2.58
#iterations: 182
currently lose_sum: 0.5922936201095581
time_elpased: 2.639
#iterations: 183
currently lose_sum: 0.4506954252719879
time_elpased: 2.564
#iterations: 184
currently lose_sum: 0.666528046131134
time_elpased: 2.569
#iterations: 185
currently lose_sum: 0.5750312805175781
time_elpased: 2.549
#iterations: 186
currently lose_sum: 0.6333020329475403
time_elpased: 2.527
#iterations: 187
currently lose_sum: 0.5979374647140503
time_elpased: 2.551
#iterations: 188
currently lose_sum: 0.5886105895042419
time_elpased: 2.54
#iterations: 189
currently lose_sum: 0.6344547271728516
time_elpased: 2.539
#iterations: 190
currently lose_sum: 0.5246388912200928
time_elpased: 2.55
#iterations: 191
currently lose_sum: 0.5183521509170532
time_elpased: 2.526
#iterations: 192
currently lose_sum: 0.5933457612991333
time_elpased: 2.505
#iterations: 193
currently lose_sum: 0.5169231295585632
time_elpased: 2.571
#iterations: 194
currently lose_sum: 0.49818935990333557
time_elpased: 2.561
#iterations: 195
currently lose_sum: 0.6645730137825012
time_elpased: 2.566
#iterations: 196
currently lose_sum: 0.5357161164283752
time_elpased: 2.552
#iterations: 197
currently lose_sum: 0.5121147036552429
time_elpased: 2.574
#iterations: 198
currently lose_sum: 0.6468695402145386
time_elpased: 2.56
#iterations: 199
currently lose_sum: 0.6298063397407532
time_elpased: 2.531
start validation test
0.628125
0.622278056951
0.660444444444
0.640793445451
0.627980069756
36.186
#iterations: 200
currently lose_sum: 0.6948148608207703
time_elpased: 2.554
#iterations: 201
currently lose_sum: 0.5094892382621765
time_elpased: 2.571
#iterations: 202
currently lose_sum: 0.5575789213180542
time_elpased: 2.606
#iterations: 203
currently lose_sum: 0.5320639610290527
time_elpased: 2.593
#iterations: 204
currently lose_sum: 0.4814317226409912
time_elpased: 2.54
#iterations: 205
currently lose_sum: 0.5619512796401978
time_elpased: 2.613
#iterations: 206
currently lose_sum: 0.618619441986084
time_elpased: 2.525
#iterations: 207
currently lose_sum: 0.596014678478241
time_elpased: 2.54
#iterations: 208
currently lose_sum: 0.5369929075241089
time_elpased: 2.601
#iterations: 209
currently lose_sum: 0.6163727045059204
time_elpased: 2.55
#iterations: 210
currently lose_sum: 0.5903151631355286
time_elpased: 2.553
#iterations: 211
currently lose_sum: 0.5048326849937439
time_elpased: 2.521
#iterations: 212
currently lose_sum: 0.6317216157913208
time_elpased: 2.543
#iterations: 213
currently lose_sum: 0.68779057264328
time_elpased: 2.55
#iterations: 214
currently lose_sum: 0.5688402056694031
time_elpased: 2.55
#iterations: 215
currently lose_sum: 0.5620982646942139
time_elpased: 2.557
#iterations: 216
currently lose_sum: 0.5407910346984863
time_elpased: 2.508
#iterations: 217
currently lose_sum: 0.5083044767379761
time_elpased: 2.549
#iterations: 218
currently lose_sum: 0.6018906831741333
time_elpased: 2.573
#iterations: 219
currently lose_sum: 0.6078882813453674
time_elpased: 2.519
start validation test
0.630803571429
0.623548922056
0.668444444444
0.645216645217
0.630634778276
35.990
#iterations: 220
currently lose_sum: 0.6829308867454529
time_elpased: 2.574
#iterations: 221
currently lose_sum: 0.5533105731010437
time_elpased: 2.574
#iterations: 222
currently lose_sum: 0.6104046106338501
time_elpased: 2.601
#iterations: 223
currently lose_sum: 0.6614364981651306
time_elpased: 2.55
#iterations: 224
currently lose_sum: 0.6123440265655518
time_elpased: 2.555
#iterations: 225
currently lose_sum: 0.5815332531929016
time_elpased: 2.531
#iterations: 226
currently lose_sum: 0.6145745515823364
time_elpased: 2.509
#iterations: 227
currently lose_sum: 0.5123546719551086
time_elpased: 2.545
#iterations: 228
currently lose_sum: 0.5733125805854797
time_elpased: 2.575
#iterations: 229
currently lose_sum: 0.6060874462127686
time_elpased: 2.529
#iterations: 230
currently lose_sum: 0.6113983392715454
time_elpased: 2.541
#iterations: 231
currently lose_sum: 0.5359756350517273
time_elpased: 2.518
#iterations: 232
currently lose_sum: 0.6020218133926392
time_elpased: 2.533
#iterations: 233
currently lose_sum: 0.543660044670105
time_elpased: 2.766
#iterations: 234
currently lose_sum: 0.595491886138916
time_elpased: 2.64
#iterations: 235
currently lose_sum: 0.6603827476501465
time_elpased: 2.514
#iterations: 236
currently lose_sum: 0.620771586894989
time_elpased: 2.533
#iterations: 237
currently lose_sum: 0.6331838369369507
time_elpased: 2.521
#iterations: 238
currently lose_sum: 0.5545715093612671
time_elpased: 2.522
#iterations: 239
currently lose_sum: 0.6737983822822571
time_elpased: 2.51
start validation test
0.636607142857
0.632566069906
0.659555555556
0.645778938207
0.636504235177
35.678
#iterations: 240
currently lose_sum: 0.5055032968521118
time_elpased: 2.542
#iterations: 241
currently lose_sum: 0.5695103406906128
time_elpased: 2.534
#iterations: 242
currently lose_sum: 0.6405333280563354
time_elpased: 2.535
#iterations: 243
currently lose_sum: 0.5183676481246948
time_elpased: 2.605
#iterations: 244
currently lose_sum: 0.5569637417793274
time_elpased: 2.547
#iterations: 245
currently lose_sum: 0.5802264213562012
time_elpased: 2.57
#iterations: 246
currently lose_sum: 0.5077430009841919
time_elpased: 2.556
#iterations: 247
currently lose_sum: 0.6940313577651978
time_elpased: 2.569
#iterations: 248
currently lose_sum: 0.655913233757019
time_elpased: 2.579
#iterations: 249
currently lose_sum: 0.5864295363426208
time_elpased: 2.536
#iterations: 250
currently lose_sum: 0.6134503483772278
time_elpased: 2.555
#iterations: 251
currently lose_sum: 0.6037085056304932
time_elpased: 2.561
#iterations: 252
currently lose_sum: 0.5552792549133301
time_elpased: 2.565
#iterations: 253
currently lose_sum: 0.5281925201416016
time_elpased: 2.521
#iterations: 254
currently lose_sum: 0.4919652044773102
time_elpased: 2.527
#iterations: 255
currently lose_sum: 0.5837393403053284
time_elpased: 2.549
#iterations: 256
currently lose_sum: 0.5625258684158325
time_elpased: 2.577
#iterations: 257
currently lose_sum: 0.6301475167274475
time_elpased: 2.57
#iterations: 258
currently lose_sum: 0.5493991374969482
time_elpased: 2.566
#iterations: 259
currently lose_sum: 0.5789890289306641
time_elpased: 2.533
start validation test
0.629017857143
0.638418079096
0.602666666667
0.620027434842
0.629136023916
35.766
#iterations: 260
currently lose_sum: 0.591721773147583
time_elpased: 2.529
#iterations: 261
currently lose_sum: 0.5876200795173645
time_elpased: 2.571
#iterations: 262
currently lose_sum: 0.5904160141944885
time_elpased: 2.512
#iterations: 263
currently lose_sum: 0.6361360549926758
time_elpased: 2.571
#iterations: 264
currently lose_sum: 0.5296741724014282
time_elpased: 2.567
#iterations: 265
currently lose_sum: 0.49945321679115295
time_elpased: 2.571
#iterations: 266
currently lose_sum: 0.5823341608047485
time_elpased: 2.532
#iterations: 267
currently lose_sum: 0.5288137197494507
time_elpased: 2.557
#iterations: 268
currently lose_sum: 0.5058886408805847
time_elpased: 2.506
#iterations: 269
currently lose_sum: 0.6191070079803467
time_elpased: 2.551
#iterations: 270
currently lose_sum: 0.5515652894973755
time_elpased: 2.511
#iterations: 271
currently lose_sum: 0.6051221489906311
time_elpased: 2.5
#iterations: 272
currently lose_sum: 0.5405751466751099
time_elpased: 2.609
#iterations: 273
currently lose_sum: 0.6344916224479675
time_elpased: 2.55
#iterations: 274
currently lose_sum: 0.6696746945381165
time_elpased: 2.558
#iterations: 275
currently lose_sum: 0.6280926465988159
time_elpased: 2.574
#iterations: 276
currently lose_sum: 0.6356507539749146
time_elpased: 2.533
#iterations: 277
currently lose_sum: 0.6093266010284424
time_elpased: 2.574
#iterations: 278
currently lose_sum: 0.5276737213134766
time_elpased: 2.521
#iterations: 279
currently lose_sum: 0.5373860597610474
time_elpased: 2.542
start validation test
0.636160714286
0.629166666667
0.671111111111
0.649462365591
0.636003986049
36.042
#iterations: 280
currently lose_sum: 0.6154748201370239
time_elpased: 2.567
#iterations: 281
currently lose_sum: 0.5626320838928223
time_elpased: 2.573
#iterations: 282
currently lose_sum: 0.5427907109260559
time_elpased: 2.583
#iterations: 283
currently lose_sum: 0.6077991724014282
time_elpased: 2.563
#iterations: 284
currently lose_sum: 0.5035163760185242
time_elpased: 2.542
#iterations: 285
currently lose_sum: 0.5666919946670532
time_elpased: 2.588
#iterations: 286
currently lose_sum: 0.5959099531173706
time_elpased: 2.557
#iterations: 287
currently lose_sum: 0.6523554921150208
time_elpased: 2.582
#iterations: 288
currently lose_sum: 0.6687663793563843
time_elpased: 2.594
#iterations: 289
currently lose_sum: 0.4625919461250305
time_elpased: 2.575
#iterations: 290
currently lose_sum: 0.6442181468009949
time_elpased: 2.56
#iterations: 291
currently lose_sum: 0.564987063407898
time_elpased: 2.571
#iterations: 292
currently lose_sum: 0.507743239402771
time_elpased: 2.553
#iterations: 293
currently lose_sum: 0.5933728814125061
time_elpased: 2.538
#iterations: 294
currently lose_sum: 0.6892644166946411
time_elpased: 2.545
#iterations: 295
currently lose_sum: 0.613068163394928
time_elpased: 2.516
#iterations: 296
currently lose_sum: 0.6714464426040649
time_elpased: 2.545
#iterations: 297
currently lose_sum: 0.6154645681381226
time_elpased: 2.556
#iterations: 298
currently lose_sum: 0.4808728098869324
time_elpased: 2.559
#iterations: 299
currently lose_sum: 0.5716460347175598
time_elpased: 2.539
start validation test
0.629017857143
0.632432432432
0.624
0.628187919463
0.629040358744
36.170
#iterations: 300
currently lose_sum: 0.5762947201728821
time_elpased: 2.565
#iterations: 301
currently lose_sum: 0.5726730227470398
time_elpased: 2.522
#iterations: 302
currently lose_sum: 0.6733698844909668
time_elpased: 2.601
#iterations: 303
currently lose_sum: 0.5200191736221313
time_elpased: 2.558
#iterations: 304
currently lose_sum: 0.519201934337616
time_elpased: 2.597
#iterations: 305
currently lose_sum: 0.5272395014762878
time_elpased: 2.567
#iterations: 306
currently lose_sum: 0.48959803581237793
time_elpased: 2.538
#iterations: 307
currently lose_sum: 0.6267552971839905
time_elpased: 2.548
#iterations: 308
currently lose_sum: 0.6063413619995117
time_elpased: 2.606
#iterations: 309
currently lose_sum: 0.5552088022232056
time_elpased: 2.616
#iterations: 310
currently lose_sum: 0.4654354453086853
time_elpased: 2.568
#iterations: 311
currently lose_sum: 0.5343166589736938
time_elpased: 2.589
#iterations: 312
currently lose_sum: 0.6314457654953003
time_elpased: 2.578
#iterations: 313
currently lose_sum: 0.6162047982215881
time_elpased: 2.6
#iterations: 314
currently lose_sum: 0.533581554889679
time_elpased: 2.575
#iterations: 315
currently lose_sum: 0.5236897468566895
time_elpased: 2.613
#iterations: 316
currently lose_sum: 0.6432503461837769
time_elpased: 2.602
#iterations: 317
currently lose_sum: 0.6821271181106567
time_elpased: 2.63
#iterations: 318
currently lose_sum: 0.599708080291748
time_elpased: 2.575
#iterations: 319
currently lose_sum: 0.631084680557251
time_elpased: 2.607
start validation test
0.635267857143
0.637254901961
0.635555555556
0.636404094348
0.635266567015
36.061
#iterations: 320
currently lose_sum: 0.6151857972145081
time_elpased: 2.565
#iterations: 321
currently lose_sum: 0.5695140361785889
time_elpased: 2.629
#iterations: 322
currently lose_sum: 0.5995201468467712
time_elpased: 2.589
#iterations: 323
currently lose_sum: 0.5880945920944214
time_elpased: 2.539
#iterations: 324
currently lose_sum: 0.5919159650802612
time_elpased: 2.587
#iterations: 325
currently lose_sum: 0.617129921913147
time_elpased: 2.649
#iterations: 326
currently lose_sum: 0.5877670049667358
time_elpased: 2.575
#iterations: 327
currently lose_sum: 0.5463042259216309
time_elpased: 2.621
#iterations: 328
currently lose_sum: 0.5011298060417175
time_elpased: 2.554
#iterations: 329
currently lose_sum: 0.6080538034439087
time_elpased: 2.625
#iterations: 330
currently lose_sum: 0.5372031927108765
time_elpased: 2.577
#iterations: 331
currently lose_sum: 0.5953313708305359
time_elpased: 2.555
#iterations: 332
currently lose_sum: 0.6256422400474548
time_elpased: 2.579
#iterations: 333
currently lose_sum: 0.6022678017616272
time_elpased: 2.566
#iterations: 334
currently lose_sum: 0.6095659732818604
time_elpased: 2.584
#iterations: 335
currently lose_sum: 0.6350210309028625
time_elpased: 2.568
#iterations: 336
currently lose_sum: 0.5548386573791504
time_elpased: 2.555
#iterations: 337
currently lose_sum: 0.4746131896972656
time_elpased: 2.546
#iterations: 338
currently lose_sum: 0.6368224620819092
time_elpased: 2.525
#iterations: 339
currently lose_sum: 0.6392672061920166
time_elpased: 2.532
start validation test
0.630803571429
0.619391025641
0.687111111111
0.651495996629
0.630551071251
35.997
#iterations: 340
currently lose_sum: 0.5402410626411438
time_elpased: 2.547
#iterations: 341
currently lose_sum: 0.6585562825202942
time_elpased: 2.574
#iterations: 342
currently lose_sum: 0.6004194617271423
time_elpased: 2.519
#iterations: 343
currently lose_sum: 0.5400926470756531
time_elpased: 2.552
#iterations: 344
currently lose_sum: 0.5341550707817078
time_elpased: 2.548
#iterations: 345
currently lose_sum: 0.5883998870849609
time_elpased: 2.619
#iterations: 346
currently lose_sum: 0.6061391830444336
time_elpased: 2.545
#iterations: 347
currently lose_sum: 0.5997990965843201
time_elpased: 2.553
#iterations: 348
currently lose_sum: 0.558432936668396
time_elpased: 2.578
#iterations: 349
currently lose_sum: 0.54518723487854
time_elpased: 2.607
#iterations: 350
currently lose_sum: 0.46369171142578125
time_elpased: 2.582
#iterations: 351
currently lose_sum: 0.523754358291626
time_elpased: 2.558
#iterations: 352
currently lose_sum: 0.6369778513908386
time_elpased: 2.561
#iterations: 353
currently lose_sum: 0.5283999443054199
time_elpased: 2.567
#iterations: 354
currently lose_sum: 0.570589542388916
time_elpased: 2.572
#iterations: 355
currently lose_sum: 0.5044081807136536
time_elpased: 2.547
#iterations: 356
currently lose_sum: 0.6149691343307495
time_elpased: 2.586
#iterations: 357
currently lose_sum: 0.5190144777297974
time_elpased: 2.557
#iterations: 358
currently lose_sum: 0.5843634605407715
time_elpased: 2.551
#iterations: 359
currently lose_sum: 0.6029714345932007
time_elpased: 2.534
start validation test
0.626339285714
0.633086876155
0.608888888889
0.620752152243
0.626417538615
36.191
#iterations: 360
currently lose_sum: 0.5231022238731384
time_elpased: 2.6
#iterations: 361
currently lose_sum: 0.5322867631912231
time_elpased: 2.547
#iterations: 362
currently lose_sum: 0.5581441521644592
time_elpased: 2.563
#iterations: 363
currently lose_sum: 0.5878646969795227
time_elpased: 2.527
#iterations: 364
currently lose_sum: 0.5242033004760742
time_elpased: 2.541
#iterations: 365
currently lose_sum: 0.5818893313407898
time_elpased: 2.521
#iterations: 366
currently lose_sum: 0.5239205360412598
time_elpased: 2.534
#iterations: 367
currently lose_sum: 0.661736786365509
time_elpased: 2.526
#iterations: 368
currently lose_sum: 0.5701066255569458
time_elpased: 2.557
#iterations: 369
currently lose_sum: 0.6398824453353882
time_elpased: 2.552
#iterations: 370
currently lose_sum: 0.5917015075683594
time_elpased: 2.667
#iterations: 371
currently lose_sum: 0.5956667065620422
time_elpased: 2.704
#iterations: 372
currently lose_sum: 0.5995935201644897
time_elpased: 2.564
#iterations: 373
currently lose_sum: 0.5693244934082031
time_elpased: 2.56
#iterations: 374
currently lose_sum: 0.6123669743537903
time_elpased: 2.567
#iterations: 375
currently lose_sum: 0.6188138723373413
time_elpased: 2.548
#iterations: 376
currently lose_sum: 0.6031860113143921
time_elpased: 2.561
#iterations: 377
currently lose_sum: 0.6059917211532593
time_elpased: 2.554
#iterations: 378
currently lose_sum: 0.6130826473236084
time_elpased: 2.597
#iterations: 379
currently lose_sum: 0.6278712153434753
time_elpased: 2.572
start validation test
0.633482142857
0.641791044776
0.611555555556
0.62630860264
0.633580468361
36.338
#iterations: 380
currently lose_sum: 0.45162129402160645
time_elpased: 2.605
#iterations: 381
currently lose_sum: 0.6463592648506165
time_elpased: 2.602
#iterations: 382
currently lose_sum: 0.46612319350242615
time_elpased: 2.595
#iterations: 383
currently lose_sum: 0.531400203704834
time_elpased: 2.595
#iterations: 384
currently lose_sum: 0.5280283689498901
time_elpased: 2.737
#iterations: 385
currently lose_sum: 0.5299975872039795
time_elpased: 2.626
#iterations: 386
currently lose_sum: 0.5995808839797974
time_elpased: 2.565
#iterations: 387
currently lose_sum: 0.5941433906555176
time_elpased: 2.554
#iterations: 388
currently lose_sum: 0.5955625772476196
time_elpased: 2.59
#iterations: 389
currently lose_sum: 0.5949728488922119
time_elpased: 2.591
#iterations: 390
currently lose_sum: 0.5663699507713318
time_elpased: 2.576
#iterations: 391
currently lose_sum: 0.46668434143066406
time_elpased: 2.633
#iterations: 392
currently lose_sum: 0.5400359630584717
time_elpased: 2.577
#iterations: 393
currently lose_sum: 0.5299006104469299
time_elpased: 2.551
#iterations: 394
currently lose_sum: 0.5609956979751587
time_elpased: 2.565
#iterations: 395
currently lose_sum: 0.6106363534927368
time_elpased: 2.578
#iterations: 396
currently lose_sum: 0.6247656941413879
time_elpased: 2.52
#iterations: 397
currently lose_sum: 0.5962578058242798
time_elpased: 2.557
#iterations: 398
currently lose_sum: 0.5061187744140625
time_elpased: 2.6
#iterations: 399
currently lose_sum: 0.5288187265396118
time_elpased: 2.549
start validation test
0.635267857143
0.640510948905
0.624
0.632147681225
0.63531838565
36.374
#iterations: 400
currently lose_sum: 0.5466031432151794
time_elpased: 2.583
#iterations: 401
currently lose_sum: 0.6002992391586304
time_elpased: 2.534
#iterations: 402
currently lose_sum: 0.6071560978889465
time_elpased: 2.542
#iterations: 403
currently lose_sum: 0.5978976488113403
time_elpased: 2.596
#iterations: 404
currently lose_sum: 0.5106362104415894
time_elpased: 2.599
#iterations: 405
currently lose_sum: 0.5895756483078003
time_elpased: 2.646
#iterations: 406
currently lose_sum: 0.6089221239089966
time_elpased: 2.8
#iterations: 407
currently lose_sum: 0.4707212448120117
time_elpased: 2.536
#iterations: 408
currently lose_sum: 0.6452727317810059
time_elpased: 2.557
#iterations: 409
currently lose_sum: 0.6261802911758423
time_elpased: 2.599
#iterations: 410
currently lose_sum: 0.6144721508026123
time_elpased: 2.581
#iterations: 411
currently lose_sum: 0.739128589630127
time_elpased: 2.566
#iterations: 412
currently lose_sum: 0.5259063243865967
time_elpased: 2.584
#iterations: 413
currently lose_sum: 0.5080509781837463
time_elpased: 2.575
#iterations: 414
currently lose_sum: 0.6865723133087158
time_elpased: 2.594
#iterations: 415
currently lose_sum: 0.487576425075531
time_elpased: 2.597
#iterations: 416
currently lose_sum: 0.587382435798645
time_elpased: 2.569
#iterations: 417
currently lose_sum: 0.5142778158187866
time_elpased: 2.575
#iterations: 418
currently lose_sum: 0.7075234055519104
time_elpased: 2.627
#iterations: 419
currently lose_sum: 0.5975539088249207
time_elpased: 2.6
start validation test
0.632589285714
0.627749576988
0.659555555556
0.64325964456
0.632468360737
36.266
#iterations: 420
currently lose_sum: 0.4995518624782562
time_elpased: 2.599
#iterations: 421
currently lose_sum: 0.5292984843254089
time_elpased: 2.617
#iterations: 422
currently lose_sum: 0.6440354585647583
time_elpased: 2.596
#iterations: 423
currently lose_sum: 0.5803016424179077
time_elpased: 2.583
#iterations: 424
currently lose_sum: 0.5808678865432739
time_elpased: 2.645
#iterations: 425
currently lose_sum: 0.5221472978591919
time_elpased: 2.666
#iterations: 426
currently lose_sum: 0.5199837684631348
time_elpased: 2.655
#iterations: 427
currently lose_sum: 0.5443755388259888
time_elpased: 2.671
#iterations: 428
currently lose_sum: 0.6738988161087036
time_elpased: 2.702
#iterations: 429
currently lose_sum: 0.6251091957092285
time_elpased: 2.721
#iterations: 430
currently lose_sum: 0.6794317364692688
time_elpased: 2.7
#iterations: 431
currently lose_sum: 0.6117984056472778
time_elpased: 2.603
#iterations: 432
currently lose_sum: 0.49805134534835815
time_elpased: 2.635
#iterations: 433
currently lose_sum: 0.5789934396743774
time_elpased: 2.596
#iterations: 434
currently lose_sum: 0.4087255597114563
time_elpased: 2.637
#iterations: 435
currently lose_sum: 0.6077688336372375
time_elpased: 2.733
#iterations: 436
currently lose_sum: 0.6571182608604431
time_elpased: 2.674
#iterations: 437
currently lose_sum: 0.5727032423019409
time_elpased: 2.613
#iterations: 438
currently lose_sum: 0.5984514951705933
time_elpased: 2.628
#iterations: 439
currently lose_sum: 0.6017526388168335
time_elpased: 2.619
start validation test
0.630803571429
0.644100580271
0.592
0.616952292728
0.630977578475
36.314
#iterations: 440
currently lose_sum: 0.6294329762458801
time_elpased: 2.601
#iterations: 441
currently lose_sum: 0.6468977332115173
time_elpased: 2.615
#iterations: 442
currently lose_sum: 0.6175620555877686
time_elpased: 2.564
#iterations: 443
currently lose_sum: 0.5284720063209534
time_elpased: 2.624
#iterations: 444
currently lose_sum: 0.5141128301620483
time_elpased: 2.604
#iterations: 445
currently lose_sum: 0.619665265083313
time_elpased: 2.595
#iterations: 446
currently lose_sum: 0.547364354133606
time_elpased: 2.643
#iterations: 447
currently lose_sum: 0.521048903465271
time_elpased: 2.589
#iterations: 448
currently lose_sum: 0.6115179061889648
time_elpased: 2.58
#iterations: 449
currently lose_sum: 0.5310039520263672
time_elpased: 2.584
#iterations: 450
currently lose_sum: 0.5290029048919678
time_elpased: 2.563
#iterations: 451
currently lose_sum: 0.5146006345748901
time_elpased: 2.591
#iterations: 452
currently lose_sum: 0.5264999270439148
time_elpased: 2.607
#iterations: 453
currently lose_sum: 0.5946938991546631
time_elpased: 2.585
#iterations: 454
currently lose_sum: 0.5469010472297668
time_elpased: 2.576
#iterations: 455
currently lose_sum: 0.728246808052063
time_elpased: 2.579
#iterations: 456
currently lose_sum: 0.5409003496170044
time_elpased: 2.571
#iterations: 457
currently lose_sum: 0.6580910682678223
time_elpased: 2.587
#iterations: 458
currently lose_sum: 0.5552242994308472
time_elpased: 2.601
#iterations: 459
currently lose_sum: 0.5894700884819031
time_elpased: 2.562
start validation test
0.633928571429
0.625514403292
0.675555555556
0.649572649573
0.633741903338
36.304
#iterations: 460
currently lose_sum: 0.5838128328323364
time_elpased: 2.538
#iterations: 461
currently lose_sum: 0.49453964829444885
time_elpased: 2.579
#iterations: 462
currently lose_sum: 0.5877189636230469
time_elpased: 2.538
#iterations: 463
currently lose_sum: 0.6267778277397156
time_elpased: 2.562
#iterations: 464
currently lose_sum: 0.42379340529441833
time_elpased: 2.545
#iterations: 465
currently lose_sum: 0.7345222234725952
time_elpased: 2.538
#iterations: 466
currently lose_sum: 0.6220914125442505
time_elpased: 2.544
#iterations: 467
currently lose_sum: 0.5858501195907593
time_elpased: 2.56
#iterations: 468
currently lose_sum: 0.6382535099983215
time_elpased: 2.554
#iterations: 469
currently lose_sum: 0.6494414210319519
time_elpased: 2.541
#iterations: 470
currently lose_sum: 0.6043748259544373
time_elpased: 2.562
#iterations: 471
currently lose_sum: 0.6135202646255493
time_elpased: 2.591
#iterations: 472
currently lose_sum: 0.5749728679656982
time_elpased: 2.706
#iterations: 473
currently lose_sum: 0.6553928852081299
time_elpased: 2.516
#iterations: 474
currently lose_sum: 0.7439225912094116
time_elpased: 2.536
#iterations: 475
currently lose_sum: 0.4369840621948242
time_elpased: 2.571
#iterations: 476
currently lose_sum: 0.5764020681381226
time_elpased: 2.559
#iterations: 477
currently lose_sum: 0.5595396161079407
time_elpased: 2.582
#iterations: 478
currently lose_sum: 0.5841273069381714
time_elpased: 2.546
#iterations: 479
currently lose_sum: 0.5388651490211487
time_elpased: 2.583
start validation test
0.628125
0.620263591433
0.669333333333
0.64386489953
0.627940209268
36.417
#iterations: 480
currently lose_sum: 0.6007939577102661
time_elpased: 2.566
#iterations: 481
currently lose_sum: 0.528904139995575
time_elpased: 2.618
#iterations: 482
currently lose_sum: 0.5577777028083801
time_elpased: 2.599
#iterations: 483
currently lose_sum: 0.528901994228363
time_elpased: 2.646
#iterations: 484
currently lose_sum: 0.4924129545688629
time_elpased: 2.618
#iterations: 485
currently lose_sum: 0.5492499470710754
time_elpased: 2.575
#iterations: 486
currently lose_sum: 0.5840301513671875
time_elpased: 2.566
#iterations: 487
currently lose_sum: 0.5899982452392578
time_elpased: 2.596
#iterations: 488
currently lose_sum: 0.6377676725387573
time_elpased: 2.541
#iterations: 489
currently lose_sum: 0.6231896281242371
time_elpased: 2.636
#iterations: 490
currently lose_sum: 0.5995482206344604
time_elpased: 2.595
#iterations: 491
currently lose_sum: 0.48521822690963745
time_elpased: 2.597
#iterations: 492
currently lose_sum: 0.5850868821144104
time_elpased: 2.672
#iterations: 493
currently lose_sum: 0.6183821558952332
time_elpased: 2.664
#iterations: 494
currently lose_sum: 0.6642264127731323
time_elpased: 2.578
#iterations: 495
currently lose_sum: 0.6821839213371277
time_elpased: 2.629
#iterations: 496
currently lose_sum: 0.5974963903427124
time_elpased: 2.578
#iterations: 497
currently lose_sum: 0.5958257913589478
time_elpased: 2.568
#iterations: 498
currently lose_sum: 0.5119489431381226
time_elpased: 2.581
#iterations: 499
currently lose_sum: 0.5758827924728394
time_elpased: 2.564
start validation test
0.6375
0.62371541502
0.701333333333
0.660251046025
0.637213751868
36.202
#iterations: 500
currently lose_sum: 0.4964071810245514
time_elpased: 2.535
#iterations: 501
currently lose_sum: 0.6473004221916199
time_elpased: 2.599
#iterations: 502
currently lose_sum: 0.5746209025382996
time_elpased: 2.577
#iterations: 503
currently lose_sum: 0.5379914045333862
time_elpased: 2.594
#iterations: 504
currently lose_sum: 0.5584146976470947
time_elpased: 2.595
#iterations: 505
currently lose_sum: 0.6862862706184387
time_elpased: 2.54
#iterations: 506
currently lose_sum: 0.49090972542762756
time_elpased: 2.571
#iterations: 507
currently lose_sum: 0.5711079835891724
time_elpased: 2.562
#iterations: 508
currently lose_sum: 0.5124504566192627
time_elpased: 2.547
#iterations: 509
currently lose_sum: 0.5537973642349243
time_elpased: 2.563
#iterations: 510
currently lose_sum: 0.5996044278144836
time_elpased: 2.716
#iterations: 511
currently lose_sum: 0.5618086457252502
time_elpased: 2.562
#iterations: 512
currently lose_sum: 0.7582522630691528
time_elpased: 2.559
#iterations: 513
currently lose_sum: 0.6517264246940613
time_elpased: 2.566
#iterations: 514
currently lose_sum: 0.6346414685249329
time_elpased: 2.554
#iterations: 515
currently lose_sum: 0.5945234894752502
time_elpased: 2.574
#iterations: 516
currently lose_sum: 0.5691540241241455
time_elpased: 2.539
#iterations: 517
currently lose_sum: 0.7363610863685608
time_elpased: 2.562
#iterations: 518
currently lose_sum: 0.5101099014282227
time_elpased: 2.603
#iterations: 519
currently lose_sum: 0.5587433576583862
time_elpased: 2.626
start validation test
0.634375
0.648832684825
0.592888888889
0.619600557362
0.634561036373
36.229
#iterations: 520
currently lose_sum: 0.6951987147331238
time_elpased: 2.595
#iterations: 521
currently lose_sum: 0.6773668527603149
time_elpased: 2.579
#iterations: 522
currently lose_sum: 0.562651515007019
time_elpased: 2.568
#iterations: 523
currently lose_sum: 0.5287488698959351
time_elpased: 2.548
#iterations: 524
currently lose_sum: 0.5164169669151306
time_elpased: 2.563
#iterations: 525
currently lose_sum: 0.6516821980476379
time_elpased: 2.54
#iterations: 526
currently lose_sum: 0.704484760761261
time_elpased: 2.556
#iterations: 527
currently lose_sum: 0.6013566851615906
time_elpased: 2.582
#iterations: 528
currently lose_sum: 0.5545008778572083
time_elpased: 2.625
#iterations: 529
currently lose_sum: 0.5965052843093872
time_elpased: 2.646
#iterations: 530
currently lose_sum: 0.6108107566833496
time_elpased: 2.588
#iterations: 531
currently lose_sum: 0.5607333779335022
time_elpased: 2.579
#iterations: 532
currently lose_sum: 0.5814085006713867
time_elpased: 2.606
#iterations: 533
currently lose_sum: 0.6173912286758423
time_elpased: 2.591
#iterations: 534
currently lose_sum: 0.6534699201583862
time_elpased: 2.575
#iterations: 535
currently lose_sum: 0.43944841623306274
time_elpased: 2.609
#iterations: 536
currently lose_sum: 0.6440353393554688
time_elpased: 2.652
#iterations: 537
currently lose_sum: 0.5544371008872986
time_elpased: 2.621
#iterations: 538
currently lose_sum: 0.5949907898902893
time_elpased: 2.596
#iterations: 539
currently lose_sum: 0.5601323843002319
time_elpased: 2.649
start validation test
0.630803571429
0.627133105802
0.653333333333
0.639965171963
0.630702541106
36.466
#iterations: 540
currently lose_sum: 0.5675426721572876
time_elpased: 2.644
#iterations: 541
currently lose_sum: 0.6017767786979675
time_elpased: 2.592
#iterations: 542
currently lose_sum: 0.6173093914985657
time_elpased: 2.579
#iterations: 543
currently lose_sum: 0.5694915652275085
time_elpased: 2.597
#iterations: 544
currently lose_sum: 0.5148113965988159
time_elpased: 2.6
#iterations: 545
currently lose_sum: 0.6622815728187561
time_elpased: 2.583
#iterations: 546
currently lose_sum: 0.5048859715461731
time_elpased: 2.647
#iterations: 547
currently lose_sum: 0.5658797025680542
time_elpased: 2.623
#iterations: 548
currently lose_sum: 0.5672354698181152
time_elpased: 2.556
#iterations: 549
currently lose_sum: 0.5172063112258911
time_elpased: 2.662
#iterations: 550
currently lose_sum: 0.5651777982711792
time_elpased: 2.604
#iterations: 551
currently lose_sum: 0.5203276872634888
time_elpased: 2.612
#iterations: 552
currently lose_sum: 0.6308718919754028
time_elpased: 2.586
#iterations: 553
currently lose_sum: 0.6016826629638672
time_elpased: 2.577
#iterations: 554
currently lose_sum: 0.6019036173820496
time_elpased: 2.613
#iterations: 555
currently lose_sum: 0.6974369287490845
time_elpased: 2.761
#iterations: 556
currently lose_sum: 0.48258963227272034
time_elpased: 2.6
#iterations: 557
currently lose_sum: 0.5735793113708496
time_elpased: 2.616
#iterations: 558
currently lose_sum: 0.5844942927360535
time_elpased: 2.621
#iterations: 559
currently lose_sum: 0.5486788153648376
time_elpased: 2.593
start validation test
0.637053571429
0.64364640884
0.621333333333
0.632293080054
0.63712406577
36.358
#iterations: 560
currently lose_sum: 0.5351675748825073
time_elpased: 2.585
#iterations: 561
currently lose_sum: 0.5715488195419312
time_elpased: 2.619
#iterations: 562
currently lose_sum: 0.5484583973884583
time_elpased: 2.593
#iterations: 563
currently lose_sum: 0.5987523794174194
time_elpased: 2.574
#iterations: 564
currently lose_sum: 0.6299346685409546
time_elpased: 2.579
#iterations: 565
currently lose_sum: 0.5784274339675903
time_elpased: 2.594
#iterations: 566
currently lose_sum: 0.5560939908027649
time_elpased: 2.547
#iterations: 567
currently lose_sum: 0.5348222851753235
time_elpased: 2.581
#iterations: 568
currently lose_sum: 0.6330291032791138
time_elpased: 2.557
#iterations: 569
currently lose_sum: 0.5371695756912231
time_elpased: 2.596
#iterations: 570
currently lose_sum: 0.6015608310699463
time_elpased: 2.579
#iterations: 571
currently lose_sum: 0.5805419683456421
time_elpased: 2.578
#iterations: 572
currently lose_sum: 0.5944803357124329
time_elpased: 2.609
#iterations: 573
currently lose_sum: 0.5756481885910034
time_elpased: 2.58
#iterations: 574
currently lose_sum: 0.5241779685020447
time_elpased: 2.54
#iterations: 575
currently lose_sum: 0.6630637645721436
time_elpased: 2.556
#iterations: 576
currently lose_sum: 0.5354941487312317
time_elpased: 2.576
#iterations: 577
currently lose_sum: 0.4984357953071594
time_elpased: 2.571
#iterations: 578
currently lose_sum: 0.5886754393577576
time_elpased: 2.575
#iterations: 579
currently lose_sum: 0.7241938710212708
time_elpased: 2.517
start validation test
0.629464285714
0.639019792648
0.602666666667
0.620311070448
0.62958445441
36.524
#iterations: 580
currently lose_sum: 0.6052614450454712
time_elpased: 2.583
#iterations: 581
currently lose_sum: 0.5448131561279297
time_elpased: 2.547
#iterations: 582
currently lose_sum: 0.543121337890625
time_elpased: 2.566
#iterations: 583
currently lose_sum: 0.43969401717185974
time_elpased: 2.552
#iterations: 584
currently lose_sum: 0.5793598890304565
time_elpased: 2.557
#iterations: 585
currently lose_sum: 0.5188015699386597
time_elpased: 2.536
#iterations: 586
currently lose_sum: 0.509827196598053
time_elpased: 2.572
#iterations: 587
currently lose_sum: 0.5198909044265747
time_elpased: 2.617
#iterations: 588
currently lose_sum: 0.6625046730041504
time_elpased: 2.578
#iterations: 589
currently lose_sum: 0.5460999608039856
time_elpased: 2.561
#iterations: 590
currently lose_sum: 0.5908886194229126
time_elpased: 2.556
#iterations: 591
currently lose_sum: 0.7062114477157593
time_elpased: 2.498
#iterations: 592
currently lose_sum: 0.6111785769462585
time_elpased: 2.346
#iterations: 593
currently lose_sum: 0.6138120293617249
time_elpased: 2.282
#iterations: 594
currently lose_sum: 0.553916871547699
time_elpased: 2.278
#iterations: 595
currently lose_sum: 0.6571844816207886
time_elpased: 2.295
#iterations: 596
currently lose_sum: 0.6261741518974304
time_elpased: 2.37
#iterations: 597
currently lose_sum: 0.6114711761474609
time_elpased: 2.523
#iterations: 598
currently lose_sum: 0.537326991558075
time_elpased: 2.463
#iterations: 599
currently lose_sum: 0.5495449900627136
time_elpased: 2.537
start validation test
0.630357142857
0.627249357326
0.650666666667
0.638743455497
0.630266068759
36.422
acc: 0.628
pre: 0.650
rec: 0.562
F1: 0.603
auc: 0.628
