49;DB00193;TRAMADOL;inducing
128;DB00295;MORPHINE
146;DB00318;CODEINE
153;DB00327;HYDROMORPHONE
158;DB00333;METHADONE;inducing
287;DB00497;OXYCODONE
366;DB00611;BUTORPHANOL
392;DB00652;PENTAZOCINE
427;DB00704;NALTREXONE
429;DB00708;SUFENTANIL
497;DB00802;ALFENTANIL
505;DB00813;FENTANYL;inducing
520;DB00836;LOPERAMIDE
525;DB00844;NALBUPHINE
558;DB00899;REMIFENTANIL
570;DB00913;ANILERIDINE
576;DB00921;BUPRENORPHINE
598;DB00956;HYDROCODONE
692;DB01081;DIPHENOXYLATE
758;DB01183;NALOXONE
766;DB01192;OXYMORPHONE
873;DB01452;HEROIN
978;DB06204;TAPENTADOL
989;DB06274;ALVIMOPAN
1053;DB00647;PROPOXYPHENE;inducing
