1148	97	114	0
639	48	74	0
943	225	112	0
1093	452	3	0
505	1160	100	0
827	147	485	0
1081	343	516	0
1017	263	266	0
1112	1039	468	0
322	767	324	0
820	999	89	0
59	78	9	0
391	1090	553	0
1101	461	636	0
136	782	764	0
558	932	476	0
282	796	442	0
326	1137	313	0
674	1094	637	0
1000	384	1133	0
495	1007	752	0
886	517	150	0
791	54	331	0
1037	93	619	0
846	242	564	0
1153	1129	1151	0
852	515	860	0
952	378	772	0
881	1131	112	0
249	1052	17	0
90	838	114	0
399	90	797	0
578	541	1033	0
608	748	552	0
791	1074	510	0
435	180	436	0
714	952	1025	0
531	1085	112	0
1096	94	249	0
1167	917	9	0
208	61	102	0
417	560	359	0
182	193	365	0
371	822	35	0
1151	214	466	0
746	623	665	0
632	466	676	0
678	1089	83	0
1157	909	342	0
341	771	958	0
691	540	874	0
200	552	1126	0
364	802	895	0
355	514	282	0
270	237	537	0
1057	761	1025	0
730	11	956	0
552	811	571	0
461	220	787	0
1125	682	17	0
100	752	1082	0
93	593	637	0
1133	177	511	0
944	485	508	0
660	571	885	0
318	980	965	0
849	939	1008	0
944	360	795	0
1074	887	816	0
83	265	394	0
946	463	325	0
840	1029	1077	0
136	1058	975	0
107	986	522	0
637	955	760	0
543	1152	1070	0
675	888	141	0
163	341	853	0
412	397	99	0
475	1020	283	0
152	1125	569	0
728	585	4	0
645	53	588	0
139	687	1076	0
33	753	657	0
436	174	877	0
987	942	1015	0
884	252	20	0
999	868	894	0
131	79	1087	0
457	437	1040	0
961	956	1159	0
339	526	439	0
636	1150	69	0
473	899	843	0
933	762	877	0
487	874	991	0
465	856	187	0
593	653	146	0
787	1154	645	0
263	155	159	0
984	1134	134	0
1086	24	687	0
292	795	1025	0
383	471	928	0
88	94	1045	0
15	1074	825	0
35	360	709	0
1138	262	1109	0
1114	1027	302	0
469	1131	572	0
523	60	204	0
1111	562	326	0
261	1126	939	0
67	7	132	0
635	563	929	0
213	373	664	0
1159	719	246	0
1042	297	302	0
279	952	155	0
100	1119	412	0
65	289	390	0
282	366	171	0
553	182	1071	0
1071	717	828	0
99	371	1008	0
286	781	12	0
286	160	1115	0
268	254	966	0
632	982	153	0
1140	459	36	0
735	969	330	0
740	607	387	0
980	1107	963	0
188	339	1099	0
407	688	702	0
892	193	410	0
431	1106	501	0
1107	916	74	0
929	61	576	0
434	600	741	0
465	326	636	0
1073	613	609	0
397	605	174	0
293	31	1030	0
678	984	1115	0
491	1169	709	0
920	649	438	0
537	1097	143	0
791	914	350	0
687	1053	491	0
1034	742	868	0
491	1001	353	0
1039	960	1021	0
465	328	858	0
427	279	1096	0
506	193	1044	0
452	402	1168	0
194	465	983	0
506	1123	216	0
1064	651	618	0
1081	576	557	0
945	63	32	0
340	658	807	0
1098	25	988	0
1059	1037	1141	0
608	660	144	0
350	495	799	0
220	691	151	0
111	29	63	0
382	1	1000	0
684	165	123	0
825	791	1071	0
676	461	249	0
202	377	947	0
807	475	339	0
270	885	973	0
203	475	225	0
126	679	505	0
1143	117	417	0
1134	124	1055	0
760	841	622	0
1178	944	852	0
505	729	651	0
334	485	752	0
319	1059	201	0
508	20	341	0
540	709	148	0
964	412	118	0
950	784	487	0
1054	800	1022	0
69	1135	1112	0
21	408	596	0
932	1012	124	0
1080	953	1166	0
502	184	928	0
956	105	271	0
231	990	87	0
1042	432	209	0
907	92	801	0
495	799	191	0
946	383	665	0
319	349	494	0
371	807	227	0
796	1129	938	0
345	1136	216	0
346	1130	820	0
151	831	767	0
1031	812	515	0
339	537	207	0
109	1116	934	0
1011	815	801	0
1151	308	65	0
793	250	167	0
514	1012	543	0
251	694	1126	0
293	1017	951	0
273	831	1166	0
461	1002	1156	0
185	944	742	0
29	1021	89	0
877	975	706	0
713	454	941	0
1096	1108	1019	0
692	131	182	0
454	619	1042	0
1098	733	1172	0
7	59	569	0
837	80	963	0
961	638	582	0
945	51	503	0
734	140	1060	0
1140	867	576	0
691	226	1039	0
184	757	385	0
150	674	646	0
343	1039	141	0
1054	49	63	0
767	699	759	0
266	322	161	0
1001	635	950	0
632	787	819	0
969	1010	395	0
65	722	243	0
989	315	886	0
89	87	1123	0
563	913	141	0
319	876	931	0
20	175	68	0
819	587	1084	0
19	1063	649	0
552	279	805	0
774	906	1165	0
524	1148	684	0
379	973	583	0
712	897	1024	0
736	1011	862	0
275	918	453	0
735	975	222	0
567	1064	875	0
484	200	88	0
759	810	424	0
780	1091	679	0
611	1042	525	0
856	617	995	0
896	1120	328	0
917	436	495	0
572	793	706	0
1071	225	1091	0
350	519	889	0
252	1132	251	0
61	888	24	0
295	898	210	0
978	290	297	0
87	178	302	0
270	1164	1057	0
188	1033	730	0
283	876	1023	0
414	1042	131	0
148	406	250	0
37	899	476	0
858	754	873	0
1043	1131	1167	0
891	536	1014	0
651	314	1055	0
583	700	178	0
1063	95	784	0
1069	948	95	0
1132	65	1078	0
1141	741	180	0
555	246	501	0
849	511	761	0
485	1097	757	0
860	341	971	0
506	94	480	0
1087	374	1064	0
657	1006	1023	0
728	94	1	0
1007	699	633	0
1101	638	448	0
1069	511	1138	0
694	387	602	0
625	1020	497	0
896	1090	439	0
808	1080	520	0
684	809	197	0
537	795	521	0
1139	470	1072	0
902	231	949	0
101	648	424	0
360	630	86	0
1133	1073	669	0
178	53	628	0
1060	188	276	0
426	19	903	0
305	819	479	0
230	355	826	0
557	1121	388	0
139	394	671	0
712	227	456	0
616	772	594	0
1057	717	992	0
853	697	12	0
183	1059	671	0
483	70	557	0
752	1129	1106	0
641	1009	523	0
650	845	959	0
135	991	907	0
298	1131	56	0
1119	764	213	0
1004	1029	949	0
347	277	857	0
1065	394	701	0
623	474	1086	0
570	931	1009	0
1108	192	54	0
454	470	798	0
999	312	608	0
220	442	470	0
956	1118	192	0
1018	276	390	0
1132	746	989	0
460	390	135	0
793	1159	988	0
1131	562	208	0
2	1107	418	0
895	121	109	0
402	485	1115	0
1079	342	1171	0
282	554	839	0
638	1125	1175	0
1016	757	946	0
1095	569	234	0
298	114	148	0
414	378	390	0
190	1094	1040	0
685	416	958	0
949	582	874	0
968	706	93	0
274	1119	120	0
106	843	1129	0
901	1099	735	0
378	243	597	0
480	993	735	0
1046	234	1108	0
1063	915	1072	0
373	619	710	0
583	1068	537	0
531	1041	1000	0
978	354	1111	0
1098	183	651	0
795	174	13	0
236	37	901	0
307	989	844	0
1042	165	199	0
687	1149	1123	0
554	20	590	0
617	183	567	0
350	1021	42	0
745	938	512	0
658	993	748	0
350	946	843	0
1015	1130	120	0
195	616	814	0
779	305	1094	0
308	258	180	0
1018	1101	80	0
190	987	856	0
858	536	1099	0
900	1096	637	0
990	700	356	0
286	40	16	0
746	462	697	0
304	241	633	0
207	296	380	0
411	1122	876	0
1135	651	83	0
895	1131	955	0
918	1179	82	0
616	1107	945	0
499	403	191	0
1137	1099	666	0
192	620	146	0
154	180	819	0
485	1097	149	0
1028	979	787	0
8	135	1051	0
980	1048	200	0
956	919	501	0
607	11	643	0
141	734	1038	0
99	201	719	0
1046	1162	619	0
9	132	1135	0
123	735	1006	0
648	966	946	0
399	1066	920	0
986	1138	1151	0
623	1144	559	0
255	877	194	0
659	800	29	0
966	555	116	0
1059	1173	633	0
1134	436	395	0
637	517	633	0
241	514	811	0
819	702	1031	0
965	145	1098	0
718	465	659	0
643	844	746	0
748	656	110	0
152	69	957	0
752	1135	815	0
996	997	128	0
657	266	998	0
914	342	431	0
1150	536	954	0
592	366	557	0
586	636	1050	0
1148	1094	825	0
591	622	163	0
736	263	384	0
1009	242	484	0
1033	1087	794	0
595	16	185	0
431	513	945	0
316	916	62	0
116	109	504	0
932	935	587	0
347	637	1041	0
602	236	616	0
976	1113	437	0
701	135	431	0
226	718	838	0
763	1143	418	0
165	499	213	0
80	897	164	0
605	83	707	0
200	101	791	0
1072	301	48	0
95	406	827	0
1005	694	411	0
127	553	766	0
106	105	1051	0
1025	149	1116	0
917	720	479	0
1160	753	447	0
1011	1017	667	0
58	853	411	0
707	633	552	0
659	242	701	0
905	1178	787	0
1180	17	592	0
428	94	522	0
719	483	685	0
973	1003	651	0
752	1115	942	0
20	1041	558	0
93	854	1121	0
128	719	576	0
1008	64	97	0
534	886	447	0
516	331	759	0
184	1172	902	0
1096	825	854	0
870	499	139	0
290	813	938	0
524	781	516	0
165	463	1004	0
779	65	1022	0
16	627	992	0
886	439	197	0
373	747	630	0
12	954	190	0
587	308	1064	0
101	261	1110	0
1065	1092	882	0
630	94	394	0
910	727	1150	0
1100	1046	1031	0
553	989	28	0
1043	1061	753	0
812	663	907	0
784	1153	1041	0
1086	476	50	0
996	46	1001	0
1173	1067	569	0
216	508	997	0
867	627	876	0
164	963	239	0
320	355	800	0
258	993	616	0
900	968	290	0
391	902	765	0
1066	192	832	0
6	903	533	0
592	623	407	0
1069	141	32	0
184	310	980	0
951	1132	358	0
1106	143	211	0
718	1110	324	0
1134	771	1165	0
1145	1018	29	0
108	250	1002	0
916	1120	1012	0
804	833	733	0
767	86	719	0
605	752	442	0
586	67	1045	0
465	1098	874	0
674	241	348	0
988	282	810	0
301	182	1068	0
589	357	584	0
1143	435	61	0
241	277	654	0
894	541	532	0
1052	86	152	0
796	861	226	0
334	1026	483	0
451	782	204	0
105	80	1102	0
465	905	414	0
426	753	957	0
295	424	276	0
1024	1040	985	0
1178	899	1055	0
1007	409	832	0
1179	431	987	0
259	1007	1096	0
207	963	1143	0
826	681	70	0
838	493	180	0
713	1008	554	0
134	614	1055	0
476	1116	92	0
1137	582	86	0
644	772	600	0
830	188	147	0
387	423	174	0
794	962	719	0
122	148	1140	0
956	164	1133	0
470	105	271	0
1052	1124	391	0
707	1069	190	0
858	261	650	0
630	1082	714	0
913	651	1168	0
1058	45	412	0
830	990	303	0
1089	1162	907	0
473	338	539	0
1119	628	178	0
627	1076	921	0
898	816	178	0
531	141	1169	0
195	1076	1153	0
447	1015	1045	0
226	731	935	0
1070	570	1002	0
811	638	421	0
920	1104	386	0
398	608	1121	0
1037	470	1059	0
1151	994	14	0
787	1043	701	0
659	641	87	0
1076	25	45	0
348	907	712	0
26	425	165	0
12	340	3	0
962	1089	118	0
910	236	124	0
177	948	1122	0
662	1058	461	0
874	774	1107	0
160	29	155	0
371	685	226	0
679	887	1098	0
917	956	188	0
760	679	385	0
79	389	770	0
596	1057	442	0
473	93	999	0
915	313	1040	0
1065	931	519	0
1173	1030	340	0
1149	1099	1110	0
913	447	1021	0
85	1135	1109	0
852	1123	1012	0
554	225	356	0
868	17	869	0
934	674	899	0
53	741	220	0
555	88	421	0
1112	477	1147	0
678	375	350	0
1086	201	188	0
990	468	1041	0
1074	504	505	0
520	315	74	0
389	275	791	0
1114	150	35	0
1149	883	537	0
805	68	559	0
1149	342	1035	0
909	534	541	0
1026	264	1079	0
1037	961	1090	0
955	752	1109	0
524	183	1027	0
31	13	641	0
300	753	34	0
612	271	968	0
331	753	402	0
895	23	619	0
236	483	752	0
995	679	999	0
821	893	909	0
774	876	313	0
241	757	216	0
802	681	834	0
996	1098	687	0
1174	936	398	0
17	1021	303	0
1080	590	860	0
56	706	1178	0
388	758	858	0
892	36	375	0
436	523	51	0
858	187	417	0
607	941	926	0
1100	1124	942	0
645	481	691	0
1103	553	679	0
1179	424	571	0
796	191	375	0
1179	92	996	0
12	1000	1168	0
491	1179	139	0
135	709	1023	0
632	617	1107	0
268	134	616	0
188	1056	898	0
872	205	548	0
685	819	372	0
236	1178	528	0
658	1049	828	0
1134	443	252	0
461	1149	601	0
1072	182	812	0
146	494	1027	0
658	487	195	0
684	1106	673	0
411	63	960	0
566	505	664	0
600	192	721	0
193	833	414	0
186	913	338	0
36	476	868	0
903	171	251	0
570	755	474	0
670	552	996	0
956	557	699	0
264	87	475	0
1115	79	232	0
958	872	483	0
1084	90	970	0
245	264	1030	0
687	533	142	0
90	1097	105	0
772	366	1136	0
939	707	191	0
897	395	502	0
1043	880	995	0
945	1054	534	0
442	618	335	0
779	195	587	0
1063	796	764	0
324	728	589	0
90	236	149	0
557	69	828	0
917	1168	830	0
977	965	681	0
29	1004	1029	0
1148	16	286	0
273	521	978	0
360	542	216	0
990	1008	1014	0
1147	504	920	0
211	94	345	0
1144	64	363	0
837	562	664	0
838	109	532	0
237	250	1149	0
313	766	202	0
383	1042	116	0
1040	1031	383	0
717	784	139	0
1030	439	1090	0
569	845	280	0
197	918	935	0
677	1133	920	0
1021	923	801	0
142	965	1071	0
825	111	903	0
190	917	525	0
779	66	14	0
638	717	501	0
1083	894	300	0
930	636	9	0
653	1123	321	0
368	664	926	0
387	253	989	0
69	499	76	0
584	895	821	0
134	391	619	0
118	557	1087	0
220	323	719	0
841	633	1024	0
1166	242	624	0
1064	1112	435	0
666	613	568	0
25	504	932	0
1131	752	931	0
795	42	203	0
101	692	46	0
669	820	956	0
1094	997	236	0
766	90	242	0
572	524	265	0
56	39	25	0
1027	390	965	0
1101	17	1142	0
432	535	1141	0
931	795	51	0
951	155	946	0
230	909	645	0
447	1056	810	0
151	383	1139	0
197	479	1137	0
581	965	1125	0
347	921	1014	0
682	1007	462	0
826	936	961	0
538	165	526	0
901	482	1115	0
243	132	133	0
277	1039	220	0
197	882	1056	0
729	210	411	0
356	473	141	0
1085	823	692	0
908	760	942	0
934	218	156	0
325	1153	1120	0
192	691	407	0
485	673	607	0
718	426	427	0
166	1057	998	0
378	14	360	0
89	17	65	0
1009	818	1177	0
174	31	124	0
743	840	114	0
397	161	87	0
325	498	273	0
818	337	852	0
1002	1139	111	0
1052	375	590	0
688	862	7	0
861	87	639	0
340	1159	979	0
638	447	861	0
839	664	94	0
1032	609	579	0
1086	895	431	0
461	238	151	0
697	852	345	0
915	258	594	0
168	108	796	0
872	650	723	0
700	1145	1054	0
739	840	812	0
109	40	735	0
236	296	419	0
483	933	1141	0
1025	644	1087	0
277	409	1067	0
943	92	623	0
1112	48	511	0
532	627	1003	0
1008	43	1167	0
1168	94	514	0
1104	617	331	0
843	1115	1000	0
1145	764	1095	0
424	511	906	0
1108	342	600	0
628	373	200	0
860	1032	839	0
147	452	670	0
682	800	927	0
371	597	777	0
1169	927	234	0
679	1040	332	0
1072	571	127	0
1051	824	924	0
1070	201	46	0
108	177	99	0
1020	703	1146	0
998	796	514	0
745	905	1061	0
651	26	463	0
517	56	733	0
36	243	901	0
241	1118	939	0
401	1	279	0
326	337	560	0
65	54	587	0
562	1008	1041	0
589	443	1030	0
1104	161	685	0
1015	105	332	0
501	251	1000	0
888	265	39	0
920	302	1085	0
1009	518	576	0
19	898	1098	0
1007	144	223	0
594	1151	1141	0
823	619	80	0
1064	462	490	0
526	145	881	0
143	335	273	0
62	1051	111	0
672	589	952	0
935	406	122	0
1164	999	432	0
636	1137	1119	0
553	784	978	0
833	666	462	0
78	214	240	0
644	90	784	0
550	471	534	0
335	1115	951	0
146	289	1026	0
899	827	185	0
296	485	474	0
759	918	755	0
911	541	1135	0
536	194	340	0
1042	379	199	0
899	1093	26	0
604	296	1175	0
553	988	63	0
554	852	149	0
959	568	210	0
151	983	555	0
100	942	1039	0
512	877	100	0
1041	559	51	0
124	90	4	0
1037	538	232	0
503	420	802	0
828	252	764	0
880	342	1088	0
714	821	759	0
936	1108	990	0
109	363	65	0
9	1111	533	0
182	149	1012	0
99	1012	1040	0
90	590	551	0
567	1114	735	0
861	752	317	0
1045	584	811	0
1023	1157	24	0
358	431	541	0
929	1008	766	0
134	553	180	0
1169	53	553	0
1104	89	779	0
781	1123	191	0
474	112	148	0
757	323	209	0
657	632	195	0
693	785	950	0
671	782	61	0
1073	146	204	0
377	560	8	0
494	360	282	0
495	603	837	0
190	528	355	0
1074	941	869	0
1079	201	386	0
771	277	636	0
612	833	58	0
332	876	748	0
800	636	291	0
1000	300	819	0
399	1098	145	0
48	200	583	0
1047	623	721	0
98	555	1175	0
594	189	411	0
552	622	325	0
460	876	378	0
1074	952	317	0
785	151	774	0
213	141	717	0
224	672	885	0
709	892	8	0
65	1166	973	0
1129	556	554	0
122	1027	802	0
547	526	600	0
1049	1007	133	0
1105	193	36	0
89	632	858	0
1136	31	1127	0
997	1005	971	0
494	1041	916	0
955	696	380	0
812	533	502	0
946	777	374	0
165	164	825	0
1120	753	804	0
504	673	878	0
980	479	74	0
956	669	463	0
779	560	204	0
990	379	232	0
450	80	774	0
941	1000	1080	0
143	917	505	0
387	787	845	0
961	48	1008	0
1055	1079	220	0
148	459	784	0
1136	936	623	0
305	418	61	0
70	856	901	0
636	177	298	0
885	406	239	0
320	791	453	0
312	300	389	0
7	389	614	0
1066	471	104	0
2	1056	397	0
261	677	614	0
697	828	1061	0
147	731	437	0
394	299	664	0
184	728	250	0
988	1166	665	0
1100	617	570	0
840	356	1134	0
1145	558	8	0
141	1030	1089	0
147	436	182	0
631	417	932	0
1109	274	234	0
123	1145	731	0
90	774	326	0
919	515	365	0
471	286	649	0
51	924	988	0
822	452	87	0
493	112	1136	0
1067	959	366	0
207	635	975	0
291	878	692	0
1102	14	282	0
721	1027	395	0
1141	117	1032	0
960	634	666	0
1057	350	933	0
1174	518	1131	0
1172	1010	1071	0
940	567	995	0
380	1173	990	0
976	1113	381	0
373	630	19	0
1045	505	1167	0
1168	165	625	0
860	236	1095	0
843	936	676	0
1155	456	22	0
600	459	895	0
284	16	1101	0
614	1093	919	0
1052	930	635	0
1154	612	740	0
271	962	1143	0
1034	214	627	0
1166	766	1109	0
1004	933	1019	0
843	1032	761	0
1178	97	349	0
355	931	282	0
49	1154	156	0
733	453	915	0
568	1153	410	0
549	880	112	0
122	840	358	0
64	724	543	0
619	107	1033	0
25	608	489	0
476	498	563	0
244	898	1091	0
126	36	633	0
1107	517	1090	0
134	1081	487	0
150	64	963	0
767	684	315	0
702	276	574	0
512	1134	1111	0
805	148	700	0
1073	1010	228	0
895	277	717	0
149	187	471	0
705	106	1075	0
1155	144	699	0
150	1154	849	0
3	566	915	0
562	447	866	0
40	113	642	1
413	778	884	1
91	467	730	1
33	464	642	1
413	778	1046	1
181	328	732	1
215	565	751	1
413	507	642	1
169	367	369	1
38	507	751	1
77	169	704	1
137	472	670	1
173	478	751	1
38	269	405	1
15	181	444	1
667	689	751	1
173	413	667	1
413	667	1157	1
256	440	455	1
245	259	703	1
84	595	751	1
169	440	751	1
172	472	769	1
40	392	1157	1
176	293	751	1
41	405	751	1
84	162	233	1
233	405	817	1
173	507	642	1
413	444	810	1
181	269	405	1
41	642	667	1
577	655	790	1
181	348	577	1
215	328	704	1
215	720	751	1
157	159	330	1
119	215	228	1
5	577	864	1
294	478	751	1
173	413	532	1
259	504	703	1
40	472	689	1
38	298	758	1
413	444	667	1
269	405	751	1
413	478	751	1
96	577	683	1
403	751	765	1
405	408	598	1
154	352	816	1
358	472	556	1
40	328	413	1
73	413	478	1
52	751	891	1
41	169	605	1
40	215	751	1
352	405	816	1
126	229	405	1
285	867	914	1
117	352	556	1
66	157	159	1
233	488	642	1
535	642	751	1
237	328	751	1
478	642	751	1
395	786	1177	1
169	621	737	1
403	642	788	1
269	472	751	1
530	642	667	1
507	715	765	1
176	405	413	1
269	405	468	1
455	577	629	1
169	413	667	1
413	722	751	1
413	667	689	1
117	154	769	1
77	169	413	1
269	413	642	1
176	405	408	1
269	488	765	1
84	285	857	1
173	205	288	1
351	492	678	1
392	413	884	1
233	306	626	1
71	670	929	1
40	215	455	1
351	577	683	1
173	413	722	1
176	269	751	1
52	224	690	1
71	176	255	1
181	269	751	1
413	667	847	1
440	642	765	1
119	642	765	1
41	113	765	1
162	652	686	1
765	857	914	1
294	369	686	1
215	237	478	1
488	642	751	1
113	267	751	1
84	162	686	1
269	403	751	1
173	215	751	1
98	129	857	1
455	711	890	1
176	328	408	1
269	667	751	1
488	642	765	1
41	642	765	1
98	171	546	1
157	751	790	1
140	229	433	1
333	678	864	1
215	413	751	1
215	689	751	1
140	433	546	1
84	444	556	1
47	215	751	1
367	667	689	1
169	440	765	1
157	369	642	1
743	803	914	1
157	294	363	1
5	351	724	1
40	413	667	1
269	653	670	1
71	129	751	1
269	285	686	1
455	478	765	1
488	535	765	1
215	689	765	1
33	129	395	1
403	722	765	1
84	444	455	1
129	358	472	1
405	488	577	1
5	413	683	1
52	157	306	1
41	256	413	1
403	413	642	1
41	169	413	1
173	507	751	1
472	486	867	1
256	413	478	1
323	610	859	1
154	486	575	1
38	403	478	1
434	642	921	1
38	173	413	1
440	455	629	1
285	867	929	1
403	642	817	1
169	413	532	1
215	413	642	1
284	370	675	1
403	413	870	1
298	642	751	1
172	358	556	1
173	444	776	1
440	507	751	1
269	413	765	1
269	294	444	1
113	455	776	1
269	405	577	1
215	580	751	1
38	751	790	1
259	312	848	1
642	751	786	1
327	336	864	1
256	292	642	1
2	169	642	1
181	507	751	1
84	138	546	1
215	294	334	1
504	653	670	1
113	215	269	1
75	113	929	1
372	615	751	1
169	642	667	1
41	413	1006	1
40	77	642	1
507	642	751	1
413	640	690	1
215	413	667	1
670	675	929	1
47	769	803	1
38	413	1046	1
47	310	486	1
154	172	310	1
50	565	865	1
172	310	352	1
71	405	580	1
667	751	870	1
113	367	413	1
176	233	328	1
169	176	751	1
169	413	780	1
413	667	870	1
176	577	642	1
81	173	181	1
176	413	642	1
689	751	912	1
248	629	751	1
269	285	288	1
413	667	788	1
403	667	751	1
84	157	642	1
344	817	889	1
413	429	667	1
30	154	344	1
71	413	667	1
507	532	642	1
58	413	847	1
215	269	405	1
169	267	751	1
478	689	751	1
113	642	983	1
173	478	765	1
117	137	670	1
328	413	580	1
172	352	743	1
413	660	689	1
413	765	870	1
113	233	751	1
43	154	1145	1
205	486	544	1
38	722	751	1
413	737	847	1
130	732	929	1
344	486	817	1
173	215	689	1
169	667	704	1
455	472	642	1
76	467	730	1
285	486	565	1
478	488	751	1
52	369	488	1
169	478	891	1
157	642	751	1
181	403	413	1
115	527	769	1
413	667	765	1
642	660	789	1
642	689	751	1
113	215	667	1
440	751	912	1
173	408	765	1
215	413	444	1
176	215	455	1
690	737	855	1
269	660	765	1
478	580	642	1
196	260	654	1
169	173	751	1
38	751	765	1
370	440	640	1
233	546	605	1
113	217	689	1
413	429	870	1
49	138	864	1
171	259	703	1
269	660	689	1
413	667	751	1
40	62	455	1
43	352	686	1
293	642	751	1
267	413	751	1
259	690	703	1
97	172	310	1
117	269	413	1
176	737	847	1
267	429	660	1
369	413	751	1
113	413	667	1
215	392	891	1
392	455	847	1
40	215	222	1
478	689	776	1
413	440	912	1
40	215	1177	1
113	642	667	1
173	591	683	1
478	689	765	1
413	789	1102	1
413	690	937	1
294	413	686	1
38	413	751	1
311	875	979	1
267	546	686	1
284	370	504	1
486	544	556	1
392	689	751	1
84	392	689	1
478	642	765	1
84	429	507	1
157	306	468	1
113	478	765	1
15	732	929	1
261	475	888	1
198	413	1089	1
222	486	544	1
294	884	1177	1
267	405	577	1
405	640	690	1
77	237	751	1
542	629	765	1
62	413	667	1
248	546	626	1
170	413	690	1
173	413	1006	1
117	344	615	1
138	492	549	1
157	202	732	1
440	765	786	1
40	215	575	1
215	269	751	1
47	269	486	1
137	444	670	1
73	233	580	1
71	330	737	1
119	689	765	1
269	468	921	1
642	704	751	1
47	205	486	1
413	535	667	1
169	751	765	1
169	527	751	1
267	310	686	1
269	285	405	1
403	722	751	1
157	362	529	1
77	667	751	1
413	507	751	1
41	642	751	1
138	549	686	1
367	370	640	1
256	642	751	1
138	310	549	1
113	328	488	1
169	478	765	1
157	229	546	1
215	372	751	1
38	667	722	1
169	715	765	1
224	690	847	1
330	413	751	1
642	751	789	1
113	507	751	1
478	642	870	1
269	294	751	1
113	413	507	1
50	73	865	1
488	751	765	1
84	176	686	1
229	405	598	1
294	306	556	1
392	642	751	1
113	169	751	1
217	689	765	1
40	113	751	1
215	488	535	1
126	292	864	1
172	486	743	1
6	41	269	1
751	786	847	1
41	81	778	1
413	530	642	1
467	475	888	1
413	667	769	1
40	269	751	1
84	689	715	1
224	269	272	1
351	405	530	1
642	667	765	1
40	642	751	1
75	269	870	1
77	169	722	1
71	758	803	1
264	408	875	1
47	50	865	1
172	486	889	1
119	169	884	1
215	367	790	1
269	423	751	1
310	486	914	1
154	344	549	1
215	440	765	1
392	507	765	1
198	310	521	1
41	667	751	1
176	580	751	1
157	408	750	1
215	372	440	1
272	370	732	1
137	157	670	1
405	478	689	1
173	405	527	1
84	565	725	1
113	181	405	1
176	642	884	1
157	294	306	1
157	288	652	1
77	507	788	1
413	747	778	1
233	267	269	1
40	530	765	1
575	577	655	1
130	405	488	1
334	668	751	1
403	642	704	1
62	455	869	1
237	642	765	1
176	267	405	1
464	642	765	1
50	154	865	1
413	507	667	1
267	328	413	1
196	519	821	1
215	472	580	1
215	358	468	1
413	642	689	1
215	403	751	1
267	722	788	1
157	159	468	1
181	642	751	1
103	154	743	1
169	742	765	1
169	269	765	1
84	362	556	1
215	642	667	1
642	722	765	1
546	549	866	1
327	687	859	1
71	642	765	1
173	488	751	1
215	751	765	1
269	530	751	1
157	352	652	1
154	743	1089	1
269	405	546	1
129	198	556	1
176	369	405	1
129	765	857	1
496	817	1145	1
157	344	732	1
47	285	857	1
444	642	765	1
215	765	789	1
392	642	765	1
40	403	765	1
403	464	751	1
269	405	598	1
38	413	765	1
405	598	921	1
413	444	642	1
130	405	580	1
157	652	751	1
5	413	449	1
272	504	732	1
169	444	478	1
137	629	670	1
492	670	1112	1
269	527	751	1
413	667	884	1
444	751	778	1
40	233	689	1
413	642	667	1
621	737	790	1
103	344	352	1
15	405	921	1
208	423	743	1
121	478	690	1
47	330	914	1
130	405	921	1
157	751	1176	1
41	173	751	1
157	215	751	1
675	769	855	1
157	652	890	1
269	642	751	1
125	140	549	1
334	642	751	1
113	215	751	1
667	722	765	1
181	413	642	1
215	405	751	1
269	370	640	1
272	642	690	1
413	440	530	1
113	472	765	1
15	642	1145	1
40	169	173	1
403	413	667	1
41	413	455	1
565	642	751	1
413	751	765	1
137	670	732	1
84	157	743	1
173	413	711	1
113	642	722	1
40	689	751	1
40	269	789	1
119	269	765	1
77	169	847	1
642	732	790	1
269	689	765	1
217	689	751	1
75	370	646	1
172	222	486	1
269	405	527	1
689	715	765	1
344	743	816	1
288	306	546	1
269	408	468	1
40	215	478	1
215	269	765	1
113	228	444	1
198	330	737	1
157	269	1176	1
119	269	758	1
47	472	486	1
73	137	157	1
405	413	535	1
40	486	565	1
215	372	455	1
57	157	790	1
215	535	751	1
413	556	642	1
44	52	129	1
209	348	551	1
351	581	591	1
137	169	670	1
73	172	486	1
370	640	1160	1
129	857	914	1
47	172	867	1
62	348	869	1
66	370	640	1
408	581	683	1
129	344	743	1
103	352	816	1
5	327	351	1
157	306	546	1
285	670	1112	1
311	979	1128	1
47	154	857	1
348	444	869	1
5	408	449	1
330	577	790	1
5	408	591	1
171	233	306	1
5	327	697	1
170	690	1160	1
504	670	929	1
130	384	478	1
294	328	363	1
169	670	929	1
5	655	683	1
304	401	607	1
670	769	1112	1
169	704	732	1
233	625	823	1
697	724	748	1
690	855	937	1
113	488	857	1
284	370	640	1
143	311	593	1
467	607	747	1
169	742	788	1
5	577	970	1
565	642	725	1
5	408	655	1
284	370	690	1
653	670	1112	1
138	140	866	1
228	323	768	1
121	640	937	1
43	140	546	1
370	472	640	1
323	511	768	1
310	486	857	1
264	327	336	1
169	788	884	1
126	723	864	1
62	348	444	1
209	444	1092	1
670	737	1112	1
5	577	655	1
5	519	864	1
304	401	467	1
488	765	857	1
157	652	929	1
117	154	352	1
47	154	310	1
168	727	847	1
323	768	882	1
260	315	655	1
327	333	687	1
157	347	847	1
294	328	642	1
169	403	642	1
176	670	929	1
96	408	683	1
91	143	607	1
62	869	1092	1
449	577	591	1
260	315	890	1
154	344	352	1
172	310	857	1
71	737	847	1
259	478	703	1
143	467	747	1
76	304	467	1
179	370	640	1
143	304	467	1
154	486	857	1
154	186	352	1
179	284	690	1
748	843	864	1
117	154	344	1
333	519	654	1
6	660	689	1
333	351	678	1
444	507	642	1
172	198	857	1
336	419	511	1
229	723	864	1
229	577	875	1
5	449	970	1
260	326	768	1
272	370	640	1
233	248	769	1
154	486	743	1
198	344	1089	1
530	732	750	1
224	284	690	1
678	748	819	1
370	640	937	1
260	336	419	1
62	444	761	1
315	511	519	1
52	157	652	1
488	507	765	1
157	625	652	1
486	857	914	1
172	285	486	1
5	351	748	1
675	690	855	1
304	467	607	1
171	556	613	1
285	486	496	1
129	344	857	1
370	640	803	1
52	138	157	1
126	229	864	1
370	640	855	1
154	521	841	1
154	344	914	1
405	468	921	1
73	198	556	1
260	315	875	1
401	418	467	1
130	384	405	1
49	229	864	1
52	546	686	1
154	198	205	1
284	640	690	1
440	689	912	1
285	720	847	1
47	172	486	1
196	260	687	1
30	414	864	1
138	140	546	1
154	198	867	1
157	652	686	1
137	202	670	1
157	172	392	1
157	652	891	1
130	173	384	1
157	642	652	1
84	157	306	1
157	732	929	1
157	605	642	1
449	577	581	1
260	654	859	1
202	653	670	1
519	654	821	1
370	640	642	1
62	444	869	1
5	351	577	1
76	418	607	1
77	169	884	1
154	172	914	1
519	678	843	1
264	315	336	1
138	157	652	1
327	697	748	1
5	697	748	1
486	857	867	1
5	327	577	1
315	336	875	1
292	454	678	1
292	724	864	1
304	467	747	1
137	670	1112	1
157	605	732	1
5	724	748	1
157	504	732	1
304	311	467	1
581	724	748	1
113	221	444	1
157	306	686	1
209	444	551	1
507	660	668	1
40	215	689	1
403	478	642	1
157	328	1176	1
315	336	687	1
154	198	857	1
519	654	724	1
306	546	556	1
5	577	712	1
530	732	929	1
304	311	747	1
351	519	821	1
154	486	889	1
369	507	642	1
154	344	857	1
162	198	769	1
403	478	689	1
97	310	914	1
169	237	642	1
5	449	655	1
311	401	747	1
154	769	857	1
176	488	580	1
103	154	344	1
113	403	642	1
323	610	864	1
173	215	328	1
315	654	859	1
154	245	486	1
57	157	732	1
154	857	867	1
233	472	803	1
172	344	914	1
5	327	748	1
370	640	891	1
154	198	914	1
370	408	690	1
817	857	867	1
157	159	369	1
344	803	817	1
157	652	769	1
209	348	444	1
352	615	743	1
154	172	556	1
327	748	843	1
654	859	875	1
233	288	857	1
138	306	556	1
77	169	788	1
157	328	652	1
154	172	486	1
40	642	689	1
129	670	1112	1
170	370	690	1
169	237	742	1
196	260	264	1
40	689	1157	1
73	285	769	1
154	857	914	1
233	306	546	1
40	113	215	1
215	689	715	1
5	449	683	1
408	581	970	1
311	401	979	1
170	690	891	1
311	418	979	1
327	336	351	1
138	140	361	1
348	444	455	1
71	176	488	1
202	670	929	1
52	215	743	1
5	449	591	1
687	859	882	1
76	418	467	1
126	229	468	1
169	173	369	1
119	403	642	1
157	179	732	1
130	384	474	1
488	675	855	1
260	864	875	1
344	857	867	1
315	519	864	1
103	117	352	1
675	855	937	1
157	605	652	1
233	306	605	1
154	186	841	1
44	202	964	1
73	233	857	1
157	347	1022	1
577	581	683	1
675	690	937	1
260	315	326	1
62	209	444	1
327	577	655	1
403	507	642	1
408	675	855	1
264	315	768	1
138	306	546	1
348	444	761	1
304	311	979	1
327	546	687	1
49	454	678	1
103	117	344	1
154	841	1082	1
130	384	1029	1
507	642	715	1
327	408	723	1
556	625	823	1
171	233	857	1
690	891	937	1
113	181	778	1
43	138	361	1
103	154	352	1
117	186	352	1
62	444	1092	1
530	670	1112	1
157	306	556	1
326	654	859	1
157	556	652	1
408	581	591	1
625	823	857	1
344	857	914	1
157	732	750	1
130	384	642	1
126	229	859	1
351	678	864	1
130	527	1029	1
154	344	686	1
260	315	654	1
77	169	237	1
157	652	743	1
154	743	857	1
488	535	689	1
625	817	823	1
370	444	640	1
5	449	748	1
408	712	970	1
40	169	689	1
272	670	1112	1
169	577	788	1
504	530	732	1
154	172	867	1
260	326	654	1
370	675	855	1
209	551	1092	1
413	667	891	1
43	138	140	1
44	803	964	1
157	162	652	1
445	546	549	1
743	769	857	1
40	215	642	1
30	315	414	1
408	449	591	1
73	857	914	1
315	336	419	1
323	336	419	1
84	157	732	1
259	444	703	1
172	486	867	1
41	169	237	1
157	642	732	1
504	670	1112	1
179	670	1112	1
143	401	467	1
62	348	761	1
244	367	455	1
154	803	857	1
244	348	455	1
408	655	790	1
154	344	615	1
418	467	747	1
401	467	730	1
315	351	687	1
77	169	751	1
444	642	668	1
73	670	1112	1
117	670	1112	1
129	154	857	1
370	408	640	1
264	327	859	1
327	519	697	1
157	652	732	1
169	780	884	1
40	215	1157	1
408	864	875	1
62	209	348	1
117	198	205	1
157	159	306	1
40	173	689	1
5	449	581	1
154	198	743	1
507	642	668	1
434	670	1112	1
737	786	847	1
40	113	689	1
327	333	408	1
670	732	1112	1
284	675	855	1
154	172	857	1
171	306	546	1
169	237	765	1
169	704	884	1
229	405	468	1
5	408	683	1
5	577	683	1
454	519	678	1
519	678	819	1
348	444	642	1
654	687	859	1
577	581	712	1
264	327	882	1
551	761	1092	1
315	519	654	1
221	429	444	1
129	743	857	1
130	474	527	1
449	581	591	1
126	229	768	1
170	690	937	1
73	358	803	1
157	306	652	1
98	486	857	1
292	687	864	1
472	743	857	1
333	687	864	1
215	751	769	1
327	723	864	1
403	444	642	1
408	449	581	1
84	103	117	1
327	333	577	1
229	732	737	1
157	233	1176	1
351	369	577	1
229	408	724	1
179	284	370	1
84	157	159	1
169	237	704	1
344	841	1082	1
413	642	891	1
157	369	732	1
327	351	581	1
154	352	743	1
157	306	891	1
348	507	642	1
315	519	821	1
333	351	864	1
577	581	655	1
351	724	748	1
104	259	703	1
344	743	841	1
344	743	857	1
50	303	865	1
169	704	788	1
348	444	551	1
81	403	642	1
675	765	855	1
311	467	979	1
288	743	857	1
91	418	607	1
40	169	884	1
157	306	605	1
196	315	859	1
40	173	215	1
157	171	652	1
169	237	328	1
143	418	467	1
292	408	724	1
233	248	472	1
117	344	841	1
472	670	1112	1
170	690	855	1
260	315	859	1
670	690	929	1
336	419	519	1
333	408	454	1
84	157	652	1
269	670	929	1
229	864	875	1
44	245	964	1
315	678	864	1
170	640	690	1
408	581	712	1
5	712	970	1
5	408	970	1
49	292	864	1
401	467	607	1
126	229	723	1
323	336	864	1
530	642	732	1
157	530	732	1
315	687	859	1
157	306	530	1
44	867	964	1
444	723	864	1
323	336	511	1
292	327	864	1
157	642	750	1
551	869	1092	1
130	269	384	1
233	472	769	1
91	143	467	1
169	478	742	1
49	408	724	1
154	198	310	1
5	408	712	1
30	154	841	1
119	215	751	1
5	577	581	1
370	488	640	1
229	768	882	1
41	413	580	1
62	348	642	1
