start to construct computing graph
graph construct over
2361
epochs start
#iterations: 0
currently lose_sum: 0.6996333003044128
time_elpased: 1.406
#iterations: 1
currently lose_sum: 0.7056798934936523
time_elpased: 1.366
#iterations: 2
currently lose_sum: 0.6701478362083435
time_elpased: 1.33
#iterations: 3
currently lose_sum: 0.6880432367324829
time_elpased: 1.354
#iterations: 4
currently lose_sum: 0.6752511858940125
time_elpased: 1.315
#iterations: 5
currently lose_sum: 0.6766504049301147
time_elpased: 1.37
#iterations: 6
currently lose_sum: 0.6797711849212646
time_elpased: 1.341
#iterations: 7
currently lose_sum: 0.7175561189651489
time_elpased: 1.378
#iterations: 8
currently lose_sum: 0.6710899472236633
time_elpased: 1.32
#iterations: 9
currently lose_sum: 0.6586517095565796
time_elpased: 1.353
#iterations: 10
currently lose_sum: 0.6688424944877625
time_elpased: 1.333
#iterations: 11
currently lose_sum: 0.6723850965499878
time_elpased: 1.346
#iterations: 12
currently lose_sum: 0.6658965945243835
time_elpased: 1.32
#iterations: 13
currently lose_sum: 0.7036136388778687
time_elpased: 1.353
#iterations: 14
currently lose_sum: 0.684850811958313
time_elpased: 1.362
#iterations: 15
currently lose_sum: 0.671353816986084
time_elpased: 1.388
#iterations: 16
currently lose_sum: 0.6586766242980957
time_elpased: 1.34
#iterations: 17
currently lose_sum: 0.6982842683792114
time_elpased: 1.34
#iterations: 18
currently lose_sum: 0.6734941005706787
time_elpased: 1.357
#iterations: 19
currently lose_sum: 0.6692917943000793
time_elpased: 1.357
start validation test
0.575641025641
0.557835820896
0.760814249364
0.643702906351
0.574205574294
26.310
#iterations: 20
currently lose_sum: 0.6651495099067688
time_elpased: 1.191
#iterations: 21
currently lose_sum: 0.6348291039466858
time_elpased: 1.173
#iterations: 22
currently lose_sum: 0.5772308707237244
time_elpased: 1.195
#iterations: 23
currently lose_sum: 0.6574693918228149
time_elpased: 1.202
#iterations: 24
currently lose_sum: 0.7049508690834045
time_elpased: 1.171
#iterations: 25
currently lose_sum: 0.7368905544281006
time_elpased: 1.159
#iterations: 26
currently lose_sum: 0.6106856465339661
time_elpased: 1.21
#iterations: 27
currently lose_sum: 0.5916575193405151
time_elpased: 1.179
#iterations: 28
currently lose_sum: 0.6087116003036499
time_elpased: 1.181
#iterations: 29
currently lose_sum: 0.681957483291626
time_elpased: 1.197
#iterations: 30
currently lose_sum: 0.6580938100814819
time_elpased: 1.224
#iterations: 31
currently lose_sum: 0.6429572701454163
time_elpased: 1.194
#iterations: 32
currently lose_sum: 0.5887162685394287
time_elpased: 1.139
#iterations: 33
currently lose_sum: 0.6246494650840759
time_elpased: 1.182
#iterations: 34
currently lose_sum: 0.6578801870346069
time_elpased: 1.187
#iterations: 35
currently lose_sum: 0.6424580216407776
time_elpased: 1.223
#iterations: 36
currently lose_sum: 0.6435273885726929
time_elpased: 1.175
#iterations: 37
currently lose_sum: 0.6877793073654175
time_elpased: 1.206
#iterations: 38
currently lose_sum: 0.6386224627494812
time_elpased: 1.196
#iterations: 39
currently lose_sum: 0.6550067067146301
time_elpased: 1.198
start validation test
0.630128205128
0.641791044776
0.601781170483
0.621142481944
0.630347949583
25.664
#iterations: 40
currently lose_sum: 0.6265531778335571
time_elpased: 1.167
#iterations: 41
currently lose_sum: 0.6312494277954102
time_elpased: 1.139
#iterations: 42
currently lose_sum: 0.6294010281562805
time_elpased: 1.208
#iterations: 43
currently lose_sum: 0.6530007719993591
time_elpased: 1.164
#iterations: 44
currently lose_sum: 0.6927099227905273
time_elpased: 1.15
#iterations: 45
currently lose_sum: 0.6589930057525635
time_elpased: 1.212
#iterations: 46
currently lose_sum: 0.6010543704032898
time_elpased: 1.155
#iterations: 47
currently lose_sum: 0.6433181762695312
time_elpased: 1.159
#iterations: 48
currently lose_sum: 0.50835782289505
time_elpased: 1.18
#iterations: 49
currently lose_sum: 0.6424168944358826
time_elpased: 1.164
#iterations: 50
currently lose_sum: 0.572858989238739
time_elpased: 1.143
#iterations: 51
currently lose_sum: 0.4837149679660797
time_elpased: 1.179
#iterations: 52
currently lose_sum: 0.5316929221153259
time_elpased: 1.175
#iterations: 53
currently lose_sum: 0.5227209329605103
time_elpased: 1.185
#iterations: 54
currently lose_sum: 0.6526032090187073
time_elpased: 1.184
#iterations: 55
currently lose_sum: 0.47289973497390747
time_elpased: 1.154
#iterations: 56
currently lose_sum: 0.6169027090072632
time_elpased: 1.194
#iterations: 57
currently lose_sum: 0.6106276512145996
time_elpased: 1.189
#iterations: 58
currently lose_sum: 0.5632345080375671
time_elpased: 1.148
#iterations: 59
currently lose_sum: 0.6321698427200317
time_elpased: 1.178
start validation test
0.644230769231
0.700869565217
0.51272264631
0.592211609111
0.645250212044
25.316
#iterations: 60
currently lose_sum: 0.5185526013374329
time_elpased: 1.168
#iterations: 61
currently lose_sum: 0.6307674646377563
time_elpased: 1.166
#iterations: 62
currently lose_sum: 0.5111473202705383
time_elpased: 1.184
#iterations: 63
currently lose_sum: 0.5822796821594238
time_elpased: 1.174
#iterations: 64
currently lose_sum: 0.5736334919929504
time_elpased: 1.19
#iterations: 65
currently lose_sum: 0.515603244304657
time_elpased: 1.168
#iterations: 66
currently lose_sum: 0.6658506989479065
time_elpased: 1.157
#iterations: 67
currently lose_sum: 0.44312649965286255
time_elpased: 1.155
#iterations: 68
currently lose_sum: 0.5675837993621826
time_elpased: 1.165
#iterations: 69
currently lose_sum: 0.5052242279052734
time_elpased: 1.186
#iterations: 70
currently lose_sum: 0.4581451416015625
time_elpased: 1.191
#iterations: 71
currently lose_sum: 0.6185874938964844
time_elpased: 1.168
#iterations: 72
currently lose_sum: 0.6789002418518066
time_elpased: 1.168
#iterations: 73
currently lose_sum: 0.5517655611038208
time_elpased: 1.179
#iterations: 74
currently lose_sum: 0.6147589683532715
time_elpased: 1.169
#iterations: 75
currently lose_sum: 0.6596279144287109
time_elpased: 1.214
#iterations: 76
currently lose_sum: 0.46110519766807556
time_elpased: 1.163
#iterations: 77
currently lose_sum: 0.5478691458702087
time_elpased: 1.123
#iterations: 78
currently lose_sum: 0.5929573178291321
time_elpased: 1.162
#iterations: 79
currently lose_sum: 0.5911478996276855
time_elpased: 1.123
start validation test
0.642307692308
0.68152866242
0.544529262087
0.605374823197
0.643065664635
26.934
#iterations: 80
currently lose_sum: 0.5842839479446411
time_elpased: 1.155
#iterations: 81
currently lose_sum: 0.4779372215270996
time_elpased: 1.128
#iterations: 82
currently lose_sum: 0.5287121534347534
time_elpased: 1.146
#iterations: 83
currently lose_sum: 0.6082248091697693
time_elpased: 1.167
#iterations: 84
currently lose_sum: 0.5447021722793579
time_elpased: 1.162
#iterations: 85
currently lose_sum: 0.4883418679237366
time_elpased: 1.154
#iterations: 86
currently lose_sum: 0.49159184098243713
time_elpased: 1.16
#iterations: 87
currently lose_sum: 0.7112132906913757
time_elpased: 1.157
#iterations: 88
currently lose_sum: 0.6453560590744019
time_elpased: 1.212
#iterations: 89
currently lose_sum: 0.5961045026779175
time_elpased: 1.182
#iterations: 90
currently lose_sum: 0.6095081567764282
time_elpased: 1.151
#iterations: 91
currently lose_sum: 0.5689734816551208
time_elpased: 1.173
#iterations: 92
currently lose_sum: 0.591185986995697
time_elpased: 1.148
#iterations: 93
currently lose_sum: 0.5434781908988953
time_elpased: 1.176
#iterations: 94
currently lose_sum: 0.5663628578186035
time_elpased: 1.159
#iterations: 95
currently lose_sum: 0.6486133337020874
time_elpased: 1.168
#iterations: 96
currently lose_sum: 0.6764382719993591
time_elpased: 1.135
#iterations: 97
currently lose_sum: 0.5124178528785706
time_elpased: 1.209
#iterations: 98
currently lose_sum: 0.5113471150398254
time_elpased: 1.158
#iterations: 99
currently lose_sum: 0.6167414784431458
time_elpased: 1.143
start validation test
0.654487179487
0.649696969697
0.681933842239
0.665425201738
0.65427441466
26.209
#iterations: 100
currently lose_sum: 0.4780946671962738
time_elpased: 1.165
#iterations: 101
currently lose_sum: 0.510726809501648
time_elpased: 1.175
#iterations: 102
currently lose_sum: 0.5373139381408691
time_elpased: 1.134
#iterations: 103
currently lose_sum: 0.6948310732841492
time_elpased: 1.18
#iterations: 104
currently lose_sum: 0.617449164390564
time_elpased: 1.185
#iterations: 105
currently lose_sum: 0.47075071930885315
time_elpased: 1.131
#iterations: 106
currently lose_sum: 0.5100140571594238
time_elpased: 1.175
#iterations: 107
currently lose_sum: 0.4815709590911865
time_elpased: 1.196
#iterations: 108
currently lose_sum: 0.5034216046333313
time_elpased: 1.14
#iterations: 109
currently lose_sum: 0.5172024965286255
time_elpased: 1.138
#iterations: 110
currently lose_sum: 0.5013062357902527
time_elpased: 1.142
#iterations: 111
currently lose_sum: 0.5800480246543884
time_elpased: 1.182
#iterations: 112
currently lose_sum: 0.6680947542190552
time_elpased: 1.163
#iterations: 113
currently lose_sum: 0.6775270700454712
time_elpased: 1.171
#iterations: 114
currently lose_sum: 0.4929285943508148
time_elpased: 1.18
#iterations: 115
currently lose_sum: 0.4734615385532379
time_elpased: 1.183
#iterations: 116
currently lose_sum: 0.44543343782424927
time_elpased: 1.197
#iterations: 117
currently lose_sum: 0.5423492193222046
time_elpased: 1.155
#iterations: 118
currently lose_sum: 0.5755008459091187
time_elpased: 1.178
#iterations: 119
currently lose_sum: 0.4117496609687805
time_elpased: 1.139
start validation test
0.64358974359
0.756696428571
0.431297709924
0.54943273906
0.645235418269
26.962
#iterations: 120
currently lose_sum: 0.5570467710494995
time_elpased: 1.182
#iterations: 121
currently lose_sum: 0.5372325778007507
time_elpased: 1.179
#iterations: 122
currently lose_sum: 0.4088459014892578
time_elpased: 1.168
#iterations: 123
currently lose_sum: 0.541918933391571
time_elpased: 1.151
#iterations: 124
currently lose_sum: 0.37988293170928955
time_elpased: 1.143
#iterations: 125
currently lose_sum: 0.4372018277645111
time_elpased: 1.17
#iterations: 126
currently lose_sum: 0.4964057505130768
time_elpased: 1.163
#iterations: 127
currently lose_sum: 0.45503464341163635
time_elpased: 1.19
#iterations: 128
currently lose_sum: 0.5519238114356995
time_elpased: 1.155
#iterations: 129
currently lose_sum: 0.4668949246406555
time_elpased: 1.17
#iterations: 130
currently lose_sum: 0.6205263137817383
time_elpased: 1.168
#iterations: 131
currently lose_sum: 0.4833221435546875
time_elpased: 1.153
#iterations: 132
currently lose_sum: 0.5564219951629639
time_elpased: 1.19
#iterations: 133
currently lose_sum: 0.40542349219322205
time_elpased: 1.175
#iterations: 134
currently lose_sum: 0.5617421865463257
time_elpased: 1.197
#iterations: 135
currently lose_sum: 0.42916542291641235
time_elpased: 1.193
#iterations: 136
currently lose_sum: 0.5651453733444214
time_elpased: 1.176
#iterations: 137
currently lose_sum: 0.4851261079311371
time_elpased: 1.153
#iterations: 138
currently lose_sum: 0.5692123174667358
time_elpased: 1.145
#iterations: 139
currently lose_sum: 0.5067286491394043
time_elpased: 1.194
start validation test
0.669230769231
0.714285714286
0.572519083969
0.635593220339
0.669980472217
24.493
#iterations: 140
currently lose_sum: 0.4809381365776062
time_elpased: 1.155
#iterations: 141
currently lose_sum: 0.45157814025878906
time_elpased: 1.201
#iterations: 142
currently lose_sum: 0.7213315963745117
time_elpased: 1.202
#iterations: 143
currently lose_sum: 0.43329542875289917
time_elpased: 1.147
#iterations: 144
currently lose_sum: 0.3991676867008209
time_elpased: 1.164
#iterations: 145
currently lose_sum: 0.4480254054069519
time_elpased: 1.175
#iterations: 146
currently lose_sum: 0.47625190019607544
time_elpased: 1.2
#iterations: 147
currently lose_sum: 0.5311042666435242
time_elpased: 1.139
#iterations: 148
currently lose_sum: 0.4733707904815674
time_elpased: 1.188
#iterations: 149
currently lose_sum: 0.6327564120292664
time_elpased: 1.172
#iterations: 150
currently lose_sum: 0.4439888894557953
time_elpased: 1.129
#iterations: 151
currently lose_sum: 0.5163251757621765
time_elpased: 1.17
#iterations: 152
currently lose_sum: 0.45644712448120117
time_elpased: 1.161
#iterations: 153
currently lose_sum: 0.42726582288742065
time_elpased: 1.197
#iterations: 154
currently lose_sum: 0.5822376012802124
time_elpased: 1.163
#iterations: 155
currently lose_sum: 0.6073594093322754
time_elpased: 1.198
#iterations: 156
currently lose_sum: 0.5802841186523438
time_elpased: 1.134
#iterations: 157
currently lose_sum: 0.4461430013179779
time_elpased: 1.179
#iterations: 158
currently lose_sum: 0.5467163324356079
time_elpased: 1.197
#iterations: 159
currently lose_sum: 0.5357864499092102
time_elpased: 1.157
start validation test
0.674358974359
0.690934065934
0.639949109415
0.664464993395
0.674625717498
26.031
#iterations: 160
currently lose_sum: 0.4456717073917389
time_elpased: 1.147
#iterations: 161
currently lose_sum: 0.6997677683830261
time_elpased: 1.13
#iterations: 162
currently lose_sum: 0.5564030408859253
time_elpased: 1.126
#iterations: 163
currently lose_sum: 0.6281352043151855
time_elpased: 1.158
#iterations: 164
currently lose_sum: 0.42140549421310425
time_elpased: 1.171
#iterations: 165
currently lose_sum: 0.41705965995788574
time_elpased: 1.137
#iterations: 166
currently lose_sum: 0.5150347948074341
time_elpased: 1.19
#iterations: 167
currently lose_sum: 0.4424952566623688
time_elpased: 1.193
#iterations: 168
currently lose_sum: 0.42352455854415894
time_elpased: 1.175
#iterations: 169
currently lose_sum: 0.35499995946884155
time_elpased: 1.166
#iterations: 170
currently lose_sum: 0.5544436573982239
time_elpased: 1.204
#iterations: 171
currently lose_sum: 0.4566271901130676
time_elpased: 1.196
#iterations: 172
currently lose_sum: 0.3623339533805847
time_elpased: 1.153
#iterations: 173
currently lose_sum: 0.40658777952194214
time_elpased: 1.143
#iterations: 174
currently lose_sum: 0.4538111686706543
time_elpased: 1.183
#iterations: 175
currently lose_sum: 0.49138012528419495
time_elpased: 1.185
#iterations: 176
currently lose_sum: 0.5280219912528992
time_elpased: 1.167
#iterations: 177
currently lose_sum: 0.5763177871704102
time_elpased: 1.151
#iterations: 178
currently lose_sum: 0.5615427494049072
time_elpased: 1.168
#iterations: 179
currently lose_sum: 0.4922718405723572
time_elpased: 1.149
start validation test
0.667948717949
0.729452054795
0.541984732824
0.621897810219
0.66892518295
25.036
#iterations: 180
currently lose_sum: 0.4379817545413971
time_elpased: 1.178
#iterations: 181
currently lose_sum: 0.4980551600456238
time_elpased: 1.171
#iterations: 182
currently lose_sum: 0.6287524104118347
time_elpased: 1.196
#iterations: 183
currently lose_sum: 0.5204428434371948
time_elpased: 1.162
#iterations: 184
currently lose_sum: 0.4972146451473236
time_elpased: 1.177
#iterations: 185
currently lose_sum: 0.38546472787857056
time_elpased: 1.184
#iterations: 186
currently lose_sum: 0.5610119700431824
time_elpased: 1.172
#iterations: 187
currently lose_sum: 0.4811863303184509
time_elpased: 1.12
#iterations: 188
currently lose_sum: 0.5162538886070251
time_elpased: 1.191
#iterations: 189
currently lose_sum: 0.47148600220680237
time_elpased: 1.173
#iterations: 190
currently lose_sum: 0.508553683757782
time_elpased: 1.138
#iterations: 191
currently lose_sum: 0.5849053263664246
time_elpased: 1.19
#iterations: 192
currently lose_sum: 0.7146145105361938
time_elpased: 1.129
#iterations: 193
currently lose_sum: 0.7338049411773682
time_elpased: 1.137
#iterations: 194
currently lose_sum: 0.36376625299453735
time_elpased: 1.217
#iterations: 195
currently lose_sum: 0.47395554184913635
time_elpased: 1.203
#iterations: 196
currently lose_sum: 0.4021323621273041
time_elpased: 1.127
#iterations: 197
currently lose_sum: 0.5589920282363892
time_elpased: 1.155
#iterations: 198
currently lose_sum: 0.4002886712551117
time_elpased: 1.149
#iterations: 199
currently lose_sum: 0.3930022716522217
time_elpased: 1.166
start validation test
0.65641025641
0.709030100334
0.539440203562
0.612716763006
0.657317001006
25.329
#iterations: 200
currently lose_sum: 0.5354816913604736
time_elpased: 1.214
#iterations: 201
currently lose_sum: 0.46104708313941956
time_elpased: 1.151
#iterations: 202
currently lose_sum: 0.5140361785888672
time_elpased: 1.159
#iterations: 203
currently lose_sum: 0.41002321243286133
time_elpased: 1.154
#iterations: 204
currently lose_sum: 0.6592577695846558
time_elpased: 1.166
#iterations: 205
currently lose_sum: 0.5326008796691895
time_elpased: 1.175
#iterations: 206
currently lose_sum: 0.5183770656585693
time_elpased: 1.183
#iterations: 207
currently lose_sum: 0.6101701855659485
time_elpased: 1.18
#iterations: 208
currently lose_sum: 0.49444779753685
time_elpased: 1.151
#iterations: 209
currently lose_sum: 0.5410425066947937
time_elpased: 1.136
#iterations: 210
currently lose_sum: 0.4785274565219879
time_elpased: 1.205
#iterations: 211
currently lose_sum: 0.5054534673690796
time_elpased: 1.122
#iterations: 212
currently lose_sum: 0.5613031387329102
time_elpased: 1.154
#iterations: 213
currently lose_sum: 0.3346295952796936
time_elpased: 1.164
#iterations: 214
currently lose_sum: 0.5216668248176575
time_elpased: 1.189
#iterations: 215
currently lose_sum: 0.3714829683303833
time_elpased: 1.19
#iterations: 216
currently lose_sum: 0.44307374954223633
time_elpased: 1.171
#iterations: 217
currently lose_sum: 0.3418733477592468
time_elpased: 1.151
#iterations: 218
currently lose_sum: 0.4574316143989563
time_elpased: 1.14
#iterations: 219
currently lose_sum: 0.5802677869796753
time_elpased: 1.188
start validation test
0.660256410256
0.743346007605
0.497455470738
0.596036585366
0.661518433043
26.691
#iterations: 220
currently lose_sum: 0.46843844652175903
time_elpased: 1.206
#iterations: 221
currently lose_sum: 0.4587372839450836
time_elpased: 1.158
#iterations: 222
currently lose_sum: 0.37749525904655457
time_elpased: 1.135
#iterations: 223
currently lose_sum: 0.4534430503845215
time_elpased: 1.17
#iterations: 224
currently lose_sum: 0.47177228331565857
time_elpased: 1.207
#iterations: 225
currently lose_sum: 0.43895044922828674
time_elpased: 1.149
#iterations: 226
currently lose_sum: 0.366840124130249
time_elpased: 1.167
#iterations: 227
currently lose_sum: 0.6396573781967163
time_elpased: 1.19
#iterations: 228
currently lose_sum: 0.545856773853302
time_elpased: 1.17
#iterations: 229
currently lose_sum: 0.27574679255485535
time_elpased: 1.173
#iterations: 230
currently lose_sum: 0.3169505000114441
time_elpased: 1.193
#iterations: 231
currently lose_sum: 0.4070530831813812
time_elpased: 1.161
#iterations: 232
currently lose_sum: 0.4956957697868347
time_elpased: 1.148
#iterations: 233
currently lose_sum: 0.511975109577179
time_elpased: 1.201
#iterations: 234
currently lose_sum: 0.45148998498916626
time_elpased: 1.179
#iterations: 235
currently lose_sum: 0.5357354879379272
time_elpased: 1.21
#iterations: 236
currently lose_sum: 0.41872358322143555
time_elpased: 1.125
#iterations: 237
currently lose_sum: 0.6562914252281189
time_elpased: 1.137
#iterations: 238
currently lose_sum: 0.4629348814487457
time_elpased: 1.173
#iterations: 239
currently lose_sum: 0.474173367023468
time_elpased: 1.19
start validation test
0.652564102564
0.621513944223
0.793893129771
0.697206703911
0.65146852871
28.473
#iterations: 240
currently lose_sum: 0.5628694295883179
time_elpased: 1.153
#iterations: 241
currently lose_sum: 0.46465688943862915
time_elpased: 1.16
#iterations: 242
currently lose_sum: 0.44206517934799194
time_elpased: 1.122
#iterations: 243
currently lose_sum: 0.5371449589729309
time_elpased: 1.155
#iterations: 244
currently lose_sum: 0.4824705123901367
time_elpased: 1.165
#iterations: 245
currently lose_sum: 0.551916241645813
time_elpased: 1.192
#iterations: 246
currently lose_sum: 0.44799715280532837
time_elpased: 1.142
#iterations: 247
currently lose_sum: 0.35531172156333923
time_elpased: 1.166
#iterations: 248
currently lose_sum: 0.41173338890075684
time_elpased: 1.164
#iterations: 249
currently lose_sum: 0.4129924178123474
time_elpased: 1.144
#iterations: 250
currently lose_sum: 0.41792765259742737
time_elpased: 1.196
#iterations: 251
currently lose_sum: 0.320742130279541
time_elpased: 1.208
#iterations: 252
currently lose_sum: 0.4277152121067047
time_elpased: 1.126
#iterations: 253
currently lose_sum: 0.4473757743835449
time_elpased: 1.167
#iterations: 254
currently lose_sum: 0.6060386896133423
time_elpased: 1.21
#iterations: 255
currently lose_sum: 0.39907193183898926
time_elpased: 1.176
#iterations: 256
currently lose_sum: 0.46506747603416443
time_elpased: 1.18
#iterations: 257
currently lose_sum: 0.4050081670284271
time_elpased: 1.15
#iterations: 258
currently lose_sum: 0.4732915759086609
time_elpased: 1.196
#iterations: 259
currently lose_sum: 0.3802987039089203
time_elpased: 1.157
start validation test
0.648076923077
0.806201550388
0.396946564885
0.531969309463
0.65002367004
31.402
#iterations: 260
currently lose_sum: 0.44814983010292053
time_elpased: 1.172
#iterations: 261
currently lose_sum: 0.6148212552070618
time_elpased: 1.189
#iterations: 262
currently lose_sum: 0.2899637222290039
time_elpased: 1.145
#iterations: 263
currently lose_sum: 0.4893704354763031
time_elpased: 1.163
#iterations: 264
currently lose_sum: 0.3691348433494568
time_elpased: 1.167
#iterations: 265
currently lose_sum: 0.4947904050350189
time_elpased: 1.189
#iterations: 266
currently lose_sum: 0.3666725754737854
time_elpased: 1.171
#iterations: 267
currently lose_sum: 0.5747013092041016
time_elpased: 1.139
#iterations: 268
currently lose_sum: 0.4033412039279938
time_elpased: 1.164
#iterations: 269
currently lose_sum: 0.3906460702419281
time_elpased: 1.116
#iterations: 270
currently lose_sum: 0.5610426068305969
time_elpased: 1.208
#iterations: 271
currently lose_sum: 0.3453032374382019
time_elpased: 1.149
#iterations: 272
currently lose_sum: 0.5162003040313721
time_elpased: 1.172
#iterations: 273
currently lose_sum: 0.4654428958892822
time_elpased: 1.18
#iterations: 274
currently lose_sum: 0.37507548928260803
time_elpased: 1.202
#iterations: 275
currently lose_sum: 0.495924174785614
time_elpased: 1.12
#iterations: 276
currently lose_sum: 0.5994847416877747
time_elpased: 1.14
#iterations: 277
currently lose_sum: 0.3433202803134918
time_elpased: 1.152
#iterations: 278
currently lose_sum: 0.3124024271965027
time_elpased: 1.154
#iterations: 279
currently lose_sum: 0.5242193937301636
time_elpased: 1.159
start validation test
0.655769230769
0.757763975155
0.465648854962
0.5768321513
0.657243032132
29.920
#iterations: 280
currently lose_sum: 0.4306572377681732
time_elpased: 1.176
#iterations: 281
currently lose_sum: 0.4819052219390869
time_elpased: 1.17
#iterations: 282
currently lose_sum: 0.5022220611572266
time_elpased: 1.132
#iterations: 283
currently lose_sum: 0.4047599732875824
time_elpased: 1.172
#iterations: 284
currently lose_sum: 0.5863271951675415
time_elpased: 1.185
#iterations: 285
currently lose_sum: 0.3715760409832001
time_elpased: 1.166
#iterations: 286
currently lose_sum: 0.5225465297698975
time_elpased: 1.195
#iterations: 287
currently lose_sum: 0.44087862968444824
time_elpased: 1.225
#iterations: 288
currently lose_sum: 0.5485138297080994
time_elpased: 1.183
#iterations: 289
currently lose_sum: 0.5139259099960327
time_elpased: 1.214
#iterations: 290
currently lose_sum: 0.451340913772583
time_elpased: 1.14
#iterations: 291
currently lose_sum: 0.6494865417480469
time_elpased: 1.179
#iterations: 292
currently lose_sum: 0.4775424003601074
time_elpased: 1.179
#iterations: 293
currently lose_sum: 0.4359385371208191
time_elpased: 1.173
#iterations: 294
currently lose_sum: 0.3416021466255188
time_elpased: 1.158
#iterations: 295
currently lose_sum: 0.4279906749725342
time_elpased: 1.176
#iterations: 296
currently lose_sum: 0.44302114844322205
time_elpased: 1.15
#iterations: 297
currently lose_sum: 0.4408365786075592
time_elpased: 1.17
#iterations: 298
currently lose_sum: 0.5579715967178345
time_elpased: 1.142
#iterations: 299
currently lose_sum: 0.4480978548526764
time_elpased: 1.194
start validation test
0.66858974359
0.769539078156
0.488549618321
0.59766536965
0.669985403476
28.524
#iterations: 300
currently lose_sum: 0.39929309487342834
time_elpased: 1.214
#iterations: 301
currently lose_sum: 0.4121273159980774
time_elpased: 1.197
#iterations: 302
currently lose_sum: 0.25648707151412964
time_elpased: 1.147
#iterations: 303
currently lose_sum: 0.48945799469947815
time_elpased: 1.163
#iterations: 304
currently lose_sum: 0.38287949562072754
time_elpased: 1.181
#iterations: 305
currently lose_sum: 0.37826013565063477
time_elpased: 1.173
#iterations: 306
currently lose_sum: 0.2822379171848297
time_elpased: 1.171
#iterations: 307
currently lose_sum: 0.4580809473991394
time_elpased: 1.144
#iterations: 308
currently lose_sum: 0.4059772491455078
time_elpased: 1.157
#iterations: 309
currently lose_sum: 0.44988909363746643
time_elpased: 1.153
#iterations: 310
currently lose_sum: 0.4580579400062561
time_elpased: 1.132
#iterations: 311
currently lose_sum: 0.4282751977443695
time_elpased: 1.193
#iterations: 312
currently lose_sum: 0.42918282747268677
time_elpased: 1.188
#iterations: 313
currently lose_sum: 0.4896678924560547
time_elpased: 1.168
#iterations: 314
currently lose_sum: 0.5691623091697693
time_elpased: 1.187
#iterations: 315
currently lose_sum: 0.33497586846351624
time_elpased: 1.17
#iterations: 316
currently lose_sum: 0.4361804127693176
time_elpased: 1.168
#iterations: 317
currently lose_sum: 0.6194148063659668
time_elpased: 1.158
#iterations: 318
currently lose_sum: 0.4578067362308502
time_elpased: 1.144
#iterations: 319
currently lose_sum: 0.5398845672607422
time_elpased: 1.244
start validation test
0.677564102564
0.669056152927
0.712468193384
0.690080098583
0.677293528217
25.356
#iterations: 320
currently lose_sum: 0.29196807742118835
time_elpased: 1.167
#iterations: 321
currently lose_sum: 0.549528956413269
time_elpased: 1.152
#iterations: 322
currently lose_sum: 0.5678793787956238
time_elpased: 1.155
#iterations: 323
currently lose_sum: 0.4694139361381531
time_elpased: 1.158
#iterations: 324
currently lose_sum: 0.3704087734222412
time_elpased: 1.148
#iterations: 325
currently lose_sum: 0.32313767075538635
time_elpased: 1.164
#iterations: 326
currently lose_sum: 0.5830181241035461
time_elpased: 1.139
#iterations: 327
currently lose_sum: 0.4000498354434967
time_elpased: 1.172
#iterations: 328
currently lose_sum: 0.3395158350467682
time_elpased: 1.137
#iterations: 329
currently lose_sum: 0.44522231817245483
time_elpased: 1.154
#iterations: 330
currently lose_sum: 0.4143087863922119
time_elpased: 1.134
#iterations: 331
currently lose_sum: 0.5209850668907166
time_elpased: 1.151
#iterations: 332
currently lose_sum: 0.4398309588432312
time_elpased: 1.155
#iterations: 333
currently lose_sum: 0.4783879220485687
time_elpased: 1.154
#iterations: 334
currently lose_sum: 0.34649020433425903
time_elpased: 1.216
#iterations: 335
currently lose_sum: 0.3690149188041687
time_elpased: 1.131
#iterations: 336
currently lose_sum: 0.2970401644706726
time_elpased: 1.176
#iterations: 337
currently lose_sum: 0.4284442961215973
time_elpased: 1.173
#iterations: 338
currently lose_sum: 0.4535505175590515
time_elpased: 1.166
#iterations: 339
currently lose_sum: 0.4229983389377594
time_elpased: 1.173
start validation test
0.672435897436
0.719298245614
0.573791348601
0.638358103326
0.673200583861
26.338
#iterations: 340
currently lose_sum: 0.5101650953292847
time_elpased: 1.164
#iterations: 341
currently lose_sum: 0.46825820207595825
time_elpased: 1.162
#iterations: 342
currently lose_sum: 0.4434524178504944
time_elpased: 1.172
#iterations: 343
currently lose_sum: 0.33842983841896057
time_elpased: 1.165
#iterations: 344
currently lose_sum: 0.30128929018974304
time_elpased: 1.164
#iterations: 345
currently lose_sum: 0.3635594844818115
time_elpased: 1.217
#iterations: 346
currently lose_sum: 0.5843173265457153
time_elpased: 1.16
#iterations: 347
currently lose_sum: 0.26205936074256897
time_elpased: 1.174
#iterations: 348
currently lose_sum: 0.42090678215026855
time_elpased: 1.17
#iterations: 349
currently lose_sum: 0.3326317071914673
time_elpased: 1.185
#iterations: 350
currently lose_sum: 0.4682384133338928
time_elpased: 1.189
#iterations: 351
currently lose_sum: 0.32829660177230835
time_elpased: 1.158
#iterations: 352
currently lose_sum: 0.38622334599494934
time_elpased: 1.165
#iterations: 353
currently lose_sum: 0.2833171486854553
time_elpased: 1.16
#iterations: 354
currently lose_sum: 0.4458402991294861
time_elpased: 1.168
#iterations: 355
currently lose_sum: 0.46822625398635864
time_elpased: 1.15
#iterations: 356
currently lose_sum: 0.37147340178489685
time_elpased: 1.134
#iterations: 357
currently lose_sum: 0.28268495202064514
time_elpased: 1.214
#iterations: 358
currently lose_sum: 0.3417215049266815
time_elpased: 1.177
#iterations: 359
currently lose_sum: 0.604645848274231
time_elpased: 1.193
start validation test
0.645512820513
0.799485861183
0.395674300254
0.529361702128
0.647449553228
34.532
#iterations: 360
currently lose_sum: 0.3456561863422394
time_elpased: 1.18
#iterations: 361
currently lose_sum: 0.2591632902622223
time_elpased: 1.161
#iterations: 362
currently lose_sum: 0.5420240759849548
time_elpased: 1.143
#iterations: 363
currently lose_sum: 0.36199280619621277
time_elpased: 1.179
#iterations: 364
currently lose_sum: 0.5424823760986328
time_elpased: 1.134
#iterations: 365
currently lose_sum: 0.41868066787719727
time_elpased: 1.154
#iterations: 366
currently lose_sum: 0.49631467461586
time_elpased: 1.167
#iterations: 367
currently lose_sum: 0.4361279606819153
time_elpased: 1.2
#iterations: 368
currently lose_sum: 0.43170642852783203
time_elpased: 1.189
#iterations: 369
currently lose_sum: 0.36694034934043884
time_elpased: 1.185
#iterations: 370
currently lose_sum: 0.3997132182121277
time_elpased: 1.181
#iterations: 371
currently lose_sum: 0.5862725377082825
time_elpased: 1.192
#iterations: 372
currently lose_sum: 0.38666385412216187
time_elpased: 1.217
#iterations: 373
currently lose_sum: 0.6075689196586609
time_elpased: 1.21
#iterations: 374
currently lose_sum: 0.4042867124080658
time_elpased: 1.197
#iterations: 375
currently lose_sum: 0.4177181124687195
time_elpased: 1.139
#iterations: 376
currently lose_sum: 0.4101645052433014
time_elpased: 1.164
#iterations: 377
currently lose_sum: 0.41621845960617065
time_elpased: 1.159
#iterations: 378
currently lose_sum: 0.344275563955307
time_elpased: 1.16
#iterations: 379
currently lose_sum: 0.4346628785133362
time_elpased: 1.181
start validation test
0.670512820513
0.749084249084
0.520356234097
0.614114114114
0.671676825059
28.889
#iterations: 380
currently lose_sum: 0.38619181513786316
time_elpased: 1.146
#iterations: 381
currently lose_sum: 0.32040777802467346
time_elpased: 1.197
#iterations: 382
currently lose_sum: 0.281171977519989
time_elpased: 1.17
#iterations: 383
currently lose_sum: 0.36479291319847107
time_elpased: 1.163
#iterations: 384
currently lose_sum: 0.275664746761322
time_elpased: 1.18
#iterations: 385
currently lose_sum: 0.2868598699569702
time_elpased: 1.174
#iterations: 386
currently lose_sum: 0.4247584342956543
time_elpased: 1.159
#iterations: 387
currently lose_sum: 0.5008684396743774
time_elpased: 1.179
#iterations: 388
currently lose_sum: 0.4804818630218506
time_elpased: 1.168
#iterations: 389
currently lose_sum: 0.37756359577178955
time_elpased: 1.126
#iterations: 390
currently lose_sum: 0.506497859954834
time_elpased: 1.136
#iterations: 391
currently lose_sum: 0.4513937830924988
time_elpased: 1.2
#iterations: 392
currently lose_sum: 0.3817118704319
time_elpased: 1.193
#iterations: 393
currently lose_sum: 0.4315822720527649
time_elpased: 1.174
#iterations: 394
currently lose_sum: 0.4161437451839447
time_elpased: 1.12
#iterations: 395
currently lose_sum: 0.37942594289779663
time_elpased: 1.154
#iterations: 396
currently lose_sum: 0.45695605874061584
time_elpased: 1.153
#iterations: 397
currently lose_sum: 0.6640275120735168
time_elpased: 1.167
#iterations: 398
currently lose_sum: 0.4172271192073822
time_elpased: 1.211
#iterations: 399
currently lose_sum: 0.4464779794216156
time_elpased: 1.146
start validation test
0.684615384615
0.707627118644
0.637404580153
0.670682730924
0.684981359844
27.652
#iterations: 400
currently lose_sum: 0.40959709882736206
time_elpased: 1.18
#iterations: 401
currently lose_sum: 0.3894858956336975
time_elpased: 1.157
#iterations: 402
currently lose_sum: 0.34669050574302673
time_elpased: 1.176
#iterations: 403
currently lose_sum: 0.3590475618839264
time_elpased: 1.153
#iterations: 404
currently lose_sum: 0.5443271398544312
time_elpased: 1.146
#iterations: 405
currently lose_sum: 0.474918931722641
time_elpased: 1.154
#iterations: 406
currently lose_sum: 0.3397749364376068
time_elpased: 1.19
#iterations: 407
currently lose_sum: 0.39885616302490234
time_elpased: 1.159
#iterations: 408
currently lose_sum: 0.3309565484523773
time_elpased: 1.161
#iterations: 409
currently lose_sum: 0.36786869168281555
time_elpased: 1.163
#iterations: 410
currently lose_sum: 0.3455469608306885
time_elpased: 1.13
#iterations: 411
currently lose_sum: 0.45075616240501404
time_elpased: 1.172
#iterations: 412
currently lose_sum: 0.33724355697631836
time_elpased: 1.143
#iterations: 413
currently lose_sum: 0.32448846101760864
time_elpased: 1.142
#iterations: 414
currently lose_sum: 0.4386011064052582
time_elpased: 1.167
#iterations: 415
currently lose_sum: 0.5160455703735352
time_elpased: 1.155
#iterations: 416
currently lose_sum: 0.3347204625606537
time_elpased: 1.205
#iterations: 417
currently lose_sum: 0.3936801850795746
time_elpased: 1.158
#iterations: 418
currently lose_sum: 0.24616356194019318
time_elpased: 1.132
#iterations: 419
currently lose_sum: 0.5431932210922241
time_elpased: 1.18
start validation test
0.680128205128
0.717754172989
0.601781170483
0.654671280277
0.680735546482
27.876
#iterations: 420
currently lose_sum: 0.43415728211402893
time_elpased: 1.138
#iterations: 421
currently lose_sum: 0.4637313485145569
time_elpased: 1.17
#iterations: 422
currently lose_sum: 0.5154122114181519
time_elpased: 1.226
#iterations: 423
currently lose_sum: 0.3415099084377289
time_elpased: 1.179
#iterations: 424
currently lose_sum: 0.3208922743797302
time_elpased: 1.181
#iterations: 425
currently lose_sum: 0.4129210114479065
time_elpased: 1.169
#iterations: 426
currently lose_sum: 0.47825032472610474
time_elpased: 1.178
#iterations: 427
currently lose_sum: 0.43671005964279175
time_elpased: 1.12
#iterations: 428
currently lose_sum: 0.33080750703811646
time_elpased: 1.148
#iterations: 429
currently lose_sum: 0.3033389449119568
time_elpased: 1.173
#iterations: 430
currently lose_sum: 0.26571542024612427
time_elpased: 1.213
#iterations: 431
currently lose_sum: 0.5798095464706421
time_elpased: 1.18
#iterations: 432
currently lose_sum: 0.5395139455795288
time_elpased: 1.168
#iterations: 433
currently lose_sum: 0.4176402986049652
time_elpased: 1.146
#iterations: 434
currently lose_sum: 0.5267605781555176
time_elpased: 1.179
#iterations: 435
currently lose_sum: 0.439340204000473
time_elpased: 1.175
#iterations: 436
currently lose_sum: 0.496936172246933
time_elpased: 1.15
#iterations: 437
currently lose_sum: 0.2880728542804718
time_elpased: 1.196
#iterations: 438
currently lose_sum: 0.39746588468551636
time_elpased: 1.16
#iterations: 439
currently lose_sum: 0.31118494272232056
time_elpased: 1.145
start validation test
0.672435897436
0.747747747748
0.527989821883
0.61894108874
0.673555634456
31.257
#iterations: 440
currently lose_sum: 0.2967706322669983
time_elpased: 1.127
#iterations: 441
currently lose_sum: 0.37157344818115234
time_elpased: 1.168
#iterations: 442
currently lose_sum: 0.2966311573982239
time_elpased: 1.155
#iterations: 443
currently lose_sum: 0.4438108503818512
time_elpased: 1.136
#iterations: 444
currently lose_sum: 0.38215702772140503
time_elpased: 1.135
#iterations: 445
currently lose_sum: 0.5016447305679321
time_elpased: 1.178
#iterations: 446
currently lose_sum: 0.5841636657714844
time_elpased: 1.157
#iterations: 447
currently lose_sum: 0.2323833405971527
time_elpased: 1.138
#iterations: 448
currently lose_sum: 0.47009792923927307
time_elpased: 1.183
#iterations: 449
currently lose_sum: 0.33772462606430054
time_elpased: 1.155
#iterations: 450
currently lose_sum: 0.24997515976428986
time_elpased: 1.16
#iterations: 451
currently lose_sum: 0.3538484573364258
time_elpased: 1.158
#iterations: 452
currently lose_sum: 0.40461379289627075
time_elpased: 1.143
#iterations: 453
currently lose_sum: 0.2651582658290863
time_elpased: 1.154
#iterations: 454
currently lose_sum: 0.24757972359657288
time_elpased: 1.144
#iterations: 455
currently lose_sum: 0.4803808331489563
time_elpased: 1.181
#iterations: 456
currently lose_sum: 0.3971605896949768
time_elpased: 1.175
#iterations: 457
currently lose_sum: 0.39165180921554565
time_elpased: 1.138
#iterations: 458
currently lose_sum: 0.3671952784061432
time_elpased: 1.135
#iterations: 459
currently lose_sum: 0.36191338300704956
time_elpased: 1.187
start validation test
0.642948717949
0.794344473008
0.393129770992
0.525957446809
0.644885298933
33.561
#iterations: 460
currently lose_sum: 0.46615591645240784
time_elpased: 1.166
#iterations: 461
currently lose_sum: 0.3520207703113556
time_elpased: 1.159
#iterations: 462
currently lose_sum: 0.4431726038455963
time_elpased: 1.171
#iterations: 463
currently lose_sum: 0.2816494405269623
time_elpased: 1.17
#iterations: 464
currently lose_sum: 0.42591986060142517
time_elpased: 1.161
#iterations: 465
currently lose_sum: 0.4468457102775574
time_elpased: 1.158
#iterations: 466
currently lose_sum: 0.4318872094154358
time_elpased: 1.154
#iterations: 467
currently lose_sum: 0.3728516101837158
time_elpased: 1.172
#iterations: 468
currently lose_sum: 0.4781276285648346
time_elpased: 1.129
#iterations: 469
currently lose_sum: 0.28873199224472046
time_elpased: 1.171
#iterations: 470
currently lose_sum: 0.3365897536277771
time_elpased: 1.209
#iterations: 471
currently lose_sum: 0.39961618185043335
time_elpased: 1.182
#iterations: 472
currently lose_sum: 0.4436585307121277
time_elpased: 1.138
#iterations: 473
currently lose_sum: 0.36676597595214844
time_elpased: 1.145
#iterations: 474
currently lose_sum: 0.45638608932495117
time_elpased: 1.15
#iterations: 475
currently lose_sum: 0.4201681613922119
time_elpased: 1.183
#iterations: 476
currently lose_sum: 0.3369508385658264
time_elpased: 1.151
#iterations: 477
currently lose_sum: 0.35285091400146484
time_elpased: 1.112
#iterations: 478
currently lose_sum: 0.48376521468162537
time_elpased: 1.209
#iterations: 479
currently lose_sum: 0.30385690927505493
time_elpased: 1.153
start validation test
0.680769230769
0.7
0.641221374046
0.669322709163
0.681075803302
28.079
#iterations: 480
currently lose_sum: 0.4202426075935364
time_elpased: 1.173
#iterations: 481
currently lose_sum: 0.37306392192840576
time_elpased: 1.125
#iterations: 482
currently lose_sum: 0.3762126564979553
time_elpased: 1.177
#iterations: 483
currently lose_sum: 0.3325115740299225
time_elpased: 1.135
#iterations: 484
currently lose_sum: 0.26742684841156006
time_elpased: 1.187
#iterations: 485
currently lose_sum: 0.4249577522277832
time_elpased: 1.132
#iterations: 486
currently lose_sum: 0.32766494154930115
time_elpased: 1.25
#iterations: 487
currently lose_sum: 0.49222278594970703
time_elpased: 1.144
#iterations: 488
currently lose_sum: 0.35411277413368225
time_elpased: 1.191
#iterations: 489
currently lose_sum: 0.42424020171165466
time_elpased: 1.17
#iterations: 490
currently lose_sum: 0.2979516088962555
time_elpased: 1.137
#iterations: 491
currently lose_sum: 0.47576799988746643
time_elpased: 1.178
#iterations: 492
currently lose_sum: 0.4038969874382019
time_elpased: 1.188
#iterations: 493
currently lose_sum: 0.3793252110481262
time_elpased: 1.184
#iterations: 494
currently lose_sum: 0.5395962595939636
time_elpased: 1.15
#iterations: 495
currently lose_sum: 0.3725767731666565
time_elpased: 1.155
#iterations: 496
currently lose_sum: 0.3056427538394928
time_elpased: 1.183
#iterations: 497
currently lose_sum: 0.3453284800052643
time_elpased: 1.143
#iterations: 498
currently lose_sum: 0.26278218626976013
time_elpased: 1.148
#iterations: 499
currently lose_sum: 0.3633915185928345
time_elpased: 1.135
start validation test
0.691025641026
0.731707317073
0.610687022901
0.665742024965
0.691648421011
29.537
#iterations: 500
currently lose_sum: 0.39954978227615356
time_elpased: 1.166
#iterations: 501
currently lose_sum: 0.37236660718917847
time_elpased: 1.187
#iterations: 502
currently lose_sum: 0.39569178223609924
time_elpased: 1.177
#iterations: 503
currently lose_sum: 0.518223762512207
time_elpased: 1.168
#iterations: 504
currently lose_sum: 0.45239561796188354
time_elpased: 1.152
#iterations: 505
currently lose_sum: 0.3312437832355499
time_elpased: 1.163
#iterations: 506
currently lose_sum: 0.45390385389328003
time_elpased: 1.151
#iterations: 507
currently lose_sum: 0.30601024627685547
time_elpased: 1.155
#iterations: 508
currently lose_sum: 0.3909374177455902
time_elpased: 1.131
#iterations: 509
currently lose_sum: 0.4314214289188385
time_elpased: 1.132
#iterations: 510
currently lose_sum: 0.30026671290397644
time_elpased: 1.178
#iterations: 511
currently lose_sum: 0.451082319021225
time_elpased: 1.152
#iterations: 512
currently lose_sum: 0.2942497432231903
time_elpased: 1.183
#iterations: 513
currently lose_sum: 0.20804643630981445
time_elpased: 1.15
#iterations: 514
currently lose_sum: 0.2921563982963562
time_elpased: 1.179
#iterations: 515
currently lose_sum: 0.2865988314151764
time_elpased: 1.182
#iterations: 516
currently lose_sum: 0.3941599130630493
time_elpased: 1.182
#iterations: 517
currently lose_sum: 0.22438010573387146
time_elpased: 1.167
#iterations: 518
currently lose_sum: 0.384194016456604
time_elpased: 1.206
#iterations: 519
currently lose_sum: 0.2786009609699249
time_elpased: 1.15
start validation test
0.678205128205
0.751773049645
0.539440203562
0.628148148148
0.679280825295
29.952
#iterations: 520
currently lose_sum: 0.3306175172328949
time_elpased: 1.157
#iterations: 521
currently lose_sum: 0.3322522044181824
time_elpased: 1.203
#iterations: 522
currently lose_sum: 0.4501473903656006
time_elpased: 1.17
#iterations: 523
currently lose_sum: 0.41482067108154297
time_elpased: 1.164
#iterations: 524
currently lose_sum: 0.3355318009853363
time_elpased: 1.185
#iterations: 525
currently lose_sum: 0.39478600025177
time_elpased: 1.18
#iterations: 526
currently lose_sum: 0.3589603900909424
time_elpased: 1.18
#iterations: 527
currently lose_sum: 0.3707446753978729
time_elpased: 1.139
#iterations: 528
currently lose_sum: 0.31198805570602417
time_elpased: 1.18
#iterations: 529
currently lose_sum: 0.5445951223373413
time_elpased: 1.185
#iterations: 530
currently lose_sum: 0.4839056134223938
time_elpased: 1.198
#iterations: 531
currently lose_sum: 0.480151504278183
time_elpased: 1.163
#iterations: 532
currently lose_sum: 0.5041484832763672
time_elpased: 1.192
#iterations: 533
currently lose_sum: 0.3744959831237793
time_elpased: 1.166
#iterations: 534
currently lose_sum: 0.42014580965042114
time_elpased: 1.133
#iterations: 535
currently lose_sum: 0.41198045015335083
time_elpased: 1.159
#iterations: 536
currently lose_sum: 0.33341851830482483
time_elpased: 1.186
#iterations: 537
currently lose_sum: 0.4690430760383606
time_elpased: 1.151
#iterations: 538
currently lose_sum: 0.3306881785392761
time_elpased: 1.144
#iterations: 539
currently lose_sum: 0.3880644738674164
time_elpased: 1.239
start validation test
0.662820512821
0.75390625
0.491094147583
0.594761171032
0.664151724954
30.724
#iterations: 540
currently lose_sum: 0.3056847155094147
time_elpased: 1.175
#iterations: 541
currently lose_sum: 0.34741926193237305
time_elpased: 1.183
#iterations: 542
currently lose_sum: 0.3844660222530365
time_elpased: 1.179
#iterations: 543
currently lose_sum: 0.4412340521812439
time_elpased: 1.165
#iterations: 544
currently lose_sum: 0.4490121006965637
time_elpased: 1.187
#iterations: 545
currently lose_sum: 0.58720862865448
time_elpased: 1.145
#iterations: 546
currently lose_sum: 0.38785475492477417
time_elpased: 1.121
#iterations: 547
currently lose_sum: 0.42536696791648865
time_elpased: 1.183
#iterations: 548
currently lose_sum: 0.4167567789554596
time_elpased: 1.175
#iterations: 549
currently lose_sum: 0.4133775234222412
time_elpased: 1.143
#iterations: 550
currently lose_sum: 0.46319031715393066
time_elpased: 1.148
#iterations: 551
currently lose_sum: 0.3660431504249573
time_elpased: 1.158
#iterations: 552
currently lose_sum: 0.33499208092689514
time_elpased: 1.163
#iterations: 553
currently lose_sum: 0.3232871890068054
time_elpased: 1.204
#iterations: 554
currently lose_sum: 0.4050135612487793
time_elpased: 1.152
#iterations: 555
currently lose_sum: 0.47108715772628784
time_elpased: 1.148
#iterations: 556
currently lose_sum: 0.38016873598098755
time_elpased: 1.131
#iterations: 557
currently lose_sum: 0.318557471036911
time_elpased: 1.139
#iterations: 558
currently lose_sum: 0.3809008002281189
time_elpased: 1.169
#iterations: 559
currently lose_sum: 0.2806495428085327
time_elpased: 1.175
start validation test
0.671794871795
0.736206896552
0.543256997455
0.625183016105
0.672791289425
30.940
#iterations: 560
currently lose_sum: 0.36235570907592773
time_elpased: 1.191
#iterations: 561
currently lose_sum: 0.35649335384368896
time_elpased: 1.168
#iterations: 562
currently lose_sum: 0.4200678765773773
time_elpased: 1.198
#iterations: 563
currently lose_sum: 0.4405689239501953
time_elpased: 1.122
#iterations: 564
currently lose_sum: 0.3568188548088074
time_elpased: 1.186
#iterations: 565
currently lose_sum: 0.3774750530719757
time_elpased: 1.174
#iterations: 566
currently lose_sum: 0.3462007939815521
time_elpased: 1.207
#iterations: 567
currently lose_sum: 0.44543927907943726
time_elpased: 1.142
#iterations: 568
currently lose_sum: 0.4167930483818054
time_elpased: 1.176
#iterations: 569
currently lose_sum: 0.35605141520500183
time_elpased: 1.177
#iterations: 570
currently lose_sum: 0.49374547600746155
time_elpased: 1.164
#iterations: 571
currently lose_sum: 0.3543747067451477
time_elpased: 1.12
#iterations: 572
currently lose_sum: 0.2571348547935486
time_elpased: 1.126
#iterations: 573
currently lose_sum: 0.21748748421669006
time_elpased: 1.158
#iterations: 574
currently lose_sum: 0.377273291349411
time_elpased: 1.17
#iterations: 575
currently lose_sum: 0.4266471862792969
time_elpased: 1.136
#iterations: 576
currently lose_sum: 0.40443000197410583
time_elpased: 1.15
#iterations: 577
currently lose_sum: 0.4556697905063629
time_elpased: 1.196
#iterations: 578
currently lose_sum: 0.3729518949985504
time_elpased: 1.168
#iterations: 579
currently lose_sum: 0.32353442907333374
time_elpased: 1.121
start validation test
0.682692307692
0.705218617772
0.636132315522
0.66889632107
0.683053237864
31.351
#iterations: 580
currently lose_sum: 0.41878923773765564
time_elpased: 1.186
#iterations: 581
currently lose_sum: 0.2797907888889313
time_elpased: 1.164
#iterations: 582
currently lose_sum: 0.3233959972858429
time_elpased: 1.155
#iterations: 583
currently lose_sum: 0.3652946352958679
time_elpased: 1.141
#iterations: 584
currently lose_sum: 0.3145269453525543
time_elpased: 1.159
#iterations: 585
currently lose_sum: 0.24724765121936798
time_elpased: 1.199
#iterations: 586
currently lose_sum: 0.4527040421962738
time_elpased: 1.154
#iterations: 587
currently lose_sum: 0.340728223323822
time_elpased: 1.215
#iterations: 588
currently lose_sum: 0.5706791877746582
time_elpased: 1.15
#iterations: 589
currently lose_sum: 0.296074777841568
time_elpased: 1.165
#iterations: 590
currently lose_sum: 0.4960581660270691
time_elpased: 1.139
#iterations: 591
currently lose_sum: 0.4304918646812439
time_elpased: 1.187
#iterations: 592
currently lose_sum: 0.4970893859863281
time_elpased: 1.202
#iterations: 593
currently lose_sum: 0.32722583413124084
time_elpased: 1.166
#iterations: 594
currently lose_sum: 0.5500941872596741
time_elpased: 1.17
#iterations: 595
currently lose_sum: 0.3499590754508972
time_elpased: 1.136
#iterations: 596
currently lose_sum: 0.3514339029788971
time_elpased: 1.203
#iterations: 597
currently lose_sum: 0.33065879344940186
time_elpased: 1.204
#iterations: 598
currently lose_sum: 0.4692612588405609
time_elpased: 1.2
#iterations: 599
currently lose_sum: 0.40545520186424255
time_elpased: 1.143
start validation test
0.663461538462
0.758415841584
0.48727735369
0.593338497289
0.664827307336
32.200
acc: 0.670
pre: 0.717
rec: 0.569
F1: 0.634
auc: 0.671
