start to construct computing graph
graph construct over
2360
epochs start
#iterations: 0
currently lose_sum: 0.704744815826416
time_elpased: 1.229
#iterations: 1
currently lose_sum: 0.6730808615684509
time_elpased: 1.193
#iterations: 2
currently lose_sum: 0.7068653106689453
time_elpased: 1.182
#iterations: 3
currently lose_sum: 0.685585618019104
time_elpased: 1.2
#iterations: 4
currently lose_sum: 0.6819688081741333
time_elpased: 1.185
#iterations: 5
currently lose_sum: 0.6777669191360474
time_elpased: 1.163
#iterations: 6
currently lose_sum: 0.6847930550575256
time_elpased: 1.203
#iterations: 7
currently lose_sum: 0.6907888650894165
time_elpased: 1.179
#iterations: 8
currently lose_sum: 0.6928397417068481
time_elpased: 1.175
#iterations: 9
currently lose_sum: 0.6944652795791626
time_elpased: 1.17
#iterations: 10
currently lose_sum: 0.6513928174972534
time_elpased: 1.197
#iterations: 11
currently lose_sum: 0.7316220998764038
time_elpased: 1.163
#iterations: 12
currently lose_sum: 0.6100600957870483
time_elpased: 1.19
#iterations: 13
currently lose_sum: 0.7035991549491882
time_elpased: 1.196
#iterations: 14
currently lose_sum: 0.6410152316093445
time_elpased: 1.175
#iterations: 15
currently lose_sum: 0.7328208088874817
time_elpased: 1.211
#iterations: 16
currently lose_sum: 0.6496576070785522
time_elpased: 1.19
#iterations: 17
currently lose_sum: 0.6163427233695984
time_elpased: 1.19
#iterations: 18
currently lose_sum: 0.7504839897155762
time_elpased: 1.201
#iterations: 19
currently lose_sum: 0.667287290096283
time_elpased: 1.184
start validation test
0.579487179487
0.590096286107
0.545108005083
0.566710700132
0.579798504482
26.311
#iterations: 20
currently lose_sum: 0.7009180188179016
time_elpased: 0.904
#iterations: 21
currently lose_sum: 0.6486796736717224
time_elpased: 0.903
#iterations: 22
currently lose_sum: 0.6032455563545227
time_elpased: 0.94
#iterations: 23
currently lose_sum: 0.7189623713493347
time_elpased: 0.941
#iterations: 24
currently lose_sum: 0.7378848195075989
time_elpased: 0.928
#iterations: 25
currently lose_sum: 0.6380543112754822
time_elpased: 0.932
#iterations: 26
currently lose_sum: 0.6017448306083679
time_elpased: 0.933
#iterations: 27
currently lose_sum: 0.6385732293128967
time_elpased: 0.914
#iterations: 28
currently lose_sum: 0.6520065069198608
time_elpased: 0.911
#iterations: 29
currently lose_sum: 0.6255890130996704
time_elpased: 0.939
#iterations: 30
currently lose_sum: 0.66246098279953
time_elpased: 0.921
#iterations: 31
currently lose_sum: 0.6334782838821411
time_elpased: 0.937
#iterations: 32
currently lose_sum: 0.5958263278007507
time_elpased: 0.939
#iterations: 33
currently lose_sum: 0.575320839881897
time_elpased: 0.955
#iterations: 34
currently lose_sum: 0.7952706217765808
time_elpased: 0.937
#iterations: 35
currently lose_sum: 0.6175840497016907
time_elpased: 0.962
#iterations: 36
currently lose_sum: 0.6915298104286194
time_elpased: 0.895
#iterations: 37
currently lose_sum: 0.6002019643783569
time_elpased: 0.924
#iterations: 38
currently lose_sum: 0.6814567446708679
time_elpased: 0.943
#iterations: 39
currently lose_sum: 0.6578871011734009
time_elpased: 0.926
start validation test
0.617948717949
0.613285883749
0.656925031766
0.634355828221
0.617595762972
25.613
#iterations: 40
currently lose_sum: 0.6911768317222595
time_elpased: 0.93
#iterations: 41
currently lose_sum: 0.6288608908653259
time_elpased: 0.902
#iterations: 42
currently lose_sum: 0.6214813590049744
time_elpased: 0.922
#iterations: 43
currently lose_sum: 0.6306673884391785
time_elpased: 0.907
#iterations: 44
currently lose_sum: 0.580870509147644
time_elpased: 0.926
#iterations: 45
currently lose_sum: 0.6204506158828735
time_elpased: 0.912
#iterations: 46
currently lose_sum: 0.5455275774002075
time_elpased: 0.921
#iterations: 47
currently lose_sum: 0.6010461449623108
time_elpased: 0.933
#iterations: 48
currently lose_sum: 0.5689986944198608
time_elpased: 0.944
#iterations: 49
currently lose_sum: 0.692368745803833
time_elpased: 0.916
#iterations: 50
currently lose_sum: 0.520575225353241
time_elpased: 0.936
#iterations: 51
currently lose_sum: 0.6127969026565552
time_elpased: 0.941
#iterations: 52
currently lose_sum: 0.5756503343582153
time_elpased: 0.918
#iterations: 53
currently lose_sum: 0.6570313572883606
time_elpased: 0.942
#iterations: 54
currently lose_sum: 0.49260687828063965
time_elpased: 0.922
#iterations: 55
currently lose_sum: 0.597732663154602
time_elpased: 0.948
#iterations: 56
currently lose_sum: 0.6138339042663574
time_elpased: 0.915
#iterations: 57
currently lose_sum: 0.5993266105651855
time_elpased: 0.92
#iterations: 58
currently lose_sum: 0.49190133810043335
time_elpased: 0.925
#iterations: 59
currently lose_sum: 0.6717588305473328
time_elpased: 0.933
start validation test
0.626282051282
0.629441624365
0.630241423126
0.629841269841
0.626246196686
25.464
#iterations: 60
currently lose_sum: 0.6707914471626282
time_elpased: 0.903
#iterations: 61
currently lose_sum: 0.5570794343948364
time_elpased: 0.945
#iterations: 62
currently lose_sum: 0.5221205353736877
time_elpased: 0.916
#iterations: 63
currently lose_sum: 0.6298898458480835
time_elpased: 0.948
#iterations: 64
currently lose_sum: 0.6133407354354858
time_elpased: 0.916
#iterations: 65
currently lose_sum: 0.5494905710220337
time_elpased: 0.918
#iterations: 66
currently lose_sum: 0.6340035200119019
time_elpased: 0.917
#iterations: 67
currently lose_sum: 0.6340161561965942
time_elpased: 0.922
#iterations: 68
currently lose_sum: 0.5705128908157349
time_elpased: 0.937
#iterations: 69
currently lose_sum: 0.6258860230445862
time_elpased: 0.924
#iterations: 70
currently lose_sum: 0.6127058267593384
time_elpased: 0.921
#iterations: 71
currently lose_sum: 0.5941224098205566
time_elpased: 0.934
#iterations: 72
currently lose_sum: 0.6179863214492798
time_elpased: 0.926
#iterations: 73
currently lose_sum: 0.49986281991004944
time_elpased: 0.918
#iterations: 74
currently lose_sum: 0.6087234616279602
time_elpased: 0.919
#iterations: 75
currently lose_sum: 0.6870995759963989
time_elpased: 0.929
#iterations: 76
currently lose_sum: 0.6002135872840881
time_elpased: 0.922
#iterations: 77
currently lose_sum: 0.5422719120979309
time_elpased: 0.94
#iterations: 78
currently lose_sum: 0.5399898290634155
time_elpased: 0.937
#iterations: 79
currently lose_sum: 0.6097647547721863
time_elpased: 0.906
start validation test
0.628846153846
0.644444444444
0.58958068615
0.615792966158
0.629201727292
25.263
#iterations: 80
currently lose_sum: 0.553106963634491
time_elpased: 0.93
#iterations: 81
currently lose_sum: 0.5349113345146179
time_elpased: 0.913
#iterations: 82
currently lose_sum: 0.6958779692649841
time_elpased: 0.959
#iterations: 83
currently lose_sum: 0.6077656745910645
time_elpased: 0.932
#iterations: 84
currently lose_sum: 0.6131693124771118
time_elpased: 0.942
#iterations: 85
currently lose_sum: 0.5713950395584106
time_elpased: 0.931
#iterations: 86
currently lose_sum: 0.6350277662277222
time_elpased: 0.905
#iterations: 87
currently lose_sum: 0.5520323514938354
time_elpased: 0.934
#iterations: 88
currently lose_sum: 0.6416927576065063
time_elpased: 0.91
#iterations: 89
currently lose_sum: 0.6956595778465271
time_elpased: 0.918
#iterations: 90
currently lose_sum: 0.6305907368659973
time_elpased: 0.916
#iterations: 91
currently lose_sum: 0.556425929069519
time_elpased: 0.9
#iterations: 92
currently lose_sum: 0.4964374899864197
time_elpased: 0.901
#iterations: 93
currently lose_sum: 0.4707983136177063
time_elpased: 0.926
#iterations: 94
currently lose_sum: 0.6043440699577332
time_elpased: 0.927
#iterations: 95
currently lose_sum: 0.41214221715927124
time_elpased: 0.943
#iterations: 96
currently lose_sum: 0.4865035116672516
time_elpased: 0.928
#iterations: 97
currently lose_sum: 0.5668448209762573
time_elpased: 0.953
#iterations: 98
currently lose_sum: 0.5151750445365906
time_elpased: 0.917
#iterations: 99
currently lose_sum: 0.5111242532730103
time_elpased: 0.917
start validation test
0.644230769231
0.627472527473
0.725540025413
0.672952268709
0.643494462901
25.086
#iterations: 100
currently lose_sum: 0.48090678453445435
time_elpased: 0.938
#iterations: 101
currently lose_sum: 0.5329843759536743
time_elpased: 0.928
#iterations: 102
currently lose_sum: 0.6082421541213989
time_elpased: 0.918
#iterations: 103
currently lose_sum: 0.47920042276382446
time_elpased: 0.964
#iterations: 104
currently lose_sum: 0.5721125602722168
time_elpased: 0.931
#iterations: 105
currently lose_sum: 0.5951159596443176
time_elpased: 0.927
#iterations: 106
currently lose_sum: 0.5887124538421631
time_elpased: 0.927
#iterations: 107
currently lose_sum: 0.487325519323349
time_elpased: 0.916
#iterations: 108
currently lose_sum: 0.43502697348594666
time_elpased: 0.95
#iterations: 109
currently lose_sum: 0.6756315231323242
time_elpased: 0.931
#iterations: 110
currently lose_sum: 0.6571018695831299
time_elpased: 0.918
#iterations: 111
currently lose_sum: 0.4286986291408539
time_elpased: 0.931
#iterations: 112
currently lose_sum: 0.5648133158683777
time_elpased: 0.928
#iterations: 113
currently lose_sum: 0.48833465576171875
time_elpased: 0.938
#iterations: 114
currently lose_sum: 0.5644683837890625
time_elpased: 0.934
#iterations: 115
currently lose_sum: 0.6447598338127136
time_elpased: 0.934
#iterations: 116
currently lose_sum: 0.5394278764724731
time_elpased: 0.917
#iterations: 117
currently lose_sum: 0.5179089903831482
time_elpased: 0.936
#iterations: 118
currently lose_sum: 0.5487759709358215
time_elpased: 0.931
#iterations: 119
currently lose_sum: 0.4610878825187683
time_elpased: 0.94
start validation test
0.649358974359
0.645278450363
0.677255400254
0.660880347179
0.64910635472
25.192
#iterations: 120
currently lose_sum: 0.6367510557174683
time_elpased: 0.927
#iterations: 121
currently lose_sum: 0.5733864903450012
time_elpased: 0.942
#iterations: 122
currently lose_sum: 0.4356374740600586
time_elpased: 0.969
#iterations: 123
currently lose_sum: 0.4999465346336365
time_elpased: 0.982
#iterations: 124
currently lose_sum: 0.5956328511238098
time_elpased: 0.919
#iterations: 125
currently lose_sum: 0.5223784446716309
time_elpased: 0.91
#iterations: 126
currently lose_sum: 0.5447453260421753
time_elpased: 0.899
#iterations: 127
currently lose_sum: 0.5396937727928162
time_elpased: 0.925
#iterations: 128
currently lose_sum: 0.5556046366691589
time_elpased: 0.91
#iterations: 129
currently lose_sum: 0.3975580632686615
time_elpased: 0.946
#iterations: 130
currently lose_sum: 0.7414625883102417
time_elpased: 0.935
#iterations: 131
currently lose_sum: 0.6016541719436646
time_elpased: 0.947
#iterations: 132
currently lose_sum: 0.5803399682044983
time_elpased: 0.964
#iterations: 133
currently lose_sum: 0.5729302167892456
time_elpased: 0.933
#iterations: 134
currently lose_sum: 0.5335073471069336
time_elpased: 0.934
#iterations: 135
currently lose_sum: 0.5785473585128784
time_elpased: 0.919
#iterations: 136
currently lose_sum: 0.45560169219970703
time_elpased: 0.937
#iterations: 137
currently lose_sum: 0.5903541445732117
time_elpased: 0.943
#iterations: 138
currently lose_sum: 0.5761271715164185
time_elpased: 0.93
#iterations: 139
currently lose_sum: 0.5179425477981567
time_elpased: 1.001
start validation test
0.650641025641
0.637188208617
0.714104193139
0.673457159976
0.650066326841
24.921
#iterations: 140
currently lose_sum: 0.5342106819152832
time_elpased: 0.898
#iterations: 141
currently lose_sum: 0.6700652241706848
time_elpased: 0.914
#iterations: 142
currently lose_sum: 0.5048936605453491
time_elpased: 0.92
#iterations: 143
currently lose_sum: 0.3413355350494385
time_elpased: 0.916
#iterations: 144
currently lose_sum: 0.5461370348930359
time_elpased: 0.902
#iterations: 145
currently lose_sum: 0.4603557586669922
time_elpased: 0.9
#iterations: 146
currently lose_sum: 0.5284438133239746
time_elpased: 0.926
#iterations: 147
currently lose_sum: 0.46538710594177246
time_elpased: 0.934
#iterations: 148
currently lose_sum: 0.5071917176246643
time_elpased: 0.909
#iterations: 149
currently lose_sum: 0.3850559592247009
time_elpased: 0.94
#iterations: 150
currently lose_sum: 0.6082755923271179
time_elpased: 0.916
#iterations: 151
currently lose_sum: 0.4814583659172058
time_elpased: 0.905
#iterations: 152
currently lose_sum: 0.5452876091003418
time_elpased: 0.914
#iterations: 153
currently lose_sum: 0.4213634133338928
time_elpased: 0.924
#iterations: 154
currently lose_sum: 0.6088298559188843
time_elpased: 0.9
#iterations: 155
currently lose_sum: 0.4278935492038727
time_elpased: 0.92
#iterations: 156
currently lose_sum: 0.45859915018081665
time_elpased: 0.92
#iterations: 157
currently lose_sum: 0.5564361810684204
time_elpased: 0.92
#iterations: 158
currently lose_sum: 0.5506130456924438
time_elpased: 0.905
#iterations: 159
currently lose_sum: 0.6047803163528442
time_elpased: 0.919
start validation test
0.657051282051
0.695046439628
0.570520965693
0.626657362177
0.657834868357
25.045
#iterations: 160
currently lose_sum: 0.6055041551589966
time_elpased: 0.912
#iterations: 161
currently lose_sum: 0.5438121557235718
time_elpased: 0.937
#iterations: 162
currently lose_sum: 0.36045923829078674
time_elpased: 0.918
#iterations: 163
currently lose_sum: 0.43946772813796997
time_elpased: 0.964
#iterations: 164
currently lose_sum: 0.39416956901550293
time_elpased: 0.917
#iterations: 165
currently lose_sum: 0.5239436626434326
time_elpased: 0.92
#iterations: 166
currently lose_sum: 0.5518335103988647
time_elpased: 0.956
#iterations: 167
currently lose_sum: 0.5872470140457153
time_elpased: 0.945
#iterations: 168
currently lose_sum: 0.4737165868282318
time_elpased: 0.921
#iterations: 169
currently lose_sum: 0.5534840822219849
time_elpased: 0.922
#iterations: 170
currently lose_sum: 0.5671027898788452
time_elpased: 0.908
#iterations: 171
currently lose_sum: 0.5615027546882629
time_elpased: 0.971
#iterations: 172
currently lose_sum: 0.5333035588264465
time_elpased: 0.923
#iterations: 173
currently lose_sum: 0.5178996920585632
time_elpased: 0.931
#iterations: 174
currently lose_sum: 0.39217379689216614
time_elpased: 0.925
#iterations: 175
currently lose_sum: 0.6504914164543152
time_elpased: 0.994
#iterations: 176
currently lose_sum: 0.43879279494285583
time_elpased: 0.934
#iterations: 177
currently lose_sum: 0.37159132957458496
time_elpased: 0.905
#iterations: 178
currently lose_sum: 0.47537368535995483
time_elpased: 0.929
#iterations: 179
currently lose_sum: 0.6067591905593872
time_elpased: 0.935
start validation test
0.65
0.756929637527
0.451080050826
0.565286624204
0.651801344947
26.703
#iterations: 180
currently lose_sum: 0.5649188756942749
time_elpased: 0.9
#iterations: 181
currently lose_sum: 0.5811738967895508
time_elpased: 0.968
#iterations: 182
currently lose_sum: 0.4771993160247803
time_elpased: 0.927
#iterations: 183
currently lose_sum: 0.5467139482498169
time_elpased: 0.942
#iterations: 184
currently lose_sum: 0.5230830311775208
time_elpased: 0.959
#iterations: 185
currently lose_sum: 0.5242710113525391
time_elpased: 0.902
#iterations: 186
currently lose_sum: 0.4169468879699707
time_elpased: 0.905
#iterations: 187
currently lose_sum: 0.5161281824111938
time_elpased: 0.89
#iterations: 188
currently lose_sum: 0.44966012239456177
time_elpased: 0.933
#iterations: 189
currently lose_sum: 0.445730596780777
time_elpased: 0.934
#iterations: 190
currently lose_sum: 0.5764285326004028
time_elpased: 0.904
#iterations: 191
currently lose_sum: 0.5730533003807068
time_elpased: 0.949
#iterations: 192
currently lose_sum: 0.5256574153900146
time_elpased: 0.933
#iterations: 193
currently lose_sum: 0.6890521049499512
time_elpased: 0.938
#iterations: 194
currently lose_sum: 0.5213514566421509
time_elpased: 0.915
#iterations: 195
currently lose_sum: 0.6282947659492493
time_elpased: 0.93
#iterations: 196
currently lose_sum: 0.5332713723182678
time_elpased: 0.901
#iterations: 197
currently lose_sum: 0.5873903632164001
time_elpased: 0.935
#iterations: 198
currently lose_sum: 0.5204086899757385
time_elpased: 0.904
#iterations: 199
currently lose_sum: 0.4569605886936188
time_elpased: 0.936
start validation test
0.655128205128
0.70510708402
0.543837357052
0.61406025825
0.656136013584
25.915
#iterations: 200
currently lose_sum: 0.5232595205307007
time_elpased: 0.919
#iterations: 201
currently lose_sum: 0.3795963525772095
time_elpased: 0.95
#iterations: 202
currently lose_sum: 0.5109380483627319
time_elpased: 0.913
#iterations: 203
currently lose_sum: 0.4935697615146637
time_elpased: 0.974
#iterations: 204
currently lose_sum: 0.5912507772445679
time_elpased: 0.943
#iterations: 205
currently lose_sum: 0.39386090636253357
time_elpased: 0.917
#iterations: 206
currently lose_sum: 0.7169510126113892
time_elpased: 0.957
#iterations: 207
currently lose_sum: 0.595248281955719
time_elpased: 0.928
#iterations: 208
currently lose_sum: 0.4946533143520355
time_elpased: 0.939
#iterations: 209
currently lose_sum: 0.519101083278656
time_elpased: 0.929
#iterations: 210
currently lose_sum: 0.472215473651886
time_elpased: 0.939
#iterations: 211
currently lose_sum: 0.4942951202392578
time_elpased: 0.93
#iterations: 212
currently lose_sum: 0.4706881046295166
time_elpased: 0.917
#iterations: 213
currently lose_sum: 0.4471479058265686
time_elpased: 0.918
#iterations: 214
currently lose_sum: 0.456857293844223
time_elpased: 0.956
#iterations: 215
currently lose_sum: 0.4968468248844147
time_elpased: 0.913
#iterations: 216
currently lose_sum: 0.5733951926231384
time_elpased: 0.923
#iterations: 217
currently lose_sum: 0.5079091787338257
time_elpased: 0.936
#iterations: 218
currently lose_sum: 0.539641797542572
time_elpased: 0.917
#iterations: 219
currently lose_sum: 0.3120746314525604
time_elpased: 0.91
start validation test
0.674358974359
0.70977443609
0.599745870394
0.650137741047
0.67503464283
24.728
#iterations: 220
currently lose_sum: 0.5496983528137207
time_elpased: 0.92
#iterations: 221
currently lose_sum: 0.5029022693634033
time_elpased: 0.928
#iterations: 222
currently lose_sum: 0.314331591129303
time_elpased: 0.926
#iterations: 223
currently lose_sum: 0.4956962466239929
time_elpased: 0.929
#iterations: 224
currently lose_sum: 0.4718357026576996
time_elpased: 0.935
#iterations: 225
currently lose_sum: 0.4797903895378113
time_elpased: 0.95
#iterations: 226
currently lose_sum: 0.5485103726387024
time_elpased: 0.924
#iterations: 227
currently lose_sum: 0.5678614377975464
time_elpased: 0.926
#iterations: 228
currently lose_sum: 0.39245545864105225
time_elpased: 0.912
#iterations: 229
currently lose_sum: 0.37456101179122925
time_elpased: 0.916
#iterations: 230
currently lose_sum: 0.5176740884780884
time_elpased: 0.904
#iterations: 231
currently lose_sum: 0.5570996403694153
time_elpased: 0.899
#iterations: 232
currently lose_sum: 0.4830961227416992
time_elpased: 0.938
#iterations: 233
currently lose_sum: 0.3803614377975464
time_elpased: 0.922
#iterations: 234
currently lose_sum: 0.5397146344184875
time_elpased: 0.926
#iterations: 235
currently lose_sum: 0.49138107895851135
time_elpased: 0.944
#iterations: 236
currently lose_sum: 0.36779794096946716
time_elpased: 0.941
#iterations: 237
currently lose_sum: 0.3966814875602722
time_elpased: 0.915
#iterations: 238
currently lose_sum: 0.48507100343704224
time_elpased: 0.922
#iterations: 239
currently lose_sum: 0.5418145060539246
time_elpased: 0.929
start validation test
0.662179487179
0.781385281385
0.458703939009
0.57806244996
0.664022085934
26.638
#iterations: 240
currently lose_sum: 0.40168672800064087
time_elpased: 0.93
#iterations: 241
currently lose_sum: 0.5629457831382751
time_elpased: 0.933
#iterations: 242
currently lose_sum: 0.4868199825286865
time_elpased: 0.903
#iterations: 243
currently lose_sum: 0.3692999482154846
time_elpased: 0.936
#iterations: 244
currently lose_sum: 0.5045970678329468
time_elpased: 0.914
#iterations: 245
currently lose_sum: 0.5147556066513062
time_elpased: 0.916
#iterations: 246
currently lose_sum: 0.6235554814338684
time_elpased: 0.914
#iterations: 247
currently lose_sum: 0.5019164681434631
time_elpased: 0.939
#iterations: 248
currently lose_sum: 0.47283801436424255
time_elpased: 0.933
#iterations: 249
currently lose_sum: 0.4139065742492676
time_elpased: 0.922
#iterations: 250
currently lose_sum: 0.4802640378475189
time_elpased: 0.904
#iterations: 251
currently lose_sum: 0.5664633512496948
time_elpased: 0.911
#iterations: 252
currently lose_sum: 0.5140740275382996
time_elpased: 0.984
#iterations: 253
currently lose_sum: 0.4592552185058594
time_elpased: 0.956
#iterations: 254
currently lose_sum: 0.6033444404602051
time_elpased: 0.933
#iterations: 255
currently lose_sum: 0.48212385177612305
time_elpased: 0.932
#iterations: 256
currently lose_sum: 0.426649272441864
time_elpased: 0.955
#iterations: 257
currently lose_sum: 0.4135969281196594
time_elpased: 0.919
#iterations: 258
currently lose_sum: 0.5084204077720642
time_elpased: 0.908
#iterations: 259
currently lose_sum: 0.5392872095108032
time_elpased: 0.908
start validation test
0.66858974359
0.6735218509
0.66581956798
0.6696485623
0.668614829268
24.843
#iterations: 260
currently lose_sum: 0.5060593485832214
time_elpased: 0.917
#iterations: 261
currently lose_sum: 0.4634819030761719
time_elpased: 0.963
#iterations: 262
currently lose_sum: 0.4621264338493347
time_elpased: 0.919
#iterations: 263
currently lose_sum: 0.5385193824768066
time_elpased: 0.956
#iterations: 264
currently lose_sum: 0.43695545196533203
time_elpased: 0.924
#iterations: 265
currently lose_sum: 0.4716099798679352
time_elpased: 0.924
#iterations: 266
currently lose_sum: 0.48625192046165466
time_elpased: 0.932
#iterations: 267
currently lose_sum: 0.45618143677711487
time_elpased: 0.919
#iterations: 268
currently lose_sum: 0.4457148611545563
time_elpased: 0.931
#iterations: 269
currently lose_sum: 0.46896910667419434
time_elpased: 0.936
#iterations: 270
currently lose_sum: 0.3929499089717865
time_elpased: 0.92
#iterations: 271
currently lose_sum: 0.2953498959541321
time_elpased: 0.917
#iterations: 272
currently lose_sum: 0.3976186513900757
time_elpased: 0.939
#iterations: 273
currently lose_sum: 0.4438960552215576
time_elpased: 0.913
#iterations: 274
currently lose_sum: 0.5321993827819824
time_elpased: 0.937
#iterations: 275
currently lose_sum: 0.4163895547389984
time_elpased: 0.929
#iterations: 276
currently lose_sum: 0.5159912109375
time_elpased: 0.948
#iterations: 277
currently lose_sum: 0.43451499938964844
time_elpased: 0.936
#iterations: 278
currently lose_sum: 0.3570536673069
time_elpased: 0.924
#iterations: 279
currently lose_sum: 0.42267435789108276
time_elpased: 0.952
start validation test
0.642948717949
0.784653465347
0.402795425667
0.532325776658
0.645123456689
28.890
#iterations: 280
currently lose_sum: 0.5208991765975952
time_elpased: 0.904
#iterations: 281
currently lose_sum: 0.46021538972854614
time_elpased: 0.907
#iterations: 282
currently lose_sum: 0.5599559545516968
time_elpased: 0.932
#iterations: 283
currently lose_sum: 0.39023226499557495
time_elpased: 0.943
#iterations: 284
currently lose_sum: 0.4539112150669098
time_elpased: 0.918
#iterations: 285
currently lose_sum: 0.43128690123558044
time_elpased: 0.894
#iterations: 286
currently lose_sum: 0.4211704730987549
time_elpased: 0.937
#iterations: 287
currently lose_sum: 0.5176824331283569
time_elpased: 0.955
#iterations: 288
currently lose_sum: 0.5549054145812988
time_elpased: 0.944
#iterations: 289
currently lose_sum: 0.4134450852870941
time_elpased: 0.956
#iterations: 290
currently lose_sum: 0.3373350501060486
time_elpased: 0.914
#iterations: 291
currently lose_sum: 0.5650796890258789
time_elpased: 0.928
#iterations: 292
currently lose_sum: 0.42480507493019104
time_elpased: 0.911
#iterations: 293
currently lose_sum: 0.4969960153102875
time_elpased: 0.942
#iterations: 294
currently lose_sum: 0.4188753068447113
time_elpased: 0.925
#iterations: 295
currently lose_sum: 0.5613325834274292
time_elpased: 0.928
#iterations: 296
currently lose_sum: 0.5115655064582825
time_elpased: 0.914
#iterations: 297
currently lose_sum: 0.4879488945007324
time_elpased: 0.944
#iterations: 298
currently lose_sum: 0.5209278464317322
time_elpased: 0.942
#iterations: 299
currently lose_sum: 0.48108553886413574
time_elpased: 0.934
start validation test
0.658974358974
0.74378585086
0.494282083863
0.593893129771
0.660465750858
27.023
#iterations: 300
currently lose_sum: 0.4722363352775574
time_elpased: 0.906
#iterations: 301
currently lose_sum: 0.4634226858615875
time_elpased: 0.91
#iterations: 302
currently lose_sum: 0.5002322793006897
time_elpased: 0.984
#iterations: 303
currently lose_sum: 0.43471115827560425
time_elpased: 0.935
#iterations: 304
currently lose_sum: 0.44541382789611816
time_elpased: 1.01
#iterations: 305
currently lose_sum: 0.4185759425163269
time_elpased: 0.935
#iterations: 306
currently lose_sum: 0.5559642314910889
time_elpased: 0.957
#iterations: 307
currently lose_sum: 0.3408188223838806
time_elpased: 0.953
#iterations: 308
currently lose_sum: 0.5043603777885437
time_elpased: 0.934
#iterations: 309
currently lose_sum: 0.48161840438842773
time_elpased: 0.956
#iterations: 310
currently lose_sum: 0.4671962261199951
time_elpased: 0.957
#iterations: 311
currently lose_sum: 0.6047307848930359
time_elpased: 0.985
#iterations: 312
currently lose_sum: 0.46021127700805664
time_elpased: 0.974
#iterations: 313
currently lose_sum: 0.4247499406337738
time_elpased: 0.956
#iterations: 314
currently lose_sum: 0.5523577928543091
time_elpased: 0.98
#iterations: 315
currently lose_sum: 0.6232742071151733
time_elpased: 0.963
#iterations: 316
currently lose_sum: 0.4932112693786621
time_elpased: 0.952
#iterations: 317
currently lose_sum: 0.5193875432014465
time_elpased: 0.944
#iterations: 318
currently lose_sum: 0.4934045672416687
time_elpased: 0.943
#iterations: 319
currently lose_sum: 0.45125269889831543
time_elpased: 0.951
start validation test
0.677564102564
0.680203045685
0.681067344346
0.680634920635
0.677532378512
25.085
#iterations: 320
currently lose_sum: 0.40722209215164185
time_elpased: 0.961
#iterations: 321
currently lose_sum: 0.5553978681564331
time_elpased: 0.942
#iterations: 322
currently lose_sum: 0.39726001024246216
time_elpased: 0.951
#iterations: 323
currently lose_sum: 0.4977479875087738
time_elpased: 0.94
#iterations: 324
currently lose_sum: 0.5348399877548218
time_elpased: 0.933
#iterations: 325
currently lose_sum: 0.46111640334129333
time_elpased: 0.965
#iterations: 326
currently lose_sum: 0.49582386016845703
time_elpased: 0.932
#iterations: 327
currently lose_sum: 0.4968496859073639
time_elpased: 0.935
#iterations: 328
currently lose_sum: 0.47451621294021606
time_elpased: 0.968
#iterations: 329
currently lose_sum: 0.5277733206748962
time_elpased: 0.914
#iterations: 330
currently lose_sum: 0.34523805975914
time_elpased: 0.924
#iterations: 331
currently lose_sum: 0.36086776852607727
time_elpased: 0.927
#iterations: 332
currently lose_sum: 0.5916827917098999
time_elpased: 0.928
#iterations: 333
currently lose_sum: 0.5966888666152954
time_elpased: 0.909
#iterations: 334
currently lose_sum: 0.3591713309288025
time_elpased: 0.925
#iterations: 335
currently lose_sum: 0.45940423011779785
time_elpased: 0.923
#iterations: 336
currently lose_sum: 0.5614137649536133
time_elpased: 0.916
#iterations: 337
currently lose_sum: 0.41787877678871155
time_elpased: 0.92
#iterations: 338
currently lose_sum: 0.5324410200119019
time_elpased: 0.939
#iterations: 339
currently lose_sum: 0.5662558674812317
time_elpased: 0.93
start validation test
0.66858974359
0.674418604651
0.663278271919
0.668802049968
0.668637842298
24.955
#iterations: 340
currently lose_sum: 0.49098700284957886
time_elpased: 0.914
#iterations: 341
currently lose_sum: 0.4426606297492981
time_elpased: 0.912
#iterations: 342
currently lose_sum: 0.4720926880836487
time_elpased: 0.932
#iterations: 343
currently lose_sum: 0.4780797064304352
time_elpased: 0.924
#iterations: 344
currently lose_sum: 0.44275230169296265
time_elpased: 0.939
#iterations: 345
currently lose_sum: 0.4542001783847809
time_elpased: 0.92
#iterations: 346
currently lose_sum: 0.41037335991859436
time_elpased: 0.934
#iterations: 347
currently lose_sum: 0.47761836647987366
time_elpased: 0.916
#iterations: 348
currently lose_sum: 0.4827917218208313
time_elpased: 0.913
#iterations: 349
currently lose_sum: 0.5125300288200378
time_elpased: 0.925
#iterations: 350
currently lose_sum: 0.5367013812065125
time_elpased: 0.963
#iterations: 351
currently lose_sum: 0.3650665283203125
time_elpased: 0.92
#iterations: 352
currently lose_sum: 0.517294704914093
time_elpased: 0.914
#iterations: 353
currently lose_sum: 0.418112576007843
time_elpased: 0.927
#iterations: 354
currently lose_sum: 0.4031066298484802
time_elpased: 0.916
#iterations: 355
currently lose_sum: 0.3320642113685608
time_elpased: 0.924
#iterations: 356
currently lose_sum: 0.3668755888938904
time_elpased: 0.905
#iterations: 357
currently lose_sum: 0.3909364640712738
time_elpased: 0.926
#iterations: 358
currently lose_sum: 0.44564637541770935
time_elpased: 0.935
#iterations: 359
currently lose_sum: 0.49883660674095154
time_elpased: 0.927
start validation test
0.670512820513
0.745062836625
0.527318932656
0.61755952381
0.671809531011
26.449
#iterations: 360
currently lose_sum: 0.42449134588241577
time_elpased: 0.929
#iterations: 361
currently lose_sum: 0.5128039121627808
time_elpased: 0.933
#iterations: 362
currently lose_sum: 0.4727928638458252
time_elpased: 0.921
#iterations: 363
currently lose_sum: 0.3850344717502594
time_elpased: 0.954
#iterations: 364
currently lose_sum: 0.5417219400405884
time_elpased: 0.937
#iterations: 365
currently lose_sum: 0.45789259672164917
time_elpased: 0.916
#iterations: 366
currently lose_sum: 0.42689627408981323
time_elpased: 0.92
#iterations: 367
currently lose_sum: 0.3991472125053406
time_elpased: 0.952
#iterations: 368
currently lose_sum: 0.42073383927345276
time_elpased: 0.927
#iterations: 369
currently lose_sum: 0.5268731117248535
time_elpased: 0.921
#iterations: 370
currently lose_sum: 0.4372347891330719
time_elpased: 0.952
#iterations: 371
currently lose_sum: 0.46526604890823364
time_elpased: 0.914
#iterations: 372
currently lose_sum: 0.4304265081882477
time_elpased: 0.912
#iterations: 373
currently lose_sum: 0.3548174798488617
time_elpased: 0.94
#iterations: 374
currently lose_sum: 0.48358553647994995
time_elpased: 0.931
#iterations: 375
currently lose_sum: 0.5713261365890503
time_elpased: 0.963
#iterations: 376
currently lose_sum: 0.5245760083198547
time_elpased: 0.912
#iterations: 377
currently lose_sum: 0.6448050141334534
time_elpased: 0.941
#iterations: 378
currently lose_sum: 0.4980928897857666
time_elpased: 0.949
#iterations: 379
currently lose_sum: 0.30100980401039124
time_elpased: 0.949
start validation test
0.687820512821
0.68337408313
0.710292249047
0.696573208723
0.68761701715
24.953
#iterations: 380
currently lose_sum: 0.44510704278945923
time_elpased: 0.931
#iterations: 381
currently lose_sum: 0.45399850606918335
time_elpased: 0.896
#iterations: 382
currently lose_sum: 0.5882042646408081
time_elpased: 0.904
#iterations: 383
currently lose_sum: 0.515475869178772
time_elpased: 0.945
#iterations: 384
currently lose_sum: 0.47139424085617065
time_elpased: 0.93
#iterations: 385
currently lose_sum: 0.32998552918434143
time_elpased: 0.938
#iterations: 386
currently lose_sum: 0.46315258741378784
time_elpased: 0.948
#iterations: 387
currently lose_sum: 0.4116944372653961
time_elpased: 0.954
#iterations: 388
currently lose_sum: 0.5108879208564758
time_elpased: 0.928
#iterations: 389
currently lose_sum: 0.5462471842765808
time_elpased: 0.918
#iterations: 390
currently lose_sum: 0.5740505456924438
time_elpased: 0.914
#iterations: 391
currently lose_sum: 0.5055729746818542
time_elpased: 0.939
#iterations: 392
currently lose_sum: 0.38566333055496216
time_elpased: 0.924
#iterations: 393
currently lose_sum: 0.5362303853034973
time_elpased: 0.927
#iterations: 394
currently lose_sum: 0.31106430292129517
time_elpased: 0.936
#iterations: 395
currently lose_sum: 0.5117830634117126
time_elpased: 0.949
#iterations: 396
currently lose_sum: 0.39761263132095337
time_elpased: 0.945
#iterations: 397
currently lose_sum: 0.37088996171951294
time_elpased: 0.952
#iterations: 398
currently lose_sum: 0.5272863507270813
time_elpased: 0.958
#iterations: 399
currently lose_sum: 0.42866840958595276
time_elpased: 0.93
start validation test
0.66858974359
0.749077490775
0.515883100381
0.610985703536
0.669972598056
26.841
#iterations: 400
currently lose_sum: 0.4174584746360779
time_elpased: 0.911
#iterations: 401
currently lose_sum: 0.44552889466285706
time_elpased: 0.957
#iterations: 402
currently lose_sum: 0.5813919901847839
time_elpased: 0.937
#iterations: 403
currently lose_sum: 0.5823782086372375
time_elpased: 0.924
#iterations: 404
currently lose_sum: 0.480801522731781
time_elpased: 0.925
#iterations: 405
currently lose_sum: 0.4829910397529602
time_elpased: 0.925
#iterations: 406
currently lose_sum: 0.4741312861442566
time_elpased: 0.939
#iterations: 407
currently lose_sum: 0.4148680567741394
time_elpased: 0.933
#iterations: 408
currently lose_sum: 0.5715752840042114
time_elpased: 0.911
#iterations: 409
currently lose_sum: 0.4279339909553528
time_elpased: 0.912
#iterations: 410
currently lose_sum: 0.5236703753471375
time_elpased: 0.937
#iterations: 411
currently lose_sum: 0.4288371503353119
time_elpased: 0.946
#iterations: 412
currently lose_sum: 0.5675169825553894
time_elpased: 0.942
#iterations: 413
currently lose_sum: 0.399465948343277
time_elpased: 0.941
#iterations: 414
currently lose_sum: 0.32297036051750183
time_elpased: 0.911
#iterations: 415
currently lose_sum: 0.4527723789215088
time_elpased: 0.946
#iterations: 416
currently lose_sum: 0.473933607339859
time_elpased: 0.955
#iterations: 417
currently lose_sum: 0.30481797456741333
time_elpased: 0.92
#iterations: 418
currently lose_sum: 0.5412052273750305
time_elpased: 0.939
#iterations: 419
currently lose_sum: 0.3942257761955261
time_elpased: 0.933
start validation test
0.682051282051
0.726989079563
0.592121982211
0.652661064426
0.682865648285
26.025
#iterations: 420
currently lose_sum: 0.4993709623813629
time_elpased: 0.906
#iterations: 421
currently lose_sum: 0.41962122917175293
time_elpased: 0.925
#iterations: 422
currently lose_sum: 0.40159910917282104
time_elpased: 0.913
#iterations: 423
currently lose_sum: 0.5808431506156921
time_elpased: 0.93
#iterations: 424
currently lose_sum: 0.31221485137939453
time_elpased: 0.905
#iterations: 425
currently lose_sum: 0.5351367592811584
time_elpased: 0.921
#iterations: 426
currently lose_sum: 0.4523015022277832
time_elpased: 0.937
#iterations: 427
currently lose_sum: 0.4504992365837097
time_elpased: 0.931
#iterations: 428
currently lose_sum: 0.39522236585617065
time_elpased: 0.942
#iterations: 429
currently lose_sum: 0.456401526927948
time_elpased: 0.948
#iterations: 430
currently lose_sum: 0.4774302542209625
time_elpased: 0.918
#iterations: 431
currently lose_sum: 0.4861636757850647
time_elpased: 0.901
#iterations: 432
currently lose_sum: 0.5405763387680054
time_elpased: 0.93
#iterations: 433
currently lose_sum: 0.7246203422546387
time_elpased: 0.912
#iterations: 434
currently lose_sum: 0.4650588631629944
time_elpased: 0.914
#iterations: 435
currently lose_sum: 0.5375223159790039
time_elpased: 0.934
#iterations: 436
currently lose_sum: 0.5746132135391235
time_elpased: 0.96
#iterations: 437
currently lose_sum: 0.361478328704834
time_elpased: 0.923
#iterations: 438
currently lose_sum: 0.45331621170043945
time_elpased: 0.946
#iterations: 439
currently lose_sum: 0.46458348631858826
time_elpased: 0.926
start validation test
0.669871794872
0.745487364621
0.524777636595
0.615958240119
0.671185713511
27.425
#iterations: 440
currently lose_sum: 0.4085695147514343
time_elpased: 0.942
#iterations: 441
currently lose_sum: 0.3805021345615387
time_elpased: 0.914
#iterations: 442
currently lose_sum: 0.47043395042419434
time_elpased: 0.958
#iterations: 443
currently lose_sum: 0.44649142026901245
time_elpased: 0.95
#iterations: 444
currently lose_sum: 0.5373533368110657
time_elpased: 0.921
#iterations: 445
currently lose_sum: 0.4373275637626648
time_elpased: 0.945
#iterations: 446
currently lose_sum: 0.6529178023338318
time_elpased: 0.913
#iterations: 447
currently lose_sum: 0.38871175050735474
time_elpased: 0.933
#iterations: 448
currently lose_sum: 0.4320143163204193
time_elpased: 0.933
#iterations: 449
currently lose_sum: 0.34089338779449463
time_elpased: 0.962
#iterations: 450
currently lose_sum: 0.3908715844154358
time_elpased: 0.936
#iterations: 451
currently lose_sum: 0.48338133096694946
time_elpased: 0.905
#iterations: 452
currently lose_sum: 0.430591881275177
time_elpased: 0.931
#iterations: 453
currently lose_sum: 0.3504558205604553
time_elpased: 0.914
#iterations: 454
currently lose_sum: 0.3555906116962433
time_elpased: 0.935
#iterations: 455
currently lose_sum: 0.523777961730957
time_elpased: 0.947
#iterations: 456
currently lose_sum: 0.3676673471927643
time_elpased: 0.941
#iterations: 457
currently lose_sum: 0.4451006054878235
time_elpased: 0.934
#iterations: 458
currently lose_sum: 0.507756233215332
time_elpased: 0.907
#iterations: 459
currently lose_sum: 0.4623193144798279
time_elpased: 0.908
start validation test
0.683974358974
0.704735376045
0.642947903431
0.672425249169
0.68434587927
25.914
#iterations: 460
currently lose_sum: 0.35871681571006775
time_elpased: 0.932
#iterations: 461
currently lose_sum: 0.48915785551071167
time_elpased: 0.915
#iterations: 462
currently lose_sum: 0.35375115275382996
time_elpased: 0.907
#iterations: 463
currently lose_sum: 0.46495407819747925
time_elpased: 0.918
#iterations: 464
currently lose_sum: 0.425784170627594
time_elpased: 0.931
#iterations: 465
currently lose_sum: 0.3369222581386566
time_elpased: 0.944
#iterations: 466
currently lose_sum: 0.404349148273468
time_elpased: 0.896
#iterations: 467
currently lose_sum: 0.4242883324623108
time_elpased: 0.927
#iterations: 468
currently lose_sum: 0.4024924635887146
time_elpased: 0.922
#iterations: 469
currently lose_sum: 0.460132896900177
time_elpased: 0.916
#iterations: 470
currently lose_sum: 0.4865585267543793
time_elpased: 0.937
#iterations: 471
currently lose_sum: 0.3498581051826477
time_elpased: 0.907
#iterations: 472
currently lose_sum: 0.45654210448265076
time_elpased: 0.919
#iterations: 473
currently lose_sum: 0.5306771993637085
time_elpased: 0.93
#iterations: 474
currently lose_sum: 0.4600426256656647
time_elpased: 0.947
#iterations: 475
currently lose_sum: 0.6222763061523438
time_elpased: 0.908
#iterations: 476
currently lose_sum: 0.4127584397792816
time_elpased: 0.922
#iterations: 477
currently lose_sum: 0.41223782300949097
time_elpased: 0.937
#iterations: 478
currently lose_sum: 0.5596208572387695
time_elpased: 0.938
#iterations: 479
currently lose_sum: 0.4592580795288086
time_elpased: 0.912
start validation test
0.683333333333
0.678876678877
0.706480304956
0.692403486924
0.683123722982
25.870
#iterations: 480
currently lose_sum: 0.43332451581954956
time_elpased: 0.918
#iterations: 481
currently lose_sum: 0.45951181650161743
time_elpased: 0.898
#iterations: 482
currently lose_sum: 0.5262343287467957
time_elpased: 0.922
#iterations: 483
currently lose_sum: 0.4312446117401123
time_elpased: 0.919
#iterations: 484
currently lose_sum: 0.3921727240085602
time_elpased: 0.95
#iterations: 485
currently lose_sum: 0.36650970578193665
time_elpased: 0.893
#iterations: 486
currently lose_sum: 0.6348528861999512
time_elpased: 0.912
#iterations: 487
currently lose_sum: 0.5898796916007996
time_elpased: 0.938
#iterations: 488
currently lose_sum: 0.38969627022743225
time_elpased: 0.938
#iterations: 489
currently lose_sum: 0.38358065485954285
time_elpased: 0.908
#iterations: 490
currently lose_sum: 0.36642467975616455
time_elpased: 0.932
#iterations: 491
currently lose_sum: 0.4335659444332123
time_elpased: 0.946
#iterations: 492
currently lose_sum: 0.32317861914634705
time_elpased: 0.916
#iterations: 493
currently lose_sum: 0.5461829304695129
time_elpased: 0.924
#iterations: 494
currently lose_sum: 0.5331984758377075
time_elpased: 0.919
#iterations: 495
currently lose_sum: 0.47201138734817505
time_elpased: 0.924
#iterations: 496
currently lose_sum: 0.5565055012702942
time_elpased: 0.917
#iterations: 497
currently lose_sum: 0.3637552857398987
time_elpased: 0.948
#iterations: 498
currently lose_sum: 0.40201783180236816
time_elpased: 0.945
#iterations: 499
currently lose_sum: 0.4118995666503906
time_elpased: 0.92
start validation test
0.666666666667
0.757225433526
0.499364675985
0.601837672282
0.668181691162
27.398
#iterations: 500
currently lose_sum: 0.40499791502952576
time_elpased: 0.916
#iterations: 501
currently lose_sum: 0.38261306285858154
time_elpased: 0.915
#iterations: 502
currently lose_sum: 0.36833518743515015
time_elpased: 0.939
#iterations: 503
currently lose_sum: 0.4325239658355713
time_elpased: 0.963
#iterations: 504
currently lose_sum: 0.5217858552932739
time_elpased: 0.886
#iterations: 505
currently lose_sum: 0.4635797441005707
time_elpased: 0.906
#iterations: 506
currently lose_sum: 0.5005358457565308
time_elpased: 0.954
#iterations: 507
currently lose_sum: 0.5186766982078552
time_elpased: 0.915
#iterations: 508
currently lose_sum: 0.5483632683753967
time_elpased: 0.915
#iterations: 509
currently lose_sum: 0.5278042554855347
time_elpased: 0.905
#iterations: 510
currently lose_sum: 0.4595114588737488
time_elpased: 0.902
#iterations: 511
currently lose_sum: 0.5471810698509216
time_elpased: 0.926
#iterations: 512
currently lose_sum: 0.3787117898464203
time_elpased: 0.987
#iterations: 513
currently lose_sum: 0.32751089334487915
time_elpased: 0.942
#iterations: 514
currently lose_sum: 0.3486478626728058
time_elpased: 0.937
#iterations: 515
currently lose_sum: 0.3253118097782135
time_elpased: 0.95
#iterations: 516
currently lose_sum: 0.3453518748283386
time_elpased: 0.915
#iterations: 517
currently lose_sum: 0.40721768140792847
time_elpased: 0.927
#iterations: 518
currently lose_sum: 0.3139146864414215
time_elpased: 0.97
#iterations: 519
currently lose_sum: 0.43482714891433716
time_elpased: 0.914
start validation test
0.677564102564
0.708823529412
0.612452350699
0.65712338105
0.67815373033
26.532
#iterations: 520
currently lose_sum: 0.3508855104446411
time_elpased: 0.899
#iterations: 521
currently lose_sum: 0.33277472853660583
time_elpased: 0.922
#iterations: 522
currently lose_sum: 0.47230467200279236
time_elpased: 0.952
#iterations: 523
currently lose_sum: 0.38707050681114197
time_elpased: 0.96
#iterations: 524
currently lose_sum: 0.4160836338996887
time_elpased: 0.918
#iterations: 525
currently lose_sum: 0.44261711835861206
time_elpased: 0.9
#iterations: 526
currently lose_sum: 0.4610748887062073
time_elpased: 0.902
#iterations: 527
currently lose_sum: 0.4668019413948059
time_elpased: 0.944
#iterations: 528
currently lose_sum: 0.41760119795799255
time_elpased: 0.943
#iterations: 529
currently lose_sum: 0.45037928223609924
time_elpased: 0.932
#iterations: 530
currently lose_sum: 0.5340016484260559
time_elpased: 0.909
#iterations: 531
currently lose_sum: 0.3675233721733093
time_elpased: 0.928
#iterations: 532
currently lose_sum: 0.3738867938518524
time_elpased: 0.939
#iterations: 533
currently lose_sum: 0.4382993280887604
time_elpased: 0.956
#iterations: 534
currently lose_sum: 0.43585720658302307
time_elpased: 0.931
#iterations: 535
currently lose_sum: 0.4307205080986023
time_elpased: 0.914
#iterations: 536
currently lose_sum: 0.46597012877464294
time_elpased: 0.919
#iterations: 537
currently lose_sum: 0.40789976716041565
time_elpased: 0.934
#iterations: 538
currently lose_sum: 0.3706788122653961
time_elpased: 0.924
#iterations: 539
currently lose_sum: 0.3768231272697449
time_elpased: 0.936
start validation test
0.675641025641
0.722662440571
0.579415501906
0.643159379408
0.676512408133
26.850
#iterations: 540
currently lose_sum: 0.43075308203697205
time_elpased: 0.924
#iterations: 541
currently lose_sum: 0.3101831376552582
time_elpased: 0.915
#iterations: 542
currently lose_sum: 0.4345270097255707
time_elpased: 0.901
#iterations: 543
currently lose_sum: 0.5074438452720642
time_elpased: 0.916
#iterations: 544
currently lose_sum: 0.5146954655647278
time_elpased: 0.914
#iterations: 545
currently lose_sum: 0.4632975459098816
time_elpased: 0.935
#iterations: 546
currently lose_sum: 0.5239391922950745
time_elpased: 0.96
#iterations: 547
currently lose_sum: 0.5582131743431091
time_elpased: 0.93
#iterations: 548
currently lose_sum: 0.3378690779209137
time_elpased: 0.908
#iterations: 549
currently lose_sum: 0.3034067153930664
time_elpased: 0.905
#iterations: 550
currently lose_sum: 0.49725228548049927
time_elpased: 0.927
#iterations: 551
currently lose_sum: 0.22886881232261658
time_elpased: 0.981
#iterations: 552
currently lose_sum: 0.444781631231308
time_elpased: 0.917
#iterations: 553
currently lose_sum: 0.46042299270629883
time_elpased: 0.955
#iterations: 554
currently lose_sum: 0.5025076866149902
time_elpased: 0.953
#iterations: 555
currently lose_sum: 0.5676294565200806
time_elpased: 0.921
#iterations: 556
currently lose_sum: 0.3532220125198364
time_elpased: 0.956
#iterations: 557
currently lose_sum: 0.43599796295166016
time_elpased: 0.917
#iterations: 558
currently lose_sum: 0.33727073669433594
time_elpased: 0.912
#iterations: 559
currently lose_sum: 0.42550286650657654
time_elpased: 0.962
start validation test
0.676923076923
0.741056218058
0.552731893266
0.633187772926
0.678047706012
27.211
#iterations: 560
currently lose_sum: 0.35799750685691833
time_elpased: 0.904
#iterations: 561
currently lose_sum: 0.28749218583106995
time_elpased: 0.945
#iterations: 562
currently lose_sum: 0.4710369110107422
time_elpased: 0.908
#iterations: 563
currently lose_sum: 0.33612915873527527
time_elpased: 0.915
#iterations: 564
currently lose_sum: 0.5176023840904236
time_elpased: 0.937
#iterations: 565
currently lose_sum: 0.4057909846305847
time_elpased: 0.952
#iterations: 566
currently lose_sum: 0.4397006928920746
time_elpased: 0.916
#iterations: 567
currently lose_sum: 0.4432319700717926
time_elpased: 0.912
#iterations: 568
currently lose_sum: 0.5252801179885864
time_elpased: 0.928
#iterations: 569
currently lose_sum: 0.4453393816947937
time_elpased: 0.936
#iterations: 570
currently lose_sum: 0.49310216307640076
time_elpased: 0.935
#iterations: 571
currently lose_sum: 0.651363730430603
time_elpased: 0.914
#iterations: 572
currently lose_sum: 0.35076841711997986
time_elpased: 0.944
#iterations: 573
currently lose_sum: 0.4054909646511078
time_elpased: 0.94
#iterations: 574
currently lose_sum: 0.4859541952610016
time_elpased: 0.936
#iterations: 575
currently lose_sum: 0.47407689690589905
time_elpased: 0.925
#iterations: 576
currently lose_sum: 0.39394327998161316
time_elpased: 0.931
#iterations: 577
currently lose_sum: 0.3135532736778259
time_elpased: 0.925
#iterations: 578
currently lose_sum: 0.37662991881370544
time_elpased: 0.929
#iterations: 579
currently lose_sum: 0.5395203828811646
time_elpased: 0.894
start validation test
0.672435897436
0.761363636364
0.510800508259
0.611406844106
0.673899607299
27.774
#iterations: 580
currently lose_sum: 0.47911685705184937
time_elpased: 0.928
#iterations: 581
currently lose_sum: 0.39103537797927856
time_elpased: 0.924
#iterations: 582
currently lose_sum: 0.36335042119026184
time_elpased: 0.937
#iterations: 583
currently lose_sum: 0.45545560121536255
time_elpased: 0.917
#iterations: 584
currently lose_sum: 0.36987799406051636
time_elpased: 0.895
#iterations: 585
currently lose_sum: 0.4245270788669586
time_elpased: 0.915
#iterations: 586
currently lose_sum: 0.4883645474910736
time_elpased: 0.937
#iterations: 587
currently lose_sum: 0.5003048181533813
time_elpased: 0.942
#iterations: 588
currently lose_sum: 0.3174770176410675
time_elpased: 0.946
#iterations: 589
currently lose_sum: 0.43100088834762573
time_elpased: 0.915
#iterations: 590
currently lose_sum: 0.5787121057510376
time_elpased: 0.908
#iterations: 591
currently lose_sum: 0.34718888998031616
time_elpased: 0.937
#iterations: 592
currently lose_sum: 0.3966755270957947
time_elpased: 0.975
#iterations: 593
currently lose_sum: 0.5142974257469177
time_elpased: 0.914
#iterations: 594
currently lose_sum: 0.35690993070602417
time_elpased: 0.945
#iterations: 595
currently lose_sum: 0.36964142322540283
time_elpased: 0.95
#iterations: 596
currently lose_sum: 0.5301395654678345
time_elpased: 0.937
#iterations: 597
currently lose_sum: 0.25255727767944336
time_elpased: 0.92
#iterations: 598
currently lose_sum: 0.560732364654541
time_elpased: 0.893
#iterations: 599
currently lose_sum: 0.3230758309364319
time_elpased: 0.953
start validation test
0.677564102564
0.739057239057
0.557814485388
0.635771180304
0.678648510482
27.383
acc: 0.654
pre: 0.689
rec: 0.574
F1: 0.626
auc: 0.655
