start to construct computing graph
graph construct over
2360
epochs start
#iterations: 0
currently lose_sum: 0.7212491035461426
time_elpased: 2.027
#iterations: 1
currently lose_sum: 0.6706802845001221
time_elpased: 2.043
#iterations: 2
currently lose_sum: 0.7089077234268188
time_elpased: 2.046
#iterations: 3
currently lose_sum: 0.678239643573761
time_elpased: 1.95
#iterations: 4
currently lose_sum: 0.6533222198486328
time_elpased: 2.016
#iterations: 5
currently lose_sum: 0.7287116050720215
time_elpased: 2.009
#iterations: 6
currently lose_sum: 0.7529647946357727
time_elpased: 1.995
#iterations: 7
currently lose_sum: 0.6689726710319519
time_elpased: 2.007
#iterations: 8
currently lose_sum: 0.6690066456794739
time_elpased: 1.996
#iterations: 9
currently lose_sum: 0.6183139085769653
time_elpased: 2.046
#iterations: 10
currently lose_sum: 0.6780297756195068
time_elpased: 1.961
#iterations: 11
currently lose_sum: 0.7243334650993347
time_elpased: 2.009
#iterations: 12
currently lose_sum: 0.6847169995307922
time_elpased: 2.015
#iterations: 13
currently lose_sum: 0.6421863436698914
time_elpased: 2.009
#iterations: 14
currently lose_sum: 0.6732875108718872
time_elpased: 1.988
#iterations: 15
currently lose_sum: 0.6042526960372925
time_elpased: 2.052
#iterations: 16
currently lose_sum: 0.702846884727478
time_elpased: 2.031
#iterations: 17
currently lose_sum: 0.6790205240249634
time_elpased: 2.031
#iterations: 18
currently lose_sum: 0.6746123433113098
time_elpased: 2.054
#iterations: 19
currently lose_sum: 0.663108766078949
time_elpased: 2.001
start validation test
0.550641025641
0.595078299776
0.338422391858
0.431467964315
0.552286131329
26.477
#iterations: 20
currently lose_sum: 0.6753228306770325
time_elpased: 1.784
#iterations: 21
currently lose_sum: 0.6592365503311157
time_elpased: 1.764
#iterations: 22
currently lose_sum: 0.6733213663101196
time_elpased: 1.758
#iterations: 23
currently lose_sum: 0.6986712217330933
time_elpased: 1.684
#iterations: 24
currently lose_sum: 0.6888020634651184
time_elpased: 1.742
#iterations: 25
currently lose_sum: 0.5990557670593262
time_elpased: 1.736
#iterations: 26
currently lose_sum: 0.606704831123352
time_elpased: 1.737
#iterations: 27
currently lose_sum: 0.5237017869949341
time_elpased: 1.732
#iterations: 28
currently lose_sum: 0.6646304726600647
time_elpased: 1.702
#iterations: 29
currently lose_sum: 0.6486320495605469
time_elpased: 1.774
#iterations: 30
currently lose_sum: 0.672564685344696
time_elpased: 1.723
#iterations: 31
currently lose_sum: 0.5693497657775879
time_elpased: 1.761
#iterations: 32
currently lose_sum: 0.5606393218040466
time_elpased: 1.789
#iterations: 33
currently lose_sum: 0.6004267930984497
time_elpased: 1.775
#iterations: 34
currently lose_sum: 0.6677860021591187
time_elpased: 1.815
#iterations: 35
currently lose_sum: 0.7381182909011841
time_elpased: 1.73
#iterations: 36
currently lose_sum: 0.5391032099723816
time_elpased: 1.735
#iterations: 37
currently lose_sum: 0.7265477180480957
time_elpased: 1.727
#iterations: 38
currently lose_sum: 0.6718445420265198
time_elpased: 1.747
#iterations: 39
currently lose_sum: 0.5943517684936523
time_elpased: 1.753
start validation test
0.626282051282
0.599412340842
0.778625954198
0.677365799668
0.625101090794
25.520
#iterations: 40
currently lose_sum: 0.678458034992218
time_elpased: 1.798
#iterations: 41
currently lose_sum: 0.6281460523605347
time_elpased: 1.724
#iterations: 42
currently lose_sum: 0.5760711431503296
time_elpased: 1.683
#iterations: 43
currently lose_sum: 0.7008844614028931
time_elpased: 1.737
#iterations: 44
currently lose_sum: 0.7292588353157043
time_elpased: 1.706
#iterations: 45
currently lose_sum: 0.5737206935882568
time_elpased: 1.733
#iterations: 46
currently lose_sum: 0.5606485605239868
time_elpased: 1.748
#iterations: 47
currently lose_sum: 0.618677020072937
time_elpased: 1.757
#iterations: 48
currently lose_sum: 0.6646657586097717
time_elpased: 1.746
#iterations: 49
currently lose_sum: 0.5810682773590088
time_elpased: 1.767
#iterations: 50
currently lose_sum: 0.6110653877258301
time_elpased: 1.807
#iterations: 51
currently lose_sum: 0.5444543957710266
time_elpased: 1.766
#iterations: 52
currently lose_sum: 0.6835391521453857
time_elpased: 1.749
#iterations: 53
currently lose_sum: 0.577898383140564
time_elpased: 1.733
#iterations: 54
currently lose_sum: 0.5021384358406067
time_elpased: 1.724
#iterations: 55
currently lose_sum: 0.6484189629554749
time_elpased: 1.74
#iterations: 56
currently lose_sum: 0.6253743767738342
time_elpased: 1.78
#iterations: 57
currently lose_sum: 0.5487770438194275
time_elpased: 1.804
#iterations: 58
currently lose_sum: 0.4274655282497406
time_elpased: 1.743
#iterations: 59
currently lose_sum: 0.5491622090339661
time_elpased: 1.72
start validation test
0.636538461538
0.674085850556
0.539440203562
0.599293286219
0.637291161213
25.452
#iterations: 60
currently lose_sum: 0.657169759273529
time_elpased: 1.701
#iterations: 61
currently lose_sum: 0.7256760597229004
time_elpased: 1.71
#iterations: 62
currently lose_sum: 0.6302018165588379
time_elpased: 1.74
#iterations: 63
currently lose_sum: 0.5484089851379395
time_elpased: 1.704
#iterations: 64
currently lose_sum: 0.6449111700057983
time_elpased: 1.698
#iterations: 65
currently lose_sum: 0.5180732011795044
time_elpased: 1.712
#iterations: 66
currently lose_sum: 0.5528836846351624
time_elpased: 1.768
#iterations: 67
currently lose_sum: 0.5194454193115234
time_elpased: 1.78
#iterations: 68
currently lose_sum: 0.5685423612594604
time_elpased: 1.776
#iterations: 69
currently lose_sum: 0.5643401741981506
time_elpased: 1.739
#iterations: 70
currently lose_sum: 0.6512944102287292
time_elpased: 1.786
#iterations: 71
currently lose_sum: 0.5212744474411011
time_elpased: 1.717
#iterations: 72
currently lose_sum: 0.4377150535583496
time_elpased: 1.754
#iterations: 73
currently lose_sum: 0.5530394315719604
time_elpased: 1.731
#iterations: 74
currently lose_sum: 0.6593180298805237
time_elpased: 1.732
#iterations: 75
currently lose_sum: 0.4684467315673828
time_elpased: 1.733
#iterations: 76
currently lose_sum: 0.5555325746536255
time_elpased: 1.729
#iterations: 77
currently lose_sum: 0.40643757581710815
time_elpased: 1.735
#iterations: 78
currently lose_sum: 0.5717283487319946
time_elpased: 1.733
#iterations: 79
currently lose_sum: 0.5871977806091309
time_elpased: 1.784
start validation test
0.660256410256
0.682336182336
0.60941475827
0.643817204301
0.66065053159
25.236
#iterations: 80
currently lose_sum: 0.5435439348220825
time_elpased: 1.698
#iterations: 81
currently lose_sum: 0.5941463112831116
time_elpased: 1.787
#iterations: 82
currently lose_sum: 0.5870879888534546
time_elpased: 1.703
#iterations: 83
currently lose_sum: 0.5773934721946716
time_elpased: 1.727
#iterations: 84
currently lose_sum: 0.5286928415298462
time_elpased: 1.741
#iterations: 85
currently lose_sum: 0.5149201154708862
time_elpased: 1.734
#iterations: 86
currently lose_sum: 0.4736892580986023
time_elpased: 1.819
#iterations: 87
currently lose_sum: 0.6061978340148926
time_elpased: 1.729
#iterations: 88
currently lose_sum: 0.5767894983291626
time_elpased: 1.77
#iterations: 89
currently lose_sum: 0.5974189043045044
time_elpased: 1.772
#iterations: 90
currently lose_sum: 0.46285027265548706
time_elpased: 1.752
#iterations: 91
currently lose_sum: 0.4676786959171295
time_elpased: 1.766
#iterations: 92
currently lose_sum: 0.6591318845748901
time_elpased: 1.777
#iterations: 93
currently lose_sum: 0.6002391576766968
time_elpased: 1.709
#iterations: 94
currently lose_sum: 0.6530787348747253
time_elpased: 1.78
#iterations: 95
currently lose_sum: 0.5321380496025085
time_elpased: 1.792
#iterations: 96
currently lose_sum: 0.38187170028686523
time_elpased: 1.729
#iterations: 97
currently lose_sum: 0.43565160036087036
time_elpased: 1.719
#iterations: 98
currently lose_sum: 0.5581466555595398
time_elpased: 1.74
#iterations: 99
currently lose_sum: 0.41767534613609314
time_elpased: 1.745
start validation test
0.648076923077
0.627282491944
0.743002544529
0.68025626092
0.647341065546
24.749
#iterations: 100
currently lose_sum: 0.48769718408584595
time_elpased: 1.752
#iterations: 101
currently lose_sum: 0.7228034138679504
time_elpased: 1.757
#iterations: 102
currently lose_sum: 0.5744924545288086
time_elpased: 1.701
#iterations: 103
currently lose_sum: 0.7439444661140442
time_elpased: 1.719
#iterations: 104
currently lose_sum: 0.530187726020813
time_elpased: 1.703
#iterations: 105
currently lose_sum: 0.5102680325508118
time_elpased: 1.711
#iterations: 106
currently lose_sum: 0.515217661857605
time_elpased: 1.822
#iterations: 107
currently lose_sum: 0.6817322373390198
time_elpased: 1.724
#iterations: 108
currently lose_sum: 0.36915692687034607
time_elpased: 1.746
#iterations: 109
currently lose_sum: 0.5331342220306396
time_elpased: 1.756
#iterations: 110
currently lose_sum: 0.4723694324493408
time_elpased: 1.819
#iterations: 111
currently lose_sum: 0.6224569082260132
time_elpased: 1.681
#iterations: 112
currently lose_sum: 0.5609298944473267
time_elpased: 1.769
#iterations: 113
currently lose_sum: 0.4772348403930664
time_elpased: 1.751
#iterations: 114
currently lose_sum: 0.5488306283950806
time_elpased: 1.759
#iterations: 115
currently lose_sum: 0.5759009122848511
time_elpased: 1.746
#iterations: 116
currently lose_sum: 0.4067785143852234
time_elpased: 1.723
#iterations: 117
currently lose_sum: 0.4641591012477875
time_elpased: 1.759
#iterations: 118
currently lose_sum: 0.4809338450431824
time_elpased: 1.794
#iterations: 119
currently lose_sum: 0.4115262031555176
time_elpased: 1.703
start validation test
0.653205128205
0.694753577107
0.555979643766
0.617667844523
0.653958814131
25.176
#iterations: 120
currently lose_sum: 0.4823005199432373
time_elpased: 1.729
#iterations: 121
currently lose_sum: 0.48869237303733826
time_elpased: 1.778
#iterations: 122
currently lose_sum: 0.5343320965766907
time_elpased: 1.697
#iterations: 123
currently lose_sum: 0.6091631650924683
time_elpased: 1.788
#iterations: 124
currently lose_sum: 0.47487202286720276
time_elpased: 1.735
#iterations: 125
currently lose_sum: 0.4967961311340332
time_elpased: 1.821
#iterations: 126
currently lose_sum: 0.4206344485282898
time_elpased: 1.772
#iterations: 127
currently lose_sum: 0.5563638806343079
time_elpased: 1.71
#iterations: 128
currently lose_sum: 0.5214105844497681
time_elpased: 1.736
#iterations: 129
currently lose_sum: 0.3847784996032715
time_elpased: 1.715
#iterations: 130
currently lose_sum: 0.48277807235717773
time_elpased: 1.778
#iterations: 131
currently lose_sum: 0.4652249813079834
time_elpased: 1.749
#iterations: 132
currently lose_sum: 0.5641681551933289
time_elpased: 1.776
#iterations: 133
currently lose_sum: 0.41397538781166077
time_elpased: 1.745
#iterations: 134
currently lose_sum: 0.3259409964084625
time_elpased: 1.76
#iterations: 135
currently lose_sum: 0.5969136953353882
time_elpased: 1.714
#iterations: 136
currently lose_sum: 0.47993117570877075
time_elpased: 1.811
#iterations: 137
currently lose_sum: 0.426443487405777
time_elpased: 1.74
#iterations: 138
currently lose_sum: 0.46527060866355896
time_elpased: 1.756
#iterations: 139
currently lose_sum: 0.37960585951805115
time_elpased: 1.741
start validation test
0.658974358974
0.638043478261
0.746819338422
0.68815943728
0.658293390141
24.386
#iterations: 140
currently lose_sum: 0.516547679901123
time_elpased: 1.74
#iterations: 141
currently lose_sum: 0.5342862010002136
time_elpased: 1.752
#iterations: 142
currently lose_sum: 0.4963849186897278
time_elpased: 1.734
#iterations: 143
currently lose_sum: 0.5402345657348633
time_elpased: 1.737
#iterations: 144
currently lose_sum: 0.4562722146511078
time_elpased: 1.816
#iterations: 145
currently lose_sum: 0.485706090927124
time_elpased: 1.727
#iterations: 146
currently lose_sum: 0.5610524415969849
time_elpased: 1.73
#iterations: 147
currently lose_sum: 0.6126089096069336
time_elpased: 1.773
#iterations: 148
currently lose_sum: 0.553487241268158
time_elpased: 1.767
#iterations: 149
currently lose_sum: 0.40959224104881287
time_elpased: 1.78
#iterations: 150
currently lose_sum: 0.6332645416259766
time_elpased: 1.786
#iterations: 151
currently lose_sum: 0.5004698038101196
time_elpased: 1.749
#iterations: 152
currently lose_sum: 0.566364586353302
time_elpased: 1.731
#iterations: 153
currently lose_sum: 0.6411392092704773
time_elpased: 1.701
#iterations: 154
currently lose_sum: 0.4713159501552582
time_elpased: 1.713
#iterations: 155
currently lose_sum: 0.40832433104515076
time_elpased: 1.76
#iterations: 156
currently lose_sum: 0.4239632487297058
time_elpased: 1.742
#iterations: 157
currently lose_sum: 0.45398521423339844
time_elpased: 1.758
#iterations: 158
currently lose_sum: 0.36114081740379333
time_elpased: 1.761
#iterations: 159
currently lose_sum: 0.44503459334373474
time_elpased: 1.748
start validation test
0.667948717949
0.680592991914
0.642493638677
0.660994764398
0.668146044145
25.677
#iterations: 160
currently lose_sum: 0.45332032442092896
time_elpased: 1.782
#iterations: 161
currently lose_sum: 0.47807320952415466
time_elpased: 1.715
#iterations: 162
currently lose_sum: 0.3692930340766907
time_elpased: 1.808
#iterations: 163
currently lose_sum: 0.48249977827072144
time_elpased: 1.735
#iterations: 164
currently lose_sum: 0.4896802008152008
time_elpased: 1.783
#iterations: 165
currently lose_sum: 0.6000900268554688
time_elpased: 1.759
#iterations: 166
currently lose_sum: 0.7632012367248535
time_elpased: 1.734
#iterations: 167
currently lose_sum: 0.5108528137207031
time_elpased: 1.815
#iterations: 168
currently lose_sum: 0.5824185013771057
time_elpased: 1.76
#iterations: 169
currently lose_sum: 0.39929282665252686
time_elpased: 1.789
#iterations: 170
currently lose_sum: 0.5039229393005371
time_elpased: 1.729
#iterations: 171
currently lose_sum: 0.3731786608695984
time_elpased: 1.782
#iterations: 172
currently lose_sum: 0.4171817898750305
time_elpased: 1.738
#iterations: 173
currently lose_sum: 0.5022357702255249
time_elpased: 1.754
#iterations: 174
currently lose_sum: 0.5765668153762817
time_elpased: 1.727
#iterations: 175
currently lose_sum: 0.5268234014511108
time_elpased: 1.735
#iterations: 176
currently lose_sum: 0.3907643258571625
time_elpased: 1.721
#iterations: 177
currently lose_sum: 0.34509021043777466
time_elpased: 1.752
#iterations: 178
currently lose_sum: 0.42629677057266235
time_elpased: 1.734
#iterations: 179
currently lose_sum: 0.4058580994606018
time_elpased: 1.765
start validation test
0.66858974359
0.68249660787
0.639949109415
0.660538411031
0.66881176401
24.916
#iterations: 180
currently lose_sum: 0.47640252113342285
time_elpased: 1.733
#iterations: 181
currently lose_sum: 0.48441457748413086
time_elpased: 1.764
#iterations: 182
currently lose_sum: 0.5373654961585999
time_elpased: 1.805
#iterations: 183
currently lose_sum: 0.5749748945236206
time_elpased: 1.75
#iterations: 184
currently lose_sum: 0.3931826949119568
time_elpased: 1.765
#iterations: 185
currently lose_sum: 0.4270695745944977
time_elpased: 1.734
#iterations: 186
currently lose_sum: 0.34171542525291443
time_elpased: 1.742
#iterations: 187
currently lose_sum: 0.38952669501304626
time_elpased: 1.75
#iterations: 188
currently lose_sum: 0.3980216979980469
time_elpased: 1.745
#iterations: 189
currently lose_sum: 0.41315460205078125
time_elpased: 1.738
#iterations: 190
currently lose_sum: 0.5833656191825867
time_elpased: 1.759
#iterations: 191
currently lose_sum: 0.5049241781234741
time_elpased: 1.713
#iterations: 192
currently lose_sum: 0.3781817853450775
time_elpased: 1.723
#iterations: 193
currently lose_sum: 0.419691264629364
time_elpased: 1.732
#iterations: 194
currently lose_sum: 0.46354442834854126
time_elpased: 1.788
#iterations: 195
currently lose_sum: 0.44111165404319763
time_elpased: 1.743
#iterations: 196
currently lose_sum: 0.5189443826675415
time_elpased: 1.756
#iterations: 197
currently lose_sum: 0.4526181221008301
time_elpased: 1.743
#iterations: 198
currently lose_sum: 0.3865066468715668
time_elpased: 1.752
#iterations: 199
currently lose_sum: 0.372006893157959
time_elpased: 1.713
start validation test
0.653846153846
0.783410138249
0.432569974555
0.55737704918
0.655561473065
30.801
#iterations: 200
currently lose_sum: 0.36729711294174194
time_elpased: 1.734
#iterations: 201
currently lose_sum: 0.4547424912452698
time_elpased: 1.757
#iterations: 202
currently lose_sum: 0.540177047252655
time_elpased: 1.736
#iterations: 203
currently lose_sum: 0.6393235325813293
time_elpased: 1.746
#iterations: 204
currently lose_sum: 0.5339376926422119
time_elpased: 1.761
#iterations: 205
currently lose_sum: 0.44458094239234924
time_elpased: 1.748
#iterations: 206
currently lose_sum: 0.4494043290615082
time_elpased: 1.708
#iterations: 207
currently lose_sum: 0.3916544020175934
time_elpased: 1.818
#iterations: 208
currently lose_sum: 0.5301035046577454
time_elpased: 1.758
#iterations: 209
currently lose_sum: 0.3831581473350525
time_elpased: 1.748
#iterations: 210
currently lose_sum: 0.4406418800354004
time_elpased: 1.715
#iterations: 211
currently lose_sum: 0.561711311340332
time_elpased: 1.809
#iterations: 212
currently lose_sum: 0.3462751507759094
time_elpased: 1.701
#iterations: 213
currently lose_sum: 0.579961895942688
time_elpased: 1.729
#iterations: 214
currently lose_sum: 0.36881202459335327
time_elpased: 1.725
#iterations: 215
currently lose_sum: 0.41066235303878784
time_elpased: 1.74
#iterations: 216
currently lose_sum: 0.3915063142776489
time_elpased: 1.737
#iterations: 217
currently lose_sum: 0.4999898076057434
time_elpased: 1.785
#iterations: 218
currently lose_sum: 0.47807493805885315
time_elpased: 1.746
#iterations: 219
currently lose_sum: 0.450446218252182
time_elpased: 1.768
start validation test
0.673717948718
0.659012629162
0.730279898219
0.692818346409
0.673279483993
24.085
#iterations: 220
currently lose_sum: 0.5500326156616211
time_elpased: 1.696
#iterations: 221
currently lose_sum: 0.4030345380306244
time_elpased: 1.746
#iterations: 222
currently lose_sum: 0.37941598892211914
time_elpased: 1.725
#iterations: 223
currently lose_sum: 0.4577898383140564
time_elpased: 1.737
#iterations: 224
currently lose_sum: 0.41510671377182007
time_elpased: 1.763
#iterations: 225
currently lose_sum: 0.4740927815437317
time_elpased: 1.713
#iterations: 226
currently lose_sum: 0.3770015239715576
time_elpased: 1.735
#iterations: 227
currently lose_sum: 0.3675948679447174
time_elpased: 1.729
#iterations: 228
currently lose_sum: 0.5546066164970398
time_elpased: 1.76
#iterations: 229
currently lose_sum: 0.4551500380039215
time_elpased: 1.765
#iterations: 230
currently lose_sum: 0.4525682032108307
time_elpased: 1.741
#iterations: 231
currently lose_sum: 0.4451045095920563
time_elpased: 1.748
#iterations: 232
currently lose_sum: 0.5416098833084106
time_elpased: 1.71
#iterations: 233
currently lose_sum: 0.44304537773132324
time_elpased: 1.766
#iterations: 234
currently lose_sum: 0.4462941586971283
time_elpased: 1.744
#iterations: 235
currently lose_sum: 0.4660911560058594
time_elpased: 1.779
#iterations: 236
currently lose_sum: 0.48893919587135315
time_elpased: 1.728
#iterations: 237
currently lose_sum: 0.4690549373626709
time_elpased: 1.745
#iterations: 238
currently lose_sum: 0.5813708305358887
time_elpased: 1.73
#iterations: 239
currently lose_sum: 0.4109688401222229
time_elpased: 1.695
start validation test
0.671153846154
0.668310727497
0.689567430025
0.67877269881
0.671011105194
25.078
#iterations: 240
currently lose_sum: 0.4954470694065094
time_elpased: 1.756
#iterations: 241
currently lose_sum: 0.4054532051086426
time_elpased: 1.774
#iterations: 242
currently lose_sum: 0.3200913965702057
time_elpased: 1.787
#iterations: 243
currently lose_sum: 0.514018714427948
time_elpased: 1.77
#iterations: 244
currently lose_sum: 0.5103856325149536
time_elpased: 1.744
#iterations: 245
currently lose_sum: 0.46136873960494995
time_elpased: 1.75
#iterations: 246
currently lose_sum: 0.47400206327438354
time_elpased: 1.721
#iterations: 247
currently lose_sum: 0.49803557991981506
time_elpased: 1.682
#iterations: 248
currently lose_sum: 0.4460046887397766
time_elpased: 1.721
#iterations: 249
currently lose_sum: 0.49775010347366333
time_elpased: 1.766
#iterations: 250
currently lose_sum: 0.33990278840065
time_elpased: 1.707
#iterations: 251
currently lose_sum: 0.4386015832424164
time_elpased: 1.72
#iterations: 252
currently lose_sum: 0.44889336824417114
time_elpased: 1.749
#iterations: 253
currently lose_sum: 0.5993667244911194
time_elpased: 1.79
#iterations: 254
currently lose_sum: 0.5181370377540588
time_elpased: 1.71
#iterations: 255
currently lose_sum: 0.5071448683738708
time_elpased: 1.706
#iterations: 256
currently lose_sum: 0.4271973669528961
time_elpased: 1.728
#iterations: 257
currently lose_sum: 0.4397917687892914
time_elpased: 1.746
#iterations: 258
currently lose_sum: 0.44907665252685547
time_elpased: 1.743
#iterations: 259
currently lose_sum: 0.3810994029045105
time_elpased: 1.74
start validation test
0.674358974359
0.664302600473
0.715012722646
0.688725490196
0.674043829023
25.405
#iterations: 260
currently lose_sum: 0.44060707092285156
time_elpased: 1.779
#iterations: 261
currently lose_sum: 0.5039576292037964
time_elpased: 1.732
#iterations: 262
currently lose_sum: 0.3617028594017029
time_elpased: 1.721
#iterations: 263
currently lose_sum: 0.285468727350235
time_elpased: 1.759
#iterations: 264
currently lose_sum: 0.42094239592552185
time_elpased: 1.774
#iterations: 265
currently lose_sum: 0.355427086353302
time_elpased: 1.711
#iterations: 266
currently lose_sum: 0.4320105016231537
time_elpased: 1.75
#iterations: 267
currently lose_sum: 0.6232849359512329
time_elpased: 1.731
#iterations: 268
currently lose_sum: 0.39664310216903687
time_elpased: 1.768
#iterations: 269
currently lose_sum: 0.6475924253463745
time_elpased: 1.766
#iterations: 270
currently lose_sum: 0.4108209013938904
time_elpased: 1.765
#iterations: 271
currently lose_sum: 0.42459002137184143
time_elpased: 1.796
#iterations: 272
currently lose_sum: 0.5274676084518433
time_elpased: 1.759
#iterations: 273
currently lose_sum: 0.3295292854309082
time_elpased: 1.792
#iterations: 274
currently lose_sum: 0.4048742353916168
time_elpased: 1.749
#iterations: 275
currently lose_sum: 0.47837725281715393
time_elpased: 1.753
#iterations: 276
currently lose_sum: 0.2897634506225586
time_elpased: 1.782
#iterations: 277
currently lose_sum: 0.7143255472183228
time_elpased: 1.734
#iterations: 278
currently lose_sum: 0.3782099187374115
time_elpased: 1.716
#iterations: 279
currently lose_sum: 0.47050991654396057
time_elpased: 1.753
start validation test
0.664743589744
0.703245749614
0.578880407125
0.635031402652
0.66540919581
26.589
#iterations: 280
currently lose_sum: 0.3798283636569977
time_elpased: 1.732
#iterations: 281
currently lose_sum: 0.35825514793395996
time_elpased: 1.771
#iterations: 282
currently lose_sum: 0.5248467326164246
time_elpased: 1.736
#iterations: 283
currently lose_sum: 0.38341012597084045
time_elpased: 1.762
#iterations: 284
currently lose_sum: 0.3432310223579407
time_elpased: 1.721
#iterations: 285
currently lose_sum: 0.4198073446750641
time_elpased: 1.814
#iterations: 286
currently lose_sum: 0.3673306107521057
time_elpased: 1.715
#iterations: 287
currently lose_sum: 0.43972349166870117
time_elpased: 1.789
#iterations: 288
currently lose_sum: 0.38694244623184204
time_elpased: 1.755
#iterations: 289
currently lose_sum: 0.32787781953811646
time_elpased: 1.741
#iterations: 290
currently lose_sum: 0.4384225904941559
time_elpased: 1.77
#iterations: 291
currently lose_sum: 0.5470954179763794
time_elpased: 1.745
#iterations: 292
currently lose_sum: 0.29269784688949585
time_elpased: 1.753
#iterations: 293
currently lose_sum: 0.3739384114742279
time_elpased: 1.758
#iterations: 294
currently lose_sum: 0.41360846161842346
time_elpased: 1.796
#iterations: 295
currently lose_sum: 0.37716144323349
time_elpased: 1.756
#iterations: 296
currently lose_sum: 0.35047611594200134
time_elpased: 1.739
#iterations: 297
currently lose_sum: 0.4526293873786926
time_elpased: 1.78
#iterations: 298
currently lose_sum: 0.3728811740875244
time_elpased: 1.741
#iterations: 299
currently lose_sum: 0.4314703047275543
time_elpased: 1.743
start validation test
0.671153846154
0.655290102389
0.732824427481
0.691891891892
0.670675779632
27.226
#iterations: 300
currently lose_sum: 0.46870583295822144
time_elpased: 1.736
#iterations: 301
currently lose_sum: 0.3980506360530853
time_elpased: 1.757
#iterations: 302
currently lose_sum: 0.3678153455257416
time_elpased: 1.756
#iterations: 303
currently lose_sum: 0.4956744611263275
time_elpased: 1.804
#iterations: 304
currently lose_sum: 0.5021892189979553
time_elpased: 1.717
#iterations: 305
currently lose_sum: 0.4519878923892975
time_elpased: 1.758
#iterations: 306
currently lose_sum: 0.4499901831150055
time_elpased: 1.737
#iterations: 307
currently lose_sum: 0.3877788484096527
time_elpased: 1.748
#iterations: 308
currently lose_sum: 0.24649779498577118
time_elpased: 1.759
#iterations: 309
currently lose_sum: 0.6390073299407959
time_elpased: 1.77
#iterations: 310
currently lose_sum: 0.4505816400051117
time_elpased: 1.774
#iterations: 311
currently lose_sum: 0.531541109085083
time_elpased: 1.734
#iterations: 312
currently lose_sum: 0.28913992643356323
time_elpased: 1.8
#iterations: 313
currently lose_sum: 0.363302081823349
time_elpased: 1.683
#iterations: 314
currently lose_sum: 0.3429245352745056
time_elpased: 1.784
#iterations: 315
currently lose_sum: 0.4166194498538971
time_elpased: 1.789
#iterations: 316
currently lose_sum: 0.3423255383968353
time_elpased: 1.813
#iterations: 317
currently lose_sum: 0.2891518473625183
time_elpased: 1.759
#iterations: 318
currently lose_sum: 0.3211326003074646
time_elpased: 1.727
#iterations: 319
currently lose_sum: 0.38261526823043823
time_elpased: 1.762
start validation test
0.666025641026
0.743119266055
0.515267175573
0.60856498873
0.6671943113
27.626
#iterations: 320
currently lose_sum: 0.32051581144332886
time_elpased: 1.727
#iterations: 321
currently lose_sum: 0.3399752974510193
time_elpased: 1.751
#iterations: 322
currently lose_sum: 0.4562413692474365
time_elpased: 1.761
#iterations: 323
currently lose_sum: 0.5213237404823303
time_elpased: 1.76
#iterations: 324
currently lose_sum: 0.32860398292541504
time_elpased: 1.774
#iterations: 325
currently lose_sum: 0.4817618429660797
time_elpased: 1.755
#iterations: 326
currently lose_sum: 0.45108309388160706
time_elpased: 1.758
#iterations: 327
currently lose_sum: 0.4756042957305908
time_elpased: 1.74
#iterations: 328
currently lose_sum: 0.4766685366630554
time_elpased: 1.72
#iterations: 329
currently lose_sum: 0.3734759986400604
time_elpased: 1.761
#iterations: 330
currently lose_sum: 0.3709004521369934
time_elpased: 1.761
#iterations: 331
currently lose_sum: 0.6117479801177979
time_elpased: 1.754
#iterations: 332
currently lose_sum: 0.5717910528182983
time_elpased: 1.722
#iterations: 333
currently lose_sum: 0.4016086459159851
time_elpased: 1.764
#iterations: 334
currently lose_sum: 0.39027783274650574
time_elpased: 1.794
#iterations: 335
currently lose_sum: 0.4468916356563568
time_elpased: 1.676
#iterations: 336
currently lose_sum: 0.33492136001586914
time_elpased: 1.76
#iterations: 337
currently lose_sum: 0.3932594656944275
time_elpased: 1.724
#iterations: 338
currently lose_sum: 0.5066161751747131
time_elpased: 1.719
#iterations: 339
currently lose_sum: 0.27282893657684326
time_elpased: 1.783
start validation test
0.673717948718
0.723747980614
0.569974554707
0.637722419929
0.674522161075
27.457
#iterations: 340
currently lose_sum: 0.34542736411094666
time_elpased: 1.772
#iterations: 341
currently lose_sum: 0.4054529070854187
time_elpased: 1.755
#iterations: 342
currently lose_sum: 0.3969913125038147
time_elpased: 1.813
#iterations: 343
currently lose_sum: 0.3796013295650482
time_elpased: 1.784
#iterations: 344
currently lose_sum: 0.45235195755958557
time_elpased: 1.754
#iterations: 345
currently lose_sum: 0.5274018049240112
time_elpased: 1.719
#iterations: 346
currently lose_sum: 0.3908131718635559
time_elpased: 1.722
#iterations: 347
currently lose_sum: 0.5890452265739441
time_elpased: 1.752
#iterations: 348
currently lose_sum: 0.4393901824951172
time_elpased: 1.807
#iterations: 349
currently lose_sum: 0.3569493889808655
time_elpased: 1.814
#iterations: 350
currently lose_sum: 0.42313581705093384
time_elpased: 1.754
#iterations: 351
currently lose_sum: 0.5693739652633667
time_elpased: 1.738
#iterations: 352
currently lose_sum: 0.399814635515213
time_elpased: 1.768
#iterations: 353
currently lose_sum: 0.2765762209892273
time_elpased: 1.724
#iterations: 354
currently lose_sum: 0.4505583643913269
time_elpased: 1.769
#iterations: 355
currently lose_sum: 0.3472539484500885
time_elpased: 1.781
#iterations: 356
currently lose_sum: 0.35036590695381165
time_elpased: 1.795
#iterations: 357
currently lose_sum: 0.3612883687019348
time_elpased: 1.728
#iterations: 358
currently lose_sum: 0.4791446328163147
time_elpased: 1.757
#iterations: 359
currently lose_sum: 0.3006175458431244
time_elpased: 1.716
start validation test
0.677564102564
0.696801112656
0.637404580153
0.665780730897
0.677875416691
27.720
#iterations: 360
currently lose_sum: 0.5872390866279602
time_elpased: 1.769
#iterations: 361
currently lose_sum: 0.5303146243095398
time_elpased: 1.698
#iterations: 362
currently lose_sum: 0.44396334886550903
time_elpased: 1.709
#iterations: 363
currently lose_sum: 0.25525912642478943
time_elpased: 1.749
#iterations: 364
currently lose_sum: 0.36969393491744995
time_elpased: 1.743
#iterations: 365
currently lose_sum: 0.624035656452179
time_elpased: 1.712
#iterations: 366
currently lose_sum: 0.37780362367630005
time_elpased: 1.731
#iterations: 367
currently lose_sum: 0.5684847831726074
time_elpased: 1.697
#iterations: 368
currently lose_sum: 0.34323063492774963
time_elpased: 1.778
#iterations: 369
currently lose_sum: 0.21253147721290588
time_elpased: 1.749
#iterations: 370
currently lose_sum: 0.3683934211730957
time_elpased: 1.715
#iterations: 371
currently lose_sum: 0.5136322379112244
time_elpased: 1.723
#iterations: 372
currently lose_sum: 0.35661086440086365
time_elpased: 1.757
#iterations: 373
currently lose_sum: 0.36632221937179565
time_elpased: 1.852
#iterations: 374
currently lose_sum: 0.40688905119895935
time_elpased: 1.769
#iterations: 375
currently lose_sum: 0.5411123037338257
time_elpased: 1.757
#iterations: 376
currently lose_sum: 0.4141567349433899
time_elpased: 1.781
#iterations: 377
currently lose_sum: 0.438782274723053
time_elpased: 1.761
#iterations: 378
currently lose_sum: 0.3358796238899231
time_elpased: 1.729
#iterations: 379
currently lose_sum: 0.39332735538482666
time_elpased: 1.746
start validation test
0.673076923077
0.696581196581
0.62213740458
0.657258064516
0.673471803065
27.768
#iterations: 380
currently lose_sum: 0.41859444975852966
time_elpased: 1.786
#iterations: 381
currently lose_sum: 0.4407076835632324
time_elpased: 1.744
#iterations: 382
currently lose_sum: 0.4347979426383972
time_elpased: 1.714
#iterations: 383
currently lose_sum: 0.44794851541519165
time_elpased: 1.738
#iterations: 384
currently lose_sum: 0.4330119490623474
time_elpased: 1.756
#iterations: 385
currently lose_sum: 0.4460117220878601
time_elpased: 1.753
#iterations: 386
currently lose_sum: 0.4778072237968445
time_elpased: 1.754
#iterations: 387
currently lose_sum: 0.26210424304008484
time_elpased: 1.751
#iterations: 388
currently lose_sum: 0.3586340546607971
time_elpased: 1.767
#iterations: 389
currently lose_sum: 0.42413538694381714
time_elpased: 1.829
#iterations: 390
currently lose_sum: 0.3886975347995758
time_elpased: 1.752
#iterations: 391
currently lose_sum: 0.5135848522186279
time_elpased: 1.763
#iterations: 392
currently lose_sum: 0.572807788848877
time_elpased: 1.736
#iterations: 393
currently lose_sum: 0.42844995856285095
time_elpased: 1.758
#iterations: 394
currently lose_sum: 0.4562399983406067
time_elpased: 1.752
#iterations: 395
currently lose_sum: 0.41636258363723755
time_elpased: 1.786
#iterations: 396
currently lose_sum: 0.33737561106681824
time_elpased: 1.757
#iterations: 397
currently lose_sum: 0.40523380041122437
time_elpased: 1.745
#iterations: 398
currently lose_sum: 0.40183886885643005
time_elpased: 1.75
#iterations: 399
currently lose_sum: 0.5004020929336548
time_elpased: 1.756
start validation test
0.672435897436
0.709923664122
0.591603053435
0.645385149202
0.67306250863
29.281
#iterations: 400
currently lose_sum: 0.24859285354614258
time_elpased: 1.735
#iterations: 401
currently lose_sum: 0.4166499078273773
time_elpased: 1.74
#iterations: 402
currently lose_sum: 0.4154018461704254
time_elpased: 1.751
#iterations: 403
currently lose_sum: 0.38322049379348755
time_elpased: 1.753
#iterations: 404
currently lose_sum: 0.3372366428375244
time_elpased: 1.758
#iterations: 405
currently lose_sum: 0.3368310332298279
time_elpased: 1.734
#iterations: 406
currently lose_sum: 0.37492531538009644
time_elpased: 1.768
#iterations: 407
currently lose_sum: 0.42488592863082886
time_elpased: 1.719
#iterations: 408
currently lose_sum: 0.41763657331466675
time_elpased: 1.729
#iterations: 409
currently lose_sum: 0.3679746985435486
time_elpased: 1.706
#iterations: 410
currently lose_sum: 0.4290061891078949
time_elpased: 1.757
#iterations: 411
currently lose_sum: 0.3625853657722473
time_elpased: 1.77
#iterations: 412
currently lose_sum: 0.3202719986438751
time_elpased: 1.76
#iterations: 413
currently lose_sum: 0.34324485063552856
time_elpased: 1.737
#iterations: 414
currently lose_sum: 0.2368590086698532
time_elpased: 1.787
#iterations: 415
currently lose_sum: 0.2832510471343994
time_elpased: 1.797
#iterations: 416
currently lose_sum: 0.2586918771266937
time_elpased: 1.763
#iterations: 417
currently lose_sum: 0.47783365845680237
time_elpased: 1.774
#iterations: 418
currently lose_sum: 0.38488808274269104
time_elpased: 1.727
#iterations: 419
currently lose_sum: 0.2894352376461029
time_elpased: 1.804
start validation test
0.666666666667
0.675
0.652671755725
0.663648124191
0.666775154348
30.042
#iterations: 420
currently lose_sum: 0.28604230284690857
time_elpased: 1.762
#iterations: 421
currently lose_sum: 0.47290658950805664
time_elpased: 1.764
#iterations: 422
currently lose_sum: 0.5088397860527039
time_elpased: 1.802
#iterations: 423
currently lose_sum: 0.23453645408153534
time_elpased: 1.691
#iterations: 424
currently lose_sum: 0.38280338048934937
time_elpased: 1.769
#iterations: 425
currently lose_sum: 0.4816617965698242
time_elpased: 1.729
#iterations: 426
currently lose_sum: 0.41855373978614807
time_elpased: 1.726
#iterations: 427
currently lose_sum: 0.3841133117675781
time_elpased: 1.723
#iterations: 428
currently lose_sum: 0.2884012758731842
time_elpased: 1.779
#iterations: 429
currently lose_sum: 0.5396578311920166
time_elpased: 1.729
#iterations: 430
currently lose_sum: 0.38917917013168335
time_elpased: 1.74
#iterations: 431
currently lose_sum: 0.4980221390724182
time_elpased: 1.724
#iterations: 432
currently lose_sum: 0.5059682726860046
time_elpased: 1.746
#iterations: 433
currently lose_sum: 0.4121089577674866
time_elpased: 1.728
#iterations: 434
currently lose_sum: 0.35454922914505005
time_elpased: 1.698
#iterations: 435
currently lose_sum: 0.3704816401004791
time_elpased: 1.723
#iterations: 436
currently lose_sum: 0.3170669376850128
time_elpased: 1.796
#iterations: 437
currently lose_sum: 0.25976744294166565
time_elpased: 1.793
#iterations: 438
currently lose_sum: 0.5895980596542358
time_elpased: 1.725
#iterations: 439
currently lose_sum: 0.29541364312171936
time_elpased: 1.789
start validation test
0.66858974359
0.723051409619
0.554707379135
0.627789776818
0.669472552617
31.083
#iterations: 440
currently lose_sum: 0.3649958372116089
time_elpased: 1.73
#iterations: 441
currently lose_sum: 0.34312009811401367
time_elpased: 1.739
#iterations: 442
currently lose_sum: 0.34480175375938416
time_elpased: 1.843
#iterations: 443
currently lose_sum: 0.44514036178588867
time_elpased: 1.758
#iterations: 444
currently lose_sum: 0.37499794363975525
time_elpased: 1.76
#iterations: 445
currently lose_sum: 0.3068888187408447
time_elpased: 1.759
#iterations: 446
currently lose_sum: 0.5166098475456238
time_elpased: 1.719
#iterations: 447
currently lose_sum: 0.5020958185195923
time_elpased: 1.74
#iterations: 448
currently lose_sum: 0.2294335812330246
time_elpased: 1.703
#iterations: 449
currently lose_sum: 0.39301156997680664
time_elpased: 1.754
#iterations: 450
currently lose_sum: 0.5451808571815491
time_elpased: 1.768
#iterations: 451
currently lose_sum: 0.22611038386821747
time_elpased: 1.72
#iterations: 452
currently lose_sum: 0.4105685353279114
time_elpased: 1.773
#iterations: 453
currently lose_sum: 0.2269406020641327
time_elpased: 1.747
#iterations: 454
currently lose_sum: 0.36590245366096497
time_elpased: 1.748
#iterations: 455
currently lose_sum: 0.27459701895713806
time_elpased: 1.724
#iterations: 456
currently lose_sum: 0.32600390911102295
time_elpased: 1.709
#iterations: 457
currently lose_sum: 0.40012750029563904
time_elpased: 1.7
#iterations: 458
currently lose_sum: 0.37035393714904785
time_elpased: 1.72
#iterations: 459
currently lose_sum: 0.436516672372818
time_elpased: 1.807
start validation test
0.670512820513
0.694285714286
0.618320610687
0.654104979812
0.670917411287
30.010
#iterations: 460
currently lose_sum: 0.5257190465927124
time_elpased: 1.746
#iterations: 461
currently lose_sum: 0.3882448077201843
time_elpased: 1.721
#iterations: 462
currently lose_sum: 0.3641413152217865
time_elpased: 1.783
#iterations: 463
currently lose_sum: 0.36979323625564575
time_elpased: 1.72
#iterations: 464
currently lose_sum: 0.3223714828491211
time_elpased: 1.745
#iterations: 465
currently lose_sum: 0.23644757270812988
time_elpased: 1.755
#iterations: 466
currently lose_sum: 0.41221579909324646
time_elpased: 1.736
#iterations: 467
currently lose_sum: 0.27139338850975037
time_elpased: 1.725
#iterations: 468
currently lose_sum: 0.26609793305397034
time_elpased: 1.697
#iterations: 469
currently lose_sum: 0.3606543242931366
time_elpased: 1.734
#iterations: 470
currently lose_sum: 0.4160662591457367
time_elpased: 1.752
#iterations: 471
currently lose_sum: 0.2732619345188141
time_elpased: 1.695
#iterations: 472
currently lose_sum: 0.37489232420921326
time_elpased: 1.768
#iterations: 473
currently lose_sum: 0.3060545325279236
time_elpased: 1.691
#iterations: 474
currently lose_sum: 0.294371098279953
time_elpased: 1.692
#iterations: 475
currently lose_sum: 0.37086015939712524
time_elpased: 1.743
#iterations: 476
currently lose_sum: 0.2712387442588806
time_elpased: 1.766
#iterations: 477
currently lose_sum: 0.43358057737350464
time_elpased: 1.702
#iterations: 478
currently lose_sum: 0.3204598128795624
time_elpased: 1.763
#iterations: 479
currently lose_sum: 0.32854804396629333
time_elpased: 1.732
start validation test
0.658974358974
0.71096345515
0.544529262087
0.616714697406
0.659861530268
30.317
#iterations: 480
currently lose_sum: 0.4981502592563629
time_elpased: 1.765
#iterations: 481
currently lose_sum: 0.4246090054512024
time_elpased: 1.73
#iterations: 482
currently lose_sum: 0.448453426361084
time_elpased: 1.789
#iterations: 483
currently lose_sum: 0.3310950696468353
time_elpased: 1.735
#iterations: 484
currently lose_sum: 0.3576667308807373
time_elpased: 1.71
#iterations: 485
currently lose_sum: 0.3001766800880432
time_elpased: 1.813
#iterations: 486
currently lose_sum: 0.45133382081985474
time_elpased: 1.739
#iterations: 487
currently lose_sum: 0.24420389533042908
time_elpased: 1.789
#iterations: 488
currently lose_sum: 0.3347671329975128
time_elpased: 1.821
#iterations: 489
currently lose_sum: 0.34287136793136597
time_elpased: 1.691
#iterations: 490
currently lose_sum: 0.3537188172340393
time_elpased: 1.731
#iterations: 491
currently lose_sum: 0.3600749373435974
time_elpased: 1.735
#iterations: 492
currently lose_sum: 0.5660042762756348
time_elpased: 1.794
#iterations: 493
currently lose_sum: 0.3179151713848114
time_elpased: 1.744
#iterations: 494
currently lose_sum: 0.427518755197525
time_elpased: 1.777
#iterations: 495
currently lose_sum: 0.26640114188194275
time_elpased: 1.787
#iterations: 496
currently lose_sum: 0.3582000136375427
time_elpased: 1.752
#iterations: 497
currently lose_sum: 0.23143787682056427
time_elpased: 1.785
#iterations: 498
currently lose_sum: 0.307980477809906
time_elpased: 1.723
#iterations: 499
currently lose_sum: 0.3389951288700104
time_elpased: 1.746
start validation test
0.666025641026
0.72268907563
0.547073791349
0.622737146995
0.666947748387
31.380
#iterations: 500
currently lose_sum: 0.3457428514957428
time_elpased: 1.776
#iterations: 501
currently lose_sum: 0.41471728682518005
time_elpased: 1.733
#iterations: 502
currently lose_sum: 0.354769766330719
time_elpased: 1.719
#iterations: 503
currently lose_sum: 0.311247318983078
time_elpased: 1.734
#iterations: 504
currently lose_sum: 0.47668561339378357
time_elpased: 1.788
#iterations: 505
currently lose_sum: 0.291470468044281
time_elpased: 1.743
#iterations: 506
currently lose_sum: 0.40971440076828003
time_elpased: 1.78
#iterations: 507
currently lose_sum: 0.5420684814453125
time_elpased: 1.735
#iterations: 508
currently lose_sum: 0.4085313677787781
time_elpased: 1.724
#iterations: 509
currently lose_sum: 0.4301668703556061
time_elpased: 1.773
#iterations: 510
currently lose_sum: 0.35924720764160156
time_elpased: 1.765
#iterations: 511
currently lose_sum: 0.3163726329803467
time_elpased: 1.772
#iterations: 512
currently lose_sum: 0.3567429482936859
time_elpased: 1.714
#iterations: 513
currently lose_sum: 0.372426301240921
time_elpased: 1.718
#iterations: 514
currently lose_sum: 0.36157259345054626
time_elpased: 1.706
#iterations: 515
currently lose_sum: 0.40778103470802307
time_elpased: 1.79
#iterations: 516
currently lose_sum: 0.3345855176448822
time_elpased: 1.748
#iterations: 517
currently lose_sum: 0.556277334690094
time_elpased: 1.72
#iterations: 518
currently lose_sum: 0.5344163775444031
time_elpased: 1.724
#iterations: 519
currently lose_sum: 0.19131454825401306
time_elpased: 1.754
start validation test
0.660256410256
0.737918215613
0.505089058524
0.599697885196
0.661459257944
32.460
#iterations: 520
currently lose_sum: 0.5606166124343872
time_elpased: 1.771
#iterations: 521
currently lose_sum: 0.32597047090530396
time_elpased: 1.745
#iterations: 522
currently lose_sum: 0.42380690574645996
time_elpased: 1.754
#iterations: 523
currently lose_sum: 0.2724083364009857
time_elpased: 1.719
#iterations: 524
currently lose_sum: 0.3753596246242523
time_elpased: 1.75
#iterations: 525
currently lose_sum: 0.28454428911209106
time_elpased: 1.753
#iterations: 526
currently lose_sum: 0.2702844738960266
time_elpased: 1.765
#iterations: 527
currently lose_sum: 0.39206480979919434
time_elpased: 1.774
#iterations: 528
currently lose_sum: 0.3671538531780243
time_elpased: 1.717
#iterations: 529
currently lose_sum: 0.25509390234947205
time_elpased: 1.734
#iterations: 530
currently lose_sum: 0.38477835059165955
time_elpased: 1.744
#iterations: 531
currently lose_sum: 0.315577894449234
time_elpased: 1.773
#iterations: 532
currently lose_sum: 0.38774213194847107
time_elpased: 1.721
#iterations: 533
currently lose_sum: 0.30796071887016296
time_elpased: 1.74
#iterations: 534
currently lose_sum: 0.31728729605674744
time_elpased: 1.75
#iterations: 535
currently lose_sum: 0.3480139374732971
time_elpased: 1.768
#iterations: 536
currently lose_sum: 0.3887294828891754
time_elpased: 1.775
#iterations: 537
currently lose_sum: 0.533655047416687
time_elpased: 1.77
#iterations: 538
currently lose_sum: 0.4016583561897278
time_elpased: 1.734
#iterations: 539
currently lose_sum: 0.35502392053604126
time_elpased: 1.714
start validation test
0.65
0.732558139535
0.480916030534
0.58064516129
0.651310728445
34.313
#iterations: 540
currently lose_sum: 0.30966949462890625
time_elpased: 1.703
#iterations: 541
currently lose_sum: 0.30416199564933777
time_elpased: 1.735
#iterations: 542
currently lose_sum: 0.2916865944862366
time_elpased: 1.704
#iterations: 543
currently lose_sum: 0.49917906522750854
time_elpased: 1.771
#iterations: 544
currently lose_sum: 0.4730099141597748
time_elpased: 1.713
#iterations: 545
currently lose_sum: 0.38121211528778076
time_elpased: 1.744
#iterations: 546
currently lose_sum: 0.26673492789268494
time_elpased: 1.754
#iterations: 547
currently lose_sum: 0.34174004197120667
time_elpased: 1.757
#iterations: 548
currently lose_sum: 0.30306869745254517
time_elpased: 1.742
#iterations: 549
currently lose_sum: 0.30048668384552
time_elpased: 1.75
#iterations: 550
currently lose_sum: 0.2997671961784363
time_elpased: 1.784
#iterations: 551
currently lose_sum: 0.4821990132331848
time_elpased: 1.73
#iterations: 552
currently lose_sum: 0.31057626008987427
time_elpased: 1.759
#iterations: 553
currently lose_sum: 0.24256138503551483
time_elpased: 1.784
#iterations: 554
currently lose_sum: 0.27149146795272827
time_elpased: 1.793
#iterations: 555
currently lose_sum: 0.29798761010169983
time_elpased: 1.751
#iterations: 556
currently lose_sum: 0.5225546956062317
time_elpased: 1.722
#iterations: 557
currently lose_sum: 0.3717779219150543
time_elpased: 1.76
#iterations: 558
currently lose_sum: 0.46226319670677185
time_elpased: 1.767
#iterations: 559
currently lose_sum: 0.35837966203689575
time_elpased: 1.809
start validation test
0.658974358974
0.763485477178
0.468193384224
0.580441640379
0.660453281259
34.532
#iterations: 560
currently lose_sum: 0.4002833366394043
time_elpased: 1.74
#iterations: 561
currently lose_sum: 0.31494227051734924
time_elpased: 1.773
#iterations: 562
currently lose_sum: 0.4108971059322357
time_elpased: 1.773
#iterations: 563
currently lose_sum: 0.44781169295310974
time_elpased: 1.746
#iterations: 564
currently lose_sum: 0.3878334164619446
time_elpased: 1.718
#iterations: 565
currently lose_sum: 0.21818561851978302
time_elpased: 1.79
#iterations: 566
currently lose_sum: 0.40563735365867615
time_elpased: 1.748
#iterations: 567
currently lose_sum: 0.5666254758834839
time_elpased: 1.72
#iterations: 568
currently lose_sum: 0.22426922619342804
time_elpased: 1.805
#iterations: 569
currently lose_sum: 0.39298632740974426
time_elpased: 1.76
#iterations: 570
currently lose_sum: 0.3297279477119446
time_elpased: 1.753
#iterations: 571
currently lose_sum: 0.3586037755012512
time_elpased: 1.804
#iterations: 572
currently lose_sum: 0.379202663898468
time_elpased: 1.751
#iterations: 573
currently lose_sum: 0.3918786346912384
time_elpased: 1.749
#iterations: 574
currently lose_sum: 0.2768669128417969
time_elpased: 1.721
#iterations: 575
currently lose_sum: 0.29286354780197144
time_elpased: 1.772
#iterations: 576
currently lose_sum: 0.4484684467315674
time_elpased: 1.747
#iterations: 577
currently lose_sum: 0.26980048418045044
time_elpased: 1.746
#iterations: 578
currently lose_sum: 0.424281507730484
time_elpased: 1.716
#iterations: 579
currently lose_sum: 0.27642178535461426
time_elpased: 1.728
start validation test
0.670512820513
0.746376811594
0.52417302799
0.615844544096
0.671647237509
31.654
#iterations: 580
currently lose_sum: 0.23653587698936462
time_elpased: 1.812
#iterations: 581
currently lose_sum: 0.3754945397377014
time_elpased: 1.739
#iterations: 582
currently lose_sum: 0.47530192136764526
time_elpased: 1.716
#iterations: 583
currently lose_sum: 0.3803770840167999
time_elpased: 1.719
#iterations: 584
currently lose_sum: 0.33644023537635803
time_elpased: 1.743
#iterations: 585
currently lose_sum: 0.17852787673473358
time_elpased: 1.69
#iterations: 586
currently lose_sum: 0.30619293451309204
time_elpased: 1.807
#iterations: 587
currently lose_sum: 0.418379545211792
time_elpased: 1.834
#iterations: 588
currently lose_sum: 0.32230010628700256
time_elpased: 1.784
#iterations: 589
currently lose_sum: 0.5700966119766235
time_elpased: 1.716
#iterations: 590
currently lose_sum: 0.2627434730529785
time_elpased: 1.739
#iterations: 591
currently lose_sum: 0.4979235529899597
time_elpased: 1.777
#iterations: 592
currently lose_sum: 0.36825230717658997
time_elpased: 1.739
#iterations: 593
currently lose_sum: 0.22229857742786407
time_elpased: 1.807
#iterations: 594
currently lose_sum: 0.4666194021701813
time_elpased: 1.798
#iterations: 595
currently lose_sum: 0.21520669758319855
time_elpased: 1.782
#iterations: 596
currently lose_sum: 0.3476868271827698
time_elpased: 1.736
#iterations: 597
currently lose_sum: 0.3198361396789551
time_elpased: 1.749
#iterations: 598
currently lose_sum: 0.42114973068237305
time_elpased: 1.748
#iterations: 599
currently lose_sum: 0.3385159969329834
time_elpased: 1.798
start validation test
0.678205128205
0.675308641975
0.695928753181
0.685463659148
0.678067735763
30.839
acc: 0.669
pre: 0.651
rec: 0.740
F1: 0.692
auc: 0.668
