start to construct computing graph
graph construct over
2360
epochs start
#iterations: 0
currently lose_sum: 0.6962641477584839
time_elpased: 1.25
#iterations: 1
currently lose_sum: 0.6944205164909363
time_elpased: 1.242
#iterations: 2
currently lose_sum: 0.695198655128479
time_elpased: 1.192
#iterations: 3
currently lose_sum: 0.6925956606864929
time_elpased: 1.187
#iterations: 4
currently lose_sum: 0.6789097785949707
time_elpased: 1.182
#iterations: 5
currently lose_sum: 0.6609914898872375
time_elpased: 1.17
#iterations: 6
currently lose_sum: 0.6786207556724548
time_elpased: 1.215
#iterations: 7
currently lose_sum: 0.6892389059066772
time_elpased: 1.194
#iterations: 8
currently lose_sum: 0.6935669183731079
time_elpased: 1.144
#iterations: 9
currently lose_sum: 0.7129529118537903
time_elpased: 1.227
#iterations: 10
currently lose_sum: 0.6774355173110962
time_elpased: 1.187
#iterations: 11
currently lose_sum: 0.7321861982345581
time_elpased: 1.176
#iterations: 12
currently lose_sum: 0.6390791535377502
time_elpased: 1.204
#iterations: 13
currently lose_sum: 0.7201532125473022
time_elpased: 1.155
#iterations: 14
currently lose_sum: 0.6379239559173584
time_elpased: 1.153
#iterations: 15
currently lose_sum: 0.700713038444519
time_elpased: 1.185
#iterations: 16
currently lose_sum: 0.6765775680541992
time_elpased: 1.181
#iterations: 17
currently lose_sum: 0.6045504808425903
time_elpased: 1.188
#iterations: 18
currently lose_sum: 0.7286803722381592
time_elpased: 1.207
#iterations: 19
currently lose_sum: 0.6773630380630493
time_elpased: 1.183
start validation test
0.56858974359
0.569512195122
0.593392630241
0.581207218419
0.568365137889
26.258
#iterations: 20
currently lose_sum: 0.6905155181884766
time_elpased: 0.918
#iterations: 21
currently lose_sum: 0.6456588506698608
time_elpased: 0.919
#iterations: 22
currently lose_sum: 0.611556887626648
time_elpased: 0.949
#iterations: 23
currently lose_sum: 0.6977604627609253
time_elpased: 0.911
#iterations: 24
currently lose_sum: 0.7206981778144836
time_elpased: 0.935
#iterations: 25
currently lose_sum: 0.636341392993927
time_elpased: 0.918
#iterations: 26
currently lose_sum: 0.5712946057319641
time_elpased: 0.894
#iterations: 27
currently lose_sum: 0.6245309710502625
time_elpased: 0.923
#iterations: 28
currently lose_sum: 0.6461954116821289
time_elpased: 0.917
#iterations: 29
currently lose_sum: 0.6339880228042603
time_elpased: 0.945
#iterations: 30
currently lose_sum: 0.6717628836631775
time_elpased: 0.921
#iterations: 31
currently lose_sum: 0.6551066637039185
time_elpased: 0.952
#iterations: 32
currently lose_sum: 0.5506993532180786
time_elpased: 0.924
#iterations: 33
currently lose_sum: 0.6083598136901855
time_elpased: 0.94
#iterations: 34
currently lose_sum: 0.7541053295135498
time_elpased: 0.922
#iterations: 35
currently lose_sum: 0.6418946385383606
time_elpased: 0.922
#iterations: 36
currently lose_sum: 0.7109049558639526
time_elpased: 0.923
#iterations: 37
currently lose_sum: 0.6447238922119141
time_elpased: 0.922
#iterations: 38
currently lose_sum: 0.7009466886520386
time_elpased: 0.931
#iterations: 39
currently lose_sum: 0.5940661430358887
time_elpased: 0.915
start validation test
0.616025641026
0.607305936073
0.675984752224
0.639807576669
0.615482673654
25.287
#iterations: 40
currently lose_sum: 0.6606519818305969
time_elpased: 0.935
#iterations: 41
currently lose_sum: 0.6343656182289124
time_elpased: 0.911
#iterations: 42
currently lose_sum: 0.624908447265625
time_elpased: 0.934
#iterations: 43
currently lose_sum: 0.6118496060371399
time_elpased: 0.929
#iterations: 44
currently lose_sum: 0.5418465733528137
time_elpased: 0.942
#iterations: 45
currently lose_sum: 0.6253796815872192
time_elpased: 0.899
#iterations: 46
currently lose_sum: 0.5875273942947388
time_elpased: 0.93
#iterations: 47
currently lose_sum: 0.5911178588867188
time_elpased: 0.904
#iterations: 48
currently lose_sum: 0.5776079297065735
time_elpased: 0.915
#iterations: 49
currently lose_sum: 0.6679149866104126
time_elpased: 0.937
#iterations: 50
currently lose_sum: 0.5374282598495483
time_elpased: 0.924
#iterations: 51
currently lose_sum: 0.6306063532829285
time_elpased: 0.949
#iterations: 52
currently lose_sum: 0.6335050463676453
time_elpased: 0.94
#iterations: 53
currently lose_sum: 0.6032795906066895
time_elpased: 0.931
#iterations: 54
currently lose_sum: 0.5202435255050659
time_elpased: 0.905
#iterations: 55
currently lose_sum: 0.5943582653999329
time_elpased: 0.921
#iterations: 56
currently lose_sum: 0.6137754321098328
time_elpased: 0.936
#iterations: 57
currently lose_sum: 0.61552494764328
time_elpased: 0.934
#iterations: 58
currently lose_sum: 0.5226198434829712
time_elpased: 0.925
#iterations: 59
currently lose_sum: 0.6399421691894531
time_elpased: 0.936
start validation test
0.637820512821
0.628472222222
0.689961880559
0.65778316172
0.637348340021
25.197
#iterations: 60
currently lose_sum: 0.6571325063705444
time_elpased: 0.903
#iterations: 61
currently lose_sum: 0.6206012964248657
time_elpased: 0.923
#iterations: 62
currently lose_sum: 0.5386807322502136
time_elpased: 0.933
#iterations: 63
currently lose_sum: 0.6473380923271179
time_elpased: 0.922
#iterations: 64
currently lose_sum: 0.639860987663269
time_elpased: 0.953
#iterations: 65
currently lose_sum: 0.5590759515762329
time_elpased: 0.956
#iterations: 66
currently lose_sum: 0.6648877859115601
time_elpased: 0.955
#iterations: 67
currently lose_sum: 0.6856705546379089
time_elpased: 0.905
#iterations: 68
currently lose_sum: 0.5887004733085632
time_elpased: 0.945
#iterations: 69
currently lose_sum: 0.6383905410766602
time_elpased: 0.917
#iterations: 70
currently lose_sum: 0.6157186627388
time_elpased: 0.928
#iterations: 71
currently lose_sum: 0.6416980624198914
time_elpased: 0.912
#iterations: 72
currently lose_sum: 0.6338063478469849
time_elpased: 0.94
#iterations: 73
currently lose_sum: 0.5526514649391174
time_elpased: 0.965
#iterations: 74
currently lose_sum: 0.6221669912338257
time_elpased: 0.947
#iterations: 75
currently lose_sum: 0.6984956860542297
time_elpased: 0.946
#iterations: 76
currently lose_sum: 0.624507486820221
time_elpased: 0.925
#iterations: 77
currently lose_sum: 0.5762187838554382
time_elpased: 0.938
#iterations: 78
currently lose_sum: 0.5230941772460938
time_elpased: 0.936
#iterations: 79
currently lose_sum: 0.604847252368927
time_elpased: 0.927
start validation test
0.614743589744
0.700431034483
0.412960609911
0.519584332534
0.61657086123
26.002
#iterations: 80
currently lose_sum: 0.5799514055252075
time_elpased: 0.915
#iterations: 81
currently lose_sum: 0.5499440431594849
time_elpased: 0.937
#iterations: 82
currently lose_sum: 0.7464889883995056
time_elpased: 0.913
#iterations: 83
currently lose_sum: 0.6710935831069946
time_elpased: 0.942
#iterations: 84
currently lose_sum: 0.6861034631729126
time_elpased: 0.933
#iterations: 85
currently lose_sum: 0.523635745048523
time_elpased: 0.92
#iterations: 86
currently lose_sum: 0.6888982057571411
time_elpased: 0.914
#iterations: 87
currently lose_sum: 0.5455867052078247
time_elpased: 0.938
#iterations: 88
currently lose_sum: 0.6723224520683289
time_elpased: 0.936
#iterations: 89
currently lose_sum: 0.654478907585144
time_elpased: 0.909
#iterations: 90
currently lose_sum: 0.604548454284668
time_elpased: 0.932
#iterations: 91
currently lose_sum: 0.5888087153434753
time_elpased: 0.942
#iterations: 92
currently lose_sum: 0.5862637758255005
time_elpased: 0.921
#iterations: 93
currently lose_sum: 0.5092732310295105
time_elpased: 0.946
#iterations: 94
currently lose_sum: 0.6206998825073242
time_elpased: 0.948
#iterations: 95
currently lose_sum: 0.4474461078643799
time_elpased: 0.941
#iterations: 96
currently lose_sum: 0.47988805174827576
time_elpased: 0.945
#iterations: 97
currently lose_sum: 0.5792196989059448
time_elpased: 0.958
#iterations: 98
currently lose_sum: 0.49870434403419495
time_elpased: 0.927
#iterations: 99
currently lose_sum: 0.5259892344474792
time_elpased: 0.947
start validation test
0.646794871795
0.635632183908
0.702668360864
0.667471333736
0.646288902295
25.229
#iterations: 100
currently lose_sum: 0.5308800935745239
time_elpased: 0.939
#iterations: 101
currently lose_sum: 0.5885170102119446
time_elpased: 0.958
#iterations: 102
currently lose_sum: 0.6560171842575073
time_elpased: 0.946
#iterations: 103
currently lose_sum: 0.49754852056503296
time_elpased: 0.973
#iterations: 104
currently lose_sum: 0.6347672343254089
time_elpased: 0.935
#iterations: 105
currently lose_sum: 0.6214598417282104
time_elpased: 0.907
#iterations: 106
currently lose_sum: 0.5684780478477478
time_elpased: 0.924
#iterations: 107
currently lose_sum: 0.5563634037971497
time_elpased: 0.93
#iterations: 108
currently lose_sum: 0.4190537929534912
time_elpased: 0.969
#iterations: 109
currently lose_sum: 0.7668692469596863
time_elpased: 0.92
#iterations: 110
currently lose_sum: 0.6304438710212708
time_elpased: 0.932
#iterations: 111
currently lose_sum: 0.3882121741771698
time_elpased: 0.934
#iterations: 112
currently lose_sum: 0.6038476824760437
time_elpased: 0.908
#iterations: 113
currently lose_sum: 0.5747043490409851
time_elpased: 0.917
#iterations: 114
currently lose_sum: 0.5571427941322327
time_elpased: 0.931
#iterations: 115
currently lose_sum: 0.7287381291389465
time_elpased: 0.923
#iterations: 116
currently lose_sum: 0.4888327717781067
time_elpased: 0.897
#iterations: 117
currently lose_sum: 0.5082820653915405
time_elpased: 0.918
#iterations: 118
currently lose_sum: 0.6017771363258362
time_elpased: 0.898
#iterations: 119
currently lose_sum: 0.45042452216148376
time_elpased: 0.911
start validation test
0.648076923077
0.628787878788
0.738246505718
0.679135008767
0.647260380931
25.243
#iterations: 120
currently lose_sum: 0.6602452993392944
time_elpased: 0.953
#iterations: 121
currently lose_sum: 0.5552026629447937
time_elpased: 0.951
#iterations: 122
currently lose_sum: 0.4779687821865082
time_elpased: 0.932
#iterations: 123
currently lose_sum: 0.5679662823677063
time_elpased: 0.932
#iterations: 124
currently lose_sum: 0.5554131269454956
time_elpased: 0.918
#iterations: 125
currently lose_sum: 0.5409418940544128
time_elpased: 0.931
#iterations: 126
currently lose_sum: 0.568008542060852
time_elpased: 0.939
#iterations: 127
currently lose_sum: 0.5090815424919128
time_elpased: 0.935
#iterations: 128
currently lose_sum: 0.526794970035553
time_elpased: 0.933
#iterations: 129
currently lose_sum: 0.4703759253025055
time_elpased: 0.921
#iterations: 130
currently lose_sum: 0.7370024919509888
time_elpased: 0.925
#iterations: 131
currently lose_sum: 0.6733496785163879
time_elpased: 0.933
#iterations: 132
currently lose_sum: 0.6447998285293579
time_elpased: 0.916
#iterations: 133
currently lose_sum: 0.5715943574905396
time_elpased: 0.931
#iterations: 134
currently lose_sum: 0.5500715970993042
time_elpased: 0.931
#iterations: 135
currently lose_sum: 0.456779420375824
time_elpased: 0.935
#iterations: 136
currently lose_sum: 0.4110749363899231
time_elpased: 0.962
#iterations: 137
currently lose_sum: 0.5634453892707825
time_elpased: 0.94
#iterations: 138
currently lose_sum: 0.4834364056587219
time_elpased: 0.938
#iterations: 139
currently lose_sum: 0.5371876955032349
time_elpased: 0.953
start validation test
0.665384615385
0.667087011349
0.672172808132
0.669620253165
0.66532314404
24.992
#iterations: 140
currently lose_sum: 0.5659905076026917
time_elpased: 0.932
#iterations: 141
currently lose_sum: 0.5709666609764099
time_elpased: 0.937
#iterations: 142
currently lose_sum: 0.5034275650978088
time_elpased: 0.923
#iterations: 143
currently lose_sum: 0.3873620629310608
time_elpased: 0.936
#iterations: 144
currently lose_sum: 0.5353261232376099
time_elpased: 0.915
#iterations: 145
currently lose_sum: 0.47822999954223633
time_elpased: 0.922
#iterations: 146
currently lose_sum: 0.5262144207954407
time_elpased: 0.926
#iterations: 147
currently lose_sum: 0.4564504027366638
time_elpased: 0.916
#iterations: 148
currently lose_sum: 0.5085140466690063
time_elpased: 0.929
#iterations: 149
currently lose_sum: 0.39918792247772217
time_elpased: 0.969
#iterations: 150
currently lose_sum: 0.5701676607131958
time_elpased: 0.935
#iterations: 151
currently lose_sum: 0.5297120809555054
time_elpased: 0.927
#iterations: 152
currently lose_sum: 0.505627453327179
time_elpased: 0.917
#iterations: 153
currently lose_sum: 0.46332627534866333
time_elpased: 0.939
#iterations: 154
currently lose_sum: 0.5643280148506165
time_elpased: 0.936
#iterations: 155
currently lose_sum: 0.4849611222743988
time_elpased: 0.94
#iterations: 156
currently lose_sum: 0.42247113585472107
time_elpased: 0.921
#iterations: 157
currently lose_sum: 0.4954548478126526
time_elpased: 0.952
#iterations: 158
currently lose_sum: 0.5525500178337097
time_elpased: 0.914
#iterations: 159
currently lose_sum: 0.6407855749130249
time_elpased: 0.919
start validation test
0.657692307692
0.673525377229
0.623888182973
0.647757255937
0.657998425251
24.850
#iterations: 160
currently lose_sum: 0.5755079984664917
time_elpased: 0.896
#iterations: 161
currently lose_sum: 0.5573911666870117
time_elpased: 0.938
#iterations: 162
currently lose_sum: 0.4418140947818756
time_elpased: 0.982
#iterations: 163
currently lose_sum: 0.4554594159126282
time_elpased: 0.915
#iterations: 164
currently lose_sum: 0.41236504912376404
time_elpased: 0.92
#iterations: 165
currently lose_sum: 0.5165501832962036
time_elpased: 0.921
#iterations: 166
currently lose_sum: 0.5250523686408997
time_elpased: 0.943
#iterations: 167
currently lose_sum: 0.5870234370231628
time_elpased: 0.908
#iterations: 168
currently lose_sum: 0.4297741949558258
time_elpased: 0.958
#iterations: 169
currently lose_sum: 0.5491570234298706
time_elpased: 0.921
#iterations: 170
currently lose_sum: 0.5763258934020996
time_elpased: 0.927
#iterations: 171
currently lose_sum: 0.601621150970459
time_elpased: 0.933
#iterations: 172
currently lose_sum: 0.4738759994506836
time_elpased: 0.933
#iterations: 173
currently lose_sum: 0.5133073329925537
time_elpased: 0.942
#iterations: 174
currently lose_sum: 0.4065248370170593
time_elpased: 0.98
#iterations: 175
currently lose_sum: 0.6379470825195312
time_elpased: 0.968
#iterations: 176
currently lose_sum: 0.46366962790489197
time_elpased: 0.941
#iterations: 177
currently lose_sum: 0.37854915857315063
time_elpased: 0.942
#iterations: 178
currently lose_sum: 0.45113715529441833
time_elpased: 0.904
#iterations: 179
currently lose_sum: 0.5828185081481934
time_elpased: 0.929
start validation test
0.653205128205
0.700325732899
0.546378653113
0.613847251963
0.654172508963
25.906
#iterations: 180
currently lose_sum: 0.4619167447090149
time_elpased: 0.926
#iterations: 181
currently lose_sum: 0.5525145530700684
time_elpased: 0.921
#iterations: 182
currently lose_sum: 0.5349923968315125
time_elpased: 0.916
#iterations: 183
currently lose_sum: 0.4582144320011139
time_elpased: 0.945
#iterations: 184
currently lose_sum: 0.49060195684432983
time_elpased: 0.941
#iterations: 185
currently lose_sum: 0.4761544167995453
time_elpased: 0.938
#iterations: 186
currently lose_sum: 0.4116083085536957
time_elpased: 0.935
#iterations: 187
currently lose_sum: 0.6351739168167114
time_elpased: 0.926
#iterations: 188
currently lose_sum: 0.4411901533603668
time_elpased: 0.921
#iterations: 189
currently lose_sum: 0.48119592666625977
time_elpased: 0.909
#iterations: 190
currently lose_sum: 0.6002787351608276
time_elpased: 0.943
#iterations: 191
currently lose_sum: 0.5504308938980103
time_elpased: 0.916
#iterations: 192
currently lose_sum: 0.5332349538803101
time_elpased: 0.936
#iterations: 193
currently lose_sum: 0.669285774230957
time_elpased: 0.954
#iterations: 194
currently lose_sum: 0.48380738496780396
time_elpased: 0.959
#iterations: 195
currently lose_sum: 0.6168199777603149
time_elpased: 0.944
#iterations: 196
currently lose_sum: 0.4958592355251312
time_elpased: 0.96
#iterations: 197
currently lose_sum: 0.5671024322509766
time_elpased: 0.948
#iterations: 198
currently lose_sum: 0.6002659797668457
time_elpased: 0.925
#iterations: 199
currently lose_sum: 0.4466916620731354
time_elpased: 0.936
start validation test
0.65
0.6928
0.550190597205
0.613314447592
0.650903836765
25.867
#iterations: 200
currently lose_sum: 0.5438730716705322
time_elpased: 0.936
#iterations: 201
currently lose_sum: 0.4386424422264099
time_elpased: 0.944
#iterations: 202
currently lose_sum: 0.5822833180427551
time_elpased: 0.927
#iterations: 203
currently lose_sum: 0.5553239583969116
time_elpased: 0.949
#iterations: 204
currently lose_sum: 0.5865734219551086
time_elpased: 0.934
#iterations: 205
currently lose_sum: 0.4538584351539612
time_elpased: 0.927
#iterations: 206
currently lose_sum: 0.6771887540817261
time_elpased: 0.955
#iterations: 207
currently lose_sum: 0.5314657092094421
time_elpased: 0.918
#iterations: 208
currently lose_sum: 0.46178513765335083
time_elpased: 0.916
#iterations: 209
currently lose_sum: 0.5729645490646362
time_elpased: 0.927
#iterations: 210
currently lose_sum: 0.5103558301925659
time_elpased: 0.935
#iterations: 211
currently lose_sum: 0.4731787145137787
time_elpased: 0.912
#iterations: 212
currently lose_sum: 0.4452151358127594
time_elpased: 0.942
#iterations: 213
currently lose_sum: 0.3957623541355133
time_elpased: 0.928
#iterations: 214
currently lose_sum: 0.5054851770401001
time_elpased: 0.915
#iterations: 215
currently lose_sum: 0.45547986030578613
time_elpased: 0.921
#iterations: 216
currently lose_sum: 0.4712604582309723
time_elpased: 0.92
#iterations: 217
currently lose_sum: 0.533789873123169
time_elpased: 0.946
#iterations: 218
currently lose_sum: 0.5209134221076965
time_elpased: 0.951
#iterations: 219
currently lose_sum: 0.3503972291946411
time_elpased: 0.921
start validation test
0.660897435897
0.711475409836
0.551461245235
0.621331424481
0.661888449267
25.699
#iterations: 220
currently lose_sum: 0.6083734631538391
time_elpased: 0.931
#iterations: 221
currently lose_sum: 0.5115156173706055
time_elpased: 0.921
#iterations: 222
currently lose_sum: 0.381919801235199
time_elpased: 0.925
#iterations: 223
currently lose_sum: 0.4447809159755707
time_elpased: 0.924
#iterations: 224
currently lose_sum: 0.502661406993866
time_elpased: 0.922
#iterations: 225
currently lose_sum: 0.5701372027397156
time_elpased: 0.912
#iterations: 226
currently lose_sum: 0.615829348564148
time_elpased: 0.917
#iterations: 227
currently lose_sum: 0.5858271718025208
time_elpased: 0.937
#iterations: 228
currently lose_sum: 0.40925759077072144
time_elpased: 0.919
#iterations: 229
currently lose_sum: 0.4411872923374176
time_elpased: 0.933
#iterations: 230
currently lose_sum: 0.5402770042419434
time_elpased: 0.927
#iterations: 231
currently lose_sum: 0.494889497756958
time_elpased: 0.916
#iterations: 232
currently lose_sum: 0.5613912343978882
time_elpased: 0.928
#iterations: 233
currently lose_sum: 0.4990953803062439
time_elpased: 0.944
#iterations: 234
currently lose_sum: 0.48987340927124023
time_elpased: 0.909
#iterations: 235
currently lose_sum: 0.4903135299682617
time_elpased: 0.951
#iterations: 236
currently lose_sum: 0.4244435429573059
time_elpased: 0.957
#iterations: 237
currently lose_sum: 0.38575029373168945
time_elpased: 0.919
#iterations: 238
currently lose_sum: 0.4681783616542816
time_elpased: 0.922
#iterations: 239
currently lose_sum: 0.5517972707748413
time_elpased: 0.925
start validation test
0.655128205128
0.725952813067
0.508259212198
0.597907324365
0.656458196009
25.852
#iterations: 240
currently lose_sum: 0.48347291350364685
time_elpased: 0.951
#iterations: 241
currently lose_sum: 0.5696276426315308
time_elpased: 0.946
#iterations: 242
currently lose_sum: 0.3778057098388672
time_elpased: 0.91
#iterations: 243
currently lose_sum: 0.3422880172729492
time_elpased: 0.931
#iterations: 244
currently lose_sum: 0.5058568120002747
time_elpased: 0.922
#iterations: 245
currently lose_sum: 0.5536985397338867
time_elpased: 0.918
#iterations: 246
currently lose_sum: 0.5915031433105469
time_elpased: 0.913
#iterations: 247
currently lose_sum: 0.46354857087135315
time_elpased: 0.928
#iterations: 248
currently lose_sum: 0.5303342938423157
time_elpased: 0.956
#iterations: 249
currently lose_sum: 0.4652880132198334
time_elpased: 0.941
#iterations: 250
currently lose_sum: 0.48414626717567444
time_elpased: 0.92
#iterations: 251
currently lose_sum: 0.5309121608734131
time_elpased: 0.919
#iterations: 252
currently lose_sum: 0.6180691719055176
time_elpased: 0.935
#iterations: 253
currently lose_sum: 0.5159972310066223
time_elpased: 0.945
#iterations: 254
currently lose_sum: 0.5167640447616577
time_elpased: 0.925
#iterations: 255
currently lose_sum: 0.5150190591812134
time_elpased: 0.909
#iterations: 256
currently lose_sum: 0.4495168626308441
time_elpased: 0.93
#iterations: 257
currently lose_sum: 0.42521029710769653
time_elpased: 0.938
#iterations: 258
currently lose_sum: 0.5303236842155457
time_elpased: 0.954
#iterations: 259
currently lose_sum: 0.4544190466403961
time_elpased: 0.946
start validation test
0.658974358974
0.672998643148
0.630241423126
0.650918635171
0.659234553736
25.597
#iterations: 260
currently lose_sum: 0.6081843376159668
time_elpased: 0.913
#iterations: 261
currently lose_sum: 0.4479812979698181
time_elpased: 0.913
#iterations: 262
currently lose_sum: 0.41433948278427124
time_elpased: 0.918
#iterations: 263
currently lose_sum: 0.44709572196006775
time_elpased: 0.955
#iterations: 264
currently lose_sum: 0.3305644989013672
time_elpased: 0.947
#iterations: 265
currently lose_sum: 0.4577091634273529
time_elpased: 0.93
#iterations: 266
currently lose_sum: 0.42417335510253906
time_elpased: 0.905
#iterations: 267
currently lose_sum: 0.461541086435318
time_elpased: 0.927
#iterations: 268
currently lose_sum: 0.37794187664985657
time_elpased: 0.907
#iterations: 269
currently lose_sum: 0.40536269545555115
time_elpased: 0.931
#iterations: 270
currently lose_sum: 0.36062225699424744
time_elpased: 0.932
#iterations: 271
currently lose_sum: 0.29862073063850403
time_elpased: 0.951
#iterations: 272
currently lose_sum: 0.46346205472946167
time_elpased: 0.95
#iterations: 273
currently lose_sum: 0.4088749885559082
time_elpased: 0.95
#iterations: 274
currently lose_sum: 0.5443651080131531
time_elpased: 0.953
#iterations: 275
currently lose_sum: 0.5551763772964478
time_elpased: 0.912
#iterations: 276
currently lose_sum: 0.5358922481536865
time_elpased: 0.915
#iterations: 277
currently lose_sum: 0.44513097405433655
time_elpased: 0.927
#iterations: 278
currently lose_sum: 0.5179167985916138
time_elpased: 0.917
#iterations: 279
currently lose_sum: 0.461911141872406
time_elpased: 0.924
start validation test
0.644871794872
0.75161987041
0.442185514612
0.5568
0.64670724631
28.101
#iterations: 280
currently lose_sum: 0.5740052461624146
time_elpased: 0.919
#iterations: 281
currently lose_sum: 0.4904581904411316
time_elpased: 0.945
#iterations: 282
currently lose_sum: 0.5642927289009094
time_elpased: 0.92
#iterations: 283
currently lose_sum: 0.405635267496109
time_elpased: 0.912
#iterations: 284
currently lose_sum: 0.41823992133140564
time_elpased: 0.939
#iterations: 285
currently lose_sum: 0.37370508909225464
time_elpased: 0.921
#iterations: 286
currently lose_sum: 0.35253435373306274
time_elpased: 0.919
#iterations: 287
currently lose_sum: 0.5539224743843079
time_elpased: 0.94
#iterations: 288
currently lose_sum: 0.5080367922782898
time_elpased: 0.937
#iterations: 289
currently lose_sum: 0.3225073218345642
time_elpased: 0.955
#iterations: 290
currently lose_sum: 0.44552403688430786
time_elpased: 0.931
#iterations: 291
currently lose_sum: 0.5651758313179016
time_elpased: 0.953
#iterations: 292
currently lose_sum: 0.4435047209262848
time_elpased: 0.938
#iterations: 293
currently lose_sum: 0.4717734456062317
time_elpased: 0.942
#iterations: 294
currently lose_sum: 0.49751368165016174
time_elpased: 0.91
#iterations: 295
currently lose_sum: 0.4026135802268982
time_elpased: 0.963
#iterations: 296
currently lose_sum: 0.49588140845298767
time_elpased: 0.968
#iterations: 297
currently lose_sum: 0.4698552191257477
time_elpased: 0.939
#iterations: 298
currently lose_sum: 0.48843497037887573
time_elpased: 0.916
#iterations: 299
currently lose_sum: 0.47813311219215393
time_elpased: 0.94
start validation test
0.637820512821
0.768115942029
0.404066073698
0.529558701082
0.63993730593
28.701
#iterations: 300
currently lose_sum: 0.4645610451698303
time_elpased: 0.981
#iterations: 301
currently lose_sum: 0.5515000224113464
time_elpased: 0.945
#iterations: 302
currently lose_sum: 0.4968595504760742
time_elpased: 0.936
#iterations: 303
currently lose_sum: 0.5641505718231201
time_elpased: 0.951
#iterations: 304
currently lose_sum: 0.4404856562614441
time_elpased: 0.917
#iterations: 305
currently lose_sum: 0.41736871004104614
time_elpased: 0.912
#iterations: 306
currently lose_sum: 0.6759554147720337
time_elpased: 0.966
#iterations: 307
currently lose_sum: 0.4013500213623047
time_elpased: 0.923
#iterations: 308
currently lose_sum: 0.5160870552062988
time_elpased: 0.921
#iterations: 309
currently lose_sum: 0.4979756772518158
time_elpased: 0.921
#iterations: 310
currently lose_sum: 0.46853742003440857
time_elpased: 0.929
#iterations: 311
currently lose_sum: 0.6760373115539551
time_elpased: 0.922
#iterations: 312
currently lose_sum: 0.36743083596229553
time_elpased: 0.924
#iterations: 313
currently lose_sum: 0.3765943646430969
time_elpased: 0.936
#iterations: 314
currently lose_sum: 0.5691042542457581
time_elpased: 0.915
#iterations: 315
currently lose_sum: 0.4722197651863098
time_elpased: 0.95
#iterations: 316
currently lose_sum: 0.6186723113059998
time_elpased: 0.931
#iterations: 317
currently lose_sum: 0.4480668604373932
time_elpased: 0.929
#iterations: 318
currently lose_sum: 0.4356764256954193
time_elpased: 0.919
#iterations: 319
currently lose_sum: 0.4216073155403137
time_elpased: 0.926
start validation test
0.673717948718
0.680519480519
0.66581956798
0.673089274245
0.673789473511
24.714
#iterations: 320
currently lose_sum: 0.4008496403694153
time_elpased: 0.902
#iterations: 321
currently lose_sum: 0.4651859700679779
time_elpased: 0.937
#iterations: 322
currently lose_sum: 0.5107057690620422
time_elpased: 0.923
#iterations: 323
currently lose_sum: 0.4704975485801697
time_elpased: 0.913
#iterations: 324
currently lose_sum: 0.43913236260414124
time_elpased: 0.941
#iterations: 325
currently lose_sum: 0.4634610712528229
time_elpased: 0.949
#iterations: 326
currently lose_sum: 0.4404115080833435
time_elpased: 0.917
#iterations: 327
currently lose_sum: 0.3765236437320709
time_elpased: 0.936
#iterations: 328
currently lose_sum: 0.5464309453964233
time_elpased: 0.91
#iterations: 329
currently lose_sum: 0.6101567149162292
time_elpased: 0.943
#iterations: 330
currently lose_sum: 0.3448364734649658
time_elpased: 0.924
#iterations: 331
currently lose_sum: 0.38680893182754517
time_elpased: 0.918
#iterations: 332
currently lose_sum: 0.5920732617378235
time_elpased: 0.955
#iterations: 333
currently lose_sum: 0.5637547373771667
time_elpased: 0.906
#iterations: 334
currently lose_sum: 0.3370376229286194
time_elpased: 0.948
#iterations: 335
currently lose_sum: 0.4308021664619446
time_elpased: 0.94
#iterations: 336
currently lose_sum: 0.49707451462745667
time_elpased: 0.938
#iterations: 337
currently lose_sum: 0.3805869221687317
time_elpased: 0.971
#iterations: 338
currently lose_sum: 0.48068132996559143
time_elpased: 0.919
#iterations: 339
currently lose_sum: 0.6188149452209473
time_elpased: 0.949
start validation test
0.664743589744
0.712218649518
0.56289707751
0.628814762243
0.665665873813
25.743
#iterations: 340
currently lose_sum: 0.5427070260047913
time_elpased: 0.945
#iterations: 341
currently lose_sum: 0.5397760272026062
time_elpased: 0.913
#iterations: 342
currently lose_sum: 0.46185794472694397
time_elpased: 0.962
#iterations: 343
currently lose_sum: 0.5767455101013184
time_elpased: 0.923
#iterations: 344
currently lose_sum: 0.4411493241786957
time_elpased: 0.93
#iterations: 345
currently lose_sum: 0.40080729126930237
time_elpased: 0.963
#iterations: 346
currently lose_sum: 0.42870086431503296
time_elpased: 0.936
#iterations: 347
currently lose_sum: 0.5497631430625916
time_elpased: 0.94
#iterations: 348
currently lose_sum: 0.45254260301589966
time_elpased: 0.945
#iterations: 349
currently lose_sum: 0.4614926278591156
time_elpased: 0.911
#iterations: 350
currently lose_sum: 0.5312086343765259
time_elpased: 0.932
#iterations: 351
currently lose_sum: 0.3498954176902771
time_elpased: 0.972
#iterations: 352
currently lose_sum: 0.5185309648513794
time_elpased: 0.946
#iterations: 353
currently lose_sum: 0.4283779561519623
time_elpased: 0.91
#iterations: 354
currently lose_sum: 0.35646963119506836
time_elpased: 0.941
#iterations: 355
currently lose_sum: 0.33286935091018677
time_elpased: 0.942
#iterations: 356
currently lose_sum: 0.38724520802497864
time_elpased: 0.917
#iterations: 357
currently lose_sum: 0.4408474564552307
time_elpased: 0.931
#iterations: 358
currently lose_sum: 0.5396736860275269
time_elpased: 0.916
#iterations: 359
currently lose_sum: 0.4602833688259125
time_elpased: 0.93
start validation test
0.653205128205
0.712068965517
0.524777636595
0.604242867593
0.65436811972
26.726
#iterations: 360
currently lose_sum: 0.4261395335197449
time_elpased: 0.911
#iterations: 361
currently lose_sum: 0.4752798080444336
time_elpased: 0.954
#iterations: 362
currently lose_sum: 0.5414408445358276
time_elpased: 0.943
#iterations: 363
currently lose_sum: 0.442024290561676
time_elpased: 0.931
#iterations: 364
currently lose_sum: 0.5629949569702148
time_elpased: 0.916
#iterations: 365
currently lose_sum: 0.5162712931632996
time_elpased: 0.907
#iterations: 366
currently lose_sum: 0.4008590579032898
time_elpased: 0.934
#iterations: 367
currently lose_sum: 0.41683873534202576
time_elpased: 0.924
#iterations: 368
currently lose_sum: 0.47685450315475464
time_elpased: 0.932
#iterations: 369
currently lose_sum: 0.4745470881462097
time_elpased: 0.956
#iterations: 370
currently lose_sum: 0.378257155418396
time_elpased: 0.924
#iterations: 371
currently lose_sum: 0.4610491693019867
time_elpased: 0.934
#iterations: 372
currently lose_sum: 0.5221329927444458
time_elpased: 0.917
#iterations: 373
currently lose_sum: 0.3749491274356842
time_elpased: 0.912
#iterations: 374
currently lose_sum: 0.46884211897850037
time_elpased: 0.942
#iterations: 375
currently lose_sum: 0.5539474487304688
time_elpased: 0.952
#iterations: 376
currently lose_sum: 0.5047755241394043
time_elpased: 0.919
#iterations: 377
currently lose_sum: 0.6888116598129272
time_elpased: 0.927
#iterations: 378
currently lose_sum: 0.5708104968070984
time_elpased: 0.902
#iterations: 379
currently lose_sum: 0.4210921823978424
time_elpased: 0.911
start validation test
0.669230769231
0.711388455538
0.579415501906
0.638655462185
0.670044102829
26.598
#iterations: 380
currently lose_sum: 0.5190252065658569
time_elpased: 0.946
#iterations: 381
currently lose_sum: 0.42889681458473206
time_elpased: 0.931
#iterations: 382
currently lose_sum: 0.5869473218917847
time_elpased: 0.923
#iterations: 383
currently lose_sum: 0.40668272972106934
time_elpased: 0.925
#iterations: 384
currently lose_sum: 0.4647126793861389
time_elpased: 0.965
#iterations: 385
currently lose_sum: 0.27342861890792847
time_elpased: 0.915
#iterations: 386
currently lose_sum: 0.491983026266098
time_elpased: 0.917
#iterations: 387
currently lose_sum: 0.3921602666378021
time_elpased: 0.909
#iterations: 388
currently lose_sum: 0.46931037306785583
time_elpased: 0.911
#iterations: 389
currently lose_sum: 0.4083455204963684
time_elpased: 0.986
#iterations: 390
currently lose_sum: 0.5513383746147156
time_elpased: 0.959
#iterations: 391
currently lose_sum: 0.5224202275276184
time_elpased: 0.966
#iterations: 392
currently lose_sum: 0.3900681138038635
time_elpased: 0.961
#iterations: 393
currently lose_sum: 0.4604765772819519
time_elpased: 0.937
#iterations: 394
currently lose_sum: 0.3691883087158203
time_elpased: 0.929
#iterations: 395
currently lose_sum: 0.5170673131942749
time_elpased: 0.91
#iterations: 396
currently lose_sum: 0.4026075303554535
time_elpased: 0.93
#iterations: 397
currently lose_sum: 0.3221198320388794
time_elpased: 0.927
#iterations: 398
currently lose_sum: 0.41876858472824097
time_elpased: 0.928
#iterations: 399
currently lose_sum: 0.4179789423942566
time_elpased: 0.936
start validation test
0.660256410256
0.712396694215
0.547649301144
0.619252873563
0.661276138282
26.818
#iterations: 400
currently lose_sum: 0.4975620210170746
time_elpased: 0.968
#iterations: 401
currently lose_sum: 0.4921262860298157
time_elpased: 0.909
#iterations: 402
currently lose_sum: 0.5404314994812012
time_elpased: 0.931
#iterations: 403
currently lose_sum: 0.5539156794548035
time_elpased: 0.927
#iterations: 404
currently lose_sum: 0.40585193037986755
time_elpased: 0.949
#iterations: 405
currently lose_sum: 0.4294704794883728
time_elpased: 0.913
#iterations: 406
currently lose_sum: 0.4720239043235779
time_elpased: 0.913
#iterations: 407
currently lose_sum: 0.4600828289985657
time_elpased: 0.945
#iterations: 408
currently lose_sum: 0.5998291969299316
time_elpased: 0.942
#iterations: 409
currently lose_sum: 0.5161653757095337
time_elpased: 0.907
#iterations: 410
currently lose_sum: 0.562711238861084
time_elpased: 0.928
#iterations: 411
currently lose_sum: 0.48032960295677185
time_elpased: 0.931
#iterations: 412
currently lose_sum: 0.5752341151237488
time_elpased: 0.931
#iterations: 413
currently lose_sum: 0.40664905309677124
time_elpased: 0.948
#iterations: 414
currently lose_sum: 0.3362506926059723
time_elpased: 0.908
#iterations: 415
currently lose_sum: 0.45276910066604614
time_elpased: 0.93
#iterations: 416
currently lose_sum: 0.43496474623680115
time_elpased: 0.946
#iterations: 417
currently lose_sum: 0.2747143805027008
time_elpased: 0.916
#iterations: 418
currently lose_sum: 0.4708895683288574
time_elpased: 0.959
#iterations: 419
currently lose_sum: 0.4489721357822418
time_elpased: 0.919
start validation test
0.663461538462
0.707936507937
0.566709021601
0.629498941426
0.664337693207
26.814
#iterations: 420
currently lose_sum: 0.5500388741493225
time_elpased: 0.927
#iterations: 421
currently lose_sum: 0.31048107147216797
time_elpased: 0.93
#iterations: 422
currently lose_sum: 0.3903862237930298
time_elpased: 0.936
#iterations: 423
currently lose_sum: 0.5354231595993042
time_elpased: 0.932
#iterations: 424
currently lose_sum: 0.4024498462677002
time_elpased: 0.946
#iterations: 425
currently lose_sum: 0.5326966047286987
time_elpased: 0.941
#iterations: 426
currently lose_sum: 0.4392349123954773
time_elpased: 0.956
#iterations: 427
currently lose_sum: 0.46112746000289917
time_elpased: 0.923
#iterations: 428
currently lose_sum: 0.4118882715702057
time_elpased: 0.928
#iterations: 429
currently lose_sum: 0.45686715841293335
time_elpased: 0.915
#iterations: 430
currently lose_sum: 0.42025279998779297
time_elpased: 0.93
#iterations: 431
currently lose_sum: 0.5453460812568665
time_elpased: 0.931
#iterations: 432
currently lose_sum: 0.5386655330657959
time_elpased: 0.937
#iterations: 433
currently lose_sum: 0.530476450920105
time_elpased: 0.911
#iterations: 434
currently lose_sum: 0.41367626190185547
time_elpased: 0.914
#iterations: 435
currently lose_sum: 0.5423306226730347
time_elpased: 0.955
#iterations: 436
currently lose_sum: 0.5385953783988953
time_elpased: 0.933
#iterations: 437
currently lose_sum: 0.4482588768005371
time_elpased: 0.971
#iterations: 438
currently lose_sum: 0.44079264998435974
time_elpased: 0.919
#iterations: 439
currently lose_sum: 0.45585164427757263
time_elpased: 0.933
start validation test
0.655128205128
0.750503018109
0.473951715375
0.580996884735
0.656768871918
29.306
#iterations: 440
currently lose_sum: 0.4210371971130371
time_elpased: 0.949
#iterations: 441
currently lose_sum: 0.2747701108455658
time_elpased: 0.934
#iterations: 442
currently lose_sum: 0.5516993999481201
time_elpased: 0.927
#iterations: 443
currently lose_sum: 0.39568254351615906
time_elpased: 0.924
#iterations: 444
currently lose_sum: 0.5001937747001648
time_elpased: 0.935
#iterations: 445
currently lose_sum: 0.4546422064304352
time_elpased: 0.959
#iterations: 446
currently lose_sum: 0.6276839971542358
time_elpased: 0.919
#iterations: 447
currently lose_sum: 0.4060729146003723
time_elpased: 0.931
#iterations: 448
currently lose_sum: 0.414134681224823
time_elpased: 0.944
#iterations: 449
currently lose_sum: 0.411224901676178
time_elpased: 0.951
#iterations: 450
currently lose_sum: 0.35641998052597046
time_elpased: 0.938
#iterations: 451
currently lose_sum: 0.501714289188385
time_elpased: 0.959
#iterations: 452
currently lose_sum: 0.452248752117157
time_elpased: 0.945
#iterations: 453
currently lose_sum: 0.3045508861541748
time_elpased: 0.917
#iterations: 454
currently lose_sum: 0.3743242919445038
time_elpased: 0.955
#iterations: 455
currently lose_sum: 0.623243510723114
time_elpased: 0.926
#iterations: 456
currently lose_sum: 0.37422657012939453
time_elpased: 0.959
#iterations: 457
currently lose_sum: 0.4518612027168274
time_elpased: 0.946
#iterations: 458
currently lose_sum: 0.4225434362888336
time_elpased: 0.912
#iterations: 459
currently lose_sum: 0.36722350120544434
time_elpased: 0.921
start validation test
0.669871794872
0.696531791908
0.612452350699
0.651791751183
0.670391763965
26.472
#iterations: 460
currently lose_sum: 0.37053051590919495
time_elpased: 0.919
#iterations: 461
currently lose_sum: 0.5537413358688354
time_elpased: 0.919
#iterations: 462
currently lose_sum: 0.4526042938232422
time_elpased: 0.948
#iterations: 463
currently lose_sum: 0.47724589705467224
time_elpased: 0.909
#iterations: 464
currently lose_sum: 0.4269576072692871
time_elpased: 0.945
#iterations: 465
currently lose_sum: 0.41559749841690063
time_elpased: 0.947
#iterations: 466
currently lose_sum: 0.3320622742176056
time_elpased: 0.916
#iterations: 467
currently lose_sum: 0.3702763617038727
time_elpased: 0.949
#iterations: 468
currently lose_sum: 0.3628876805305481
time_elpased: 0.912
#iterations: 469
currently lose_sum: 0.43311548233032227
time_elpased: 0.968
#iterations: 470
currently lose_sum: 0.518163800239563
time_elpased: 0.939
#iterations: 471
currently lose_sum: 0.3520914614200592
time_elpased: 0.942
#iterations: 472
currently lose_sum: 0.4438445568084717
time_elpased: 0.94
#iterations: 473
currently lose_sum: 0.3810434639453888
time_elpased: 0.947
#iterations: 474
currently lose_sum: 0.46009284257888794
time_elpased: 0.905
#iterations: 475
currently lose_sum: 0.5000330805778503
time_elpased: 0.948
#iterations: 476
currently lose_sum: 0.3623606562614441
time_elpased: 0.931
#iterations: 477
currently lose_sum: 0.38248762488365173
time_elpased: 0.948
#iterations: 478
currently lose_sum: 0.5361703634262085
time_elpased: 0.919
#iterations: 479
currently lose_sum: 0.3914031684398651
time_elpased: 0.936
start validation test
0.675641025641
0.668263473054
0.709021601017
0.68803945746
0.675338743587
26.189
#iterations: 480
currently lose_sum: 0.3910904824733734
time_elpased: 0.927
#iterations: 481
currently lose_sum: 0.43249791860580444
time_elpased: 0.944
#iterations: 482
currently lose_sum: 0.603459894657135
time_elpased: 0.952
#iterations: 483
currently lose_sum: 0.4763029217720032
time_elpased: 0.933
#iterations: 484
currently lose_sum: 0.4504743218421936
time_elpased: 0.943
#iterations: 485
currently lose_sum: 0.3657805323600769
time_elpased: 0.913
#iterations: 486
currently lose_sum: 0.5306617617607117
time_elpased: 0.923
#iterations: 487
currently lose_sum: 0.7017647624015808
time_elpased: 0.935
#iterations: 488
currently lose_sum: 0.4193345904350281
time_elpased: 0.919
#iterations: 489
currently lose_sum: 0.3513377010822296
time_elpased: 0.925
#iterations: 490
currently lose_sum: 0.37590494751930237
time_elpased: 0.95
#iterations: 491
currently lose_sum: 0.4181443154811859
time_elpased: 0.949
#iterations: 492
currently lose_sum: 0.3233100175857544
time_elpased: 0.933
#iterations: 493
currently lose_sum: 0.5773190855979919
time_elpased: 0.935
#iterations: 494
currently lose_sum: 0.4806283116340637
time_elpased: 0.922
#iterations: 495
currently lose_sum: 0.35767245292663574
time_elpased: 0.924
#iterations: 496
currently lose_sum: 0.43560710549354553
time_elpased: 0.945
#iterations: 497
currently lose_sum: 0.3999752104282379
time_elpased: 0.961
#iterations: 498
currently lose_sum: 0.49442940950393677
time_elpased: 0.965
#iterations: 499
currently lose_sum: 0.4250902235507965
time_elpased: 0.931
start validation test
0.655128205128
0.756701030928
0.466327827192
0.577044025157
0.656837911009
29.073
#iterations: 500
currently lose_sum: 0.4884951710700989
time_elpased: 0.945
#iterations: 501
currently lose_sum: 0.37637633085250854
time_elpased: 0.914
#iterations: 502
currently lose_sum: 0.37355372309684753
time_elpased: 0.94
#iterations: 503
currently lose_sum: 0.47496628761291504
time_elpased: 0.943
#iterations: 504
currently lose_sum: 0.6565989255905151
time_elpased: 0.931
#iterations: 505
currently lose_sum: 0.4380694329738617
time_elpased: 0.943
#iterations: 506
currently lose_sum: 0.5213021039962769
time_elpased: 0.942
#iterations: 507
currently lose_sum: 0.5605648756027222
time_elpased: 0.92
#iterations: 508
currently lose_sum: 0.6044133901596069
time_elpased: 0.91
#iterations: 509
currently lose_sum: 0.5450329184532166
time_elpased: 0.943
#iterations: 510
currently lose_sum: 0.45558422803878784
time_elpased: 0.93
#iterations: 511
currently lose_sum: 0.6194714307785034
time_elpased: 0.917
#iterations: 512
currently lose_sum: 0.41093891859054565
time_elpased: 0.926
#iterations: 513
currently lose_sum: 0.3277135193347931
time_elpased: 0.921
#iterations: 514
currently lose_sum: 0.3933751583099365
time_elpased: 0.942
#iterations: 515
currently lose_sum: 0.38583463430404663
time_elpased: 0.934
#iterations: 516
currently lose_sum: 0.44022446870803833
time_elpased: 0.928
#iterations: 517
currently lose_sum: 0.38182538747787476
time_elpased: 0.971
#iterations: 518
currently lose_sum: 0.31869855523109436
time_elpased: 0.932
#iterations: 519
currently lose_sum: 0.40116530656814575
time_elpased: 0.933
start validation test
0.664743589744
0.70245398773
0.581956797967
0.636553161918
0.665493276086
27.510
#iterations: 520
currently lose_sum: 0.3324417769908905
time_elpased: 0.93
#iterations: 521
currently lose_sum: 0.380475252866745
time_elpased: 0.922
#iterations: 522
currently lose_sum: 0.5098112225532532
time_elpased: 0.952
#iterations: 523
currently lose_sum: 0.41667690873146057
time_elpased: 0.932
#iterations: 524
currently lose_sum: 0.44620227813720703
time_elpased: 0.917
#iterations: 525
currently lose_sum: 0.4380335807800293
time_elpased: 0.933
#iterations: 526
currently lose_sum: 0.44032764434814453
time_elpased: 0.913
#iterations: 527
currently lose_sum: 0.5426124334335327
time_elpased: 0.984
#iterations: 528
currently lose_sum: 0.3759716749191284
time_elpased: 0.919
#iterations: 529
currently lose_sum: 0.44222894310951233
time_elpased: 0.927
#iterations: 530
currently lose_sum: 0.4884379804134369
time_elpased: 0.931
#iterations: 531
currently lose_sum: 0.3792950510978699
time_elpased: 0.954
#iterations: 532
currently lose_sum: 0.42537957429885864
time_elpased: 0.937
#iterations: 533
currently lose_sum: 0.3512926995754242
time_elpased: 0.939
#iterations: 534
currently lose_sum: 0.48394671082496643
time_elpased: 0.956
#iterations: 535
currently lose_sum: 0.38149282336235046
time_elpased: 0.92
#iterations: 536
currently lose_sum: 0.41658201813697815
time_elpased: 0.906
#iterations: 537
currently lose_sum: 0.3411422371864319
time_elpased: 0.938
#iterations: 538
currently lose_sum: 0.3837757408618927
time_elpased: 0.918
#iterations: 539
currently lose_sum: 0.3632296919822693
time_elpased: 0.909
start validation test
0.662820512821
0.735985533454
0.517153748412
0.607462686567
0.664139616767
29.080
#iterations: 540
currently lose_sum: 0.37098029255867004
time_elpased: 0.95
#iterations: 541
currently lose_sum: 0.3348928391933441
time_elpased: 0.902
#iterations: 542
currently lose_sum: 0.4385982155799866
time_elpased: 0.939
#iterations: 543
currently lose_sum: 0.3496009409427643
time_elpased: 0.97
#iterations: 544
currently lose_sum: 0.5558953285217285
time_elpased: 0.91
#iterations: 545
currently lose_sum: 0.5167233347892761
time_elpased: 0.94
#iterations: 546
currently lose_sum: 0.4603070616722107
time_elpased: 0.928
#iterations: 547
currently lose_sum: 0.5470256209373474
time_elpased: 0.948
#iterations: 548
currently lose_sum: 0.3158220648765564
time_elpased: 0.949
#iterations: 549
currently lose_sum: 0.36879605054855347
time_elpased: 0.933
#iterations: 550
currently lose_sum: 0.4506058692932129
time_elpased: 0.931
#iterations: 551
currently lose_sum: 0.3192017674446106
time_elpased: 0.931
#iterations: 552
currently lose_sum: 0.4442320764064789
time_elpased: 0.941
#iterations: 553
currently lose_sum: 0.46717387437820435
time_elpased: 0.911
#iterations: 554
currently lose_sum: 0.3794012665748596
time_elpased: 0.938
#iterations: 555
currently lose_sum: 0.5510136485099792
time_elpased: 0.935
#iterations: 556
currently lose_sum: 0.392537385225296
time_elpased: 0.926
#iterations: 557
currently lose_sum: 0.3452816605567932
time_elpased: 0.931
#iterations: 558
currently lose_sum: 0.318875253200531
time_elpased: 0.92
#iterations: 559
currently lose_sum: 0.32205700874328613
time_elpased: 0.946
start validation test
0.669230769231
0.740674955595
0.529860228717
0.617777777778
0.67049285692
29.169
#iterations: 560
currently lose_sum: 0.4758429527282715
time_elpased: 0.929
#iterations: 561
currently lose_sum: 0.27209416031837463
time_elpased: 0.945
#iterations: 562
currently lose_sum: 0.4313379228115082
time_elpased: 0.994
#iterations: 563
currently lose_sum: 0.44732826948165894
time_elpased: 0.927
#iterations: 564
currently lose_sum: 0.4826226234436035
time_elpased: 0.915
#iterations: 565
currently lose_sum: 0.4173859655857086
time_elpased: 0.923
#iterations: 566
currently lose_sum: 0.35437262058258057
time_elpased: 0.973
#iterations: 567
currently lose_sum: 0.456472247838974
time_elpased: 0.939
#iterations: 568
currently lose_sum: 0.4708135724067688
time_elpased: 0.934
#iterations: 569
currently lose_sum: 0.4288264214992523
time_elpased: 0.922
#iterations: 570
currently lose_sum: 0.39455264806747437
time_elpased: 0.92
#iterations: 571
currently lose_sum: 0.5517122149467468
time_elpased: 0.931
#iterations: 572
currently lose_sum: 0.3758789002895355
time_elpased: 0.945
#iterations: 573
currently lose_sum: 0.4542028307914734
time_elpased: 0.926
#iterations: 574
currently lose_sum: 0.5075111389160156
time_elpased: 0.96
#iterations: 575
currently lose_sum: 0.44494113326072693
time_elpased: 0.933
#iterations: 576
currently lose_sum: 0.3461790084838867
time_elpased: 0.954
#iterations: 577
currently lose_sum: 0.3081972002983093
time_elpased: 0.912
#iterations: 578
currently lose_sum: 0.38214558362960815
time_elpased: 0.917
#iterations: 579
currently lose_sum: 0.4029599130153656
time_elpased: 0.903
start validation test
0.660897435897
0.706730769231
0.560355781449
0.625088589653
0.661807903661
28.178
#iterations: 580
currently lose_sum: 0.38534724712371826
time_elpased: 0.915
#iterations: 581
currently lose_sum: 0.37184351682662964
time_elpased: 0.937
#iterations: 582
currently lose_sum: 0.3899245858192444
time_elpased: 0.944
#iterations: 583
currently lose_sum: 0.5532292127609253
time_elpased: 0.928
#iterations: 584
currently lose_sum: 0.3728995621204376
time_elpased: 0.972
#iterations: 585
currently lose_sum: 0.3641568720340729
time_elpased: 0.948
#iterations: 586
currently lose_sum: 0.45639675855636597
time_elpased: 0.948
#iterations: 587
currently lose_sum: 0.4286624789237976
time_elpased: 0.945
#iterations: 588
currently lose_sum: 0.31060585379600525
time_elpased: 0.916
#iterations: 589
currently lose_sum: 0.4780372679233551
time_elpased: 0.907
#iterations: 590
currently lose_sum: 0.515487015247345
time_elpased: 0.914
#iterations: 591
currently lose_sum: 0.28943997621536255
time_elpased: 0.921
#iterations: 592
currently lose_sum: 0.342168390750885
time_elpased: 0.946
#iterations: 593
currently lose_sum: 0.5747016072273254
time_elpased: 0.92
#iterations: 594
currently lose_sum: 0.4743173122406006
time_elpased: 0.932
#iterations: 595
currently lose_sum: 0.4993342459201813
time_elpased: 0.941
#iterations: 596
currently lose_sum: 0.5971478223800659
time_elpased: 0.921
#iterations: 597
currently lose_sum: 0.34182220697402954
time_elpased: 0.912
#iterations: 598
currently lose_sum: 0.5919352769851685
time_elpased: 0.968
#iterations: 599
currently lose_sum: 0.3876902163028717
time_elpased: 0.92
start validation test
0.646794871795
0.728682170543
0.477763659466
0.577129700691
0.648325555477
29.381
acc: 0.687
pre: 0.700
rec: 0.660
F1: 0.680
auc: 0.687
