start to construct computing graph
graph construct over
2361
epochs start
#iterations: 0
currently lose_sum: 0.7046312093734741
time_elpased: 5.394
#iterations: 1
currently lose_sum: 0.7289573550224304
time_elpased: 5.38
#iterations: 2
currently lose_sum: 0.6962685585021973
time_elpased: 5.356
#iterations: 3
currently lose_sum: 0.6687448620796204
time_elpased: 5.369
#iterations: 4
currently lose_sum: 0.6650869250297546
time_elpased: 5.302
#iterations: 5
currently lose_sum: 0.6914947628974915
time_elpased: 5.364
#iterations: 6
currently lose_sum: 0.7002698183059692
time_elpased: 5.406
#iterations: 7
currently lose_sum: 0.70606529712677
time_elpased: 5.347
#iterations: 8
currently lose_sum: 0.694930911064148
time_elpased: 5.334
#iterations: 9
currently lose_sum: 0.6929465532302856
time_elpased: 5.374
#iterations: 10
currently lose_sum: 0.6723524928092957
time_elpased: 5.313
#iterations: 11
currently lose_sum: 0.6566065549850464
time_elpased: 5.309
#iterations: 12
currently lose_sum: 0.7031641602516174
time_elpased: 5.38
#iterations: 13
currently lose_sum: 0.7052183151245117
time_elpased: 5.418
#iterations: 14
currently lose_sum: 0.6985167264938354
time_elpased: 5.437
#iterations: 15
currently lose_sum: 0.6570192575454712
time_elpased: 5.353
#iterations: 16
currently lose_sum: 0.6382684707641602
time_elpased: 5.319
#iterations: 17
currently lose_sum: 0.6871300935745239
time_elpased: 5.389
#iterations: 18
currently lose_sum: 0.6694838404655457
time_elpased: 5.328
#iterations: 19
currently lose_sum: 0.7008036375045776
time_elpased: 5.345
start validation test
0.562179487179
0.550539744848
0.713740458015
0.621606648199
0.561004595933
26.397
#iterations: 20
currently lose_sum: 0.6710141897201538
time_elpased: 5.169
#iterations: 21
currently lose_sum: 0.6475806832313538
time_elpased: 5.196
#iterations: 22
currently lose_sum: 0.6113941073417664
time_elpased: 5.203
#iterations: 23
currently lose_sum: 0.6996515989303589
time_elpased: 5.173
#iterations: 24
currently lose_sum: 0.7570899724960327
time_elpased: 5.193
#iterations: 25
currently lose_sum: 0.7561810612678528
time_elpased: 5.176
#iterations: 26
currently lose_sum: 0.711094856262207
time_elpased: 5.192
#iterations: 27
currently lose_sum: 0.6644996404647827
time_elpased: 5.224
#iterations: 28
currently lose_sum: 0.6230864524841309
time_elpased: 5.137
#iterations: 29
currently lose_sum: 0.6923362016677856
time_elpased: 5.133
#iterations: 30
currently lose_sum: 0.6554123163223267
time_elpased: 5.201
#iterations: 31
currently lose_sum: 0.6834455728530884
time_elpased: 5.203
#iterations: 32
currently lose_sum: 0.6238479614257812
time_elpased: 5.183
#iterations: 33
currently lose_sum: 0.617841899394989
time_elpased: 5.166
#iterations: 34
currently lose_sum: 0.6849092245101929
time_elpased: 5.183
#iterations: 35
currently lose_sum: 0.6294689178466797
time_elpased: 5.205
#iterations: 36
currently lose_sum: 0.6799985766410828
time_elpased: 5.182
#iterations: 37
currently lose_sum: 0.6810946464538574
time_elpased: 5.168
#iterations: 38
currently lose_sum: 0.6547075510025024
time_elpased: 5.154
#iterations: 39
currently lose_sum: 0.6634214520454407
time_elpased: 5.135
start validation test
0.624358974359
0.646627565982
0.56106870229
0.600817438692
0.624849596623
25.369
#iterations: 40
currently lose_sum: 0.6528140902519226
time_elpased: 5.185
#iterations: 41
currently lose_sum: 0.6871063113212585
time_elpased: 5.129
#iterations: 42
currently lose_sum: 0.7083407640457153
time_elpased: 5.163
#iterations: 43
currently lose_sum: 0.6962995529174805
time_elpased: 5.115
#iterations: 44
currently lose_sum: 0.6716750264167786
time_elpased: 5.194
#iterations: 45
currently lose_sum: 0.6255772709846497
time_elpased: 5.203
#iterations: 46
currently lose_sum: 0.6329320073127747
time_elpased: 5.167
#iterations: 47
currently lose_sum: 0.5747288465499878
time_elpased: 5.185
#iterations: 48
currently lose_sum: 0.5389828681945801
time_elpased: 5.136
#iterations: 49
currently lose_sum: 0.6221965551376343
time_elpased: 5.303
#iterations: 50
currently lose_sum: 0.627072811126709
time_elpased: 5.21
#iterations: 51
currently lose_sum: 0.4761166572570801
time_elpased: 5.137
#iterations: 52
currently lose_sum: 0.5657744407653809
time_elpased: 5.165
#iterations: 53
currently lose_sum: 0.5493680238723755
time_elpased: 5.161
#iterations: 54
currently lose_sum: 0.5794025659561157
time_elpased: 5.175
#iterations: 55
currently lose_sum: 0.505260169506073
time_elpased: 5.204
#iterations: 56
currently lose_sum: 0.6196651458740234
time_elpased: 5.166
#iterations: 57
currently lose_sum: 0.6299231648445129
time_elpased: 5.209
#iterations: 58
currently lose_sum: 0.5851685404777527
time_elpased: 5.199
#iterations: 59
currently lose_sum: 0.6399401426315308
time_elpased: 5.221
start validation test
0.644230769231
0.621707060063
0.750636132316
0.680115273775
0.643405921455
25.339
#iterations: 60
currently lose_sum: 0.4693163335323334
time_elpased: 5.194
#iterations: 61
currently lose_sum: 0.686593234539032
time_elpased: 5.124
#iterations: 62
currently lose_sum: 0.47703686356544495
time_elpased: 5.16
#iterations: 63
currently lose_sum: 0.6308155059814453
time_elpased: 5.126
#iterations: 64
currently lose_sum: 0.5753186941146851
time_elpased: 5.168
#iterations: 65
currently lose_sum: 0.5783451199531555
time_elpased: 5.202
#iterations: 66
currently lose_sum: 0.6909912824630737
time_elpased: 5.19
#iterations: 67
currently lose_sum: 0.45337146520614624
time_elpased: 5.193
#iterations: 68
currently lose_sum: 0.5883771181106567
time_elpased: 5.16
#iterations: 69
currently lose_sum: 0.557731032371521
time_elpased: 5.172
#iterations: 70
currently lose_sum: 0.4393097758293152
time_elpased: 5.157
#iterations: 71
currently lose_sum: 0.708141028881073
time_elpased: 5.145
#iterations: 72
currently lose_sum: 0.6845423579216003
time_elpased: 5.134
#iterations: 73
currently lose_sum: 0.5316947102546692
time_elpased: 5.108
#iterations: 74
currently lose_sum: 0.596221923828125
time_elpased: 5.174
#iterations: 75
currently lose_sum: 0.5804198980331421
time_elpased: 5.169
#iterations: 76
currently lose_sum: 0.46329718828201294
time_elpased: 5.209
#iterations: 77
currently lose_sum: 0.4835783541202545
time_elpased: 5.195
#iterations: 78
currently lose_sum: 0.5978628396987915
time_elpased: 5.126
#iterations: 79
currently lose_sum: 0.528287410736084
time_elpased: 5.159
start validation test
0.657692307692
0.676470588235
0.614503816794
0.644
0.658027102195
24.178
#iterations: 80
currently lose_sum: 0.6249153017997742
time_elpased: 5.11
#iterations: 81
currently lose_sum: 0.5082272291183472
time_elpased: 5.134
#iterations: 82
currently lose_sum: 0.6021344065666199
time_elpased: 5.182
#iterations: 83
currently lose_sum: 0.5323542356491089
time_elpased: 5.267
#iterations: 84
currently lose_sum: 0.559032678604126
time_elpased: 5.163
#iterations: 85
currently lose_sum: 0.500751793384552
time_elpased: 5.227
#iterations: 86
currently lose_sum: 0.45314568281173706
time_elpased: 5.251
#iterations: 87
currently lose_sum: 0.7948523759841919
time_elpased: 5.156
#iterations: 88
currently lose_sum: 0.6370121836662292
time_elpased: 5.172
#iterations: 89
currently lose_sum: 0.5568520426750183
time_elpased: 5.229
#iterations: 90
currently lose_sum: 0.62748783826828
time_elpased: 5.131
#iterations: 91
currently lose_sum: 0.560089111328125
time_elpased: 5.161
#iterations: 92
currently lose_sum: 0.4803084433078766
time_elpased: 5.089
#iterations: 93
currently lose_sum: 0.5601425170898438
time_elpased: 5.118
#iterations: 94
currently lose_sum: 0.5805733799934387
time_elpased: 5.133
#iterations: 95
currently lose_sum: 0.6656006574630737
time_elpased: 5.147
#iterations: 96
currently lose_sum: 0.6379782557487488
time_elpased: 5.13
#iterations: 97
currently lose_sum: 0.6198397874832153
time_elpased: 5.245
#iterations: 98
currently lose_sum: 0.5566698312759399
time_elpased: 5.2
#iterations: 99
currently lose_sum: 0.7799538373947144
time_elpased: 5.132
start validation test
0.669230769231
0.671319796954
0.673027989822
0.672172808132
0.669201333412
25.243
#iterations: 100
currently lose_sum: 0.48596590757369995
time_elpased: 5.172
#iterations: 101
currently lose_sum: 0.4719974398612976
time_elpased: 5.178
#iterations: 102
currently lose_sum: 0.5225318670272827
time_elpased: 5.161
#iterations: 103
currently lose_sum: 0.541124701499939
time_elpased: 5.12
#iterations: 104
currently lose_sum: 0.6314007043838501
time_elpased: 5.177
#iterations: 105
currently lose_sum: 0.46112003922462463
time_elpased: 5.144
#iterations: 106
currently lose_sum: 0.4966883659362793
time_elpased: 5.136
#iterations: 107
currently lose_sum: 0.5262869000434875
time_elpased: 5.157
#iterations: 108
currently lose_sum: 0.5318245887756348
time_elpased: 5.147
#iterations: 109
currently lose_sum: 0.47366923093795776
time_elpased: 5.156
#iterations: 110
currently lose_sum: 0.4721710681915283
time_elpased: 5.158
#iterations: 111
currently lose_sum: 0.5552529096603394
time_elpased: 5.188
#iterations: 112
currently lose_sum: 0.5228326916694641
time_elpased: 5.186
#iterations: 113
currently lose_sum: 0.6715680360794067
time_elpased: 5.15
#iterations: 114
currently lose_sum: 0.46258944272994995
time_elpased: 5.161
#iterations: 115
currently lose_sum: 0.46369656920433044
time_elpased: 5.21
#iterations: 116
currently lose_sum: 0.47244778275489807
time_elpased: 5.168
#iterations: 117
currently lose_sum: 0.5177053213119507
time_elpased: 5.157
#iterations: 118
currently lose_sum: 0.5048094987869263
time_elpased: 5.147
#iterations: 119
currently lose_sum: 0.35104984045028687
time_elpased: 5.122
start validation test
0.683974358974
0.732909379968
0.586513994911
0.651590106007
0.684729865673
25.600
#iterations: 120
currently lose_sum: 0.5234848856925964
time_elpased: 5.128
#iterations: 121
currently lose_sum: 0.5308935046195984
time_elpased: 5.141
#iterations: 122
currently lose_sum: 0.40359726548194885
time_elpased: 5.162
#iterations: 123
currently lose_sum: 0.5730596780776978
time_elpased: 5.211
#iterations: 124
currently lose_sum: 0.41469183564186096
time_elpased: 5.197
#iterations: 125
currently lose_sum: 0.4485471844673157
time_elpased: 5.142
#iterations: 126
currently lose_sum: 0.5357339382171631
time_elpased: 5.285
#iterations: 127
currently lose_sum: 0.46711188554763794
time_elpased: 5.156
#iterations: 128
currently lose_sum: 0.4676005244255066
time_elpased: 5.103
#iterations: 129
currently lose_sum: 0.4767374098300934
time_elpased: 5.141
#iterations: 130
currently lose_sum: 0.5983760356903076
time_elpased: 5.2
#iterations: 131
currently lose_sum: 0.5045859217643738
time_elpased: 5.137
#iterations: 132
currently lose_sum: 0.5617071986198425
time_elpased: 5.161
#iterations: 133
currently lose_sum: 0.3718958795070648
time_elpased: 5.157
#iterations: 134
currently lose_sum: 0.651195764541626
time_elpased: 5.139
#iterations: 135
currently lose_sum: 0.41476812958717346
time_elpased: 5.127
#iterations: 136
currently lose_sum: 0.4175663888454437
time_elpased: 5.154
#iterations: 137
currently lose_sum: 0.5226203203201294
time_elpased: 5.14
#iterations: 138
currently lose_sum: 0.5491342544555664
time_elpased: 5.147
#iterations: 139
currently lose_sum: 0.4396652281284332
time_elpased: 5.173
start validation test
0.662179487179
0.776119402985
0.4631043257
0.580079681275
0.663722705486
27.026
#iterations: 140
currently lose_sum: 0.5169174671173096
time_elpased: 5.228
#iterations: 141
currently lose_sum: 0.4490370750427246
time_elpased: 5.186
#iterations: 142
currently lose_sum: 0.7318904399871826
time_elpased: 5.135
#iterations: 143
currently lose_sum: 0.45249271392822266
time_elpased: 5.176
#iterations: 144
currently lose_sum: 0.4365462362766266
time_elpased: 5.201
#iterations: 145
currently lose_sum: 0.4593197703361511
time_elpased: 5.18
#iterations: 146
currently lose_sum: 0.4188389182090759
time_elpased: 5.156
#iterations: 147
currently lose_sum: 0.6516711115837097
time_elpased: 5.141
#iterations: 148
currently lose_sum: 0.5545679330825806
time_elpased: 5.166
#iterations: 149
currently lose_sum: 0.6402723789215088
time_elpased: 5.14
#iterations: 150
currently lose_sum: 0.37121400237083435
time_elpased: 5.129
#iterations: 151
currently lose_sum: 0.45346516370773315
time_elpased: 5.182
#iterations: 152
currently lose_sum: 0.47084641456604004
time_elpased: 5.177
#iterations: 153
currently lose_sum: 0.35867229104042053
time_elpased: 5.144
#iterations: 154
currently lose_sum: 0.6010649800300598
time_elpased: 5.214
#iterations: 155
currently lose_sum: 0.5397478938102722
time_elpased: 5.147
#iterations: 156
currently lose_sum: 0.5697449445724487
time_elpased: 5.221
#iterations: 157
currently lose_sum: 0.4871850907802582
time_elpased: 5.136
#iterations: 158
currently lose_sum: 0.44200628995895386
time_elpased: 5.212
#iterations: 159
currently lose_sum: 0.47873935103416443
time_elpased: 5.219
start validation test
0.672435897436
0.663107947805
0.711195928753
0.686310620012
0.672135432077
26.782
#iterations: 160
currently lose_sum: 0.445183128118515
time_elpased: 5.147
#iterations: 161
currently lose_sum: 0.7408260107040405
time_elpased: 5.209
#iterations: 162
currently lose_sum: 0.4717642664909363
time_elpased: 5.118
#iterations: 163
currently lose_sum: 0.5416922569274902
time_elpased: 5.197
#iterations: 164
currently lose_sum: 0.43042221665382385
time_elpased: 5.116
#iterations: 165
currently lose_sum: 0.44125357270240784
time_elpased: 5.098
#iterations: 166
currently lose_sum: 0.5054359436035156
time_elpased: 5.13
#iterations: 167
currently lose_sum: 0.4105728566646576
time_elpased: 5.176
#iterations: 168
currently lose_sum: 0.6034983396530151
time_elpased: 5.253
#iterations: 169
currently lose_sum: 0.29947105050086975
time_elpased: 5.124
#iterations: 170
currently lose_sum: 0.519297182559967
time_elpased: 5.142
#iterations: 171
currently lose_sum: 0.39050933718681335
time_elpased: 5.167
#iterations: 172
currently lose_sum: 0.31855854392051697
time_elpased: 5.118
#iterations: 173
currently lose_sum: 0.46896830201148987
time_elpased: 5.159
#iterations: 174
currently lose_sum: 0.38366252183914185
time_elpased: 5.123
#iterations: 175
currently lose_sum: 0.5714285373687744
time_elpased: 5.101
#iterations: 176
currently lose_sum: 0.5986488461494446
time_elpased: 5.118
#iterations: 177
currently lose_sum: 0.636445164680481
time_elpased: 5.211
#iterations: 178
currently lose_sum: 0.4774816930294037
time_elpased: 5.144
#iterations: 179
currently lose_sum: 0.4905361533164978
time_elpased: 5.201
start validation test
0.682692307692
0.747870528109
0.558524173028
0.639475600874
0.683654851372
24.569
#iterations: 180
currently lose_sum: 0.3851936459541321
time_elpased: 5.19
#iterations: 181
currently lose_sum: 0.3933352828025818
time_elpased: 5.189
#iterations: 182
currently lose_sum: 0.43505603075027466
time_elpased: 5.133
#iterations: 183
currently lose_sum: 0.5198593139648438
time_elpased: 5.147
#iterations: 184
currently lose_sum: 0.5872904062271118
time_elpased: 5.166
#iterations: 185
currently lose_sum: 0.3810407519340515
time_elpased: 5.157
#iterations: 186
currently lose_sum: 0.46781739592552185
time_elpased: 5.149
#iterations: 187
currently lose_sum: 0.5070222616195679
time_elpased: 5.14
#iterations: 188
currently lose_sum: 0.5742476582527161
time_elpased: 5.176
#iterations: 189
currently lose_sum: 0.38228803873062134
time_elpased: 5.155
#iterations: 190
currently lose_sum: 0.5203344225883484
time_elpased: 5.157
#iterations: 191
currently lose_sum: 0.5638511776924133
time_elpased: 5.116
#iterations: 192
currently lose_sum: 0.6406469941139221
time_elpased: 5.149
#iterations: 193
currently lose_sum: 0.5936897993087769
time_elpased: 5.174
#iterations: 194
currently lose_sum: 0.3145159184932709
time_elpased: 5.194
#iterations: 195
currently lose_sum: 0.44778355956077576
time_elpased: 5.161
#iterations: 196
currently lose_sum: 0.4111863672733307
time_elpased: 5.124
#iterations: 197
currently lose_sum: 0.5890081524848938
time_elpased: 5.174
#iterations: 198
currently lose_sum: 0.4414960443973541
time_elpased: 5.113
#iterations: 199
currently lose_sum: 0.42758625745773315
time_elpased: 5.139
start validation test
0.653205128205
0.771618625277
0.442748091603
0.562651576395
0.654836578101
26.025
#iterations: 200
currently lose_sum: 0.4919351637363434
time_elpased: 5.23
#iterations: 201
currently lose_sum: 0.4345119893550873
time_elpased: 5.156
#iterations: 202
currently lose_sum: 0.49836406111717224
time_elpased: 5.119
#iterations: 203
currently lose_sum: 0.5439719557762146
time_elpased: 5.153
#iterations: 204
currently lose_sum: 0.49581465125083923
time_elpased: 5.165
#iterations: 205
currently lose_sum: 0.5385136008262634
time_elpased: 5.174
#iterations: 206
currently lose_sum: 0.44828587770462036
time_elpased: 5.103
#iterations: 207
currently lose_sum: 0.6008206605911255
time_elpased: 5.153
#iterations: 208
currently lose_sum: 0.4667991101741791
time_elpased: 5.155
#iterations: 209
currently lose_sum: 0.5782736539840698
time_elpased: 5.164
#iterations: 210
currently lose_sum: 0.40190014243125916
time_elpased: 5.159
#iterations: 211
currently lose_sum: 0.7288541793823242
time_elpased: 5.169
#iterations: 212
currently lose_sum: 0.5401642918586731
time_elpased: 5.167
#iterations: 213
currently lose_sum: 0.35501763224601746
time_elpased: 5.156
#iterations: 214
currently lose_sum: 0.4515082836151123
time_elpased: 5.141
#iterations: 215
currently lose_sum: 0.2972438633441925
time_elpased: 5.144
#iterations: 216
currently lose_sum: 0.4196624755859375
time_elpased: 5.111
#iterations: 217
currently lose_sum: 0.31565946340560913
time_elpased: 5.184
#iterations: 218
currently lose_sum: 0.4039125442504883
time_elpased: 5.107
#iterations: 219
currently lose_sum: 0.5687486529350281
time_elpased: 5.181
start validation test
0.68141025641
0.744500846024
0.559796437659
0.639070442992
0.682352999191
25.884
#iterations: 220
currently lose_sum: 0.41680774092674255
time_elpased: 5.146
#iterations: 221
currently lose_sum: 0.4460083842277527
time_elpased: 5.139
#iterations: 222
currently lose_sum: 0.3573835492134094
time_elpased: 5.157
#iterations: 223
currently lose_sum: 0.45948392152786255
time_elpased: 5.109
#iterations: 224
currently lose_sum: 0.5193421244621277
time_elpased: 5.157
#iterations: 225
currently lose_sum: 0.39457637071609497
time_elpased: 5.204
#iterations: 226
currently lose_sum: 0.35367459058761597
time_elpased: 5.19
#iterations: 227
currently lose_sum: 0.5350226759910583
time_elpased: 5.178
#iterations: 228
currently lose_sum: 0.48852434754371643
time_elpased: 5.205
#iterations: 229
currently lose_sum: 0.2839316725730896
time_elpased: 5.111
#iterations: 230
currently lose_sum: 0.30676406621932983
time_elpased: 5.117
#iterations: 231
currently lose_sum: 0.4522138237953186
time_elpased: 5.15
#iterations: 232
currently lose_sum: 0.3745751976966858
time_elpased: 5.151
#iterations: 233
currently lose_sum: 0.6228635311126709
time_elpased: 5.161
#iterations: 234
currently lose_sum: 0.35227304697036743
time_elpased: 5.164
#iterations: 235
currently lose_sum: 0.45610079169273376
time_elpased: 5.159
#iterations: 236
currently lose_sum: 0.48398900032043457
time_elpased: 5.183
#iterations: 237
currently lose_sum: 0.5936411619186401
time_elpased: 5.225
#iterations: 238
currently lose_sum: 0.4105736315250397
time_elpased: 5.154
#iterations: 239
currently lose_sum: 0.4444185197353363
time_elpased: 5.237
start validation test
0.68141025641
0.679058240397
0.697201017812
0.688010043942
0.681287847407
25.711
#iterations: 240
currently lose_sum: 0.5682342648506165
time_elpased: 5.119
#iterations: 241
currently lose_sum: 0.39343976974487305
time_elpased: 5.138
#iterations: 242
currently lose_sum: 0.47540226578712463
time_elpased: 5.082
#iterations: 243
currently lose_sum: 0.4923523962497711
time_elpased: 5.19
#iterations: 244
currently lose_sum: 0.42033472657203674
time_elpased: 5.132
#iterations: 245
currently lose_sum: 0.6718831062316895
time_elpased: 5.148
#iterations: 246
currently lose_sum: 0.3350611627101898
time_elpased: 5.151
#iterations: 247
currently lose_sum: 0.279249370098114
time_elpased: 5.12
#iterations: 248
currently lose_sum: 0.4421769976615906
time_elpased: 5.119
#iterations: 249
currently lose_sum: 0.3619190752506256
time_elpased: 5.143
#iterations: 250
currently lose_sum: 0.397538959980011
time_elpased: 5.185
#iterations: 251
currently lose_sum: 0.35151371359825134
time_elpased: 5.103
#iterations: 252
currently lose_sum: 0.2745150625705719
time_elpased: 5.139
#iterations: 253
currently lose_sum: 0.4206003248691559
time_elpased: 5.188
#iterations: 254
currently lose_sum: 0.47138434648513794
time_elpased: 5.21
#iterations: 255
currently lose_sum: 0.2895122170448303
time_elpased: 5.165
#iterations: 256
currently lose_sum: 0.35652029514312744
time_elpased: 5.13
#iterations: 257
currently lose_sum: 0.4347209930419922
time_elpased: 5.205
#iterations: 258
currently lose_sum: 0.4118313193321228
time_elpased: 5.146
#iterations: 259
currently lose_sum: 0.2891789376735687
time_elpased: 5.132
start validation test
0.659615384615
0.829457364341
0.408396946565
0.547314578005
0.661562814368
31.759
#iterations: 260
currently lose_sum: 0.2876952290534973
time_elpased: 5.123
#iterations: 261
currently lose_sum: 0.5071490406990051
time_elpased: 5.107
#iterations: 262
currently lose_sum: 0.3081783056259155
time_elpased: 5.195
#iterations: 263
currently lose_sum: 0.4060309827327728
time_elpased: 5.218
#iterations: 264
currently lose_sum: 0.3414470851421356
time_elpased: 5.153
#iterations: 265
currently lose_sum: 0.3876393437385559
time_elpased: 5.149
#iterations: 266
currently lose_sum: 0.346233069896698
time_elpased: 5.177
#iterations: 267
currently lose_sum: 0.5250858068466187
time_elpased: 5.171
#iterations: 268
currently lose_sum: 0.323556512594223
time_elpased: 5.144
#iterations: 269
currently lose_sum: 0.33722367882728577
time_elpased: 5.129
#iterations: 270
currently lose_sum: 0.4768860936164856
time_elpased: 5.16
#iterations: 271
currently lose_sum: 0.3281860947608948
time_elpased: 5.183
#iterations: 272
currently lose_sum: 0.6459067463874817
time_elpased: 5.202
#iterations: 273
currently lose_sum: 0.3902915418148041
time_elpased: 5.254
#iterations: 274
currently lose_sum: 0.41694220900535583
time_elpased: 5.177
#iterations: 275
currently lose_sum: 0.4253219962120056
time_elpased: 5.119
#iterations: 276
currently lose_sum: 0.5748804211616516
time_elpased: 5.174
#iterations: 277
currently lose_sum: 0.31387144327163696
time_elpased: 5.095
#iterations: 278
currently lose_sum: 0.27096328139305115
time_elpased: 5.152
#iterations: 279
currently lose_sum: 0.5645850300788879
time_elpased: 5.111
start validation test
0.64358974359
0.834302325581
0.365139949109
0.50796460177
0.645748269128
37.026
#iterations: 280
currently lose_sum: 0.36679717898368835
time_elpased: 5.217
#iterations: 281
currently lose_sum: 0.4285374581813812
time_elpased: 5.177
#iterations: 282
currently lose_sum: 0.38686585426330566
time_elpased: 5.125
#iterations: 283
currently lose_sum: 0.34831663966178894
time_elpased: 5.16
#iterations: 284
currently lose_sum: 0.569373607635498
time_elpased: 5.208
#iterations: 285
currently lose_sum: 0.3082602024078369
time_elpased: 5.129
#iterations: 286
currently lose_sum: 0.2877286374568939
time_elpased: 5.186
#iterations: 287
currently lose_sum: 0.3413600027561188
time_elpased: 5.131
#iterations: 288
currently lose_sum: 0.5418384671211243
time_elpased: 5.16
#iterations: 289
currently lose_sum: 0.40909069776535034
time_elpased: 5.21
#iterations: 290
currently lose_sum: 0.40141987800598145
time_elpased: 5.118
#iterations: 291
currently lose_sum: 0.6078165769577026
time_elpased: 5.158
#iterations: 292
currently lose_sum: 0.5015013217926025
time_elpased: 5.112
#iterations: 293
currently lose_sum: 0.37587639689445496
time_elpased: 5.14
#iterations: 294
currently lose_sum: 0.46446508169174194
time_elpased: 5.124
#iterations: 295
currently lose_sum: 0.35578247904777527
time_elpased: 5.155
#iterations: 296
currently lose_sum: 0.40886908769607544
time_elpased: 5.152
#iterations: 297
currently lose_sum: 0.43494486808776855
time_elpased: 5.169
#iterations: 298
currently lose_sum: 0.4324410855770111
time_elpased: 5.135
#iterations: 299
currently lose_sum: 0.37093687057495117
time_elpased: 5.116
start validation test
0.686538461538
0.69826435247
0.665394402036
0.681433224756
0.686702368976
29.520
#iterations: 300
currently lose_sum: 0.31639188528060913
time_elpased: 5.156
#iterations: 301
currently lose_sum: 0.3696081340312958
time_elpased: 5.184
#iterations: 302
currently lose_sum: 0.2513193190097809
time_elpased: 5.154
#iterations: 303
currently lose_sum: 0.3731057941913605
time_elpased: 5.198
#iterations: 304
currently lose_sum: 0.2892584204673767
time_elpased: 5.16
#iterations: 305
currently lose_sum: 0.26168304681777954
time_elpased: 5.198
#iterations: 306
currently lose_sum: 0.2642943263053894
time_elpased: 5.139
#iterations: 307
currently lose_sum: 0.5380330085754395
time_elpased: 5.136
#iterations: 308
currently lose_sum: 0.2697080671787262
time_elpased: 5.128
#iterations: 309
currently lose_sum: 0.40498581528663635
time_elpased: 5.192
#iterations: 310
currently lose_sum: 0.4671023488044739
time_elpased: 5.214
#iterations: 311
currently lose_sum: 0.41717129945755005
time_elpased: 5.124
#iterations: 312
currently lose_sum: 0.3582242727279663
time_elpased: 5.099
#iterations: 313
currently lose_sum: 0.38754406571388245
time_elpased: 5.142
#iterations: 314
currently lose_sum: 0.5806775093078613
time_elpased: 5.137
#iterations: 315
currently lose_sum: 0.36753860116004944
time_elpased: 5.167
#iterations: 316
currently lose_sum: 0.36531946063041687
time_elpased: 5.096
#iterations: 317
currently lose_sum: 0.5317217707633972
time_elpased: 5.178
#iterations: 318
currently lose_sum: 0.4201687276363373
time_elpased: 5.192
#iterations: 319
currently lose_sum: 0.5267655253410339
time_elpased: 5.194
start validation test
0.698717948718
0.754838709677
0.595419847328
0.665718349929
0.699518709194
26.258
#iterations: 320
currently lose_sum: 0.3066701889038086
time_elpased: 5.197
#iterations: 321
currently lose_sum: 0.43779587745666504
time_elpased: 5.141
#iterations: 322
currently lose_sum: 0.41860347986221313
time_elpased: 5.178
#iterations: 323
currently lose_sum: 0.35062137246131897
time_elpased: 5.137
#iterations: 324
currently lose_sum: 0.303286075592041
time_elpased: 5.149
#iterations: 325
currently lose_sum: 0.3006671369075775
time_elpased: 5.17
#iterations: 326
currently lose_sum: 0.511590301990509
time_elpased: 5.165
#iterations: 327
currently lose_sum: 0.32354262471199036
time_elpased: 5.167
#iterations: 328
currently lose_sum: 0.27208295464515686
time_elpased: 5.096
#iterations: 329
currently lose_sum: 0.4102911949157715
time_elpased: 5.158
#iterations: 330
currently lose_sum: 0.28195446729660034
time_elpased: 5.184
#iterations: 331
currently lose_sum: 0.5485338568687439
time_elpased: 5.214
#iterations: 332
currently lose_sum: 0.4570327401161194
time_elpased: 5.205
#iterations: 333
currently lose_sum: 0.45703786611557007
time_elpased: 5.19
#iterations: 334
currently lose_sum: 0.336378276348114
time_elpased: 5.146
#iterations: 335
currently lose_sum: 0.38291460275650024
time_elpased: 5.088
#iterations: 336
currently lose_sum: 0.24696727097034454
time_elpased: 5.125
#iterations: 337
currently lose_sum: 0.35537296533584595
time_elpased: 5.155
#iterations: 338
currently lose_sum: 0.3220987915992737
time_elpased: 5.111
#iterations: 339
currently lose_sum: 0.3212711215019226
time_elpased: 5.159
start validation test
0.627564102564
0.827476038339
0.32951653944
0.471337579618
0.62987454879
36.468
#iterations: 340
currently lose_sum: 0.5125575065612793
time_elpased: 5.086
#iterations: 341
currently lose_sum: 0.5190842747688293
time_elpased: 5.201
#iterations: 342
currently lose_sum: 0.48441505432128906
time_elpased: 5.217
#iterations: 343
currently lose_sum: 0.2710936665534973
time_elpased: 5.143
#iterations: 344
currently lose_sum: 0.2700612246990204
time_elpased: 5.088
#iterations: 345
currently lose_sum: 0.3301009237766266
time_elpased: 5.157
#iterations: 346
currently lose_sum: 0.634366512298584
time_elpased: 5.132
#iterations: 347
currently lose_sum: 0.23382911086082458
time_elpased: 5.2
#iterations: 348
currently lose_sum: 0.3250844478607178
time_elpased: 5.102
#iterations: 349
currently lose_sum: 0.3195541501045227
time_elpased: 5.243
#iterations: 350
currently lose_sum: 0.4047715663909912
time_elpased: 5.145
#iterations: 351
currently lose_sum: 0.33670687675476074
time_elpased: 5.116
#iterations: 352
currently lose_sum: 0.3606441915035248
time_elpased: 5.236
#iterations: 353
currently lose_sum: 0.2523713707923889
time_elpased: 5.128
#iterations: 354
currently lose_sum: 0.39363449811935425
time_elpased: 5.141
#iterations: 355
currently lose_sum: 0.47345131635665894
time_elpased: 5.198
#iterations: 356
currently lose_sum: 0.3815574049949646
time_elpased: 5.166
#iterations: 357
currently lose_sum: 0.20458602905273438
time_elpased: 5.162
#iterations: 358
currently lose_sum: 0.35714131593704224
time_elpased: 5.135
#iterations: 359
currently lose_sum: 0.6030182838439941
time_elpased: 5.196
start validation test
0.662820512821
0.790178571429
0.450381679389
0.573743922204
0.664467325483
36.815
#iterations: 360
currently lose_sum: 0.31997236609458923
time_elpased: 5.154
#iterations: 361
currently lose_sum: 0.27385371923446655
time_elpased: 5.172
#iterations: 362
currently lose_sum: 0.3927914500236511
time_elpased: 5.138
#iterations: 363
currently lose_sum: 0.2938057780265808
time_elpased: 5.129
#iterations: 364
currently lose_sum: 0.43955105543136597
time_elpased: 5.159
#iterations: 365
currently lose_sum: 0.31651535630226135
time_elpased: 5.126
#iterations: 366
currently lose_sum: 0.4507066607475281
time_elpased: 5.131
#iterations: 367
currently lose_sum: 0.40084925293922424
time_elpased: 5.214
#iterations: 368
currently lose_sum: 0.4481891691684723
time_elpased: 5.204
#iterations: 369
currently lose_sum: 0.3827390670776367
time_elpased: 5.226
#iterations: 370
currently lose_sum: 0.24389083683490753
time_elpased: 5.14
#iterations: 371
currently lose_sum: 0.45400065183639526
time_elpased: 5.163
#iterations: 372
currently lose_sum: 0.3366304039955139
time_elpased: 5.147
#iterations: 373
currently lose_sum: 0.5195465087890625
time_elpased: 5.143
#iterations: 374
currently lose_sum: 0.29836684465408325
time_elpased: 5.106
#iterations: 375
currently lose_sum: 0.30008798837661743
time_elpased: 5.174
#iterations: 376
currently lose_sum: 0.37199652194976807
time_elpased: 5.214
#iterations: 377
currently lose_sum: 0.5055207014083862
time_elpased: 5.177
#iterations: 378
currently lose_sum: 0.34943145513534546
time_elpased: 5.128
#iterations: 379
currently lose_sum: 0.3523280620574951
time_elpased: 5.154
start validation test
0.687820512821
0.729646697389
0.604325699746
0.661099512874
0.688467759433
28.591
#iterations: 380
currently lose_sum: 0.3233341574668884
time_elpased: 5.153
#iterations: 381
currently lose_sum: 0.31563323736190796
time_elpased: 5.146
#iterations: 382
currently lose_sum: 0.23170332610607147
time_elpased: 5.202
#iterations: 383
currently lose_sum: 0.3642244338989258
time_elpased: 5.181
#iterations: 384
currently lose_sum: 0.22937679290771484
time_elpased: 5.113
#iterations: 385
currently lose_sum: 0.2888851463794708
time_elpased: 5.157
#iterations: 386
currently lose_sum: 0.32370105385780334
time_elpased: 5.135
#iterations: 387
currently lose_sum: 0.5290454030036926
time_elpased: 5.17
#iterations: 388
currently lose_sum: 0.36403733491897583
time_elpased: 5.231
#iterations: 389
currently lose_sum: 0.31912627816200256
time_elpased: 5.17
#iterations: 390
currently lose_sum: 0.35656601190567017
time_elpased: 5.144
#iterations: 391
currently lose_sum: 0.39776259660720825
time_elpased: 5.157
#iterations: 392
currently lose_sum: 0.40523606538772583
time_elpased: 5.193
#iterations: 393
currently lose_sum: 0.34069371223449707
time_elpased: 5.188
#iterations: 394
currently lose_sum: 0.39778023958206177
time_elpased: 5.167
#iterations: 395
currently lose_sum: 0.27239665389060974
time_elpased: 5.098
#iterations: 396
currently lose_sum: 0.5032755732536316
time_elpased: 5.154
#iterations: 397
currently lose_sum: 0.4977568984031677
time_elpased: 5.201
#iterations: 398
currently lose_sum: 0.3457754850387573
time_elpased: 5.186
#iterations: 399
currently lose_sum: 0.4678792357444763
time_elpased: 5.197
start validation test
0.683974358974
0.7113997114
0.627226463104
0.666666666667
0.684414265144
30.181
#iterations: 400
currently lose_sum: 0.2965037226676941
time_elpased: 5.108
#iterations: 401
currently lose_sum: 0.3759560286998749
time_elpased: 5.099
#iterations: 402
currently lose_sum: 0.27427196502685547
time_elpased: 5.152
#iterations: 403
currently lose_sum: 0.2856593132019043
time_elpased: 5.196
#iterations: 404
currently lose_sum: 0.44221967458724976
time_elpased: 5.19
#iterations: 405
currently lose_sum: 0.4678474962711334
time_elpased: 5.212
#iterations: 406
currently lose_sum: 0.25671616196632385
time_elpased: 5.116
#iterations: 407
currently lose_sum: 0.3137761652469635
time_elpased: 5.178
#iterations: 408
currently lose_sum: 0.30096468329429626
time_elpased: 5.158
#iterations: 409
currently lose_sum: 0.2801899015903473
time_elpased: 5.154
#iterations: 410
currently lose_sum: 0.3029419481754303
time_elpased: 5.116
#iterations: 411
currently lose_sum: 0.3414763808250427
time_elpased: 5.071
#iterations: 412
currently lose_sum: 0.2706031799316406
time_elpased: 5.154
#iterations: 413
currently lose_sum: 0.2752755284309387
time_elpased: 5.183
#iterations: 414
currently lose_sum: 0.36241933703422546
time_elpased: 5.119
#iterations: 415
currently lose_sum: 0.5535241365432739
time_elpased: 5.209
#iterations: 416
currently lose_sum: 0.28276538848876953
time_elpased: 5.207
#iterations: 417
currently lose_sum: 0.35716551542282104
time_elpased: 5.178
#iterations: 418
currently lose_sum: 0.1959972232580185
time_elpased: 5.192
#iterations: 419
currently lose_sum: 0.412315309047699
time_elpased: 5.188
start validation test
0.645512820513
0.851963746224
0.358778625954
0.504923903312
0.647735566207
33.081
#iterations: 420
currently lose_sum: 0.4915741980075836
time_elpased: 5.109
#iterations: 421
currently lose_sum: 0.30939725041389465
time_elpased: 5.127
#iterations: 422
currently lose_sum: 0.5159451365470886
time_elpased: 5.129
#iterations: 423
currently lose_sum: 0.3615064024925232
time_elpased: 5.141
#iterations: 424
currently lose_sum: 0.25780436396598816
time_elpased: 5.158
#iterations: 425
currently lose_sum: 0.3620820641517639
time_elpased: 5.212
#iterations: 426
currently lose_sum: 0.45463046431541443
time_elpased: 5.13
#iterations: 427
currently lose_sum: 0.2578701674938202
time_elpased: 5.126
#iterations: 428
currently lose_sum: 0.2762606739997864
time_elpased: 5.145
#iterations: 429
currently lose_sum: 0.25007930397987366
time_elpased: 5.177
#iterations: 430
currently lose_sum: 0.18330176174640656
time_elpased: 5.225
#iterations: 431
currently lose_sum: 0.43482261896133423
time_elpased: 5.152
#iterations: 432
currently lose_sum: 0.4174571931362152
time_elpased: 5.203
#iterations: 433
currently lose_sum: 0.3308447003364563
time_elpased: 5.167
#iterations: 434
currently lose_sum: 0.39995306730270386
time_elpased: 5.126
#iterations: 435
currently lose_sum: 0.31229719519615173
time_elpased: 5.136
#iterations: 436
currently lose_sum: 0.3383878171443939
time_elpased: 5.203
#iterations: 437
currently lose_sum: 0.1272907555103302
time_elpased: 5.132
#iterations: 438
currently lose_sum: 0.24907740950584412
time_elpased: 5.14
#iterations: 439
currently lose_sum: 0.2627600133419037
time_elpased: 5.157
start validation test
0.683974358974
0.727838258165
0.595419847328
0.65500349895
0.684660828057
32.475
#iterations: 440
currently lose_sum: 0.2573251724243164
time_elpased: 5.169
#iterations: 441
currently lose_sum: 0.32505878806114197
time_elpased: 5.166
#iterations: 442
currently lose_sum: 0.24847567081451416
time_elpased: 5.115
#iterations: 443
currently lose_sum: 0.3738008141517639
time_elpased: 5.139
#iterations: 444
currently lose_sum: 0.2912145256996155
time_elpased: 5.158
#iterations: 445
currently lose_sum: 0.4025611877441406
time_elpased: 5.093
#iterations: 446
currently lose_sum: 0.37420162558555603
time_elpased: 5.15
#iterations: 447
currently lose_sum: 0.15061350166797638
time_elpased: 5.126
#iterations: 448
currently lose_sum: 0.3921751379966736
time_elpased: 5.13
#iterations: 449
currently lose_sum: 0.24447831511497498
time_elpased: 5.148
#iterations: 450
currently lose_sum: 0.21859879791736603
time_elpased: 5.191
#iterations: 451
currently lose_sum: 0.3776630163192749
time_elpased: 5.188
#iterations: 452
currently lose_sum: 0.467762291431427
time_elpased: 5.165
#iterations: 453
currently lose_sum: 0.272665798664093
time_elpased: 5.156
#iterations: 454
currently lose_sum: 0.2528146803379059
time_elpased: 5.126
#iterations: 455
currently lose_sum: 0.3040829300880432
time_elpased: 5.212
#iterations: 456
currently lose_sum: 0.2996141016483307
time_elpased: 5.201
#iterations: 457
currently lose_sum: 0.2939610481262207
time_elpased: 5.179
#iterations: 458
currently lose_sum: 0.26944535970687866
time_elpased: 5.146
#iterations: 459
currently lose_sum: 0.2089512050151825
time_elpased: 5.15
start validation test
0.667948717949
0.816037735849
0.440203562341
0.571900826446
0.669714184271
35.921
#iterations: 460
currently lose_sum: 0.40796032547950745
time_elpased: 5.199
#iterations: 461
currently lose_sum: 0.31778499484062195
time_elpased: 5.118
#iterations: 462
currently lose_sum: 0.2360154092311859
time_elpased: 5.146
#iterations: 463
currently lose_sum: 0.2546089291572571
time_elpased: 5.161
#iterations: 464
currently lose_sum: 0.3216511607170105
time_elpased: 5.131
#iterations: 465
currently lose_sum: 0.3210405707359314
time_elpased: 5.108
#iterations: 466
currently lose_sum: 0.30685490369796753
time_elpased: 5.121
#iterations: 467
currently lose_sum: 0.2797105312347412
time_elpased: 5.11
#iterations: 468
currently lose_sum: 0.3689418435096741
time_elpased: 5.167
#iterations: 469
currently lose_sum: 0.2905331552028656
time_elpased: 5.213
#iterations: 470
currently lose_sum: 0.2950704097747803
time_elpased: 5.176
#iterations: 471
currently lose_sum: 0.2821521461009979
time_elpased: 5.111
#iterations: 472
currently lose_sum: 0.322832852602005
time_elpased: 5.189
#iterations: 473
currently lose_sum: 0.2551657259464264
time_elpased: 5.186
#iterations: 474
currently lose_sum: 0.33908945322036743
time_elpased: 5.224
#iterations: 475
currently lose_sum: 0.3057648241519928
time_elpased: 5.198
#iterations: 476
currently lose_sum: 0.28717875480651855
time_elpased: 5.15
#iterations: 477
currently lose_sum: 0.3986404538154602
time_elpased: 5.127
#iterations: 478
currently lose_sum: 0.4070955216884613
time_elpased: 5.106
#iterations: 479
currently lose_sum: 0.32155841588974
time_elpased: 5.117
start validation test
0.680769230769
0.735294117647
0.572519083969
0.643776824034
0.681608379194
30.464
#iterations: 480
currently lose_sum: 0.42944806814193726
time_elpased: 5.127
#iterations: 481
currently lose_sum: 0.3348289728164673
time_elpased: 5.172
#iterations: 482
currently lose_sum: 0.33807986974716187
time_elpased: 5.16
#iterations: 483
currently lose_sum: 0.2822202742099762
time_elpased: 5.164
#iterations: 484
currently lose_sum: 0.18058347702026367
time_elpased: 5.127
#iterations: 485
currently lose_sum: 0.39292556047439575
time_elpased: 5.186
#iterations: 486
currently lose_sum: 0.282392680644989
time_elpased: 5.115
#iterations: 487
currently lose_sum: 0.5134983062744141
time_elpased: 5.249
#iterations: 488
currently lose_sum: 0.16192060708999634
time_elpased: 5.149
#iterations: 489
currently lose_sum: 0.33898013830184937
time_elpased: 5.173
#iterations: 490
currently lose_sum: 0.29061487317085266
time_elpased: 5.132
#iterations: 491
currently lose_sum: 0.4375549256801605
time_elpased: 5.155
#iterations: 492
currently lose_sum: 0.2624376714229584
time_elpased: 5.128
#iterations: 493
currently lose_sum: 0.21811649203300476
time_elpased: 5.153
#iterations: 494
currently lose_sum: 0.31581491231918335
time_elpased: 5.175
#iterations: 495
currently lose_sum: 0.35851818323135376
time_elpased: 5.121
#iterations: 496
currently lose_sum: 0.2821739912033081
time_elpased: 5.217
#iterations: 497
currently lose_sum: 0.276012122631073
time_elpased: 5.173
#iterations: 498
currently lose_sum: 0.23236402869224548
time_elpased: 5.133
#iterations: 499
currently lose_sum: 0.2714063227176666
time_elpased: 5.114
start validation test
0.675
0.755027422303
0.525445292621
0.619654913728
0.676159338817
33.472
#iterations: 500
currently lose_sum: 0.29945114254951477
time_elpased: 5.153
#iterations: 501
currently lose_sum: 0.45164522528648376
time_elpased: 5.159
#iterations: 502
currently lose_sum: 0.3516991436481476
time_elpased: 5.185
#iterations: 503
currently lose_sum: 0.4732796549797058
time_elpased: 5.164
#iterations: 504
currently lose_sum: 0.41350775957107544
time_elpased: 5.179
#iterations: 505
currently lose_sum: 0.3917967677116394
time_elpased: 5.183
#iterations: 506
currently lose_sum: 0.4153802990913391
time_elpased: 5.2
#iterations: 507
currently lose_sum: 0.2809763550758362
time_elpased: 5.133
#iterations: 508
currently lose_sum: 0.5108574032783508
time_elpased: 5.128
#iterations: 509
currently lose_sum: 0.367036908864975
time_elpased: 5.143
#iterations: 510
currently lose_sum: 0.3667701780796051
time_elpased: 5.19
#iterations: 511
currently lose_sum: 0.333810955286026
time_elpased: 5.143
#iterations: 512
currently lose_sum: 0.20365512371063232
time_elpased: 5.128
#iterations: 513
currently lose_sum: 0.1855529248714447
time_elpased: 5.194
#iterations: 514
currently lose_sum: 0.27621591091156006
time_elpased: 5.117
#iterations: 515
currently lose_sum: 0.20085906982421875
time_elpased: 5.191
#iterations: 516
currently lose_sum: 0.37469300627708435
time_elpased: 5.14
#iterations: 517
currently lose_sum: 0.22795848548412323
time_elpased: 5.113
#iterations: 518
currently lose_sum: 0.2619573175907135
time_elpased: 5.133
#iterations: 519
currently lose_sum: 0.2287033498287201
time_elpased: 5.19
start validation test
0.652564102564
0.838888888889
0.384223918575
0.52705061082
0.654644259029
42.890
#iterations: 520
currently lose_sum: 0.2090352475643158
time_elpased: 5.138
#iterations: 521
currently lose_sum: 0.30222180485725403
time_elpased: 5.179
#iterations: 522
currently lose_sum: 0.4947632849216461
time_elpased: 5.137
#iterations: 523
currently lose_sum: 0.3331531882286072
time_elpased: 5.113
#iterations: 524
currently lose_sum: 0.18690599501132965
time_elpased: 5.166
#iterations: 525
currently lose_sum: 0.3073851466178894
time_elpased: 5.138
#iterations: 526
currently lose_sum: 0.25921082496643066
time_elpased: 5.138
#iterations: 527
currently lose_sum: 0.4487272799015045
time_elpased: 5.099
#iterations: 528
currently lose_sum: 0.3014097809791565
time_elpased: 5.171
#iterations: 529
currently lose_sum: 0.41538357734680176
time_elpased: 5.107
#iterations: 530
currently lose_sum: 0.4546423852443695
time_elpased: 5.138
#iterations: 531
currently lose_sum: 0.2828332781791687
time_elpased: 5.146
#iterations: 532
currently lose_sum: 0.36866578459739685
time_elpased: 5.103
#iterations: 533
currently lose_sum: 0.44815921783447266
time_elpased: 5.134
#iterations: 534
currently lose_sum: 0.3506217896938324
time_elpased: 5.189
#iterations: 535
currently lose_sum: 0.4175260663032532
time_elpased: 5.114
#iterations: 536
currently lose_sum: 0.38164836168289185
time_elpased: 5.165
#iterations: 537
currently lose_sum: 0.3539661765098572
time_elpased: 5.171
#iterations: 538
currently lose_sum: 0.2426580935716629
time_elpased: 5.148
#iterations: 539
currently lose_sum: 0.34101229906082153
time_elpased: 5.18
start validation test
0.676282051282
0.770712909441
0.508905852417
0.613026819923
0.677579541196
33.480
#iterations: 540
currently lose_sum: 0.3541181683540344
time_elpased: 5.137
#iterations: 541
currently lose_sum: 0.281766414642334
time_elpased: 5.137
#iterations: 542
currently lose_sum: 0.3386082947254181
time_elpased: 5.142
#iterations: 543
currently lose_sum: 0.3955422043800354
time_elpased: 5.142
#iterations: 544
currently lose_sum: 0.3758319020271301
time_elpased: 5.184
#iterations: 545
currently lose_sum: 0.4935091435909271
time_elpased: 5.133
#iterations: 546
currently lose_sum: 0.2788684368133545
time_elpased: 5.149
#iterations: 547
currently lose_sum: 0.3308030664920807
time_elpased: 5.151
#iterations: 548
currently lose_sum: 0.4113163352012634
time_elpased: 5.156
#iterations: 549
currently lose_sum: 0.34842005372047424
time_elpased: 5.12
#iterations: 550
currently lose_sum: 0.42418479919433594
time_elpased: 5.141
#iterations: 551
currently lose_sum: 0.3926225006580353
time_elpased: 5.126
#iterations: 552
currently lose_sum: 0.218359112739563
time_elpased: 5.166
#iterations: 553
currently lose_sum: 0.21954865753650665
time_elpased: 5.202
#iterations: 554
currently lose_sum: 0.4276001453399658
time_elpased: 5.114
#iterations: 555
currently lose_sum: 0.2876594364643097
time_elpased: 5.145
#iterations: 556
currently lose_sum: 0.29764339327812195
time_elpased: 5.21
#iterations: 557
currently lose_sum: 0.38529595732688904
time_elpased: 5.136
#iterations: 558
currently lose_sum: 0.2251882553100586
time_elpased: 5.178
#iterations: 559
currently lose_sum: 0.2202513962984085
time_elpased: 5.135
start validation test
0.685897435897
0.76618705036
0.541984732824
0.634873323398
0.687013038247
31.436
#iterations: 560
currently lose_sum: 0.2150815725326538
time_elpased: 5.112
#iterations: 561
currently lose_sum: 0.30989354848861694
time_elpased: 5.14
#iterations: 562
currently lose_sum: 0.39784958958625793
time_elpased: 5.179
#iterations: 563
currently lose_sum: 0.2841876149177551
time_elpased: 5.136
#iterations: 564
currently lose_sum: 0.23127444088459015
time_elpased: 5.176
#iterations: 565
currently lose_sum: 0.467001736164093
time_elpased: 5.157
#iterations: 566
currently lose_sum: 0.2715364098548889
time_elpased: 5.17
#iterations: 567
currently lose_sum: 0.41032686829566956
time_elpased: 5.111
#iterations: 568
currently lose_sum: 0.3194449841976166
time_elpased: 5.201
#iterations: 569
currently lose_sum: 0.3735143542289734
time_elpased: 5.135
#iterations: 570
currently lose_sum: 0.333342969417572
time_elpased: 5.128
#iterations: 571
currently lose_sum: 0.24890968203544617
time_elpased: 5.129
#iterations: 572
currently lose_sum: 0.22658181190490723
time_elpased: 5.096
#iterations: 573
currently lose_sum: 0.15903635323047638
time_elpased: 5.218
#iterations: 574
currently lose_sum: 0.25398746132850647
time_elpased: 5.161
#iterations: 575
currently lose_sum: 0.4475835859775543
time_elpased: 5.152
#iterations: 576
currently lose_sum: 0.3205649256706238
time_elpased: 5.167
#iterations: 577
currently lose_sum: 0.30968818068504333
time_elpased: 5.203
#iterations: 578
currently lose_sum: 0.3831656575202942
time_elpased: 5.148
#iterations: 579
currently lose_sum: 0.3594176173210144
time_elpased: 5.171
start validation test
0.683974358974
0.744574290484
0.567430025445
0.6440433213
0.68487780342
34.544
#iterations: 580
currently lose_sum: 0.3333495855331421
time_elpased: 5.103
#iterations: 581
currently lose_sum: 0.35730284452438354
time_elpased: 5.149
#iterations: 582
currently lose_sum: 0.23298463225364685
time_elpased: 5.162
#iterations: 583
currently lose_sum: 0.18799574673175812
time_elpased: 5.106
#iterations: 584
currently lose_sum: 0.29985737800598145
time_elpased: 5.169
#iterations: 585
currently lose_sum: 0.1746484935283661
time_elpased: 5.121
#iterations: 586
currently lose_sum: 0.30521613359451294
time_elpased: 5.181
#iterations: 587
currently lose_sum: 0.2747901380062103
time_elpased: 5.128
#iterations: 588
currently lose_sum: 0.47092002630233765
time_elpased: 5.109
#iterations: 589
currently lose_sum: 0.27864035964012146
time_elpased: 5.111
#iterations: 590
currently lose_sum: 0.3851527273654938
time_elpased: 5.159
#iterations: 591
currently lose_sum: 0.4289500117301941
time_elpased: 5.169
#iterations: 592
currently lose_sum: 0.3680190443992615
time_elpased: 5.109
#iterations: 593
currently lose_sum: 0.3860691487789154
time_elpased: 5.131
#iterations: 594
currently lose_sum: 0.37757453322410583
time_elpased: 5.123
#iterations: 595
currently lose_sum: 0.2719298005104065
time_elpased: 5.241
#iterations: 596
currently lose_sum: 0.2996278703212738
time_elpased: 5.108
#iterations: 597
currently lose_sum: 0.2706494927406311
time_elpased: 5.164
#iterations: 598
currently lose_sum: 0.3460225760936737
time_elpased: 5.158
#iterations: 599
currently lose_sum: 0.22494268417358398
time_elpased: 5.119
start validation test
0.662820512821
0.845744680851
0.404580152672
0.547332185886
0.664822376077
42.076
acc: 0.692
pre: 0.709
rec: 0.660
F1: 0.684
auc: 0.693
