start to construct computing graph
graph construct over
2359
epochs start
#iterations: 0
currently lose_sum: 0.7083893418312073
time_elpased: 3.048
#iterations: 1
currently lose_sum: 0.6774738430976868
time_elpased: 3.02
#iterations: 2
currently lose_sum: 0.7053587436676025
time_elpased: 2.991
#iterations: 3
currently lose_sum: 0.7062159776687622
time_elpased: 3.021
#iterations: 4
currently lose_sum: 0.6881557106971741
time_elpased: 3.05
#iterations: 5
currently lose_sum: 0.7034385800361633
time_elpased: 3.023
#iterations: 6
currently lose_sum: 0.6913188695907593
time_elpased: 3.002
#iterations: 7
currently lose_sum: 0.6837513446807861
time_elpased: 3.018
#iterations: 8
currently lose_sum: 0.6804014444351196
time_elpased: 3.039
#iterations: 9
currently lose_sum: 0.7279229760169983
time_elpased: 3.055
#iterations: 10
currently lose_sum: 0.651434063911438
time_elpased: 2.99
#iterations: 11
currently lose_sum: 0.6626381278038025
time_elpased: 3.022
#iterations: 12
currently lose_sum: 0.6351601481437683
time_elpased: 3.024
#iterations: 13
currently lose_sum: 0.6904904246330261
time_elpased: 3.041
#iterations: 14
currently lose_sum: 0.6832810044288635
time_elpased: 2.983
#iterations: 15
currently lose_sum: 0.6818758249282837
time_elpased: 3.03
#iterations: 16
currently lose_sum: 0.6927314400672913
time_elpased: 2.986
#iterations: 17
currently lose_sum: 0.670425534248352
time_elpased: 2.986
#iterations: 18
currently lose_sum: 0.690158486366272
time_elpased: 2.975
#iterations: 19
currently lose_sum: 0.6233795881271362
time_elpased: 3.008
start validation test
0.535256410256
0.622047244094
0.200762388818
0.303554274736
0.538285463491
27.137
#iterations: 20
currently lose_sum: 0.6645812392234802
time_elpased: 2.757
#iterations: 21
currently lose_sum: 0.6092368960380554
time_elpased: 2.782
#iterations: 22
currently lose_sum: 0.6650058627128601
time_elpased: 2.707
#iterations: 23
currently lose_sum: 0.5893824696540833
time_elpased: 2.747
#iterations: 24
currently lose_sum: 0.7391692399978638
time_elpased: 2.794
#iterations: 25
currently lose_sum: 0.6083172559738159
time_elpased: 2.746
#iterations: 26
currently lose_sum: 0.6740922331809998
time_elpased: 2.779
#iterations: 27
currently lose_sum: 0.6615168452262878
time_elpased: 2.763
#iterations: 28
currently lose_sum: 0.6510628461837769
time_elpased: 2.786
#iterations: 29
currently lose_sum: 0.6080156564712524
time_elpased: 2.755
#iterations: 30
currently lose_sum: 0.5667823553085327
time_elpased: 2.745
#iterations: 31
currently lose_sum: 0.609268069267273
time_elpased: 2.745
#iterations: 32
currently lose_sum: 0.6934450268745422
time_elpased: 2.75
#iterations: 33
currently lose_sum: 0.673444390296936
time_elpased: 2.726
#iterations: 34
currently lose_sum: 0.7342737317085266
time_elpased: 2.734
#iterations: 35
currently lose_sum: 0.6757194399833679
time_elpased: 2.713
#iterations: 36
currently lose_sum: 0.5868566036224365
time_elpased: 2.719
#iterations: 37
currently lose_sum: 0.6819381713867188
time_elpased: 2.739
#iterations: 38
currently lose_sum: 0.6648048162460327
time_elpased: 2.783
#iterations: 39
currently lose_sum: 0.6510072946548462
time_elpased: 2.737
start validation test
0.610897435897
0.673076923077
0.444726810673
0.535577658761
0.612402215169
25.607
#iterations: 40
currently lose_sum: 0.68970787525177
time_elpased: 2.731
#iterations: 41
currently lose_sum: 0.6712504625320435
time_elpased: 2.759
#iterations: 42
currently lose_sum: 0.6978497505187988
time_elpased: 2.777
#iterations: 43
currently lose_sum: 0.6707573533058167
time_elpased: 2.814
#iterations: 44
currently lose_sum: 0.7029184103012085
time_elpased: 2.731
#iterations: 45
currently lose_sum: 0.5967409610748291
time_elpased: 2.784
#iterations: 46
currently lose_sum: 0.7049336433410645
time_elpased: 2.796
#iterations: 47
currently lose_sum: 0.6853686571121216
time_elpased: 2.762
#iterations: 48
currently lose_sum: 0.5326158404350281
time_elpased: 2.729
#iterations: 49
currently lose_sum: 0.6148661971092224
time_elpased: 2.773
#iterations: 50
currently lose_sum: 0.619384765625
time_elpased: 2.757
#iterations: 51
currently lose_sum: 0.6693276166915894
time_elpased: 2.721
#iterations: 52
currently lose_sum: 0.5407609343528748
time_elpased: 2.802
#iterations: 53
currently lose_sum: 0.6113995313644409
time_elpased: 2.763
#iterations: 54
currently lose_sum: 0.599509596824646
time_elpased: 2.785
#iterations: 55
currently lose_sum: 0.5741127133369446
time_elpased: 2.759
#iterations: 56
currently lose_sum: 0.6338081955909729
time_elpased: 2.735
#iterations: 57
currently lose_sum: 0.5458346605300903
time_elpased: 2.747
#iterations: 58
currently lose_sum: 0.6366016864776611
time_elpased: 2.732
#iterations: 59
currently lose_sum: 0.7106062173843384
time_elpased: 2.76
start validation test
0.626923076923
0.690166975881
0.472681067344
0.561085972851
0.628319835095
25.597
#iterations: 60
currently lose_sum: 0.6232756972312927
time_elpased: 2.695
#iterations: 61
currently lose_sum: 0.5849260091781616
time_elpased: 2.743
#iterations: 62
currently lose_sum: 0.6011513471603394
time_elpased: 2.801
#iterations: 63
currently lose_sum: 0.6076526641845703
time_elpased: 2.805
#iterations: 64
currently lose_sum: 0.7032421827316284
time_elpased: 2.697
#iterations: 65
currently lose_sum: 0.5609971284866333
time_elpased: 2.785
#iterations: 66
currently lose_sum: 0.601503849029541
time_elpased: 2.705
#iterations: 67
currently lose_sum: 0.5155175924301147
time_elpased: 2.735
#iterations: 68
currently lose_sum: 0.504474937915802
time_elpased: 2.842
#iterations: 69
currently lose_sum: 0.6411346197128296
time_elpased: 2.753
#iterations: 70
currently lose_sum: 0.6219959855079651
time_elpased: 2.841
#iterations: 71
currently lose_sum: 0.5966790914535522
time_elpased: 2.773
#iterations: 72
currently lose_sum: 0.5390485525131226
time_elpased: 2.795
#iterations: 73
currently lose_sum: 0.5989295840263367
time_elpased: 2.746
#iterations: 74
currently lose_sum: 0.7467392086982727
time_elpased: 2.751
#iterations: 75
currently lose_sum: 0.5637181997299194
time_elpased: 2.784
#iterations: 76
currently lose_sum: 0.6637667417526245
time_elpased: 2.759
#iterations: 77
currently lose_sum: 0.5868775844573975
time_elpased: 2.717
#iterations: 78
currently lose_sum: 0.5630735158920288
time_elpased: 2.74
#iterations: 79
currently lose_sum: 0.6084759831428528
time_elpased: 2.745
start validation test
0.610897435897
0.754237288136
0.339263024142
0.46801051709
0.613357255926
25.550
#iterations: 80
currently lose_sum: 0.530361533164978
time_elpased: 2.708
#iterations: 81
currently lose_sum: 0.5820760726928711
time_elpased: 2.75
#iterations: 82
currently lose_sum: 0.6355122327804565
time_elpased: 2.713
#iterations: 83
currently lose_sum: 0.48255062103271484
time_elpased: 2.741
#iterations: 84
currently lose_sum: 0.4925587773323059
time_elpased: 2.74
#iterations: 85
currently lose_sum: 0.5629045367240906
time_elpased: 2.743
#iterations: 86
currently lose_sum: 0.5480790734291077
time_elpased: 2.743
#iterations: 87
currently lose_sum: 0.5903085470199585
time_elpased: 2.735
#iterations: 88
currently lose_sum: 0.5864818692207336
time_elpased: 2.76
#iterations: 89
currently lose_sum: 0.3676765263080597
time_elpased: 2.718
#iterations: 90
currently lose_sum: 0.46842652559280396
time_elpased: 2.721
#iterations: 91
currently lose_sum: 0.6342648267745972
time_elpased: 2.773
#iterations: 92
currently lose_sum: 0.559873640537262
time_elpased: 2.77
#iterations: 93
currently lose_sum: 0.5547573566436768
time_elpased: 2.745
#iterations: 94
currently lose_sum: 0.5934672355651855
time_elpased: 2.759
#iterations: 95
currently lose_sum: 0.5356265306472778
time_elpased: 2.784
#iterations: 96
currently lose_sum: 0.6677301526069641
time_elpased: 2.717
#iterations: 97
currently lose_sum: 0.620823085308075
time_elpased: 2.772
#iterations: 98
currently lose_sum: 0.5456713438034058
time_elpased: 2.7
#iterations: 99
currently lose_sum: 0.5986793637275696
time_elpased: 2.77
start validation test
0.660897435897
0.711475409836
0.551461245235
0.621331424481
0.661888449267
24.807
#iterations: 100
currently lose_sum: 0.5493096113204956
time_elpased: 2.708
#iterations: 101
currently lose_sum: 0.5892695188522339
time_elpased: 2.735
#iterations: 102
currently lose_sum: 0.755830705165863
time_elpased: 2.692
#iterations: 103
currently lose_sum: 0.6151081919670105
time_elpased: 2.721
#iterations: 104
currently lose_sum: 0.5459417104721069
time_elpased: 2.701
#iterations: 105
currently lose_sum: 0.6732994914054871
time_elpased: 2.795
#iterations: 106
currently lose_sum: 0.6399108171463013
time_elpased: 2.737
#iterations: 107
currently lose_sum: 0.5425385236740112
time_elpased: 2.709
#iterations: 108
currently lose_sum: 0.6525956392288208
time_elpased: 2.748
#iterations: 109
currently lose_sum: 0.5635420680046082
time_elpased: 2.717
#iterations: 110
currently lose_sum: 0.5149267911911011
time_elpased: 2.803
#iterations: 111
currently lose_sum: 0.5634099245071411
time_elpased: 2.693
#iterations: 112
currently lose_sum: 0.389769971370697
time_elpased: 2.736
#iterations: 113
currently lose_sum: 0.48361796140670776
time_elpased: 2.739
#iterations: 114
currently lose_sum: 0.507413387298584
time_elpased: 2.745
#iterations: 115
currently lose_sum: 0.6078913807868958
time_elpased: 2.779
#iterations: 116
currently lose_sum: 0.5574423670768738
time_elpased: 2.763
#iterations: 117
currently lose_sum: 0.47451502084732056
time_elpased: 2.747
#iterations: 118
currently lose_sum: 0.4939248561859131
time_elpased: 2.735
#iterations: 119
currently lose_sum: 0.4834824502468109
time_elpased: 2.739
start validation test
0.658333333333
0.668435013263
0.64040660737
0.654120700844
0.658495671085
25.347
#iterations: 120
currently lose_sum: 0.757226288318634
time_elpased: 2.78
#iterations: 121
currently lose_sum: 0.4938705861568451
time_elpased: 2.773
#iterations: 122
currently lose_sum: 0.42507752776145935
time_elpased: 2.731
#iterations: 123
currently lose_sum: 0.5951048731803894
time_elpased: 2.797
#iterations: 124
currently lose_sum: 0.4352912902832031
time_elpased: 2.777
#iterations: 125
currently lose_sum: 0.37057313323020935
time_elpased: 2.731
#iterations: 126
currently lose_sum: 0.4591684937477112
time_elpased: 2.724
#iterations: 127
currently lose_sum: 0.6434910893440247
time_elpased: 2.741
#iterations: 128
currently lose_sum: 0.495842844247818
time_elpased: 2.718
#iterations: 129
currently lose_sum: 0.532615602016449
time_elpased: 2.822
#iterations: 130
currently lose_sum: 0.4762590527534485
time_elpased: 2.812
#iterations: 131
currently lose_sum: 0.6178421974182129
time_elpased: 2.753
#iterations: 132
currently lose_sum: 0.4753902852535248
time_elpased: 2.755
#iterations: 133
currently lose_sum: 0.3792509436607361
time_elpased: 2.786
#iterations: 134
currently lose_sum: 0.4819434583187103
time_elpased: 2.792
#iterations: 135
currently lose_sum: 0.5841909646987915
time_elpased: 2.731
#iterations: 136
currently lose_sum: 0.7810038328170776
time_elpased: 2.718
#iterations: 137
currently lose_sum: 0.6330347061157227
time_elpased: 2.76
#iterations: 138
currently lose_sum: 0.46288251876831055
time_elpased: 2.735
#iterations: 139
currently lose_sum: 0.42398038506507874
time_elpased: 2.774
start validation test
0.637820512821
0.803278688525
0.373570520966
0.509973980919
0.640213462294
27.114
#iterations: 140
currently lose_sum: 0.5486069917678833
time_elpased: 2.77
#iterations: 141
currently lose_sum: 0.5198391675949097
time_elpased: 2.776
#iterations: 142
currently lose_sum: 0.523780345916748
time_elpased: 2.744
#iterations: 143
currently lose_sum: 0.633752167224884
time_elpased: 2.733
#iterations: 144
currently lose_sum: 0.40359601378440857
time_elpased: 2.785
#iterations: 145
currently lose_sum: 0.5578304529190063
time_elpased: 2.739
#iterations: 146
currently lose_sum: 0.5516659021377563
time_elpased: 2.746
#iterations: 147
currently lose_sum: 0.5516313314437866
time_elpased: 2.761
#iterations: 148
currently lose_sum: 0.5317161083221436
time_elpased: 2.721
#iterations: 149
currently lose_sum: 0.517155110836029
time_elpased: 2.757
#iterations: 150
currently lose_sum: 0.43924909830093384
time_elpased: 2.746
#iterations: 151
currently lose_sum: 0.527990460395813
time_elpased: 2.788
#iterations: 152
currently lose_sum: 0.3173844814300537
time_elpased: 2.77
#iterations: 153
currently lose_sum: 0.5689271092414856
time_elpased: 2.772
#iterations: 154
currently lose_sum: 0.49517661333084106
time_elpased: 2.769
#iterations: 155
currently lose_sum: 0.4742540419101715
time_elpased: 2.74
#iterations: 156
currently lose_sum: 0.47714224457740784
time_elpased: 2.783
#iterations: 157
currently lose_sum: 0.5845993757247925
time_elpased: 2.73
#iterations: 158
currently lose_sum: 0.5143845081329346
time_elpased: 2.721
#iterations: 159
currently lose_sum: 0.47094520926475525
time_elpased: 2.811
start validation test
0.644230769231
0.613725490196
0.79542566709
0.692861095739
0.642861604567
27.264
#iterations: 160
currently lose_sum: 0.6495710015296936
time_elpased: 2.809
#iterations: 161
currently lose_sum: 0.517724871635437
time_elpased: 2.745
#iterations: 162
currently lose_sum: 0.5368329882621765
time_elpased: 2.739
#iterations: 163
currently lose_sum: 0.4864382743835449
time_elpased: 2.731
#iterations: 164
currently lose_sum: 0.41987180709838867
time_elpased: 2.711
#iterations: 165
currently lose_sum: 0.5145950317382812
time_elpased: 2.78
#iterations: 166
currently lose_sum: 0.5290547609329224
time_elpased: 2.747
#iterations: 167
currently lose_sum: 0.5581472516059875
time_elpased: 2.697
#iterations: 168
currently lose_sum: 0.33785781264305115
time_elpased: 2.733
#iterations: 169
currently lose_sum: 0.47620129585266113
time_elpased: 2.811
#iterations: 170
currently lose_sum: 0.4927476942539215
time_elpased: 2.764
#iterations: 171
currently lose_sum: 0.42503443360328674
time_elpased: 2.738
#iterations: 172
currently lose_sum: 0.44163617491722107
time_elpased: 2.767
#iterations: 173
currently lose_sum: 0.4663008749485016
time_elpased: 2.761
#iterations: 174
currently lose_sum: 0.4795071482658386
time_elpased: 2.778
#iterations: 175
currently lose_sum: 0.6804943680763245
time_elpased: 2.721
#iterations: 176
currently lose_sum: 0.5721977949142456
time_elpased: 2.776
#iterations: 177
currently lose_sum: 0.4083399772644043
time_elpased: 2.811
#iterations: 178
currently lose_sum: 0.4691999554634094
time_elpased: 2.811
#iterations: 179
currently lose_sum: 0.3975784182548523
time_elpased: 2.779
start validation test
0.686538461538
0.670871559633
0.74332909784
0.705244122966
0.686024186695
23.560
#iterations: 180
currently lose_sum: 0.6991544961929321
time_elpased: 2.833
#iterations: 181
currently lose_sum: 0.5251314043998718
time_elpased: 2.707
#iterations: 182
currently lose_sum: 0.5059506297111511
time_elpased: 2.772
#iterations: 183
currently lose_sum: 0.5003971457481384
time_elpased: 2.758
#iterations: 184
currently lose_sum: 0.46393194794654846
time_elpased: 2.757
#iterations: 185
currently lose_sum: 0.395190954208374
time_elpased: 2.727
#iterations: 186
currently lose_sum: 0.5642231106758118
time_elpased: 2.777
#iterations: 187
currently lose_sum: 0.45895975828170776
time_elpased: 2.73
#iterations: 188
currently lose_sum: 0.5051971077919006
time_elpased: 2.794
#iterations: 189
currently lose_sum: 0.4346083998680115
time_elpased: 2.752
#iterations: 190
currently lose_sum: 0.4119718670845032
time_elpased: 2.722
#iterations: 191
currently lose_sum: 0.34244808554649353
time_elpased: 2.725
#iterations: 192
currently lose_sum: 0.5501079559326172
time_elpased: 2.79
#iterations: 193
currently lose_sum: 0.4329533576965332
time_elpased: 2.751
#iterations: 194
currently lose_sum: 0.46295300126075745
time_elpased: 2.736
#iterations: 195
currently lose_sum: 0.40119075775146484
time_elpased: 2.77
#iterations: 196
currently lose_sum: 0.5009892582893372
time_elpased: 2.768
#iterations: 197
currently lose_sum: 0.43688851594924927
time_elpased: 2.783
#iterations: 198
currently lose_sum: 0.44567710161209106
time_elpased: 2.742
#iterations: 199
currently lose_sum: 0.39288529753685
time_elpased: 2.787
start validation test
0.674358974359
0.694560669456
0.632782719187
0.662234042553
0.674735473436
24.959
#iterations: 200
currently lose_sum: 0.38437357544898987
time_elpased: 2.711
#iterations: 201
currently lose_sum: 0.5162870287895203
time_elpased: 2.77
#iterations: 202
currently lose_sum: 0.398526132106781
time_elpased: 2.791
#iterations: 203
currently lose_sum: 0.3508860468864441
time_elpased: 2.734
#iterations: 204
currently lose_sum: 0.4913359582424164
time_elpased: 2.839
#iterations: 205
currently lose_sum: 0.514702320098877
time_elpased: 2.771
#iterations: 206
currently lose_sum: 0.5297161936759949
time_elpased: 2.747
#iterations: 207
currently lose_sum: 0.38306087255477905
time_elpased: 2.761
#iterations: 208
currently lose_sum: 0.3279152512550354
time_elpased: 2.8
#iterations: 209
currently lose_sum: 0.2793772518634796
time_elpased: 2.717
#iterations: 210
currently lose_sum: 0.467754065990448
time_elpased: 2.801
#iterations: 211
currently lose_sum: 0.4254027307033539
time_elpased: 2.736
#iterations: 212
currently lose_sum: 0.3640204668045044
time_elpased: 2.791
#iterations: 213
currently lose_sum: 0.497519314289093
time_elpased: 2.79
#iterations: 214
currently lose_sum: 0.2836543321609497
time_elpased: 2.689
#iterations: 215
currently lose_sum: 0.32471126317977905
time_elpased: 2.744
#iterations: 216
currently lose_sum: 0.37369033694267273
time_elpased: 2.762
#iterations: 217
currently lose_sum: 0.5693527460098267
time_elpased: 2.722
#iterations: 218
currently lose_sum: 0.5438421964645386
time_elpased: 2.755
#iterations: 219
currently lose_sum: 0.43685436248779297
time_elpased: 2.773
start validation test
0.663461538462
0.748106060606
0.501905972046
0.600760456274
0.66492452548
24.000
#iterations: 220
currently lose_sum: 0.34767383337020874
time_elpased: 2.778
#iterations: 221
currently lose_sum: 0.4265754222869873
time_elpased: 2.787
#iterations: 222
currently lose_sum: 0.573614776134491
time_elpased: 2.758
#iterations: 223
currently lose_sum: 0.49953705072402954
time_elpased: 2.788
#iterations: 224
currently lose_sum: 0.459850013256073
time_elpased: 2.731
#iterations: 225
currently lose_sum: 0.4408884644508362
time_elpased: 2.797
#iterations: 226
currently lose_sum: 0.4028699994087219
time_elpased: 2.819
#iterations: 227
currently lose_sum: 0.3880973160266876
time_elpased: 2.788
#iterations: 228
currently lose_sum: 0.3889327645301819
time_elpased: 2.749
#iterations: 229
currently lose_sum: 0.4708157479763031
time_elpased: 2.725
#iterations: 230
currently lose_sum: 0.31820130348205566
time_elpased: 2.762
#iterations: 231
currently lose_sum: 0.3828185200691223
time_elpased: 2.719
#iterations: 232
currently lose_sum: 0.3678150177001953
time_elpased: 2.745
#iterations: 233
currently lose_sum: 0.31189224123954773
time_elpased: 2.765
#iterations: 234
currently lose_sum: 0.5504209399223328
time_elpased: 2.76
#iterations: 235
currently lose_sum: 0.5493464469909668
time_elpased: 2.759
#iterations: 236
currently lose_sum: 0.37929314374923706
time_elpased: 2.733
#iterations: 237
currently lose_sum: 0.37830865383148193
time_elpased: 2.781
#iterations: 238
currently lose_sum: 0.5285683274269104
time_elpased: 2.771
#iterations: 239
currently lose_sum: 0.38803091645240784
time_elpased: 2.756
start validation test
0.66858974359
0.677165354331
0.655654383736
0.666236281472
0.668706881389
23.902
#iterations: 240
currently lose_sum: 0.49567946791648865
time_elpased: 2.74
#iterations: 241
currently lose_sum: 0.28551870584487915
time_elpased: 2.69
#iterations: 242
currently lose_sum: 0.32912009954452515
time_elpased: 2.797
#iterations: 243
currently lose_sum: 0.42963284254074097
time_elpased: 2.722
#iterations: 244
currently lose_sum: 0.44063353538513184
time_elpased: 2.787
#iterations: 245
currently lose_sum: 0.45395946502685547
time_elpased: 2.685
#iterations: 246
currently lose_sum: 0.5750306844711304
time_elpased: 2.73
#iterations: 247
currently lose_sum: 0.48594731092453003
time_elpased: 2.766
#iterations: 248
currently lose_sum: 0.4055729806423187
time_elpased: 2.747
#iterations: 249
currently lose_sum: 0.419527143239975
time_elpased: 2.755
#iterations: 250
currently lose_sum: 0.3610987961292267
time_elpased: 2.752
#iterations: 251
currently lose_sum: 0.37988391518592834
time_elpased: 2.737
#iterations: 252
currently lose_sum: 0.42761000990867615
time_elpased: 2.726
#iterations: 253
currently lose_sum: 0.5586756467819214
time_elpased: 2.742
#iterations: 254
currently lose_sum: 0.32084527611732483
time_elpased: 2.784
#iterations: 255
currently lose_sum: 0.4252778887748718
time_elpased: 2.726
#iterations: 256
currently lose_sum: 0.3642028272151947
time_elpased: 2.705
#iterations: 257
currently lose_sum: 0.3927510380744934
time_elpased: 2.799
#iterations: 258
currently lose_sum: 0.6565073728561401
time_elpased: 2.735
#iterations: 259
currently lose_sum: 0.3639180064201355
time_elpased: 2.773
start validation test
0.687179487179
0.763668430335
0.550190597205
0.639586410635
0.688420007529
25.751
#iterations: 260
currently lose_sum: 0.47279128432273865
time_elpased: 2.732
#iterations: 261
currently lose_sum: 0.41850703954696655
time_elpased: 2.794
#iterations: 262
currently lose_sum: 0.54621422290802
time_elpased: 2.792
#iterations: 263
currently lose_sum: 0.3991013467311859
time_elpased: 2.795
#iterations: 264
currently lose_sum: 0.2991034984588623
time_elpased: 2.73
#iterations: 265
currently lose_sum: 0.4176931381225586
time_elpased: 2.724
#iterations: 266
currently lose_sum: 0.5625712275505066
time_elpased: 2.743
#iterations: 267
currently lose_sum: 0.40899381041526794
time_elpased: 2.772
#iterations: 268
currently lose_sum: 0.567214846611023
time_elpased: 2.761
#iterations: 269
currently lose_sum: 0.3482033312320709
time_elpased: 2.744
#iterations: 270
currently lose_sum: 0.4008859097957611
time_elpased: 2.753
#iterations: 271
currently lose_sum: 0.42814940214157104
time_elpased: 2.754
#iterations: 272
currently lose_sum: 0.40524452924728394
time_elpased: 2.762
#iterations: 273
currently lose_sum: 0.41639646887779236
time_elpased: 2.79
#iterations: 274
currently lose_sum: 0.43160971999168396
time_elpased: 2.764
#iterations: 275
currently lose_sum: 0.4765547811985016
time_elpased: 2.757
#iterations: 276
currently lose_sum: 0.391728013753891
time_elpased: 2.716
#iterations: 277
currently lose_sum: 0.3505622446537018
time_elpased: 2.788
#iterations: 278
currently lose_sum: 0.4144747853279114
time_elpased: 2.743
#iterations: 279
currently lose_sum: 0.2945353388786316
time_elpased: 2.778
start validation test
0.676282051282
0.654605263158
0.758576874206
0.702766333137
0.675536820027
27.084
#iterations: 280
currently lose_sum: 0.31926777958869934
time_elpased: 2.754
#iterations: 281
currently lose_sum: 0.25798168778419495
time_elpased: 2.725
#iterations: 282
currently lose_sum: 0.36762744188308716
time_elpased: 2.767
#iterations: 283
currently lose_sum: 0.29459482431411743
time_elpased: 2.766
#iterations: 284
currently lose_sum: 0.47520047426223755
time_elpased: 2.73
#iterations: 285
currently lose_sum: 0.2926815152168274
time_elpased: 2.728
#iterations: 286
currently lose_sum: 0.3955479562282562
time_elpased: 2.749
#iterations: 287
currently lose_sum: 0.3919371962547302
time_elpased: 2.759
#iterations: 288
currently lose_sum: 0.37515610456466675
time_elpased: 2.766
#iterations: 289
currently lose_sum: 0.4202395975589752
time_elpased: 2.748
#iterations: 290
currently lose_sum: 0.3703981935977936
time_elpased: 2.736
#iterations: 291
currently lose_sum: 0.39978545904159546
time_elpased: 2.739
#iterations: 292
currently lose_sum: 0.4732254445552826
time_elpased: 2.748
#iterations: 293
currently lose_sum: 0.24944834411144257
time_elpased: 2.743
#iterations: 294
currently lose_sum: 0.32975277304649353
time_elpased: 2.807
#iterations: 295
currently lose_sum: 0.4496329426765442
time_elpased: 2.778
#iterations: 296
currently lose_sum: 0.5553162693977356
time_elpased: 2.763
#iterations: 297
currently lose_sum: 0.44162148237228394
time_elpased: 2.772
#iterations: 298
currently lose_sum: 0.33212560415267944
time_elpased: 2.757
#iterations: 299
currently lose_sum: 0.3851396143436432
time_elpased: 2.763
start validation test
0.672435897436
0.663507109005
0.711562897078
0.68669527897
0.672081577905
26.431
#iterations: 300
currently lose_sum: 0.3925918936729431
time_elpased: 2.743
#iterations: 301
currently lose_sum: 0.43742409348487854
time_elpased: 2.771
#iterations: 302
currently lose_sum: 0.4961368143558502
time_elpased: 2.782
#iterations: 303
currently lose_sum: 0.4350306987762451
time_elpased: 2.747
#iterations: 304
currently lose_sum: 0.43490713834762573
time_elpased: 2.747
#iterations: 305
currently lose_sum: 0.3934418559074402
time_elpased: 2.753
#iterations: 306
currently lose_sum: 0.37327301502227783
time_elpased: 2.75
#iterations: 307
currently lose_sum: 0.37442460656166077
time_elpased: 2.713
#iterations: 308
currently lose_sum: 0.3364184498786926
time_elpased: 2.723
#iterations: 309
currently lose_sum: 0.36287012696266174
time_elpased: 2.767
#iterations: 310
currently lose_sum: 0.46666139364242554
time_elpased: 2.788
#iterations: 311
currently lose_sum: 0.4141317307949066
time_elpased: 2.734
#iterations: 312
currently lose_sum: 0.42440253496170044
time_elpased: 2.743
#iterations: 313
currently lose_sum: 0.2875576913356781
time_elpased: 2.782
#iterations: 314
currently lose_sum: 0.4321877062320709
time_elpased: 2.782
#iterations: 315
currently lose_sum: 0.3315904140472412
time_elpased: 2.789
#iterations: 316
currently lose_sum: 0.4397423267364502
time_elpased: 2.752
#iterations: 317
currently lose_sum: 0.30525150895118713
time_elpased: 2.783
#iterations: 318
currently lose_sum: 0.4832024574279785
time_elpased: 2.739
#iterations: 319
currently lose_sum: 0.40611153841018677
time_elpased: 2.755
start validation test
0.658974358974
0.777777777778
0.453621346887
0.573033707865
0.660833959343
29.610
#iterations: 320
currently lose_sum: 0.4036162495613098
time_elpased: 2.712
#iterations: 321
currently lose_sum: 0.44842299818992615
time_elpased: 2.785
#iterations: 322
currently lose_sum: 0.45605725049972534
time_elpased: 2.751
#iterations: 323
currently lose_sum: 0.32547107338905334
time_elpased: 2.729
#iterations: 324
currently lose_sum: 0.549873948097229
time_elpased: 2.721
#iterations: 325
currently lose_sum: 0.24258331954479218
time_elpased: 2.752
#iterations: 326
currently lose_sum: 0.27894389629364014
time_elpased: 2.752
#iterations: 327
currently lose_sum: 0.43481501936912537
time_elpased: 2.778
#iterations: 328
currently lose_sum: 0.5914079546928406
time_elpased: 2.725
#iterations: 329
currently lose_sum: 0.5484331846237183
time_elpased: 2.756
#iterations: 330
currently lose_sum: 0.5071893930435181
time_elpased: 2.739
#iterations: 331
currently lose_sum: 0.3163672983646393
time_elpased: 2.713
#iterations: 332
currently lose_sum: 0.514242947101593
time_elpased: 2.758
#iterations: 333
currently lose_sum: 0.38378143310546875
time_elpased: 2.751
#iterations: 334
currently lose_sum: 0.4221108555793762
time_elpased: 2.781
#iterations: 335
currently lose_sum: 0.23954029381275177
time_elpased: 2.774
#iterations: 336
currently lose_sum: 0.4349003732204437
time_elpased: 2.763
#iterations: 337
currently lose_sum: 0.2860627770423889
time_elpased: 2.74
#iterations: 338
currently lose_sum: 0.48600324988365173
time_elpased: 2.826
#iterations: 339
currently lose_sum: 0.40950050950050354
time_elpased: 2.756
start validation test
0.675
0.659453302961
0.735705209657
0.695495495495
0.674450276239
26.390
#iterations: 340
currently lose_sum: 0.4488021433353424
time_elpased: 2.758
#iterations: 341
currently lose_sum: 0.5515708327293396
time_elpased: 2.753
#iterations: 342
currently lose_sum: 0.3601330816745758
time_elpased: 2.77
#iterations: 343
currently lose_sum: 0.23329436779022217
time_elpased: 2.826
#iterations: 344
currently lose_sum: 0.4342429041862488
time_elpased: 2.786
#iterations: 345
currently lose_sum: 0.33248084783554077
time_elpased: 2.737
#iterations: 346
currently lose_sum: 0.3989720940589905
time_elpased: 2.81
#iterations: 347
currently lose_sum: 0.4745405614376068
time_elpased: 2.763
#iterations: 348
currently lose_sum: 0.32017412781715393
time_elpased: 2.779
#iterations: 349
currently lose_sum: 0.43410879373550415
time_elpased: 2.798
#iterations: 350
currently lose_sum: 0.40910014510154724
time_elpased: 2.771
#iterations: 351
currently lose_sum: 0.33014798164367676
time_elpased: 2.766
#iterations: 352
currently lose_sum: 0.36430424451828003
time_elpased: 2.758
#iterations: 353
currently lose_sum: 0.49372196197509766
time_elpased: 2.742
#iterations: 354
currently lose_sum: 0.45276111364364624
time_elpased: 2.768
#iterations: 355
currently lose_sum: 0.34279316663742065
time_elpased: 2.788
#iterations: 356
currently lose_sum: 0.476431667804718
time_elpased: 2.708
#iterations: 357
currently lose_sum: 0.2471705675125122
time_elpased: 2.837
#iterations: 358
currently lose_sum: 0.4742983281612396
time_elpased: 2.778
#iterations: 359
currently lose_sum: 0.41089582443237305
time_elpased: 2.724
start validation test
0.650641025641
0.800995024876
0.40914866582
0.541631623213
0.652827890478
31.456
#iterations: 360
currently lose_sum: 0.4070725440979004
time_elpased: 2.757
#iterations: 361
currently lose_sum: 0.269420325756073
time_elpased: 2.77
#iterations: 362
currently lose_sum: 0.3564525246620178
time_elpased: 2.758
#iterations: 363
currently lose_sum: 0.21759089827537537
time_elpased: 2.759
#iterations: 364
currently lose_sum: 0.5652104020118713
time_elpased: 2.785
#iterations: 365
currently lose_sum: 0.3446198105812073
time_elpased: 2.736
#iterations: 366
currently lose_sum: 0.44395190477371216
time_elpased: 2.767
#iterations: 367
currently lose_sum: 0.30545493960380554
time_elpased: 2.731
#iterations: 368
currently lose_sum: 0.3518431484699249
time_elpased: 2.825
#iterations: 369
currently lose_sum: 0.384250283241272
time_elpased: 2.754
#iterations: 370
currently lose_sum: 0.37984713912010193
time_elpased: 2.786
#iterations: 371
currently lose_sum: 0.23979446291923523
time_elpased: 2.801
#iterations: 372
currently lose_sum: 0.3644963204860687
time_elpased: 2.763
#iterations: 373
currently lose_sum: 0.30381107330322266
time_elpased: 2.812
#iterations: 374
currently lose_sum: 0.37116074562072754
time_elpased: 2.715
#iterations: 375
currently lose_sum: 0.24891653656959534
time_elpased: 2.72
#iterations: 376
currently lose_sum: 0.4572058320045471
time_elpased: 2.73
#iterations: 377
currently lose_sum: 0.4250289797782898
time_elpased: 2.746
#iterations: 378
currently lose_sum: 0.42183810472488403
time_elpased: 2.714
#iterations: 379
currently lose_sum: 0.3402804434299469
time_elpased: 2.746
start validation test
0.630128205128
0.830188679245
0.335451080051
0.477828054299
0.632796691384
33.303
#iterations: 380
currently lose_sum: 0.39241793751716614
time_elpased: 2.761
#iterations: 381
currently lose_sum: 0.42558225989341736
time_elpased: 2.749
#iterations: 382
currently lose_sum: 0.2741738259792328
time_elpased: 2.744
#iterations: 383
currently lose_sum: 0.39351680874824524
time_elpased: 2.79
#iterations: 384
currently lose_sum: 0.39433395862579346
time_elpased: 2.782
#iterations: 385
currently lose_sum: 0.27193671464920044
time_elpased: 2.806
#iterations: 386
currently lose_sum: 0.4264489710330963
time_elpased: 2.75
#iterations: 387
currently lose_sum: 0.45069608092308044
time_elpased: 2.824
#iterations: 388
currently lose_sum: 0.38611268997192383
time_elpased: 2.912
#iterations: 389
currently lose_sum: 0.38311535120010376
time_elpased: 2.897
#iterations: 390
currently lose_sum: 0.39058446884155273
time_elpased: 2.949
#iterations: 391
currently lose_sum: 0.3310026526451111
time_elpased: 2.897
#iterations: 392
currently lose_sum: 0.3607732951641083
time_elpased: 2.794
#iterations: 393
currently lose_sum: 0.5244117975234985
time_elpased: 2.781
#iterations: 394
currently lose_sum: 0.4316166937351227
time_elpased: 2.743
#iterations: 395
currently lose_sum: 0.3567426800727844
time_elpased: 2.751
#iterations: 396
currently lose_sum: 0.43194374442100525
time_elpased: 2.744
#iterations: 397
currently lose_sum: 0.36879831552505493
time_elpased: 2.761
#iterations: 398
currently lose_sum: 0.3892802298069
time_elpased: 2.759
#iterations: 399
currently lose_sum: 0.3248097896575928
time_elpased: 2.792
start validation test
0.674358974359
0.780684104628
0.493011435832
0.604361370717
0.676001190102
31.237
#iterations: 400
currently lose_sum: 0.2658690810203552
time_elpased: 2.727
#iterations: 401
currently lose_sum: 0.3989035487174988
time_elpased: 2.719
#iterations: 402
currently lose_sum: 0.312948077917099
time_elpased: 2.711
#iterations: 403
currently lose_sum: 0.2993350625038147
time_elpased: 2.802
#iterations: 404
currently lose_sum: 0.3777555525302887
time_elpased: 2.778
#iterations: 405
currently lose_sum: 0.3971896469593048
time_elpased: 2.749
#iterations: 406
currently lose_sum: 0.5024406909942627
time_elpased: 2.77
#iterations: 407
currently lose_sum: 0.3965974748134613
time_elpased: 2.766
#iterations: 408
currently lose_sum: 0.3287726938724518
time_elpased: 2.735
#iterations: 409
currently lose_sum: 0.2814207971096039
time_elpased: 2.776
#iterations: 410
currently lose_sum: 0.4371221959590912
time_elpased: 2.758
#iterations: 411
currently lose_sum: 0.42225950956344604
time_elpased: 2.744
#iterations: 412
currently lose_sum: 0.3696257472038269
time_elpased: 2.781
#iterations: 413
currently lose_sum: 0.4056934416294098
time_elpased: 2.798
#iterations: 414
currently lose_sum: 0.48777270317077637
time_elpased: 2.739
#iterations: 415
currently lose_sum: 0.6291491985321045
time_elpased: 2.731
#iterations: 416
currently lose_sum: 0.2344750165939331
time_elpased: 2.784
#iterations: 417
currently lose_sum: 0.3153480589389801
time_elpased: 2.764
#iterations: 418
currently lose_sum: 0.4202679693698883
time_elpased: 2.741
#iterations: 419
currently lose_sum: 0.47083187103271484
time_elpased: 2.737
start validation test
0.687179487179
0.726172465961
0.609911054638
0.662983425414
0.687879201316
26.908
#iterations: 420
currently lose_sum: 0.4249461591243744
time_elpased: 2.76
#iterations: 421
currently lose_sum: 0.5720146894454956
time_elpased: 2.813
#iterations: 422
currently lose_sum: 0.28225278854370117
time_elpased: 2.824
#iterations: 423
currently lose_sum: 0.2671714425086975
time_elpased: 2.743
#iterations: 424
currently lose_sum: 0.41811904311180115
time_elpased: 2.754
#iterations: 425
currently lose_sum: 0.3323580324649811
time_elpased: 2.759
#iterations: 426
currently lose_sum: 0.3850216269493103
time_elpased: 2.739
#iterations: 427
currently lose_sum: 0.3656488060951233
time_elpased: 2.775
#iterations: 428
currently lose_sum: 0.3182000517845154
time_elpased: 2.772
#iterations: 429
currently lose_sum: 0.3426540493965149
time_elpased: 2.751
#iterations: 430
currently lose_sum: 0.4298665523529053
time_elpased: 2.779
#iterations: 431
currently lose_sum: 0.25614720582962036
time_elpased: 2.776
#iterations: 432
currently lose_sum: 0.3878498077392578
time_elpased: 2.792
#iterations: 433
currently lose_sum: 0.23089590668678284
time_elpased: 2.727
#iterations: 434
currently lose_sum: 0.42496031522750854
time_elpased: 2.693
#iterations: 435
currently lose_sum: 0.4031044840812683
time_elpased: 2.743
#iterations: 436
currently lose_sum: 0.35310813784599304
time_elpased: 2.782
#iterations: 437
currently lose_sum: 0.5313401222229004
time_elpased: 2.758
#iterations: 438
currently lose_sum: 0.35347285866737366
time_elpased: 2.788
#iterations: 439
currently lose_sum: 0.5518392324447632
time_elpased: 2.769
start validation test
0.675
0.759259259259
0.520965692503
0.617935192163
0.676394877299
30.468
#iterations: 440
currently lose_sum: 0.49421659111976624
time_elpased: 2.751
#iterations: 441
currently lose_sum: 0.3892659842967987
time_elpased: 2.727
#iterations: 442
currently lose_sum: 0.23410674929618835
time_elpased: 2.732
#iterations: 443
currently lose_sum: 0.32971349358558655
time_elpased: 2.72
#iterations: 444
currently lose_sum: 0.29734963178634644
time_elpased: 2.796
#iterations: 445
currently lose_sum: 0.43534937500953674
time_elpased: 2.791
#iterations: 446
currently lose_sum: 0.23507948219776154
time_elpased: 2.714
#iterations: 447
currently lose_sum: 0.35170966386795044
time_elpased: 2.808
#iterations: 448
currently lose_sum: 0.4399333596229553
time_elpased: 2.725
#iterations: 449
currently lose_sum: 0.3734205663204193
time_elpased: 2.74
#iterations: 450
currently lose_sum: 0.3946537375450134
time_elpased: 2.749
#iterations: 451
currently lose_sum: 0.23169264197349548
time_elpased: 2.763
#iterations: 452
currently lose_sum: 0.4846934676170349
time_elpased: 2.756
#iterations: 453
currently lose_sum: 0.49052923917770386
time_elpased: 2.746
#iterations: 454
currently lose_sum: 0.17877992987632751
time_elpased: 2.771
#iterations: 455
currently lose_sum: 0.3208731710910797
time_elpased: 2.713
#iterations: 456
currently lose_sum: 0.282031387090683
time_elpased: 2.793
#iterations: 457
currently lose_sum: 0.29757824540138245
time_elpased: 2.766
#iterations: 458
currently lose_sum: 0.47391366958618164
time_elpased: 2.74
#iterations: 459
currently lose_sum: 0.42697644233703613
time_elpased: 2.774
start validation test
0.678846153846
0.735197368421
0.567979669632
0.640860215054
0.679850119421
28.743
#iterations: 460
currently lose_sum: 0.40622425079345703
time_elpased: 2.763
#iterations: 461
currently lose_sum: 0.30596840381622314
time_elpased: 2.743
#iterations: 462
currently lose_sum: 0.3073834478855133
time_elpased: 2.773
#iterations: 463
currently lose_sum: 0.38993364572525024
time_elpased: 2.719
#iterations: 464
currently lose_sum: 0.3720305263996124
time_elpased: 2.816
#iterations: 465
currently lose_sum: 0.4222995638847351
time_elpased: 2.746
#iterations: 466
currently lose_sum: 0.4892656207084656
time_elpased: 2.721
#iterations: 467
currently lose_sum: 0.3789018988609314
time_elpased: 2.741
#iterations: 468
currently lose_sum: 0.23107174038887024
time_elpased: 2.768
#iterations: 469
currently lose_sum: 0.3627411425113678
time_elpased: 2.722
#iterations: 470
currently lose_sum: 0.36047834157943726
time_elpased: 2.815
#iterations: 471
currently lose_sum: 0.31014615297317505
time_elpased: 2.727
#iterations: 472
currently lose_sum: 0.47175663709640503
time_elpased: 2.716
#iterations: 473
currently lose_sum: 0.4357592463493347
time_elpased: 2.721
#iterations: 474
currently lose_sum: 0.3381871283054352
time_elpased: 2.792
#iterations: 475
currently lose_sum: 0.23646025359630585
time_elpased: 2.786
#iterations: 476
currently lose_sum: 0.5462110042572021
time_elpased: 2.73
#iterations: 477
currently lose_sum: 0.45315518975257874
time_elpased: 2.772
#iterations: 478
currently lose_sum: 0.31943124532699585
time_elpased: 2.743
#iterations: 479
currently lose_sum: 0.24196286499500275
time_elpased: 2.794
start validation test
0.664743589744
0.746268656716
0.508259212198
0.604686318972
0.666160653965
30.090
#iterations: 480
currently lose_sum: 0.30784687399864197
time_elpased: 2.805
#iterations: 481
currently lose_sum: 0.37109267711639404
time_elpased: 2.744
#iterations: 482
currently lose_sum: 0.3947678208351135
time_elpased: 2.722
#iterations: 483
currently lose_sum: 0.36368390917778015
time_elpased: 2.762
#iterations: 484
currently lose_sum: 0.3203192353248596
time_elpased: 2.758
#iterations: 485
currently lose_sum: 0.25282832980155945
time_elpased: 2.778
#iterations: 486
currently lose_sum: 0.3658612072467804
time_elpased: 2.752
#iterations: 487
currently lose_sum: 0.49517932534217834
time_elpased: 2.74
#iterations: 488
currently lose_sum: 0.4210299849510193
time_elpased: 2.737
#iterations: 489
currently lose_sum: 0.2592179775238037
time_elpased: 2.723
#iterations: 490
currently lose_sum: 0.3873996138572693
time_elpased: 2.805
#iterations: 491
currently lose_sum: 0.2998267710208893
time_elpased: 2.76
#iterations: 492
currently lose_sum: 0.3380684554576874
time_elpased: 2.776
#iterations: 493
currently lose_sum: 0.29909762740135193
time_elpased: 2.742
#iterations: 494
currently lose_sum: 0.30075380206108093
time_elpased: 2.751
#iterations: 495
currently lose_sum: 0.5009008646011353
time_elpased: 2.755
#iterations: 496
currently lose_sum: 0.2946990132331848
time_elpased: 2.708
#iterations: 497
currently lose_sum: 0.43157386779785156
time_elpased: 2.758
#iterations: 498
currently lose_sum: 0.47172850370407104
time_elpased: 2.711
#iterations: 499
currently lose_sum: 0.44168204069137573
time_elpased: 2.731
start validation test
0.666025641026
0.715210355987
0.561626429479
0.629181494662
0.666971041389
30.237
#iterations: 500
currently lose_sum: 0.3273251950740814
time_elpased: 2.721
#iterations: 501
currently lose_sum: 0.31263452768325806
time_elpased: 2.751
#iterations: 502
currently lose_sum: 0.23491278290748596
time_elpased: 2.794
#iterations: 503
currently lose_sum: 0.21058741211891174
time_elpased: 2.758
#iterations: 504
currently lose_sum: 0.2741655707359314
time_elpased: 2.769
#iterations: 505
currently lose_sum: 0.4118739068508148
time_elpased: 2.771
#iterations: 506
currently lose_sum: 0.3322490453720093
time_elpased: 2.798
#iterations: 507
currently lose_sum: 0.2801058292388916
time_elpased: 2.735
#iterations: 508
currently lose_sum: 0.5276689529418945
time_elpased: 2.764
#iterations: 509
currently lose_sum: 0.26363399624824524
time_elpased: 2.743
#iterations: 510
currently lose_sum: 0.43808093667030334
time_elpased: 2.783
#iterations: 511
currently lose_sum: 0.24126753211021423
time_elpased: 2.747
#iterations: 512
currently lose_sum: 0.40914106369018555
time_elpased: 2.76
#iterations: 513
currently lose_sum: 0.34229081869125366
time_elpased: 2.712
#iterations: 514
currently lose_sum: 0.17694108188152313
time_elpased: 2.753
#iterations: 515
currently lose_sum: 0.46846866607666016
time_elpased: 2.78
#iterations: 516
currently lose_sum: 0.3774937391281128
time_elpased: 2.779
#iterations: 517
currently lose_sum: 0.30099135637283325
time_elpased: 2.72
#iterations: 518
currently lose_sum: 0.3697803318500519
time_elpased: 2.744
#iterations: 519
currently lose_sum: 0.3537960350513458
time_elpased: 2.79
start validation test
0.655769230769
0.799043062201
0.424396442186
0.554356846473
0.657864456539
37.784
#iterations: 520
currently lose_sum: 0.39188313484191895
time_elpased: 2.756
#iterations: 521
currently lose_sum: 0.25469735264778137
time_elpased: 2.782
#iterations: 522
currently lose_sum: 0.27620917558670044
time_elpased: 2.816
#iterations: 523
currently lose_sum: 0.2395252287387848
time_elpased: 2.736
#iterations: 524
currently lose_sum: 0.6988194584846497
time_elpased: 2.763
#iterations: 525
currently lose_sum: 0.31117162108421326
time_elpased: 2.749
#iterations: 526
currently lose_sum: 0.28934913873672485
time_elpased: 2.821
#iterations: 527
currently lose_sum: 0.2454945147037506
time_elpased: 2.767
#iterations: 528
currently lose_sum: 0.3862057626247406
time_elpased: 2.76
#iterations: 529
currently lose_sum: 0.3135315477848053
time_elpased: 2.796
#iterations: 530
currently lose_sum: 0.3506701588630676
time_elpased: 2.74
#iterations: 531
currently lose_sum: 0.2741815745830536
time_elpased: 2.765
#iterations: 532
currently lose_sum: 0.5104203224182129
time_elpased: 2.756
#iterations: 533
currently lose_sum: 0.37154242396354675
time_elpased: 2.745
#iterations: 534
currently lose_sum: 0.173463374376297
time_elpased: 2.719
#iterations: 535
currently lose_sum: 0.30321162939071655
time_elpased: 2.738
#iterations: 536
currently lose_sum: 0.35426780581474304
time_elpased: 2.746
#iterations: 537
currently lose_sum: 0.23623600602149963
time_elpased: 2.742
#iterations: 538
currently lose_sum: 0.5197522044181824
time_elpased: 2.783
#iterations: 539
currently lose_sum: 0.37542209029197693
time_elpased: 2.744
start validation test
0.671794871795
0.790697674419
0.475222363405
0.593650793651
0.673574959193
32.747
#iterations: 540
currently lose_sum: 0.3921947479248047
time_elpased: 2.772
#iterations: 541
currently lose_sum: 0.2892446517944336
time_elpased: 2.767
#iterations: 542
currently lose_sum: 0.35727861523628235
time_elpased: 2.73
#iterations: 543
currently lose_sum: 0.2155119925737381
time_elpased: 2.783
#iterations: 544
currently lose_sum: 0.2657875120639801
time_elpased: 2.802
#iterations: 545
currently lose_sum: 0.2484625279903412
time_elpased: 2.72
#iterations: 546
currently lose_sum: 0.4717920422554016
time_elpased: 2.765
#iterations: 547
currently lose_sum: 0.19762977957725525
time_elpased: 2.705
#iterations: 548
currently lose_sum: 0.4074953496456146
time_elpased: 2.809
#iterations: 549
currently lose_sum: 0.36911439895629883
time_elpased: 2.83
#iterations: 550
currently lose_sum: 0.5304848551750183
time_elpased: 2.732
#iterations: 551
currently lose_sum: 0.6470848917961121
time_elpased: 2.752
#iterations: 552
currently lose_sum: 0.2818215489387512
time_elpased: 2.744
#iterations: 553
currently lose_sum: 0.3090396821498871
time_elpased: 2.752
#iterations: 554
currently lose_sum: 0.274308979511261
time_elpased: 2.791
#iterations: 555
currently lose_sum: 0.38457947969436646
time_elpased: 2.747
#iterations: 556
currently lose_sum: 0.2617509067058563
time_elpased: 2.795
#iterations: 557
currently lose_sum: 0.3475519120693207
time_elpased: 2.798
#iterations: 558
currently lose_sum: 0.27145805954933167
time_elpased: 2.721
#iterations: 559
currently lose_sum: 0.461299329996109
time_elpased: 2.749
start validation test
0.674358974359
0.738461538462
0.548919949174
0.629737609329
0.675494903436
29.829
#iterations: 560
currently lose_sum: 0.26782694458961487
time_elpased: 2.708
#iterations: 561
currently lose_sum: 0.29821640253067017
time_elpased: 2.716
#iterations: 562
currently lose_sum: 0.5200740694999695
time_elpased: 2.764
#iterations: 563
currently lose_sum: 0.8433996438980103
time_elpased: 2.766
#iterations: 564
currently lose_sum: 0.2847495675086975
time_elpased: 2.724
#iterations: 565
currently lose_sum: 0.5937925577163696
time_elpased: 2.829
#iterations: 566
currently lose_sum: 0.4287288784980774
time_elpased: 2.742
#iterations: 567
currently lose_sum: 0.32175904512405396
time_elpased: 2.771
#iterations: 568
currently lose_sum: 0.42178136110305786
time_elpased: 2.812
#iterations: 569
currently lose_sum: 0.4340219497680664
time_elpased: 2.738
#iterations: 570
currently lose_sum: 0.4224441945552826
time_elpased: 2.784
#iterations: 571
currently lose_sum: 0.25494471192359924
time_elpased: 2.784
#iterations: 572
currently lose_sum: 0.38817983865737915
time_elpased: 2.767
#iterations: 573
currently lose_sum: 0.28972044587135315
time_elpased: 2.716
#iterations: 574
currently lose_sum: 0.20766600966453552
time_elpased: 2.789
#iterations: 575
currently lose_sum: 0.3785054087638855
time_elpased: 2.687
#iterations: 576
currently lose_sum: 0.3133520483970642
time_elpased: 2.731
#iterations: 577
currently lose_sum: 0.30396920442581177
time_elpased: 2.716
#iterations: 578
currently lose_sum: 0.22183898091316223
time_elpased: 2.772
#iterations: 579
currently lose_sum: 0.16445118188858032
time_elpased: 2.76
start validation test
0.660256410256
0.770526315789
0.465057179161
0.580031695721
0.662024061767
35.395
#iterations: 580
currently lose_sum: 0.384491503238678
time_elpased: 2.756
#iterations: 581
currently lose_sum: 0.5140646696090698
time_elpased: 2.741
#iterations: 582
currently lose_sum: 0.41320037841796875
time_elpased: 2.73
#iterations: 583
currently lose_sum: 0.2572709918022156
time_elpased: 2.739
#iterations: 584
currently lose_sum: 0.27054935693740845
time_elpased: 2.77
#iterations: 585
currently lose_sum: 0.3752560019493103
time_elpased: 2.718
#iterations: 586
currently lose_sum: 0.28909245133399963
time_elpased: 2.707
#iterations: 587
currently lose_sum: 0.30941352248191833
time_elpased: 2.777
#iterations: 588
currently lose_sum: 0.30348196625709534
time_elpased: 2.734
#iterations: 589
currently lose_sum: 0.23397430777549744
time_elpased: 2.756
#iterations: 590
currently lose_sum: 0.36520421504974365
time_elpased: 2.753
#iterations: 591
currently lose_sum: 0.4017113745212555
time_elpased: 2.737
#iterations: 592
currently lose_sum: 0.299917608499527
time_elpased: 2.777
#iterations: 593
currently lose_sum: 0.3408261835575104
time_elpased: 2.77
#iterations: 594
currently lose_sum: 0.37057963013648987
time_elpased: 2.769
#iterations: 595
currently lose_sum: 0.22438359260559082
time_elpased: 2.718
#iterations: 596
currently lose_sum: 0.27469009160995483
time_elpased: 2.77
#iterations: 597
currently lose_sum: 0.2273193895816803
time_elpased: 2.743
#iterations: 598
currently lose_sum: 0.42169779539108276
time_elpased: 2.754
#iterations: 599
currently lose_sum: 0.3463732600212097
time_elpased: 2.756
start validation test
0.633974358974
0.835403726708
0.341804320203
0.485121731289
0.63662014199
41.577
acc: 0.688
pre: 0.674
rec: 0.740
F1: 0.705
auc: 0.688
