CID100010917
CID105280360
CID100060961
CID100006322
CID100005959
CID100000338
CID100006234
CID100000444
CID100005757
CID100006251
CID100000564
CID100012035
CID100000598
CID100000612
CID100000681
CID100005870
CID103001028
CID100000727
CID100000774
CID100006032
CID100005819
CID100005920
CID100000888
CID100000896
CID100089594
CID100439260
CID100001046
CID100001054
CID100445354
CID100044257
CID100001130
CID100159269
CID100001176
CID100010836
CID100156391
CID100020279
CID100041867
CID100001727
CID100001775
CID100009444
CID100441300
CID100001978
CID100001983
CID100001986
CID100001993
CID100002022
CID100002082
CID100002083
CID100002088
CID100002092
CID100002094
CID100002099
CID100002118
CID100002130
CID100443958
CID100002141
CID100037768
CID100002153
CID100002159
CID100002160
CID100002162
CID100002170
CID100033613
CID100006249
CID100065016
CID100002179
CID100002182
CID100002187
CID100006005
CID100002244
CID100002249
CID100002265
CID100002266
CID100002267
CID100447043
CID100002284
CID100021700
CID100002315
CID100005904
CID100002351
CID100002366
CID100002369
CID100002370
CID100002375
CID100002391
CID100002405
CID100002435
CID100002441
CID105281004
CID100002471
CID100002474
CID100092253
CID100002477
CID100002478
CID100002479
CID100002484
CID100054746
CID100002519
CID100002520
CID105280453
CID100002541
CID100044093
CID100002554
CID100034359
CID100002564
CID100002576
CID100002578
CID100002583
CID100002585
CID100033255
CID105479537
CID100441199
CID105281006
CID105481173
CID105479530
CID105479529
CID100002662
CID100027447
CID100446156
CID100002678
CID100002708
CID100002712
CID109552079
CID100002719
CID100002720
CID100002725
CID100002726
CID100002727
CID100002732
CID100002733
CID100002749
CID100002754
CID100002756
CID100002764
CID100002767
CID100002771
CID100146570
CID100002789
CID100002794
CID100002800
CID100002801
CID100002802
CID100002803
CID100060606
CID100002809
CID100002812
CID100002818
CID105284371
CID100002833
CID100002883
CID100002895
CID100002905
CID100002907
CID100002913
CID100009880
CID100028417
CID100002955
CID100030323
CID100002973
CID100016078
CID100002995
CID105311067
CID100009782
CID100003007
CID105360696
CID100003016
CID100003019
CID100018381
CID100003042
CID100050599
CID100003054
CID100003059
CID102724385
CID105284543
CID100010531
CID100039186
CID100003100
CID100003108
CID100003114
CID100003117
CID100003121
CID100003151
CID100003152
CID105284549
CID100003156
CID100003157
CID100003168
CID100092974
CID100003182
CID100003198
CID100108150
CID100064139
CID100003226
CID100003241
CID105280793
CID100008223
CID100012560
CID100003261
CID100005756
CID100003278
CID100003291
CID100003305
CID100003308
CID100036462
CID100003324
CID100003325
CID100003331
CID100003333
CID100003339
CID100003345
CID100003348
CID100057363
CID100003354
CID100021319
CID100003365
CID100003366
CID100657237
CID100003372
CID100003373
CID100071415
CID100082153
CID100003380
CID100006215
CID100009642
CID100009878
CID100003385
CID100003386
CID100006446
CID100015209
CID100003393
CID100003394
CID100003397
CID100444036
CID100003404
CID100006037
CID100003410
CID103083544
CID100003440
CID100003446
CID100009651
CID100003454
CID100003463
CID100003467
CID100003475
CID100003476
CID100003478
CID100003488
CID105284566
CID100441140
CID100003516
CID100003519
CID100003559
CID100003598
CID100003637
CID100003639
CID100005754
CID105284570
CID100003652
CID100003657
CID100003658
CID100174174
CID100003672
CID100003675
CID100003676
CID100042890
CID100003690
CID100003696
CID100003702
CID105362440
CID100003715
CID100003724
CID100003749
CID100003759
CID100003763
CID100003767
CID100003779
CID100006883
CID100003784
CID100055283
CID100003821
CID100003823
CID100003825
CID100003826
CID100003827
CID100003869
CID100011333
CID100060825
CID100003878
CID100003883
CID105311221
CID100003899
CID100003902
CID100039468
CID100441401
CID100028864
CID100003948
CID100003950
CID100003957
CID100003958
CID100003961
CID100053232
CID100003964
CID100004011
CID100004030
CID100004033
CID100004034
CID100006279
CID100004044
CID100004046
CID100011683
CID100460612
CID100004054
CID100004057
CID100004058
CID100004064
CID100004075
CID100004086
CID100004091
CID100004095
CID100004107
CID100126941
CID100004121
CID100008226
CID100004158
CID100006741
CID100006010
CID100004168
CID100004170
CID100004171
CID100004173
CID100004174
CID100004178
CID100004184
CID100004189
CID100004192
CID100004195
CID100055245
CID100004197
CID100004201
CID100004205
CID100004211
CID100004212
CID100004235
CID100004236
CID109690109
CID105281040
CID105288826
CID100446596
CID105281078
CID100446541
CID100004409
CID100039147
CID105311304
CID105284596
CID105360515
CID100009677
CID100004436
CID100004440
CID105311309
CID100004449
CID100004450
CID100008378
CID100004456
CID100004463
CID100004485
CID100004493
CID100004497
CID100004499
CID100004506
CID106604200
CID100004510
CID103033637
CID100006230
CID100004539
CID100013109
CID100004543
CID100065981
CID100004583
CID100149096
CID100004585
CID100004594
CID100004595
CID103034010
CID100004601
CID100065028
CID100006196
CID100004614
CID100004616
CID100004634
CID105284603
CID105284604
CID100004649
CID100004679
CID100004680
CID100043815
CID100037464
CID100004725
CID100005852
CID100006869
CID100004735
CID100004737
CID100439693
CID100004740
CID100047811
CID100004746
CID100004747
CID100004748
CID100004756
CID100004763
CID100004771
CID100006041
CID100026934
CID100004828
CID100004829
CID100043672
CID100004845
CID100010607
CID100004868
CID100054687
CID100004891
CID100004893
CID100005755
CID100005865
CID100004908
CID100004909
CID100004911
CID100004913
CID100004915
CID100004917
CID100005994
CID100004923
CID100004927
CID100004932
CID100004934
CID100004946
CID100004976
CID100004991
CID100004993
CID100004999
CID100005002
CID100005029
CID100009294
CID100005035
CID105362129
CID103001055
CID105284616
CID100005770
CID100037542
CID100005070
CID100005071
CID100005073
CID100392622
CID100005078
CID100005090
CID100005095
CID100005152
CID100018283
CID100005161
CID100005193
CID100026757
CID100005206
CID100005210
CID100005212
CID100005215
CID100005245
CID100005253
CID100005833
CID100005281
CID100005291
CID100005311
CID100005314
CID100005329
CID100005358
CID100005359
CID100005379
CID100005391
CID100005394
CID100452548
CID100005401
CID100005403
CID100441383
CID100006013
CID100005426
CID100005430
CID100005453
CID100941651
CID100060648
CID100005468
CID100005472
CID100033624
CID100005479
CID100005487
CID100036294
CID100005503
CID100005505
CID105284627
CID100033741
CID105484727
CID100005526
CID100005530
CID100005533
CID100005538
CID105282379
CID100031307
CID100005546
CID100005556
CID100005564
CID100005566
CID100005572
CID100005576
CID100005577
CID100005578
CID100005584
CID100005591
CID100005593
CID100005625
CID100031401
CID100060846
CID100005656
CID100005665
CID100005717
CID100024066
CID100005719
CID100060855
CID100035370
CID100060857
CID100005732
CID100005734
CID100005735
CID100969472
CID100005746
CID100439302
CID100005775
CID100005878
CID100005978
CID100006018
CID100006058
CID100006116
CID100006256
CID100006432
CID100006468
CID100006726
CID100007029
CID100007699
CID100008982
CID100009433
CID100010100
CID105311507
CID105311066
CID100013342
CID100015459
CID100016362
CID100016850
CID100451668
CID100259331
CID105284569
CID100023897
CID100023925
CID100023994
CID100024083
CID100024087
CID100025419
CID100027661
CID100028486
CID100031072
CID100031378
CID105311051
CID100034312
CID100036811
CID100037720
CID100038904
CID100039042
CID100040326
CID106917715
CID105284513
CID100041693
CID100041781
CID100042113
CID105282381
CID100047320
CID100062886
CID100047528
CID100050294
CID100051263
CID100441314
CID100051634
CID100054454
CID106335986
CID100084029
CID106918140
CID100055466
CID100056959
CID100057166
CID100057469
CID105284583
CID100059768
CID100129211
CID100060164
CID100107807
CID100060198
CID100060490
CID105311068
CID100060613
CID100441290
CID100060714
CID100060726
CID100060795
CID100060852
CID105281071
CID100060871
CID100060877
CID105281037
CID100060953
CID100062358
CID100062816
CID100064147
CID100065628
CID100065866
CID100065999
CID100068740
CID100068844
CID100071158
CID100071301
CID105281042
CID100071329
CID100071360
CID100071616
CID106436173
CID105360373
CID109571107
CID103002190
CID100074989
CID100077992
CID100077993
CID105281104
CID100082146
CID100082148
CID100387447
CID103011155
CID100104865
CID100110634
CID100110635
CID100115237
CID100115355
CID100119182
CID100119607
CID105481350
CID100121892
CID105282226
CID100123606
CID100123619
CID100441335
CID100123631
CID100124087
CID100125017
CID105486971
CID105311027
CID100129228
CID100446157
CID100132971
CID100468595
CID100148192
CID106337614
CID100150311
CID100150610
CID100151075
CID106918365
CID106918296
CID100153941
CID100157920
CID100158781
CID100166548
CID100168924
CID100176870
CID100193962
CID106918493
CID100208898
CID100208902
CID100208908
CID100213039
CID100213046
CID105493444
CID100216235
CID100216239
CID100216326
CID100219024
CID100219078
CID100444013
CID106918155
CID100449193
CID100477468
CID100644241
CID105312125
CID100657298
CID100667490
CID101349907
CID102723601
CID102761171
CID103010818
CID103062316
CID103081361
CID103081362
CID103085017
CID106450551
CID105329102
CID104369359
CID105311000
CID105281081
CID104659569
CID106918537
CID105311167
CID106323490
CID105362420
CID105381226
CID106003770
CID105493381
CID106323497
CID106915944
CID106918554
CID109875401
CID106442177
CID106445540
CID106918456
CID106918558
CID109854073
CID109846180
CID109854489
CID109871419
CID109883933
CID110096344
CID110113978
CID110182969
CID110324367
CID111450633
CID111243969
CID111238823
CID116131923
CID116129704
CID116131215
CID116136245
CID124776445
CID154671203
CID154676537
CID142611257
CID154675779
CID154686904
CID156603655
