89
60
111
76
53
70
135
55
56
76
91
78
73
109
164
133
134
55
146
117
59
56
142
106
109
65
61
134
72
62
76
49
94
113
70
83
126
71
79
144
98
98
93
77
88
108
89
96
81
119
241
80
128
60
213
120
103
171
76
135
80
186
68
193
73
153
59
55
104
-31
-52
12
-53
-33
16
18
-14
-57
34
8
5
-39
34
27
22
-48
45
108
-36
94
45
66
45
-18
-26
86
-2
7
54
101
1
69
92
-4
74
-25
-18
-15
-31
22
-29
-70
-13
-55
40
-69
22
-14
12
29
11
78
2
54
-6
30
74
-2
19
-21
-2
117
36
42
3
68
50
50
62
6
-36
9
27
-16
1
-1
19
-4
110
2
84
10
68
31
34
6
65
38
67
-16
107
2
53
25
60
7
59
7
10
-1
66
24
4
55
8
27
78
-11
5
100
122
145
53
22
105
56
162
21
141
15
33
18
10
121
87
37
20
135
32
93
141
142
37
10
8
62
40
2
98
23
18
14
77
63
139
12
78
117
51
11
1
33
69
30
37
48
32
-10
10
-2
-17
77
31
-63
55
-24
9
52
-30
-49
11
22
41
0
-39
45
11
78
41
14
45
6
60
7
129
43
54
31
-24
55
74
-41
-45
-72
51
21
-20
9
46
34
23
-6
-84
39
47
47
33
104
107
58
57
35
135
28
43
67
27
60
88
71
143
112
58
31
30
91
113
125
49
95
85
48
48
44
42
37
40
62
120
52
41
62
199
141
177
65
136
157
49
65
136
62
84
73
72
55
87
177
75
145
98
220
38
68
78
75
106
50
80
54
47
67
92
183
136
150
55
165
85
31
87
47
153
34
72
27
38
109
40
-48
-35
-41
-59
7
-7
40
-1
44
66
18
107
77
48
-8
-15
59
85
9
-3
8
-7
15
22
39
91
83
-7
-8
-20
-9
-47
-38
14
-38
28
-21
-34
59
27
-24
24
-46
-36
49
20
19
9
-45
26
39
-16
49
56
44
-53
-47
34
16
101
109
64
28
81
36
5
-8
75
-16
25
25
24
-22
0
37
116
5
6
-5
-1
-45
-10
49
-41
-40
-11
-24
-36
-19
-17
-65
43
-3
33
-49
29
31
26
-29
89
107
17
13
44
48
44
-19
-8
86
-19
15
-10
0
68
61
91
44
-17
8
73
33
-41
-2
17
21
-32
-33
-37
-15
-37
44
-16
-28
-23
-38
-10
-19
-50
43
-9
43
19
92
-23
75
-38
45
2
62
-8
-41
-16
44
88
40
-1
42
101
17
63
75
-32
30
5
75
-20
29
-3
11
12
22
90
113
66
17
83
102
3
-2
2
13
87
-73
21
19
-38
92
52
-17
60
7
44
16
12
94
60
18
62
36
-10
51
16
59
29
-26
7
41
61
-40
-12
-40
-21
30
74
31
18
56
26
52
0
-7
78
13
93
15
-11
5
-31
-38
16
-11
30
-3
-2
1
91
30
81
41
53
88
-12
28
73
-65
-40
-61
-14
20
-21
-6
-15
-80
-38
-57
-13
0
66
26
17
21
-53
24
30
45
21
60
-40
-49
60
-2
-59
-83
-68
-42
41
-67
-49
-4
-2
-51
-53
-78
-5
-47
-55
-56
-9
-72
-58
18
-3
20
13
-54
-53
76
64
-13
93
5
52
-36
-26
-49
72
-67
-5
-32
-6
-24
-30
-50
41
60
9
-74
-18
67
-33
-10
-76
-58
-51
-3
14
3
-55
-18
37
-29
-74
-10
-26
56
-75
-15
-55
-5
-43
75
93
58
-11
6
-33
56
39
39
1
25
-7
47
30
69
40
59
-1
31
-41
3
-68
-70
6
-65
-23
52
-44
46
15
-20
-36
2
-17
-55
26
5
-25
21
35
84
44
102
12
-49
15
65
42
48
9
17
2
-32
88
-30
68
68
-31
28
75
-7
-42
-30
59
-21
-30
-2
-5
7
-6
16
-4
40
66
-24
41
48
60
-10
4
-79
32
15
-53
-25
44
44
-10
-14
5
15
11
100
-49
24
52
14
-52
72
-17
-28
76
66
73
-48
14
-44
22
37
-4
45
15
47
-57
38
4
83
43
71
34
79
42
66
-31
59
-46
38
-36
-22
122
16
-17
-6
55
85
77
52
-13
67
7
27
-30
-31
-54
-46
-72
-79
-76
-67
-70
21
-23
-84
-42
-81
-79
-33
18
-49
55
-41
-51
43
15
50
-80
53
35
-65
-74
24
-53
13
-40
-11
-12
-22
29
-5
74
91
-3
57
16
113
-1
24
53
29
68
15
43
-20
58
30
65
25
49
5
16
48
-42
-44
-62
14
15
6
27
-47
16
-19
11
-43
-42
-33
87
-31
-38
1
80
-41
-60
-51
85
87
-16
48
-67
-11
-48
11
9
35
-36
-44
22
-35
-14
20
-46
62
22
28
-14
19
7
31
32
-47
-32
40
-46
-39
-9
23
44
-41
-30
-40
20
-29
77
60
117
24
76
81
-14
48
97
-15
-8
-37
-28
139
-27
64
-31
18
104
-19
33
72
6
-12
-15
2
32
22
-54
-23
-73
-74
-84
-25
-28
-11
-10
57
75
74
-67
53
12
-74
-55
27
54
-56
-26
-23
-24
-48
-77
29
32
-15
51
-12
-48
-8
35
-4
-8
-60
-16
51
34
7
58
21
-42
66
34
-73
-19
64
-36
-44
42
-21
45
-16
1
-92
-14
-41
-28
-25
-12
25
-35
56
-26
11
19
54
-9
49
-29
63
72
63
-23
71
15
32
76
29
10
-23
-13
11
62
102
30
91
77
16
3
88
92
12
-15
1
-19
81
95
-7
6
42
-16
34
-23
-12
69
-12
60
-25
61
115
123
56
11
23
117
33
75
68
-1
24
60
45
13
27
28
-17
-6
17
-7
15
30
1
-25
103
0
-40
-33
28
-40
-19
36
-46
-47
-67
-79
51
34
92
34
-52
71
-9
27
7
15
-17
-23
49
27
-79
-24
-61
-71
-43
11
-14
-66
53
-5
72
1
90
60
-37
-2
22
83
13
-25
66
-61
-7
46
-68
20
82
69
-68
48
-83
-7
41
-43
78
52
95
19
83
-36
39
42
-40
5
-18
-12
14
-35
-3
-45
-33
33
57
44
-6
24
78
46
-2
18
46
30
-23
-40
49
-35
-13
-10
-52
26
-14
-28
-21
-22
-28
28
6
-13
-89
-3
-65
19
-2
-20
28
22
-4
75
54
-18
-25
43
19
-35
-42
29
48
48
-27
-33
58
-34
-41
42
31
-22
-19
-31
-24
-15
60
20
-22
-40
-29
-38
-46
-37
73
-1
-43
-58
34
-45
-17
36
24
2
-26
-37
21
52
110
13
80
-30
88
96
-39
21
-5
23
-16
73
-17
8
44
40
88
10
56
33
33
11
-11
-4
1
-24
-28
47
-14
76
-4
64
-41
-44
-20
64
-22
45
-17
-39
-43
68
-51
-15
-42
27
-49
-4
-58
-17
-12
16
-14
-6
-14
25
16
20
24
48
7
-43
-9
-17
37
59
-16
-2
49
-47
37
-43
16
40
13
-2
3
26
60
53
26
-10
6
-6
-21
17
48
8
39
-10
1
3
1
21
0
-12
61
69
100
128
157
24
144
5
95
7
63
16
19
32
56
17
34
81
48
35
60
179
27
32
34
112
134
41
34
7
-10
49
1
-1
48
30
19
15
50
76
58
-52
62
133
25
21
41
57
20
54
35
38
130
22
31
27
25
22
27
72
18
29
31
24
27
39
14
28
89
102
92
164
33
144
36
52
51
49
56
66
52
64
84
74
49
164
47
40
88
87
121
132
94
26
63
118
86
72
58
140
24
172
29
87
43
18
112
29
30
37
39
22
33
21
25
63
47
9
-73
-23
-53
21
88
66
11
28
34
74
42
8
23
31
-3
31
1
9
-27
50
3
-52
1
-9
2
46
-33
10
-14
22
59
24
-53
-46
-22
-40
8
-52
-33
74
103
90
-18
38
-10
44
36
88
70
58
58
17
-2
-8
-6
-15
0
-32
53
-69
11
55
42
69
36
36
76
-9
56
-41
-26
116
12
9
74
14
12
105
113
17
23
-3
58
113
2
19
3
55
85
30
95
16
32
-2
73
22
11
169
111
29
44
80
93
65
132
37
38
121
27
69
115
52
190
55
32
109
77
9
27
83
17
20
24
41
123
36
106
120
45
12
19
60
145
10
30
-12
22
-60
42
-1
6
95
74
42
36
42
4
89
-11
62
-16
34
-37
6
72
-65
10
122
106
44
67
35
69
29
102
37
114
79
91
93
36
127
45
123
60
33
50
42
58
62
127
115
53
45
56
138
112
117
63
56
94
134
51
142
112
138
66
86
67
173
59
101
60
124
91
48
103
40
141
77
147
109
59
116
41
69
68
187
167
87
116
89
127
134
92
67
29
44
37
31
42
115
37
-58
-71
-15
-4
-64
14
93
-55
-37
-2
-22
-17
114
33
-14
47
30
-24
-31
59
-19
-1
66
-56
-59
39
-7
-72
-10
-22
-39
3
52
5
8
-58
89
88
52
-11
68
35
29
21
-29
50
73
65
36
55
-51
-42
-1
-70
91
92
60
-4
-45
25
-11
-31
22
-18
-7
35
11
-38
-48
-45
-44
47
21
-35
-36
24
-18
-38
54
-32
-16
42
-37
-37
32
121
14
99
58
45
-5
34
-6
67
-34
11
1
23
142
56
-3
29
28
36
35
-13
4
-3
-36
75
-27
54
-13
60
97
118
-34
-55
-57
45
13
-54
-39
53
22
31
-42
-59
33
23
-39
-62
24
-61
91
109
25
19
-35
-21
46
-17
81
61
-40
24
-43
9
-36
60
-31
-3
-21
-48
-44
22
-52
-2
-71
10
8
27
15
-64
64
-38
29
-58
-6
17
45
48
60
48
51
-53
70
7
16
-14
15
55
3
37
-28
-47
25
-26
-54
13
53
111
-39
-33
110
-14
97
48
69
-16
63
-25
4
-33
77
-55
84
44
-4
-45
-42
-28
-41
2
77
41
125
5
85
11
37
9
10
14
11
16
28
38
22
24
99
20
91
36
101
108
5
15
112
78
25
112
116
26
80
25
41
49
49
73
36
77
49
74
49
51
107
41
47
129
159
126
32
81
27
28
11
60
40
132
4
16
36
89
-16
-29
15
-21
49
-58
57
17
2
57
27
-43
35
16
-26
18
-42
95
-28
-37
-13
-9
-13
-11
3
-48
-8
59
45
36
-20
67
-13
-2
9
89
71
-48
4
5
27
89
27
-14
42
-71
36
27
41
-34
44
48
-15
-63
53
11
16
65
-36
28
-4
38
6
-31
-33
5
2
-38
-47
15
-54
-37
-18
-13
-10
-67
25
-46
60
-25
101
-44
-24
-48
-49
-21
122
-13
41
8
16
1
-33
62
-16
48
-51
-32
-8
-48
59
67
25
63
60
72
73
59
40
-5
0
20
12
0
1
0
12
-15
33
70
22
159
39
14
14
129
14
145
28
124
117
9
83
16
27
137
17
59
26
82
42
61
28
60
105
67
36
27
145
60
125
19
23
97
26
12
15
94
32
-13
12
69
-21
36
43
13
-15
-12
-9
14
10
69
41
-8
-27
-24
92
-35
60
36
75
22
46
14
53
25
53
72
18
12
-38
54
-49
2
32
-9
36
-49
24
2
31
-38
-60
14
-37
80
-34
-40
-33
96
75
23
62
88
42
-8
-18
33
-47
76
-56
1
6
68
24
5
-8
66
5
-1
10
63
14
1
52
24
62
59
3
48
86
5
35
76
54
83
6
11
65
16
104
42
52
55
9
31
120
12
40
18
23
28
64
36
85
9
17
13
38
18
0
68
29
15
47
13
3
-35
-39
-29
12
36
48
8
12
68
-29
25
27
55
35
85
-10
94
68
-4
45
21
-1
24
54
83
76
-8
-4
13
-9
18
32
35
36
88
24
-41
75
20
-7
-26
-39
51
-36
-39
21
47
-43
-26
41
-2
-14
51
-29
84
125
-11
28
67
18
-19
124
58
-25
3
23
97
1
-14
104
-1
48
15
-21
2
11
71
33
2
39
97
-7
7
18
-3
109
76
1
-12
11
40
-5
-1
-6
-36
9
-1
47
-35
-25
23
19
-22
-17
-14
-58
2
-51
-39
8
38
118
43
-43
12
-17
73
20
48
-71
-36
51
30
-12
-75
-56
-6
59
99
-13
106
89
-13
48
22
-10
-53
-35
75
-41
58
-45
36
28
-46
23
112
82
98
70
-14
-15
0
46
64
133
47
58
-48
-7
88
-12
18
66
45
-3
69
8
-22
88
26
-61
-6
-18
-57
-14
58
21
52
-51
26
26
-38
66
-52
13
-54
31
92
4
60
24
57
7
9
42
46
5
-12
61
75
-3
60
98
156
11
31
22
114
93
52
36
119
86
108
14
23
30
46
177
57
102
64
63
14
11
71
149
128
24
39
-6
79
32
19
16
122
110
94
129
47
-1
-9
24
7
-16
66
132
69
33
17
-5
30
-26
33
10
-18
66
44
46
22
-16
57
-16
90
26
106
57
31
83
-7
-1
66
27
92
106
-10
74
11
-11
-29
33
4
78
34
79
73
24
-23
-2
75
32
2
-29
-25
88
-8
70
40
42
-12
63
59
75
-24
75
36
-5
-23
11
22
90
15
113
66
105
80
67
102
14
-15
86
24
32
-11
1
51
7
21
74
29
-1
53
-54
66
28
81
42
74
39
3
-45
2
-44
-6
-42
3
-10
-67
-49
-74
-69
-18
-58
49
72
-44
36
-11
5
83
51
44
-43
-27
41
-34
-25
-54
-67
-14
-71
66
24
58
33
38
91
29
134
39
104
40
87
86
24
112
76
80
153
33
22
114
93
28
95
42
105
16
32
20
132
53
190
70
45
50
189
123
65
40
56
127
59
95
155
127
60
70
124
168
66
136
113
89
37
29
59
30
81
56
45
58
62
58
137
46
156
50
50
78
60
128
57
59
35
33
37
52
57
52
37
56
43
117
35
37
55
118
43
48
38
53
36
37
65
45
45
60
34
32
53
107
58
120
107
114
174
60
61
56
51
141
53
72
162
117
84
70
102
61
104
65
78
103
73
105
61
112
119
52
55
104
97
76
61
170
50
52
38
130
71
95
139
55
40
180
45
88
43
81
65
118
27
39
113
27
9
46
-3
16
20
83
-3
69
20
37
21
56
-7
-70
41
13
54
138
71
51
59
47
46
111
29
112
88
39
54
48
39
88
41
47
39
41
71
59
124
39
40
42
100
22
40
28
62
48
55
176
184
103
111
76
72
76
71
67
59
144
72
97
81
75
37
77
133
105
66
65
184
99
54
54
113
32
136
35
41
42
155
133
34
45
111
82
59
66
46
-57
-8
1
10
34
95
63
53
-52
-32
-80
-13
-55
10
5
84
-6
63
30
-2
-16
-23
57
2
-5
-9
-14
7
47
71
17
48
-10
20
3
1
5
7
1
-11
72
5
0
2
13
-18
11
4
28
13
68
51
144
95
9
63
71
38
121
36
31
56
16
17
27
104
38
32
21
66
65
16
151
130
26
25
142
81
26
14
105
18
-10
6
-8
28
25
84
15
49
3
9
9
54
-14
-3
-12
42
-7
-3
72
42
-12
-67
-6
68
6
35
45
-2
-13
72
-11
-15
-14
38
21
27
0
-1
-19
-2
73
68
-10
63
12
41
51
-21
64
55
-4
107
-1
10
62
23
121
83
51
39
29
28
56
49
21
64
103
-2
-5
55
40
-8
14
106
-15
-10
-16
-31
22
-75
-16
-22
-7
25
-9
4
74
-63
109
-40
3
23
-92
17
51
21
-42
7
-49
-48
-3
22
17
-43
-33
40
85
-23
-20
37
53
-7
100
-45
93
61
-24
-48
-46
20
7
16
36
77
61
0
50
0
9
25
69
97
11
56
16
6
28
19
68
79
101
54
106
23
39
36
129
25
77
42
38
33
94
22
64
31
87
43
99
40
55
23
32
50
148
150
101
47
13
-4
130
12
11
97
-1
121
19
140
77
122
-26
36
-50
66
36
48
-34
25
48
-36
24
26
-50
-38
33
-23
-19
20
94
56
52
101
68
-1
-23
68
37
13
-12
4
5
-6
-11
-30
-11
76
60
55
-41
-22
-10
-50
-49
98
35
6
-10
-70
-54
12
55
-35
118
20
-29
-50
-61
-8
35
4
-19
-65
-4
17
5
24
12
-57
-79
28
73
-6
-34
-40
-29
25
21
-7
37
14
112
-70
31
37
63
-27
77
38
-49
45
-21
64
-61
5
-86
-18
5
0
28
107
37
24
-1
3
46
-62
46
-39
-36
16
-1
-2
65
102
12
101
-51
-2
-18
-10
36
2
48
-18
-21
95
-16
56
-22
28
37
-14
-30
4
-52
7
82
125
-34
-59
39
62
-6
7
-15
-64
-81
93
-4
-17
30
-48
-39
30
-19
39
39
-30
25
7
54
79
-31
47
26
28
-77
-21
-74
-47
59
-36
38
-53
52
-51
71
24
12
66
45
60
10
43
54
-53
18
84
-8
66
-5
-67
8
-18
4
-69
6
-77
3
19
-7
24
-2
-38
-28
52
-25
-62
81
23
47
-5
54
60
-69
-41
54
-63
68
-62
-69
48
8
20
-49
-45
58
40
-79
44
99
-6
45
81
55
51
2
-13
4
-4
28
60
18
-15
70
1
97
18
155
19
125
154
13
141
120
113
13
29
68
28
23
43
89
133
13
38
56
34
10
63
62
70
69
3
46
23
22
131
38
-2
5
56
11
18
15
-7
25
22
29
46
-1
90
51
4
-52
7
29
11
-32
78
-42
31
7
17
52
114
80
13
-24
-24
61
-2
-6
61
29
-34
-19
-2
101
52
-22
-25
69
48
0
50
-12
-58
-49
91
-24
-17
25
-61
49
-48
22
17
-34
6
81
-19
1
55
49
-50
5
4
49
-4
-14
26
-23
60
-24
-31
13
-56
-13
33
50
52
20
48
-17
82
41
64
19
-35
69
-30
-39
-64
-20
48
16
76
48
17
11
-28
-55
46
52
14
78
-54
-12
60
90
-11
7
72
-3
63
-21
-55
19
2
65
7
28
17
80
75
-69
24
96
88
64
64
86
-51
-36
56
33
-16
57
69
43
40
39
33
89
46
-16
-12
4
-16
-22
-13
-15
-13
59
33
85
36
12
48
101
39
0
73
19
23
26
17
29
89
51
24
75
136
43
-2
11
26
29
5
26
19
-8
29
10
97
-12
101
-9
142
88
39
39
51
88
101
114
36
45
114
168
54
56
176
50
184
47
163
64
135
59
111
71
170
67
150
61
56
74
74
100
67
144
52
75
77
74
79
98
84
60
70
152
36
184
121
41
99
145
113
104
54
41
43
51
45
28
45
34
3
-20
-24
14
-67
-5
4
11
5
49
48
-22
36
5
4
5
44
28
-25
-59
-14
-80
-71
40
18
-33
89
50
-29
31
63
29
68
67
63
11
22
0
89
98
104
0
49
-5
27
12
34
41
-8
9
-2
110
-4
-7
52
-35
-26
26
79
45
-7
16
-17
-30
66
-38
-9
71
83
65
72
57
-11
-3
-35
17
45
17
74
-59
-67
47
-25
59
29
8
-12
-48
57
39
79
161
51
29
41
124
50
40
102
44
40
28
198
62
48
104
50
48
83
96
55
150
88
52
78
45
67
99
72
144
144
105
79
191
89
81
159
152
184
174
48
30
46
51
133
51
174
75
66
26
8
2
6
12
10
-1
24
83
10
8
86
2
59
31
-5
-7
126
41
167
17
25
73
19
39
22
14
108
32
37
33
130
43
41
50
188
68
53
30
27
75
74
81
26
15
49
118
17
114
30
121
16
13
121
105
41
52
10
40
77
14
-3
8
2
51
28
81
-23
64
89
11
4
22
-58
71
43
-27
63
106
-43
23
43
46
19
12
21
13
58
17
13
1
41
89
10
13
16
71
26
26
101
18
154
37
35
29
53
38
66
25
120
147
70
42
58
26
45
37
42
114
19
82
19
140
61
144
51
24
134
31
134
6
94
122
106
101
5
37
-4
15
-2
7
45
29
16
41
82
36
26
-6
-18
32
-34
13
95
-20
48
5
51
24
-24
34
-4
-13
36
-42
-22
-13
-38
35
25
131
65
7
110
2
97
-10
5
20
62
-19
31
15
153
1
18
72
67
78
-28
9
13
18
15
8
-19
86
-1
23
28
-29
-38
90
-48
9
-10
5
27
-43
76
2
59
29
27
-52
-35
16
91
24
50
-21
76
-30
85
36
-4
15
14
-8
48
59
85
-21
6
74
64
-37
-23
51
-2
48
-21
-38
-44
89
-67
1
-8
8
87
-15
10
48
24
-27
-14
68
-6
51
-43
-42
105
8
39
28
5
89
91
52
-28
43
-10
-26
40
-22
-48
63
-34
7
-7
15
-4
19
12
-5
-52
8
30
93
3
92
26
-1
30
-34
-19
16
8
-7
47
47
-68
-15
6
-21
41
-17
66
-3
107
5
70
7
48
81
47
8
2
40
116
96
-17
90
59
25
27
81
95
98
50
98
40
28
5
12
3
32
5
78
45
92
-18
-33
-15
72
32
75
21
-15
28
-13
-76
-63
-41
11
65
-20
-32
47
-44
74
-36
88
67
-22
79
42
-38
-53
-40
-28
86
18
33
-44
24
21
-84
-19
-29
-26
31
19
-13
-29
-7
78
22
42
-19
-5
68
43
32
-7
-5
-13
79
48
88
36
116
88
87
5
83
31
12
28
19
76
48
20
23
15
47
81
22
54
118
13
9
61
112
119
2
-11
103
56
-18
-19
-15
19
16
13
-3
2
-23
35
30
49
-31
53
98
-10
49
79
-16
50
16
95
56
-7
31
88
16
9
2
39
-16
82
70
4
42
-41
-16
12
-18
-54
-68
10
34
-9
-71
-77
11
-13
-72
3
25
-11
35
54
-64
26
21
-21
-39
-2
88
91
68
90
49
17
11
73
21
4
101
20
10
32
-8
8
10
78
23
167
74
146
20
37
126
42
33
131
41
140
27
44
13
70
47
23
100
82
30
40
11
0
122
38
122
101
36
125
19
78
15
-2
9
7
-12
16
-11
-72
11
-25
-66
15
-59
-7
-8
48
71
0
-8
-1
88
67
26
13
-26
-31
23
12
-31
-56
-4
82
61
-11
-43
-43
55
62
-37
-43
-67
24
-43
29
70
143
104
23
21
22
10
95
54
180
60
73
55
48
104
54
54
58
68
56
80
159
79
60
63
19
49
59
66
57
173
63
47
131
127
43
95
38
17
22
23
64
-5
-42
13
-17
10
75
63
42
19
4
67
-7
-47
9
30
-4
46
-40
62
28
-35
2
-8
-35
125
5
39
-20
50
11
19
-3
58
-29
-40
51
-10
19
30
-11
-31
-30
14
62
-57
-57
-19
-28
-5
3
35
117
-3
100
-14
-10
-3
78
-1
27
-10
-17
-16
69
0
-4
57
28
65
18
14
124
13
153
20
119
22
112
4
20
28
67
17
34
20
32
28
42
84
106
30
175
33
28
31
69
36
26
21
91
37
105
22
40
22
9
27
64
-7
31
-5
73
114
97
-13
54
77
-8
15
110
62
44
1
88
75
25
24
8
53
41
-2
52
30
9
83
17
44
37
102
7
105
18
77
47
-10
28
65
-17
39
-2
19
7
26
30
63
92
34
-37
-39
45
-31
39
65
-39
77
30
-6
59
66
28
-34
51
12
53
-69
-65
1
60
27
-10
13
30
4
62
56
-67
-6
-12
12
31
-50
-9
31
-51
35
-45
32
-3
-44
119
-1
-28
13
-19
52
49
-1
52
-32
-11
-34
74
56
67
97
41
70
-19
41
21
-69
16
65
73
74
-38
-6
2
49
32
46
42
10
-35
5
71
53
9
66
19
24
103
102
55
79
26
9
3
31
39
96
-14
-7
74
-9
23
11
64
83
-5
-26
-22
-4
150
66
10
92
56
5
136
115
108
0
3
16
38
84
8
129
19
24
171
51
29
85
58
-10
82
32
101
18
8
65
38
-12
88
83
-14
-6
6
-7
-6
-5
1
-11
60
-30
12
31
-38
2
1
63
21
-45
91
52
45
24
10
-60
3
-59
87
40
34
64
39
-27
66
139
29
81
102
17
23
39
78
40
91
135
66
69
32
51
48
162
117
37
46
42
45
154
52
99
66
78
45
62
116
31
111
84
83
91
57
108
169
24
27
44
137
152
19
62
64
142
28
67
13
32
44
20
27
42
29
60
90
12
-30
10
-37
106
12
-19
5
79
37
85
86
30
8
-14
-38
15
-10
58
61
73
-23
-42
20
25
98
-29
-34
-22
8
-4
-29
49
-19
-23
77
68
76
-14
46
13
23
11
25
34
15
-18
37
75
-10
42
49
26
18
28
-27
111
3
-9
-19
61
89
-13
-22
0
92
70
12
-17
117
75
29
54
32
-8
4
44
55
-32
9
45
105
98
77
14
20
14
112
118
-2
39
17
75
86
47
17
23
91
16
-4
-11
55
94
7
73
31
25
5
50
-33
-19
-21
54
8
32
-71
81
-11
-31
-13
77
-22
46
-13
65
37
75
-7
-11
60
70
58
-12
-26
18
6
1
10
130
81
22
24
42
32
78
123
90
-9
84
-5
76
128
-7
91
59
11
11
77
-13
-12
-26
57
28
-17
21
66
106
79
60
53
66
120
62
70
53
64
60
73
58
77
45
66
176
128
77
72
159
67
77
195
89
87
83
64
76
182
83
91
130
80
97
180
85
189
105
80
76
196
163
91
97
86
96
80
152
93
163
57
72
68
65
57
83
72
64
103
84
154
90
80
171
51
84
155
64
70
60
85
68
90
127
47
75
46
46
-17
67
86
-34
71
6
17
24
7
-55
85
-17
68
75
-41
29
41
46
65
-41
-21
-14
-16
6
-4
125
59
23
36
80
95
6
33
-18
58
24
129
11
-1
31
10
76
34
-1
8
16
9
-37
-42
51
73
-38
68
-52
61
70
-20
84
-56
64
56
43
11
30
18
10
69
17
-40
-38
-14
-50
-22
122
-13
55
85
48
39
-31
-52
7
101
88
-22
-40
56
40
60
-30
106
79
128
-19
100
7
72
89
27
14
-41
-9
62
41
37
5
44
63
23
-25
66
48
32
43
103
45
119
63
92
42
44
29
30
55
30
116
110
142
93
59
56
75
63
72
66
49
165
85
96
74
57
178
76
54
83
79
135
91
82
93
176
50
147
49
70
133
57
85
51
135
43
30
35
158
48
114
68
5
68
56
-21
49
16
38
107
-6
-23
-14
-21
72
37
-26
40
43
62
-75
-56
-5
19
-42
44
-47
16
66
-23
3
82
49
49
75
-4
87
89
40
50
69
76
-77
17
90
89
74
56
44
-19
-54
3
-33
21
11
30
1
8
97
67
-44
75
20
-23
-2
-17
43
43
11
90
-20
20
-27
44
63
12
-15
-12
-60
-7
73
-26
-42
11
35
39
104
70
20
115
41
36
148
177
111
50
119
44
52
56
76
112
47
78
47
17
33
124
55
110
78
139
101
64
93
35
66
144
26
104
151
34
21
43
135
29
17
31
14
136
17
46
-2
0
-2
49
59
1
61
20
17
32
135
81
42
37
31
91
135
103
4
26
58
50
29
111
40
6
20
130
42
1
114
8
67
70
41
25
9
10
95
94
-28
-35
71
-1
55
-22
-40
57
37
-14
-60
0
78
51
23
-9
3
-48
-61
98
51
-11
-2
45
6
-1
-15
36
22
46
-15
-34
32
-5
-53
-33
97
48
-9
89
57
-13
-50
46
-45
65
33
59
-58
45
32
-9
85
83
85
72
9
-12
34
91
85
6
91
-1
12
44
112
170
25
25
60
148
40
25
81
20
40
83
133
58
148
70
15
69
39
71
49
47
51
84
163
42
93
46
33
85
27
30
124
18
96
37
5
35
-2
146
5
17
-39
1
39
-56
2
49
43
20
118
-46
37
5
90
69
-10
58
63
23
-36
30
-59
-56
55
-35
34
67
83
38
69
29
51
10
46
42
86
-9
69
-26
64
-14
85
51
40
5
99
57
-12
73
-14
50
148
1
73
34
20
113
64
-5
-17
74
93
-10
42
-16
81
-25
53
65
100
-6
18
23
-7
-45
-20
103
6
34
91
29
64
-39
-53
27
46
15
43
46
46
-55
68
50
41
36
-21
52
115
-27
57
48
21
73
78
-12
93
-9
17
38
136
50
23
29
-3
38
16
-29
30
81
-18
53
6
0
25
73
-46
-24
-17
22
80
63
74
-1
159
69
101
9
15
92
100
44
29
37
122
37
15
47
59
8
82
13
39
42
-2
33
73
152
131
14
113
143
96
42
15
74
113
125
113
97
33
50
44
25
-5
43
36
20
17
107
86
128
-44
61
21
32
36
25
10
20
180
96
39
43
166
27
121
31
85
117
45
93
143
37
110
38
41
39
54
79
201
19
120
35
28
48
27
134
47
18
164
117
103
56
48
53
36
40
134
54
45
31
46
19
27
138
19
0
27
72
-7
42
36
-56
51
74
13
56
44
16
28
-74
3
-49
-13
16
-41
32
65
1
81
32
8
74
-4
-31
32
18
46
-49
42
-19
61
-35
28
-62
71
87
18
173
76
63
23
31
48
45
110
42
114
136
51
151
34
96
72
24
105
166
41
56
134
45
124
49
19
139
36
33
43
99
127
42
18
108
24
83
9
3
21
31
117
50
-30
31
54
28
-58
-13
-3
94
36
19
-20
-9
41
-31
-31
41
-23
-22
-12
49
-20
-40
52
53
-28
5
-31
-54
81
46
-62
15
60
11
10
70
-6
10
8
-2
150
79
110
48
58
110
43
31
40
23
154
37
79
73
133
35
34
105
53
64
41
44
68
29
70
13
48
70
189
25
23
103
23
83
59
68
129
154
24
54
0
122
32
35
74
141
101
3
12
78
-5
4
-2
9
45
15
11
90
146
41
61
51
93
59
92
67
150
69
55
75
63
56
41
66
61
50
127
64
119
180
148
138
43
36
134
33
153
153
25
141
78
24
43
55
60
71
101
5
16
4
101
-43
100
34
42
12
59
25
24
-9
8
87
39
-48
-70
77
14
-58
32
-30
-55
50
-17
82
54
-22
89
47
17
96
-9
7
-36
19
138
63
24
32
8
89
71
-13
-40
52
-19
89
4
82
-20
65
55
43
65
-12
-28
4
36
116
-4
9
52
83
87
111
70
2
3
15
98
-7
48
25
20
46
32
18
100
69
-11
-5
34
112
-16
100
14
-15
-1
-18
59
-15
-34
7
-13
-3
-16
-38
19
39
16
-1
3
55
30
23
34
27
41
22
112
140
28
138
53
109
105
75
29
74
22
30
33
68
13
151
43
33
31
24
35
39
129
148
28
44
43
24
16
52
-52
8
-64
48
16
-34
-25
47
71
-44
43
19
-12
78
85
-20
52
14
13
38
-46
-3
-12
67
-47
92
72
-62
60
-6
-49
-25
41
-17
-46
-26
48
35
-25
33
82
35
24
11
56
-2
33
-14
1
33
-24
-28
-35
-14
-25
31
42
4
11
68
-36
19
-3
29
-19
-35
-38
-65
-65
-43
-46
20
71
-16
-4
2
-2
30
98
19
156
20
66
49
31
62
119
44
134
17
23
177
64
117
-1
42
16
-6
89
47
24
52
9
40
-24
3
21
75
89
47
-61
36
71
22
92
85
50
53
75
13
-76
57
68
-26
21
-28
-30
84
-26
64
13
52
24
-28
-72
-63
-25
-54
-1
21
-36
-28
62
105
-60
50
-1
17
55
100
118
88
-31
42
-2
-8
-9
16
96
-16
17
-13
19
-8
50
9
-27
79
4
-10
41
-14
19
-15
9
-29
12
-28
70
82
-40
5
19
85
-56
83
53
-67
-59
44
59
37
56
40
59
-33
41
77
-50
-36
116
30
10
-55
53
21
26
-3
-36
-35
45
68
21
-40
31
-59
38
22
-2
11
-14
4
117
28
61
18
136
17
36
38
36
15
104
48
41
13
34
66
65
9
39
151
130
24
40
30
81
109
105
124
46
124
25
84
131
32
49
31
71
42
-3
-49
13
80
2
25
86
78
60
-7
-71
30
24
10
-22
-7
44
32
51
54
107
106
23
43
80
32
85
24
139
62
24
110
80
134
22
82
34
45
148
71
92
43
23
71
8
45
115
115
46
84
20
141
69
35
52
145
52
92
19
37
27
25
1
17
107
16
60
4
34
37
42
20
-2
5
10
8
18
49
13
-42
-40
-19
70
-37
30
-24
8
42
53
22
79
-38
-25
68
-10
-37
54
-26
64
-40
-57
83
65
19
-8
60
68
23
-7
40
12
60
61
28
5
28
-10
-27
-17
48
-48
20
15
-52
-15
124
96
69
7
104
62
77
49
69
17
-17
-40
79
-71
58
20
26
-12
73
-65
34
64
-71
-5
-88
34
-36
117
-3
-23
89
68
82
72
43
50
-11
125
19
76
51
42
31
64
31
35
-36
73
87
-40
-30
9
60
-36
67
27
-50
70
7
-86
82
58
8
37
54
38
-9
-70
33
38
-1
66
61
-54
19
-24
117
-35
11
82
62
-41
-18
-34
-37
29
72
-43
10
79
-31
88
95
63
-5
26
83
56
-67
24
56
-34
45
35
-40
-42
60
94
133
71
46
41
43
57
177
42
59
49
56
87
154
65
163
143
52
170
40
38
93
77
67
98
163
73
142
34
41
106
97
145
164
43
65
124
27
82
28
56
35
34
20
30
11
59
19
156
143
4
68
62
25
20
37
31
55
25
33
103
31
33
129
12
25
50
118
143
94
108
58
6
15
63
31
48
-13
124
77
183
72
106
212
72
171
150
98
79
87
91
86
70
185
87
93
82
99
153
53
185
99
96
160
101
59
139
167
151
65
87
81
170
148
123
49
43
126
33
90
68
90
50
108
107
80
129
80
45
62
84
178
99
139
95
88
91
194
86
121
110
188
214
136
103
81
119
110
122
171
76
168
87
104
197
222
86
96
124
85
142
190
83
110
101
87
132
64
66
77
56
150
-15
43
121
28
4
16
82
66
-4
135
71
143
31
151
102
123
137
53
12
48
51
111
23
42
80
46
97
58
119
15
21
14
32
103
39
56
9
21
122
100
38
16
4
26
195
182
137
54
96
57
57
70
136
142
104
128
168
64
89
150
172
119
72
64
97
59
102
31
57
44
103
-4
52
101
83
55
93
22
145
3
38
10
108
90
90
1
35
92
150
83
112
253
187
129
160
126
101
191
127
226
123
123
113
177
177
99
134
101
123
189
112
131
186
120
109
102
137
92
130
112
201
220
114
121
187
139
98
150
120
82
97
101
167
138
131
122
96
83
55
70
97
64
20
-13
64
26
50
79
72
94
1
-33
3
75
31
29
76
133
104
93
17
9
10
142
52
146
13
19
56
124
21
36
83
54
9
38
99
156
32
70
109
31
37
97
72
89
48
141
7
108
58
123
130
2
10
67
34
24
3
92
12
7
10
-21
14
69
80
42
41
49
106
110
-6
88
19
7
-27
110
92
-27
11
105
66
-5
85
4
94
42
95
74
55
32
44
17
16
81
-25
70
63
-5
47
44
-23
57
105
69
52
142
87
3
19
110
110
79
96
136
64
30
101
20
-4
90
31
38
55
33
140
-6
41
67
17
95
-38
-13
100
77
86
75
65
68
47
27
79
51
-36
-26
72
55
16
-41
10
75
15
63
10
68
40
14
123
165
90
52
51
25
37
95
0
91
14
77
79
-29
-15
58
166
223
157
130
161
135
189
85
120
90
196
154
100
85
126
170
147
114
126
245
156
72
90
100
80
70
110
130
109
68
80
159
120
51
60
71
65
108
63
63
72
24
15
59
134
99
50
36
-20
-10
133
120
109
159
148
98
86
73
98
65
97
70
128
89
143
59
111
150
84
102
134
87
131
47
172
73
110
64
21
110
20
126
49
13
108
133
123
30
70
94
53
85
120
32
-9
16
57
105
71
59
106
14
60
86
-59
90
69
44
50
-5
58
30
-51
-49
62
47
21
40
56
3
86
61
-34
-49
-42
107
87
186
231
125
123
100
194
104
158
190
127
216
225
111
120
143
107
136
193
129
199
199
160
134
246
225
119
108
121
207
120
237
239
229
176
96
111
168
141
102
207
138
97
102
80
83
166
88
114
98
49
58
-29
62
124
61
67
166
110
86
26
127
133
95
101
69
70
171
110
88
153
50
141
35
57
31
83
53
100
101
101
-2
31
75
19
69
75
37
61
122
-5
113
115
44
17
55
105
42
6
23
-5
101
103
71
71
93
11
71
45
123
90
139
83
34
7
59
61
46
106
92
51
132
144
136
3
10
28
61
9
75
6
-2
98
133
27
34
51
45
13
136
-5
-1
8
56
82
-14
-13
30
42
77
49
84
46
98
169
81
90
106
93
117
195
166
162
184
132
155
253
111
87
108
178
90
100
114
118
104
216
169
208
115
108
99
170
84
101
83
128
85
73
52
52
60
44
63
112
72
147
80
112
63
80
83
61
39
-13
-37
75
78
90
59
37
-8
95
46
-18
-22
-17
49
70
95
-41
-5
63
75
63
42
-61
22
67
-11
-12
50
72
-4
99
141
21
-29
3
21
35
-10
11
-15
55
30
78
177
89
99
108
90
108
128
109
192
98
140
101
89
94
139
79
141
119
114
100
148
80
95
121
194
116
90
141
89
206
126
206
107
114
173
97
109
105
85
136
83
76
75
198
79
117
88
108
98
38
47
0
73
85
87
38
52
-23
48
16
7
-60
-22
115
65
76
90
38
92
126
137
99
72
152
175
106
43
82
76
60
87
44
167
21
149
30
105
33
124
49
96
75
54
69
18
29
76
-50
79
16
144
0
-26
9
60
74
61
8
80
19
99
-1
-13
132
65
75
95
64
96
135
141
110
95
62
78
71
44
121
69
80
130
61
23
31
77
126
6
98
78
68
3
39
57
45
-19
13
77
-27
-12
89
42
81
56
71
59
1
31
137
34
117
14
88
12
67
34
111
5
80
46
137
65
20
33
119
151
102
15
25
30
-6
49
96
122
17
138
42
180
33
67
59
96
125
113
116
94
55
-6
64
67
143
153
165
120
87
112
156
142
51
145
157
63
70
49
132
60
54
67
30
-10
106
59
88
60
-4
-9
-35
32
65
97
125
175
90
146
142
190
88
147
158
119
63
105
113
72
100
79
64
86
55
55
51
73
126
3
50
76
27
51
-61
62
23
58
61
18
72
98
-1
43
71
86
-10
5
33
34
25
-14
11
27
96
59
66
3
-23
22
88
115
87
104
163
125
143
114
212
77
126
98
46
105
74
59
92
37
54
61
97
117
34
42
44
18
104
149
52
59
56
52
56
112
118
86
85
55
171
150
33
139
45
154
129
45
69
29
16
107
68
121
-24
89
104
4
94
-5
-7
24
12
-33
-4
87
-9
62
72
82
97
19
73
42
70
85
5
52
101
83
55
35
13
27
8
18
-3
54
5
32
125
115
62
93
-12
65
77
72
30
4
12
5
-22
28
38
80
128
29
96
32
111
36
104
116
36
65
104
104
83
107
23
46
126
63
-11
-8
12
0
39
0
78
81
34
36
34
113
90
14
69
36
53
60
143
43
35
133
5
36
40
77
81
33
6
40
-13
-20
55
-12
18
98
-22
38
42
45
90
-3
-15
5
96
-44
-6
93
10
34
42
127
2
85
81
88
60
67
-29
-22
69
30
-27
-5
-17
43
11
86
35
-13
30
-60
34
91
100
74
-27
29
104
4
75
66
61
63
38
104
90
85
169
163
64
140
62
118
103
125
72
117
83
65
103
55
193
73
164
143
190
150
82
113
44
47
58
37
85
66
34
55
6
22
31
11
78
40
39
15
79
47
-1
70
17
-25
89
-15
108
16
82
157
37
43
51
-8
21
71
58
74
51
35
-14
43
100
82
65
82
-29
57
73
50
10
29
-4
67
73
73
10
50
3
100
-21
0
40
-12
-25
41
40
82
75
51
53
26
59
43
52
138
103
53
38
40
118
-2
22
125
21
18
128
-7
-13
110
20
89
33
103
1
64
76
68
-70
63
-15
-20
57
19
43
104
-23
-21
26
77
17
37
21
87
101
21
68
29
-1
83
76
106
37
76
55
79
32
-51
-48
80
95
116
80
128
112
103
141
219
112
76
177
102
69
94
173
96
78
63
69
95
99
75
202
73
56
110
103
74
121
163
-1
42
25
96
93
80
16
-21
10
99
88
65
120
56
71
149
164
135
94
56
123
61
27
25
25
-8
24
-3
63
31
95
109
46
74
70
9
77
33
7
136
45
83
116
52
31
72
51
29
28
28
57
160
31
184
73
53
51
53
75
82
114
99
78
56
74
153
69
172
73
62
49
71
41
54
74
-3
19
63
25
54
83
131
90
109
71
101
111
118
89
72
87
114
104
208
155
108
75
78
95
186
78
84
106
77
123
83
83
208
71
109
93
80
91
44
73
49
59
78
50
69
8
-4
79
26
98
70
85
73
54
-31
16
23
81
96
68
63
100
28
18
54
91
37
55
69
-12
127
45
39
10
20
7
67
-7
109
151
30
12
45
-10
-21
68
-18
-4
88
17
61
38
55
61
22
38
69
88
69
101
62
-53
73
55
1
86
92
107
78
110
112
107
109
140
88
133
99
115
194
80
105
100
134
103
100
187
171
206
107
100
76
84
76
143
69
68
72
94
101
44
20
23
56
53
114
72
-30
68
87
94
12
97
-59
102
79
58
25
32
102
37
88
128
22
24
132
71
110
23
29
66
69
114
46
69
-19
4
14
-19
89
-33
40
-65
-63
90
54
99
221
55
55
51
114
68
62
137
176
83
151
76
68
58
56
63
60
154
166
106
138
44
110
41
35
35
158
114
97
86
79
63
123
109
28
59
60
44
65
131
110
20
43
87
54
24
45
27
8
149
14
68
42
21
14
104
-4
-23
43
-15
-2
34
-20
61
13
-16
38
12
-52
122
73
55
31
16
56
117
32
17
149
45
59
100
128
20
27
26
40
92
23
47
62
20
50
4
12
45
45
-24
53
83
32
24
-9
21
90
90
116
27
37
105
130
20
-10
117
-4
77
12
17
120
57
-45
-15
40
84
-6
62
74
62
-49
-23
65
-19
-39
84
66
33
68
34
44
107
100
107
1
91
5
27
86
38
-12
21
-11
-17
111
155
3
42
11
49
106
34
85
10
2
-17
81
100
88
40
88
1
8
67
-10
30
-27
-25
-13
41
36
8
62
48
55
67
-61
7
27
-25
34
-14
-30
-26
14
59
-31
8
16
11
72
83
3
30
123
-7
91
103
94
50
0
66
38
12
63
31
13
24
92
17
115
14
78
46
-24
4
41
15
57
30
71
88
70
117
28
110
142
132
32
122
8
30
47
12
-3
114
-5
24
135
115
126
247
141
143
158
261
158
118
131
123
145
181
201
213
149
208
160
119
140
119
210
148
124
104
122
105
95
152
122
-28
28
-67
-14
77
59
47
26
69
-68
-68
-87
-30
9
69
38
37
116
23
107
-9
89
9
38
77
-7
-10
29
77
33
7
-9
101
36
41
22
78
11
121
-7
22
22
20
-15
-25
16
-10
68
79
79
-9
33
117
34
99
59
7
18
-23
68
-39
-14
17
47
35
-14
28
-6
10
21
11
29
-16
16
94
-5
34
82
-36
-6
-25
-42
12
0
48
26
124
126
41
66
78
-16
-4
50
116
98
17
-13
8
103
54
64
71
43
-1
-22
-45
25
140
140
71
49
108
166
76
178
180
170
82
28
32
100
85
79
63
30
107
35
33
84
44
55
9
46
24
15
47
19
67
135
97
44
37
75
61
72
39
90
45
35
41
63
58
32
19
50
62
-22
23
53
103
4
7
44
60
108
51
115
66
82
123
101
56
67
52
47
30
158
68
115
48
62
184
186
151
58
56
49
63
154
166
49
46
67
106
126
138
74
37
56
68
55
158
39
20
100
49
28
44
45
113
11
128
128
68
100
135
29
36
47
7
5
-8
75
1
76
42
12
61
54
47
84
108
127
28
35
30
27
137
22
55
17
48
-37
51
29
4
105
78
22
88
-47
70
-18
46
12
-21
13
117
-9
57
69
-30
-22
-39
89
45
24
93
46
56
63
47
82
19
5
-40
6
71
83
69
62
55
155
116
36
107
142
102
6
54
13
13
10
-11
27
67
28
-22
-9
101
-8
23
89
73
20
-30
92
1
-26
37
54
79
48
123
109
119
55
96
162
16
144
161
50
129
152
119
11
36
31
28
101
36
12
19
64
138
87
233
184
223
130
198
162
104
213
96
114
173
185
114
180
138
132
204
98
86
76
74
131
205
86
67
108
95
-15
88
25
28
59
12
129
131
82
92
33
15
71
36
1
14
18
-4
-26
58
13
-2
89
56
71
20
59
78
63
-34
50
86
60
98
119
76
149
84
112
86
114
90
64
69
95
61
94
99
77
62
184
115
26
30
40
69
12
0
60
80
127
45
20
64
-5
1
22
-67
13
96
74
74
-27
-37
-44
-3
85
-31
-49
-52
-48
22
23
68
37
4
106
108
98
45
73
69
-8
60
79
-27
-39
8
90
122
112
87
37
51
24
102
62
93
71
9
94
-44
50
23
123
74
84
6
47
-24
51
108
123
23
14
101
32
-9
0
123
31
105
199
138
83
64
181
78
130
64
53
141
100
84
59
88
111
58
173
129
67
7
77
63
-12
46
94
31
6
24
8
53
92
74
27
14
-4
59
-30
61
-1
39
84
131
84
51
58
76
109
174
174
54
78
134
75
51
76
52
37
184
92
28
22
36
75
-9
47
59
78
39
65
-80
214
189
98
192
84
108
171
129
75
81
103
106
173
111
66
91
148
115
177
163
108
89
89
78
194
178
107
108
197
91
136
67
70
198
79
88
167
49
138
54
157
164
65
124
76
59
35
36
27
104
105
106
73
97
86
73
65
187
165
96
69
140
19
88
52
-26
22
10
-12
33
3
50
-24
65
15
115
29
13
62
42
28
30
13
24
16
91
171
120
65
159
75
72
72
57
42
61
48
34
89
163
44
44
66
96
84
-3
68
63
15
-19
65
43
-31
-2
51
-51
54
73
19
80
62
8
76
95
-11
7
-13
-34
-5
-27
-22
35
93
29
88
-1
90
21
23
78
50
-20
88
70
-11
100
-4
25
-2
36
48
83
1
-5
45
86
9
-52
-50
-58
47
167
87
58
35
71
134
70
45
158
136
52
30
37
114
36
49
-58
64
24
66
66
77
52
54
58
153
77
63
155
63
56
196
40
81
134
88
3
71
-13
55
-30
94
106
36
50
116
53
26
1
123
15
95
54
25
126
104
20
-4
16
-1
53
127
8
30
77
84
80
40
68
-12
-1
71
49
10
24
52
40
21
57
162
60
55
82
45
52
64
59
35
55
43
122
99
15
-23
26
87
73
85
64
155
71
116
73
130
61
59
67
88
-14
76
-1
79
38
58
-32
75
78
68
-40
-9
-7
20
-10
-40
-35
-15
75
54
12
-36
-11
-6
17
-26
79
-18
86
114
11
73
118
-1
74
153
54
113
24
46
19
21
19
19
53
51
73
76
59
36
55
43
69
76
165
59
48
57
149
88
27
76
106
50
74
63
71
71
82
70
56
63
66
97
74
85
78
-6
17
34
-51
63
-21
-64
13
24
83
65
-16
56
22
52
38
83
40
17
28
101
-16
12
-11
103
-16
59
67
-5
-18
74
-8
49
0
7
33
8
-47
-22
68
-34
54
-7
73
-35
80
99
-36
-16
76
-13
-27
32
-42
-31
-48
6
-58
-31
74
-72
75
13
63
62
54
187
31
55
18
147
28
57
23
-20
-34
15
63
-56
-29
-14
108
-11
64
18
-60
-3
6
-23
21
10
41
11
3
41
25
78
32
-6
-33
-42
114
65
69
50
14
-77
-48
125
-13
81
-1
70
-30
-17
-30
-26
-21
-33
4
-31
-30
-43
138
-86
-67
218
57
60
-53
60
72
27
119
76
18
-37
-5
-5
48
154
97
40
-11
31
-21
-3
-8
39
-4
34
-41
6
5
-51
33
33
-9
-6
208
40
0
14
-5
128
37
-75
66
-19
-55
-21
64
0
157
35
-22
7
-15
27
53
13
-24
-11
94
86
50
60
11
69
-5
3
49
-44
57
-15
-10
38
-72
-77
35
-48
-6
20
32
-27
26
55
9
-31
-62
51
-42
-30
-55
-52
3
-40
-30
-40
-2
4
77
-62
-4
-30
-28
-39
-39
76
66
136
13
-41
-32
-44
87
-27
14
10
127
86
-6
-77
21
-24
-5
-36
81
-62
-12
14
69
-62
-4
-31
151
6
14
-10
108
136
44
-13
-21
-14
-68
-38
-46
34
-26
97
19
46
8
50
53
45
20
73
205
41
-43
-30
-40
-48
53
17
41
-23
-58
-29
55
18
-9
-28
-6
-20
51
-26
82
-42
64
20
15
24
46
25
-32
-2
-9
12
25
-73
-44
50
-36
-54
-31
95
93
-8
16
-65
-81
-73
14
-10
-4
49
-13
-32
49
-52
-82
4
88
-7
32
7
116
98
60
101
-60
-28
-4
9
-18
101
27
84
41
81
2
-28
-23
3
-36
41
156
83
-23
27
14
-17
-62
-13
70
28
-68
-31
8
60
-45
41
53
-57
-49
-47
3
60
-65
-18
76
4
-25
-52
18
-4
69
-44
46
-26
70
80
49
98
127
2
75
-46
7
-32
-68
165
-34
-58
37
-16
45
-42
-43
29
-46
-5
13
73
54
-22
101
146
-15
10
-34
-62
28
-39
18
22
-26
-17
-31
-54
39
-51
71
68
-41
-18
-44
134
-9
51
-34
-9
49
83
38
24
-23
57
25
33
14
-20
-63
15
-69
149
7
-38
-69
-36
55
-53
-20
71
32
-72
-14
109
-33
42
-6
4
-27
-41
-42
-32
84
-36
4
41
65
-9
6
-41
-53
182
12
31
63
46
28
-16
33
65
23
14
83
-66
-13
15
-60
-56
-28
-28
77
155
-37
-7
-33
-1
-23
92
36
46
60
-74
-14
9
-46
47
-27
-57
61
-1
-64
-4
11
-52
104
73
55
-42
-37
13
154
17
28
-71
-23
-34
23
-78
57
-7
-10
-36
36
69
112
114
79
10
-16
-27
37
-28
56
-14
166
-41
44
160
45
-48
30
-41
-53
27
2
-66
2
-41
-42
-63
3
-10
129
22
-5
42
-58
-47
-28
21
-75
19
120
-32
-65
-13
-32
-16
9
-1
-45
13
-44
-18
119
50
-23
-64
-15
116
-24
-6
-24
-18
117
-51
65
102
89
-56
9
186
-79
-22
23
-68
-46
15
-79
-33
-54
-36
-44
-56
-15
-51
-53
82
6
40
15
51
-21
-48
39
81
-53
-10
58
-69
-55
-27
35
17
81
200
26
96
75
-41
-54
-32
-8
17
25
22
170
-2
22
28
-2
-28
23
-60
114
119
-66
-14
64
72
12
50
-41
157
94
-4
-34
-62
35
-42
-41
36
-36
-64
-32
-1
-79
-45
4
-75
-67
113
2
-44
3
-5
-12
108
-59
-45
57
-32
62
-11
-17
67
-37
84
-24
-57
30
-38
19
-20
-22
-2
-15
98
-26
-24
-9
-21
86
-14
-30
-25
43
80
89
68
-66
-22
9
43
157
-8
-5
-44
172
-5
7
131
18
-7
72
-62
-3
80
-62
-42
69
-58
-55
-61
24
157
-38
-51
-26
-22
-22
59
20
-12
-43
14
-24
-12
-34
-10
-7
93
-38
25
11
73
23
38
31
4
26
-24
-17
-23
15
-30
69
-42
-69
-44
34
40
-47
21
-17
106
48
56
-63
-51
-87
21
127
-65
28
177
-46
-6
40
-39
23
-6
-14
35
-19
-57
-22
-14
122
94
-35
-23
-73
86
-51
-43
-64
165
68
-32
20
6
39
17
60
-49
13
47
-43
46
-58
27
17
92
13
10
-15
-26
20
116
146
-46
-70
103
-45
-85
-40
107
99
-7
51
11
-28
57
-55
-10
46
8
-29
33
23
-32
114
-2
26
-37
15
36
18
-64
102
37
-17
-26
21
14
-61
53
36
-61
2
60
99
0
7
-51
67
-27
41
70
85
-27
36
84
-7
-74
-68
29
73
105
-61
-10
67
-36
22
15
150
77
49
42
160
4
-28
25
-50
21
87
11
219
45
105
-8
-17
-47
32
-46
3
-78
-17
60
-31
-5
-59
42
-64
40
-24
34
151
54
-46
-25
67
-64
94
28
-10
-43
-64
47
-47
93
9
-49
103
61
21
-53
68
-60
104
-46
103
37
-16
-43
-22
49
7
-41
-22
54
116
2
-10
22
-34
26
95
31
45
-43
-38
7
-44
2
4
10
169
26
-58
-7
-10
61
78
120
-50
-46
22
108
43
-44
63
53
40
22
3
72
-6
80
-29
-44
-87
-8
103
15
-23
-14
97
-35
-46
-17
-27
-53
108
-47
108
-75
-50
33
-67
-17
-49
-8
50
-42
15
-62
27
-11
-33
35
75
-85
39
-10
-59
-25
33
-19
-13
3
21
-59
77
63
195
5
-34
-80
46
66
36
-81
67
-33
-34
-29
-14
-50
-6
-61
-40
34
-33
-6
81
2
-27
-17
-46
98
-47
17
-76
-57
73
89
76
0
-52
85
112
6
81
-29
-33
43
-17
-5
67
21
56
-43
13
-24
77
-14
21
32
31
-14
163
-2
59
-28
-6
26
65
85
-26
167
4
14
-21
104
-66
5
11
101
-60
-40
-30
66
25
-45
136
95
111
76
92
-8
-41
-52
25
-36
96
25
-33
38
5
-62
-47
24
-32
-5
81
8
-14
143
11
-26
47
74
-27
2
-14
-33
18
17
-49
-44
64
-2
-42
83
35
38
7
149
-43
11
54
56
-51
-50
29
-6
-36
22
-62
10
-17
-19
-6
248
19
24
-24
27
62
54
-17
-51
12
-33
-16
116
12
-46
-38
-48
82
109
43
-74
-47
-67
79
-60
62
-5
-73
15
-25
38
-27
-5
72
-31
125
115
94
-25
-49
-20
55
32
0
16
-51
114
-3
-36
56
32
28
34
-2
82
-7
-2
-39
29
70
28
-33
-88
78
-9
2
59
73
-22
-36
-12
33
140
110
27
12
2
-67
20
-9
-54
-37
-19
-71
50
-24
107
78
65
-6
46
29
-9
-29
-66
-10
16
-52
-20
102
-1
8
50
-31
21
74
45
-35
38
-8
-1
-3
72
-81
177
43
59
8
31
108
-37
-61
-56
-17
-14
-21
-33
-55
-37
-4
-18
-10
-52
31
13
-42
21
6
56
34
-9
81
99
-11
-31
-65
21
2
-70
134
90
51
10
-53
174
37
-9
-50
53
103
-10
-35
119
17
11
-60
-50
37
-50
-56
-35
-17
75
-38
12
-65
-15
-15
-35
-24
-42
-81
16
-41
-16
-7
-81
-54
-10
16
-64
-54
24
44
108
-30
-10
72
40
1
-10
-45
40
46
-76
-12
-42
123
-39
-54
-33
51
-41
-33
-46
29
-7
8
134
-46
27
32
53
57
-71
137
-31
54
137
-21
91
65
43
30
-9
6
-5
-28
132
66
-59
42
-74
0
80
58
-25
-52
121
-30
32
-55
60
22
42
-2
14
-49
-27
-49
120
-44
41
79
34
24
-50
158
-36
-78
3
208
-26
-53
53
9
-13
82
74
-5
-32
-62
75
-24
27
84
-13
113
-49
32
-29
52
-65
23
-20
51
86
-57
142
5
-38
-15
-14
54
-59
-9
-31
-60
102
-32
-35
48
-29
43
4
26
40
-13
-41
110
-3
23
12
93
-24
23
88
136
8
51
-26
-23
41
65
-8
19
-21
0
-23
-44
-43
64
-33
14
14
91
20
-37
-19
49
5
-60
-33
-21
-36
-77
-19
-15
23
63
-35
26
-29
-5
11
-21
-15
-46
-5
-79
-40
13
-26
-65
28
36
-6
-16
63
-39
-31
21
-43
-31
-25
-17
29
49
-47
63
-6
7
0
10
39
-40
14
-36
-54
12
-66
103
-83
-39
21
-41
38
-58
60
24
2
-79
24
19
-16
40
-11
-55
48
12
24
21
111
70
4
-2
-41
56
168
-7
15
35
-23
-43
-49
181
46
-44
42
-45
35
-13
-37
-78
1
20
43
-6
-47
10
0
87
25
59
85
-24
-51
-72
-19
-1
8
51
13
-44
17
-57
56
98
-73
-29
-52
-96
-32
193
-12
88
-44
83
71
-10
-78
-45
18
35
14
56
-64
44
87
-59
129
-48
-35
46
-62
58
111
-87
3
82
-37
-8
56
-63
-30
85
128
-28
-84
11
-23
-4
169
-51
20
47
5
69
10
11
-32
-70
-78
-73
-32
-55
146
141
-50
-38
22
-53
15
67
-24
11
-69
93
23
-35
123
-48
-62
6
-3
38
32
-58
10
32
32
25
-12
6
-73
74
37
-41
-4
-46
-10
-19
-29
58
-61
-66
10
-22
69
11
114
42
216
4
3
111
-40
2
-48
19
100
29
-46
-47
3
89
113
33
11
59
10
-24
-29
-10
79
-11
105
89
15
10
102
191
59
72
-18
39
84
56
114
-59
-12
56
-1
-30
63
-7
-1
-36
-53
12
49
185
82
36
54
19
99
149
91
75
37
-66
96
88
88
-31
77
29
-46
16
-5
60
80
12
-48
-14
173
76
62
-37
61
-87
116
88
-22
58
-5
-83
64
-31
-9
-52
68
11
-59
67
-49
56
6
-26
4
7
-23
-17
-11
75
20
-13
-17
-9
114
-1
34
1
-83
32
-15
27
-25
25
-48
-2
-13
143
-51
76
61
29
51
15
9
-2
-32
75
85
-9
-35
-75
-73
88
19
61
35
-95
135
15
-66
46
51
-13
83
-39
105
0
47
-55
33
-49
-41
-11
8
-68
9
40
-4
-36
-25
-15
-47
32
-37
-29
39
29
11
-67
-5
146
-40
15
27
26
-16
-44
23
11
-35
-62
11
81
-33
52
-55
16
-31
11
-56
-32
19
22
-13
89
10
75
-54
-15
35
70
-1
-8
87
-86
3
78
-4
54
21
62
1
-60
-26
71
72
108
-38
-31
20
-48
3
-54
-52
-30
-31
-32
153
25
-41
-27
-64
-7
-38
-78
-12
32
-29
23
-2
37
110
0
-43
67
47
19
76
141
-84
32
20
123
-27
34
128
8
-39
146
21
-34
2
-21
-69
-3
-24
-10
63
-35
-45
82
-22
-18
-16
-21
130
93
-46
-2
-18
-15
-54
-49
36
-38
-5
101
-12
-67
4
75
8
60
-5
-11
100
-10
-49
-36
-15
30
53
-30
15
-49
61
127
31
9
-14
-85
14
211
14
-19
-29
78
-55
-53
-47
209
-64
-54
113
149
0
-35
-34
7
-22
62
26
45
-8
-17
-54
-5
-65
90
-1
108
36
41
55
-23
-18
14
6
-19
-2
-61
85
53
25
-13
49
195
-62
-31
-35
-39
45
-6
96
-61
-3
-46
-12
-44
-58
27
-10
-45
-73
123
151
-47
-57
136
34
20
-34
-50
-38
-35
-68
-46
22
-20
-35
-43
-29
-51
7
3
38
-20
-51
-2
-25
-11
10
90
9
-47
7
51
-3
-25
-14
1
60
26
119
148
20
-74
-44
-26
117
-24
-18
23
-39
-18
23
64
153
-40
-31
0
15
-13
-84
44
75
-53
43
-31
-40
-23
-76
37
44
43
47
-33
78
4
-10
-40
-19
-46
-56
-11
-51
12
79
-42
5
-46
-47
65
23
80
33
31
82
-34
-19
10
81
-51
-13
44
-53
119
152
60
10
-21
84
85
-40
-53
-32
6
-30
3
-6
45
187
203
64
144
-37
-11
-13
-54
-13
54
37
-20
54
39
-57
-40
155
-4
-61
-60
81
-23
48
-30
8
-31
-5
-19
-6
-11
44
72
5
102
-36
60
124
10
-2
12
22
-43
-15
-13
-34
26
6
4
-36
95
107
90
-62
22
-8
62
62
-77
19
-22
174
17
-79
-36
13
56
-63
7
-29
-33
-29
19
53
63
-44
65
-78
46
-19
-28
21
8
-13
28
-68
-37
-1
-54
-56
113
13
44
156
130
59
-67
-1
33
33
-10
109
154
65
-39
127
-56
140
14
83
-45
-36
-16
10
10
42
16
42
123
-51
157
109
160
-42
-68
34
19
-4
175
-62
55
-25
-43
103
-79
102
-47
-41
-53
226
-53
95
-21
-50
7
-51
15
46
-44
12
17
47
-38
108
-12
75
-32
-5
24
-89
49
135
44
16
-10
80
39
-18
68
5
-45
-43
24
-16
-41
-39
-47
-37
-17
0
-14
45
91
-42
39
-33
-34
-18
-26
13
-44
-33
66
6
79
61
81
-55
-14
-2
33
25
-54
92
-82
28
-65
-43
-32
37
57
27
80
65
-5
8
-30
-19
-1
-26
-13
36
7
-22
-33
118
-18
-25
58
-5
78
-83
-24
21
-4
7
-8
-6
-42
34
119
-12
-45
10
37
-76
-60
-6
-36
-46
-9
-33
-34
-17
-30
17
-2
-39
188
-54
26
102
-15
-17
-32
1
-14
-12
15
192
79
-60
79
16
-15
-71
-17
92
85
-82
19
-5
71
12
19
1
10
-28
7
131
-37
-28
105
4
91
38
40
168
-47
125
93
2
-27
54
-57
-48
36
-61
-56
6
28
-29
71
13
83
-66
60
-53
54
12
-26
-33
56
-40
-50
107
-47
-33
-6
-17
33
-48
-5
-27
38
89
-22
-52
-15
47
53
101
92
39
-64
-66
-67
-32
76
-36
133
-76
29
11
-51
-60
-8
17
144
-23
-27
91
-32
-10
218
-13
56
19
102
-56
-27
-48
32
-51
-27
59
-32
-9
-34
28
-6
0
24
18
-9
127
72
-31
-32
-55
38
-60
-50
-64
83
-25
-20
-63
-25
152
-35
-66
-25
-23
-9
-53
73
-28
-34
-25
16
-59
11
61
25
-54
-17
-33
-32
-52
-15
-16
-5
17
-54
-23
64
-19
18
21
31
38
-73
-19
-50
-9
3
103
59
29
17
-23
-66
4
58
-54
11
41
-7
91
-10
2
7
81
-25
134
0
-25
-55
-47
180
-50
103
-9
-75
-51
94
15
-35
64
-31
161
60
126
43
-44
-8
15
-50
34
-48
-80
-7
-35
-27
14
15
-2
8
14
22
37
-75
-53
-41
-41
-31
99
-37
14
12
-6
12
106
82
-35
89
65
-22
-29
3
21
18
23
103
24
26
2
-57
121
-65
10
-29
59
46
62
15
16
-62
4
20
-25
54
30
26
11
-15
-8
127
8
-41
2
-7
-16
-24
-72
199
-52
66
-6
99
-27
-15
38
-79
111
59
41
-5
-40
-52
-53
28
-58
66
-50
-34
-82
17
-47
-13
-28
-51
36
29
-15
64
47
48
40
24
-35
-24
31
-41
-8
62
-25
25
-12
-78
-23
46
-4
1
11
-15
-39
9
29
71
36
49
-44
23
83
-55
-73
98
-17
20
1
-69
119
0
-19
37
-34
-22
-32
-16
-24
-37
-56
-2
6
24
-77
107
67
7
-43
-31
45
38
34
-3
163
93
14
65
40
-33
65
-62
53
57
141
-70
76
34
-26
-35
-38
-26
21
57
-52
-77
-76
-6
75
-39
6
101
9
-64
-21
-55
-52
13
-43
50
-50
81
62
-19
53
54
-66
25
36
35
-28
-1
-51
-3
0
-5
-34
102
-46
-28
-39
-43
-34
-31
-48
2
-10
1
-26
-52
-72
-20
14
159
60
-21
116
-48
19
5
-40
5
-47
-43
-23
-43
69
-33
9
9
-49
-38
7
-31
-15
-10
20
4
-30
-32
14
59
58
66
-8
-29
-14
-59
104
43
24
-10
35
89
-22
47
14
34
10
54
49
28
53
77
-15
36
-29
0
-35
-38
-2
84
-51
133
-21
125
26
7
52
16
26
-42
-1
-41
-29
63
117
-52
-35
-51
-62
-10
52
129
163
31
39
-67
122
42
91
-8
44
13
-16
-60
67
29
41
-49
73
62
128
78
-25
-79
-57
-60
-71
8
0
-53
-43
-3
116
17
-20
2
18
20
-46
40
42
-3
-16
-63
77
5
49
22
70
-17
-8
36
-42
63
-37
-12
6
15
-38
31
-2
37
122
-45
-41
-12
42
12
24
23
-46
-30
120
55
16
-41
-72
-20
-38
-89
67
75
20
-21
-42
-10
11
82
-50
-53
24
49
-83
-63
101
-78
98
28
28
-35
-7
98
31
-16
47
-17
18
-19
61
-65
-34
-4
124
102
-56
-36
103
40
-10
69
121
64
247
103
-65
-4
34
-64
67
-74
-44
-65
-16
-9
76
62
-13
47
-39
-61
-76
-81
-69
-31
124
-51
-52
47
65
-57
-6
-38
57
55
2
-43
-16
-18
43
62
30
27
-40
-2
17
96
93
35
37
-13
-20
98
-15
-54
39
-55
-38
-57
-1
-7
54
-25
-8
63
-35
27
14
16
3
-77
-26
-71
59
106
125
27
56
-43
75
129
-45
-52
-46
-7
43
-17
99
-24
-5
-34
116
16
-43
62
45
59
-28
-62
87
-44
109
17
3
-22
36
97
-32
54
-92
1
-15
-34
-23
93
108
-57
-6
63
27
73
-28
-29
70
-15
-25
-25
-41
130
94
1
42
-21
-69
-16
-32
50
-27
-61
-34
20
15
72
-54
46
-24
6
47
30
-54
63
6
-33
23
18
9
32
33
-35
152
-27
23
-56
15
-21
50
112
-66
-60
4
-1
-24
-57
18
-17
-16
-45
29
27
-39
-77
-30
-48
132
-10
-13
-29
91
104
-27
51
-72
124
-22
70
38
23
-51
27
140
-34
-26
-51
-31
145
-53
77
-4
-22
-3
-38
22
-61
-43
-38
-32
-66
73
-15
-15
-36
-4
3
74
-29
49
209
123
46
19
34
26
71
-50
-29
93
-26
-67
-41
83
-16
-70
-4
-67
13
12
-44
4
-18
129
-35
-28
116
40
0
31
2
144
-88
50
-8
57
94
-3
0
-39
-9
93
51
63
51
-80
-3
-66
73
-45
-50
190
-28
38
-21
-7
35
5
145
97
-87
-45
-4
134
-2
165
98
182
0
-20
25
60
-36
21
-17
-40
20
59
-52
-9
-76
-43
-31
54
22
-19
-49
4
-14
-14
-46
-3
44
-27
116
23
-18
45
187
-42
10
-27
-22
-44
-11
212
53
17
-14
-25
3
109
45
41
-32
40
-24
-47
13
-12
34
0
9
-13
-30
-63
-25
11
-38
-67
40
23
40
23
-26
-24
163
-9
-54
40
57
-20
69
-24
-35
-3
71
55
43
20
99
-46
-52
-44
63
-34
-6
-26
20
14
16
34
47
-78
-37
-47
-30
5
-7
-49
30
89
7
-18
-54
-6
39
104
-13
127
-83
21
-46
64
-34
-74
-27
154
-17
71
39
20
15
56
24
-13
31
60
24
-65
-19
-43
52
56
3
35
-35
-8
-1
-73
-59
5
-1
-17
-37
-2
50
-19
-33
69
113
15
-32
-37
41
-9
-52
-31
-88
-31
54
13
34
67
146
52
-66
65
-3
16
-7
37
78
15
99
29
-42
-31
0
-16
-36
52
-47
84
73
-23
-78
-67
15
-17
5
-23
-71
-25
-18
82
27
-23
-47
-21
-47
-12
-81
76
-77
42
-35
-60
66
-9
-54
-29
-18
3
-9
-49
-66
-7
63
33
47
12
-33
-4
72
-53
-67
24
-70
18
-22
-16
-39
75
-7
-4
70
-56
-34
23
71
19
-30
-12
49
2
7
-44
-6
-28
17
178
-56
-48
67
-68
37
72
-12
105
3
102
-6
13
65
16
-44
-38
-8
-39
46
73
45
-68
0
-3
27
78
-20
-75
0
-27
61
3
-46
-47
43
90
-72
97
-46
-46
24
-83
25
-23
-39
-17
68
-34
13
-30
-10
-78
8
-48
45
-20
-40
72
88
65
16
119
-14
-75
105
36
-57
-32
153
-57
40
-65
21
-20
-35
68
-29
-18
-2
-24
-100
47
6
-25
-4
152
-36
11
50
-5
12
-81
-62
-33
69
29
27
29
9
29
-60
53
-59
129
-59
-64
66
-39
39
112
62
20
58
22
-74
8
-33
-39
43
53
25
68
-63
-34
-50
-33
-65
57
-28
-47
-57
-6
-82
68
-16
-53
-69
-16
-39
113
26
-58
102
-79
4
109
-44
56
7
110
74
-52
-38
-16
37
-7
102
105
96
19
-7
-9
-27
41
-1
40
10
47
41
-71
7
20
155
-33
212
-59
138
-78
37
170
-69
-59
-64
79
-9
88
48
-24
-60
107
-37
63
111
-23
-27
-55
-9
10
15
-19
-5
-80
63
-31
35
178
-64
94
53
-48
-37
14
-5
92
74
29
36
19
-7
11
28
-66
-25
58
-22
38
-42
40
27
11
40
34
163
49
49
51
73
-63
47
16
3
-7
31
87
-13
76
95
59
-63
87
3
110
-34
-13
86
169
-7
-16
-75
-30
-49
-24
-48
48
64
-20
92
-30
26
-24
-26
35
18
50
96
-36
75
61
78
-24
-37
-59
48
-29
-9
3
1
40
-47
52
-70
27
-70
-68
12
-8
35
9
-56
-42
-9
-29
-8
-2
30
21
-55
-11
90
93
28
-15
26
-20
23
-15
-43
-49
-49
-44
-60
-54
-15
-78
-35
18
-27
-46
-17
-2
6
-65
-45
147
-41
-50
-29
-17
-51
53
33
48
-16
21
9
-54
58
-18
78
34
-21
-46
-51
-26
-57
34
-46
127
-22
-43
3
90
93
77
13
-20
29
-36
65
146
-53
-43
33
52
-24
-23
-57
-48
-29
55
68
-59
-13
-81
77
70
-20
-32
-66
-61
-35
34
-53
-45
-13
-66
78
-47
2
-3
-63
-48
6
66
-69
-46
21
-18
-16
66
32
-9
42
8
-20
17
47
11
-61
-13
-17
113
40
105
-39
-28
18
-43
5
82
51
-1
27
-29
78
63
-31
41
194
-3
-12
-83
-37
-42
15
-46
21
87
-74
-81
-45
-50
-31
-31
41
-13
-80
103
150
-24
-4
-3
-63
-6
180
-57
71
85
18
106
-21
-36
104
-18
24
59
63
23
189
65
-34
150
-60
-40
0
-75
-49
-60
-23
65
49
35
131
-6
-31
25
-48
-28
20
-27
-17
-5
-12
-85
-53
35
-30
34
-57
35
-19
-45
-80
19
22
147
43
-4
20
0
8
78
77
162
-18
-37
-23
-50
112
-75
-35
-30
2
4
-25
33
17
-14
-8
65
66
3
-25
-31
7
-61
42
110
-61
50
68
-1
-33
-29
-10
91
-63
-65
-27
62
-48
-53
-30
-57
161
151
-26
30
45
9
55
132
93
8
-16
-28
-16
-18
110
-68
-61
70
-19
71
87
-71
18
-30
-54
-63
11
96
-51
15
-31
-37
79
-53
18
107
-72
-15
-47
-42
-20
38
39
130
32
69
-22
-36
-18
63
-63
135
-27
34
139
-24
-13
-31
2
81
58
-5
-45
-41
147
5
-1
-33
171
-40
-14
69
-6
93
-51
-58
20
153
-38
-14
-37
-26
13
-43
6
-47
121
-31
113
-64
-22
-18
12
67
37
-8
-53
28
4
-6
182
-15
32
28
-23
-20
204
-8
66
-68
36
7
-10
9
-14
14
-66
127
-22
1
-8
-1
-12
-53
-61
-32
2
-6
-35
142
34
-76
-8
-71
22
56
-15
-34
50
55
-16
39
40
-52
87
136
77
53
-55
18
-41
2
46
43
-54
-51
-24
-32
-67
-3
-50
-7
-3
-12
-17
-63
48
23
-1
-20
-52
-19
70
-50
52
-8
23
64
89
-3
40
-84
-43
56
73
11
-10
148
1
58
-28
48
1
-60
-38
37
13
-42
-70
3
-80
4
37
75
48
-17
45
186
29
82
-8
-3
-70
19
-44
94
-33
80
100
54
-21
8
-34
19
36
57
93
5
57
-26
-24
-39
73
-67
56
-20
-17
-76
37
38
85
69
-10
72
-79
-45
-23
-27
-43
-55
28
-23
-31
-42
-13
29
10
-37
7
58
9
-63
-54
113
131
29
80
-30
-71
-78
45
-58
77
19
-46
23
-28
50
-52
-4
-55
18
-14
56
-2
-8
95
192
172
-42
-63
83
18
-7
-61
-58
-42
12
-22
-14
-66
74
1
51
48
124
71
78
25
-8
-62
56
90
-8
4
28
-24
15
38
8
-17
-55
134
-22
-71
-32
-5
-45
-71
-28
29
99
30
-24
55
-18
149
-52
91
-28
4
79
36
39
-7
46
16
55
-2
76
-51
9
-1
38
44
-33
41
84
-59
-31
36
-11
-3
39
-46
-19
35
3
35
-31
-44
-94
-23
77
50
-2
11
122
44
12
52
-39
82
10
19
-5
-8
-21
20
-56
-47
-24
-53
39
83
153
-14
-84
67
65
-5
-55
-73
53
-33
-74
1
-56
43
-43
-34
5
164
122
102
90
0
11
53
127
14
90
-26
-36
61
-29
14
-19
-19
73
-45
-91
-11
-36
55
-23
26
74
1
7
-37
1
-48
-8
63
76
-54
-10
-32
-37
-5
-23
62
-15
41
-55
-21
-71
-43
64
-57
91
-28
-52
-43
-53
18
-17
5
-30
-11
0
-11
51
4
24
-52
-54
-10
171
-10
53
39
-33
-59
-9
62
79
0
35
14
6
-7
-73
50
113
33
131
-45
-63
113
-31
28
-13
8
65
-82
25
135
34
-30
-33
-2
-42
107
-33
6
86
5
-3
-78
-52
-10
32
-41
-18
-62
-27
44
-8
-42
23
69
117
102
7
-43
85
0
3
30
19
-47
94
20
-59
46
-36
34
138
36
97
-69
-59
-74
-45
-22
-67
0
43
30
-18
-86
-3
86
54
133
140
-53
25
28
91
9
162
37
-63
-68
11
-33
67
140
-45
10
57
-24
-2
-37
74
-31
-39
47
-20
9
3
33
-38
11
-13
-54
-25
-23
1
-59
-21
-13
-69
7
-10
-41
-40
2
-2
-29
-44
-48
29
-3
-59
-41
48
-7
82
-8
-4
57
-31
82
108
7
31
-28
20
21
-1
1
69
-50
16
-1
155
97
31
-45
60
-55
-69
50
1
30
54
32
99
-16
-16
-46
24
-1
49
18
-78
47
71
-64
32
-14
-47
72
43
11
-33
-2
-43
-37
-56
11
40
-67
102
41
72
21
46
8
27
-34
34
56
88
11
-36
-4
-16
-74
73
3
-32
34
47
104
-38
50
-33
-3
-4
1
-12
-49
134
86
-18
-19
-39
-60
-12
82
-15
-54
47
-11
112
-39
207
-25
-41
-29
-13
-10
17
77
62
86
99
-4
33
-54
17
-56
48
-24
-22
16
72
50
-1
-1
26
4
-3
0
-48
26
-56
127
-46
-71
13
-47
-47
27
96
-49
31
-1
132
-16
99
-83
104
71
-66
46
115
-69
82
22
-10
-44
5
-68
21
57
64
-15
-76
-45
-35
-8
-83
20
123
-27
43
31
-18
78
-41
-70
-4
-33
-33
-46
127
114
-32
-39
65
-82
-74
-17
0
-86
56
-15
-56
9
30
-60
51
107
-52
12
63
-45
-28
-32
-34
-41
-6
1
115
64
16
-51
-14
0
8
-64
69
-58
15
32
-66
-53
-11
-65
-32
-7
21
-22
16
-3
32
35
-48
1
60
81
1
-8
90
17
-38
45
52
-71
-60
-30
-21
-33
-41
-17
-39
-33
170
53
-48
-24
-38
24
-40
90
-12
41
-31
65
-50
-11
12
-20
103
117
4
-36
-49
-69
-52
57
-38
37
-20
33
52
11
-39
12
56
-30
31
60
81
26
51
188
-42
12
56
23
69
-16
74
58
6
-17
-57
-36
23
-48
-53
-37
-23
-82
-87
-44
-72
12
17
-47
82
-2
-43
-56
-13
43
-54
-42
-10
-42
37
-68
1
169
-28
15
-44
-12
-51
-97
109
30
44
-64
35
56
70
18
9
-45
-42
1
-10
-55
-50
37
21
-57
-14
47
3
-4
-23
-20
107
-71
-81
-34
26
85
-80
2
48
-32
26
-77
-94
35
-6
10
24
-41
-20
23
24
-63
2
11
65
20
-73
-4
-11
-8
60
46
92
-30
43
13
79
-4
47
28
-58
-6
-80
-11
23
-43
48
-62
17
91
13
16
83
-6
-63
118
-29
-18
-76
-9
-2
59
-28
-40
17
-29
-19
-28
37
143
67
-28
12
-50
-10
-3
16
-10
-35
87
-45
-59
-18
7
-43
64
37
-51
68
-38
20
16
90
72
-29
12
42
-56
-45
41
51
-52
106
22
-37
57
4
67
11
-59
55
82
6
5
-56
-61
-42
32
-67
-31
121
-45
-18
-92
-8
-50
114
-49
-40
23
100
-49
-32
85
-25
-35
-26
-42
-64
-54
-25
5
130
24
-44
57
-56
55
-63
46
186
50
56
52
-16
-52
-17
-4
-18
-29
-5
86
49
-16
56
5
137
16
-24
19
17
33
-27
-9
14
-41
-47
-26
-27
-47
-25
-58
44
3
-47
-4
-9
51
21
-12
70
-6
-3
91
-60
-70
-13
121
46
-34
-54
-20
45
110
56
13
-36
-51
-43
20
-37
-68
38
-24
26
10
1
67
57
77
-21
40
40
88
40
92
4
-75
47
-21
-18
11
18
-32
-5
-16
-19
-23
11
97
-58
-58
-11
-12
-67
-10
-6
26
-60
-26
144
-38
-43
-7
68
9
-29
18
4
76
65
49
29
-51
16
-12
79
-12
-45
7
-24
89
46
108
54
54
-34
29
-71
-38
3
-49
-23
-59
-32
-7
90
-26
-8
21
160
-51
8
63
-65
5
-23
-56
42
8
36
13
10
182
39
51
-55
-17
41
-33
80
-72
-32
122
179
40
-47
-73
-12
-56
30
-22
9
-18
-10
32
55
145
144
53
4
-51
-40
44
-15
95
-4
0
-17
25
1
-62
15
-5
121
-62
25
1
-51
60
7
20
1
-5
-33
124
37
-78
114
9
16
9
-58
54
-78
-66
-63
53
15
142
65
-21
1
14
-30
-25
70
22
-37
-48
-22
142
94
156
-24
-33
40
-6
-41
7
-69
18
4
25
29
-8
-16
-59
25
-35
44
-22
-3
41
-67
121
2
74
-7
80
-46
164
-11
-18
-8
-14
68
5
-21
51
16
88
6
39
-27
13
-51
0
1
-93
-1
-19
-70
-25
6
27
36
-5
-12
144
-49
112
97
33
63
-7
-26
-53
-21
12
-59
-44
-49
-38
78
-47
-53
66
-33
-65
22
79
-13
52
-47
-54
-65
34
-4
72
117
29
4
57
-73
-65
152
-42
27
-18
-34
-70
39
1
3
26
-27
91
77
33
-8
-5
89
-6
-42
-13
174
10
71
-53
-42
-19
-25
-19
63
113
-67
-19
23
-24
121
-18
34
89
-53
-39
88
60
-51
5
43
123
-16
-50
-38
-62
-17
-66
-48
-30
-26
-23
43
-32
53
37
-4
-13
58
72
22
49
2
34
136
2
18
2
-27
-25
-9
28
6
2
35
0
51
-34
-65
64
25
-23
-8
-44
-82
56
-31
-40
-63
-32
-40
-5
-92
-3
30
-58
-33
7
43
50
62
-32
60
62
7
24
-50
-47
3
-38
36
30
-38
-7
-43
-30
67
10
67
-47
-3
51
43
-23
19
30
1
41
-4
51
-6
-4
-49
-89
141
16
25
-18
33
-19
-67
52
56
-64
-15
6
-73
35
-58
-50
100
-3
-41
-26
11
88
19
25
32
7
-50
-25
69
-43
75
-27
81
-79
11
28
110
66
111
7
-22
-1
-47
42
-61
-20
-3
67
130
37
-69
33
-59
31
-22
-46
-58
121
-27
101
145
-33
9
-57
46
-1
54
38
-57
9
90
-2
-49
-15
-60
-69
97
5
86
30
17
-2
-32
75
101
-4
-41
31
5
109
-60
-14
-42
-65
-2
54
21
-23
36
-2
-32
96
51
11
-54
-25
29
-11
-48
148
50
19
-27
78
35
-9
-14
56
18
-6
-49
-49
75
12
-37
6
-10
46
-27
-42
-53
-46
151
-11
99
96
-65
-22
-61
-27
94
71
-21
35
-8
-13
-6
-73
-30
-17
8
-33
8
-13
24
21
58
-17
3
36
-8
0
-37
-42
97
-6
9
-90
64
-13
-16
29
17
73
-97
32
-28
25
45
-53
47
22
4
-53
-1
40
-21
94
160
-87
-46
38
29
-44
-77
-10
25
-80
132
48
-70
44
-65
95
-75
-53
69
33
-12
-35
-15
-35
-15
-7
-38
-19
-60
19
4
-32
-64
-6
41
23
11
56
-57
-50
-69
31
54
46
81
-46
-65
3
-47
25
-3
-29
-82
-44
-5
-76
-89
84
-10
-67
-22
-29
32
126
111
-65
55
-72
4
85
63
50
92
14
38
63
-27
-13
143
-6
71
9
-47
26
49
37
56
-19
-41
-65
142
181
45
-64
-29
-71
11
-8
63
84
41
50
3
21
47
-2
1
-33
67
51
-12
6
40
-12
110
27
-1
-38
-84
-19
83
17
-20
78
-24
88
-2
-46
126
22
-27
-13
-10
-37
4
17
-46
90
-36
116
-52
-65
-44
-27
-66
-70
7
35
-10
-51
-16
-63
53
63
-53
-78
53
-8
74
-62
-39
-42
-3
156
-63
-36
114
-88
73
-37
-73
23
-32
-49
75
157
131
-53
79
-40
-45
-71
83
22
-1
-22
91
-29
18
32
140
29
-57
18
-47
9
-58
9
16
-78
-18
-33
132
-39
-82
-35
-36
232
22
5
-11
30
-5
84
-60
25
-40
18
19
-74
-41
71
81
-59
53
-43
-48
35
114
-46
62
-30
-38
96
178
-3
86
-40
7
-43
-30
-12
3
-25
-44
12
68
-74
33
-13
42
15
24
-17
-54
155
-33
-60
-17
131
88
-3
27
-45
-55
-34
-19
48
67
-55
-30
-6
37
26
-36
-39
102
-30
-34
5
12
44
34
18
56
24
-48
72
20
-73
56
-25
90
-24
4
-72
-56
-59
25
-58
-4
18
-8
-11
-16
70
70
-9
-23
48
75
-36
17
127
-72
91
-34
-19
1
57
58
-40
185
-62
-31
40
-17
-21
64
-54
25
-10
35
-14
-63
18
-45
48
71
-30
34
19
7
-5
83
-34
30
42
16
-25
107
3
-27
-1
30
56
-39
-75
3
7
-19
-62
55
105
64
19
100
-28
76
-8
-34
-21
-22
-11
67
-43
-39
-24
-43
-31
43
-11
-33
126
22
-34
39
-30
76
59
11
-26
-42
22
-43
-34
3
-29
131
32
53
-12
-27
90
191
20
-28
-5
-61
-12
46
147
30
-71
-47
74
32
-6
-22
-48
85
-57
69
48
-64
36
-44
-66
13
-41
24
-27
38
-70
-45
68
84
93
-36
-62
56
5
39
86
-8
7
26
31
207
13
30
-21
-53
56
-51
18
-38
-7
-49
64
-64
-53
-53
77
23
124
-20
134
-72
50
-80
106
-81
2
-46
-9
-1
73
-4
-26
-65
39
-65
-31
-26
-75
68
-35
11
43
74
26
71
-36
101
18
6
66
55
-37
62
-52
80
-62
47
3
127
-64
-46
35
-85
-37
45
67
-3
-62
-42
-38
-21
27
4
-35
-58
3
-64
-7
-6
53
-19
239
-47
60
-43
42
-57
-34
137
-51
67
-70
29
-59
21
-24
28
-12
121
-65
-24
18
5
-15
-59
54
6
-51
-11
-36
-66
56
12
-72
-3
-11
-16
-57
-43
-22
-23
47
-26
-50
-50
-1
24
-41
87
-82
28
9
-17
28
4
83
56
-21
8
-7
66
66
-62
111
54
35
57
-75
-21
-50
-18
-56
-6
-71
-34
44
24
-35
-48
75
-21
-29
29
23
12
0
-22
75
57
-65
2
80
79
70
-3
-21
-56
-26
67
12
-6
-50
-57
15
-73
-29
41
82
14
-22
23
-39
8
-23
32
49
60
-78
133
-39
-15
-67
79
55
-52
-35
65
44
1
-3
-12
-9
-17
159
-62
-31
60
-35
1
72
-21
65
119
-1
64
124
-3
66
18
76
-4
-59
-30
65
-36
-35
-33
-50
106
-17
65
24
-15
125
102
22
40
-7
69
-81
-28
-14
121
3
-85
-33
178
5
75
45
61
-43
73
-19
1
-38
14
108
-38
-65
85
53
-58
48
-84
-39
45
19
16
36
-51
56
-83
-79
-38
-5
-50
28
23
16
107
3
54
23
-82
-18
-46
66
9
-15
80
13
35
53
-52
74
-37
-3
43
-59
-63
-11
-80
17
28
4
37
-25
-1
-10
81
64
39
-60
18
-46
-71
-2
-29
10
14
-33
-24
63
63
44
47
-28
4
4
-16
-39
78
-43
-10
-87
-5
-46
-38
14
-71
-15
128
48
-53
-45
45
8
23
-37
37
-18
-45
34
-3
81
132
90
-45
6
-32
36
74
83
62
19
156
-5
82
-12
-68
-70
38
-25
-55
70
-6
22
54
-39
87
68
54
-25
-44
-44
-11
0
80
66
-10
115
36
-47
-1
98
-76
-36
126
-88
27
25
-16
104
-34
-27
106
-19
-58
5
-2
25
-70
52
-14
68
-56
-8
23
-42
5
-77
-70
71
-54
-44
150
-14
-48
-62
3
-60
71
102
43
-45
-47
31
10
-48
19
-33
-15
-49
-29
57
-39
44
-2
33
185
-12
-7
-69
15
-56
11
-37
-9
70
52
-19
-70
-32
-64
-28
-62
38
37
-8
-65
23
-11
143
2
-3
-41
-54
-7
6
33
79
11
-46
-36
-14
-86
-72
-47
-76
20
-4
-25
78
-37
-43
-51
-22
8
144
44
-26
-70
-47
24
-79
-30
12
-32
10
-51
56
-20
-19
-31
-15
-22
-24
-13
150
-5
59
51
-22
57
9
-37
80
-50
12
17
44
-22
-1
11
-25
-41
-14
21
-21
-34
5
71
58
-44
-7
15
-52
24
73
-72
41
-67
-25
-27
63
-57
65
-12
109
-56
-61
-86
23
-13
9
34
-39
96
12
-20
3
49
-72
-2
-47
17
0
-16
1
-40
-38
-24
-55
-49
147
-57
102
36
75
-11
29
86
-61
-47
-61
-31
9
-10
36
-51
-57
26
165
178
53
-38
-8
14
-26
-15
120
43
123
188
-16
1
-60
-46
0
16
-63
45
44
48
104
-75
182
45
71
-52
96
-38
-60
18
-59
23
-31
-30
3
87
-50
64
33
-30
6
106
65
-22
88
-44
28
-19
-37
40
-23
95
-22
14
-25
45
156
-39
36
-80
0
117
-63
-13
-30
-17
-35
-3
92
-43
20
-11
28
36
-39
-37
-11
-4
36
-66
17
72
61
11
-8
-43
25
60
46
3
-34
42
66
-29
102
32
3
23
111
-25
-1
57
-55
-12
9
24
14
-11
31
-14
-46
-16
58
-18
-44
14
32
-25
41
-60
66
50
-14
17
-24
-34
-16
-60
-13
99
52
38
-68
-14
43
-45
-27
-42
47
26
60
30
-47
-23
10
-64
45
-50
49
27
-3
19
-44
-63
-13
-3
-54
50
-54
-27
-15
2
-58
-12
-78
103
-48
22
15
-52
7
15
69
16
-24
18
-13
-4
17
-37
21
59
22
-52
78
-69
-71
30
-5
-30
83
14
68
13
93
94
-49
-40
59
-22
68
-18
-9
-13
-46
2
-45
17
-37
7
45
6
53
-42
30
56
-14
33
37
-8
27
26
37
36
87
-18
66
-11
-34
-20
-43
35
-5
161
-59
41
-29
-4
24
32
-17
-10
-32
-40
-29
53
-25
7
-45
-14
53
-1
74
79
37
0
87
-7
2
54
-47
4
69
-14
-65
-14
16
67
-64
-20
148
-50
-36
-48
-59
-13
39
33
-27
-39
-33
-8
3
5
-26
108
39
75
-54
-23
-7
105
-75
101
-20
3
-39
-47
21
74
-43
41
-43
-59
-31
-49
3
12
-33
-12
-4
-52
-37
-69
-25
-17
-57
-45
133
-36
-25
104
-94
114
111
-22
-7
11
0
40
29
-1
-96
-36
24
-54
21
15
-32
3
36
-66
11
10
-56
126
-28
116
121
-9
-21
-56
9
-24
79
-4
-35
88
28
-33
-6
108
-15
-43
10
16
36
-41
-23
8
164
-12
-27
150
9
-12
-36
103
-6
-22
94
75
28
-49
63
141
17
79
-20
8
-21
-32
31
-62
-59
-14
-52
32
18
57
-6
1
-43
-44
33
-58
-26
-12
-86
-6
-30
50
-61
-22
28
64
-25
74
71
77
37
-2
-61
-9
-23
129
-2
-2
93
20
-16
39
87
47
-49
-38
-16
13
-13
0
63
-5
-46
-24
-69
9
54
-4
37
-12
16
-17
118
-51
16
-23
1
-13
-9
-70
20
14
-54
-43
-64
21
56
-48
29
-56
-7
84
104
52
-43
112
-62
85
14
-28
5
-2
5
7
-12
-30
-16
41
-22
117
-36
7
86
50
-22
-35
129
-27
43
-4
-46
-53
1
-26
31
-30
-26
58
20
-39
18
-17
-26
93
-15
136
30
-66
35
-4
-2
3
21
-16
51
-11
-15
-19
-56
59
111
-24
33
219
-40
-61
-75
-29
10
2
-8
-78
-33
32
4
41
189
-30
-69
35
56
-64
-73
-46
-1
-52
-18
152
74
135
-2
124
50
-31
-41
55
49
40
3
-58
-6
-5
-23
-22
48
-24
45
-31
71
-7
57
-40
-44
8
-5
-70
19
42
29
-3
-12
29
-72
96
76
109
105
11
14
32
42
-11
59
-75
-47
-52
6
-2
-18
-57
-72
117
-55
-75
44
-57
-50
5
-22
3
-42
-31
-39
13
-38
100
-44
39
-24
84
-55
-7
7
15
-26
-69
-35
-83
62
13
-30
-6
-54
-10
-2
50
-59
-26
-34
-36
55
-7
92
-28
-39
105
-82
-55
-37
39
-15
37
81
-14
-65
-75
-46
55
180
-10
178
15
-68
-22
36
-52
92
-3
64
-22
18
75
12
51
-46
-68
-43
-51
-42
-68
34
34
-52
110
69
-22
1
84
100
-24
53
-33
-27
40
-24
5
93
21
20
-37
-71
15
34
90
-78
-10
133
87
-16
-25
7
-46
19
12
156
-46
15
66
174
-50
-30
11
-70
-65
-32
-78
26
11
-40
20
77
-12
12
68
61
191
26
119
22
48
-85
60
-24
93
-64
-47
110
-42
-75
-30
-32
-15
169
43
194
52
78
42
-6
-80
-13
12
-41
-19
24
-42
61
-9
28
16
-66
3
14
-21
69
67
60
-22
61
-12
-39
-52
-55
47
-48
59
27
-3
20
121
-49
14
-50
67
81
98
72
26
26
43
-71
-43
7
71
65
-68
-69
97
16
108
-6
72
37
44
22
29
-7
-13
-7
154
-37
-40
-7
-50
-36
-22
0
-56
133
-72
-38
-29
-65
-18
26
-37
-29
58
17
-20
53
41
-3
3
-61
-47
-63
127
-23
-64
16
-5
21
7
48
6
14
-17
45
-61
-52
58
-49
119
-45
-64
-19
13
33
142
20
-49
-78
-59
-31
-24
-49
-46
20
33
11
42
90
-26
16
-53
7
-8
-30
40
4
120
24
-15
29
-59
-18
-63
-16
-32
0
-22
-52
89
3
14
56
-12
-37
-57
47
-1
-32
75
-67
-41
2
95
-2
-27
11
-62
-9
-1
-4
-58
48
-18
22
-42
121
-44
66
55
28
10
12
2
96
2
-49
67
-39
-56
21
-6
95
28
21
56
-59
-27
-24
6
-37
-2
-36
54
-70
12
-41
-23
-32
7
55
76
41
23
-71
-34
19
-60
-27
50
45
-79
105
50
28
-31
-27
-47
-31
-67
-30
20
-41
-40
-46
-79
-21
-25
28
-10
14
166
47
7
-9
55
-32
41
25
22
-32
4
13
-20
173
-60
-51
-27
-65
-19
-25
24
-9
121
31
-14
-39
-46
144
90
-4
-24
-27
-12
61
-55
-63
-76
-10
21
63
48
-4
-4
-9
74
-17
-45
-2
1
-32
13
-10
-23
-41
1
31
-23
36
198
-11
-46
48
-18
55
10
50
-19
0
116
28
22
45
16
-78
-22
6
54
153
-3
46
-21
2
-30
110
30
48
-28
28
-36
-41
92
-35
78
-9
59
9
49
-37
-51
89
-30
-26
21
80
-58
106
3
1
-10
-70
-41
-22
32
30
112
11
-9
-51
0
-46
-8
77
-62
82
50
-8
-50
91
-50
-28
22
38
28
30
-37
-24
15
1
112
34
31
-3
19
-69
-10
-29
-39
56
-35
90
13
13
-4
-10
23
-32
-70
205
44
28
43
-31
55
-40
-12
69
-20
38
-26
89
-71
9
81
29
-36
-25
-47
-66
80
-50
4
73
-50
-11
-52
-11
52
-23
42
21
32
56
180
-60
36
115
-58
7
24
-18
49
-41
25
14
-2
-66
-16
-43
-58
16
69
-34
-64
-45
57
107
36
-9
-32
-26
-4
40
-1
127
-13
-29
-8
24
-23
-43
15
-56
26
-18
20
69
20
-51
-33
165
-53
3
33
101
-34
-12
111
-38
-2
-27
22
-69
94
-27
-64
15
64
-17
10
-72
-67
47
40
34
0
-5
-17
-29
-21
42
-8
-2
20
60
71
-62
-26
55
-78
-45
80
15
-15
-46
69
-21
8
38
1
15
-33
-12
-34
-32
-42
-15
124
-5
58
-19
106
56
0
2
35
-27
62
-17
-47
-30
-50
-63
-27
-70
0
10
-41
60
-6
45
-57
21
4
-40
-20
-43
2
-16
-44
85
10
50
-31
-29
-4
-17
-69
52
73
94
-33
44
84
-34
45
-44
143
28
-39
-41
12
-18
-41
49
-75
-24
49
24
1
18
67
-3
-16
-40
67
25
67
-21
-59
-10
-73
7
-8
-43
-42
-19
121
19
-70
10
-8
115
64
-37
-7
32
-69
53
-2
170
-4
7
-27
9
-50
-55
-3
-42
20
-40
-42
215
36
-15
135
-53
-76
14
55
51
0
-39
18
-40
-49
-16
-16
121
15
-32
-11
-29
-61
18
4
6
77
17
-41
-28
-14
71
29
-14
79
-70
100
56
42
46
-30
71
-24
16
-20
17
-41
118
94
27
-60
-24
-49
89
-29
-13
19
57
24
30
-1
20
52
-12
25
14
77
21
-58
36
57
32
-45
-58
38
-55
31
8
41
88
-40
51
8
6
-58
3
-27
-25
39
-21
27
188
8
-52
49
-44
38
5
-43
26
82
2
-56
129
62
-6
1
22
133
-28
7
-51
-29
-59
22
-32
-77
41
-27
-75
-6
-27
-34
-11
27
44
-49
66
-13
56
123
-10
-16
-57
78
-15
88
10
-54
-46
109
-14
15
46
41
58
-18
-47
103
51
48
30
-35
21
-41
48
173
26
-5
48
-32
-27
-60
-3
-74
-64
-50
-30
-69
-12
-4
-34
26
-37
17
-44
-34
48
-24
53
-6
6
114
-11
-14
-92
54
37
-3
-70
-67
-26
-58
34
47
-75
12
40
-26
57
11
-26
84
-15
166
-61
16
-41
13
-60
69
164
-64
-67
-17
7
68
-36
-20
48
-9
-43
-63
46
-62
-58
94
96
-30
2
-65
-5
19
34
-66
-29
-19
-14
86
-38
2
117
-42
-42
-1
64
50
-57
-90
-54
-37
9
-14
178
26
-57
32
88
113
-33
-23
-62
-48
70
-2
138
23
54
-8
63
-34
79
-7
-42
21
-14
60
81
9
15
1
-25
-33
34
-54
-1
90
-63
70
11
102
-54
-10
71
-9
-4
-21
131
-47
183
-67
54
56
-34
23
-4
4
0
112
-52
-61
-22
37
173
105
-61
-49
-30
1
67
143
10
89
115
-55
-9
-51
59
38
70
128
11
68
-2
-67
14
173
18
191
57
-50
-31
-21
-10
23
-7
8
6
18
-4
94
-49
-17
-46
123
114
93
23
-57
-48
67
-44
64
109
-52
-23
64
-64
-15
12
-42
-1
10
91
134
87
-32
112
30
6
149
2
22
87
9
8
65
-53
-36
61
-15
-52
-58
71
68
-24
63
20
89
-46
4
-32
77
-47
-60
-7
-79
-13
-1
77
-26
49
-47
18
-7
35
-1
-36
137
58
14
0
60
-43
-7
-8
-72
-48
53
-47
-31
124
-63
-59
-75
91
30
-55
-65
-96
6
-52
-13
-41
-75
-70
37
20
192
100
-5
-33
15
33
149
50
-43
-57
42
10
30
-30
20
79
45
19
-56
2
144
-62
19
9
-22
11
59
-21
-28
68
-16
9
-18
-45
-16
12
95
31
7
41
-30
-19
72
112
88
-34
90
79
20
34
-32
-67
-6
-62
-20
19
37
-50
111
-39
85
-23
0
-6
61
164
47
50
50
-57
-67
131
8
-67
-1
-6
-71
85
-61
34
-82
52
10
-40
-45
-25
-62
2
7
-36
75
17
-41
-45
24
69
-42
37
-18
34
-34
11
31
27
-32
-26
8
25
106
16
-40
-43
-49
-11
28
41
78
-2
-5
-78
-8
75
99
-10
7
68
73
-49
11
-12
111
76
70
-59
24
61
34
-35
149
48
41
-20
-40
57
24
26
34
35
23
132
45
-1
-22
-26
-7
-34
12
53
-39
43
-1
18
-79
33
-30
-16
66
18
-10
54
31
39
-19
23
213
63
68
-48
94
-24
-35
33
-18
-28
-1
55
9
33
-23
18
56
-6
45
4
-91
97
7
37
-37
27
4
28
61
18
-61
-59
82
34
8
35
34
50
-80
-19
29
-25
-30
48
30
12
-72
-27
28
-38
-38
43
-41
53
-5
-31
44
-50
-14
-59
-31
-11
13
22
-60
-23
-57
-29
6
-56
42
-55
33
47
-62
-33
-7
3
25
29
-14
-60
-53
-46
70
57
32
42
-47
-46
18
-12
14
-30
22
-30
13
-34
18
-64
28
-21
28
12
-17
-13
-15
61
-26
-64
-10
106
-48
-50
4
-52
16
-40
63
88
39
29
-21
-41
-7
-40
-41
-72
1
-69
94
-58
-39
15
-10
-41
22
18
-23
113
-32
79
-42
57
-47
1
-69
52
116
-60
0
46
0
8
35
98
71
90
111
-22
-33
43
18
-48
23
-21
-29
-39
57
137
-8
-22
42
-41
154
-1
67
145
-43
-42
38
159
-13
-20
61
8
-18
-2
-26
38
-61
-49
-85
-29
36
-48
-12
-42
86
-14
83
-15
20
21
24
-52
-59
59
-50
37
-29
49
4
101
-17
-53
-45
3
-1
85
-1
57
-31
-36
-44
-65
-45
-63
75
26
8
114
16
29
-16
-8
-49
-28
3
90
139
64
0
13
-13
-69
-27
-60
18
-26
-67
-42
-1
-63
41
-29
-50
13
16
-19
-17
-75
28
13
-40
-46
19
74
-24
4
-24
-43
-31
75
-41
-10
42
-29
-49
-20
46
4
-14
-40
155
-21
174
5
-75
-31
45
-5
-39
74
62
-28
6
78
19
43
121
-40
-28
92
47
32
12
58
-36
-21
103
7
-5
-9
171
-65
152
61
34
180
-13
-56
13
-38
-52
12
-25
22
-6
-52
177
11
-64
1
25
35
-68
135
51
95
-24
-41
88
147
-32
-14
-34
13
-5
-71
-55
-2
13
43
-60
-71
38
37
-35
-26
-52
-43
-46
-76
55
-15
74
-50
64
-11
60
-58
25
-30
-16
-13
65
16
69
-6
-54
-22
78
-46
34
13
27
-22
-53
87
24
-24
-51
22
76
-36
47
-80
68
32
-58
-3
-65
-9
10
-36
63
-61
91
1
-3
108
-48
-32
5
38
34
62
14
-41
-12
-44
119
3
83
-71
-80
-42
-65
96
-33
27
101
29
-57
-11
-7
64
-63
-54
150
10
19
83
37
59
27
-64
-33
7
-33
18
32
18
-25
63
-12
-48
-52
-8
42
-65
94
-42
198
-24
-27
130
-56
16
-3
109
0
-49
-42
45
-81
-49
-65
-63
-7
-27
-69
-51
-66
60
42
-26
-48
-16
110
55
-75
29
-31
-59
-42
26
-24
92
44
20
52
-6
5
-40
-64
86
33
-30
125
11
-37
-50
-17
-25
-4
19
-55
58
-25
-24
-18
17
-68
-30
53
47
106
-61
-22
75
-73
6
-26
-29
47
-4
-30
-15
0
-24
38
14
11
97
-57
-9
-4
-64
4
43
25
-48
4
-81
92
63
-42
-54
-40
90
-59
1
66
52
10
2
-60
44
-4
6
121
-34
38
145
-77
-45
-28
-27
66
85
7
36
59
-33
-43
13
27
-64
-30
5
74
-84
48
-91
-54
103
-22
-53
-71
-8
-33
15
3
-16
-33
-6
74
-5
66
-11
17
-80
-24
131
60
-55
-35
-19
-79
-70
-11
-6
92
-6
-51
-41
24
-49
-10
114
-42
-29
-61
-17
96
8
-3
-67
53
-8
-4
-12
-32
-61
-9
25
-40
90
26
55
-18
-55
27
-21
-75
-54
-2
-48
-30
68
76
7
82
