    192 0
    141 1
    145 2
    191 3
    150 4
     80 5
    211 6
    124 7
    195 8
    107 9
    156 10
     41 11
     33 12
    152 13
    139 14
    159 15
    124 16
    123 17
     70 18
    115 19
    141 20
    119 21
    104 22
    119 23
     29 24
    165 25
    159 26
    126 27
    157 28
    172 29
    133 30
    113 31
    106 32
     28 33
     44 34
     48 35
     97 36
    132 37
    165 38
    131 39
    169 40
     50 41
    163 42
     85 43
    127 44
     61 45
     80 46
    182 47
    102 48
    200 49
    136 50
    129 51
     24 52
    160 53
     61 54
    139 55
    106 56
    131 57
    165 58
    149 59
     85 60
     94 61
    136 62
    182 63
     99 64
    143 65
    174 66
     13 67
    180 68
     27 69
    158 70
    136 71
     34 72
    123 73
    118 74
    163 75
    149 76
    148 77
    102 78
    152 79
    182 80
    201 81
     28 82
     94 83
     16 84
    176 85
     56 86
    112 87
    202 88
     60 89
     42 90
    166 91
     71 92
    115 93
     13 94
    185 95
     28 96
    166 97
     64 98
    105 99
     76 100
    121 101
     40 102
    150 103
     64 104
    138 105
    183 106
    186 107
    156 108
    142 109
     15 110
     36 111
    197 112
     45 113
     34 114
     24 115
    171 116
    169 117
    131 118
     20 119
    135 120
     85 121
     47 122
    126 123
    155 124
    190 125
     40 126
     80 127
      7 128
    184 129
    192 130
    166 131
      7 132
     97 133
     98 134
     99 135
    147 136
     72 137
    120 138
     97 139
     90 140
     26 141
    185 142
    155 143
      7 144
    137 145
     17 146
    185 147
    148 148
    191 149
     45 150
    122 151
    189 152
    166 153
    132 154
     89 155
    151 156
     40 157
    111 158
     56 159
    203 160
    120 161
     86 162
    182 163
    145 164
    180 165
     13 166
    147 167
     73 168
    148 169
    205 170
     37 171
     97 172
     69 173
    168 174
     19 175
     66 176
     69 177
     93 178
     51 179
     42 180
     69 181
    187 182
    120 183
    122 184
    112 185
    141 186
    182 187
    158 188
     62 189
     90 190
    132 191
     40 192
     62 193
     50 194
     14 195
    197 196
    119 197
     68 198
    139 199
     84 200
    179 201
    193 202
     33 203
    182 204
    117 205
    134 206
    183 207
     73 208
    149 209
     74 210
    201 211
    177 212
     96 213
    169 214
     94 215
    178 216
     30 217
    199 218
    170 219
     55 220
     65 221
    169 222
    178 223
     46 224
     89 225
    123 226
     82 227
    156 228
     57 229
     98 230
     55 231
    105 232
    181 233
     59 234
    109 235
     20 236
    200 237
    175 238
    130 239
     45 240
     32 241
    127 242
     67 243
     39 244
    120 245
    127 246
    148 247
     34 248
     98 249
    188 250
    149 251
    114 252
     25 253
     59 254
    116 255
     72 256
    130 257
    112 258
     67 259
     44 260
     41 261
    130 262
     97 263
     99 264
    103 265
    105 266
     41 267
     19 268
     79 269
    110 270
     49 271
     43 272
     81 273
    112 274
    121 275
     52 276
     92 277
    109 278
     55 279
     83 280
     78 281
     28 282
    149 283
     61 284
    119 285
     93 286
     55 287
     14 288
    122 289
     55 290
     33 291
    115 292
     71 293
     49 294
     56 295
     79 296
     96 297
    136 298
     99 299
    109 300
     82 301
     95 302
     25 303
    134 304
     53 305
    100 306
    126 307
     91 308
     45 309
    112 310
     71 311
    133 312
     95 313
     12 314
     52 315
     57 316
     97 317
    131 318
    114 319
    116 320
     65 321
     58 322
     29 323
    134 324
     80 325
    105 326
    105 327
     94 328
     30 329
    117 330
     81 331
    118 332
    116 333
     24 334
    107 335
     60 336
     80 337
    104 338
    116 339
     51 340
    103 341
     78 342
    148 343
    105 344
     28 345
    114 346
     84 347
    117 348
    135 349
     31 350
    152 351
      1 352
     82 353
     33 354
     23 355
    111 356
    109 357
     90 358
     91 359
     73 360
     13 361
    170 362
     86 363
     97 364
     80 365
      8 366
     50 367
    157 368
     46 369
    122 370
    120 371
     52 372
    145 373
     78 374
    125 375
    111 376
    154 377
    129 378
    113 379
     35 380
     63 381
     29 382
    120 383
    129 384
    140 385
    136 386
    118 387
    125 388
    110 389
    163 390
    139 391
     23 392
     48 393
    150 394
     45 395
     97 396
    152 397
    107 398
    145 399
    145 400
     20 401
     38 402
    157 403
    140 404
    100 405
     90 406
    132 407
     52 408
     86 409
    183 410
    121 411
    145 412
    133 413
    167 414
     72 415
    143 416
     94 417
     28 418
      7 419
    143 420
    151 421
     70 422
    115 423
    115 424
     62 425
    140 426
    152 427
    157 428
    147 429
    157 430
     50 431
    124 432
     44 433
    142 434
    146 435
     95 436
     92 437
    147 438
    158 439
    181 440
    157 441
     45 442
    156 443
    166 444
    189 445
    165 446
    110 447
     83 448
    143 449
    137 450
     53 451
    164 453
    135 454
    187 455
     43 456
     69 457
    180 458
    108 459
    139 460
    197 461
     60 462
     98 463
     22 464
      3 465
     43 466
    120 467
    185 468
    139 469
    191 470
     23 471
     50 472
     75 473
     84 474
     81 475
     91 476
    158 477
    154 478
    157 479
    174 480
    172 481
    201 482
    197 483
    104 484
    127 485
     43 486
    150 487
     45 488
    163 489
     53 490
     11 491
     25 492
     81 493
    134 494
     85 495
     52 496
     10 497
    176 498
     94 499
    123 500
    161 501
    160 502
     79 503
    102 504
    128 505
    134 506
     60 507
     47 508
    166 509
    177 510
     31 511
    158 512
    167 513
     51 514
    166 515
    141 516
     39 517
    104 518
     80 519
    154 520
     92 521
     98 522
    186 523
    115 524
    111 525
     24 526
    199 527
    130 528
    143 529
    204 530
    134 531
     82 532
    160 533
     74 534
    187 535
    164 536
    162 537
    159 538
      4 539
    155 540
    127 541
     98 542
    170 544
     65 545
    192 546
     30 547
