    179 0
    145 1
    127 2
    179 3
    142 4
     56 5
    187 6
    130 7
    187 8
    125 9
    175 10
     51 11
     26 12
    142 13
    128 14
    152 15
    128 16
    145 17
     58 18
    125 19
    164 20
    121 21
    132 22
    129 23
     23 24
    162 25
    143 26
    111 27
    163 28
    176 29
    133 30
    123 31
     85 32
     39 33
     30 34
     39 35
     84 36
    119 37
    157 38
    141 39
    191 40
     59 41
    173 42
     82 43
    113 44
     80 45
     79 46
    186 47
     98 48
    217 49
    131 50
    123 51
     24 52
    164 53
     46 54
    150 55
    107 56
    158 57
    176 58
    147 59
     74 60
     80 61
    137 62
    157 63
    130 64
    140 65
    173 66
      7 67
    179 68
     18 69
    156 70
    112 71
     36 72
    134 73
    114 74
    168 75
    159 76
    164 77
    102 78
    139 79
    203 80
    201 81
     28 82
     81 83
     17 84
    193 85
     58 86
     95 87
    186 88
     70 89
     55 90
    179 91
     71 92
    152 93
      3 94
    190 95
     23 96
    164 97
     74 98
    117 99
     57 100
    129 101
     48 102
    143 103
     48 104
    143 105
    145 106
    163 107
    161 108
    135 109
      9 110
     35 111
    153 112
     49 113
     46 114
     23 115
    176 116
    185 117
    129 118
     18 119
    137 120
     83 121
     39 122
    122 123
    185 124
    174 125
     32 126
     83 127
      9 128
    195 129
    171 130
    137 131
     92 133
    124 134
     95 135
    161 136
     63 137
    111 138
     67 139
     81 140
     19 141
    173 142
    165 143
     10 144
    139 145
     10 146
    194 147
    158 148
    199 149
     49 150
    129 151
    207 152
    171 153
    109 154
     95 155
    145 156
     41 157
    110 158
     61 159
    200 160
    115 161
     94 162
    192 163
    134 164
    187 165
     13 166
    177 167
     83 168
    166 169
    201 170
     56 171
    122 172
     47 173
    171 174
     14 175
     63 176
     81 177
    109 178
     58 179
     41 180
     62 181
    216 182
    142 183
    144 184
     92 185
    154 186
    183 187
    161 188
     64 189
     69 190
    121 191
     45 192
     43 193
     53 194
     20 195
    166 196
    113 197
     71 198
    162 199
     95 200
    164 201
    177 202
     41 203
    154 204
    116 205
    124 206
    189 207
     71 208
    132 209
     78 210
    193 211
    186 212
    133 213
    138 214
     92 215
    157 216
     24 217
    191 218
    184 219
     41 220
     67 221
    169 222
    175 223
     60 224
     83 225
    123 226
     73 227
    156 228
     66 229
    106 230
     53 231
    105 232
    187 233
     59 234
     98 235
     14 236
    212 237
    174 238
    121 239
     55 240
     40 241
    110 242
     61 243
     32 244
    122 245
    100 246
    145 247
     45 248
     97 249
    196 250
    170 251
    112 252
     13 253
     66 254
    127 255
     77 256
    113 257
    110 258
     73 259
     45 260
     56 261
    137 262
     88 263
    117 264
     98 265
    103 266
     53 267
     25 268
     58 269
     95 270
     43 271
     54 272
     79 273
    111 274
    119 275
     51 276
    108 277
    114 278
     57 279
     76 280
     79 281
     33 282
    151 283
     56 284
    119 285
    101 286
     55 287
      9 288
    103 289
     47 290
     29 291
     96 292
     60 293
     65 294
     64 295
     80 296
    105 297
    145 298
     83 299
    121 300
     76 301
     78 302
     18 303
    150 304
     43 305
    101 306
    123 307
    109 308
     41 309
    135 310
     71 311
    135 312
     87 313
     16 314
     38 315
     69 316
     87 317
    127 318
    116 319
    109 320
     70 321
     58 322
     35 323
    124 324
     84 325
     97 326
    131 327
     91 328
     44 329
    133 330
     84 331
    106 332
    144 333
     16 334
    100 335
     70 336
     69 337
    112 338
    120 339
     65 340
    100 341
     81 342
    139 343
    112 344
     18 345
    130 346
     86 347
    132 348
    145 349
     39 350
    129 351
      6 352
     90 353
     40 354
     26 355
    115 356
    119 357
    110 358
     88 359
     80 360
     22 361
    162 362
     85 363
    119 364
     83 365
      8 366
     53 367
    173 368
     32 369
    144 370
    109 371
     35 372
    155 373
     59 374
    128 375
    106 376
    132 377
    107 378
    103 379
     44 380
     96 381
     26 382
    119 383
    127 384
    161 385
    123 386
    108 387
    127 388
    108 389
    138 390
    117 391
     30 392
     59 393
    155 394
     36 395
     98 396
    138 397
    111 398
    163 399
    153 400
     22 401
     47 402
    159 403
    140 404
     97 405
     86 406
    133 407
     59 408
    101 409
    169 410
    127 411
    153 412
    128 413
    159 414
     80 415
    135 416
     74 417
     23 418
     13 419
    161 420
    135 421
     64 422
    102 423
    109 424
     50 425
    119 426
    147 427
    143 428
    145 429
    131 430
     39 431
    148 432
     39 433
    132 434
    157 435
    113 436
     78 437
    190 438
    146 439
    144 440
    153 441
     48 442
    148 443
    144 444
    168 445
    169 446
     96 447
     87 448
    132 449
    139 450
     60 451
      9 452
    143 453
    126 454
    162 455
     53 456
     63 457
    191 458
    103 459
    149 460
    172 461
     61 462
    110 463
     18 464
      3 465
     70 466
    115 467
    197 468
    154 469
    184 470
     35 471
     57 472
     89 473
     92 474
     74 475
     91 476
    158 477
    145 478
    151 479
    160 480
    171 481
    200 482
    182 483
    127 484
    123 485
     41 486
    141 487
     48 488
    165 489
     45 490
     13 491
     30 492
     64 493
    144 494
     97 495
     40 496
      7 497
    148 498
     97 499
    138 500
    131 501
    154 502
     70 503
    117 504
    142 505
    123 506
     62 507
     51 508
    179 509
    183 510
     28 511
    152 512
    148 513
     46 514
    160 515
    134 516
     34 517
     86 518
     97 519
    146 520
     94 521
     86 522
    166 523
     96 524
    115 525
     11 526
    186 527
    112 528
    129 529
    202 530
    129 531
     79 532
    159 533
     65 534
    210 535
    162 536
    153 537
    138 538
      4 539
    148 540
    143 541
    120 542
      5 543
    154 544
     75 545
    175 546
     47 547
