start to construct graph
graph construct over
58300
epochs start
batch start
#iterations: 0
currently lose_sum: 401.18078392744064
time_elpased: 1.738
batch start
#iterations: 1
currently lose_sum: 389.5411269068718
time_elpased: 1.702
batch start
#iterations: 2
currently lose_sum: 377.09454870224
time_elpased: 1.669
batch start
#iterations: 3
currently lose_sum: 364.71030884981155
time_elpased: 1.701
batch start
#iterations: 4
currently lose_sum: 354.37921765446663
time_elpased: 1.697
batch start
#iterations: 5
currently lose_sum: 346.89331990480423
time_elpased: 1.679
batch start
#iterations: 6
currently lose_sum: 339.8025770485401
time_elpased: 1.62
batch start
#iterations: 7
currently lose_sum: 332.66376584768295
time_elpased: 1.637
batch start
#iterations: 8
currently lose_sum: 330.24848333001137
time_elpased: 1.669
batch start
#iterations: 9
currently lose_sum: 324.62247309088707
time_elpased: 1.692
batch start
#iterations: 10
currently lose_sum: 316.28994607925415
time_elpased: 1.679
batch start
#iterations: 11
currently lose_sum: 312.53955614566803
time_elpased: 1.635
batch start
#iterations: 12
currently lose_sum: 308.6106870472431
time_elpased: 1.673
batch start
#iterations: 13
currently lose_sum: 308.1635640859604
time_elpased: 1.702
batch start
#iterations: 14
currently lose_sum: 299.3892391324043
time_elpased: 1.634
batch start
#iterations: 15
currently lose_sum: 297.034442037344
time_elpased: 1.654
batch start
#iterations: 16
currently lose_sum: 293.5405843555927
time_elpased: 1.649
batch start
#iterations: 17
currently lose_sum: 291.2006584703922
time_elpased: 1.596
batch start
#iterations: 18
currently lose_sum: 291.0044995248318
time_elpased: 1.604
batch start
#iterations: 19
currently lose_sum: 289.81677985191345
time_elpased: 1.656
start validation test
0.773041237113
0.795337638174
0.741530612245
0.767492211015
validation finish
batch start
#iterations: 20
currently lose_sum: 285.3584794700146
time_elpased: 1.644
batch start
#iterations: 21
currently lose_sum: 287.5321128666401
time_elpased: 1.619
batch start
#iterations: 22
currently lose_sum: 280.2388059794903
time_elpased: 1.583
batch start
#iterations: 23
currently lose_sum: 281.08684423565865
time_elpased: 1.617
batch start
#iterations: 24
currently lose_sum: 278.20297479629517
time_elpased: 1.575
batch start
#iterations: 25
currently lose_sum: 278.11132672429085
time_elpased: 1.611
batch start
#iterations: 26
currently lose_sum: 274.5920929312706
time_elpased: 1.622
batch start
#iterations: 27
currently lose_sum: 270.7649330794811
time_elpased: 1.612
batch start
#iterations: 28
currently lose_sum: 271.15553215146065
time_elpased: 1.608
batch start
#iterations: 29
currently lose_sum: 272.3101304769516
time_elpased: 1.65
batch start
#iterations: 30
currently lose_sum: 269.43909922242165
time_elpased: 1.576
batch start
#iterations: 31
currently lose_sum: 267.45489248633385
time_elpased: 1.675
batch start
#iterations: 32
currently lose_sum: 269.6851576268673
time_elpased: 1.609
batch start
#iterations: 33
currently lose_sum: 268.1203247010708
time_elpased: 1.604
batch start
#iterations: 34
currently lose_sum: 264.040118008852
time_elpased: 1.603
batch start
#iterations: 35
currently lose_sum: 267.0348254740238
time_elpased: 1.586
batch start
#iterations: 36
currently lose_sum: 265.4109725058079
time_elpased: 1.638
batch start
#iterations: 37
currently lose_sum: 262.29269203543663
time_elpased: 1.629
batch start
#iterations: 38
currently lose_sum: 262.7586455345154
time_elpased: 1.609
batch start
#iterations: 39
currently lose_sum: 260.07406398653984
time_elpased: 1.637
start validation test
0.796546391753
0.825492158825
0.757346938776
0.789952636901
validation finish
batch start
#iterations: 40
currently lose_sum: 261.16410836577415
time_elpased: 1.663
batch start
#iterations: 41
currently lose_sum: 262.6333806216717
time_elpased: 1.646
batch start
#iterations: 42
currently lose_sum: 260.41000455617905
time_elpased: 1.627
batch start
#iterations: 43
currently lose_sum: 258.8231872320175
time_elpased: 1.647
batch start
#iterations: 44
currently lose_sum: 259.021364569664
time_elpased: 1.638
batch start
#iterations: 45
currently lose_sum: 257.1417940855026
time_elpased: 1.641
batch start
#iterations: 46
currently lose_sum: 257.58495739102364
time_elpased: 1.657
batch start
#iterations: 47
currently lose_sum: 258.7549194395542
time_elpased: 1.613
batch start
#iterations: 48
currently lose_sum: 259.2020878791809
time_elpased: 1.67
batch start
#iterations: 49
currently lose_sum: 256.32965353131294
time_elpased: 1.647
batch start
#iterations: 50
currently lose_sum: 257.1973082125187
time_elpased: 1.661
batch start
#iterations: 51
currently lose_sum: 259.7584639489651
time_elpased: 1.648
batch start
#iterations: 52
currently lose_sum: 258.0051238834858
time_elpased: 1.661
batch start
#iterations: 53
currently lose_sum: 257.9401935040951
time_elpased: 1.684
batch start
#iterations: 54
currently lose_sum: 256.39710435271263
time_elpased: 1.631
batch start
#iterations: 55
currently lose_sum: 254.1647152006626
time_elpased: 1.629
batch start
#iterations: 56
currently lose_sum: 253.36280915141106
time_elpased: 1.581
batch start
#iterations: 57
currently lose_sum: 253.9498117864132
time_elpased: 1.639
batch start
#iterations: 58
currently lose_sum: 253.60972344875336
time_elpased: 1.594
batch start
#iterations: 59
currently lose_sum: 252.92015472054482
time_elpased: 1.569
start validation test
0.795103092784
0.868717559185
0.700204081633
0.775411040172
validation finish
batch start
#iterations: 60
currently lose_sum: 254.59056448936462
time_elpased: 1.654
batch start
#iterations: 61
currently lose_sum: 252.83774894475937
time_elpased: 1.619
batch start
#iterations: 62
currently lose_sum: 255.87459421157837
time_elpased: 1.6
batch start
#iterations: 63
currently lose_sum: 252.02899622917175
time_elpased: 1.578
batch start
#iterations: 64
currently lose_sum: 253.21509078145027
time_elpased: 1.58
batch start
#iterations: 65
currently lose_sum: 255.46946141123772
time_elpased: 1.64
batch start
#iterations: 66
currently lose_sum: 254.21598261594772
time_elpased: 1.669
batch start
#iterations: 67
currently lose_sum: 254.56172156333923
time_elpased: 1.692
batch start
#iterations: 68
currently lose_sum: 251.53142592310905
time_elpased: 1.664
batch start
#iterations: 69
currently lose_sum: 248.80697318911552
time_elpased: 1.598
batch start
#iterations: 70
currently lose_sum: 253.62164199352264
time_elpased: 1.699
batch start
#iterations: 71
currently lose_sum: 251.77801102399826
time_elpased: 1.633
batch start
#iterations: 72
currently lose_sum: 249.44417476654053
time_elpased: 1.64
batch start
#iterations: 73
currently lose_sum: 248.38634738326073
time_elpased: 1.667
batch start
#iterations: 74
currently lose_sum: 249.16637980937958
time_elpased: 1.618
batch start
#iterations: 75
currently lose_sum: 251.18848630785942
time_elpased: 1.656
batch start
#iterations: 76
currently lose_sum: 249.55884093046188
time_elpased: 1.648
batch start
#iterations: 77
currently lose_sum: 246.8091057240963
time_elpased: 1.665
batch start
#iterations: 78
currently lose_sum: 246.61311957240105
time_elpased: 1.607
batch start
#iterations: 79
currently lose_sum: 244.46012589335442
time_elpased: 1.627
start validation test
0.803402061856
0.850468384075
0.74112244898
0.792039258451
validation finish
batch start
#iterations: 80
currently lose_sum: 246.70737025141716
time_elpased: 1.664
batch start
#iterations: 81
currently lose_sum: 247.4483208656311
time_elpased: 1.618
batch start
#iterations: 82
currently lose_sum: 248.32272043824196
time_elpased: 1.661
batch start
#iterations: 83
currently lose_sum: 245.73131614923477
time_elpased: 1.609
batch start
#iterations: 84
currently lose_sum: 247.47187918424606
time_elpased: 1.631
batch start
#iterations: 85
currently lose_sum: 245.48307086527348
time_elpased: 1.631
batch start
#iterations: 86
currently lose_sum: 245.35845172405243
time_elpased: 1.611
batch start
#iterations: 87
currently lose_sum: 243.78909918665886
time_elpased: 1.625
batch start
#iterations: 88
currently lose_sum: 244.34415912628174
time_elpased: 1.614
batch start
#iterations: 89
currently lose_sum: 246.60259008407593
time_elpased: 1.641
batch start
#iterations: 90
currently lose_sum: 243.8587187230587
time_elpased: 1.571
batch start
#iterations: 91
currently lose_sum: 247.53691521286964
time_elpased: 1.607
batch start
#iterations: 92
currently lose_sum: 242.64542666077614
time_elpased: 1.62
batch start
#iterations: 93
currently lose_sum: 241.85239431262016
time_elpased: 1.625
batch start
#iterations: 94
currently lose_sum: 241.65762874484062
time_elpased: 1.652
batch start
#iterations: 95
currently lose_sum: 242.6594320833683
time_elpased: 1.619
batch start
#iterations: 96
currently lose_sum: 241.5783683359623
time_elpased: 1.637
batch start
#iterations: 97
currently lose_sum: 243.6125339269638
time_elpased: 1.681
batch start
#iterations: 98
currently lose_sum: 239.67406278848648
time_elpased: 1.645
batch start
#iterations: 99
currently lose_sum: 240.18929408490658
time_elpased: 1.623
start validation test
0.80706185567
0.858275168579
0.740306122449
0.794937818441
validation finish
batch start
#iterations: 100
currently lose_sum: 240.79708115756512
time_elpased: 1.658
batch start
#iterations: 101
currently lose_sum: 240.36215442419052
time_elpased: 1.651
batch start
#iterations: 102
currently lose_sum: 241.49532902240753
time_elpased: 1.673
batch start
#iterations: 103
currently lose_sum: 238.63208471238613
time_elpased: 1.613
batch start
#iterations: 104
currently lose_sum: 241.41432934999466
time_elpased: 1.601
batch start
#iterations: 105
currently lose_sum: 244.19159552454948
time_elpased: 1.565
batch start
#iterations: 106
currently lose_sum: 242.0188833475113
time_elpased: 1.61
batch start
#iterations: 107
currently lose_sum: 239.5097891688347
time_elpased: 1.566
batch start
#iterations: 108
currently lose_sum: 240.05185866355896
time_elpased: 1.572
batch start
#iterations: 109
currently lose_sum: 240.44414407014847
time_elpased: 1.62
batch start
#iterations: 110
currently lose_sum: 238.27046652138233
time_elpased: 1.608
batch start
#iterations: 111
currently lose_sum: 240.05689769983292
time_elpased: 1.63
batch start
#iterations: 112
currently lose_sum: 238.12615764141083
time_elpased: 1.645
batch start
#iterations: 113
currently lose_sum: 241.26121726632118
time_elpased: 1.625
batch start
#iterations: 114
currently lose_sum: 238.61661764979362
time_elpased: 1.601
batch start
#iterations: 115
currently lose_sum: 237.56264153122902
time_elpased: 1.569
batch start
#iterations: 116
currently lose_sum: 238.49551832675934
time_elpased: 1.613
batch start
#iterations: 117
currently lose_sum: 238.44763803482056
time_elpased: 1.624
batch start
#iterations: 118
currently lose_sum: 238.4756820499897
time_elpased: 1.624
batch start
#iterations: 119
currently lose_sum: 237.02288676798344
time_elpased: 1.65
start validation test
0.813298969072
0.839823982398
0.778979591837
0.808258337745
validation finish
batch start
#iterations: 120
currently lose_sum: 237.27707394957542
time_elpased: 1.653
batch start
#iterations: 121
currently lose_sum: 237.11733376979828
time_elpased: 1.687
batch start
#iterations: 122
currently lose_sum: 232.5713452398777
time_elpased: 1.643
batch start
#iterations: 123
currently lose_sum: 235.43779876828194
time_elpased: 1.616
batch start
#iterations: 124
currently lose_sum: 236.84088718891144
time_elpased: 1.668
batch start
#iterations: 125
currently lose_sum: 235.1158185005188
time_elpased: 1.635
batch start
#iterations: 126
currently lose_sum: 236.57562494277954
time_elpased: 1.627
batch start
#iterations: 127
currently lose_sum: 229.37023881077766
time_elpased: 1.624
batch start
#iterations: 128
currently lose_sum: 232.0441389977932
time_elpased: 1.635
batch start
#iterations: 129
currently lose_sum: 235.12805719673634
time_elpased: 1.592
batch start
#iterations: 130
currently lose_sum: 235.13440883159637
time_elpased: 1.586
batch start
#iterations: 131
currently lose_sum: 231.59239134192467
time_elpased: 1.638
batch start
#iterations: 132
currently lose_sum: 236.08167266845703
time_elpased: 1.609
batch start
#iterations: 133
currently lose_sum: 235.17079064249992
time_elpased: 1.587
batch start
#iterations: 134
currently lose_sum: 233.9784715771675
time_elpased: 1.571
batch start
#iterations: 135
currently lose_sum: 231.8601372241974
time_elpased: 1.607
batch start
#iterations: 136
currently lose_sum: 231.99764651060104
time_elpased: 1.618
batch start
#iterations: 137
currently lose_sum: 233.36876106262207
time_elpased: 1.625
batch start
#iterations: 138
currently lose_sum: 231.53140971064568
time_elpased: 1.577
batch start
#iterations: 139
currently lose_sum: 233.11687967181206
time_elpased: 1.59
start validation test
0.815927835052
0.848885403831
0.773265306122
0.809312756982
validation finish
batch start
#iterations: 140
currently lose_sum: 231.12685641646385
time_elpased: 1.645
batch start
#iterations: 141
currently lose_sum: 233.90902426838875
time_elpased: 1.604
batch start
#iterations: 142
currently lose_sum: 231.36654445528984
time_elpased: 1.609
batch start
#iterations: 143
currently lose_sum: 231.30508235096931
time_elpased: 1.657
batch start
#iterations: 144
currently lose_sum: 232.956544816494
time_elpased: 1.614
batch start
#iterations: 145
currently lose_sum: 231.59607635438442
time_elpased: 1.596
batch start
#iterations: 146
currently lose_sum: 230.78506989777088
time_elpased: 1.596
batch start
#iterations: 147
currently lose_sum: 233.81420521438122
time_elpased: 1.595
batch start
#iterations: 148
currently lose_sum: 232.00737243890762
time_elpased: 1.624
batch start
#iterations: 149
currently lose_sum: 232.9974842518568
time_elpased: 1.594
batch start
#iterations: 150
currently lose_sum: 231.60458961129189
time_elpased: 1.636
batch start
#iterations: 151
currently lose_sum: 230.4536473453045
time_elpased: 1.628
batch start
#iterations: 152
currently lose_sum: 231.1063958108425
time_elpased: 1.611
batch start
#iterations: 153
currently lose_sum: 229.23386391997337
time_elpased: 1.627
batch start
#iterations: 154
currently lose_sum: 232.09765535593033
time_elpased: 1.655
batch start
#iterations: 155
currently lose_sum: 229.80436883866787
time_elpased: 1.679
batch start
#iterations: 156
currently lose_sum: 229.54681269824505
time_elpased: 1.666
batch start
#iterations: 157
currently lose_sum: 233.270741969347
time_elpased: 1.606
batch start
#iterations: 158
currently lose_sum: 229.73026582598686
time_elpased: 1.605
batch start
#iterations: 159
currently lose_sum: 230.23720230162144
time_elpased: 1.612
start validation test
0.817628865979
0.845737632509
0.781530612245
0.812367416207
validation finish
batch start
#iterations: 160
currently lose_sum: 230.27008643746376
time_elpased: 1.685
batch start
#iterations: 161
currently lose_sum: 229.21959713101387
time_elpased: 1.621
batch start
#iterations: 162
currently lose_sum: 228.01847223937511
time_elpased: 1.657
batch start
#iterations: 163
currently lose_sum: 230.09610638022423
time_elpased: 1.657
batch start
#iterations: 164
currently lose_sum: 228.66688215732574
time_elpased: 1.639
batch start
#iterations: 165
currently lose_sum: 230.46666219830513
time_elpased: 1.651
batch start
#iterations: 166
currently lose_sum: 230.72905360162258
time_elpased: 1.64
batch start
#iterations: 167
currently lose_sum: 229.74525603652
time_elpased: 1.661
batch start
#iterations: 168
currently lose_sum: 229.18535935878754
time_elpased: 1.65
batch start
#iterations: 169
currently lose_sum: 229.24975581467152
time_elpased: 1.643
batch start
#iterations: 170
currently lose_sum: 230.74034374952316
time_elpased: 1.655
batch start
#iterations: 171
currently lose_sum: 228.2554381787777
time_elpased: 1.649
batch start
#iterations: 172
currently lose_sum: 229.5383901000023
time_elpased: 1.652
batch start
#iterations: 173
currently lose_sum: 230.86573785543442
time_elpased: 1.621
batch start
#iterations: 174
currently lose_sum: 229.43597327172756
time_elpased: 1.638
batch start
#iterations: 175
currently lose_sum: 229.69101728498936
time_elpased: 1.629
batch start
#iterations: 176
currently lose_sum: 230.1529132425785
time_elpased: 1.648
batch start
#iterations: 177
currently lose_sum: 227.50401201844215
time_elpased: 1.673
batch start
#iterations: 178
currently lose_sum: 227.68261662125587
time_elpased: 1.599
batch start
#iterations: 179
currently lose_sum: 229.59411770105362
time_elpased: 1.62
start validation test
0.819432989691
0.855642155202
0.772959183673
0.812201790597
validation finish
batch start
#iterations: 180
currently lose_sum: 230.15813592076302
time_elpased: 1.666
batch start
#iterations: 181
currently lose_sum: 229.32729944586754
time_elpased: 1.67
batch start
#iterations: 182
currently lose_sum: 229.63337728381157
time_elpased: 1.631
batch start
#iterations: 183
currently lose_sum: 229.66185407340527
time_elpased: 1.621
batch start
#iterations: 184
currently lose_sum: 226.8430717587471
time_elpased: 1.654
batch start
#iterations: 185
currently lose_sum: 228.91347162425518
time_elpased: 1.589
batch start
#iterations: 186
currently lose_sum: 228.71670186519623
time_elpased: 1.602
batch start
#iterations: 187
currently lose_sum: 227.77696046233177
time_elpased: 1.643
batch start
#iterations: 188
currently lose_sum: 228.2918046116829
time_elpased: 1.603
batch start
#iterations: 189
currently lose_sum: 226.29270927608013
time_elpased: 1.632
batch start
#iterations: 190
currently lose_sum: 225.42978511750698
time_elpased: 1.607
batch start
#iterations: 191
currently lose_sum: 229.44457826018333
time_elpased: 1.605
batch start
#iterations: 192
currently lose_sum: 227.81515654921532
time_elpased: 1.573
batch start
#iterations: 193
currently lose_sum: 228.2876541763544
time_elpased: 1.608
batch start
#iterations: 194
currently lose_sum: 226.98122112452984
time_elpased: 1.651
batch start
#iterations: 195
currently lose_sum: 229.758985131979
time_elpased: 1.634
batch start
#iterations: 196
currently lose_sum: 227.3903175443411
time_elpased: 1.638
batch start
#iterations: 197
currently lose_sum: 227.45268395543098
time_elpased: 1.662
batch start
#iterations: 198
currently lose_sum: 228.1183638870716
time_elpased: 1.636
batch start
#iterations: 199
currently lose_sum: 229.43437752127647
time_elpased: 1.647
start validation test
0.816288659794
0.828694918828
0.802142857143
0.815202737737
validation finish
batch start
#iterations: 200
currently lose_sum: 228.26003390550613
time_elpased: 1.597
batch start
#iterations: 201
currently lose_sum: 226.8278315961361
time_elpased: 1.655
batch start
#iterations: 202
currently lose_sum: 229.00395184755325
time_elpased: 1.585
batch start
#iterations: 203
currently lose_sum: 228.42589657008648
time_elpased: 1.645
batch start
#iterations: 204
currently lose_sum: 228.76315680146217
time_elpased: 1.684
batch start
#iterations: 205
currently lose_sum: 227.5634462237358
time_elpased: 1.619
batch start
#iterations: 206
currently lose_sum: 228.77891014516354
time_elpased: 1.68
batch start
#iterations: 207
currently lose_sum: 225.03008791804314
time_elpased: 1.69
batch start
#iterations: 208
currently lose_sum: 226.84152872860432
time_elpased: 1.692
batch start
#iterations: 209
currently lose_sum: 226.09267961978912
time_elpased: 1.684
batch start
#iterations: 210
currently lose_sum: 228.12673746049404
time_elpased: 1.678
batch start
#iterations: 211
currently lose_sum: 225.65358594059944
time_elpased: 1.691
batch start
#iterations: 212
currently lose_sum: 227.24566128849983
time_elpased: 1.646
batch start
#iterations: 213
currently lose_sum: 225.4545380026102
time_elpased: 1.691
batch start
#iterations: 214
currently lose_sum: 227.98741778731346
time_elpased: 1.632
batch start
#iterations: 215
currently lose_sum: 230.8078134059906
time_elpased: 1.677
batch start
#iterations: 216
currently lose_sum: 226.78383514285088
time_elpased: 1.655
batch start
#iterations: 217
currently lose_sum: 226.02734073996544
time_elpased: 1.663
batch start
#iterations: 218
currently lose_sum: 227.61377684772015
time_elpased: 1.657
batch start
#iterations: 219
currently lose_sum: 228.64059737324715
time_elpased: 1.609
start validation test
0.820927835052
0.842464270247
0.793979591837
0.817503677243
validation finish
batch start
#iterations: 220
currently lose_sum: 226.98721969127655
time_elpased: 1.673
batch start
#iterations: 221
currently lose_sum: 225.82155530154705
time_elpased: 1.612
batch start
#iterations: 222
currently lose_sum: 227.51262618601322
time_elpased: 1.664
batch start
#iterations: 223
currently lose_sum: 228.26660045981407
time_elpased: 1.668
batch start
#iterations: 224
currently lose_sum: 226.93006438016891
time_elpased: 1.594
batch start
#iterations: 225
currently lose_sum: 225.8103979229927
time_elpased: 1.6
batch start
#iterations: 226
currently lose_sum: 224.29938438534737
time_elpased: 1.653
batch start
#iterations: 227
currently lose_sum: 224.41518469154835
time_elpased: 1.643
batch start
#iterations: 228
currently lose_sum: 224.75107663869858
time_elpased: 1.569
batch start
#iterations: 229
currently lose_sum: 228.40766125917435
time_elpased: 1.627
batch start
#iterations: 230
currently lose_sum: 224.88690063357353
time_elpased: 1.618
batch start
#iterations: 231
currently lose_sum: 224.19136492908
time_elpased: 1.609
batch start
#iterations: 232
currently lose_sum: 228.11861841380596
time_elpased: 1.701
batch start
#iterations: 233
currently lose_sum: 227.26200422644615
time_elpased: 1.687
batch start
#iterations: 234
currently lose_sum: 225.89323496818542
time_elpased: 1.663
batch start
#iterations: 235
currently lose_sum: 224.21246720850468
time_elpased: 1.633
batch start
#iterations: 236
currently lose_sum: 226.50833059847355
time_elpased: 1.619
batch start
#iterations: 237
currently lose_sum: 225.78876414895058
time_elpased: 1.658
batch start
#iterations: 238
currently lose_sum: 225.45390652120113
time_elpased: 1.603
batch start
#iterations: 239
currently lose_sum: 224.69666266441345
time_elpased: 1.627
start validation test
0.819072164948
0.852420439265
0.776224489796
0.812540055544
validation finish
batch start
#iterations: 240
currently lose_sum: 225.39636947214603
time_elpased: 1.656
batch start
#iterations: 241
currently lose_sum: 225.42980886995792
time_elpased: 1.602
batch start
#iterations: 242
currently lose_sum: 223.9267928302288
time_elpased: 1.691
batch start
#iterations: 243
currently lose_sum: 227.76676699519157
time_elpased: 1.632
batch start
#iterations: 244
currently lose_sum: 225.91098742187023
time_elpased: 1.609
batch start
#iterations: 245
currently lose_sum: 224.97080624103546
time_elpased: 1.621
batch start
#iterations: 246
currently lose_sum: 225.5584874600172
time_elpased: 1.608
batch start
#iterations: 247
currently lose_sum: 224.21920223534107
time_elpased: 1.643
batch start
#iterations: 248
currently lose_sum: 223.5483917593956
time_elpased: 1.655
batch start
#iterations: 249
currently lose_sum: 225.9661917090416
time_elpased: 1.662
batch start
#iterations: 250
currently lose_sum: 222.09638726711273
time_elpased: 1.612
batch start
#iterations: 251
currently lose_sum: 226.28696140646935
time_elpased: 1.644
batch start
#iterations: 252
currently lose_sum: 224.9212961792946
time_elpased: 1.648
batch start
#iterations: 253
currently lose_sum: 226.02690842747688
time_elpased: 1.643
batch start
#iterations: 254
currently lose_sum: 225.57980129122734
time_elpased: 1.649
batch start
#iterations: 255
currently lose_sum: 227.379890948534
time_elpased: 1.614
batch start
#iterations: 256
currently lose_sum: 223.67837512493134
time_elpased: 1.622
batch start
#iterations: 257
currently lose_sum: 225.44619351625443
time_elpased: 1.718
batch start
#iterations: 258
currently lose_sum: 224.85984247922897
time_elpased: 1.674
batch start
#iterations: 259
currently lose_sum: 222.7004780471325
time_elpased: 1.743
start validation test
0.816855670103
0.860806283932
0.760408163265
0.80749851005
validation finish
batch start
#iterations: 260
currently lose_sum: 227.80108852684498
time_elpased: 1.671
batch start
#iterations: 261
currently lose_sum: 225.57198637723923
time_elpased: 1.673
batch start
#iterations: 262
currently lose_sum: 226.4349539577961
time_elpased: 1.656
batch start
#iterations: 263
currently lose_sum: 225.62634694576263
time_elpased: 1.671
batch start
#iterations: 264
currently lose_sum: 224.87494736909866
time_elpased: 1.698
batch start
#iterations: 265
currently lose_sum: 227.29368440806866
time_elpased: 1.676
batch start
#iterations: 266
currently lose_sum: 224.68591091036797
time_elpased: 1.72
batch start
#iterations: 267
currently lose_sum: 226.64830574393272
time_elpased: 1.621
batch start
#iterations: 268
currently lose_sum: 226.37557670474052
time_elpased: 1.668
batch start
#iterations: 269
currently lose_sum: 224.0380893945694
time_elpased: 1.691
batch start
#iterations: 270
currently lose_sum: 225.0855308920145
time_elpased: 1.659
batch start
#iterations: 271
currently lose_sum: 225.39589565992355
time_elpased: 1.635
batch start
#iterations: 272
currently lose_sum: 225.74192516505718
time_elpased: 1.641
batch start
#iterations: 273
currently lose_sum: 223.39526411890984
time_elpased: 1.706
batch start
#iterations: 274
currently lose_sum: 225.80769787728786
time_elpased: 1.64
batch start
#iterations: 275
currently lose_sum: 223.050598859787
time_elpased: 1.657
batch start
#iterations: 276
currently lose_sum: 224.0879059433937
time_elpased: 1.621
batch start
#iterations: 277
currently lose_sum: 223.8251827210188
time_elpased: 1.667
batch start
#iterations: 278
currently lose_sum: 226.21503920853138
time_elpased: 1.698
batch start
#iterations: 279
currently lose_sum: 222.54531934857368
time_elpased: 1.669
start validation test
0.81881443299
0.846969195098
0.782755102041
0.813597072705
validation finish
batch start
#iterations: 280
currently lose_sum: 223.31888735294342
time_elpased: 1.725
batch start
#iterations: 281
currently lose_sum: 222.7606753706932
time_elpased: 1.703
batch start
#iterations: 282
currently lose_sum: 224.88911113142967
time_elpased: 1.684
batch start
#iterations: 283
currently lose_sum: 223.34312391281128
time_elpased: 1.66
batch start
#iterations: 284
currently lose_sum: 223.21241389214993
time_elpased: 1.645
batch start
#iterations: 285
currently lose_sum: 225.5804787427187
time_elpased: 1.681
batch start
#iterations: 286
currently lose_sum: 224.68247632682323
time_elpased: 1.678
batch start
#iterations: 287
currently lose_sum: 226.3211344331503
time_elpased: 1.658
batch start
#iterations: 288
currently lose_sum: 224.48073925077915
time_elpased: 1.665
batch start
#iterations: 289
currently lose_sum: 222.23344193398952
time_elpased: 1.657
batch start
#iterations: 290
currently lose_sum: 225.82517211139202
time_elpased: 1.658
batch start
#iterations: 291
currently lose_sum: 226.56877040863037
time_elpased: 1.633
batch start
#iterations: 292
currently lose_sum: 224.9252491146326
time_elpased: 1.694
batch start
#iterations: 293
currently lose_sum: 222.71831031143665
time_elpased: 1.609
batch start
#iterations: 294
currently lose_sum: 227.3438770622015
time_elpased: 1.698
batch start
#iterations: 295
currently lose_sum: 225.8079226464033
time_elpased: 1.652
batch start
#iterations: 296
currently lose_sum: 225.12572196125984
time_elpased: 1.651
batch start
#iterations: 297
currently lose_sum: 224.73518297076225
time_elpased: 1.667
batch start
#iterations: 298
currently lose_sum: 223.63781563937664
time_elpased: 1.654
batch start
#iterations: 299
currently lose_sum: 223.2855615913868
time_elpased: 1.663
start validation test
0.820309278351
0.853053008276
0.778367346939
0.814000640273
validation finish
batch start
#iterations: 300
currently lose_sum: 224.41553166508675
time_elpased: 1.7
batch start
#iterations: 301
currently lose_sum: 223.8648476153612
time_elpased: 1.702
batch start
#iterations: 302
currently lose_sum: 225.4798645377159
time_elpased: 1.665
batch start
#iterations: 303
currently lose_sum: 225.08566807210445
time_elpased: 1.669
batch start
#iterations: 304
currently lose_sum: 225.60767275094986
time_elpased: 1.701
batch start
#iterations: 305
currently lose_sum: 225.59806701540947
time_elpased: 1.646
batch start
#iterations: 306
currently lose_sum: 224.35566279292107
time_elpased: 1.726
batch start
#iterations: 307
currently lose_sum: 221.5541862398386
time_elpased: 1.68
batch start
#iterations: 308
currently lose_sum: 222.80145147442818
time_elpased: 1.706
batch start
#iterations: 309
currently lose_sum: 223.88387873768806
time_elpased: 1.657
batch start
#iterations: 310
currently lose_sum: 224.23258051276207
time_elpased: 1.638
batch start
#iterations: 311
currently lose_sum: 221.3734964132309
time_elpased: 1.731
batch start
#iterations: 312
currently lose_sum: 223.28793239593506
time_elpased: 1.641
batch start
#iterations: 313
currently lose_sum: 221.29044111073017
time_elpased: 1.662
batch start
#iterations: 314
currently lose_sum: 223.03010718524456
time_elpased: 1.702
batch start
#iterations: 315
currently lose_sum: 224.16666166484356
time_elpased: 1.688
batch start
#iterations: 316
currently lose_sum: 224.35300984978676
time_elpased: 1.712
batch start
#iterations: 317
currently lose_sum: 223.166827917099
time_elpased: 1.684
batch start
#iterations: 318
currently lose_sum: 225.37168610095978
time_elpased: 1.708
batch start
#iterations: 319
currently lose_sum: 222.34140068292618
time_elpased: 1.709
start validation test
0.820567010309
0.854960116841
0.776530612245
0.813860221379
validation finish
batch start
#iterations: 320
currently lose_sum: 223.41638804972172
time_elpased: 1.714
batch start
#iterations: 321
currently lose_sum: 225.34455828368664
time_elpased: 1.71
batch start
#iterations: 322
currently lose_sum: 221.33237926661968
time_elpased: 1.707
batch start
#iterations: 323
currently lose_sum: 222.663046002388
time_elpased: 1.665
batch start
#iterations: 324
currently lose_sum: 222.91907148063183
time_elpased: 1.667
batch start
#iterations: 325
currently lose_sum: 222.89923757314682
time_elpased: 1.704
batch start
#iterations: 326
currently lose_sum: 224.12182077765465
time_elpased: 1.656
batch start
#iterations: 327
currently lose_sum: 221.80720019340515
time_elpased: 1.719
batch start
#iterations: 328
currently lose_sum: 221.57728344202042
time_elpased: 1.642
batch start
#iterations: 329
currently lose_sum: 221.3407739698887
time_elpased: 1.699
batch start
#iterations: 330
currently lose_sum: 225.93675483763218
time_elpased: 1.713
batch start
#iterations: 331
currently lose_sum: 224.26647321879864
time_elpased: 1.675
batch start
#iterations: 332
currently lose_sum: 221.62315422296524
time_elpased: 1.745
batch start
#iterations: 333
currently lose_sum: 221.9409094005823
time_elpased: 1.711
batch start
#iterations: 334
currently lose_sum: 226.42561727762222
time_elpased: 1.695
batch start
#iterations: 335
currently lose_sum: 223.84861300885677
time_elpased: 1.748
batch start
#iterations: 336
currently lose_sum: 223.7843318283558
time_elpased: 1.683
batch start
#iterations: 337
currently lose_sum: 225.40798437595367
time_elpased: 1.71
batch start
#iterations: 338
currently lose_sum: 223.8704169690609
time_elpased: 1.698
batch start
#iterations: 339
currently lose_sum: 220.82887199521065
time_elpased: 1.696
start validation test
0.819587628866
0.868593494032
0.757448979592
0.809222718849
validation finish
batch start
#iterations: 340
currently lose_sum: 226.1884804815054
time_elpased: 1.68
batch start
#iterations: 341
currently lose_sum: 222.12913969159126
time_elpased: 1.681
batch start
#iterations: 342
currently lose_sum: 224.28871047496796
time_elpased: 1.657
batch start
#iterations: 343
currently lose_sum: 224.3465115725994
time_elpased: 1.691
batch start
#iterations: 344
currently lose_sum: 222.1228986531496
time_elpased: 1.677
batch start
#iterations: 345
currently lose_sum: 223.14952360093594
time_elpased: 1.663
batch start
#iterations: 346
currently lose_sum: 221.52083277702332
time_elpased: 1.702
batch start
#iterations: 347
currently lose_sum: 223.63863611221313
time_elpased: 1.688
batch start
#iterations: 348
currently lose_sum: 222.35799320042133
time_elpased: 1.655
batch start
#iterations: 349
currently lose_sum: 221.55601125955582
time_elpased: 1.697
batch start
#iterations: 350
currently lose_sum: 222.9171812683344
time_elpased: 1.643
batch start
#iterations: 351
currently lose_sum: 223.9951196461916
time_elpased: 1.659
batch start
#iterations: 352
currently lose_sum: 222.2109267115593
time_elpased: 1.681
batch start
#iterations: 353
currently lose_sum: 222.154870018363
time_elpased: 1.664
batch start
#iterations: 354
currently lose_sum: 220.4070546478033
time_elpased: 1.656
batch start
#iterations: 355
currently lose_sum: 225.33506186306477
time_elpased: 1.651
batch start
#iterations: 356
currently lose_sum: 220.93530710041523
time_elpased: 1.644
batch start
#iterations: 357
currently lose_sum: 223.81217294931412
time_elpased: 1.631
batch start
#iterations: 358
currently lose_sum: 222.45123825967312
time_elpased: 1.728
batch start
#iterations: 359
currently lose_sum: 222.69778402149677
time_elpased: 1.728
start validation test
0.820103092784
0.866094221397
0.761632653061
0.810511456184
validation finish
batch start
#iterations: 360
currently lose_sum: 224.04220566153526
time_elpased: 1.687
batch start
#iterations: 361
currently lose_sum: 222.7112881541252
time_elpased: 1.706
batch start
#iterations: 362
currently lose_sum: 223.65134993195534
time_elpased: 1.698
batch start
#iterations: 363
currently lose_sum: 223.14992544054985
time_elpased: 1.668
batch start
#iterations: 364
currently lose_sum: 222.17675626277924
time_elpased: 1.675
batch start
#iterations: 365
currently lose_sum: 223.7619572430849
time_elpased: 1.708
batch start
#iterations: 366
currently lose_sum: 220.86731666326523
time_elpased: 1.711
batch start
#iterations: 367
currently lose_sum: 222.4884769320488
time_elpased: 1.742
batch start
#iterations: 368
currently lose_sum: 223.14518348872662
time_elpased: 1.702
batch start
#iterations: 369
currently lose_sum: 224.82979121804237
time_elpased: 1.725
batch start
#iterations: 370
currently lose_sum: 222.53648599982262
time_elpased: 1.721
batch start
#iterations: 371
currently lose_sum: 222.80692632496357
time_elpased: 1.653
batch start
#iterations: 372
currently lose_sum: 222.08069251477718
time_elpased: 1.665
batch start
#iterations: 373
currently lose_sum: 223.42305487394333
time_elpased: 1.654
batch start
#iterations: 374
currently lose_sum: 222.60253737866879
time_elpased: 1.694
batch start
#iterations: 375
currently lose_sum: 218.68206253647804
time_elpased: 1.664
batch start
#iterations: 376
currently lose_sum: 223.36084489524364
time_elpased: 1.664
batch start
#iterations: 377
currently lose_sum: 220.72124944627285
time_elpased: 1.705
batch start
#iterations: 378
currently lose_sum: 221.22822459042072
time_elpased: 1.666
batch start
#iterations: 379
currently lose_sum: 221.29932433366776
time_elpased: 1.644
start validation test
0.820463917526
0.8550871276
0.77612244898
0.813693500936
validation finish
batch start
#iterations: 380
currently lose_sum: 218.33990210294724
time_elpased: 1.69
batch start
#iterations: 381
currently lose_sum: 219.94200186431408
time_elpased: 1.719
batch start
#iterations: 382
currently lose_sum: 223.70139555633068
time_elpased: 1.688
batch start
#iterations: 383
currently lose_sum: 220.79758581519127
time_elpased: 1.681
batch start
#iterations: 384
currently lose_sum: 222.05047994852066
time_elpased: 1.701
batch start
#iterations: 385
currently lose_sum: 223.95081193745136
time_elpased: 1.678
batch start
#iterations: 386
currently lose_sum: 224.04267646372318
time_elpased: 1.706
batch start
#iterations: 387
currently lose_sum: 222.06196630001068
time_elpased: 1.666
batch start
#iterations: 388
currently lose_sum: 224.6636122763157
time_elpased: 1.728
batch start
#iterations: 389
currently lose_sum: 223.07301551103592
time_elpased: 1.698
batch start
#iterations: 390
currently lose_sum: 221.13302662968636
time_elpased: 1.676
batch start
#iterations: 391
currently lose_sum: 221.08058874309063
time_elpased: 1.722
batch start
#iterations: 392
currently lose_sum: 220.8619353324175
time_elpased: 1.696
batch start
#iterations: 393
currently lose_sum: 221.61603878438473
time_elpased: 1.735
batch start
#iterations: 394
currently lose_sum: 218.739618614316
time_elpased: 1.726
batch start
#iterations: 395
currently lose_sum: 225.5202717781067
time_elpased: 1.703
batch start
#iterations: 396
currently lose_sum: 220.97670722007751
time_elpased: 1.66
batch start
#iterations: 397
currently lose_sum: 223.32712103426456
time_elpased: 1.663
batch start
#iterations: 398
currently lose_sum: 224.59187579154968
time_elpased: 1.734
batch start
#iterations: 399
currently lose_sum: 222.1726400256157
time_elpased: 1.736
start validation test
0.82118556701
0.870624048706
0.758775510204
0.810860912709
validation finish
batch start
#iterations: 400
currently lose_sum: 221.60410143435
time_elpased: 1.746
batch start
#iterations: 401
currently lose_sum: 221.07802145183086
time_elpased: 1.681
batch start
#iterations: 402
currently lose_sum: 221.71376322209835
time_elpased: 1.689
batch start
#iterations: 403
currently lose_sum: 218.87306660413742
time_elpased: 1.713
batch start
#iterations: 404
currently lose_sum: 222.31861375272274
time_elpased: 1.713
batch start
#iterations: 405
currently lose_sum: 222.48676398396492
time_elpased: 1.677
batch start
#iterations: 406
currently lose_sum: 222.15414226055145
time_elpased: 1.665
batch start
#iterations: 407
currently lose_sum: 221.45913887023926
time_elpased: 1.713
batch start
#iterations: 408
currently lose_sum: 222.6795955747366
time_elpased: 1.69
batch start
#iterations: 409
currently lose_sum: 220.94017806649208
time_elpased: 1.696
batch start
#iterations: 410
currently lose_sum: 221.65990893542767
time_elpased: 1.704
batch start
#iterations: 411
currently lose_sum: 223.92601950466633
time_elpased: 1.67
batch start
#iterations: 412
currently lose_sum: 224.11473916471004
time_elpased: 1.669
batch start
#iterations: 413
currently lose_sum: 222.02198995649815
time_elpased: 1.716
batch start
#iterations: 414
currently lose_sum: 222.1911330074072
time_elpased: 1.723
batch start
#iterations: 415
currently lose_sum: 221.23634330928326
time_elpased: 1.732
batch start
#iterations: 416
currently lose_sum: 219.78793735802174
time_elpased: 1.718
batch start
#iterations: 417
currently lose_sum: 221.34947930276394
time_elpased: 1.676
batch start
#iterations: 418
currently lose_sum: 223.95501264929771
time_elpased: 1.725
batch start
#iterations: 419
currently lose_sum: 219.57200767099857
time_elpased: 1.689
start validation test
0.820309278351
0.848070562293
0.784897959184
0.815262321145
validation finish
batch start
#iterations: 420
currently lose_sum: 221.9069178700447
time_elpased: 1.647
batch start
#iterations: 421
currently lose_sum: 223.98699428141117
time_elpased: 1.706
batch start
#iterations: 422
currently lose_sum: 222.54809191823006
time_elpased: 1.707
batch start
#iterations: 423
currently lose_sum: 225.02398152649403
time_elpased: 1.693
batch start
#iterations: 424
currently lose_sum: 221.54633390903473
time_elpased: 1.689
batch start
#iterations: 425
currently lose_sum: 218.76548099517822
time_elpased: 1.66
batch start
#iterations: 426
currently lose_sum: 224.69295391440392
time_elpased: 1.676
batch start
#iterations: 427
currently lose_sum: 221.89264802634716
time_elpased: 1.698
batch start
#iterations: 428
currently lose_sum: 222.2013857215643
time_elpased: 1.696
batch start
#iterations: 429
currently lose_sum: 219.97405168414116
time_elpased: 1.709
batch start
#iterations: 430
currently lose_sum: 221.57143698632717
time_elpased: 1.703
batch start
#iterations: 431
currently lose_sum: 221.2965424656868
time_elpased: 1.679
batch start
#iterations: 432
currently lose_sum: 221.9249686151743
time_elpased: 1.675
batch start
#iterations: 433
currently lose_sum: 221.17516981065273
time_elpased: 1.7
batch start
#iterations: 434
currently lose_sum: 220.63053306937218
time_elpased: 1.677
batch start
#iterations: 435
currently lose_sum: 220.56365153193474
time_elpased: 1.75
batch start
#iterations: 436
currently lose_sum: 224.4152991771698
time_elpased: 1.685
batch start
#iterations: 437
currently lose_sum: 221.5815920084715
time_elpased: 1.689
batch start
#iterations: 438
currently lose_sum: 219.43944630026817
time_elpased: 1.717
batch start
#iterations: 439
currently lose_sum: 224.2471615076065
time_elpased: 1.676
start validation test
0.82118556701
0.847589766114
0.787653061224
0.816522980907
validation finish
batch start
#iterations: 440
currently lose_sum: 221.59784376621246
time_elpased: 1.7
batch start
#iterations: 441
currently lose_sum: 222.8012679219246
time_elpased: 1.65
batch start
#iterations: 442
currently lose_sum: 220.98102271556854
time_elpased: 1.713
batch start
#iterations: 443
currently lose_sum: 221.70040415227413
time_elpased: 1.729
batch start
#iterations: 444
currently lose_sum: 222.17943766713142
time_elpased: 1.672
batch start
#iterations: 445
currently lose_sum: 222.7904752790928
time_elpased: 1.668
batch start
#iterations: 446
currently lose_sum: 220.92252345383167
time_elpased: 1.675
batch start
#iterations: 447
currently lose_sum: 220.62443353235722
time_elpased: 1.683
batch start
#iterations: 448
currently lose_sum: 220.4013290554285
time_elpased: 1.675
batch start
#iterations: 449
currently lose_sum: 219.77220283448696
time_elpased: 1.689
batch start
#iterations: 450
currently lose_sum: 220.5743956118822
time_elpased: 1.722
batch start
#iterations: 451
currently lose_sum: 220.35269963741302
time_elpased: 1.697
batch start
#iterations: 452
currently lose_sum: 221.92238500714302
time_elpased: 1.692
batch start
#iterations: 453
currently lose_sum: 221.80662189424038
time_elpased: 1.677
batch start
#iterations: 454
currently lose_sum: 221.2841189354658
time_elpased: 1.681
batch start
#iterations: 455
currently lose_sum: 221.52240811288357
time_elpased: 1.654
batch start
#iterations: 456
currently lose_sum: 223.1640079319477
time_elpased: 1.703
batch start
#iterations: 457
currently lose_sum: 220.17732967436314
time_elpased: 1.671
batch start
#iterations: 458
currently lose_sum: 220.1963875889778
time_elpased: 1.683
batch start
#iterations: 459
currently lose_sum: 223.07895122468472
time_elpased: 1.721
start validation test
0.821082474227
0.861946700217
0.768979591837
0.812813460605
validation finish
batch start
#iterations: 460
currently lose_sum: 221.4051589667797
time_elpased: 1.69
batch start
#iterations: 461
currently lose_sum: 221.65697719156742
time_elpased: 1.639
batch start
#iterations: 462
currently lose_sum: 222.2795930504799
time_elpased: 1.647
batch start
#iterations: 463
currently lose_sum: 219.59209190309048
time_elpased: 1.704
batch start
#iterations: 464
currently lose_sum: 220.93500781059265
time_elpased: 1.666
batch start
#iterations: 465
currently lose_sum: 219.84883649647236
time_elpased: 1.722
batch start
#iterations: 466
currently lose_sum: 221.11040131747723
time_elpased: 1.685
batch start
#iterations: 467
currently lose_sum: 222.10730701684952
time_elpased: 1.62
batch start
#iterations: 468
currently lose_sum: 220.84710651636124
time_elpased: 1.698
batch start
#iterations: 469
currently lose_sum: 223.52705942094326
time_elpased: 1.653
batch start
#iterations: 470
currently lose_sum: 220.56795799732208
time_elpased: 1.682
batch start
#iterations: 471
currently lose_sum: 222.3395150601864
time_elpased: 1.696
batch start
#iterations: 472
currently lose_sum: 221.66700719296932
time_elpased: 1.692
batch start
#iterations: 473
currently lose_sum: 221.41740188002586
time_elpased: 1.669
batch start
#iterations: 474
currently lose_sum: 220.61398243904114
time_elpased: 1.702
batch start
#iterations: 475
currently lose_sum: 222.5790472328663
time_elpased: 1.749
batch start
#iterations: 476
currently lose_sum: 222.47181110084057
time_elpased: 1.687
batch start
#iterations: 477
currently lose_sum: 222.1565302312374
time_elpased: 1.706
batch start
#iterations: 478
currently lose_sum: 220.70067834854126
time_elpased: 1.704
batch start
#iterations: 479
currently lose_sum: 223.29216708242893
time_elpased: 1.703
start validation test
0.821597938144
0.85010493759
0.785306122449
0.816421789636
validation finish
batch start
#iterations: 480
currently lose_sum: 223.21435451507568
time_elpased: 1.684
batch start
#iterations: 481
currently lose_sum: 222.13921076059341
time_elpased: 1.664
batch start
#iterations: 482
currently lose_sum: 219.0823428183794
time_elpased: 1.697
batch start
#iterations: 483
currently lose_sum: 221.79927025735378
time_elpased: 1.68
batch start
#iterations: 484
currently lose_sum: 221.94167874753475
time_elpased: 1.685
batch start
#iterations: 485
currently lose_sum: 222.31551867723465
time_elpased: 1.641
batch start
#iterations: 486
currently lose_sum: 221.16186025738716
time_elpased: 1.653
batch start
#iterations: 487
currently lose_sum: 222.22393788397312
time_elpased: 1.67
batch start
#iterations: 488
currently lose_sum: 222.57765737175941
time_elpased: 1.664
batch start
#iterations: 489
currently lose_sum: 220.35565048456192
time_elpased: 1.669
batch start
#iterations: 490
currently lose_sum: 222.20648083090782
time_elpased: 1.708
batch start
#iterations: 491
currently lose_sum: 219.53897058963776
time_elpased: 1.708
batch start
#iterations: 492
currently lose_sum: 218.91197270154953
time_elpased: 1.648
batch start
#iterations: 493
currently lose_sum: 220.9063903093338
time_elpased: 1.696
batch start
#iterations: 494
currently lose_sum: 222.59172135591507
time_elpased: 1.674
batch start
#iterations: 495
currently lose_sum: 218.4814264178276
time_elpased: 1.642
batch start
#iterations: 496
currently lose_sum: 220.0559056252241
time_elpased: 1.736
batch start
#iterations: 497
currently lose_sum: 221.0421285033226
time_elpased: 1.699
batch start
#iterations: 498
currently lose_sum: 222.02660529315472
time_elpased: 1.707
batch start
#iterations: 499
currently lose_sum: 219.85486516356468
time_elpased: 1.747
start validation test
0.821082474227
0.86087353176
0.770306122449
0.813075556034
validation finish
batch start
#iterations: 500
currently lose_sum: 224.71635268628597
time_elpased: 1.716
batch start
#iterations: 501
currently lose_sum: 221.00326856970787
time_elpased: 1.742
batch start
#iterations: 502
currently lose_sum: 219.41017664968967
time_elpased: 1.653
batch start
#iterations: 503
currently lose_sum: 221.7173312008381
time_elpased: 1.682
batch start
#iterations: 504
currently lose_sum: 220.18484809994698
time_elpased: 1.689
batch start
#iterations: 505
currently lose_sum: 220.88939079642296
time_elpased: 1.691
batch start
#iterations: 506
currently lose_sum: 220.85287579894066
time_elpased: 1.693
batch start
#iterations: 507
currently lose_sum: 221.04004108905792
time_elpased: 1.705
batch start
#iterations: 508
currently lose_sum: 221.307055413723
time_elpased: 1.723
batch start
#iterations: 509
currently lose_sum: 222.29460753500462
time_elpased: 1.645
batch start
#iterations: 510
currently lose_sum: 217.93527510762215
time_elpased: 1.757
batch start
#iterations: 511
currently lose_sum: 222.81320002675056
time_elpased: 1.685
batch start
#iterations: 512
currently lose_sum: 218.24662773311138
time_elpased: 1.736
batch start
#iterations: 513
currently lose_sum: 222.90989282727242
time_elpased: 1.694
batch start
#iterations: 514
currently lose_sum: 222.84571672976017
time_elpased: 1.697
batch start
#iterations: 515
currently lose_sum: 221.32769533991814
time_elpased: 1.702
batch start
#iterations: 516
currently lose_sum: 221.89056172966957
time_elpased: 1.724
batch start
#iterations: 517
currently lose_sum: 221.37699042260647
time_elpased: 1.729
batch start
#iterations: 518
currently lose_sum: 222.42093673348427
time_elpased: 1.686
batch start
#iterations: 519
currently lose_sum: 217.83704566955566
time_elpased: 1.695
start validation test
0.821237113402
0.856772594095
0.775816326531
0.814287244297
validation finish
batch start
#iterations: 520
currently lose_sum: 221.57412286102772
time_elpased: 1.71
batch start
#iterations: 521
currently lose_sum: 220.75913858413696
time_elpased: 1.7
batch start
#iterations: 522
currently lose_sum: 222.6689212322235
time_elpased: 1.681
batch start
#iterations: 523
currently lose_sum: 218.46054957807064
time_elpased: 1.632
batch start
#iterations: 524
currently lose_sum: 220.14366018772125
time_elpased: 1.733
batch start
#iterations: 525
currently lose_sum: 219.93644693493843
time_elpased: 1.734
batch start
#iterations: 526
currently lose_sum: 222.479050219059
time_elpased: 1.689
batch start
#iterations: 527
currently lose_sum: 219.8759886622429
time_elpased: 1.699
batch start
#iterations: 528
currently lose_sum: 222.38698326051235
time_elpased: 1.681
batch start
#iterations: 529
currently lose_sum: 220.8531662672758
time_elpased: 1.716
batch start
#iterations: 530
currently lose_sum: 221.0969484448433
time_elpased: 1.671
batch start
#iterations: 531
currently lose_sum: 220.57892797887325
time_elpased: 1.708
batch start
#iterations: 532
currently lose_sum: 221.62232588231564
time_elpased: 1.65
batch start
#iterations: 533
currently lose_sum: 221.9066773802042
time_elpased: 1.718
batch start
#iterations: 534
currently lose_sum: 221.8729327917099
time_elpased: 1.723
batch start
#iterations: 535
currently lose_sum: 219.7632517516613
time_elpased: 1.705
batch start
#iterations: 536
currently lose_sum: 221.20136623084545
time_elpased: 1.656
batch start
#iterations: 537
currently lose_sum: 221.48114955425262
time_elpased: 1.672
batch start
#iterations: 538
currently lose_sum: 221.0803329795599
time_elpased: 1.717
batch start
#iterations: 539
currently lose_sum: 221.07893589138985
time_elpased: 1.677
start validation test
0.821391752577
0.858355017536
0.774183673469
0.814099468856
validation finish
batch start
#iterations: 540
currently lose_sum: 222.4088298678398
time_elpased: 1.721
batch start
#iterations: 541
currently lose_sum: 218.74264937639236
time_elpased: 1.705
batch start
#iterations: 542
currently lose_sum: 221.92503234744072
time_elpased: 1.664
batch start
#iterations: 543
currently lose_sum: 220.79254856705666
time_elpased: 1.67
batch start
#iterations: 544
currently lose_sum: 218.18638399243355
time_elpased: 1.637
batch start
#iterations: 545
currently lose_sum: 219.16153678297997
time_elpased: 1.707
batch start
#iterations: 546
currently lose_sum: 220.4050265699625
time_elpased: 1.648
batch start
#iterations: 547
currently lose_sum: 221.33371733129025
time_elpased: 1.727
batch start
#iterations: 548
currently lose_sum: 221.9824719130993
time_elpased: 1.693
batch start
#iterations: 549
currently lose_sum: 224.64451743662357
time_elpased: 1.705
batch start
#iterations: 550
currently lose_sum: 219.9014714807272
time_elpased: 1.707
batch start
#iterations: 551
currently lose_sum: 220.26998564600945
time_elpased: 1.686
batch start
#iterations: 552
currently lose_sum: 220.3468897640705
time_elpased: 1.716
batch start
#iterations: 553
currently lose_sum: 221.40137846767902
time_elpased: 1.673
batch start
#iterations: 554
currently lose_sum: 220.83227156102657
time_elpased: 1.665
batch start
#iterations: 555
currently lose_sum: 220.2135874480009
time_elpased: 1.639
batch start
#iterations: 556
currently lose_sum: 219.83009608089924
time_elpased: 1.677
batch start
#iterations: 557
currently lose_sum: 218.67972603440285
time_elpased: 1.667
batch start
#iterations: 558
currently lose_sum: 222.44099889695644
time_elpased: 1.704
batch start
#iterations: 559
currently lose_sum: 221.8911261856556
time_elpased: 1.674
start validation test
0.820979381443
0.869870220975
0.759183673469
0.810766632158
validation finish
batch start
#iterations: 560
currently lose_sum: 220.71608105301857
time_elpased: 1.729
batch start
#iterations: 561
currently lose_sum: 219.5493399500847
time_elpased: 1.708
batch start
#iterations: 562
currently lose_sum: 220.09640365839005
time_elpased: 1.657
batch start
#iterations: 563
currently lose_sum: 218.66240438818932
time_elpased: 1.675
batch start
#iterations: 564
currently lose_sum: 220.5702788978815
time_elpased: 1.717
batch start
#iterations: 565
currently lose_sum: 222.6999846547842
time_elpased: 1.668
batch start
#iterations: 566
currently lose_sum: 220.01770636439323
time_elpased: 1.732
batch start
#iterations: 567
currently lose_sum: 219.0639879256487
time_elpased: 1.693
batch start
#iterations: 568
currently lose_sum: 221.71163718402386
time_elpased: 1.717
batch start
#iterations: 569
currently lose_sum: 220.34380839765072
time_elpased: 1.709
batch start
#iterations: 570
currently lose_sum: 220.22123588621616
time_elpased: 1.716
batch start
#iterations: 571
currently lose_sum: 221.86203560233116
time_elpased: 1.687
batch start
#iterations: 572
currently lose_sum: 220.01828844845295
time_elpased: 1.676
batch start
#iterations: 573
currently lose_sum: 221.1685256510973
time_elpased: 1.712
batch start
#iterations: 574
currently lose_sum: 220.4561766088009
time_elpased: 1.681
batch start
#iterations: 575
currently lose_sum: 221.69477477669716
time_elpased: 1.722
batch start
#iterations: 576
currently lose_sum: 220.71318951249123
time_elpased: 1.707
batch start
#iterations: 577
currently lose_sum: 218.6046145260334
time_elpased: 1.689
batch start
#iterations: 578
currently lose_sum: 220.64660000801086
time_elpased: 1.682
batch start
#iterations: 579
currently lose_sum: 221.6894071996212
time_elpased: 1.696
start validation test
0.820515463918
0.846685689201
0.787244897959
0.815884094755
validation finish
batch start
#iterations: 580
currently lose_sum: 221.6242767125368
time_elpased: 1.682
batch start
#iterations: 581
currently lose_sum: 221.61845548450947
time_elpased: 1.632
batch start
#iterations: 582
currently lose_sum: 220.84084014594555
time_elpased: 1.694
batch start
#iterations: 583
currently lose_sum: 221.90043982863426
time_elpased: 1.674
batch start
#iterations: 584
currently lose_sum: 217.67823831737041
time_elpased: 1.638
batch start
#iterations: 585
currently lose_sum: 218.96176326274872
time_elpased: 1.67
batch start
#iterations: 586
currently lose_sum: 220.2991972565651
time_elpased: 1.635
batch start
#iterations: 587
currently lose_sum: 220.7565358132124
time_elpased: 1.708
batch start
#iterations: 588
currently lose_sum: 219.21426145732403
time_elpased: 1.734
batch start
#iterations: 589
currently lose_sum: 220.6634749621153
time_elpased: 1.714
batch start
#iterations: 590
currently lose_sum: 220.88333654403687
time_elpased: 1.746
batch start
#iterations: 591
currently lose_sum: 219.30334520339966
time_elpased: 1.73
batch start
#iterations: 592
currently lose_sum: 220.8373965471983
time_elpased: 1.771
batch start
#iterations: 593
currently lose_sum: 221.97650954127312
time_elpased: 1.706
batch start
#iterations: 594
currently lose_sum: 219.9314650595188
time_elpased: 1.723
batch start
#iterations: 595
currently lose_sum: 220.8798553943634
time_elpased: 1.708
batch start
#iterations: 596
currently lose_sum: 222.48774571716785
time_elpased: 1.718
batch start
#iterations: 597
currently lose_sum: 218.95217476785183
time_elpased: 1.687
batch start
#iterations: 598
currently lose_sum: 222.12889313697815
time_elpased: 1.705
batch start
#iterations: 599
currently lose_sum: 220.50334610044956
time_elpased: 1.666
start validation test
0.820412371134
0.838478027867
0.798265306122
0.817877679038
validation finish
batch start
#iterations: 600
currently lose_sum: 220.87128441035748
time_elpased: 1.677
batch start
#iterations: 601
currently lose_sum: 219.26985946297646
time_elpased: 1.734
batch start
#iterations: 602
currently lose_sum: 222.43387286365032
time_elpased: 1.687
batch start
#iterations: 603
currently lose_sum: 222.22768929600716
time_elpased: 1.733
batch start
#iterations: 604
currently lose_sum: 220.00440272688866
time_elpased: 1.72
batch start
#iterations: 605
currently lose_sum: 219.1813745200634
time_elpased: 1.748
batch start
#iterations: 606
currently lose_sum: 219.68003499507904
time_elpased: 1.727
batch start
#iterations: 607
currently lose_sum: 219.03693456947803
time_elpased: 1.695
batch start
#iterations: 608
currently lose_sum: 217.5399838835001
time_elpased: 1.729
batch start
#iterations: 609
currently lose_sum: 219.04818512499332
time_elpased: 1.692
batch start
#iterations: 610
currently lose_sum: 220.18149681389332
time_elpased: 1.768
batch start
#iterations: 611
currently lose_sum: 218.65859791636467
time_elpased: 1.684
batch start
#iterations: 612
currently lose_sum: 219.73861564695835
time_elpased: 1.71
batch start
#iterations: 613
currently lose_sum: 220.19142484664917
time_elpased: 1.714
batch start
#iterations: 614
currently lose_sum: 221.27319388091564
time_elpased: 1.666
batch start
#iterations: 615
currently lose_sum: 222.46649798750877
time_elpased: 1.75
batch start
#iterations: 616
currently lose_sum: 220.9679069072008
time_elpased: 1.696
batch start
#iterations: 617
currently lose_sum: 221.35473197698593
time_elpased: 1.709
batch start
#iterations: 618
currently lose_sum: 221.79832483828068
time_elpased: 1.716
batch start
#iterations: 619
currently lose_sum: 222.76373885571957
time_elpased: 1.717
start validation test
0.821391752577
0.858598437677
0.77387755102
0.814039607149
validation finish
batch start
#iterations: 620
currently lose_sum: 218.83403658866882
time_elpased: 1.667
batch start
#iterations: 621
currently lose_sum: 223.15316584706306
time_elpased: 1.714
batch start
#iterations: 622
currently lose_sum: 221.00123527646065
time_elpased: 1.724
batch start
#iterations: 623
currently lose_sum: 219.54398781061172
time_elpased: 1.692
batch start
#iterations: 624
currently lose_sum: 217.95817144215107
time_elpased: 1.709
batch start
#iterations: 625
currently lose_sum: 217.4145669043064
time_elpased: 1.687
batch start
#iterations: 626
currently lose_sum: 220.7561582773924
time_elpased: 1.694
batch start
#iterations: 627
currently lose_sum: 222.45399513840675
time_elpased: 1.698
batch start
#iterations: 628
currently lose_sum: 218.7434103935957
time_elpased: 1.658
batch start
#iterations: 629
currently lose_sum: 220.68684463202953
time_elpased: 1.674
batch start
#iterations: 630
currently lose_sum: 220.3547610938549
time_elpased: 1.668
batch start
#iterations: 631
currently lose_sum: 219.95240388810635
time_elpased: 1.705
batch start
#iterations: 632
currently lose_sum: 218.8463488817215
time_elpased: 1.697
batch start
#iterations: 633
currently lose_sum: 219.24533151090145
time_elpased: 1.691
batch start
#iterations: 634
currently lose_sum: 221.69675248861313
time_elpased: 1.71
batch start
#iterations: 635
currently lose_sum: 220.09425258636475
time_elpased: 1.695
batch start
#iterations: 636
currently lose_sum: 221.38080959022045
time_elpased: 1.784
batch start
#iterations: 637
currently lose_sum: 220.49974355101585
time_elpased: 1.69
batch start
#iterations: 638
currently lose_sum: 219.27136859297752
time_elpased: 1.74
batch start
#iterations: 639
currently lose_sum: 219.8508392572403
time_elpased: 1.768
start validation test
0.822113402062
0.861601549151
0.771836734694
0.814252650842
validation finish
batch start
#iterations: 640
currently lose_sum: 219.55220329761505
time_elpased: 1.741
batch start
#iterations: 641
currently lose_sum: 221.12874814867973
time_elpased: 1.716
batch start
#iterations: 642
currently lose_sum: 221.98582853376865
time_elpased: 1.694
batch start
#iterations: 643
currently lose_sum: 220.51781913638115
time_elpased: 1.689
batch start
#iterations: 644
currently lose_sum: 220.6594396084547
time_elpased: 1.724
batch start
#iterations: 645
currently lose_sum: 220.9264808744192
time_elpased: 1.718
batch start
#iterations: 646
currently lose_sum: 219.34355866909027
time_elpased: 1.676
batch start
#iterations: 647
currently lose_sum: 221.75601518154144
time_elpased: 1.713
batch start
#iterations: 648
currently lose_sum: 218.95333349704742
time_elpased: 1.711
batch start
#iterations: 649
currently lose_sum: 217.33987057209015
time_elpased: 1.716
batch start
#iterations: 650
currently lose_sum: 220.57816073298454
time_elpased: 1.741
batch start
#iterations: 651
currently lose_sum: 220.7762816697359
time_elpased: 1.695
batch start
#iterations: 652
currently lose_sum: 220.1062047481537
time_elpased: 1.701
batch start
#iterations: 653
currently lose_sum: 219.86994840204716
time_elpased: 1.7
batch start
#iterations: 654
currently lose_sum: 222.26669800281525
time_elpased: 1.717
batch start
#iterations: 655
currently lose_sum: 221.117074996233
time_elpased: 1.681
batch start
#iterations: 656
currently lose_sum: 221.35574112832546
time_elpased: 1.666
batch start
#iterations: 657
currently lose_sum: 221.61231850087643
time_elpased: 1.7
batch start
#iterations: 658
currently lose_sum: 220.84859232604504
time_elpased: 1.714
batch start
#iterations: 659
currently lose_sum: 221.60962469875813
time_elpased: 1.702
start validation test
0.821134020619
0.853000223065
0.780408163265
0.815091122242
validation finish
batch start
#iterations: 660
currently lose_sum: 219.1382141560316
time_elpased: 1.696
batch start
#iterations: 661
currently lose_sum: 220.71692757308483
time_elpased: 1.729
batch start
#iterations: 662
currently lose_sum: 219.68808314204216
time_elpased: 1.725
batch start
#iterations: 663
currently lose_sum: 221.91037613153458
time_elpased: 1.697
batch start
#iterations: 664
currently lose_sum: 218.4500662535429
time_elpased: 1.741
batch start
#iterations: 665
currently lose_sum: 220.4351869225502
time_elpased: 1.685
batch start
#iterations: 666
currently lose_sum: 220.2114382982254
time_elpased: 1.717
batch start
#iterations: 667
currently lose_sum: 220.46143846213818
time_elpased: 1.668
batch start
#iterations: 668
currently lose_sum: 221.45216593146324
time_elpased: 1.713
batch start
#iterations: 669
currently lose_sum: 220.2101005911827
time_elpased: 1.728
batch start
#iterations: 670
currently lose_sum: 220.51693622767925
time_elpased: 1.718
batch start
#iterations: 671
currently lose_sum: 219.08386839926243
time_elpased: 1.741
batch start
#iterations: 672
currently lose_sum: 220.1861935555935
time_elpased: 1.702
batch start
#iterations: 673
currently lose_sum: 222.46738807857037
time_elpased: 1.725
batch start
#iterations: 674
currently lose_sum: 218.7319277226925
time_elpased: 1.702
batch start
#iterations: 675
currently lose_sum: 220.8873847424984
time_elpased: 1.707
batch start
#iterations: 676
currently lose_sum: 219.7258022427559
time_elpased: 1.703
batch start
#iterations: 677
currently lose_sum: 219.51311147212982
time_elpased: 1.694
batch start
#iterations: 678
currently lose_sum: 222.52483713626862
time_elpased: 1.751
batch start
#iterations: 679
currently lose_sum: 222.3703778833151
time_elpased: 1.738
start validation test
0.821494845361
0.853982795218
0.78
0.815316516452
validation finish
batch start
#iterations: 680
currently lose_sum: 220.20975144207478
time_elpased: 1.703
batch start
#iterations: 681
currently lose_sum: 219.4116037786007
time_elpased: 1.667
batch start
#iterations: 682
currently lose_sum: 222.0293464064598
time_elpased: 1.737
batch start
#iterations: 683
currently lose_sum: 220.9545846581459
time_elpased: 1.738
batch start
#iterations: 684
currently lose_sum: 222.78537675738335
time_elpased: 1.724
batch start
#iterations: 685
currently lose_sum: 220.68561582267284
time_elpased: 1.714
batch start
#iterations: 686
currently lose_sum: 219.84859636425972
time_elpased: 1.703
batch start
#iterations: 687
currently lose_sum: 218.60053795576096
time_elpased: 1.709
batch start
#iterations: 688
currently lose_sum: 219.79648976027966
time_elpased: 1.701
batch start
#iterations: 689
currently lose_sum: 220.59800817072392
time_elpased: 1.684
batch start
#iterations: 690
currently lose_sum: 220.389334872365
time_elpased: 1.694
batch start
#iterations: 691
currently lose_sum: 219.87735511362553
time_elpased: 1.746
batch start
#iterations: 692
currently lose_sum: 220.1661472916603
time_elpased: 1.747
batch start
#iterations: 693
currently lose_sum: 221.19736336171627
time_elpased: 1.681
batch start
#iterations: 694
currently lose_sum: 220.53791144490242
time_elpased: 1.695
batch start
#iterations: 695
currently lose_sum: 219.5550969839096
time_elpased: 1.704
batch start
#iterations: 696
currently lose_sum: 221.65703184902668
time_elpased: 1.712
batch start
#iterations: 697
currently lose_sum: 219.9558805078268
time_elpased: 1.741
batch start
#iterations: 698
currently lose_sum: 220.8983523696661
time_elpased: 1.74
batch start
#iterations: 699
currently lose_sum: 220.10224236547947
time_elpased: 1.741
start validation test
0.821649484536
0.846296700896
0.790510204082
0.817452780416
validation finish
batch start
#iterations: 700
currently lose_sum: 220.44476272165775
time_elpased: 1.716
batch start
#iterations: 701
currently lose_sum: 221.82929341495037
time_elpased: 1.648
batch start
#iterations: 702
currently lose_sum: 219.85264709591866
time_elpased: 1.697
batch start
#iterations: 703
currently lose_sum: 219.60949186980724
time_elpased: 1.721
batch start
#iterations: 704
currently lose_sum: 220.63191479444504
time_elpased: 1.663
batch start
#iterations: 705
currently lose_sum: 221.01912082731724
time_elpased: 1.745
batch start
#iterations: 706
currently lose_sum: 218.67419737577438
time_elpased: 1.736
batch start
#iterations: 707
currently lose_sum: 221.82219722867012
time_elpased: 1.697
batch start
#iterations: 708
currently lose_sum: 219.83042059838772
time_elpased: 1.691
batch start
#iterations: 709
currently lose_sum: 219.86423282325268
time_elpased: 1.684
batch start
#iterations: 710
currently lose_sum: 220.62872825562954
time_elpased: 1.723
batch start
#iterations: 711
currently lose_sum: 220.18099161982536
time_elpased: 1.739
batch start
#iterations: 712
currently lose_sum: 221.86226013302803
time_elpased: 1.708
batch start
#iterations: 713
currently lose_sum: 221.41230162978172
time_elpased: 1.7
batch start
#iterations: 714
currently lose_sum: 219.89519181847572
time_elpased: 1.753
batch start
#iterations: 715
currently lose_sum: 221.2535345852375
time_elpased: 1.7
batch start
#iterations: 716
currently lose_sum: 221.87176950275898
time_elpased: 1.687
batch start
#iterations: 717
currently lose_sum: 221.91030383110046
time_elpased: 1.723
batch start
#iterations: 718
currently lose_sum: 220.80276753008366
time_elpased: 1.691
batch start
#iterations: 719
currently lose_sum: 222.73197992146015
time_elpased: 1.695
start validation test
0.822731958763
0.858124085126
0.777653061224
0.815909212569
validation finish
batch start
#iterations: 720
currently lose_sum: 221.36399237811565
time_elpased: 1.696
batch start
#iterations: 721
currently lose_sum: 217.31397968530655
time_elpased: 1.689
batch start
#iterations: 722
currently lose_sum: 218.4428685158491
time_elpased: 1.656
batch start
#iterations: 723
currently lose_sum: 217.56399008631706
time_elpased: 1.823
batch start
#iterations: 724
currently lose_sum: 219.03183761239052
time_elpased: 1.639
batch start
#iterations: 725
currently lose_sum: 219.6918867379427
time_elpased: 1.613
batch start
#iterations: 726
currently lose_sum: 217.4186473786831
time_elpased: 1.624
batch start
#iterations: 727
currently lose_sum: 221.62506797909737
time_elpased: 1.662
batch start
#iterations: 728
currently lose_sum: 218.87695929408073
time_elpased: 1.65
batch start
#iterations: 729
currently lose_sum: 220.25037182867527
time_elpased: 1.664
batch start
#iterations: 730
currently lose_sum: 220.08384096622467
time_elpased: 1.644
batch start
#iterations: 731
currently lose_sum: 221.61698086559772
time_elpased: 1.688
batch start
#iterations: 732
currently lose_sum: 223.93684621155262
time_elpased: 1.63
batch start
#iterations: 733
currently lose_sum: 219.7368394434452
time_elpased: 1.677
batch start
#iterations: 734
currently lose_sum: 220.44226762652397
time_elpased: 1.634
batch start
#iterations: 735
currently lose_sum: 220.3948556035757
time_elpased: 1.622
batch start
#iterations: 736
currently lose_sum: 219.34333378076553
time_elpased: 1.656
batch start
#iterations: 737
currently lose_sum: 219.83897319436073
time_elpased: 1.626
batch start
#iterations: 738
currently lose_sum: 220.32973603904247
time_elpased: 1.69
batch start
#iterations: 739
currently lose_sum: 219.83877009153366
time_elpased: 1.647
start validation test
0.821649484536
0.853479036574
0.781020408163
0.815643648764
validation finish
batch start
#iterations: 740
currently lose_sum: 218.61029739677906
time_elpased: 1.692
batch start
#iterations: 741
currently lose_sum: 222.13477374613285
time_elpased: 1.741
batch start
#iterations: 742
currently lose_sum: 221.75587965548038
time_elpased: 1.672
batch start
#iterations: 743
currently lose_sum: 220.86445724964142
time_elpased: 1.711
batch start
#iterations: 744
currently lose_sum: 219.39973890781403
time_elpased: 1.724
batch start
#iterations: 745
currently lose_sum: 219.76091615855694
time_elpased: 1.717
batch start
#iterations: 746
currently lose_sum: 218.23657156527042
time_elpased: 1.717
batch start
#iterations: 747
currently lose_sum: 218.7938465923071
time_elpased: 1.718
batch start
#iterations: 748
currently lose_sum: 218.32621988654137
time_elpased: 1.706
batch start
#iterations: 749
currently lose_sum: 221.52986338734627
time_elpased: 1.69
batch start
#iterations: 750
currently lose_sum: 221.86741098761559
time_elpased: 1.722
batch start
#iterations: 751
currently lose_sum: 219.2511020153761
time_elpased: 1.673
batch start
#iterations: 752
currently lose_sum: 220.32543924450874
time_elpased: 1.712
batch start
#iterations: 753
currently lose_sum: 218.46305845677853
time_elpased: 1.725
batch start
#iterations: 754
currently lose_sum: 220.88005220890045
time_elpased: 1.744
batch start
#iterations: 755
currently lose_sum: 218.23591929674149
time_elpased: 1.733
batch start
#iterations: 756
currently lose_sum: 218.24289631843567
time_elpased: 1.685
batch start
#iterations: 757
currently lose_sum: 219.8310498893261
time_elpased: 1.72
batch start
#iterations: 758
currently lose_sum: 219.78033596277237
time_elpased: 1.661
batch start
#iterations: 759
currently lose_sum: 220.6641462147236
time_elpased: 1.68
start validation test
0.821597938144
0.850027609056
0.785408163265
0.816441262265
validation finish
batch start
#iterations: 760
currently lose_sum: 218.5843364149332
time_elpased: 1.706
batch start
#iterations: 761
currently lose_sum: 220.56535676121712
time_elpased: 1.689
batch start
#iterations: 762
currently lose_sum: 219.69869519770145
time_elpased: 1.684
batch start
#iterations: 763
currently lose_sum: 220.41589932143688
time_elpased: 1.711
batch start
#iterations: 764
currently lose_sum: 221.63608634471893
time_elpased: 1.681
batch start
#iterations: 765
currently lose_sum: 218.82904395461082
time_elpased: 1.652
batch start
#iterations: 766
currently lose_sum: 219.3070277273655
time_elpased: 1.711
batch start
#iterations: 767
currently lose_sum: 218.87300512194633
time_elpased: 1.71
batch start
#iterations: 768
currently lose_sum: 220.06950172781944
time_elpased: 1.72
batch start
#iterations: 769
currently lose_sum: 221.008140578866
time_elpased: 1.69
batch start
#iterations: 770
currently lose_sum: 219.49652701616287
time_elpased: 1.663
batch start
#iterations: 771
currently lose_sum: 218.65265083312988
time_elpased: 1.69
batch start
#iterations: 772
currently lose_sum: 219.87956063449383
time_elpased: 1.681
batch start
#iterations: 773
currently lose_sum: 220.14803852140903
time_elpased: 1.696
batch start
#iterations: 774
currently lose_sum: 220.5771152228117
time_elpased: 1.71
batch start
#iterations: 775
currently lose_sum: 219.63619090616703
time_elpased: 1.728
batch start
#iterations: 776
currently lose_sum: 219.5300862789154
time_elpased: 1.702
batch start
#iterations: 777
currently lose_sum: 218.88164627552032
time_elpased: 1.689
batch start
#iterations: 778
currently lose_sum: 217.86787585914135
time_elpased: 1.728
batch start
#iterations: 779
currently lose_sum: 219.09318089485168
time_elpased: 1.679
start validation test
0.821288659794
0.847470646329
0.78806122449
0.816686934912
validation finish
batch start
#iterations: 780
currently lose_sum: 221.23054952919483
time_elpased: 1.722
batch start
#iterations: 781
currently lose_sum: 220.82511807978153
time_elpased: 1.696
batch start
#iterations: 782
currently lose_sum: 219.16553470492363
time_elpased: 1.604
batch start
#iterations: 783
currently lose_sum: 219.39222398400307
time_elpased: 1.572
batch start
#iterations: 784
currently lose_sum: 220.10252095758915
time_elpased: 1.591
batch start
#iterations: 785
currently lose_sum: 220.04707723855972
time_elpased: 1.59
batch start
#iterations: 786
currently lose_sum: 217.92179003357887
time_elpased: 1.614
batch start
#iterations: 787
currently lose_sum: 218.9993927180767
time_elpased: 1.649
batch start
#iterations: 788
currently lose_sum: 218.45871558785439
time_elpased: 1.652
batch start
#iterations: 789
currently lose_sum: 222.8681247085333
time_elpased: 1.687
batch start
#iterations: 790
currently lose_sum: 220.6308386772871
time_elpased: 1.71
batch start
#iterations: 791
currently lose_sum: 218.19222696125507
time_elpased: 1.663
batch start
#iterations: 792
currently lose_sum: 217.2985956221819
time_elpased: 1.704
batch start
#iterations: 793
currently lose_sum: 222.77465100586414
time_elpased: 1.679
batch start
#iterations: 794
currently lose_sum: 219.58562524616718
time_elpased: 1.718
batch start
#iterations: 795
currently lose_sum: 218.66361835598946
time_elpased: 1.678
batch start
#iterations: 796
currently lose_sum: 217.13629400730133
time_elpased: 1.687
batch start
#iterations: 797
currently lose_sum: 218.50427541136742
time_elpased: 1.7
batch start
#iterations: 798
currently lose_sum: 217.98647828400135
time_elpased: 1.672
batch start
#iterations: 799
currently lose_sum: 219.86719964444637
time_elpased: 1.675
start validation test
0.822422680412
0.852233676976
0.784489795918
0.81695977897
validation finish
acc: 0.823
pre: 0.833
rec: 0.804
F1: 0.818
