start to construct graph
graph construct over
58302
epochs start
batch start
#iterations: 0
currently lose_sum: 402.77457678318024
time_elpased: 1.685
batch start
#iterations: 1
currently lose_sum: 393.6860263943672
time_elpased: 1.626
batch start
#iterations: 2
currently lose_sum: 385.4728993177414
time_elpased: 1.613
batch start
#iterations: 3
currently lose_sum: 372.5321691632271
time_elpased: 1.62
batch start
#iterations: 4
currently lose_sum: 362.1747051477432
time_elpased: 1.612
batch start
#iterations: 5
currently lose_sum: 349.92750146985054
time_elpased: 1.632
batch start
#iterations: 6
currently lose_sum: 340.61886313557625
time_elpased: 1.605
batch start
#iterations: 7
currently lose_sum: 331.6209557056427
time_elpased: 1.604
batch start
#iterations: 8
currently lose_sum: 323.6474926173687
time_elpased: 1.62
batch start
#iterations: 9
currently lose_sum: 315.42617693543434
time_elpased: 1.654
batch start
#iterations: 10
currently lose_sum: 311.66961511969566
time_elpased: 1.632
batch start
#iterations: 11
currently lose_sum: 306.9765739738941
time_elpased: 1.647
batch start
#iterations: 12
currently lose_sum: 300.52116587758064
time_elpased: 1.638
batch start
#iterations: 13
currently lose_sum: 297.0634994506836
time_elpased: 1.606
batch start
#iterations: 14
currently lose_sum: 296.2831016778946
time_elpased: 1.588
batch start
#iterations: 15
currently lose_sum: 293.4624698460102
time_elpased: 1.578
batch start
#iterations: 16
currently lose_sum: 288.49218586087227
time_elpased: 1.561
batch start
#iterations: 17
currently lose_sum: 283.2096751332283
time_elpased: 1.564
batch start
#iterations: 18
currently lose_sum: 284.675922781229
time_elpased: 1.605
batch start
#iterations: 19
currently lose_sum: 281.1054197847843
time_elpased: 1.572
start validation test
0.781494845361
0.793748671061
0.764567332309
0.778884773877
0.781609042387
validation finish
batch start
#iterations: 20
currently lose_sum: 278.9947490096092
time_elpased: 1.645
batch start
#iterations: 21
currently lose_sum: 277.51197946071625
time_elpased: 1.568
batch start
#iterations: 22
currently lose_sum: 276.26059824228287
time_elpased: 1.567
batch start
#iterations: 23
currently lose_sum: 275.23139157891273
time_elpased: 1.617
batch start
#iterations: 24
currently lose_sum: 272.03248742222786
time_elpased: 1.536
batch start
#iterations: 25
currently lose_sum: 271.73246118426323
time_elpased: 1.599
batch start
#iterations: 26
currently lose_sum: 270.96449169516563
time_elpased: 1.574
batch start
#iterations: 27
currently lose_sum: 267.58699610829353
time_elpased: 1.571
batch start
#iterations: 28
currently lose_sum: 270.0756683945656
time_elpased: 1.575
batch start
#iterations: 29
currently lose_sum: 266.5032331943512
time_elpased: 1.557
batch start
#iterations: 30
currently lose_sum: 266.87603294849396
time_elpased: 1.586
batch start
#iterations: 31
currently lose_sum: 264.70232355594635
time_elpased: 1.579
batch start
#iterations: 32
currently lose_sum: 266.37646847963333
time_elpased: 1.566
batch start
#iterations: 33
currently lose_sum: 262.2821933925152
time_elpased: 1.631
batch start
#iterations: 34
currently lose_sum: 264.1891691982746
time_elpased: 1.577
batch start
#iterations: 35
currently lose_sum: 258.2698855996132
time_elpased: 1.591
batch start
#iterations: 36
currently lose_sum: 259.9984222650528
time_elpased: 1.598
batch start
#iterations: 37
currently lose_sum: 259.5819353759289
time_elpased: 1.592
batch start
#iterations: 38
currently lose_sum: 256.62987583875656
time_elpased: 1.572
batch start
#iterations: 39
currently lose_sum: 254.94526129961014
time_elpased: 1.555
start validation test
0.785979381443
0.76251052287
0.834818228367
0.797027766914
0.785649902974
validation finish
batch start
#iterations: 40
currently lose_sum: 256.62221097946167
time_elpased: 1.661
batch start
#iterations: 41
currently lose_sum: 255.50519892573357
time_elpased: 1.625
batch start
#iterations: 42
currently lose_sum: 256.108130633831
time_elpased: 1.565
batch start
#iterations: 43
currently lose_sum: 254.19441777467728
time_elpased: 1.666
batch start
#iterations: 44
currently lose_sum: 255.76534980535507
time_elpased: 1.593
batch start
#iterations: 45
currently lose_sum: 255.67349803447723
time_elpased: 1.611
batch start
#iterations: 46
currently lose_sum: 249.96575224399567
time_elpased: 1.62
batch start
#iterations: 47
currently lose_sum: 251.47483944892883
time_elpased: 1.592
batch start
#iterations: 48
currently lose_sum: 252.59247639775276
time_elpased: 1.604
batch start
#iterations: 49
currently lose_sum: 251.47636646032333
time_elpased: 1.586
batch start
#iterations: 50
currently lose_sum: 253.5286404788494
time_elpased: 1.63
batch start
#iterations: 51
currently lose_sum: 249.0154666006565
time_elpased: 1.606
batch start
#iterations: 52
currently lose_sum: 247.62049740552902
time_elpased: 1.557
batch start
#iterations: 53
currently lose_sum: 247.7429850101471
time_elpased: 1.597
batch start
#iterations: 54
currently lose_sum: 249.73384404182434
time_elpased: 1.637
batch start
#iterations: 55
currently lose_sum: 248.0491722524166
time_elpased: 1.644
batch start
#iterations: 56
currently lose_sum: 248.34674906730652
time_elpased: 1.605
batch start
#iterations: 57
currently lose_sum: 248.03899896144867
time_elpased: 1.671
batch start
#iterations: 58
currently lose_sum: 248.13742086291313
time_elpased: 1.694
batch start
#iterations: 59
currently lose_sum: 246.38166615366936
time_elpased: 1.63
start validation test
0.804072164948
0.82189119171
0.779723502304
0.800252246571
0.804236426814
validation finish
batch start
#iterations: 60
currently lose_sum: 243.8221560716629
time_elpased: 1.66
batch start
#iterations: 61
currently lose_sum: 243.87162458896637
time_elpased: 1.579
batch start
#iterations: 62
currently lose_sum: 244.96529218554497
time_elpased: 1.621
batch start
#iterations: 63
currently lose_sum: 243.00110310316086
time_elpased: 1.604
batch start
#iterations: 64
currently lose_sum: 245.39891797304153
time_elpased: 1.582
batch start
#iterations: 65
currently lose_sum: 244.45383682847023
time_elpased: 1.661
batch start
#iterations: 66
currently lose_sum: 243.20389491319656
time_elpased: 1.615
batch start
#iterations: 67
currently lose_sum: 242.61442551016808
time_elpased: 1.6
batch start
#iterations: 68
currently lose_sum: 246.70686852931976
time_elpased: 1.624
batch start
#iterations: 69
currently lose_sum: 243.20177754759789
time_elpased: 1.579
batch start
#iterations: 70
currently lose_sum: 241.62974040210247
time_elpased: 1.652
batch start
#iterations: 71
currently lose_sum: 244.9462304711342
time_elpased: 1.57
batch start
#iterations: 72
currently lose_sum: 240.3134242594242
time_elpased: 1.617
batch start
#iterations: 73
currently lose_sum: 242.01131528615952
time_elpased: 1.607
batch start
#iterations: 74
currently lose_sum: 238.07121786475182
time_elpased: 1.608
batch start
#iterations: 75
currently lose_sum: 243.94315469264984
time_elpased: 1.643
batch start
#iterations: 76
currently lose_sum: 242.67144921422005
time_elpased: 1.595
batch start
#iterations: 77
currently lose_sum: 240.67780868709087
time_elpased: 1.656
batch start
#iterations: 78
currently lose_sum: 238.13387849926949
time_elpased: 1.647
batch start
#iterations: 79
currently lose_sum: 239.3472881913185
time_elpased: 1.646
start validation test
0.812164948454
0.840699098297
0.773374295955
0.805632600811
0.812426639415
validation finish
batch start
#iterations: 80
currently lose_sum: 239.22885882854462
time_elpased: 1.613
batch start
#iterations: 81
currently lose_sum: 239.62570779025555
time_elpased: 1.565
batch start
#iterations: 82
currently lose_sum: 240.45517617464066
time_elpased: 1.614
batch start
#iterations: 83
currently lose_sum: 237.81413567066193
time_elpased: 1.557
batch start
#iterations: 84
currently lose_sum: 237.71206349134445
time_elpased: 1.556
batch start
#iterations: 85
currently lose_sum: 239.018748909235
time_elpased: 1.6
batch start
#iterations: 86
currently lose_sum: 235.8320710659027
time_elpased: 1.54
batch start
#iterations: 87
currently lose_sum: 239.59319454431534
time_elpased: 1.582
batch start
#iterations: 88
currently lose_sum: 237.81612902879715
time_elpased: 1.574
batch start
#iterations: 89
currently lose_sum: 238.08979342877865
time_elpased: 1.601
batch start
#iterations: 90
currently lose_sum: 233.7623265683651
time_elpased: 1.582
batch start
#iterations: 91
currently lose_sum: 238.44826805591583
time_elpased: 1.577
batch start
#iterations: 92
currently lose_sum: 237.91602292656898
time_elpased: 1.584
batch start
#iterations: 93
currently lose_sum: 236.08041682839394
time_elpased: 1.584
batch start
#iterations: 94
currently lose_sum: 235.09251172840595
time_elpased: 1.621
batch start
#iterations: 95
currently lose_sum: 234.6561407148838
time_elpased: 1.573
batch start
#iterations: 96
currently lose_sum: 234.19687619805336
time_elpased: 1.547
batch start
#iterations: 97
currently lose_sum: 234.97488459944725
time_elpased: 1.601
batch start
#iterations: 98
currently lose_sum: 236.07074084877968
time_elpased: 1.617
batch start
#iterations: 99
currently lose_sum: 235.22262266278267
time_elpased: 1.559
start validation test
0.808865979381
0.875325319123
0.723297491039
0.792082538971
0.809443244741
validation finish
batch start
#iterations: 100
currently lose_sum: 234.49931344389915
time_elpased: 1.586
batch start
#iterations: 101
currently lose_sum: 235.72940929234028
time_elpased: 1.585
batch start
#iterations: 102
currently lose_sum: 235.14633558690548
time_elpased: 1.572
batch start
#iterations: 103
currently lose_sum: 234.04895715415478
time_elpased: 1.603
batch start
#iterations: 104
currently lose_sum: 230.3014335334301
time_elpased: 1.581
batch start
#iterations: 105
currently lose_sum: 236.0601775944233
time_elpased: 1.591
batch start
#iterations: 106
currently lose_sum: 233.64048090577126
time_elpased: 1.572
batch start
#iterations: 107
currently lose_sum: 235.23526361584663
time_elpased: 1.595
batch start
#iterations: 108
currently lose_sum: 230.26663818955421
time_elpased: 1.537
batch start
#iterations: 109
currently lose_sum: 231.54222239553928
time_elpased: 1.54
batch start
#iterations: 110
currently lose_sum: 232.07054398953915
time_elpased: 1.574
batch start
#iterations: 111
currently lose_sum: 234.04508318006992
time_elpased: 1.568
batch start
#iterations: 112
currently lose_sum: 233.43480223417282
time_elpased: 1.592
batch start
#iterations: 113
currently lose_sum: 233.74286676943302
time_elpased: 1.583
batch start
#iterations: 114
currently lose_sum: 234.283451333642
time_elpased: 1.608
batch start
#iterations: 115
currently lose_sum: 229.89722971618176
time_elpased: 1.585
batch start
#iterations: 116
currently lose_sum: 234.6780852675438
time_elpased: 1.582
batch start
#iterations: 117
currently lose_sum: 227.81405791640282
time_elpased: 1.605
batch start
#iterations: 118
currently lose_sum: 231.6491568237543
time_elpased: 1.598
batch start
#iterations: 119
currently lose_sum: 231.19730572402477
time_elpased: 1.604
start validation test
0.818505154639
0.839865011975
0.79006656426
0.814205055142
0.818697008129
validation finish
batch start
#iterations: 120
currently lose_sum: 227.73342703282833
time_elpased: 1.621
batch start
#iterations: 121
currently lose_sum: 232.94494520127773
time_elpased: 1.563
batch start
#iterations: 122
currently lose_sum: 232.19371519982815
time_elpased: 1.659
batch start
#iterations: 123
currently lose_sum: 231.74463120102882
time_elpased: 1.571
batch start
#iterations: 124
currently lose_sum: 230.76587346196175
time_elpased: 1.63
batch start
#iterations: 125
currently lose_sum: 231.0176501274109
time_elpased: 1.572
batch start
#iterations: 126
currently lose_sum: 230.24905712902546
time_elpased: 1.585
batch start
#iterations: 127
currently lose_sum: 232.18628028035164
time_elpased: 1.623
batch start
#iterations: 128
currently lose_sum: 228.18993888795376
time_elpased: 1.567
batch start
#iterations: 129
currently lose_sum: 230.56779259443283
time_elpased: 1.611
batch start
#iterations: 130
currently lose_sum: 231.40509849786758
time_elpased: 1.59
batch start
#iterations: 131
currently lose_sum: 231.74430818855762
time_elpased: 1.603
batch start
#iterations: 132
currently lose_sum: 229.3682024627924
time_elpased: 1.648
batch start
#iterations: 133
currently lose_sum: 229.17973107099533
time_elpased: 1.598
batch start
#iterations: 134
currently lose_sum: 231.4341339468956
time_elpased: 1.596
batch start
#iterations: 135
currently lose_sum: 229.38586504757404
time_elpased: 1.583
batch start
#iterations: 136
currently lose_sum: 228.25155726075172
time_elpased: 1.574
batch start
#iterations: 137
currently lose_sum: 226.01796628534794
time_elpased: 1.655
batch start
#iterations: 138
currently lose_sum: 226.36068442463875
time_elpased: 1.581
batch start
#iterations: 139
currently lose_sum: 226.24378767609596
time_elpased: 1.611
start validation test
0.818711340206
0.836420417833
0.795391705069
0.815390268227
0.818868660007
validation finish
batch start
#iterations: 140
currently lose_sum: 225.9640275388956
time_elpased: 1.614
batch start
#iterations: 141
currently lose_sum: 230.95011892914772
time_elpased: 1.559
batch start
#iterations: 142
currently lose_sum: 229.0974818021059
time_elpased: 1.594
batch start
#iterations: 143
currently lose_sum: 227.71002762019634
time_elpased: 1.568
batch start
#iterations: 144
currently lose_sum: 227.86726136505604
time_elpased: 1.624
batch start
#iterations: 145
currently lose_sum: 227.27386060357094
time_elpased: 1.636
batch start
#iterations: 146
currently lose_sum: 226.99107712507248
time_elpased: 1.651
batch start
#iterations: 147
currently lose_sum: 228.58016397058964
time_elpased: 1.645
batch start
#iterations: 148
currently lose_sum: 227.20659022033215
time_elpased: 1.673
batch start
#iterations: 149
currently lose_sum: 229.26437145471573
time_elpased: 1.605
batch start
#iterations: 150
currently lose_sum: 228.61044049263
time_elpased: 1.641
batch start
#iterations: 151
currently lose_sum: 227.51425717771053
time_elpased: 1.673
batch start
#iterations: 152
currently lose_sum: 228.42480701208115
time_elpased: 1.697
batch start
#iterations: 153
currently lose_sum: 226.1771677583456
time_elpased: 1.637
batch start
#iterations: 154
currently lose_sum: 226.58482193946838
time_elpased: 1.654
batch start
#iterations: 155
currently lose_sum: 229.4512744396925
time_elpased: 1.666
batch start
#iterations: 156
currently lose_sum: 227.9430062174797
time_elpased: 1.612
batch start
#iterations: 157
currently lose_sum: 228.48821185529232
time_elpased: 1.588
batch start
#iterations: 158
currently lose_sum: 226.40263567864895
time_elpased: 1.621
batch start
#iterations: 159
currently lose_sum: 225.73778235912323
time_elpased: 1.635
start validation test
0.818608247423
0.836747897347
0.794674859191
0.815168863911
0.818769707748
validation finish
batch start
#iterations: 160
currently lose_sum: 229.15236040949821
time_elpased: 1.608
batch start
#iterations: 161
currently lose_sum: 227.48859241604805
time_elpased: 1.607
batch start
#iterations: 162
currently lose_sum: 228.3841663300991
time_elpased: 1.584
batch start
#iterations: 163
currently lose_sum: 225.42779976129532
time_elpased: 1.599
batch start
#iterations: 164
currently lose_sum: 228.84124612808228
time_elpased: 1.604
batch start
#iterations: 165
currently lose_sum: 227.8067893087864
time_elpased: 1.576
batch start
#iterations: 166
currently lose_sum: 228.3615288734436
time_elpased: 1.64
batch start
#iterations: 167
currently lose_sum: 225.1602110117674
time_elpased: 1.587
batch start
#iterations: 168
currently lose_sum: 224.33556075394154
time_elpased: 1.64
batch start
#iterations: 169
currently lose_sum: 226.23030543327332
time_elpased: 1.577
batch start
#iterations: 170
currently lose_sum: 227.29262349009514
time_elpased: 1.58
batch start
#iterations: 171
currently lose_sum: 225.24121460318565
time_elpased: 1.622
batch start
#iterations: 172
currently lose_sum: 227.4309209883213
time_elpased: 1.576
batch start
#iterations: 173
currently lose_sum: 225.87629415094852
time_elpased: 1.577
batch start
#iterations: 174
currently lose_sum: 224.3022163361311
time_elpased: 1.64
batch start
#iterations: 175
currently lose_sum: 225.32834999263287
time_elpased: 1.579
batch start
#iterations: 176
currently lose_sum: 223.8432990461588
time_elpased: 1.593
batch start
#iterations: 177
currently lose_sum: 226.3608347773552
time_elpased: 1.567
batch start
#iterations: 178
currently lose_sum: 223.72141222655773
time_elpased: 1.59
batch start
#iterations: 179
currently lose_sum: 224.75876693427563
time_elpased: 1.577
start validation test
0.820824742268
0.862896710906
0.765693804403
0.811394465545
0.821196668678
validation finish
batch start
#iterations: 180
currently lose_sum: 226.85766112804413
time_elpased: 1.617
batch start
#iterations: 181
currently lose_sum: 226.5712712109089
time_elpased: 1.642
batch start
#iterations: 182
currently lose_sum: 225.91506958007812
time_elpased: 1.597
batch start
#iterations: 183
currently lose_sum: 224.4387842863798
time_elpased: 1.637
batch start
#iterations: 184
currently lose_sum: 227.3236426115036
time_elpased: 1.572
batch start
#iterations: 185
currently lose_sum: 225.70967465639114
time_elpased: 1.549
batch start
#iterations: 186
currently lose_sum: 222.87063655257225
time_elpased: 1.62
batch start
#iterations: 187
currently lose_sum: 222.53019505739212
time_elpased: 1.584
batch start
#iterations: 188
currently lose_sum: 224.91473719477654
time_elpased: 1.591
batch start
#iterations: 189
currently lose_sum: 225.21936124563217
time_elpased: 1.58
batch start
#iterations: 190
currently lose_sum: 225.1155450195074
time_elpased: 1.547
batch start
#iterations: 191
currently lose_sum: 224.6909852772951
time_elpased: 1.61
batch start
#iterations: 192
currently lose_sum: 225.26150479912758
time_elpased: 1.598
batch start
#iterations: 193
currently lose_sum: 224.48167139291763
time_elpased: 1.575
batch start
#iterations: 194
currently lose_sum: 224.35756739974022
time_elpased: 1.564
batch start
#iterations: 195
currently lose_sum: 224.36017848551273
time_elpased: 1.605
batch start
#iterations: 196
currently lose_sum: 225.7744516134262
time_elpased: 1.599
batch start
#iterations: 197
currently lose_sum: 224.9372896105051
time_elpased: 1.676
batch start
#iterations: 198
currently lose_sum: 225.27252373099327
time_elpased: 1.603
batch start
#iterations: 199
currently lose_sum: 225.08337247371674
time_elpased: 1.611
start validation test
0.819226804124
0.859572512066
0.766001024066
0.810093680619
0.819585877886
validation finish
batch start
#iterations: 200
currently lose_sum: 222.82712969183922
time_elpased: 1.583
batch start
#iterations: 201
currently lose_sum: 225.5128559023142
time_elpased: 1.607
batch start
#iterations: 202
currently lose_sum: 222.98768864572048
time_elpased: 1.579
batch start
#iterations: 203
currently lose_sum: 225.6245218962431
time_elpased: 1.592
batch start
#iterations: 204
currently lose_sum: 224.58232253789902
time_elpased: 1.563
batch start
#iterations: 205
currently lose_sum: 223.18016113340855
time_elpased: 1.553
batch start
#iterations: 206
currently lose_sum: 225.48458868265152
time_elpased: 1.572
batch start
#iterations: 207
currently lose_sum: 225.73766934871674
time_elpased: 1.567
batch start
#iterations: 208
currently lose_sum: 222.52271895110607
time_elpased: 1.603
batch start
#iterations: 209
currently lose_sum: 223.45861212909222
time_elpased: 1.61
batch start
#iterations: 210
currently lose_sum: 223.35248211026192
time_elpased: 1.559
batch start
#iterations: 211
currently lose_sum: 220.36793678998947
time_elpased: 1.625
batch start
#iterations: 212
currently lose_sum: 223.9017006009817
time_elpased: 1.561
batch start
#iterations: 213
currently lose_sum: 224.09689216315746
time_elpased: 1.57
batch start
#iterations: 214
currently lose_sum: 223.8049750328064
time_elpased: 1.59
batch start
#iterations: 215
currently lose_sum: 224.28504402935505
time_elpased: 1.575
batch start
#iterations: 216
currently lose_sum: 224.90046246349812
time_elpased: 1.596
batch start
#iterations: 217
currently lose_sum: 222.67006313800812
time_elpased: 1.574
batch start
#iterations: 218
currently lose_sum: 224.68722946941853
time_elpased: 1.593
batch start
#iterations: 219
currently lose_sum: 223.66473135352135
time_elpased: 1.565
start validation test
0.821907216495
0.853066248881
0.78064516129
0.815250521362
0.822185580126
validation finish
batch start
#iterations: 220
currently lose_sum: 225.2880549877882
time_elpased: 1.62
batch start
#iterations: 221
currently lose_sum: 221.69839458167553
time_elpased: 1.596
batch start
#iterations: 222
currently lose_sum: 224.15401463210583
time_elpased: 1.587
batch start
#iterations: 223
currently lose_sum: 224.43879558146
time_elpased: 1.549
batch start
#iterations: 224
currently lose_sum: 222.3343360722065
time_elpased: 1.571
batch start
#iterations: 225
currently lose_sum: 224.31562469899654
time_elpased: 1.565
batch start
#iterations: 226
currently lose_sum: 221.1875541806221
time_elpased: 1.618
batch start
#iterations: 227
currently lose_sum: 223.1242553293705
time_elpased: 1.625
batch start
#iterations: 228
currently lose_sum: 225.89054338634014
time_elpased: 1.608
batch start
#iterations: 229
currently lose_sum: 223.85183112323284
time_elpased: 1.567
batch start
#iterations: 230
currently lose_sum: 222.60463939607143
time_elpased: 1.571
batch start
#iterations: 231
currently lose_sum: 219.9209097623825
time_elpased: 1.653
batch start
#iterations: 232
currently lose_sum: 221.00291953980923
time_elpased: 1.581
batch start
#iterations: 233
currently lose_sum: 223.3602670133114
time_elpased: 1.577
batch start
#iterations: 234
currently lose_sum: 219.72986832261086
time_elpased: 1.56
batch start
#iterations: 235
currently lose_sum: 221.17743276059628
time_elpased: 1.553
batch start
#iterations: 236
currently lose_sum: 220.9702850729227
time_elpased: 1.581
batch start
#iterations: 237
currently lose_sum: 222.07883113622665
time_elpased: 1.602
batch start
#iterations: 238
currently lose_sum: 222.78181344270706
time_elpased: 1.659
batch start
#iterations: 239
currently lose_sum: 221.02790689468384
time_elpased: 1.654
start validation test
0.820773195876
0.846026854501
0.787199180748
0.815553551536
0.820999694162
validation finish
batch start
#iterations: 240
currently lose_sum: 222.40503925085068
time_elpased: 1.665
batch start
#iterations: 241
currently lose_sum: 223.4951945990324
time_elpased: 1.609
batch start
#iterations: 242
currently lose_sum: 223.8002344071865
time_elpased: 1.607
batch start
#iterations: 243
currently lose_sum: 224.19710339605808
time_elpased: 1.659
batch start
#iterations: 244
currently lose_sum: 222.07997031509876
time_elpased: 1.646
batch start
#iterations: 245
currently lose_sum: 221.467789337039
time_elpased: 1.59
batch start
#iterations: 246
currently lose_sum: 223.16074360907078
time_elpased: 1.573
batch start
#iterations: 247
currently lose_sum: 221.41991943120956
time_elpased: 1.617
batch start
#iterations: 248
currently lose_sum: 223.3711273521185
time_elpased: 1.596
batch start
#iterations: 249
currently lose_sum: 219.90628099441528
time_elpased: 1.588
batch start
#iterations: 250
currently lose_sum: 221.52819767594337
time_elpased: 1.598
batch start
#iterations: 251
currently lose_sum: 222.56875433027744
time_elpased: 1.594
batch start
#iterations: 252
currently lose_sum: 223.00860379636288
time_elpased: 1.557
batch start
#iterations: 253
currently lose_sum: 219.78473272919655
time_elpased: 1.618
batch start
#iterations: 254
currently lose_sum: 220.54411461949348
time_elpased: 1.59
batch start
#iterations: 255
currently lose_sum: 221.1219211369753
time_elpased: 1.63
batch start
#iterations: 256
currently lose_sum: 221.30858986079693
time_elpased: 1.611
batch start
#iterations: 257
currently lose_sum: 222.86143566668034
time_elpased: 1.615
batch start
#iterations: 258
currently lose_sum: 218.14704555273056
time_elpased: 1.608
batch start
#iterations: 259
currently lose_sum: 221.1398067176342
time_elpased: 1.59
start validation test
0.820618556701
0.849983294353
0.781566820276
0.814340588988
0.820882008997
validation finish
batch start
#iterations: 260
currently lose_sum: 222.4194739162922
time_elpased: 1.602
batch start
#iterations: 261
currently lose_sum: 219.64976485073566
time_elpased: 1.606
batch start
#iterations: 262
currently lose_sum: 222.67652095854282
time_elpased: 1.581
batch start
#iterations: 263
currently lose_sum: 221.8993340730667
time_elpased: 1.623
batch start
#iterations: 264
currently lose_sum: 224.92098233103752
time_elpased: 1.566
batch start
#iterations: 265
currently lose_sum: 221.96907410025597
time_elpased: 1.616
batch start
#iterations: 266
currently lose_sum: 220.02870962023735
time_elpased: 1.619
batch start
#iterations: 267
currently lose_sum: 222.0200643837452
time_elpased: 1.658
batch start
#iterations: 268
currently lose_sum: 220.26916594803333
time_elpased: 1.577
batch start
#iterations: 269
currently lose_sum: 219.00487093627453
time_elpased: 1.6
batch start
#iterations: 270
currently lose_sum: 220.46067793667316
time_elpased: 1.635
batch start
#iterations: 271
currently lose_sum: 221.2096644192934
time_elpased: 1.607
batch start
#iterations: 272
currently lose_sum: 218.69118750095367
time_elpased: 1.583
batch start
#iterations: 273
currently lose_sum: 220.31525500118732
time_elpased: 1.57
batch start
#iterations: 274
currently lose_sum: 220.16688932478428
time_elpased: 1.593
batch start
#iterations: 275
currently lose_sum: 219.8859280049801
time_elpased: 1.614
batch start
#iterations: 276
currently lose_sum: 220.77533005177975
time_elpased: 1.646
batch start
#iterations: 277
currently lose_sum: 219.96326403319836
time_elpased: 1.552
batch start
#iterations: 278
currently lose_sum: 221.40464136004448
time_elpased: 1.61
batch start
#iterations: 279
currently lose_sum: 223.60249760746956
time_elpased: 1.55
start validation test
0.818917525773
0.833475570728
0.800102406554
0.816448090287
0.819044457039
validation finish
batch start
#iterations: 280
currently lose_sum: 221.16222888231277
time_elpased: 1.6
batch start
#iterations: 281
currently lose_sum: 220.46462062001228
time_elpased: 1.556
batch start
#iterations: 282
currently lose_sum: 219.92872481048107
time_elpased: 1.625
batch start
#iterations: 283
currently lose_sum: 220.30957873165607
time_elpased: 1.577
batch start
#iterations: 284
currently lose_sum: 220.43693436682224
time_elpased: 1.613
batch start
#iterations: 285
currently lose_sum: 220.1289289444685
time_elpased: 1.589
batch start
#iterations: 286
currently lose_sum: 220.6654000878334
time_elpased: 1.558
batch start
#iterations: 287
currently lose_sum: 219.9939610362053
time_elpased: 1.584
batch start
#iterations: 288
currently lose_sum: 221.6705785393715
time_elpased: 1.621
batch start
#iterations: 289
currently lose_sum: 220.93422953784466
time_elpased: 1.574
batch start
#iterations: 290
currently lose_sum: 221.08489154279232
time_elpased: 1.623
batch start
#iterations: 291
currently lose_sum: 220.29457525908947
time_elpased: 1.601
batch start
#iterations: 292
currently lose_sum: 221.31004443764687
time_elpased: 1.552
batch start
#iterations: 293
currently lose_sum: 219.58801624178886
time_elpased: 1.627
batch start
#iterations: 294
currently lose_sum: 220.9010231345892
time_elpased: 1.601
batch start
#iterations: 295
currently lose_sum: 223.03854182362556
time_elpased: 1.572
batch start
#iterations: 296
currently lose_sum: 218.80437842011452
time_elpased: 1.578
batch start
#iterations: 297
currently lose_sum: 217.64266224205494
time_elpased: 1.615
batch start
#iterations: 298
currently lose_sum: 220.02778542041779
time_elpased: 1.569
batch start
#iterations: 299
currently lose_sum: 220.31651757657528
time_elpased: 1.569
start validation test
0.821340206186
0.862219666475
0.767741935484
0.812242686891
0.821701792859
validation finish
batch start
#iterations: 300
currently lose_sum: 218.3507048934698
time_elpased: 1.639
batch start
#iterations: 301
currently lose_sum: 219.4548514932394
time_elpased: 1.562
batch start
#iterations: 302
currently lose_sum: 221.99918903410435
time_elpased: 1.608
batch start
#iterations: 303
currently lose_sum: 219.3777179121971
time_elpased: 1.563
batch start
#iterations: 304
currently lose_sum: 220.51237058639526
time_elpased: 1.559
batch start
#iterations: 305
currently lose_sum: 221.35151436924934
time_elpased: 1.632
batch start
#iterations: 306
currently lose_sum: 219.3157093077898
time_elpased: 1.558
batch start
#iterations: 307
currently lose_sum: 221.1144333779812
time_elpased: 1.601
batch start
#iterations: 308
currently lose_sum: 221.78504580259323
time_elpased: 1.578
batch start
#iterations: 309
currently lose_sum: 219.68888932466507
time_elpased: 1.577
batch start
#iterations: 310
currently lose_sum: 221.37554740905762
time_elpased: 1.593
batch start
#iterations: 311
currently lose_sum: 221.98000794649124
time_elpased: 1.583
batch start
#iterations: 312
currently lose_sum: 218.99004010856152
time_elpased: 1.627
batch start
#iterations: 313
currently lose_sum: 217.88893024623394
time_elpased: 1.624
batch start
#iterations: 314
currently lose_sum: 220.53750026226044
time_elpased: 1.599
batch start
#iterations: 315
currently lose_sum: 220.45044039189816
time_elpased: 1.603
batch start
#iterations: 316
currently lose_sum: 218.9891368895769
time_elpased: 1.603
batch start
#iterations: 317
currently lose_sum: 219.24670705199242
time_elpased: 1.575
batch start
#iterations: 318
currently lose_sum: 221.8272885978222
time_elpased: 1.634
batch start
#iterations: 319
currently lose_sum: 220.6867530196905
time_elpased: 1.579
start validation test
0.822680412371
0.8480246506
0.789144905274
0.817525991937
0.822906650873
validation finish
batch start
#iterations: 320
currently lose_sum: 219.18320855498314
time_elpased: 1.618
batch start
#iterations: 321
currently lose_sum: 221.6285217255354
time_elpased: 1.619
batch start
#iterations: 322
currently lose_sum: 220.91368180513382
time_elpased: 1.601
batch start
#iterations: 323
currently lose_sum: 220.92694580554962
time_elpased: 1.577
batch start
#iterations: 324
currently lose_sum: 219.18709036707878
time_elpased: 1.573
batch start
#iterations: 325
currently lose_sum: 219.38322147727013
time_elpased: 1.625
batch start
#iterations: 326
currently lose_sum: 218.90173119306564
time_elpased: 1.574
batch start
#iterations: 327
currently lose_sum: 220.03517732024193
time_elpased: 1.622
batch start
#iterations: 328
currently lose_sum: 220.1778228878975
time_elpased: 1.588
batch start
#iterations: 329
currently lose_sum: 220.40553586184978
time_elpased: 1.603
batch start
#iterations: 330
currently lose_sum: 221.25997272133827
time_elpased: 1.606
batch start
#iterations: 331
currently lose_sum: 218.913973107934
time_elpased: 1.613
batch start
#iterations: 332
currently lose_sum: 217.70037207007408
time_elpased: 1.592
batch start
#iterations: 333
currently lose_sum: 220.06523624062538
time_elpased: 1.654
batch start
#iterations: 334
currently lose_sum: 218.84054201841354
time_elpased: 1.547
batch start
#iterations: 335
currently lose_sum: 220.19547373056412
time_elpased: 1.599
batch start
#iterations: 336
currently lose_sum: 219.07436752319336
time_elpased: 1.634
batch start
#iterations: 337
currently lose_sum: 216.77696941792965
time_elpased: 1.602
batch start
#iterations: 338
currently lose_sum: 216.96821530163288
time_elpased: 1.609
batch start
#iterations: 339
currently lose_sum: 219.18495924770832
time_elpased: 1.657
start validation test
0.822989690722
0.853174160437
0.783102918587
0.816638188808
0.823258776367
validation finish
batch start
#iterations: 340
currently lose_sum: 219.4633743017912
time_elpased: 1.639
batch start
#iterations: 341
currently lose_sum: 219.62596498429775
time_elpased: 1.575
batch start
#iterations: 342
currently lose_sum: 219.6955101788044
time_elpased: 1.625
batch start
#iterations: 343
currently lose_sum: 218.14382465183735
time_elpased: 1.637
batch start
#iterations: 344
currently lose_sum: 221.00151947140694
time_elpased: 1.613
batch start
#iterations: 345
currently lose_sum: 216.75597909092903
time_elpased: 1.646
batch start
#iterations: 346
currently lose_sum: 218.24921599030495
time_elpased: 1.549
batch start
#iterations: 347
currently lose_sum: 218.91124254465103
time_elpased: 1.64
batch start
#iterations: 348
currently lose_sum: 219.56077970564365
time_elpased: 1.583
batch start
#iterations: 349
currently lose_sum: 219.5102455317974
time_elpased: 1.618
batch start
#iterations: 350
currently lose_sum: 218.32372851669788
time_elpased: 1.605
batch start
#iterations: 351
currently lose_sum: 220.93144237995148
time_elpased: 1.577
batch start
#iterations: 352
currently lose_sum: 217.7347842901945
time_elpased: 1.636
batch start
#iterations: 353
currently lose_sum: 218.77528956532478
time_elpased: 1.584
batch start
#iterations: 354
currently lose_sum: 218.23783099651337
time_elpased: 1.615
batch start
#iterations: 355
currently lose_sum: 220.32294860482216
time_elpased: 1.635
batch start
#iterations: 356
currently lose_sum: 219.40777948498726
time_elpased: 1.638
batch start
#iterations: 357
currently lose_sum: 220.91702596843243
time_elpased: 1.671
batch start
#iterations: 358
currently lose_sum: 219.87126345932484
time_elpased: 1.601
batch start
#iterations: 359
currently lose_sum: 219.61352413892746
time_elpased: 1.615
start validation test
0.822268041237
0.854370021317
0.779825908858
0.815397794196
0.82255436595
validation finish
batch start
#iterations: 360
currently lose_sum: 218.72806802392006
time_elpased: 1.584
batch start
#iterations: 361
currently lose_sum: 219.73772829771042
time_elpased: 1.638
batch start
#iterations: 362
currently lose_sum: 216.05139933526516
time_elpased: 1.651
batch start
#iterations: 363
currently lose_sum: 218.4062061905861
time_elpased: 1.609
batch start
#iterations: 364
currently lose_sum: 219.2549719363451
time_elpased: 1.64
batch start
#iterations: 365
currently lose_sum: 220.26333129405975
time_elpased: 1.641
batch start
#iterations: 366
currently lose_sum: 218.12667205929756
time_elpased: 1.663
batch start
#iterations: 367
currently lose_sum: 218.7122603058815
time_elpased: 1.666
batch start
#iterations: 368
currently lose_sum: 218.44054298102856
time_elpased: 1.649
batch start
#iterations: 369
currently lose_sum: 223.7662042528391
time_elpased: 1.651
batch start
#iterations: 370
currently lose_sum: 221.40995354950428
time_elpased: 1.633
batch start
#iterations: 371
currently lose_sum: 220.53017854690552
time_elpased: 1.639
batch start
#iterations: 372
currently lose_sum: 217.71046042442322
time_elpased: 1.622
batch start
#iterations: 373
currently lose_sum: 217.02001084387302
time_elpased: 1.589
batch start
#iterations: 374
currently lose_sum: 219.179429769516
time_elpased: 1.614
batch start
#iterations: 375
currently lose_sum: 218.1913097500801
time_elpased: 1.608
batch start
#iterations: 376
currently lose_sum: 219.65365387499332
time_elpased: 1.616
batch start
#iterations: 377
currently lose_sum: 216.4557507932186
time_elpased: 1.597
batch start
#iterations: 378
currently lose_sum: 220.4142284244299
time_elpased: 1.618
batch start
#iterations: 379
currently lose_sum: 219.0057316571474
time_elpased: 1.596
start validation test
0.822680412371
0.846727332529
0.790885816692
0.817854495393
0.82289490627
validation finish
batch start
#iterations: 380
currently lose_sum: 220.31272061169147
time_elpased: 1.605
batch start
#iterations: 381
currently lose_sum: 217.41549849510193
time_elpased: 1.65
batch start
#iterations: 382
currently lose_sum: 218.48013219237328
time_elpased: 1.628
batch start
#iterations: 383
currently lose_sum: 219.2499559521675
time_elpased: 1.568
batch start
#iterations: 384
currently lose_sum: 217.10641458630562
time_elpased: 1.599
batch start
#iterations: 385
currently lose_sum: 220.5265470892191
time_elpased: 1.615
batch start
#iterations: 386
currently lose_sum: 217.57902486622334
time_elpased: 1.642
batch start
#iterations: 387
currently lose_sum: 219.32229533791542
time_elpased: 1.628
batch start
#iterations: 388
currently lose_sum: 219.34465703368187
time_elpased: 1.657
batch start
#iterations: 389
currently lose_sum: 219.65858091413975
time_elpased: 1.679
batch start
#iterations: 390
currently lose_sum: 218.228910908103
time_elpased: 1.65
batch start
#iterations: 391
currently lose_sum: 220.65429309010506
time_elpased: 1.644
batch start
#iterations: 392
currently lose_sum: 219.27273193001747
time_elpased: 1.609
batch start
#iterations: 393
currently lose_sum: 217.2992224097252
time_elpased: 1.649
batch start
#iterations: 394
currently lose_sum: 218.51074522733688
time_elpased: 1.603
batch start
#iterations: 395
currently lose_sum: 219.47766964137554
time_elpased: 1.573
batch start
#iterations: 396
currently lose_sum: 216.34008818864822
time_elpased: 1.617
batch start
#iterations: 397
currently lose_sum: 215.77850584685802
time_elpased: 1.555
batch start
#iterations: 398
currently lose_sum: 219.79806418716908
time_elpased: 1.616
batch start
#iterations: 399
currently lose_sum: 217.64710004627705
time_elpased: 1.608
start validation test
0.822319587629
0.842550422902
0.795698924731
0.818454732185
0.822499176948
validation finish
batch start
#iterations: 400
currently lose_sum: 218.338467374444
time_elpased: 1.642
batch start
#iterations: 401
currently lose_sum: 217.32709521055222
time_elpased: 1.637
batch start
#iterations: 402
currently lose_sum: 218.77240671217442
time_elpased: 1.59
batch start
#iterations: 403
currently lose_sum: 216.5350141376257
time_elpased: 1.621
batch start
#iterations: 404
currently lose_sum: 217.18704941868782
time_elpased: 1.612
batch start
#iterations: 405
currently lose_sum: 217.5704611837864
time_elpased: 1.603
batch start
#iterations: 406
currently lose_sum: 217.97286321222782
time_elpased: 1.611
batch start
#iterations: 407
currently lose_sum: 218.1777347624302
time_elpased: 1.58
batch start
#iterations: 408
currently lose_sum: 216.81147927045822
time_elpased: 1.679
batch start
#iterations: 409
currently lose_sum: 217.80506095290184
time_elpased: 1.626
batch start
#iterations: 410
currently lose_sum: 214.8480807840824
time_elpased: 1.624
batch start
#iterations: 411
currently lose_sum: 219.20777328312397
time_elpased: 1.64
batch start
#iterations: 412
currently lose_sum: 216.64100244641304
time_elpased: 1.578
batch start
#iterations: 413
currently lose_sum: 218.1339373588562
time_elpased: 1.664
batch start
#iterations: 414
currently lose_sum: 217.46442429721355
time_elpased: 1.607
batch start
#iterations: 415
currently lose_sum: 217.26654125750065
time_elpased: 1.586
batch start
#iterations: 416
currently lose_sum: 218.8985441327095
time_elpased: 1.576
batch start
#iterations: 417
currently lose_sum: 217.52774591743946
time_elpased: 1.588
batch start
#iterations: 418
currently lose_sum: 219.8974793255329
time_elpased: 1.635
batch start
#iterations: 419
currently lose_sum: 216.52168640494347
time_elpased: 1.607
start validation test
0.823453608247
0.858030268805
0.777982590886
0.816048122885
0.823760366538
validation finish
batch start
#iterations: 420
currently lose_sum: 218.85445149242878
time_elpased: 1.612
batch start
#iterations: 421
currently lose_sum: 219.5844672769308
time_elpased: 1.6
batch start
#iterations: 422
currently lose_sum: 218.07419610023499
time_elpased: 1.619
batch start
#iterations: 423
currently lose_sum: 213.23408250510693
time_elpased: 1.637
batch start
#iterations: 424
currently lose_sum: 218.98072610795498
time_elpased: 1.593
batch start
#iterations: 425
currently lose_sum: 218.16771310567856
time_elpased: 1.622
batch start
#iterations: 426
currently lose_sum: 217.32754704356194
time_elpased: 1.551
batch start
#iterations: 427
currently lose_sum: 215.53609943389893
time_elpased: 1.573
batch start
#iterations: 428
currently lose_sum: 216.25728975236416
time_elpased: 1.586
batch start
#iterations: 429
currently lose_sum: 216.9706222563982
time_elpased: 1.604
batch start
#iterations: 430
currently lose_sum: 218.47592931985855
time_elpased: 1.591
batch start
#iterations: 431
currently lose_sum: 216.4486412703991
time_elpased: 1.612
batch start
#iterations: 432
currently lose_sum: 218.7693323045969
time_elpased: 1.615
batch start
#iterations: 433
currently lose_sum: 219.80594033002853
time_elpased: 1.569
batch start
#iterations: 434
currently lose_sum: 215.91438134014606
time_elpased: 1.61
batch start
#iterations: 435
currently lose_sum: 215.41132786870003
time_elpased: 1.651
batch start
#iterations: 436
currently lose_sum: 219.05654028058052
time_elpased: 1.649
batch start
#iterations: 437
currently lose_sum: 216.57318925857544
time_elpased: 1.588
batch start
#iterations: 438
currently lose_sum: 216.17303393781185
time_elpased: 1.566
batch start
#iterations: 439
currently lose_sum: 215.433657720685
time_elpased: 1.6
start validation test
0.822371134021
0.859974934488
0.772964669739
0.814151655701
0.822704441771
validation finish
batch start
#iterations: 440
currently lose_sum: 215.52539625763893
time_elpased: 1.64
batch start
#iterations: 441
currently lose_sum: 217.26165063679218
time_elpased: 1.604
batch start
#iterations: 442
currently lose_sum: 218.29510632157326
time_elpased: 1.584
batch start
#iterations: 443
currently lose_sum: 215.36287455260754
time_elpased: 1.593
batch start
#iterations: 444
currently lose_sum: 215.41594392061234
time_elpased: 1.572
batch start
#iterations: 445
currently lose_sum: 217.11916714906693
time_elpased: 1.628
batch start
#iterations: 446
currently lose_sum: 215.1873104274273
time_elpased: 1.639
batch start
#iterations: 447
currently lose_sum: 216.90209212899208
time_elpased: 1.666
batch start
#iterations: 448
currently lose_sum: 216.3145831823349
time_elpased: 1.649
batch start
#iterations: 449
currently lose_sum: 216.01658268272877
time_elpased: 1.626
batch start
#iterations: 450
currently lose_sum: 215.71280129253864
time_elpased: 1.662
batch start
#iterations: 451
currently lose_sum: 214.99391561746597
time_elpased: 1.656
batch start
#iterations: 452
currently lose_sum: 218.04511831700802
time_elpased: 1.668
batch start
#iterations: 453
currently lose_sum: 218.59639184176922
time_elpased: 1.606
batch start
#iterations: 454
currently lose_sum: 217.74096907675266
time_elpased: 1.636
batch start
#iterations: 455
currently lose_sum: 214.83585612475872
time_elpased: 1.65
batch start
#iterations: 456
currently lose_sum: 216.06918294727802
time_elpased: 1.626
batch start
#iterations: 457
currently lose_sum: 217.5651486068964
time_elpased: 1.649
batch start
#iterations: 458
currently lose_sum: 217.68098348379135
time_elpased: 1.622
batch start
#iterations: 459
currently lose_sum: 216.80965280532837
time_elpased: 1.625
start validation test
0.822319587629
0.852645679839
0.782181259601
0.81589488864
0.82259037033
validation finish
batch start
#iterations: 460
currently lose_sum: 216.80972509086132
time_elpased: 1.627
batch start
#iterations: 461
currently lose_sum: 219.18111422657967
time_elpased: 1.632
batch start
#iterations: 462
currently lose_sum: 216.0795397758484
time_elpased: 1.639
batch start
#iterations: 463
currently lose_sum: 212.65603119134903
time_elpased: 1.662
batch start
#iterations: 464
currently lose_sum: 215.60368092358112
time_elpased: 1.651
batch start
#iterations: 465
currently lose_sum: 218.6194455176592
time_elpased: 1.637
batch start
#iterations: 466
currently lose_sum: 217.32262364029884
time_elpased: 1.639
batch start
#iterations: 467
currently lose_sum: 216.73015442490578
time_elpased: 1.63
batch start
#iterations: 468
currently lose_sum: 216.39331854879856
time_elpased: 1.62
batch start
#iterations: 469
currently lose_sum: 214.5547737777233
time_elpased: 1.631
batch start
#iterations: 470
currently lose_sum: 214.77830904722214
time_elpased: 1.601
batch start
#iterations: 471
currently lose_sum: 216.37167663872242
time_elpased: 1.653
batch start
#iterations: 472
currently lose_sum: 216.85328909754753
time_elpased: 1.721
batch start
#iterations: 473
currently lose_sum: 216.61806845664978
time_elpased: 1.622
batch start
#iterations: 474
currently lose_sum: 217.98288568854332
time_elpased: 1.638
batch start
#iterations: 475
currently lose_sum: 214.10677134990692
time_elpased: 1.571
batch start
#iterations: 476
currently lose_sum: 214.7454292178154
time_elpased: 1.597
batch start
#iterations: 477
currently lose_sum: 216.18835723400116
time_elpased: 1.662
batch start
#iterations: 478
currently lose_sum: 214.72618080675602
time_elpased: 1.618
batch start
#iterations: 479
currently lose_sum: 216.61189703643322
time_elpased: 1.621
start validation test
0.821597938144
0.862548884288
0.767946748592
0.812503385882
0.821959881821
validation finish
batch start
#iterations: 480
currently lose_sum: 213.46610215306282
time_elpased: 1.616
batch start
#iterations: 481
currently lose_sum: 213.50628127157688
time_elpased: 1.636
batch start
#iterations: 482
currently lose_sum: 217.65964810550213
time_elpased: 1.581
batch start
#iterations: 483
currently lose_sum: 217.41790315508842
time_elpased: 1.613
batch start
#iterations: 484
currently lose_sum: 216.3623687028885
time_elpased: 1.583
batch start
#iterations: 485
currently lose_sum: 216.388874232769
time_elpased: 1.571
batch start
#iterations: 486
currently lose_sum: 217.56774407625198
time_elpased: 1.598
batch start
#iterations: 487
currently lose_sum: 215.14616219699383
time_elpased: 1.568
batch start
#iterations: 488
currently lose_sum: 216.31847323477268
time_elpased: 1.583
batch start
#iterations: 489
currently lose_sum: 216.49317832291126
time_elpased: 1.61
batch start
#iterations: 490
currently lose_sum: 216.9877042621374
time_elpased: 1.588
batch start
#iterations: 491
currently lose_sum: 217.7390075623989
time_elpased: 1.606
batch start
#iterations: 492
currently lose_sum: 215.88357098400593
time_elpased: 1.604
batch start
#iterations: 493
currently lose_sum: 217.85095079243183
time_elpased: 1.599
batch start
#iterations: 494
currently lose_sum: 216.9479695111513
time_elpased: 1.599
batch start
#iterations: 495
currently lose_sum: 214.69324673712254
time_elpased: 1.581
batch start
#iterations: 496
currently lose_sum: 215.83433483541012
time_elpased: 1.605
batch start
#iterations: 497
currently lose_sum: 216.53933607041836
time_elpased: 1.612
batch start
#iterations: 498
currently lose_sum: 216.65440526604652
time_elpased: 1.612
batch start
#iterations: 499
currently lose_sum: 217.19210496544838
time_elpased: 1.609
start validation test
0.823608247423
0.85172452035
0.786482334869
0.817804280694
0.823858707653
validation finish
batch start
#iterations: 500
currently lose_sum: 215.68805883824825
time_elpased: 1.598
batch start
#iterations: 501
currently lose_sum: 218.47119396924973
time_elpased: 1.641
batch start
#iterations: 502
currently lose_sum: 215.72456088662148
time_elpased: 1.64
batch start
#iterations: 503
currently lose_sum: 213.91747450828552
time_elpased: 1.635
batch start
#iterations: 504
currently lose_sum: 215.73880794644356
time_elpased: 1.637
batch start
#iterations: 505
currently lose_sum: 214.717189848423
time_elpased: 1.614
batch start
#iterations: 506
currently lose_sum: 215.908320620656
time_elpased: 1.631
batch start
#iterations: 507
currently lose_sum: 214.20282292366028
time_elpased: 1.614
batch start
#iterations: 508
currently lose_sum: 216.12742985785007
time_elpased: 1.626
batch start
#iterations: 509
currently lose_sum: 215.55505895614624
time_elpased: 1.641
batch start
#iterations: 510
currently lose_sum: 215.26837973296642
time_elpased: 1.634
batch start
#iterations: 511
currently lose_sum: 216.5693677663803
time_elpased: 1.647
batch start
#iterations: 512
currently lose_sum: 214.758177369833
time_elpased: 1.64
batch start
#iterations: 513
currently lose_sum: 214.8903022557497
time_elpased: 1.637
batch start
#iterations: 514
currently lose_sum: 214.07146956026554
time_elpased: 1.617
batch start
#iterations: 515
currently lose_sum: 217.5623585730791
time_elpased: 1.621
batch start
#iterations: 516
currently lose_sum: 214.51728753745556
time_elpased: 1.636
batch start
#iterations: 517
currently lose_sum: 217.290506914258
time_elpased: 1.623
batch start
#iterations: 518
currently lose_sum: 216.1336231380701
time_elpased: 1.603
batch start
#iterations: 519
currently lose_sum: 216.34958811104298
time_elpased: 1.567
start validation test
0.824072164948
0.872071227741
0.762314388121
0.813507458609
0.824488797589
validation finish
batch start
#iterations: 520
currently lose_sum: 215.74012064933777
time_elpased: 1.599
batch start
#iterations: 521
currently lose_sum: 220.21988309919834
time_elpased: 1.624
batch start
#iterations: 522
currently lose_sum: 215.04084734618664
time_elpased: 1.586
batch start
#iterations: 523
currently lose_sum: 215.6773542612791
time_elpased: 1.624
batch start
#iterations: 524
currently lose_sum: 215.91076822578907
time_elpased: 1.645
batch start
#iterations: 525
currently lose_sum: 214.60373160243034
time_elpased: 1.639
batch start
#iterations: 526
currently lose_sum: 214.70523005723953
time_elpased: 1.63
batch start
#iterations: 527
currently lose_sum: 214.72013968229294
time_elpased: 1.582
batch start
#iterations: 528
currently lose_sum: 216.55414833128452
time_elpased: 1.632
batch start
#iterations: 529
currently lose_sum: 218.3116013854742
time_elpased: 1.606
batch start
#iterations: 530
currently lose_sum: 215.78011479973793
time_elpased: 1.646
batch start
#iterations: 531
currently lose_sum: 217.67183716595173
time_elpased: 1.673
batch start
#iterations: 532
currently lose_sum: 215.51487658917904
time_elpased: 1.599
batch start
#iterations: 533
currently lose_sum: 215.08454988896847
time_elpased: 1.628
batch start
#iterations: 534
currently lose_sum: 215.62841637432575
time_elpased: 1.639
batch start
#iterations: 535
currently lose_sum: 217.74581477046013
time_elpased: 1.597
batch start
#iterations: 536
currently lose_sum: 215.06042335927486
time_elpased: 1.632
batch start
#iterations: 537
currently lose_sum: 215.97268451750278
time_elpased: 1.592
batch start
#iterations: 538
currently lose_sum: 214.37930220365524
time_elpased: 1.631
batch start
#iterations: 539
currently lose_sum: 217.1129100471735
time_elpased: 1.624
start validation test
0.823350515464
0.862088665448
0.772657450077
0.814926824
0.823692502932
validation finish
batch start
#iterations: 540
currently lose_sum: 213.6245403289795
time_elpased: 1.669
batch start
#iterations: 541
currently lose_sum: 216.16440391540527
time_elpased: 1.634
batch start
#iterations: 542
currently lose_sum: 216.9489587545395
time_elpased: 1.627
batch start
#iterations: 543
currently lose_sum: 214.34476679563522
time_elpased: 1.601
batch start
#iterations: 544
currently lose_sum: 213.3486665636301
time_elpased: 1.622
batch start
#iterations: 545
currently lose_sum: 214.25028067827225
time_elpased: 1.601
batch start
#iterations: 546
currently lose_sum: 216.4033059924841
time_elpased: 1.608
batch start
#iterations: 547
currently lose_sum: 217.33685791492462
time_elpased: 1.631
batch start
#iterations: 548
currently lose_sum: 215.92988592386246
time_elpased: 1.587
batch start
#iterations: 549
currently lose_sum: 220.13777197897434
time_elpased: 1.614
batch start
#iterations: 550
currently lose_sum: 216.7727768868208
time_elpased: 1.612
batch start
#iterations: 551
currently lose_sum: 215.2704557031393
time_elpased: 1.594
batch start
#iterations: 552
currently lose_sum: 215.06672589480877
time_elpased: 1.604
batch start
#iterations: 553
currently lose_sum: 215.41414259374142
time_elpased: 1.622
batch start
#iterations: 554
currently lose_sum: 214.99391727149487
time_elpased: 1.586
batch start
#iterations: 555
currently lose_sum: 218.53154560923576
time_elpased: 1.607
batch start
#iterations: 556
currently lose_sum: 216.2570001333952
time_elpased: 1.624
batch start
#iterations: 557
currently lose_sum: 213.24985682964325
time_elpased: 1.618
batch start
#iterations: 558
currently lose_sum: 216.56639982759953
time_elpased: 1.67
batch start
#iterations: 559
currently lose_sum: 216.83676828444004
time_elpased: 1.672
start validation test
0.823711340206
0.867996752117
0.766308243728
0.813988904601
0.824098595138
validation finish
batch start
#iterations: 560
currently lose_sum: 213.71263188123703
time_elpased: 1.687
batch start
#iterations: 561
currently lose_sum: 216.15315276384354
time_elpased: 1.647
batch start
#iterations: 562
currently lose_sum: 213.97521294653416
time_elpased: 1.629
batch start
#iterations: 563
currently lose_sum: 213.96927960217
time_elpased: 1.623
batch start
#iterations: 564
currently lose_sum: 214.60261942446232
time_elpased: 1.637
batch start
#iterations: 565
currently lose_sum: 216.2220317721367
time_elpased: 1.641
batch start
#iterations: 566
currently lose_sum: 213.5838730186224
time_elpased: 1.629
batch start
#iterations: 567
currently lose_sum: 216.18085856735706
time_elpased: 1.663
batch start
#iterations: 568
currently lose_sum: 216.63811856508255
time_elpased: 1.63
batch start
#iterations: 569
currently lose_sum: 216.13786761462688
time_elpased: 1.636
batch start
#iterations: 570
currently lose_sum: 215.7533361017704
time_elpased: 1.655
batch start
#iterations: 571
currently lose_sum: 213.3183624893427
time_elpased: 1.637
batch start
#iterations: 572
currently lose_sum: 215.30914713442326
time_elpased: 1.649
batch start
#iterations: 573
currently lose_sum: 216.1749911159277
time_elpased: 1.581
batch start
#iterations: 574
currently lose_sum: 214.75549937784672
time_elpased: 1.646
batch start
#iterations: 575
currently lose_sum: 215.62325085699558
time_elpased: 1.623
batch start
#iterations: 576
currently lose_sum: 214.1980391740799
time_elpased: 1.61
batch start
#iterations: 577
currently lose_sum: 215.15524491667747
time_elpased: 1.643
batch start
#iterations: 578
currently lose_sum: 215.48602041602135
time_elpased: 1.615
batch start
#iterations: 579
currently lose_sum: 215.4991331845522
time_elpased: 1.64
start validation test
0.824536082474
0.861297285016
0.776446492576
0.81667384748
0.824860506277
validation finish
batch start
#iterations: 580
currently lose_sum: 214.04317374527454
time_elpased: 1.667
batch start
#iterations: 581
currently lose_sum: 213.24272499978542
time_elpased: 1.614
batch start
#iterations: 582
currently lose_sum: 217.34153819084167
time_elpased: 1.64
batch start
#iterations: 583
currently lose_sum: 216.6489973962307
time_elpased: 1.617
batch start
#iterations: 584
currently lose_sum: 212.42209662497044
time_elpased: 1.632
batch start
#iterations: 585
currently lose_sum: 217.00926792621613
time_elpased: 1.642
batch start
#iterations: 586
currently lose_sum: 214.76661053299904
time_elpased: 1.599
batch start
#iterations: 587
currently lose_sum: 213.23758344352245
time_elpased: 1.644
batch start
#iterations: 588
currently lose_sum: 215.8849931359291
time_elpased: 1.637
batch start
#iterations: 589
currently lose_sum: 216.5519950389862
time_elpased: 1.597
batch start
#iterations: 590
currently lose_sum: 215.60203582048416
time_elpased: 1.632
batch start
#iterations: 591
currently lose_sum: 214.64659900963306
time_elpased: 1.64
batch start
#iterations: 592
currently lose_sum: 214.51196701824665
time_elpased: 1.603
batch start
#iterations: 593
currently lose_sum: 215.84590058028698
time_elpased: 1.628
batch start
#iterations: 594
currently lose_sum: 214.3518190383911
time_elpased: 1.578
batch start
#iterations: 595
currently lose_sum: 213.85446643829346
time_elpased: 1.565
batch start
#iterations: 596
currently lose_sum: 214.07202690839767
time_elpased: 1.623
batch start
#iterations: 597
currently lose_sum: 212.814668700099
time_elpased: 1.579
batch start
#iterations: 598
currently lose_sum: 215.5822428613901
time_elpased: 1.679
batch start
#iterations: 599
currently lose_sum: 215.05242356657982
time_elpased: 1.628
start validation test
0.825103092784
0.867898383372
0.76968766001
0.815848032564
0.825476938464
validation finish
batch start
#iterations: 600
currently lose_sum: 214.56572763621807
time_elpased: 1.673
batch start
#iterations: 601
currently lose_sum: 214.7374613583088
time_elpased: 1.652
batch start
#iterations: 602
currently lose_sum: 217.234370931983
time_elpased: 1.674
batch start
#iterations: 603
currently lose_sum: 214.5459966212511
time_elpased: 1.653
batch start
#iterations: 604
currently lose_sum: 214.366182371974
time_elpased: 1.597
batch start
#iterations: 605
currently lose_sum: 213.48135466873646
time_elpased: 1.639
batch start
#iterations: 606
currently lose_sum: 214.60694254934788
time_elpased: 1.672
batch start
#iterations: 607
currently lose_sum: 215.56839010119438
time_elpased: 1.634
batch start
#iterations: 608
currently lose_sum: 213.84470850229263
time_elpased: 1.606
batch start
#iterations: 609
currently lose_sum: 213.53873912990093
time_elpased: 1.676
batch start
#iterations: 610
currently lose_sum: 214.90980756282806
time_elpased: 1.667
batch start
#iterations: 611
currently lose_sum: 216.3018303066492
time_elpased: 1.65
batch start
#iterations: 612
currently lose_sum: 217.90301966667175
time_elpased: 1.636
batch start
#iterations: 613
currently lose_sum: 215.7645366936922
time_elpased: 1.669
batch start
#iterations: 614
currently lose_sum: 215.87740610539913
time_elpased: 1.619
batch start
#iterations: 615
currently lose_sum: 213.26733089983463
time_elpased: 1.64
batch start
#iterations: 616
currently lose_sum: 215.70646145939827
time_elpased: 1.644
batch start
#iterations: 617
currently lose_sum: 214.43915824592113
time_elpased: 1.603
batch start
#iterations: 618
currently lose_sum: 215.3104413598776
time_elpased: 1.621
batch start
#iterations: 619
currently lose_sum: 215.4805727750063
time_elpased: 1.624
start validation test
0.823402061856
0.86460370413
0.76968766001
0.81438942464
0.823764431977
validation finish
batch start
#iterations: 620
currently lose_sum: 215.7805523723364
time_elpased: 1.652
batch start
#iterations: 621
currently lose_sum: 214.44658334553242
time_elpased: 1.634
batch start
#iterations: 622
currently lose_sum: 216.35438065230846
time_elpased: 1.65
batch start
#iterations: 623
currently lose_sum: 213.2979420721531
time_elpased: 1.622
batch start
#iterations: 624
currently lose_sum: 215.60184633731842
time_elpased: 1.572
batch start
#iterations: 625
currently lose_sum: 213.8826065659523
time_elpased: 1.641
batch start
#iterations: 626
currently lose_sum: 213.84022870659828
time_elpased: 1.585
batch start
#iterations: 627
currently lose_sum: 217.10112689435482
time_elpased: 1.652
batch start
#iterations: 628
currently lose_sum: 215.30661135911942
time_elpased: 1.691
batch start
#iterations: 629
currently lose_sum: 215.44994227588177
time_elpased: 1.605
batch start
#iterations: 630
currently lose_sum: 214.70578384399414
time_elpased: 1.659
batch start
#iterations: 631
currently lose_sum: 214.72266364097595
time_elpased: 1.658
batch start
#iterations: 632
currently lose_sum: 215.51276621222496
time_elpased: 1.627
batch start
#iterations: 633
currently lose_sum: 212.19362615048885
time_elpased: 1.615
batch start
#iterations: 634
currently lose_sum: 215.31944812834263
time_elpased: 1.648
batch start
#iterations: 635
currently lose_sum: 212.91998752951622
time_elpased: 1.641
batch start
#iterations: 636
currently lose_sum: 214.31501810252666
time_elpased: 1.618
batch start
#iterations: 637
currently lose_sum: 213.7156838029623
time_elpased: 1.629
batch start
#iterations: 638
currently lose_sum: 216.08145362138748
time_elpased: 1.628
batch start
#iterations: 639
currently lose_sum: 214.79435463249683
time_elpased: 1.666
start validation test
0.823608247423
0.856308279969
0.780542754736
0.816672024001
0.823898777472
validation finish
batch start
#iterations: 640
currently lose_sum: 215.10856668651104
time_elpased: 1.647
batch start
#iterations: 641
currently lose_sum: 217.43316830694675
time_elpased: 1.608
batch start
#iterations: 642
currently lose_sum: 214.64180372655392
time_elpased: 1.637
batch start
#iterations: 643
currently lose_sum: 215.7781998962164
time_elpased: 1.606
batch start
#iterations: 644
currently lose_sum: 215.46042366325855
time_elpased: 1.652
batch start
#iterations: 645
currently lose_sum: 214.93120071291924
time_elpased: 1.658
batch start
#iterations: 646
currently lose_sum: 214.21422323584557
time_elpased: 1.649
batch start
#iterations: 647
currently lose_sum: 215.7036994099617
time_elpased: 1.624
batch start
#iterations: 648
currently lose_sum: 214.08757323026657
time_elpased: 1.624
batch start
#iterations: 649
currently lose_sum: 214.7891115397215
time_elpased: 1.64
batch start
#iterations: 650
currently lose_sum: 215.75966228544712
time_elpased: 1.641
batch start
#iterations: 651
currently lose_sum: 216.0902454406023
time_elpased: 1.614
batch start
#iterations: 652
currently lose_sum: 215.45620299875736
time_elpased: 1.638
batch start
#iterations: 653
currently lose_sum: 215.02294993400574
time_elpased: 1.647
batch start
#iterations: 654
currently lose_sum: 212.72364574670792
time_elpased: 1.687
batch start
#iterations: 655
currently lose_sum: 214.50440233945847
time_elpased: 1.649
batch start
#iterations: 656
currently lose_sum: 216.24966920912266
time_elpased: 1.64
batch start
#iterations: 657
currently lose_sum: 213.10501211881638
time_elpased: 1.649
batch start
#iterations: 658
currently lose_sum: 212.2062394618988
time_elpased: 1.627
batch start
#iterations: 659
currently lose_sum: 215.36517183482647
time_elpased: 1.674
start validation test
0.824432989691
0.861183687379
0.776344086022
0.816566135287
0.824757408864
validation finish
batch start
#iterations: 660
currently lose_sum: 214.443000882864
time_elpased: 1.664
batch start
#iterations: 661
currently lose_sum: 214.01115821301937
time_elpased: 1.66
batch start
#iterations: 662
currently lose_sum: 215.5806501209736
time_elpased: 1.655
batch start
#iterations: 663
currently lose_sum: 214.96326945722103
time_elpased: 1.637
batch start
#iterations: 664
currently lose_sum: 212.7938746958971
time_elpased: 1.668
batch start
#iterations: 665
currently lose_sum: 216.8078032284975
time_elpased: 1.645
batch start
#iterations: 666
currently lose_sum: 217.30154594779015
time_elpased: 1.672
batch start
#iterations: 667
currently lose_sum: 214.108344912529
time_elpased: 1.679
batch start
#iterations: 668
currently lose_sum: 213.0851381868124
time_elpased: 1.649
batch start
#iterations: 669
currently lose_sum: 213.84975880384445
time_elpased: 1.662
batch start
#iterations: 670
currently lose_sum: 214.4982299208641
time_elpased: 1.659
batch start
#iterations: 671
currently lose_sum: 214.2868280261755
time_elpased: 1.631
batch start
#iterations: 672
currently lose_sum: 213.80723218619823
time_elpased: 1.641
batch start
#iterations: 673
currently lose_sum: 213.99853786826134
time_elpased: 1.677
batch start
#iterations: 674
currently lose_sum: 216.47959043085575
time_elpased: 1.618
batch start
#iterations: 675
currently lose_sum: 213.4141126871109
time_elpased: 1.647
batch start
#iterations: 676
currently lose_sum: 214.6168488562107
time_elpased: 1.584
batch start
#iterations: 677
currently lose_sum: 215.2634566873312
time_elpased: 1.629
batch start
#iterations: 678
currently lose_sum: 213.3503943681717
time_elpased: 1.672
batch start
#iterations: 679
currently lose_sum: 215.53628677129745
time_elpased: 1.619
start validation test
0.825824742268
0.860302414805
0.780747567844
0.818596660761
0.8261288436
validation finish
batch start
#iterations: 680
currently lose_sum: 214.0883160829544
time_elpased: 1.66
batch start
#iterations: 681
currently lose_sum: 213.1171043664217
time_elpased: 1.695
batch start
#iterations: 682
currently lose_sum: 214.8373064994812
time_elpased: 1.647
batch start
#iterations: 683
currently lose_sum: 215.77810287475586
time_elpased: 1.661
batch start
#iterations: 684
currently lose_sum: 214.0838580429554
time_elpased: 1.667
batch start
#iterations: 685
currently lose_sum: 214.86583498120308
time_elpased: 1.702
batch start
#iterations: 686
currently lose_sum: 212.52605298161507
time_elpased: 1.695
batch start
#iterations: 687
currently lose_sum: 214.85891376435757
time_elpased: 1.67
batch start
#iterations: 688
currently lose_sum: 215.71511368453503
time_elpased: 1.634
batch start
#iterations: 689
currently lose_sum: 216.67877854406834
time_elpased: 1.698
batch start
#iterations: 690
currently lose_sum: 217.00761157274246
time_elpased: 1.688
batch start
#iterations: 691
currently lose_sum: 213.64671637117863
time_elpased: 1.631
batch start
#iterations: 692
currently lose_sum: 214.69621446728706
time_elpased: 1.692
batch start
#iterations: 693
currently lose_sum: 216.14452724158764
time_elpased: 1.696
batch start
#iterations: 694
currently lose_sum: 214.00407573580742
time_elpased: 1.676
batch start
#iterations: 695
currently lose_sum: 215.94503597915173
time_elpased: 1.636
batch start
#iterations: 696
currently lose_sum: 213.62178255617619
time_elpased: 1.64
batch start
#iterations: 697
currently lose_sum: 217.6864138841629
time_elpased: 1.684
batch start
#iterations: 698
currently lose_sum: 215.2104693353176
time_elpased: 1.718
batch start
#iterations: 699
currently lose_sum: 214.09235778450966
time_elpased: 1.721
start validation test
0.824690721649
0.861590909091
0.776446492576
0.816805817398
0.825016188685
validation finish
batch start
#iterations: 700
currently lose_sum: 214.36976647377014
time_elpased: 1.693
batch start
#iterations: 701
currently lose_sum: 214.1593675017357
time_elpased: 1.685
batch start
#iterations: 702
currently lose_sum: 213.94396759569645
time_elpased: 1.736
batch start
#iterations: 703
currently lose_sum: 214.22929693758488
time_elpased: 1.663
batch start
#iterations: 704
currently lose_sum: 217.13253366947174
time_elpased: 1.717
batch start
#iterations: 705
currently lose_sum: 214.95381680130959
time_elpased: 1.684
batch start
#iterations: 706
currently lose_sum: 213.4411392956972
time_elpased: 1.654
batch start
#iterations: 707
currently lose_sum: 214.89572715759277
time_elpased: 1.685
batch start
#iterations: 708
currently lose_sum: 215.87686464190483
time_elpased: 1.665
batch start
#iterations: 709
currently lose_sum: 216.27157770097256
time_elpased: 1.671
batch start
#iterations: 710
currently lose_sum: 216.34703494608402
time_elpased: 1.697
batch start
#iterations: 711
currently lose_sum: 214.74082553386688
time_elpased: 1.696
batch start
#iterations: 712
currently lose_sum: 211.82649514079094
time_elpased: 1.665
batch start
#iterations: 713
currently lose_sum: 212.4158333092928
time_elpased: 1.627
batch start
#iterations: 714
currently lose_sum: 213.9223875105381
time_elpased: 1.655
batch start
#iterations: 715
currently lose_sum: 213.64858809113503
time_elpased: 1.687
batch start
#iterations: 716
currently lose_sum: 214.0625099092722
time_elpased: 1.701
batch start
#iterations: 717
currently lose_sum: 215.36931930482388
time_elpased: 1.674
batch start
#iterations: 718
currently lose_sum: 216.64135052263737
time_elpased: 1.665
batch start
#iterations: 719
currently lose_sum: 215.65183831751347
time_elpased: 1.716
start validation test
0.825103092784
0.86561854487
0.772452636969
0.816386168083
0.825458285272
validation finish
batch start
#iterations: 720
currently lose_sum: 212.8337496072054
time_elpased: 1.69
batch start
#iterations: 721
currently lose_sum: 213.26324674487114
time_elpased: 1.674
batch start
#iterations: 722
currently lose_sum: 214.32400006055832
time_elpased: 1.675
batch start
#iterations: 723
currently lose_sum: 214.77528336644173
time_elpased: 1.798
batch start
#iterations: 724
currently lose_sum: 214.1403588205576
time_elpased: 1.644
batch start
#iterations: 725
currently lose_sum: 214.9860841035843
time_elpased: 1.659
batch start
#iterations: 726
currently lose_sum: 213.22082386910915
time_elpased: 1.691
batch start
#iterations: 727
currently lose_sum: 213.04055416584015
time_elpased: 1.667
batch start
#iterations: 728
currently lose_sum: 216.01150518655777
time_elpased: 1.669
batch start
#iterations: 729
currently lose_sum: 213.14745093882084
time_elpased: 1.661
batch start
#iterations: 730
currently lose_sum: 214.95557567477226
time_elpased: 1.697
batch start
#iterations: 731
currently lose_sum: 214.7142459154129
time_elpased: 1.636
batch start
#iterations: 732
currently lose_sum: 216.3574642241001
time_elpased: 1.712
batch start
#iterations: 733
currently lose_sum: 214.54492582380772
time_elpased: 1.668
batch start
#iterations: 734
currently lose_sum: 213.2552219480276
time_elpased: 1.653
batch start
#iterations: 735
currently lose_sum: 214.170809045434
time_elpased: 1.695
batch start
#iterations: 736
currently lose_sum: 214.69187250733376
time_elpased: 1.678
batch start
#iterations: 737
currently lose_sum: 214.48813973367214
time_elpased: 1.718
batch start
#iterations: 738
currently lose_sum: 216.19750759005547
time_elpased: 1.667
batch start
#iterations: 739
currently lose_sum: 214.57576639950275
time_elpased: 1.649
start validation test
0.824742268041
0.853729020785
0.786584741423
0.818782645773
0.824999687785
validation finish
batch start
#iterations: 740
currently lose_sum: 214.47213418781757
time_elpased: 1.661
batch start
#iterations: 741
currently lose_sum: 214.32778772711754
time_elpased: 1.639
batch start
#iterations: 742
currently lose_sum: 215.79060000181198
time_elpased: 1.681
batch start
#iterations: 743
currently lose_sum: 214.331908300519
time_elpased: 1.705
batch start
#iterations: 744
currently lose_sum: 213.92710399627686
time_elpased: 1.698
batch start
#iterations: 745
currently lose_sum: 214.09238976240158
time_elpased: 1.683
batch start
#iterations: 746
currently lose_sum: 214.2598049789667
time_elpased: 1.704
batch start
#iterations: 747
currently lose_sum: 213.40090833604336
time_elpased: 1.689
batch start
#iterations: 748
currently lose_sum: 214.85285863280296
time_elpased: 1.674
batch start
#iterations: 749
currently lose_sum: 213.66784313321114
time_elpased: 1.692
batch start
#iterations: 750
currently lose_sum: 213.4055139273405
time_elpased: 1.672
batch start
#iterations: 751
currently lose_sum: 214.81948333978653
time_elpased: 1.685
batch start
#iterations: 752
currently lose_sum: 214.5242800861597
time_elpased: 1.667
batch start
#iterations: 753
currently lose_sum: 216.5714095979929
time_elpased: 1.671
batch start
#iterations: 754
currently lose_sum: 214.81503090262413
time_elpased: 1.709
batch start
#iterations: 755
currently lose_sum: 215.11487336456776
time_elpased: 1.705
batch start
#iterations: 756
currently lose_sum: 214.04428306221962
time_elpased: 1.644
batch start
#iterations: 757
currently lose_sum: 215.06355057656765
time_elpased: 1.674
batch start
#iterations: 758
currently lose_sum: 214.73819909989834
time_elpased: 1.67
batch start
#iterations: 759
currently lose_sum: 216.53993332386017
time_elpased: 1.714
start validation test
0.825103092784
0.860815402039
0.778392217102
0.817531594515
0.825418215453
validation finish
batch start
#iterations: 760
currently lose_sum: 215.70668728649616
time_elpased: 1.707
batch start
#iterations: 761
currently lose_sum: 212.36719284951687
time_elpased: 1.731
batch start
#iterations: 762
currently lose_sum: 215.33959138393402
time_elpased: 1.618
batch start
#iterations: 763
currently lose_sum: 214.04262134432793
time_elpased: 1.688
batch start
#iterations: 764
currently lose_sum: 214.79891031980515
time_elpased: 1.688
batch start
#iterations: 765
currently lose_sum: 212.7306481450796
time_elpased: 1.701
batch start
#iterations: 766
currently lose_sum: 214.29993200302124
time_elpased: 1.73
batch start
#iterations: 767
currently lose_sum: 215.12979827821255
time_elpased: 1.721
batch start
#iterations: 768
currently lose_sum: 215.0559899955988
time_elpased: 1.701
batch start
#iterations: 769
currently lose_sum: 215.9793024212122
time_elpased: 1.654
batch start
#iterations: 770
currently lose_sum: 214.87074778974056
time_elpased: 1.707
batch start
#iterations: 771
currently lose_sum: 215.10716025531292
time_elpased: 1.657
batch start
#iterations: 772
currently lose_sum: 215.13961482048035
time_elpased: 1.691
batch start
#iterations: 773
currently lose_sum: 212.50280103087425
time_elpased: 1.676
batch start
#iterations: 774
currently lose_sum: 213.9734989106655
time_elpased: 1.623
batch start
#iterations: 775
currently lose_sum: 216.0551827698946
time_elpased: 1.696
batch start
#iterations: 776
currently lose_sum: 214.92898300290108
time_elpased: 1.678
batch start
#iterations: 777
currently lose_sum: 215.48285457491875
time_elpased: 1.703
batch start
#iterations: 778
currently lose_sum: 215.26049603521824
time_elpased: 1.673
batch start
#iterations: 779
currently lose_sum: 215.28215165436268
time_elpased: 1.684
start validation test
0.825567010309
0.853674758896
0.788632872504
0.819865857553
0.825816176781
validation finish
batch start
#iterations: 780
currently lose_sum: 216.59707622230053
time_elpased: 1.687
batch start
#iterations: 781
currently lose_sum: 213.81098973751068
time_elpased: 1.699
batch start
#iterations: 782
currently lose_sum: 213.18360741436481
time_elpased: 1.723
batch start
#iterations: 783
currently lose_sum: 212.95057578384876
time_elpased: 1.682
batch start
#iterations: 784
currently lose_sum: 214.4870741069317
time_elpased: 1.7
batch start
#iterations: 785
currently lose_sum: 214.46755066514015
time_elpased: 1.696
batch start
#iterations: 786
currently lose_sum: 214.71106980741024
time_elpased: 1.66
batch start
#iterations: 787
currently lose_sum: 216.84110108017921
time_elpased: 1.7
batch start
#iterations: 788
currently lose_sum: 213.33037209510803
time_elpased: 1.688
batch start
#iterations: 789
currently lose_sum: 211.47233286499977
time_elpased: 1.658
batch start
#iterations: 790
currently lose_sum: 215.5708733946085
time_elpased: 1.639
batch start
#iterations: 791
currently lose_sum: 213.91983130574226
time_elpased: 1.698
batch start
#iterations: 792
currently lose_sum: 212.1719128191471
time_elpased: 1.656
batch start
#iterations: 793
currently lose_sum: 213.57308350503445
time_elpased: 1.67
batch start
#iterations: 794
currently lose_sum: 213.68395474553108
time_elpased: 1.658
batch start
#iterations: 795
currently lose_sum: 213.23686964809895
time_elpased: 1.631
batch start
#iterations: 796
currently lose_sum: 214.3156372308731
time_elpased: 1.693
batch start
#iterations: 797
currently lose_sum: 213.1694557517767
time_elpased: 1.655
batch start
#iterations: 798
currently lose_sum: 216.6215117573738
time_elpased: 1.663
batch start
#iterations: 799
currently lose_sum: 216.37247383594513
time_elpased: 1.654
start validation test
0.825257731959
0.858025384702
0.782283666155
0.818405828155
0.825547645221
validation finish
acc: 0.820
pre: 0.844
rec: 0.783
F1: 0.813
auc: 0.820
