start to construct computing graph
graph construct over
3802
epochs start
#iterations: 0
currently lose_sum: 0.6927239298820496
time_elpased: 4.523
#iterations: 1
currently lose_sum: 0.6931053400039673
time_elpased: 4.416
#iterations: 2
currently lose_sum: 0.6925700306892395
time_elpased: 4.834
#iterations: 3
currently lose_sum: 0.6957566142082214
time_elpased: 4.929
#iterations: 4
currently lose_sum: 0.6923524737358093
time_elpased: 5.906
#iterations: 5
currently lose_sum: 0.6936683654785156
time_elpased: 4.612
#iterations: 6
currently lose_sum: 0.6910313367843628
time_elpased: 5.333
#iterations: 7
currently lose_sum: 0.6901563405990601
time_elpased: 4.623
#iterations: 8
currently lose_sum: 0.6922680139541626
time_elpased: 4.652
#iterations: 9
currently lose_sum: 0.6944809556007385
time_elpased: 5.24
#iterations: 10
currently lose_sum: 0.6932610869407654
time_elpased: 4.694
#iterations: 11
currently lose_sum: 0.6917024254798889
time_elpased: 4.645
#iterations: 12
currently lose_sum: 0.6920552849769592
time_elpased: 4.776
#iterations: 13
currently lose_sum: 0.6932721138000488
time_elpased: 4.627
#iterations: 14
currently lose_sum: 0.6916446089744568
time_elpased: 4.808
#iterations: 15
currently lose_sum: 0.6949813961982727
time_elpased: 4.591
#iterations: 16
currently lose_sum: 0.6924141645431519
time_elpased: 4.678
#iterations: 17
currently lose_sum: 0.6946769952774048
time_elpased: 4.626
#iterations: 18
currently lose_sum: 0.689920961856842
time_elpased: 4.855
#iterations: 19
currently lose_sum: 0.6933550834655762
time_elpased: 4.611
start validation test
0.5144
0.514270613108
0.767350157729
0.61582278481
0.510704299644
17.291
#iterations: 20
currently lose_sum: 0.6936012506484985
time_elpased: 3.524
#iterations: 21
currently lose_sum: 0.691335141658783
time_elpased: 2.773
#iterations: 22
currently lose_sum: 0.6878610253334045
time_elpased: 3.022
#iterations: 23
currently lose_sum: 0.6905157566070557
time_elpased: 2.906
#iterations: 24
currently lose_sum: 0.6891162395477295
time_elpased: 2.961
#iterations: 25
currently lose_sum: 0.6919436454772949
time_elpased: 2.736
#iterations: 26
currently lose_sum: 0.6920724511146545
time_elpased: 2.729
#iterations: 27
currently lose_sum: 0.6921604871749878
time_elpased: 2.741
#iterations: 28
currently lose_sum: 0.688530683517456
time_elpased: 2.788
#iterations: 29
currently lose_sum: 0.692674994468689
time_elpased: 2.763
#iterations: 30
currently lose_sum: 0.6917830109596252
time_elpased: 2.851
#iterations: 31
currently lose_sum: 0.6909590363502502
time_elpased: 2.804
#iterations: 32
currently lose_sum: 0.689700722694397
time_elpased: 2.802
#iterations: 33
currently lose_sum: 0.6892032623291016
time_elpased: 2.698
#iterations: 34
currently lose_sum: 0.6927223205566406
time_elpased: 2.802
#iterations: 35
currently lose_sum: 0.6938493847846985
time_elpased: 2.767
#iterations: 36
currently lose_sum: 0.701824963092804
time_elpased: 2.775
#iterations: 37
currently lose_sum: 0.6944305896759033
time_elpased: 2.789
#iterations: 38
currently lose_sum: 0.6923918128013611
time_elpased: 2.753
#iterations: 39
currently lose_sum: 0.696484386920929
time_elpased: 2.758
start validation test
0.5192
0.515744274809
0.852523659306
0.642687277051
0.514330011471
17.294
#iterations: 40
currently lose_sum: 0.6874571442604065
time_elpased: 2.79
#iterations: 41
currently lose_sum: 0.692156970500946
time_elpased: 2.776
#iterations: 42
currently lose_sum: 0.7003293037414551
time_elpased: 2.762
#iterations: 43
currently lose_sum: 0.6907005310058594
time_elpased: 3.629
#iterations: 44
currently lose_sum: 0.6933209300041199
time_elpased: 2.753
#iterations: 45
currently lose_sum: 0.6874942183494568
time_elpased: 3.153
#iterations: 46
currently lose_sum: 0.6842875480651855
time_elpased: 2.723
#iterations: 47
currently lose_sum: 0.6972120404243469
time_elpased: 2.812
#iterations: 48
currently lose_sum: 0.6720973253250122
time_elpased: 2.818
#iterations: 49
currently lose_sum: 0.6903076171875
time_elpased: 2.736
#iterations: 50
currently lose_sum: 0.6950303912162781
time_elpased: 3.318
#iterations: 51
currently lose_sum: 0.6994866728782654
time_elpased: 2.805
#iterations: 52
currently lose_sum: 0.687842845916748
time_elpased: 2.813
#iterations: 53
currently lose_sum: 0.6943709850311279
time_elpased: 2.744
#iterations: 54
currently lose_sum: 0.6930557489395142
time_elpased: 2.755
#iterations: 55
currently lose_sum: 0.6900224089622498
time_elpased: 2.768
#iterations: 56
currently lose_sum: 0.6960740685462952
time_elpased: 2.787
#iterations: 57
currently lose_sum: 0.6839261651039124
time_elpased: 2.945
#iterations: 58
currently lose_sum: 0.6952128410339355
time_elpased: 3.528
#iterations: 59
currently lose_sum: 0.6930227875709534
time_elpased: 3.287
start validation test
0.5248
0.60101010101
0.187697160883
0.286057692308
0.529725203818
17.302
#iterations: 60
currently lose_sum: 0.6976122260093689
time_elpased: 2.801
#iterations: 61
currently lose_sum: 0.6874284148216248
time_elpased: 2.798
#iterations: 62
currently lose_sum: 0.6920469403266907
time_elpased: 2.772
#iterations: 63
currently lose_sum: 0.687868058681488
time_elpased: 2.739
#iterations: 64
currently lose_sum: 0.6888446807861328
time_elpased: 2.775
#iterations: 65
currently lose_sum: 0.6912869811058044
time_elpased: 2.82
#iterations: 66
currently lose_sum: 0.6909544467926025
time_elpased: 2.825
#iterations: 67
currently lose_sum: 0.6996650695800781
time_elpased: 2.777
#iterations: 68
currently lose_sum: 0.6904953718185425
time_elpased: 2.782
#iterations: 69
currently lose_sum: 0.6842724084854126
time_elpased: 2.742
#iterations: 70
currently lose_sum: 0.6951749920845032
time_elpased: 2.775
#iterations: 71
currently lose_sum: 0.691510796546936
time_elpased: 3.03
#iterations: 72
currently lose_sum: 0.6944921016693115
time_elpased: 2.808
#iterations: 73
currently lose_sum: 0.6877345442771912
time_elpased: 3.079
#iterations: 74
currently lose_sum: 0.6902162432670593
time_elpased: 2.793
#iterations: 75
currently lose_sum: 0.6894193887710571
time_elpased: 2.782
#iterations: 76
currently lose_sum: 0.6885526776313782
time_elpased: 4.139
#iterations: 77
currently lose_sum: 0.6903627514839172
time_elpased: 2.755
#iterations: 78
currently lose_sum: 0.6945100426673889
time_elpased: 2.911
#iterations: 79
currently lose_sum: 0.6872302889823914
time_elpased: 2.772
start validation test
0.5204
0.573560767591
0.21214511041
0.309729418538
0.524903724036
17.298
#iterations: 80
currently lose_sum: 0.6911314129829407
time_elpased: 2.994
#iterations: 81
currently lose_sum: 0.6904155015945435
time_elpased: 3.441
#iterations: 82
currently lose_sum: 0.6847906708717346
time_elpased: 2.735
#iterations: 83
currently lose_sum: 0.6930209398269653
time_elpased: 2.746
#iterations: 84
currently lose_sum: 0.6675026416778564
time_elpased: 2.737
#iterations: 85
currently lose_sum: 0.6947612166404724
time_elpased: 2.745
#iterations: 86
currently lose_sum: 0.6932514905929565
time_elpased: 2.947
#iterations: 87
currently lose_sum: 0.7029111385345459
time_elpased: 2.803
#iterations: 88
currently lose_sum: 0.6988571286201477
time_elpased: 2.75
#iterations: 89
currently lose_sum: 0.695007860660553
time_elpased: 2.772
#iterations: 90
currently lose_sum: 0.6835289597511292
time_elpased: 2.917
#iterations: 91
currently lose_sum: 0.6908475756645203
time_elpased: 2.779
#iterations: 92
currently lose_sum: 0.6887798309326172
time_elpased: 2.841
#iterations: 93
currently lose_sum: 0.6941487193107605
time_elpased: 2.764
#iterations: 94
currently lose_sum: 0.6891160011291504
time_elpased: 2.774
#iterations: 95
currently lose_sum: 0.6836706399917603
time_elpased: 2.953
#iterations: 96
currently lose_sum: 0.67992103099823
time_elpased: 3.07
#iterations: 97
currently lose_sum: 0.6901441812515259
time_elpased: 2.804
#iterations: 98
currently lose_sum: 0.6912272572517395
time_elpased: 2.795
#iterations: 99
currently lose_sum: 0.6890449523925781
time_elpased: 2.687
start validation test
0.512
0.513498312711
0.720031545741
0.599474720946
0.508960578065
17.251
#iterations: 100
currently lose_sum: 0.6965869069099426
time_elpased: 2.718
#iterations: 101
currently lose_sum: 0.6873538494110107
time_elpased: 2.657
#iterations: 102
currently lose_sum: 0.6826133131980896
time_elpased: 2.683
#iterations: 103
currently lose_sum: 0.7130191326141357
time_elpased: 2.696
#iterations: 104
currently lose_sum: 0.6766288876533508
time_elpased: 2.823
#iterations: 105
currently lose_sum: 0.7048653960227966
time_elpased: 2.756
#iterations: 106
currently lose_sum: 0.6837081909179688
time_elpased: 2.777
#iterations: 107
currently lose_sum: 0.6869359612464905
time_elpased: 2.961
#iterations: 108
currently lose_sum: 0.6924643516540527
time_elpased: 2.765
#iterations: 109
currently lose_sum: 0.7069521546363831
time_elpased: 2.744
#iterations: 110
currently lose_sum: 0.6908313035964966
time_elpased: 2.752
#iterations: 111
currently lose_sum: 0.6890749931335449
time_elpased: 2.719
#iterations: 112
currently lose_sum: 0.6853553652763367
time_elpased: 2.748
#iterations: 113
currently lose_sum: 0.6889621615409851
time_elpased: 2.882
#iterations: 114
currently lose_sum: 0.704570472240448
time_elpased: 2.738
#iterations: 115
currently lose_sum: 0.675433337688446
time_elpased: 2.743
#iterations: 116
currently lose_sum: 0.6903583407402039
time_elpased: 2.748
#iterations: 117
currently lose_sum: 0.7008152604103088
time_elpased: 2.705
#iterations: 118
currently lose_sum: 0.690066397190094
time_elpased: 3.133
#iterations: 119
currently lose_sum: 0.6889753937721252
time_elpased: 2.801
start validation test
0.5232
0.552777777778
0.313880126183
0.400402414487
0.52625824491
17.278
#iterations: 120
currently lose_sum: 0.6925914287567139
time_elpased: 2.891
#iterations: 121
currently lose_sum: 0.6988579034805298
time_elpased: 2.739
#iterations: 122
currently lose_sum: 0.6839385032653809
time_elpased: 2.754
#iterations: 123
currently lose_sum: 0.6870812773704529
time_elpased: 2.744
#iterations: 124
currently lose_sum: 0.694291353225708
time_elpased: 2.748
#iterations: 125
currently lose_sum: 0.6871224045753479
time_elpased: 3.42
#iterations: 126
currently lose_sum: 0.6941173076629639
time_elpased: 2.908
#iterations: 127
currently lose_sum: 0.6895196437835693
time_elpased: 2.797
#iterations: 128
currently lose_sum: 0.6829791069030762
time_elpased: 2.77
#iterations: 129
currently lose_sum: 0.683789849281311
time_elpased: 2.956
#iterations: 130
currently lose_sum: 0.7128189206123352
time_elpased: 2.723
#iterations: 131
currently lose_sum: 0.6818296909332275
time_elpased: 2.944
#iterations: 132
currently lose_sum: 0.68768709897995
time_elpased: 2.735
#iterations: 133
currently lose_sum: 0.6925920248031616
time_elpased: 2.723
#iterations: 134
currently lose_sum: 0.6783010959625244
time_elpased: 2.78
#iterations: 135
currently lose_sum: 0.6865108013153076
time_elpased: 2.78
#iterations: 136
currently lose_sum: 0.6866863369941711
time_elpased: 2.781
#iterations: 137
currently lose_sum: 0.6856187582015991
time_elpased: 2.804
#iterations: 138
currently lose_sum: 0.6829847693443298
time_elpased: 2.769
#iterations: 139
currently lose_sum: 0.6715641617774963
time_elpased: 2.93
start validation test
0.5204
0.537787513691
0.387223974763
0.4502521779
0.522345753615
17.276
#iterations: 140
currently lose_sum: 0.6810576915740967
time_elpased: 2.76
#iterations: 141
currently lose_sum: 0.6656883358955383
time_elpased: 2.808
#iterations: 142
currently lose_sum: 0.6909148693084717
time_elpased: 2.857
#iterations: 143
currently lose_sum: 0.6681221127510071
time_elpased: 2.835
#iterations: 144
currently lose_sum: 0.6926863193511963
time_elpased: 2.729
#iterations: 145
currently lose_sum: 0.6765030026435852
time_elpased: 2.807
#iterations: 146
currently lose_sum: 0.6980312466621399
time_elpased: 2.937
#iterations: 147
currently lose_sum: 0.7034012079238892
time_elpased: 2.998
#iterations: 148
currently lose_sum: 0.6879642009735107
time_elpased: 2.802
#iterations: 149
currently lose_sum: 0.6925885081291199
time_elpased: 3.306
#iterations: 150
currently lose_sum: 0.691689133644104
time_elpased: 2.784
#iterations: 151
currently lose_sum: 0.6771000027656555
time_elpased: 2.78
#iterations: 152
currently lose_sum: 0.6886465549468994
time_elpased: 2.759
#iterations: 153
currently lose_sum: 0.6832793951034546
time_elpased: 2.782
#iterations: 154
currently lose_sum: 0.6919571161270142
time_elpased: 2.871
#iterations: 155
currently lose_sum: 0.6964991688728333
time_elpased: 2.96
#iterations: 156
currently lose_sum: 0.6985125541687012
time_elpased: 2.77
#iterations: 157
currently lose_sum: 0.6888844966888428
time_elpased: 3.142
#iterations: 158
currently lose_sum: 0.6955665349960327
time_elpased: 2.772
#iterations: 159
currently lose_sum: 0.6862087249755859
time_elpased: 3.442
start validation test
0.5244
0.523553965414
0.692429022082
0.596264855688
0.521945030522
17.257
#iterations: 160
currently lose_sum: 0.7027125358581543
time_elpased: 2.789
#iterations: 161
currently lose_sum: 0.695006251335144
time_elpased: 3.641
#iterations: 162
currently lose_sum: 0.6916526556015015
time_elpased: 3.007
#iterations: 163
currently lose_sum: 0.6911561489105225
time_elpased: 3.673
#iterations: 164
currently lose_sum: 0.6805539131164551
time_elpased: 2.753
#iterations: 165
currently lose_sum: 0.683556079864502
time_elpased: 2.738
#iterations: 166
currently lose_sum: 0.6942983269691467
time_elpased: 2.745
#iterations: 167
currently lose_sum: 0.686311662197113
time_elpased: 3.047
#iterations: 168
currently lose_sum: 0.6867637634277344
time_elpased: 2.743
#iterations: 169
currently lose_sum: 0.6770293712615967
time_elpased: 2.738
#iterations: 170
currently lose_sum: 0.7064318060874939
time_elpased: 2.723
#iterations: 171
currently lose_sum: 0.7002449035644531
time_elpased: 2.762
#iterations: 172
currently lose_sum: 0.6860600113868713
time_elpased: 2.947
#iterations: 173
currently lose_sum: 0.6801034808158875
time_elpased: 2.872
#iterations: 174
currently lose_sum: 0.6921210289001465
time_elpased: 2.793
#iterations: 175
currently lose_sum: 0.6969197988510132
time_elpased: 2.895
#iterations: 176
currently lose_sum: 0.6842954754829407
time_elpased: 2.732
#iterations: 177
currently lose_sum: 0.6973428130149841
time_elpased: 2.761
#iterations: 178
currently lose_sum: 0.6788536310195923
time_elpased: 2.71
#iterations: 179
currently lose_sum: 0.6914648413658142
time_elpased: 2.728
start validation test
0.5296
0.530997304582
0.621451104101
0.572674418605
0.528258019583
17.241
#iterations: 180
currently lose_sum: 0.6778455972671509
time_elpased: 2.789
#iterations: 181
currently lose_sum: 0.6834709048271179
time_elpased: 2.794
#iterations: 182
currently lose_sum: 0.7062311768531799
time_elpased: 2.881
#iterations: 183
currently lose_sum: 0.6943934559822083
time_elpased: 2.83
#iterations: 184
currently lose_sum: 0.67861008644104
time_elpased: 3.327
#iterations: 185
currently lose_sum: 0.6737939715385437
time_elpased: 2.962
#iterations: 186
currently lose_sum: 0.6800495982170105
time_elpased: 2.736
#iterations: 187
currently lose_sum: 0.6853602528572083
time_elpased: 2.774
#iterations: 188
currently lose_sum: 0.6909893751144409
time_elpased: 3.331
#iterations: 189
currently lose_sum: 0.6843814253807068
time_elpased: 2.777
#iterations: 190
currently lose_sum: 0.6873222589492798
time_elpased: 2.779
#iterations: 191
currently lose_sum: 0.6820060014724731
time_elpased: 3.165
#iterations: 192
currently lose_sum: 0.6956154704093933
time_elpased: 2.751
#iterations: 193
currently lose_sum: 0.6655644178390503
time_elpased: 2.752
#iterations: 194
currently lose_sum: 0.6872242093086243
time_elpased: 2.74
#iterations: 195
currently lose_sum: 0.6876792907714844
time_elpased: 2.793
#iterations: 196
currently lose_sum: 0.6823280453681946
time_elpased: 2.773
#iterations: 197
currently lose_sum: 0.692620038986206
time_elpased: 2.754
#iterations: 198
currently lose_sum: 0.6908106803894043
time_elpased: 2.747
#iterations: 199
currently lose_sum: 0.6720448136329651
time_elpased: 2.878
start validation test
0.5312
0.530729833547
0.653785488959
0.585865724382
0.529408978246
17.250
#iterations: 200
currently lose_sum: 0.6964699625968933
time_elpased: 3.456
#iterations: 201
currently lose_sum: 0.6814253926277161
time_elpased: 2.779
#iterations: 202
currently lose_sum: 0.6829044818878174
time_elpased: 2.743
#iterations: 203
currently lose_sum: 0.670340895652771
time_elpased: 2.769
#iterations: 204
currently lose_sum: 0.6839558482170105
time_elpased: 2.758
#iterations: 205
currently lose_sum: 0.6800864934921265
time_elpased: 2.756
#iterations: 206
currently lose_sum: 0.6829792857170105
time_elpased: 2.774
#iterations: 207
currently lose_sum: 0.6776490807533264
time_elpased: 2.81
#iterations: 208
currently lose_sum: 0.6896899938583374
time_elpased: 2.832
#iterations: 209
currently lose_sum: 0.6752777695655823
time_elpased: 2.784
#iterations: 210
currently lose_sum: 0.6772960424423218
time_elpased: 2.734
#iterations: 211
currently lose_sum: 0.6866903901100159
time_elpased: 2.727
#iterations: 212
currently lose_sum: 0.7003143429756165
time_elpased: 2.733
#iterations: 213
currently lose_sum: 0.6867908239364624
time_elpased: 2.779
#iterations: 214
currently lose_sum: 0.6973852515220642
time_elpased: 3.186
#iterations: 215
currently lose_sum: 0.6842448711395264
time_elpased: 3.222
#iterations: 216
currently lose_sum: 0.6822877526283264
time_elpased: 2.776
#iterations: 217
currently lose_sum: 0.6806684732437134
time_elpased: 2.963
#iterations: 218
currently lose_sum: 0.6867002844810486
time_elpased: 2.81
#iterations: 219
currently lose_sum: 0.6933387517929077
time_elpased: 2.786
start validation test
0.5264
0.542084168337
0.42665615142
0.477493380406
0.527857296489
17.254
#iterations: 220
currently lose_sum: 0.6838455200195312
time_elpased: 2.821
#iterations: 221
currently lose_sum: 0.6958342790603638
time_elpased: 3.098
#iterations: 222
currently lose_sum: 0.6981176733970642
time_elpased: 2.878
#iterations: 223
currently lose_sum: 0.6854865550994873
time_elpased: 2.897
#iterations: 224
currently lose_sum: 0.7037410736083984
time_elpased: 3.39
#iterations: 225
currently lose_sum: 0.6924994587898254
time_elpased: 2.834
#iterations: 226
currently lose_sum: 0.6892496347427368
time_elpased: 3.041
#iterations: 227
currently lose_sum: 0.6806226372718811
time_elpased: 2.899
#iterations: 228
currently lose_sum: 0.6800892353057861
time_elpased: 2.731
#iterations: 229
currently lose_sum: 0.67917799949646
time_elpased: 2.744
#iterations: 230
currently lose_sum: 0.6915960907936096
time_elpased: 2.726
#iterations: 231
currently lose_sum: 0.7081096768379211
time_elpased: 2.726
#iterations: 232
currently lose_sum: 0.7018358707427979
time_elpased: 2.792
#iterations: 233
currently lose_sum: 0.6809771656990051
time_elpased: 2.823
#iterations: 234
currently lose_sum: 0.6821728348731995
time_elpased: 2.74
#iterations: 235
currently lose_sum: 0.701018214225769
time_elpased: 2.745
#iterations: 236
currently lose_sum: 0.683087170124054
time_elpased: 2.833
#iterations: 237
currently lose_sum: 0.695721447467804
time_elpased: 2.775
#iterations: 238
currently lose_sum: 0.6909335255622864
time_elpased: 2.746
#iterations: 239
currently lose_sum: 0.6707277894020081
time_elpased: 3.094
start validation test
0.526
0.549463647199
0.36356466877
0.437588989084
0.528373243476
17.281
#iterations: 240
currently lose_sum: 0.6854143738746643
time_elpased: 2.757
#iterations: 241
currently lose_sum: 0.7080404758453369
time_elpased: 2.775
#iterations: 242
currently lose_sum: 0.677338719367981
time_elpased: 3.331
#iterations: 243
currently lose_sum: 0.6915204524993896
time_elpased: 2.862
#iterations: 244
currently lose_sum: 0.6974129676818848
time_elpased: 2.743
#iterations: 245
currently lose_sum: 0.689067006111145
time_elpased: 2.757
#iterations: 246
currently lose_sum: 0.6816790699958801
time_elpased: 2.885
#iterations: 247
currently lose_sum: 0.6936177611351013
time_elpased: 3.001
#iterations: 248
currently lose_sum: 0.6768526434898376
time_elpased: 3.382
#iterations: 249
currently lose_sum: 0.6955554485321045
time_elpased: 2.84
#iterations: 250
currently lose_sum: 0.6890749931335449
time_elpased: 3.059
#iterations: 251
currently lose_sum: 0.7126817107200623
time_elpased: 2.804
#iterations: 252
currently lose_sum: 0.6982073783874512
time_elpased: 2.777
#iterations: 253
currently lose_sum: 0.6980852484703064
time_elpased: 3.425
#iterations: 254
currently lose_sum: 0.6971858739852905
time_elpased: 3.256
#iterations: 255
currently lose_sum: 0.6762445569038391
time_elpased: 3.501
#iterations: 256
currently lose_sum: 0.6803735494613647
time_elpased: 2.748
#iterations: 257
currently lose_sum: 0.6970289349555969
time_elpased: 2.812
#iterations: 258
currently lose_sum: 0.6778250336647034
time_elpased: 2.794
#iterations: 259
currently lose_sum: 0.6924376487731934
time_elpased: 2.793
start validation test
0.5336
0.54028436019
0.539432176656
0.539857932123
0.533514789627
17.247
#iterations: 260
currently lose_sum: 0.6735521554946899
time_elpased: 2.835
#iterations: 261
currently lose_sum: 0.7008848786354065
time_elpased: 2.846
#iterations: 262
currently lose_sum: 0.6958121657371521
time_elpased: 3.685
#iterations: 263
currently lose_sum: 0.6875127553939819
time_elpased: 2.757
#iterations: 264
currently lose_sum: 0.6964735388755798
time_elpased: 2.79
#iterations: 265
currently lose_sum: 0.6728874444961548
time_elpased: 2.822
#iterations: 266
currently lose_sum: 0.7059582471847534
time_elpased: 2.799
#iterations: 267
currently lose_sum: 0.6826324462890625
time_elpased: 2.782
#iterations: 268
currently lose_sum: 0.7057036757469177
time_elpased: 2.815
#iterations: 269
currently lose_sum: 0.679802656173706
time_elpased: 2.971
#iterations: 270
currently lose_sum: 0.6614524722099304
time_elpased: 2.973
#iterations: 271
currently lose_sum: 0.6858081221580505
time_elpased: 2.777
#iterations: 272
currently lose_sum: 0.6720515489578247
time_elpased: 2.745
#iterations: 273
currently lose_sum: 0.6888134479522705
time_elpased: 2.787
#iterations: 274
currently lose_sum: 0.6870397925376892
time_elpased: 2.799
#iterations: 275
currently lose_sum: 0.6965978741645813
time_elpased: 2.778
#iterations: 276
currently lose_sum: 0.6804008483886719
time_elpased: 2.756
#iterations: 277
currently lose_sum: 0.6784780025482178
time_elpased: 2.766
#iterations: 278
currently lose_sum: 0.7054843306541443
time_elpased: 2.87
#iterations: 279
currently lose_sum: 0.6782967448234558
time_elpased: 2.781
start validation test
0.5328
0.590252707581
0.257886435331
0.358946212953
0.536816594289
17.366
#iterations: 280
currently lose_sum: 0.6923533082008362
time_elpased: 2.814
#iterations: 281
currently lose_sum: 0.7047704458236694
time_elpased: 2.784
#iterations: 282
currently lose_sum: 0.700777530670166
time_elpased: 2.761
#iterations: 283
currently lose_sum: 0.6853549480438232
time_elpased: 2.733
#iterations: 284
currently lose_sum: 0.6891542673110962
time_elpased: 2.769
#iterations: 285
currently lose_sum: 0.6776242256164551
time_elpased: 2.78
#iterations: 286
currently lose_sum: 0.6834471821784973
time_elpased: 2.982
#iterations: 287
currently lose_sum: 0.6907606720924377
time_elpased: 2.789
#iterations: 288
currently lose_sum: 0.6947885155677795
time_elpased: 2.816
#iterations: 289
currently lose_sum: 0.6910889148712158
time_elpased: 3.226
#iterations: 290
currently lose_sum: 0.690223217010498
time_elpased: 3.214
#iterations: 291
currently lose_sum: 0.668405294418335
time_elpased: 2.836
#iterations: 292
currently lose_sum: 0.6764787435531616
time_elpased: 2.781
#iterations: 293
currently lose_sum: 0.686549961566925
time_elpased: 2.835
#iterations: 294
currently lose_sum: 0.6811074614524841
time_elpased: 2.792
#iterations: 295
currently lose_sum: 0.6923350691795349
time_elpased: 2.904
#iterations: 296
currently lose_sum: 0.6874141097068787
time_elpased: 3.289
#iterations: 297
currently lose_sum: 0.6998732089996338
time_elpased: 2.846
#iterations: 298
currently lose_sum: 0.6914634704589844
time_elpased: 2.734
#iterations: 299
currently lose_sum: 0.6796823143959045
time_elpased: 2.741
start validation test
0.53
0.528405620037
0.682176656151
0.595524956971
0.527776639764
17.256
#iterations: 300
currently lose_sum: 0.6825780272483826
time_elpased: 3.16
#iterations: 301
currently lose_sum: 0.6980729699134827
time_elpased: 2.737
#iterations: 302
currently lose_sum: 0.6965675950050354
time_elpased: 2.707
#iterations: 303
currently lose_sum: 0.6779569387435913
time_elpased: 2.776
#iterations: 304
currently lose_sum: 0.6838744282722473
time_elpased: 2.758
#iterations: 305
currently lose_sum: 0.6997411251068115
time_elpased: 2.952
#iterations: 306
currently lose_sum: 0.6930297017097473
time_elpased: 2.746
#iterations: 307
currently lose_sum: 0.7019039392471313
time_elpased: 2.883
#iterations: 308
currently lose_sum: 0.7005769610404968
time_elpased: 2.856
#iterations: 309
currently lose_sum: 0.6640265583992004
time_elpased: 2.767
#iterations: 310
currently lose_sum: 0.7060306072235107
time_elpased: 2.777
#iterations: 311
currently lose_sum: 0.6989139318466187
time_elpased: 3.077
#iterations: 312
currently lose_sum: 0.6963191032409668
time_elpased: 2.801
#iterations: 313
currently lose_sum: 0.6825311183929443
time_elpased: 2.776
#iterations: 314
currently lose_sum: 0.6730441451072693
time_elpased: 2.765
#iterations: 315
currently lose_sum: 0.688302755355835
time_elpased: 2.762
#iterations: 316
currently lose_sum: 0.703631579875946
time_elpased: 2.789
#iterations: 317
currently lose_sum: 0.6918019652366638
time_elpased: 2.823
#iterations: 318
currently lose_sum: 0.673042893409729
time_elpased: 2.769
#iterations: 319
currently lose_sum: 0.6924822926521301
time_elpased: 2.889
start validation test
0.514
0.519051042416
0.569400630915
0.543061301241
0.513190575198
17.220
#iterations: 320
currently lose_sum: 0.6834423542022705
time_elpased: 2.879
#iterations: 321
currently lose_sum: 0.6887292265892029
time_elpased: 3.73
#iterations: 322
currently lose_sum: 0.6800299882888794
time_elpased: 2.791
#iterations: 323
currently lose_sum: 0.6942217946052551
time_elpased: 2.751
#iterations: 324
currently lose_sum: 0.6807935833930969
time_elpased: 2.746
#iterations: 325
currently lose_sum: 0.6750670075416565
time_elpased: 3.113
#iterations: 326
currently lose_sum: 0.6959579586982727
time_elpased: 2.748
#iterations: 327
currently lose_sum: 0.6819937825202942
time_elpased: 2.769
#iterations: 328
currently lose_sum: 0.6960980892181396
time_elpased: 3.171
#iterations: 329
currently lose_sum: 0.6922896504402161
time_elpased: 2.784
#iterations: 330
currently lose_sum: 0.6833999752998352
time_elpased: 2.796
#iterations: 331
currently lose_sum: 0.6907804608345032
time_elpased: 3.208
#iterations: 332
currently lose_sum: 0.6865098476409912
time_elpased: 3.16
#iterations: 333
currently lose_sum: 0.6771684288978577
time_elpased: 2.92
#iterations: 334
currently lose_sum: 0.687335729598999
time_elpased: 2.872
#iterations: 335
currently lose_sum: 0.6874185800552368
time_elpased: 2.91
#iterations: 336
currently lose_sum: 0.6827346682548523
time_elpased: 3.516
#iterations: 337
currently lose_sum: 0.6780782341957092
time_elpased: 2.792
#iterations: 338
currently lose_sum: 0.6815130710601807
time_elpased: 2.807
#iterations: 339
currently lose_sum: 0.6848686933517456
time_elpased: 2.888
start validation test
0.5312
0.532128514056
0.626971608833
0.57566980449
0.529800739481
17.219
#iterations: 340
currently lose_sum: 0.6714893579483032
time_elpased: 2.824
#iterations: 341
currently lose_sum: 0.6800346374511719
time_elpased: 3.117
#iterations: 342
currently lose_sum: 0.6650843620300293
time_elpased: 2.984
#iterations: 343
currently lose_sum: 0.6871441602706909
time_elpased: 2.776
#iterations: 344
currently lose_sum: 0.6736465692520142
time_elpased: 3.02
#iterations: 345
currently lose_sum: 0.6824368238449097
time_elpased: 2.756
#iterations: 346
currently lose_sum: 0.6779286861419678
time_elpased: 2.984
#iterations: 347
currently lose_sum: 0.6696813106536865
time_elpased: 3.748
#iterations: 348
currently lose_sum: 0.686733067035675
time_elpased: 2.843
#iterations: 349
currently lose_sum: 0.7060402631759644
time_elpased: 2.954
#iterations: 350
currently lose_sum: 0.6906421780586243
time_elpased: 2.816
#iterations: 351
currently lose_sum: 0.6910377740859985
time_elpased: 2.879
#iterations: 352
currently lose_sum: 0.6853596568107605
time_elpased: 2.968
#iterations: 353
currently lose_sum: 0.7035143971443176
time_elpased: 2.827
#iterations: 354
currently lose_sum: 0.6821382641792297
time_elpased: 2.725
#iterations: 355
currently lose_sum: 0.6742532849311829
time_elpased: 2.709
#iterations: 356
currently lose_sum: 0.6868054866790771
time_elpased: 2.783
#iterations: 357
currently lose_sum: 0.703019380569458
time_elpased: 2.809
#iterations: 358
currently lose_sum: 0.6932740807533264
time_elpased: 2.724
#iterations: 359
currently lose_sum: 0.6714386940002441
time_elpased: 2.747
start validation test
0.5296
0.54
0.489747634069
0.51364764268
0.530182258593
17.230
#iterations: 360
currently lose_sum: 0.6835136413574219
time_elpased: 2.797
#iterations: 361
currently lose_sum: 0.6950936317443848
time_elpased: 2.887
#iterations: 362
currently lose_sum: 0.7183259725570679
time_elpased: 2.794
#iterations: 363
currently lose_sum: 0.684979259967804
time_elpased: 2.807
#iterations: 364
currently lose_sum: 0.6757416725158691
time_elpased: 2.755
#iterations: 365
currently lose_sum: 0.6970204710960388
time_elpased: 2.865
#iterations: 366
currently lose_sum: 0.6722447276115417
time_elpased: 2.803
#iterations: 367
currently lose_sum: 0.7021489143371582
time_elpased: 2.758
#iterations: 368
currently lose_sum: 0.683830738067627
time_elpased: 2.762
#iterations: 369
currently lose_sum: 0.6787067651748657
time_elpased: 2.819
#iterations: 370
currently lose_sum: 0.6793887615203857
time_elpased: 2.767
#iterations: 371
currently lose_sum: 0.6965091228485107
time_elpased: 2.855
#iterations: 372
currently lose_sum: 0.6840450763702393
time_elpased: 3.283
#iterations: 373
currently lose_sum: 0.6713350415229797
time_elpased: 2.801
#iterations: 374
currently lose_sum: 0.6799076795578003
time_elpased: 3.12
#iterations: 375
currently lose_sum: 0.6832910776138306
time_elpased: 2.755
#iterations: 376
currently lose_sum: 0.6738907098770142
time_elpased: 2.868
#iterations: 377
currently lose_sum: 0.6728416681289673
time_elpased: 2.757
#iterations: 378
currently lose_sum: 0.681842029094696
time_elpased: 2.874
#iterations: 379
currently lose_sum: 0.6902429461479187
time_elpased: 2.779
start validation test
0.5304
0.536153846154
0.549684542587
0.542834890966
0.530118245319
17.212
#iterations: 380
currently lose_sum: 0.7050821185112
time_elpased: 2.822
#iterations: 381
currently lose_sum: 0.6857514381408691
time_elpased: 2.801
#iterations: 382
currently lose_sum: 0.6805731058120728
time_elpased: 2.923
#iterations: 383
currently lose_sum: 0.6828174591064453
time_elpased: 2.952
#iterations: 384
currently lose_sum: 0.6927221417427063
time_elpased: 2.775
#iterations: 385
currently lose_sum: 0.6948364973068237
time_elpased: 2.764
#iterations: 386
currently lose_sum: 0.6980715990066528
time_elpased: 2.787
#iterations: 387
currently lose_sum: 0.6877774000167847
time_elpased: 2.811
#iterations: 388
currently lose_sum: 0.7000370621681213
time_elpased: 3.118
#iterations: 389
currently lose_sum: 0.6822640895843506
time_elpased: 2.761
#iterations: 390
currently lose_sum: 0.6804080009460449
time_elpased: 2.994
#iterations: 391
currently lose_sum: 0.6915735602378845
time_elpased: 3.63
#iterations: 392
currently lose_sum: 0.7026647329330444
time_elpased: 3.054
#iterations: 393
currently lose_sum: 0.6810321807861328
time_elpased: 2.879
#iterations: 394
currently lose_sum: 0.6787261366844177
time_elpased: 2.993
#iterations: 395
currently lose_sum: 0.6799092292785645
time_elpased: 2.753
#iterations: 396
currently lose_sum: 0.6890995502471924
time_elpased: 2.733
#iterations: 397
currently lose_sum: 0.6824762225151062
time_elpased: 2.791
#iterations: 398
currently lose_sum: 0.6775210499763489
time_elpased: 2.787
#iterations: 399
currently lose_sum: 0.6769599914550781
time_elpased: 5.324
start validation test
0.5288
0.525655644242
0.727129337539
0.610191925877
0.525902331107
17.219
#iterations: 400
currently lose_sum: 0.6895983815193176
time_elpased: 2.886
#iterations: 401
currently lose_sum: 0.6896165609359741
time_elpased: 2.757
#iterations: 402
currently lose_sum: 0.6653979420661926
time_elpased: 2.981
#iterations: 403
currently lose_sum: 0.6917426586151123
time_elpased: 2.797
#iterations: 404
currently lose_sum: 0.6910809278488159
time_elpased: 2.765
#iterations: 405
currently lose_sum: 0.6921802759170532
time_elpased: 2.965
#iterations: 406
currently lose_sum: 0.6692655086517334
time_elpased: 3.352
#iterations: 407
currently lose_sum: 0.6961116194725037
time_elpased: 2.888
#iterations: 408
currently lose_sum: 0.6810259222984314
time_elpased: 2.983
#iterations: 409
currently lose_sum: 0.6815565228462219
time_elpased: 2.806
#iterations: 410
currently lose_sum: 0.6956793069839478
time_elpased: 2.807
#iterations: 411
currently lose_sum: 0.6741032600402832
time_elpased: 2.889
#iterations: 412
currently lose_sum: 0.6869310736656189
time_elpased: 3.003
#iterations: 413
currently lose_sum: 0.6871811151504517
time_elpased: 2.76
#iterations: 414
currently lose_sum: 0.6848362684249878
time_elpased: 3.206
#iterations: 415
currently lose_sum: 0.6845752000808716
time_elpased: 2.763
#iterations: 416
currently lose_sum: 0.6914098262786865
time_elpased: 3.228
#iterations: 417
currently lose_sum: 0.6897119879722595
time_elpased: 2.793
#iterations: 418
currently lose_sum: 0.6948278546333313
time_elpased: 2.84
#iterations: 419
currently lose_sum: 0.6799558997154236
time_elpased: 2.851
start validation test
0.5372
0.639798488665
0.200315457413
0.305105105105
0.542122014421
17.313
#iterations: 420
currently lose_sum: 0.6879534721374512
time_elpased: 2.793
#iterations: 421
currently lose_sum: 0.68317711353302
time_elpased: 2.794
#iterations: 422
currently lose_sum: 0.6892620921134949
time_elpased: 2.753
#iterations: 423
currently lose_sum: 0.6818645000457764
time_elpased: 2.775
#iterations: 424
currently lose_sum: 0.6859506964683533
time_elpased: 2.74
#iterations: 425
currently lose_sum: 0.6695810556411743
time_elpased: 2.93
#iterations: 426
currently lose_sum: 0.6790629029273987
time_elpased: 2.812
#iterations: 427
currently lose_sum: 0.697817325592041
time_elpased: 2.8
#iterations: 428
currently lose_sum: 0.6947770714759827
time_elpased: 2.845
#iterations: 429
currently lose_sum: 0.6601617336273193
time_elpased: 2.801
#iterations: 430
currently lose_sum: 0.7017363905906677
time_elpased: 2.805
#iterations: 431
currently lose_sum: 0.6829095482826233
time_elpased: 2.888
#iterations: 432
currently lose_sum: 0.699860155582428
time_elpased: 2.82
#iterations: 433
currently lose_sum: 0.6855905055999756
time_elpased: 2.805
#iterations: 434
currently lose_sum: 0.6761355400085449
time_elpased: 3.136
#iterations: 435
currently lose_sum: 0.6669194102287292
time_elpased: 3.139
#iterations: 436
currently lose_sum: 0.6800207495689392
time_elpased: 2.831
#iterations: 437
currently lose_sum: 0.6920015215873718
time_elpased: 2.811
#iterations: 438
currently lose_sum: 0.6747580170631409
time_elpased: 3.119
#iterations: 439
currently lose_sum: 0.6772223711013794
time_elpased: 2.8
start validation test
0.5352
0.532756489493
0.679810725552
0.597366597367
0.533087180958
17.203
#iterations: 440
currently lose_sum: 0.6656112670898438
time_elpased: 2.882
#iterations: 441
currently lose_sum: 0.6941480040550232
time_elpased: 2.764
#iterations: 442
currently lose_sum: 0.6643263101577759
time_elpased: 2.966
#iterations: 443
currently lose_sum: 0.7006875872612
time_elpased: 2.879
#iterations: 444
currently lose_sum: 0.6776515245437622
time_elpased: 2.756
#iterations: 445
currently lose_sum: 0.6729836463928223
time_elpased: 2.782
#iterations: 446
currently lose_sum: 0.7048135995864868
time_elpased: 2.819
#iterations: 447
currently lose_sum: 0.6913195848464966
time_elpased: 2.782
#iterations: 448
currently lose_sum: 0.6896669268608093
time_elpased: 2.768
#iterations: 449
currently lose_sum: 0.668043315410614
time_elpased: 2.893
#iterations: 450
currently lose_sum: 0.6687006950378418
time_elpased: 2.747
#iterations: 451
currently lose_sum: 0.6812217831611633
time_elpased: 2.736
#iterations: 452
currently lose_sum: 0.6661550402641296
time_elpased: 2.732
#iterations: 453
currently lose_sum: 0.6834499835968018
time_elpased: 3.108
#iterations: 454
currently lose_sum: 0.6765504479408264
time_elpased: 2.777
#iterations: 455
currently lose_sum: 0.6939414739608765
time_elpased: 2.796
#iterations: 456
currently lose_sum: 0.6760343909263611
time_elpased: 2.777
#iterations: 457
currently lose_sum: 0.6936143636703491
time_elpased: 3.209
#iterations: 458
currently lose_sum: 0.6810833215713501
time_elpased: 2.797
#iterations: 459
currently lose_sum: 0.6906001567840576
time_elpased: 2.782
start validation test
0.524
0.536044362292
0.457413249211
0.493617021277
0.524972858372
17.234
#iterations: 460
currently lose_sum: 0.6901318430900574
time_elpased: 2.792
#iterations: 461
currently lose_sum: 0.6844964027404785
time_elpased: 2.783
#iterations: 462
currently lose_sum: 0.6849705576896667
time_elpased: 2.799
#iterations: 463
currently lose_sum: 0.701686680316925
time_elpased: 2.73
#iterations: 464
currently lose_sum: 0.6793798208236694
time_elpased: 2.755
#iterations: 465
currently lose_sum: 0.6734089851379395
time_elpased: 2.744
#iterations: 466
currently lose_sum: 0.6895958781242371
time_elpased: 3.382
#iterations: 467
currently lose_sum: 0.7094592452049255
time_elpased: 2.913
#iterations: 468
currently lose_sum: 0.6949318051338196
time_elpased: 2.761
#iterations: 469
currently lose_sum: 0.6969518065452576
time_elpased: 2.903
#iterations: 470
currently lose_sum: 0.7216101884841919
time_elpased: 2.701
#iterations: 471
currently lose_sum: 0.684562087059021
time_elpased: 2.732
#iterations: 472
currently lose_sum: 0.6707659959793091
time_elpased: 2.764
#iterations: 473
currently lose_sum: 0.7022318840026855
time_elpased: 2.784
#iterations: 474
currently lose_sum: 0.6864944696426392
time_elpased: 2.781
#iterations: 475
currently lose_sum: 0.6887850165367126
time_elpased: 2.908
#iterations: 476
currently lose_sum: 0.6815471649169922
time_elpased: 2.712
#iterations: 477
currently lose_sum: 0.6848129034042358
time_elpased: 2.892
#iterations: 478
currently lose_sum: 0.6828152537345886
time_elpased: 2.769
#iterations: 479
currently lose_sum: 0.6828823685646057
time_elpased: 2.769
start validation test
0.5384
0.627802690583
0.220820189274
0.326721120187
0.543039964767
17.364
#iterations: 480
currently lose_sum: 0.6736326813697815
time_elpased: 3.268
#iterations: 481
currently lose_sum: 0.685866117477417
time_elpased: 2.912
#iterations: 482
currently lose_sum: 0.6850419044494629
time_elpased: 2.803
#iterations: 483
currently lose_sum: 0.6846449375152588
time_elpased: 2.847
#iterations: 484
currently lose_sum: 0.6967534422874451
time_elpased: 2.744
#iterations: 485
currently lose_sum: 0.6813256740570068
time_elpased: 2.743
#iterations: 486
currently lose_sum: 0.6646861433982849
time_elpased: 2.874
#iterations: 487
currently lose_sum: 0.6834433078765869
time_elpased: 2.753
#iterations: 488
currently lose_sum: 0.6750781536102295
time_elpased: 2.763
#iterations: 489
currently lose_sum: 0.6882796287536621
time_elpased: 2.868
#iterations: 490
currently lose_sum: 0.6748981475830078
time_elpased: 2.786
#iterations: 491
currently lose_sum: 0.6818980574607849
time_elpased: 2.77
#iterations: 492
currently lose_sum: 0.6881768703460693
time_elpased: 2.755
#iterations: 493
currently lose_sum: 0.6858633160591125
time_elpased: 2.768
#iterations: 494
currently lose_sum: 0.6913403272628784
time_elpased: 3.029
#iterations: 495
currently lose_sum: 0.6776273846626282
time_elpased: 2.836
#iterations: 496
currently lose_sum: 0.6752499341964722
time_elpased: 2.73
#iterations: 497
currently lose_sum: 0.6696452498435974
time_elpased: 3.062
#iterations: 498
currently lose_sum: 0.675344705581665
time_elpased: 2.693
#iterations: 499
currently lose_sum: 0.6909570097923279
time_elpased: 2.729
start validation test
0.5292
0.52341739578
0.802050473186
0.633447524136
0.525213548281
17.292
#iterations: 500
currently lose_sum: 0.6801572442054749
time_elpased: 2.72
#iterations: 501
currently lose_sum: 0.6802138686180115
time_elpased: 2.722
#iterations: 502
currently lose_sum: 0.6871220469474792
time_elpased: 2.72
#iterations: 503
currently lose_sum: 0.6840553283691406
time_elpased: 3.127
#iterations: 504
currently lose_sum: 0.6918383836746216
time_elpased: 2.863
#iterations: 505
currently lose_sum: 0.6769787073135376
time_elpased: 2.762
#iterations: 506
currently lose_sum: 0.6918056607246399
time_elpased: 2.772
#iterations: 507
currently lose_sum: 0.6909022331237793
time_elpased: 2.748
#iterations: 508
currently lose_sum: 0.6794946193695068
time_elpased: 3.018
#iterations: 509
currently lose_sum: 0.7098031044006348
time_elpased: 2.717
#iterations: 510
currently lose_sum: 0.6789302825927734
time_elpased: 2.702
#iterations: 511
currently lose_sum: 0.6755771040916443
time_elpased: 2.997
#iterations: 512
currently lose_sum: 0.6784319877624512
time_elpased: 2.698
#iterations: 513
currently lose_sum: 0.6914569139480591
time_elpased: 2.736
#iterations: 514
currently lose_sum: 0.6896263360977173
time_elpased: 3.002
#iterations: 515
currently lose_sum: 0.6809302568435669
time_elpased: 2.738
#iterations: 516
currently lose_sum: 0.6828229427337646
time_elpased: 2.764
#iterations: 517
currently lose_sum: 0.6654965281486511
time_elpased: 2.723
#iterations: 518
currently lose_sum: 0.6746697425842285
time_elpased: 2.691
#iterations: 519
currently lose_sum: 0.6848964095115662
time_elpased: 2.678
start validation test
0.5336
0.560283687943
0.3738170347
0.44843897824
0.535934491376
17.257
#iterations: 520
currently lose_sum: 0.7160249352455139
time_elpased: 2.735
#iterations: 521
currently lose_sum: 0.6783024668693542
time_elpased: 2.734
#iterations: 522
currently lose_sum: 0.6694321632385254
time_elpased: 2.721
#iterations: 523
currently lose_sum: 0.6897689700126648
time_elpased: 2.744
#iterations: 524
currently lose_sum: 0.6781607866287231
time_elpased: 2.743
#iterations: 525
currently lose_sum: 0.6953586339950562
time_elpased: 2.836
#iterations: 526
currently lose_sum: 0.6925260424613953
time_elpased: 2.834
#iterations: 527
currently lose_sum: 0.7051122188568115
time_elpased: 2.975
#iterations: 528
currently lose_sum: 0.6863278150558472
time_elpased: 2.715
#iterations: 529
currently lose_sum: 0.6859561800956726
time_elpased: 3.526
#iterations: 530
currently lose_sum: 0.6670827269554138
time_elpased: 3.547
#iterations: 531
currently lose_sum: 0.6933577060699463
time_elpased: 3.081
#iterations: 532
currently lose_sum: 0.6697058081626892
time_elpased: 2.981
#iterations: 533
currently lose_sum: 0.6707344651222229
time_elpased: 2.739
#iterations: 534
currently lose_sum: 0.6696684956550598
time_elpased: 2.746
#iterations: 535
currently lose_sum: 0.6939333081245422
time_elpased: 2.722
#iterations: 536
currently lose_sum: 0.6866977214813232
time_elpased: 2.793
#iterations: 537
currently lose_sum: 0.6756637096405029
time_elpased: 2.879
#iterations: 538
currently lose_sum: 0.6783492565155029
time_elpased: 4.326
#iterations: 539
currently lose_sum: 0.6843917965888977
time_elpased: 2.766
start validation test
0.5348
0.539622641509
0.563880126183
0.55148476668
0.534375128027
17.259
#iterations: 540
currently lose_sum: 0.66991126537323
time_elpased: 2.749
#iterations: 541
currently lose_sum: 0.692290186882019
time_elpased: 3.257
#iterations: 542
currently lose_sum: 0.6886915564537048
time_elpased: 2.857
#iterations: 543
currently lose_sum: 0.7116669416427612
time_elpased: 3.006
#iterations: 544
currently lose_sum: 0.6846977472305298
time_elpased: 2.743
#iterations: 545
currently lose_sum: 0.6772716641426086
time_elpased: 2.735
#iterations: 546
currently lose_sum: 0.6726511120796204
time_elpased: 3.113
#iterations: 547
currently lose_sum: 0.6851933002471924
time_elpased: 2.932
#iterations: 548
currently lose_sum: 0.7150498032569885
time_elpased: 2.713
#iterations: 549
currently lose_sum: 0.6646460890769958
time_elpased: 2.706
#iterations: 550
currently lose_sum: 0.6909843683242798
time_elpased: 3.103
#iterations: 551
currently lose_sum: 0.6845961213111877
time_elpased: 2.675
#iterations: 552
currently lose_sum: 0.685960054397583
time_elpased: 2.711
#iterations: 553
currently lose_sum: 0.6798408031463623
time_elpased: 2.73
#iterations: 554
currently lose_sum: 0.6954290866851807
time_elpased: 2.709
#iterations: 555
currently lose_sum: 0.6818258762359619
time_elpased: 2.689
#iterations: 556
currently lose_sum: 0.6756590008735657
time_elpased: 3.289
#iterations: 557
currently lose_sum: 0.6860544085502625
time_elpased: 2.936
#iterations: 558
currently lose_sum: 0.6635167002677917
time_elpased: 2.726
#iterations: 559
currently lose_sum: 0.6923471093177795
time_elpased: 2.694
start validation test
0.5292
0.552359033372
0.378548895899
0.449227889565
0.531401071326
17.247
#iterations: 560
currently lose_sum: 0.6984775066375732
time_elpased: 2.758
#iterations: 561
currently lose_sum: 0.6814950704574585
time_elpased: 2.861
#iterations: 562
currently lose_sum: 0.6771582961082458
time_elpased: 2.7
#iterations: 563
currently lose_sum: 0.6862970590591431
time_elpased: 2.698
#iterations: 564
currently lose_sum: 0.6914312839508057
time_elpased: 3.22
#iterations: 565
currently lose_sum: 0.6780272126197815
time_elpased: 2.762
#iterations: 566
currently lose_sum: 0.6808264255523682
time_elpased: 2.708
#iterations: 567
currently lose_sum: 0.681164562702179
time_elpased: 2.698
#iterations: 568
currently lose_sum: 0.7033317685127258
time_elpased: 2.716
#iterations: 569
currently lose_sum: 0.697916567325592
time_elpased: 2.704
#iterations: 570
currently lose_sum: 0.6920282244682312
time_elpased: 2.69
#iterations: 571
currently lose_sum: 0.6942825317382812
time_elpased: 2.699
#iterations: 572
currently lose_sum: 0.6904380917549133
time_elpased: 2.773
#iterations: 573
currently lose_sum: 0.67339026927948
time_elpased: 2.746
#iterations: 574
currently lose_sum: 0.7013872265815735
time_elpased: 3.016
#iterations: 575
currently lose_sum: 0.6943922638893127
time_elpased: 2.739
#iterations: 576
currently lose_sum: 0.6757839918136597
time_elpased: 2.865
#iterations: 577
currently lose_sum: 0.664951503276825
time_elpased: 2.794
#iterations: 578
currently lose_sum: 0.6762641668319702
time_elpased: 2.734
#iterations: 579
currently lose_sum: 0.6477794051170349
time_elpased: 3.688
start validation test
0.5356
0.575035063114
0.32334384858
0.413932357395
0.538701145069
17.310
#iterations: 580
currently lose_sum: 0.6776974201202393
time_elpased: 2.73
#iterations: 581
currently lose_sum: 0.6899807453155518
time_elpased: 2.728
#iterations: 582
currently lose_sum: 0.6733736991882324
time_elpased: 3.257
#iterations: 583
currently lose_sum: 0.6796234250068665
time_elpased: 2.706
#iterations: 584
currently lose_sum: 0.6976343393325806
time_elpased: 3.418
#iterations: 585
currently lose_sum: 0.6729519367218018
time_elpased: 3.395
#iterations: 586
currently lose_sum: 0.7050129771232605
time_elpased: 2.721
#iterations: 587
currently lose_sum: 0.6789407134056091
time_elpased: 2.773
#iterations: 588
currently lose_sum: 0.6806885600090027
time_elpased: 2.945
#iterations: 589
currently lose_sum: 0.6767861843109131
time_elpased: 2.878
#iterations: 590
currently lose_sum: 0.6825147271156311
time_elpased: 3.014
#iterations: 591
currently lose_sum: 0.7004867792129517
time_elpased: 2.793
#iterations: 592
currently lose_sum: 0.6948254108428955
time_elpased: 2.799
#iterations: 593
currently lose_sum: 0.688387930393219
time_elpased: 2.772
#iterations: 594
currently lose_sum: 0.6925804018974304
time_elpased: 2.791
#iterations: 595
currently lose_sum: 0.6742196679115295
time_elpased: 2.856
#iterations: 596
currently lose_sum: 0.6781535148620605
time_elpased: 2.796
#iterations: 597
currently lose_sum: 0.6760624647140503
time_elpased: 2.799
#iterations: 598
currently lose_sum: 0.6762954592704773
time_elpased: 3.127
#iterations: 599
currently lose_sum: 0.6737368702888489
time_elpased: 3.195
start validation test
0.5336
0.553459119497
0.416403785489
0.475247524752
0.535312282355
17.245
acc: 0.541
pre: 0.536
rec: 0.703
F1: 0.608
auc: 0.538
