start to construct computing graph
graph construct over
3802
epochs start
#iterations: 0
currently lose_sum: 0.6967904567718506
time_elpased: 4.484
#iterations: 1
currently lose_sum: 0.6934610605239868
time_elpased: 3.958
#iterations: 2
currently lose_sum: 0.6921953558921814
time_elpased: 4.217
#iterations: 3
currently lose_sum: 0.6959046721458435
time_elpased: 4.224
#iterations: 4
currently lose_sum: 0.6931148767471313
time_elpased: 5.412
#iterations: 5
currently lose_sum: 0.6934902667999268
time_elpased: 3.997
#iterations: 6
currently lose_sum: 0.6909370422363281
time_elpased: 4.644
#iterations: 7
currently lose_sum: 0.6904416084289551
time_elpased: 3.927
#iterations: 8
currently lose_sum: 0.6919795274734497
time_elpased: 3.879
#iterations: 9
currently lose_sum: 0.6933139562606812
time_elpased: 4.492
#iterations: 10
currently lose_sum: 0.6930691599845886
time_elpased: 3.978
#iterations: 11
currently lose_sum: 0.6907994151115417
time_elpased: 3.987
#iterations: 12
currently lose_sum: 0.6918407678604126
time_elpased: 4.033
#iterations: 13
currently lose_sum: 0.6927160620689392
time_elpased: 3.97
#iterations: 14
currently lose_sum: 0.6911731958389282
time_elpased: 4.015
#iterations: 15
currently lose_sum: 0.6925714015960693
time_elpased: 3.938
#iterations: 16
currently lose_sum: 0.6922509670257568
time_elpased: 3.932
#iterations: 17
currently lose_sum: 0.6953036785125732
time_elpased: 4.034
#iterations: 18
currently lose_sum: 0.6891526579856873
time_elpased: 4.148
#iterations: 19
currently lose_sum: 0.6932724714279175
time_elpased: 3.968
start validation test
0.5092
0.514801444043
0.562302839117
0.537504711647
0.508424146831
17.298
#iterations: 20
currently lose_sum: 0.6939001679420471
time_elpased: 3.522
#iterations: 21
currently lose_sum: 0.6913752555847168
time_elpased: 2.804
#iterations: 22
currently lose_sum: 0.6899694800376892
time_elpased: 3.07
#iterations: 23
currently lose_sum: 0.6919002532958984
time_elpased: 2.886
#iterations: 24
currently lose_sum: 0.6893159747123718
time_elpased: 3.025
#iterations: 25
currently lose_sum: 0.6924369931221008
time_elpased: 2.721
#iterations: 26
currently lose_sum: 0.6911842226982117
time_elpased: 2.734
#iterations: 27
currently lose_sum: 0.6918765306472778
time_elpased: 2.735
#iterations: 28
currently lose_sum: 0.6892500519752502
time_elpased: 2.735
#iterations: 29
currently lose_sum: 0.692762017250061
time_elpased: 2.712
#iterations: 30
currently lose_sum: 0.6912910342216492
time_elpased: 2.81
#iterations: 31
currently lose_sum: 0.6912702918052673
time_elpased: 2.731
#iterations: 32
currently lose_sum: 0.6900427937507629
time_elpased: 2.796
#iterations: 33
currently lose_sum: 0.6887449622154236
time_elpased: 2.747
#iterations: 34
currently lose_sum: 0.692643404006958
time_elpased: 2.736
#iterations: 35
currently lose_sum: 0.6938549876213074
time_elpased: 2.723
#iterations: 36
currently lose_sum: 0.7043440341949463
time_elpased: 2.724
#iterations: 37
currently lose_sum: 0.694318950176239
time_elpased: 2.72
#iterations: 38
currently lose_sum: 0.6903143525123596
time_elpased: 2.727
#iterations: 39
currently lose_sum: 0.6955800652503967
time_elpased: 2.714
start validation test
0.524
0.519637462236
0.813880126183
0.634296250768
0.519764738416
17.287
#iterations: 40
currently lose_sum: 0.6878323554992676
time_elpased: 2.713
#iterations: 41
currently lose_sum: 0.6928612589836121
time_elpased: 2.696
#iterations: 42
currently lose_sum: 0.7001481652259827
time_elpased: 2.718
#iterations: 43
currently lose_sum: 0.6901634931564331
time_elpased: 3.604
#iterations: 44
currently lose_sum: 0.6941330432891846
time_elpased: 2.789
#iterations: 45
currently lose_sum: 0.6881242394447327
time_elpased: 3.167
#iterations: 46
currently lose_sum: 0.6881125569343567
time_elpased: 2.759
#iterations: 47
currently lose_sum: 0.6963204741477966
time_elpased: 2.797
#iterations: 48
currently lose_sum: 0.6784393191337585
time_elpased: 2.783
#iterations: 49
currently lose_sum: 0.6907556653022766
time_elpased: 2.777
#iterations: 50
currently lose_sum: 0.6959303021430969
time_elpased: 3.331
#iterations: 51
currently lose_sum: 0.6989624500274658
time_elpased: 2.812
#iterations: 52
currently lose_sum: 0.6871528625488281
time_elpased: 2.788
#iterations: 53
currently lose_sum: 0.6926760673522949
time_elpased: 2.784
#iterations: 54
currently lose_sum: 0.6924768090248108
time_elpased: 2.763
#iterations: 55
currently lose_sum: 0.6901748776435852
time_elpased: 2.731
#iterations: 56
currently lose_sum: 0.6944111585617065
time_elpased: 2.758
#iterations: 57
currently lose_sum: 0.6818221807479858
time_elpased: 2.885
#iterations: 58
currently lose_sum: 0.6948333978652954
time_elpased: 3.428
#iterations: 59
currently lose_sum: 0.691937267780304
time_elpased: 3.195
start validation test
0.5172
0.719424460432
0.0788643533123
0.142146410803
0.523604254578
17.360
#iterations: 60
currently lose_sum: 0.6927142143249512
time_elpased: 2.77
#iterations: 61
currently lose_sum: 0.6870763897895813
time_elpased: 2.719
#iterations: 62
currently lose_sum: 0.6927441954612732
time_elpased: 2.751
#iterations: 63
currently lose_sum: 0.6857127547264099
time_elpased: 2.752
#iterations: 64
currently lose_sum: 0.6894868612289429
time_elpased: 2.77
#iterations: 65
currently lose_sum: 0.6907823085784912
time_elpased: 2.742
#iterations: 66
currently lose_sum: 0.693625807762146
time_elpased: 2.793
#iterations: 67
currently lose_sum: 0.6988906860351562
time_elpased: 2.741
#iterations: 68
currently lose_sum: 0.6920983195304871
time_elpased: 2.752
#iterations: 69
currently lose_sum: 0.6828618049621582
time_elpased: 2.733
#iterations: 70
currently lose_sum: 0.6946395635604858
time_elpased: 2.72
#iterations: 71
currently lose_sum: 0.6920927166938782
time_elpased: 3.004
#iterations: 72
currently lose_sum: 0.6903591752052307
time_elpased: 2.776
#iterations: 73
currently lose_sum: 0.6898550391197205
time_elpased: 3.119
#iterations: 74
currently lose_sum: 0.6962428092956543
time_elpased: 2.722
#iterations: 75
currently lose_sum: 0.6885961890220642
time_elpased: 2.764
#iterations: 76
currently lose_sum: 0.6879010200500488
time_elpased: 4.029
#iterations: 77
currently lose_sum: 0.6893007159233093
time_elpased: 2.705
#iterations: 78
currently lose_sum: 0.6927180290222168
time_elpased: 2.88
#iterations: 79
currently lose_sum: 0.6877527832984924
time_elpased: 2.734
start validation test
0.522
0.602816901408
0.168769716088
0.26370918053
0.52716083207
17.328
#iterations: 80
currently lose_sum: 0.6910316944122314
time_elpased: 2.903
#iterations: 81
currently lose_sum: 0.689902126789093
time_elpased: 3.329
#iterations: 82
currently lose_sum: 0.684266984462738
time_elpased: 2.659
#iterations: 83
currently lose_sum: 0.6940757036209106
time_elpased: 2.677
#iterations: 84
currently lose_sum: 0.6674215197563171
time_elpased: 2.638
#iterations: 85
currently lose_sum: 0.6949124336242676
time_elpased: 2.68
#iterations: 86
currently lose_sum: 0.691862165927887
time_elpased: 2.838
#iterations: 87
currently lose_sum: 0.7040061950683594
time_elpased: 2.724
#iterations: 88
currently lose_sum: 0.6996761560440063
time_elpased: 2.686
#iterations: 89
currently lose_sum: 0.6951372623443604
time_elpased: 2.681
#iterations: 90
currently lose_sum: 0.6821322441101074
time_elpased: 2.837
#iterations: 91
currently lose_sum: 0.6906244158744812
time_elpased: 2.673
#iterations: 92
currently lose_sum: 0.688850462436676
time_elpased: 2.667
#iterations: 93
currently lose_sum: 0.6931025981903076
time_elpased: 2.705
#iterations: 94
currently lose_sum: 0.6896988153457642
time_elpased: 2.682
#iterations: 95
currently lose_sum: 0.6820496320724487
time_elpased: 2.889
#iterations: 96
currently lose_sum: 0.6798962950706482
time_elpased: 2.96
#iterations: 97
currently lose_sum: 0.6890308856964111
time_elpased: 2.72
#iterations: 98
currently lose_sum: 0.6898312568664551
time_elpased: 2.734
#iterations: 99
currently lose_sum: 0.6892578601837158
time_elpased: 2.705
start validation test
0.5132
0.514398644833
0.718454258675
0.599539322145
0.510201155312
17.253
#iterations: 100
currently lose_sum: 0.6982746124267578
time_elpased: 2.815
#iterations: 101
currently lose_sum: 0.6884386539459229
time_elpased: 2.735
#iterations: 102
currently lose_sum: 0.6830264329910278
time_elpased: 2.75
#iterations: 103
currently lose_sum: 0.7097627520561218
time_elpased: 2.723
#iterations: 104
currently lose_sum: 0.6754006743431091
time_elpased: 2.854
#iterations: 105
currently lose_sum: 0.7051129341125488
time_elpased: 2.72
#iterations: 106
currently lose_sum: 0.683305025100708
time_elpased: 2.748
#iterations: 107
currently lose_sum: 0.6863948106765747
time_elpased: 2.974
#iterations: 108
currently lose_sum: 0.6924943327903748
time_elpased: 2.785
#iterations: 109
currently lose_sum: 0.7070227265357971
time_elpased: 2.765
#iterations: 110
currently lose_sum: 0.6905781626701355
time_elpased: 2.748
#iterations: 111
currently lose_sum: 0.6916904449462891
time_elpased: 2.787
#iterations: 112
currently lose_sum: 0.6828954219818115
time_elpased: 2.748
#iterations: 113
currently lose_sum: 0.6881341338157654
time_elpased: 2.886
#iterations: 114
currently lose_sum: 0.7047197222709656
time_elpased: 2.769
#iterations: 115
currently lose_sum: 0.6738936901092529
time_elpased: 2.738
#iterations: 116
currently lose_sum: 0.6887047290802002
time_elpased: 2.718
#iterations: 117
currently lose_sum: 0.7019151449203491
time_elpased: 2.709
#iterations: 118
currently lose_sum: 0.6876062154769897
time_elpased: 3.231
#iterations: 119
currently lose_sum: 0.6889277696609497
time_elpased: 2.816
start validation test
0.526
0.558041958042
0.314668769716
0.402420574887
0.529087631611
17.279
#iterations: 120
currently lose_sum: 0.6918797492980957
time_elpased: 2.953
#iterations: 121
currently lose_sum: 0.6967489719390869
time_elpased: 2.741
#iterations: 122
currently lose_sum: 0.683624804019928
time_elpased: 2.797
#iterations: 123
currently lose_sum: 0.6873323917388916
time_elpased: 2.763
#iterations: 124
currently lose_sum: 0.6902064681053162
time_elpased: 2.785
#iterations: 125
currently lose_sum: 0.6848063468933105
time_elpased: 3.462
#iterations: 126
currently lose_sum: 0.6935778856277466
time_elpased: 2.942
#iterations: 127
currently lose_sum: 0.6883851885795593
time_elpased: 2.765
#iterations: 128
currently lose_sum: 0.6809066534042358
time_elpased: 2.777
#iterations: 129
currently lose_sum: 0.6834168434143066
time_elpased: 2.873
#iterations: 130
currently lose_sum: 0.7125707864761353
time_elpased: 2.759
#iterations: 131
currently lose_sum: 0.6817352175712585
time_elpased: 2.966
#iterations: 132
currently lose_sum: 0.6884850263595581
time_elpased: 2.75
#iterations: 133
currently lose_sum: 0.6915444731712341
time_elpased: 2.696
#iterations: 134
currently lose_sum: 0.6749429106712341
time_elpased: 2.752
#iterations: 135
currently lose_sum: 0.6866039037704468
time_elpased: 2.807
#iterations: 136
currently lose_sum: 0.6861482262611389
time_elpased: 2.723
#iterations: 137
currently lose_sum: 0.6847607493400574
time_elpased: 2.762
#iterations: 138
currently lose_sum: 0.6823916435241699
time_elpased: 2.766
#iterations: 139
currently lose_sum: 0.6713435649871826
time_elpased: 2.855
start validation test
0.516
0.537179487179
0.330441640379
0.4091796875
0.51871107993
17.286
#iterations: 140
currently lose_sum: 0.6771591305732727
time_elpased: 2.734
#iterations: 141
currently lose_sum: 0.6717708110809326
time_elpased: 2.746
#iterations: 142
currently lose_sum: 0.694247305393219
time_elpased: 2.893
#iterations: 143
currently lose_sum: 0.6721031069755554
time_elpased: 2.874
#iterations: 144
currently lose_sum: 0.6944081783294678
time_elpased: 2.801
#iterations: 145
currently lose_sum: 0.675980806350708
time_elpased: 2.854
#iterations: 146
currently lose_sum: 0.694887101650238
time_elpased: 2.948
#iterations: 147
currently lose_sum: 0.7041671872138977
time_elpased: 2.957
#iterations: 148
currently lose_sum: 0.6884479522705078
time_elpased: 2.689
#iterations: 149
currently lose_sum: 0.6931016445159912
time_elpased: 3.102
#iterations: 150
currently lose_sum: 0.6908286809921265
time_elpased: 2.68
#iterations: 151
currently lose_sum: 0.6766105890274048
time_elpased: 2.687
#iterations: 152
currently lose_sum: 0.6888143420219421
time_elpased: 2.642
#iterations: 153
currently lose_sum: 0.6841861009597778
time_elpased: 2.683
#iterations: 154
currently lose_sum: 0.6891597509384155
time_elpased: 2.764
#iterations: 155
currently lose_sum: 0.6972246766090393
time_elpased: 2.926
#iterations: 156
currently lose_sum: 0.6973700523376465
time_elpased: 2.679
#iterations: 157
currently lose_sum: 0.6885572671890259
time_elpased: 3.013
#iterations: 158
currently lose_sum: 0.695050060749054
time_elpased: 2.74
#iterations: 159
currently lose_sum: 0.6870667934417725
time_elpased: 3.313
start validation test
0.5272
0.528476821192
0.629337539432
0.574514038877
0.525707730755
17.241
#iterations: 160
currently lose_sum: 0.7045649886131287
time_elpased: 2.728
#iterations: 161
currently lose_sum: 0.6940960884094238
time_elpased: 3.607
#iterations: 162
currently lose_sum: 0.6941832900047302
time_elpased: 2.907
#iterations: 163
currently lose_sum: 0.6905432343482971
time_elpased: 3.602
#iterations: 164
currently lose_sum: 0.6806380748748779
time_elpased: 2.696
#iterations: 165
currently lose_sum: 0.6823598742485046
time_elpased: 2.678
#iterations: 166
currently lose_sum: 0.6968602538108826
time_elpased: 2.69
#iterations: 167
currently lose_sum: 0.6864163279533386
time_elpased: 2.981
#iterations: 168
currently lose_sum: 0.6894443035125732
time_elpased: 2.75
#iterations: 169
currently lose_sum: 0.6766248941421509
time_elpased: 2.685
#iterations: 170
currently lose_sum: 0.7067538499832153
time_elpased: 2.707
#iterations: 171
currently lose_sum: 0.7001827955245972
time_elpased: 2.711
#iterations: 172
currently lose_sum: 0.6862929463386536
time_elpased: 2.898
#iterations: 173
currently lose_sum: 0.6771957278251648
time_elpased: 2.804
#iterations: 174
currently lose_sum: 0.691252589225769
time_elpased: 2.781
#iterations: 175
currently lose_sum: 0.6972105503082275
time_elpased: 2.84
#iterations: 176
currently lose_sum: 0.6847581267356873
time_elpased: 2.713
#iterations: 177
currently lose_sum: 0.6983413696289062
time_elpased: 2.767
#iterations: 178
currently lose_sum: 0.6792795062065125
time_elpased: 2.728
#iterations: 179
currently lose_sum: 0.6916080713272095
time_elpased: 2.709
start validation test
0.5308
0.534197264219
0.585173501577
0.558524651863
0.530005581957
17.237
#iterations: 180
currently lose_sum: 0.6773228645324707
time_elpased: 2.714
#iterations: 181
currently lose_sum: 0.6816182732582092
time_elpased: 2.717
#iterations: 182
currently lose_sum: 0.7096484899520874
time_elpased: 2.842
#iterations: 183
currently lose_sum: 0.6915842294692993
time_elpased: 2.696
#iterations: 184
currently lose_sum: 0.6778338551521301
time_elpased: 3.214
#iterations: 185
currently lose_sum: 0.6738439798355103
time_elpased: 2.868
#iterations: 186
currently lose_sum: 0.6779131889343262
time_elpased: 2.762
#iterations: 187
currently lose_sum: 0.6817452907562256
time_elpased: 2.99
#iterations: 188
currently lose_sum: 0.6893226504325867
time_elpased: 3.385
#iterations: 189
currently lose_sum: 0.6846835613250732
time_elpased: 2.688
#iterations: 190
currently lose_sum: 0.685752272605896
time_elpased: 2.746
#iterations: 191
currently lose_sum: 0.6819500923156738
time_elpased: 3.111
#iterations: 192
currently lose_sum: 0.6956276893615723
time_elpased: 2.668
#iterations: 193
currently lose_sum: 0.6717271208763123
time_elpased: 2.752
#iterations: 194
currently lose_sum: 0.6859858632087708
time_elpased: 2.729
#iterations: 195
currently lose_sum: 0.6875180006027222
time_elpased: 2.755
#iterations: 196
currently lose_sum: 0.680696427822113
time_elpased: 2.744
#iterations: 197
currently lose_sum: 0.6935958862304688
time_elpased: 2.749
#iterations: 198
currently lose_sum: 0.6883578300476074
time_elpased: 2.725
#iterations: 199
currently lose_sum: 0.6717017889022827
time_elpased: 2.849
start validation test
0.5264
0.525862068966
0.673501577287
0.590594744122
0.524250788644
17.246
#iterations: 200
currently lose_sum: 0.6965084671974182
time_elpased: 3.444
#iterations: 201
currently lose_sum: 0.6830509901046753
time_elpased: 2.777
#iterations: 202
currently lose_sum: 0.6829359531402588
time_elpased: 2.769
#iterations: 203
currently lose_sum: 0.6704161167144775
time_elpased: 2.748
#iterations: 204
currently lose_sum: 0.6829496026039124
time_elpased: 2.735
#iterations: 205
currently lose_sum: 0.6790289282798767
time_elpased: 2.708
#iterations: 206
currently lose_sum: 0.6838096380233765
time_elpased: 2.713
#iterations: 207
currently lose_sum: 0.677385687828064
time_elpased: 2.738
#iterations: 208
currently lose_sum: 0.6898435950279236
time_elpased: 2.707
#iterations: 209
currently lose_sum: 0.6761698126792908
time_elpased: 2.778
#iterations: 210
currently lose_sum: 0.6772603392601013
time_elpased: 2.734
#iterations: 211
currently lose_sum: 0.6844958662986755
time_elpased: 2.747
#iterations: 212
currently lose_sum: 0.702925443649292
time_elpased: 2.725
#iterations: 213
currently lose_sum: 0.6863328814506531
time_elpased: 2.741
#iterations: 214
currently lose_sum: 0.6970533728599548
time_elpased: 3.086
#iterations: 215
currently lose_sum: 0.6841341257095337
time_elpased: 3.272
#iterations: 216
currently lose_sum: 0.6818433403968811
time_elpased: 2.688
#iterations: 217
currently lose_sum: 0.6809195876121521
time_elpased: 2.883
#iterations: 218
currently lose_sum: 0.6821202039718628
time_elpased: 2.7
#iterations: 219
currently lose_sum: 0.6929089426994324
time_elpased: 2.78
start validation test
0.5308
0.537848605578
0.532334384858
0.535077288942
0.530777582039
17.248
#iterations: 220
currently lose_sum: 0.6839576959609985
time_elpased: 2.754
#iterations: 221
currently lose_sum: 0.6950502991676331
time_elpased: 3.08
#iterations: 222
currently lose_sum: 0.6979109048843384
time_elpased: 2.947
#iterations: 223
currently lose_sum: 0.6857779026031494
time_elpased: 2.915
#iterations: 224
currently lose_sum: 0.7030250430107117
time_elpased: 3.411
#iterations: 225
currently lose_sum: 0.6928978562355042
time_elpased: 2.792
#iterations: 226
currently lose_sum: 0.6894548535346985
time_elpased: 2.769
#iterations: 227
currently lose_sum: 0.6803983449935913
time_elpased: 2.952
#iterations: 228
currently lose_sum: 0.6805415153503418
time_elpased: 2.812
#iterations: 229
currently lose_sum: 0.6782585382461548
time_elpased: 2.773
#iterations: 230
currently lose_sum: 0.6920802593231201
time_elpased: 2.748
#iterations: 231
currently lose_sum: 0.709982693195343
time_elpased: 2.813
#iterations: 232
currently lose_sum: 0.7029320001602173
time_elpased: 2.781
#iterations: 233
currently lose_sum: 0.6816397309303284
time_elpased: 2.84
#iterations: 234
currently lose_sum: 0.6816550493240356
time_elpased: 2.778
#iterations: 235
currently lose_sum: 0.7003192901611328
time_elpased: 2.774
#iterations: 236
currently lose_sum: 0.6831237077713013
time_elpased: 2.745
#iterations: 237
currently lose_sum: 0.696597158908844
time_elpased: 2.794
#iterations: 238
currently lose_sum: 0.6910883188247681
time_elpased: 2.768
#iterations: 239
currently lose_sum: 0.6734322905540466
time_elpased: 3.036
start validation test
0.5252
0.528621908127
0.589905362776
0.557584793142
0.52425462944
17.228
#iterations: 240
currently lose_sum: 0.6843750476837158
time_elpased: 2.763
#iterations: 241
currently lose_sum: 0.7086405158042908
time_elpased: 2.758
#iterations: 242
currently lose_sum: 0.6778801083564758
time_elpased: 3.225
#iterations: 243
currently lose_sum: 0.6934688091278076
time_elpased: 2.807
#iterations: 244
currently lose_sum: 0.6960591077804565
time_elpased: 2.716
#iterations: 245
currently lose_sum: 0.6882621645927429
time_elpased: 2.752
#iterations: 246
currently lose_sum: 0.6806405782699585
time_elpased: 2.777
#iterations: 247
currently lose_sum: 0.6930099725723267
time_elpased: 2.955
#iterations: 248
currently lose_sum: 0.6767239570617676
time_elpased: 3.327
#iterations: 249
currently lose_sum: 0.6948496103286743
time_elpased: 2.709
#iterations: 250
currently lose_sum: 0.6897177696228027
time_elpased: 3.048
#iterations: 251
currently lose_sum: 0.7136445045471191
time_elpased: 2.753
#iterations: 252
currently lose_sum: 0.6984418630599976
time_elpased: 2.732
#iterations: 253
currently lose_sum: 0.6982460021972656
time_elpased: 3.409
#iterations: 254
currently lose_sum: 0.6974937319755554
time_elpased: 3.235
#iterations: 255
currently lose_sum: 0.6773787140846252
time_elpased: 3.333
#iterations: 256
currently lose_sum: 0.6799783110618591
time_elpased: 2.702
#iterations: 257
currently lose_sum: 0.6974914073944092
time_elpased: 2.742
#iterations: 258
currently lose_sum: 0.6749733090400696
time_elpased: 2.709
#iterations: 259
currently lose_sum: 0.6937916278839111
time_elpased: 2.756
start validation test
0.5248
0.524479804162
0.675867507886
0.590627153687
0.522592844852
17.248
#iterations: 260
currently lose_sum: 0.6764912605285645
time_elpased: 2.817
#iterations: 261
currently lose_sum: 0.7013044953346252
time_elpased: 2.815
#iterations: 262
currently lose_sum: 0.6952821612358093
time_elpased: 3.625
#iterations: 263
currently lose_sum: 0.6860958933830261
time_elpased: 2.791
#iterations: 264
currently lose_sum: 0.696370542049408
time_elpased: 2.799
#iterations: 265
currently lose_sum: 0.6750723123550415
time_elpased: 2.785
#iterations: 266
currently lose_sum: 0.702894926071167
time_elpased: 2.739
#iterations: 267
currently lose_sum: 0.6837124824523926
time_elpased: 2.781
#iterations: 268
currently lose_sum: 0.7055118083953857
time_elpased: 2.776
#iterations: 269
currently lose_sum: 0.6804004907608032
time_elpased: 2.947
#iterations: 270
currently lose_sum: 0.6602934002876282
time_elpased: 2.938
#iterations: 271
currently lose_sum: 0.6856602430343628
time_elpased: 2.778
#iterations: 272
currently lose_sum: 0.6707894802093506
time_elpased: 2.763
#iterations: 273
currently lose_sum: 0.6877048015594482
time_elpased: 2.772
#iterations: 274
currently lose_sum: 0.687095046043396
time_elpased: 2.79
#iterations: 275
currently lose_sum: 0.696333646774292
time_elpased: 2.754
#iterations: 276
currently lose_sum: 0.6801326274871826
time_elpased: 2.784
#iterations: 277
currently lose_sum: 0.6766777038574219
time_elpased: 2.772
#iterations: 278
currently lose_sum: 0.7054791450500488
time_elpased: 2.884
#iterations: 279
currently lose_sum: 0.6786150336265564
time_elpased: 2.79
start validation test
0.5344
0.613043478261
0.222397476341
0.326388888889
0.53895847843
17.387
#iterations: 280
currently lose_sum: 0.693763256072998
time_elpased: 2.734
#iterations: 281
currently lose_sum: 0.7044662237167358
time_elpased: 2.759
#iterations: 282
currently lose_sum: 0.6987106800079346
time_elpased: 2.736
#iterations: 283
currently lose_sum: 0.6856850981712341
time_elpased: 2.792
#iterations: 284
currently lose_sum: 0.688309907913208
time_elpased: 2.761
#iterations: 285
currently lose_sum: 0.6786220669746399
time_elpased: 2.759
#iterations: 286
currently lose_sum: 0.6827254295349121
time_elpased: 2.984
#iterations: 287
currently lose_sum: 0.690365195274353
time_elpased: 2.768
#iterations: 288
currently lose_sum: 0.694217324256897
time_elpased: 2.783
#iterations: 289
currently lose_sum: 0.6904284954071045
time_elpased: 3.178
#iterations: 290
currently lose_sum: 0.6872963905334473
time_elpased: 3.181
#iterations: 291
currently lose_sum: 0.6675134301185608
time_elpased: 2.848
#iterations: 292
currently lose_sum: 0.6763076782226562
time_elpased: 2.813
#iterations: 293
currently lose_sum: 0.6840315461158752
time_elpased: 2.832
#iterations: 294
currently lose_sum: 0.6811442375183105
time_elpased: 2.751
#iterations: 295
currently lose_sum: 0.692414402961731
time_elpased: 2.874
#iterations: 296
currently lose_sum: 0.6874746680259705
time_elpased: 3.228
#iterations: 297
currently lose_sum: 0.6939059495925903
time_elpased: 2.731
#iterations: 298
currently lose_sum: 0.6909157037734985
time_elpased: 2.667
#iterations: 299
currently lose_sum: 0.6795633435249329
time_elpased: 2.678
start validation test
0.5316
0.529094181164
0.695583596215
0.601022146508
0.52920413577
17.252
#iterations: 300
currently lose_sum: 0.6824818253517151
time_elpased: 3.093
#iterations: 301
currently lose_sum: 0.6932157874107361
time_elpased: 2.731
#iterations: 302
currently lose_sum: 0.6962437629699707
time_elpased: 2.697
#iterations: 303
currently lose_sum: 0.6786633133888245
time_elpased: 2.763
#iterations: 304
currently lose_sum: 0.6835029721260071
time_elpased: 2.695
#iterations: 305
currently lose_sum: 0.7001678347587585
time_elpased: 2.928
#iterations: 306
currently lose_sum: 0.693229079246521
time_elpased: 2.709
#iterations: 307
currently lose_sum: 0.7045528888702393
time_elpased: 2.814
#iterations: 308
currently lose_sum: 0.701558530330658
time_elpased: 2.77
#iterations: 309
currently lose_sum: 0.6635652184486389
time_elpased: 2.708
#iterations: 310
currently lose_sum: 0.707389771938324
time_elpased: 2.765
#iterations: 311
currently lose_sum: 0.7000038623809814
time_elpased: 3.163
#iterations: 312
currently lose_sum: 0.6959424018859863
time_elpased: 2.764
#iterations: 313
currently lose_sum: 0.6819421648979187
time_elpased: 2.72
#iterations: 314
currently lose_sum: 0.6722943186759949
time_elpased: 2.744
#iterations: 315
currently lose_sum: 0.6883280873298645
time_elpased: 2.723
#iterations: 316
currently lose_sum: 0.7031365036964417
time_elpased: 2.735
#iterations: 317
currently lose_sum: 0.6930887699127197
time_elpased: 2.739
#iterations: 318
currently lose_sum: 0.672935962677002
time_elpased: 2.737
#iterations: 319
currently lose_sum: 0.6925294399261475
time_elpased: 2.879
start validation test
0.5232
0.523284313725
0.673501577287
0.588965517241
0.521004035397
17.229
#iterations: 320
currently lose_sum: 0.6835029125213623
time_elpased: 2.853
#iterations: 321
currently lose_sum: 0.6893001794815063
time_elpased: 3.63
#iterations: 322
currently lose_sum: 0.6790292263031006
time_elpased: 2.721
#iterations: 323
currently lose_sum: 0.694307267665863
time_elpased: 2.703
#iterations: 324
currently lose_sum: 0.6805160641670227
time_elpased: 2.708
#iterations: 325
currently lose_sum: 0.6751435995101929
time_elpased: 3.07
#iterations: 326
currently lose_sum: 0.6959762573242188
time_elpased: 2.694
#iterations: 327
currently lose_sum: 0.682053804397583
time_elpased: 2.71
#iterations: 328
currently lose_sum: 0.6948046684265137
time_elpased: 3.066
#iterations: 329
currently lose_sum: 0.6922032833099365
time_elpased: 2.78
#iterations: 330
currently lose_sum: 0.6812330484390259
time_elpased: 2.782
#iterations: 331
currently lose_sum: 0.6920648813247681
time_elpased: 3.122
#iterations: 332
currently lose_sum: 0.688016414642334
time_elpased: 3.067
#iterations: 333
currently lose_sum: 0.6765933036804199
time_elpased: 2.863
#iterations: 334
currently lose_sum: 0.6862103343009949
time_elpased: 2.792
#iterations: 335
currently lose_sum: 0.6880795955657959
time_elpased: 2.918
#iterations: 336
currently lose_sum: 0.6822711229324341
time_elpased: 3.497
#iterations: 337
currently lose_sum: 0.6777504086494446
time_elpased: 2.78
#iterations: 338
currently lose_sum: 0.6811147928237915
time_elpased: 2.788
#iterations: 339
currently lose_sum: 0.6847684383392334
time_elpased: 2.84
start validation test
0.528
0.530898876404
0.596214511041
0.561664190193
0.527003359417
17.218
#iterations: 340
currently lose_sum: 0.6719570755958557
time_elpased: 2.739
#iterations: 341
currently lose_sum: 0.6797279119491577
time_elpased: 3.092
#iterations: 342
currently lose_sum: 0.6650776863098145
time_elpased: 2.958
#iterations: 343
currently lose_sum: 0.6871040463447571
time_elpased: 2.73
#iterations: 344
currently lose_sum: 0.6742286086082458
time_elpased: 3.011
#iterations: 345
currently lose_sum: 0.6822954416275024
time_elpased: 2.767
#iterations: 346
currently lose_sum: 0.677060604095459
time_elpased: 2.939
#iterations: 347
currently lose_sum: 0.6685466766357422
time_elpased: 3.744
#iterations: 348
currently lose_sum: 0.687041163444519
time_elpased: 2.776
#iterations: 349
currently lose_sum: 0.7028591632843018
time_elpased: 2.999
#iterations: 350
currently lose_sum: 0.6907215714454651
time_elpased: 2.749
#iterations: 351
currently lose_sum: 0.6915847063064575
time_elpased: 2.838
#iterations: 352
currently lose_sum: 0.6869314312934875
time_elpased: 2.981
#iterations: 353
currently lose_sum: 0.7033738493919373
time_elpased: 2.809
#iterations: 354
currently lose_sum: 0.6828210353851318
time_elpased: 2.824
#iterations: 355
currently lose_sum: 0.674492597579956
time_elpased: 2.795
#iterations: 356
currently lose_sum: 0.6885462999343872
time_elpased: 2.818
#iterations: 357
currently lose_sum: 0.7040243744850159
time_elpased: 2.86
#iterations: 358
currently lose_sum: 0.6928733587265015
time_elpased: 2.793
#iterations: 359
currently lose_sum: 0.6709465980529785
time_elpased: 2.775
start validation test
0.5308
0.541630148992
0.48738170347
0.513075965131
0.531434358229
17.231
#iterations: 360
currently lose_sum: 0.6820686459541321
time_elpased: 2.794
#iterations: 361
currently lose_sum: 0.6940317749977112
time_elpased: 2.88
#iterations: 362
currently lose_sum: 0.7190182209014893
time_elpased: 2.754
#iterations: 363
currently lose_sum: 0.6852959990501404
time_elpased: 2.774
#iterations: 364
currently lose_sum: 0.675707995891571
time_elpased: 2.741
#iterations: 365
currently lose_sum: 0.6976224780082703
time_elpased: 2.873
#iterations: 366
currently lose_sum: 0.6723801493644714
time_elpased: 2.765
#iterations: 367
currently lose_sum: 0.699118971824646
time_elpased: 2.825
#iterations: 368
currently lose_sum: 0.683150053024292
time_elpased: 2.844
#iterations: 369
currently lose_sum: 0.6788330078125
time_elpased: 2.812
#iterations: 370
currently lose_sum: 0.6795676946640015
time_elpased: 2.746
#iterations: 371
currently lose_sum: 0.6964499950408936
time_elpased: 2.83
#iterations: 372
currently lose_sum: 0.6866795420646667
time_elpased: 3.375
#iterations: 373
currently lose_sum: 0.6706531047821045
time_elpased: 2.791
#iterations: 374
currently lose_sum: 0.6791918277740479
time_elpased: 3.02
#iterations: 375
currently lose_sum: 0.6861945390701294
time_elpased: 2.736
#iterations: 376
currently lose_sum: 0.6763877868652344
time_elpased: 2.796
#iterations: 377
currently lose_sum: 0.6749005317687988
time_elpased: 2.751
#iterations: 378
currently lose_sum: 0.6851844191551208
time_elpased: 2.846
#iterations: 379
currently lose_sum: 0.690694272518158
time_elpased: 2.772
start validation test
0.528
0.536484245439
0.510252365931
0.523039611964
0.528259299848
17.214
#iterations: 380
currently lose_sum: 0.7049922347068787
time_elpased: 2.743
#iterations: 381
currently lose_sum: 0.6860015988349915
time_elpased: 2.797
#iterations: 382
currently lose_sum: 0.6813790798187256
time_elpased: 2.843
#iterations: 383
currently lose_sum: 0.6812742352485657
time_elpased: 2.85
#iterations: 384
currently lose_sum: 0.6913504600524902
time_elpased: 2.777
#iterations: 385
currently lose_sum: 0.6951110363006592
time_elpased: 2.768
#iterations: 386
currently lose_sum: 0.6983264684677124
time_elpased: 2.778
#iterations: 387
currently lose_sum: 0.6868906617164612
time_elpased: 2.812
#iterations: 388
currently lose_sum: 0.7007803916931152
time_elpased: 3.184
#iterations: 389
currently lose_sum: 0.6822987198829651
time_elpased: 2.78
#iterations: 390
currently lose_sum: 0.6808613538742065
time_elpased: 2.9
#iterations: 391
currently lose_sum: 0.6926901340484619
time_elpased: 3.596
#iterations: 392
currently lose_sum: 0.702757716178894
time_elpased: 2.971
#iterations: 393
currently lose_sum: 0.6808710694313049
time_elpased: 2.785
#iterations: 394
currently lose_sum: 0.681430995464325
time_elpased: 2.993
#iterations: 395
currently lose_sum: 0.678708553314209
time_elpased: 2.736
#iterations: 396
currently lose_sum: 0.6889538764953613
time_elpased: 2.742
#iterations: 397
currently lose_sum: 0.6817114353179932
time_elpased: 2.814
#iterations: 398
currently lose_sum: 0.6780750155448914
time_elpased: 2.777
#iterations: 399
currently lose_sum: 0.6769927740097046
time_elpased: 5.144
start validation test
0.53
0.525761772853
0.748422712934
0.617637487797
0.526808759064
17.227
#iterations: 400
currently lose_sum: 0.6889877319335938
time_elpased: 2.957
#iterations: 401
currently lose_sum: 0.6895608305931091
time_elpased: 2.752
#iterations: 402
currently lose_sum: 0.6644386053085327
time_elpased: 3.052
#iterations: 403
currently lose_sum: 0.6921223998069763
time_elpased: 2.754
#iterations: 404
currently lose_sum: 0.691062331199646
time_elpased: 2.715
#iterations: 405
currently lose_sum: 0.6910552978515625
time_elpased: 2.982
#iterations: 406
currently lose_sum: 0.6677517890930176
time_elpased: 3.296
#iterations: 407
currently lose_sum: 0.6956585645675659
time_elpased: 2.8
#iterations: 408
currently lose_sum: 0.6817758679389954
time_elpased: 2.964
#iterations: 409
currently lose_sum: 0.6816480755805969
time_elpased: 2.727
#iterations: 410
currently lose_sum: 0.6952637434005737
time_elpased: 2.75
#iterations: 411
currently lose_sum: 0.6734777688980103
time_elpased: 2.87
#iterations: 412
currently lose_sum: 0.6866514682769775
time_elpased: 2.954
#iterations: 413
currently lose_sum: 0.6864233613014221
time_elpased: 2.751
#iterations: 414
currently lose_sum: 0.6846401691436768
time_elpased: 3.166
#iterations: 415
currently lose_sum: 0.6839463710784912
time_elpased: 2.772
#iterations: 416
currently lose_sum: 0.691652238368988
time_elpased: 3.076
#iterations: 417
currently lose_sum: 0.6900154948234558
time_elpased: 2.719
#iterations: 418
currently lose_sum: 0.6943795680999756
time_elpased: 2.738
#iterations: 419
currently lose_sum: 0.6777693033218384
time_elpased: 2.787
start validation test
0.5352
0.576149425287
0.316246056782
0.408350305499
0.538399002417
17.251
#iterations: 420
currently lose_sum: 0.6882200837135315
time_elpased: 2.811
#iterations: 421
currently lose_sum: 0.6839639544487
time_elpased: 2.749
#iterations: 422
currently lose_sum: 0.6879534721374512
time_elpased: 2.769
#iterations: 423
currently lose_sum: 0.6839741468429565
time_elpased: 2.737
#iterations: 424
currently lose_sum: 0.686016321182251
time_elpased: 2.727
#iterations: 425
currently lose_sum: 0.6698181629180908
time_elpased: 2.925
#iterations: 426
currently lose_sum: 0.6788002848625183
time_elpased: 2.73
#iterations: 427
currently lose_sum: 0.7005021572113037
time_elpased: 2.763
#iterations: 428
currently lose_sum: 0.695650041103363
time_elpased: 2.771
#iterations: 429
currently lose_sum: 0.660735011100769
time_elpased: 2.727
#iterations: 430
currently lose_sum: 0.7010142803192139
time_elpased: 2.787
#iterations: 431
currently lose_sum: 0.6838581562042236
time_elpased: 2.834
#iterations: 432
currently lose_sum: 0.6988446116447449
time_elpased: 2.797
#iterations: 433
currently lose_sum: 0.6853577494621277
time_elpased: 2.711
#iterations: 434
currently lose_sum: 0.6757701635360718
time_elpased: 3.136
#iterations: 435
currently lose_sum: 0.6663177609443665
time_elpased: 3.061
#iterations: 436
currently lose_sum: 0.6801670789718628
time_elpased: 2.749
#iterations: 437
currently lose_sum: 0.6918001770973206
time_elpased: 2.734
#iterations: 438
currently lose_sum: 0.6751695275306702
time_elpased: 2.984
#iterations: 439
currently lose_sum: 0.6748858690261841
time_elpased: 2.762
start validation test
0.5336
0.534931506849
0.615930599369
0.572580645161
0.532397117866
17.197
#iterations: 440
currently lose_sum: 0.6645175814628601
time_elpased: 2.847
#iterations: 441
currently lose_sum: 0.6946098208427429
time_elpased: 2.726
#iterations: 442
currently lose_sum: 0.6634586453437805
time_elpased: 2.848
#iterations: 443
currently lose_sum: 0.6989884972572327
time_elpased: 2.82
#iterations: 444
currently lose_sum: 0.6795355081558228
time_elpased: 2.726
#iterations: 445
currently lose_sum: 0.6711828708648682
time_elpased: 2.742
#iterations: 446
currently lose_sum: 0.7055156826972961
time_elpased: 2.714
#iterations: 447
currently lose_sum: 0.6916038990020752
time_elpased: 2.744
#iterations: 448
currently lose_sum: 0.6900621652603149
time_elpased: 2.691
#iterations: 449
currently lose_sum: 0.6680338978767395
time_elpased: 2.9
#iterations: 450
currently lose_sum: 0.668209969997406
time_elpased: 2.739
#iterations: 451
currently lose_sum: 0.6809744238853455
time_elpased: 2.704
#iterations: 452
currently lose_sum: 0.6656938791275024
time_elpased: 2.721
#iterations: 453
currently lose_sum: 0.6830638647079468
time_elpased: 3.176
#iterations: 454
currently lose_sum: 0.6754505038261414
time_elpased: 2.744
#iterations: 455
currently lose_sum: 0.6946282982826233
time_elpased: 2.961
#iterations: 456
currently lose_sum: 0.6760618090629578
time_elpased: 2.989
#iterations: 457
currently lose_sum: 0.6945437788963318
time_elpased: 3.017
#iterations: 458
currently lose_sum: 0.6813430786132812
time_elpased: 2.648
#iterations: 459
currently lose_sum: 0.6904801726341248
time_elpased: 2.64
start validation test
0.5272
0.546637744035
0.397476340694
0.460273972603
0.529095313204
17.241
#iterations: 460
currently lose_sum: 0.6897451877593994
time_elpased: 2.635
#iterations: 461
currently lose_sum: 0.6840605139732361
time_elpased: 2.701
#iterations: 462
currently lose_sum: 0.6851311326026917
time_elpased: 2.682
#iterations: 463
currently lose_sum: 0.7012677788734436
time_elpased: 2.664
#iterations: 464
currently lose_sum: 0.679232120513916
time_elpased: 2.687
#iterations: 465
currently lose_sum: 0.672467827796936
time_elpased: 2.682
#iterations: 466
currently lose_sum: 0.689470648765564
time_elpased: 3.233
#iterations: 467
currently lose_sum: 0.7095680236816406
time_elpased: 2.805
#iterations: 468
currently lose_sum: 0.6949011087417603
time_elpased: 2.71
#iterations: 469
currently lose_sum: 0.6973829865455627
time_elpased: 2.858
#iterations: 470
currently lose_sum: 0.7235279083251953
time_elpased: 2.673
#iterations: 471
currently lose_sum: 0.6843270659446716
time_elpased: 2.697
#iterations: 472
currently lose_sum: 0.6717182993888855
time_elpased: 2.681
#iterations: 473
currently lose_sum: 0.7012603282928467
time_elpased: 2.692
#iterations: 474
currently lose_sum: 0.6854332089424133
time_elpased: 2.666
#iterations: 475
currently lose_sum: 0.6883301734924316
time_elpased: 2.843
#iterations: 476
currently lose_sum: 0.6817011833190918
time_elpased: 2.657
#iterations: 477
currently lose_sum: 0.6848413348197937
time_elpased: 2.819
#iterations: 478
currently lose_sum: 0.6831011176109314
time_elpased: 2.676
#iterations: 479
currently lose_sum: 0.6827526688575745
time_elpased: 2.73
start validation test
0.54
0.628260869565
0.227917981073
0.334490740741
0.544559639887
17.356
#iterations: 480
currently lose_sum: 0.671093761920929
time_elpased: 3.17
#iterations: 481
currently lose_sum: 0.6856629848480225
time_elpased: 2.853
#iterations: 482
currently lose_sum: 0.6841952800750732
time_elpased: 2.679
#iterations: 483
currently lose_sum: 0.6844433546066284
time_elpased: 2.734
#iterations: 484
currently lose_sum: 0.6972376108169556
time_elpased: 2.649
#iterations: 485
currently lose_sum: 0.6812387108802795
time_elpased: 2.687
#iterations: 486
currently lose_sum: 0.6646565794944763
time_elpased: 2.812
#iterations: 487
currently lose_sum: 0.6840779185295105
time_elpased: 2.686
#iterations: 488
currently lose_sum: 0.6756266951560974
time_elpased: 2.709
#iterations: 489
currently lose_sum: 0.6879541277885437
time_elpased: 2.805
#iterations: 490
currently lose_sum: 0.6748742461204529
time_elpased: 2.744
#iterations: 491
currently lose_sum: 0.6818296313285828
time_elpased: 2.677
#iterations: 492
currently lose_sum: 0.6889214515686035
time_elpased: 2.647
#iterations: 493
currently lose_sum: 0.6856462359428406
time_elpased: 2.652
#iterations: 494
currently lose_sum: 0.6922454237937927
time_elpased: 2.91
#iterations: 495
currently lose_sum: 0.6775485873222351
time_elpased: 2.669
#iterations: 496
currently lose_sum: 0.674781322479248
time_elpased: 2.669
#iterations: 497
currently lose_sum: 0.6698689460754395
time_elpased: 3.063
#iterations: 498
currently lose_sum: 0.6759405732154846
time_elpased: 2.704
#iterations: 499
currently lose_sum: 0.6911092400550842
time_elpased: 2.699
start validation test
0.5276
0.522503879979
0.796529968454
0.631052796001
0.523670828383
17.293
#iterations: 500
currently lose_sum: 0.6799131631851196
time_elpased: 2.695
#iterations: 501
currently lose_sum: 0.6802210807800293
time_elpased: 2.696
#iterations: 502
currently lose_sum: 0.6873965263366699
time_elpased: 2.704
#iterations: 503
currently lose_sum: 0.6837803721427917
time_elpased: 3.1
#iterations: 504
currently lose_sum: 0.6918109655380249
time_elpased: 2.783
#iterations: 505
currently lose_sum: 0.6767246127128601
time_elpased: 2.712
#iterations: 506
currently lose_sum: 0.692046046257019
time_elpased: 2.742
#iterations: 507
currently lose_sum: 0.6911357045173645
time_elpased: 2.716
#iterations: 508
currently lose_sum: 0.6819915771484375
time_elpased: 2.94
#iterations: 509
currently lose_sum: 0.7085562348365784
time_elpased: 2.669
#iterations: 510
currently lose_sum: 0.6800430417060852
time_elpased: 2.655
#iterations: 511
currently lose_sum: 0.6757514476776123
time_elpased: 2.913
#iterations: 512
currently lose_sum: 0.6780443787574768
time_elpased: 2.663
#iterations: 513
currently lose_sum: 0.6912672519683838
time_elpased: 2.661
#iterations: 514
currently lose_sum: 0.690165102481842
time_elpased: 2.899
#iterations: 515
currently lose_sum: 0.6788551807403564
time_elpased: 2.664
#iterations: 516
currently lose_sum: 0.6826051473617554
time_elpased: 2.742
#iterations: 517
currently lose_sum: 0.6660796403884888
time_elpased: 2.683
#iterations: 518
currently lose_sum: 0.6748039722442627
time_elpased: 2.715
#iterations: 519
currently lose_sum: 0.685218870639801
time_elpased: 2.996
start validation test
0.534
0.561382598331
0.371451104101
0.447081158045
0.5363749027
17.261
#iterations: 520
currently lose_sum: 0.7158659100532532
time_elpased: 2.779
#iterations: 521
currently lose_sum: 0.6790096759796143
time_elpased: 2.633
#iterations: 522
currently lose_sum: 0.6696169972419739
time_elpased: 2.718
#iterations: 523
currently lose_sum: 0.6898525953292847
time_elpased: 2.705
#iterations: 524
currently lose_sum: 0.6779876947402954
time_elpased: 2.672
#iterations: 525
currently lose_sum: 0.6956794857978821
time_elpased: 2.779
#iterations: 526
currently lose_sum: 0.6922868490219116
time_elpased: 2.667
#iterations: 527
currently lose_sum: 0.7038742303848267
time_elpased: 2.924
#iterations: 528
currently lose_sum: 0.6861441135406494
time_elpased: 2.704
#iterations: 529
currently lose_sum: 0.6862614154815674
time_elpased: 3.417
#iterations: 530
currently lose_sum: 0.6666266918182373
time_elpased: 3.561
#iterations: 531
currently lose_sum: 0.6936839818954468
time_elpased: 2.982
#iterations: 532
currently lose_sum: 0.6702210903167725
time_elpased: 2.873
#iterations: 533
currently lose_sum: 0.6702726483345032
time_elpased: 2.687
#iterations: 534
currently lose_sum: 0.6694459319114685
time_elpased: 2.647
#iterations: 535
currently lose_sum: 0.6945995092391968
time_elpased: 2.674
#iterations: 536
currently lose_sum: 0.6849837303161621
time_elpased: 2.708
#iterations: 537
currently lose_sum: 0.6747769117355347
time_elpased: 2.804
#iterations: 538
currently lose_sum: 0.6784366369247437
time_elpased: 4.295
#iterations: 539
currently lose_sum: 0.6849304437637329
time_elpased: 2.659
start validation test
0.5288
0.53807106599
0.501577287066
0.519183673469
0.529197734442
17.263
#iterations: 540
currently lose_sum: 0.668487548828125
time_elpased: 2.715
#iterations: 541
currently lose_sum: 0.6923701763153076
time_elpased: 3.239
#iterations: 542
currently lose_sum: 0.6884163022041321
time_elpased: 2.832
#iterations: 543
currently lose_sum: 0.7110648155212402
time_elpased: 2.855
#iterations: 544
currently lose_sum: 0.6846001148223877
time_elpased: 2.728
#iterations: 545
currently lose_sum: 0.677187442779541
time_elpased: 2.66
#iterations: 546
currently lose_sum: 0.672109842300415
time_elpased: 3.098
#iterations: 547
currently lose_sum: 0.6845647692680359
time_elpased: 2.95
#iterations: 548
currently lose_sum: 0.7156320214271545
time_elpased: 2.777
#iterations: 549
currently lose_sum: 0.6647031307220459
time_elpased: 2.732
#iterations: 550
currently lose_sum: 0.690763533115387
time_elpased: 3.038
#iterations: 551
currently lose_sum: 0.6849977374076843
time_elpased: 2.739
#iterations: 552
currently lose_sum: 0.6855754256248474
time_elpased: 2.744
#iterations: 553
currently lose_sum: 0.6792116761207581
time_elpased: 2.821
#iterations: 554
currently lose_sum: 0.6934844255447388
time_elpased: 2.742
#iterations: 555
currently lose_sum: 0.6818884015083313
time_elpased: 2.716
#iterations: 556
currently lose_sum: 0.675767719745636
time_elpased: 3.318
#iterations: 557
currently lose_sum: 0.686316728591919
time_elpased: 3.052
#iterations: 558
currently lose_sum: 0.663841724395752
time_elpased: 2.7
#iterations: 559
currently lose_sum: 0.6911433935165405
time_elpased: 2.758
start validation test
0.534
0.560375146542
0.376971608833
0.450730787364
0.536294245975
17.248
#iterations: 560
currently lose_sum: 0.6992291808128357
time_elpased: 2.767
#iterations: 561
currently lose_sum: 0.6808956861495972
time_elpased: 2.793
#iterations: 562
currently lose_sum: 0.6776946783065796
time_elpased: 2.703
#iterations: 563
currently lose_sum: 0.6861962676048279
time_elpased: 2.75
#iterations: 564
currently lose_sum: 0.6918420195579529
time_elpased: 3.232
#iterations: 565
currently lose_sum: 0.6769638061523438
time_elpased: 2.719
#iterations: 566
currently lose_sum: 0.6806509494781494
time_elpased: 2.709
#iterations: 567
currently lose_sum: 0.6815646290779114
time_elpased: 2.721
#iterations: 568
currently lose_sum: 0.7036991715431213
time_elpased: 2.749
#iterations: 569
currently lose_sum: 0.698469340801239
time_elpased: 2.727
#iterations: 570
currently lose_sum: 0.6924956440925598
time_elpased: 2.756
#iterations: 571
currently lose_sum: 0.693699061870575
time_elpased: 2.737
#iterations: 572
currently lose_sum: 0.6901741027832031
time_elpased: 2.755
#iterations: 573
currently lose_sum: 0.6736305356025696
time_elpased: 2.726
#iterations: 574
currently lose_sum: 0.700863242149353
time_elpased: 2.916
#iterations: 575
currently lose_sum: 0.6945582628250122
time_elpased: 2.701
#iterations: 576
currently lose_sum: 0.6758669018745422
time_elpased: 2.806
#iterations: 577
currently lose_sum: 0.6642764210700989
time_elpased: 2.764
#iterations: 578
currently lose_sum: 0.6763669848442078
time_elpased: 2.725
#iterations: 579
currently lose_sum: 0.6494205594062805
time_elpased: 3.564
start validation test
0.536
0.572580645161
0.33596214511
0.423459244533
0.538922630997
17.294
#iterations: 580
currently lose_sum: 0.6778841614723206
time_elpased: 2.767
#iterations: 581
currently lose_sum: 0.6906530857086182
time_elpased: 2.737
#iterations: 582
currently lose_sum: 0.6731080412864685
time_elpased: 3.298
#iterations: 583
currently lose_sum: 0.6798586845397949
time_elpased: 2.747
#iterations: 584
currently lose_sum: 0.6985227465629578
time_elpased: 3.398
#iterations: 585
currently lose_sum: 0.6731907725334167
time_elpased: 3.315
#iterations: 586
currently lose_sum: 0.7049577832221985
time_elpased: 2.71
#iterations: 587
currently lose_sum: 0.6786131262779236
time_elpased: 2.778
#iterations: 588
currently lose_sum: 0.6800733208656311
time_elpased: 2.875
#iterations: 589
currently lose_sum: 0.6753665208816528
time_elpased: 2.834
#iterations: 590
currently lose_sum: 0.683071494102478
time_elpased: 2.943
#iterations: 591
currently lose_sum: 0.698733925819397
time_elpased: 2.729
#iterations: 592
currently lose_sum: 0.6953445672988892
time_elpased: 2.657
#iterations: 593
currently lose_sum: 0.6883983612060547
time_elpased: 2.712
#iterations: 594
currently lose_sum: 0.6925033330917358
time_elpased: 2.687
#iterations: 595
currently lose_sum: 0.6746231913566589
time_elpased: 2.782
#iterations: 596
currently lose_sum: 0.678135097026825
time_elpased: 2.724
#iterations: 597
currently lose_sum: 0.6753000020980835
time_elpased: 2.662
#iterations: 598
currently lose_sum: 0.6760864853858948
time_elpased: 3.036
#iterations: 599
currently lose_sum: 0.6734159588813782
time_elpased: 3.274
start validation test
0.5368
0.553398058252
0.44952681388
0.496083550914
0.538075095252
17.232
acc: 0.542
pre: 0.541
rec: 0.636
F1: 0.585
auc: 0.541
