start to construct computing graph
graph construct over
3802
epochs start
#iterations: 0
currently lose_sum: 0.6926842331886292
time_elpased: 4.578
#iterations: 1
currently lose_sum: 0.6931741833686829
time_elpased: 4.989
#iterations: 2
currently lose_sum: 0.6950433254241943
time_elpased: 4.691
#iterations: 3
currently lose_sum: 0.695797860622406
time_elpased: 4.665
#iterations: 4
currently lose_sum: 0.6961605548858643
time_elpased: 5.163
#iterations: 5
currently lose_sum: 0.6927484273910522
time_elpased: 4.558
#iterations: 6
currently lose_sum: 0.6929068565368652
time_elpased: 4.515
#iterations: 7
currently lose_sum: 0.694675087928772
time_elpased: 4.616
#iterations: 8
currently lose_sum: 0.6905986070632935
time_elpased: 4.532
#iterations: 9
currently lose_sum: 0.692216157913208
time_elpased: 4.559
#iterations: 10
currently lose_sum: 0.6938755512237549
time_elpased: 4.54
#iterations: 11
currently lose_sum: 0.6945540904998779
time_elpased: 4.729
#iterations: 12
currently lose_sum: 0.6922008991241455
time_elpased: 4.592
#iterations: 13
currently lose_sum: 0.6958439350128174
time_elpased: 4.537
#iterations: 14
currently lose_sum: 0.6934686899185181
time_elpased: 4.69
#iterations: 15
currently lose_sum: 0.6969424486160278
time_elpased: 4.512
#iterations: 16
currently lose_sum: 0.6923118829727173
time_elpased: 4.502
#iterations: 17
currently lose_sum: 0.6921406388282776
time_elpased: 4.88
#iterations: 18
currently lose_sum: 0.6947125196456909
time_elpased: 4.605
#iterations: 19
currently lose_sum: 0.6948939561843872
time_elpased: 4.484
start validation test
0.4984
0.504186602871
0.664826498423
0.573469387755
0.495968444017
17.332
#iterations: 20
currently lose_sum: 0.691074550151825
time_elpased: 3.411
#iterations: 21
currently lose_sum: 0.6909576654434204
time_elpased: 3.401
#iterations: 22
currently lose_sum: 0.6937441825866699
time_elpased: 3.805
#iterations: 23
currently lose_sum: 0.6966819763183594
time_elpased: 3.416
#iterations: 24
currently lose_sum: 0.6939018368721008
time_elpased: 3.385
#iterations: 25
currently lose_sum: 0.6947672367095947
time_elpased: 3.411
#iterations: 26
currently lose_sum: 0.6920987963676453
time_elpased: 3.407
#iterations: 27
currently lose_sum: 0.6919241547584534
time_elpased: 3.716
#iterations: 28
currently lose_sum: 0.6919819116592407
time_elpased: 3.409
#iterations: 29
currently lose_sum: 0.6917653679847717
time_elpased: 3.556
#iterations: 30
currently lose_sum: 0.6930297613143921
time_elpased: 3.471
#iterations: 31
currently lose_sum: 0.6905008554458618
time_elpased: 3.463
#iterations: 32
currently lose_sum: 0.6950428485870361
time_elpased: 3.483
#iterations: 33
currently lose_sum: 0.6943685412406921
time_elpased: 3.364
#iterations: 34
currently lose_sum: 0.6914256811141968
time_elpased: 3.375
#iterations: 35
currently lose_sum: 0.6944972276687622
time_elpased: 3.59
#iterations: 36
currently lose_sum: 0.6933357119560242
time_elpased: 3.385
#iterations: 37
currently lose_sum: 0.6932428479194641
time_elpased: 3.387
#iterations: 38
currently lose_sum: 0.6888838410377502
time_elpased: 3.422
#iterations: 39
currently lose_sum: 0.6978164911270142
time_elpased: 3.481
start validation test
0.5088
0.531055900621
0.269716088328
0.357740585774
0.512293109099
17.321
#iterations: 40
currently lose_sum: 0.6949672102928162
time_elpased: 3.474
#iterations: 41
currently lose_sum: 0.679069995880127
time_elpased: 3.336
#iterations: 42
currently lose_sum: 0.688750147819519
time_elpased: 3.562
#iterations: 43
currently lose_sum: 0.691683828830719
time_elpased: 3.401
#iterations: 44
currently lose_sum: 0.6906492114067078
time_elpased: 3.384
#iterations: 45
currently lose_sum: 0.6842399835586548
time_elpased: 3.319
#iterations: 46
currently lose_sum: 0.6930198669433594
time_elpased: 3.383
#iterations: 47
currently lose_sum: 0.6930129528045654
time_elpased: 3.467
#iterations: 48
currently lose_sum: 0.6913771629333496
time_elpased: 3.509
#iterations: 49
currently lose_sum: 0.6960787773132324
time_elpased: 3.337
#iterations: 50
currently lose_sum: 0.6921165585517883
time_elpased: 3.465
#iterations: 51
currently lose_sum: 0.684339165687561
time_elpased: 3.388
#iterations: 52
currently lose_sum: 0.6926186084747314
time_elpased: 3.829
#iterations: 53
currently lose_sum: 0.6926684379577637
time_elpased: 3.562
#iterations: 54
currently lose_sum: 0.6881076097488403
time_elpased: 3.417
#iterations: 55
currently lose_sum: 0.6988837718963623
time_elpased: 3.582
#iterations: 56
currently lose_sum: 0.6936603784561157
time_elpased: 3.4
#iterations: 57
currently lose_sum: 0.6904687285423279
time_elpased: 3.385
#iterations: 58
currently lose_sum: 0.685600221157074
time_elpased: 3.927
#iterations: 59
currently lose_sum: 0.6930463910102844
time_elpased: 3.492
start validation test
0.5252
0.51904090268
0.870662460568
0.650368188513
0.520152658855
17.299
#iterations: 60
currently lose_sum: 0.69048672914505
time_elpased: 3.383
#iterations: 61
currently lose_sum: 0.7000351548194885
time_elpased: 3.388
#iterations: 62
currently lose_sum: 0.6968964338302612
time_elpased: 3.348
#iterations: 63
currently lose_sum: 0.6926780939102173
time_elpased: 3.405
#iterations: 64
currently lose_sum: 0.6916351318359375
time_elpased: 3.895
#iterations: 65
currently lose_sum: 0.6864473223686218
time_elpased: 3.693
#iterations: 66
currently lose_sum: 0.6882256269454956
time_elpased: 3.407
#iterations: 67
currently lose_sum: 0.6901087760925293
time_elpased: 3.472
#iterations: 68
currently lose_sum: 0.6955406069755554
time_elpased: 3.489
#iterations: 69
currently lose_sum: 0.6864065527915955
time_elpased: 3.352
#iterations: 70
currently lose_sum: 0.6942569017410278
time_elpased: 3.683
#iterations: 71
currently lose_sum: 0.693874180316925
time_elpased: 3.725
#iterations: 72
currently lose_sum: 0.6872761249542236
time_elpased: 3.47
#iterations: 73
currently lose_sum: 0.6897756457328796
time_elpased: 3.454
#iterations: 74
currently lose_sum: 0.6948922872543335
time_elpased: 4.221
#iterations: 75
currently lose_sum: 0.6955980062484741
time_elpased: 3.564
#iterations: 76
currently lose_sum: 0.6910325884819031
time_elpased: 3.364
#iterations: 77
currently lose_sum: 0.6846673488616943
time_elpased: 3.326
#iterations: 78
currently lose_sum: 0.6929827928543091
time_elpased: 3.379
#iterations: 79
currently lose_sum: 0.6952130198478699
time_elpased: 3.52
start validation test
0.5272
0.549883990719
0.3738170347
0.445070422535
0.529440984883
17.260
#iterations: 80
currently lose_sum: 0.6960223317146301
time_elpased: 3.607
#iterations: 81
currently lose_sum: 0.6937183141708374
time_elpased: 3.478
#iterations: 82
currently lose_sum: 0.7024009227752686
time_elpased: 3.413
#iterations: 83
currently lose_sum: 0.6839439868927002
time_elpased: 3.367
#iterations: 84
currently lose_sum: 0.7075343132019043
time_elpased: 3.388
#iterations: 85
currently lose_sum: 0.7054617404937744
time_elpased: 3.469
#iterations: 86
currently lose_sum: 0.691758394241333
time_elpased: 3.423
#iterations: 87
currently lose_sum: 0.7004035711288452
time_elpased: 3.439
#iterations: 88
currently lose_sum: 0.6967233419418335
time_elpased: 3.516
#iterations: 89
currently lose_sum: 0.6988481879234314
time_elpased: 3.831
#iterations: 90
currently lose_sum: 0.68392014503479
time_elpased: 3.612
#iterations: 91
currently lose_sum: 0.6941084265708923
time_elpased: 3.658
#iterations: 92
currently lose_sum: 0.700130820274353
time_elpased: 3.578
#iterations: 93
currently lose_sum: 0.6917248368263245
time_elpased: 3.577
#iterations: 94
currently lose_sum: 0.6735314726829529
time_elpased: 3.41
#iterations: 95
currently lose_sum: 0.683757483959198
time_elpased: 3.529
#iterations: 96
currently lose_sum: 0.6882145404815674
time_elpased: 3.398
#iterations: 97
currently lose_sum: 0.6945429444313049
time_elpased: 3.379
#iterations: 98
currently lose_sum: 0.6916398406028748
time_elpased: 3.49
#iterations: 99
currently lose_sum: 0.6926553249359131
time_elpased: 3.591
start validation test
0.524
0.559270516717
0.290220820189
0.382139148494
0.5274156049
17.271
#iterations: 100
currently lose_sum: 0.686919629573822
time_elpased: 3.559
#iterations: 101
currently lose_sum: 0.6894369721412659
time_elpased: 3.397
#iterations: 102
currently lose_sum: 0.6852990984916687
time_elpased: 3.588
#iterations: 103
currently lose_sum: 0.6930838823318481
time_elpased: 3.395
#iterations: 104
currently lose_sum: 0.6880097985267639
time_elpased: 3.498
#iterations: 105
currently lose_sum: 0.6877394318580627
time_elpased: 3.385
#iterations: 106
currently lose_sum: 0.6957342624664307
time_elpased: 3.536
#iterations: 107
currently lose_sum: 0.6740133166313171
time_elpased: 3.489
#iterations: 108
currently lose_sum: 0.6670862436294556
time_elpased: 3.452
#iterations: 109
currently lose_sum: 0.7177587747573853
time_elpased: 3.76
#iterations: 110
currently lose_sum: 0.7032512426376343
time_elpased: 3.684
#iterations: 111
currently lose_sum: 0.6955645680427551
time_elpased: 3.403
#iterations: 112
currently lose_sum: 0.6879330277442932
time_elpased: 3.371
#iterations: 113
currently lose_sum: 0.6909278631210327
time_elpased: 3.422
#iterations: 114
currently lose_sum: 0.6933923363685608
time_elpased: 3.626
#iterations: 115
currently lose_sum: 0.6865423321723938
time_elpased: 3.426
#iterations: 116
currently lose_sum: 0.6888381838798523
time_elpased: 3.382
#iterations: 117
currently lose_sum: 0.6951377987861633
time_elpased: 3.519
#iterations: 118
currently lose_sum: 0.6840389966964722
time_elpased: 3.402
#iterations: 119
currently lose_sum: 0.6821268200874329
time_elpased: 3.479
start validation test
0.5328
0.569060773481
0.324921135647
0.413654618474
0.5358371912
17.277
#iterations: 120
currently lose_sum: 0.6771950721740723
time_elpased: 3.363
#iterations: 121
currently lose_sum: 0.6925113201141357
time_elpased: 3.384
#iterations: 122
currently lose_sum: 0.6791622638702393
time_elpased: 3.38
#iterations: 123
currently lose_sum: 0.687950849533081
time_elpased: 3.371
#iterations: 124
currently lose_sum: 0.7126598358154297
time_elpased: 3.57
#iterations: 125
currently lose_sum: 0.7089192271232605
time_elpased: 3.53
#iterations: 126
currently lose_sum: 0.6942884922027588
time_elpased: 3.444
#iterations: 127
currently lose_sum: 0.678734540939331
time_elpased: 3.436
#iterations: 128
currently lose_sum: 0.6881424188613892
time_elpased: 3.454
#iterations: 129
currently lose_sum: 0.7049539089202881
time_elpased: 3.449
#iterations: 130
currently lose_sum: 0.6924733519554138
time_elpased: 3.418
#iterations: 131
currently lose_sum: 0.6862565875053406
time_elpased: 3.364
#iterations: 132
currently lose_sum: 0.6865869164466858
time_elpased: 3.593
#iterations: 133
currently lose_sum: 0.6849626302719116
time_elpased: 3.611
#iterations: 134
currently lose_sum: 0.6885894536972046
time_elpased: 3.475
#iterations: 135
currently lose_sum: 0.6749772429466248
time_elpased: 3.562
#iterations: 136
currently lose_sum: 0.681591808795929
time_elpased: 3.381
#iterations: 137
currently lose_sum: 0.693891167640686
time_elpased: 3.401
#iterations: 138
currently lose_sum: 0.6946681141853333
time_elpased: 3.435
#iterations: 139
currently lose_sum: 0.6943515539169312
time_elpased: 3.517
start validation test
0.5396
0.565509518477
0.398264984227
0.467376214715
0.541664959646
17.203
#iterations: 140
currently lose_sum: 0.6745182871818542
time_elpased: 3.338
#iterations: 141
currently lose_sum: 0.6748299598693848
time_elpased: 3.319
#iterations: 142
currently lose_sum: 0.679828941822052
time_elpased: 3.382
#iterations: 143
currently lose_sum: 0.6793074607849121
time_elpased: 3.607
#iterations: 144
currently lose_sum: 0.6899818181991577
time_elpased: 3.431
#iterations: 145
currently lose_sum: 0.6954423785209656
time_elpased: 3.387
#iterations: 146
currently lose_sum: 0.6879794597625732
time_elpased: 3.64
#iterations: 147
currently lose_sum: 0.6975829601287842
time_elpased: 3.51
#iterations: 148
currently lose_sum: 0.6921514868736267
time_elpased: 3.423
#iterations: 149
currently lose_sum: 0.6827461123466492
time_elpased: 3.415
#iterations: 150
currently lose_sum: 0.6935677528381348
time_elpased: 3.392
#iterations: 151
currently lose_sum: 0.6915462017059326
time_elpased: 3.374
#iterations: 152
currently lose_sum: 0.6906130909919739
time_elpased: 3.332
#iterations: 153
currently lose_sum: 0.6898882985115051
time_elpased: 3.339
#iterations: 154
currently lose_sum: 0.6981590390205383
time_elpased: 3.324
#iterations: 155
currently lose_sum: 0.6923010349273682
time_elpased: 3.439
#iterations: 156
currently lose_sum: 0.7008596658706665
time_elpased: 3.365
#iterations: 157
currently lose_sum: 0.6847277283668518
time_elpased: 3.408
#iterations: 158
currently lose_sum: 0.6884980201721191
time_elpased: 3.594
#iterations: 159
currently lose_sum: 0.6749700903892517
time_elpased: 3.666
start validation test
0.5272
0.523730684327
0.748422712934
0.616233766234
0.523967849973
17.204
#iterations: 160
currently lose_sum: 0.6701279282569885
time_elpased: 3.393
#iterations: 161
currently lose_sum: 0.6925774216651917
time_elpased: 3.592
#iterations: 162
currently lose_sum: 0.6837104558944702
time_elpased: 3.43
#iterations: 163
currently lose_sum: 0.6954694986343384
time_elpased: 3.375
#iterations: 164
currently lose_sum: 0.6879754662513733
time_elpased: 3.395
#iterations: 165
currently lose_sum: 0.6832469701766968
time_elpased: 3.344
#iterations: 166
currently lose_sum: 0.6924046874046326
time_elpased: 3.367
#iterations: 167
currently lose_sum: 0.6992588043212891
time_elpased: 3.378
#iterations: 168
currently lose_sum: 0.6897128224372864
time_elpased: 3.883
#iterations: 169
currently lose_sum: 0.6871389746665955
time_elpased: 3.888
#iterations: 170
currently lose_sum: 0.7034257650375366
time_elpased: 3.408
#iterations: 171
currently lose_sum: 0.6753208637237549
time_elpased: 3.404
#iterations: 172
currently lose_sum: 0.6890974640846252
time_elpased: 3.419
#iterations: 173
currently lose_sum: 0.6937774419784546
time_elpased: 3.478
#iterations: 174
currently lose_sum: 0.691416323184967
time_elpased: 3.485
#iterations: 175
currently lose_sum: 0.6868127584457397
time_elpased: 3.54
#iterations: 176
currently lose_sum: 0.6817089319229126
time_elpased: 3.546
#iterations: 177
currently lose_sum: 0.6835947632789612
time_elpased: 3.464
#iterations: 178
currently lose_sum: 0.6915087103843689
time_elpased: 3.356
#iterations: 179
currently lose_sum: 0.6980363726615906
time_elpased: 3.67
start validation test
0.5384
0.532947976879
0.727129337539
0.615076717812
0.535642590848
17.194
#iterations: 180
currently lose_sum: 0.6856717467308044
time_elpased: 3.65
#iterations: 181
currently lose_sum: 0.6864153146743774
time_elpased: 3.453
#iterations: 182
currently lose_sum: 0.6836755275726318
time_elpased: 3.622
#iterations: 183
currently lose_sum: 0.6796966791152954
time_elpased: 3.581
#iterations: 184
currently lose_sum: 0.681502103805542
time_elpased: 3.362
#iterations: 185
currently lose_sum: 0.6782163381576538
time_elpased: 3.369
#iterations: 186
currently lose_sum: 0.7102333307266235
time_elpased: 3.334
#iterations: 187
currently lose_sum: 0.7016690969467163
time_elpased: 3.368
#iterations: 188
currently lose_sum: 0.7024369835853577
time_elpased: 3.349
#iterations: 189
currently lose_sum: 0.6812341213226318
time_elpased: 3.352
#iterations: 190
currently lose_sum: 0.7021434903144836
time_elpased: 3.354
#iterations: 191
currently lose_sum: 0.6852417588233948
time_elpased: 3.314
#iterations: 192
currently lose_sum: 0.6838688850402832
time_elpased: 3.614
#iterations: 193
currently lose_sum: 0.677750825881958
time_elpased: 3.381
#iterations: 194
currently lose_sum: 0.7036722302436829
time_elpased: 3.631
#iterations: 195
currently lose_sum: 0.6783727407455444
time_elpased: 3.809
#iterations: 196
currently lose_sum: 0.6949631571769714
time_elpased: 3.457
#iterations: 197
currently lose_sum: 0.6843809485435486
time_elpased: 3.599
#iterations: 198
currently lose_sum: 0.6949617862701416
time_elpased: 3.784
#iterations: 199
currently lose_sum: 0.6737532019615173
time_elpased: 3.384
start validation test
0.53
0.526894158473
0.718454258675
0.607941274608
0.527246609857
17.195
#iterations: 200
currently lose_sum: 0.6967440247535706
time_elpased: 3.382
#iterations: 201
currently lose_sum: 0.6871182918548584
time_elpased: 3.546
#iterations: 202
currently lose_sum: 0.6858997941017151
time_elpased: 3.337
#iterations: 203
currently lose_sum: 0.6710777878761292
time_elpased: 3.431
#iterations: 204
currently lose_sum: 0.6938718557357788
time_elpased: 3.33
#iterations: 205
currently lose_sum: 0.6716837286949158
time_elpased: 3.342
#iterations: 206
currently lose_sum: 0.7037355303764343
time_elpased: 3.38
#iterations: 207
currently lose_sum: 0.6923105120658875
time_elpased: 3.347
#iterations: 208
currently lose_sum: 0.6884942650794983
time_elpased: 3.452
#iterations: 209
currently lose_sum: 0.6700366735458374
time_elpased: 3.37
#iterations: 210
currently lose_sum: 0.6909675002098083
time_elpased: 3.509
#iterations: 211
currently lose_sum: 0.6785495281219482
time_elpased: 3.513
#iterations: 212
currently lose_sum: 0.6887229084968567
time_elpased: 3.371
#iterations: 213
currently lose_sum: 0.6948468685150146
time_elpased: 3.37
#iterations: 214
currently lose_sum: 0.6951661109924316
time_elpased: 4.022
#iterations: 215
currently lose_sum: 0.6889668107032776
time_elpased: 3.444
#iterations: 216
currently lose_sum: 0.6895504593849182
time_elpased: 3.422
#iterations: 217
currently lose_sum: 0.6695929169654846
time_elpased: 3.708
#iterations: 218
currently lose_sum: 0.6857537627220154
time_elpased: 3.421
#iterations: 219
currently lose_sum: 0.6933668255805969
time_elpased: 3.388
start validation test
0.5488
0.561728395062
0.502365930599
0.53039134055
0.549478419845
17.160
#iterations: 220
currently lose_sum: 0.6770307421684265
time_elpased: 4.196
#iterations: 221
currently lose_sum: 0.7066298127174377
time_elpased: 3.474
#iterations: 222
currently lose_sum: 0.6840245127677917
time_elpased: 3.756
#iterations: 223
currently lose_sum: 0.6840269565582275
time_elpased: 3.785
#iterations: 224
currently lose_sum: 0.6818997263908386
time_elpased: 3.833
#iterations: 225
currently lose_sum: 0.6955035924911499
time_elpased: 3.432
#iterations: 226
currently lose_sum: 0.6854530572891235
time_elpased: 3.439
#iterations: 227
currently lose_sum: 0.6832984089851379
time_elpased: 3.386
#iterations: 228
currently lose_sum: 0.6770803928375244
time_elpased: 3.387
#iterations: 229
currently lose_sum: 0.6992126703262329
time_elpased: 3.959
#iterations: 230
currently lose_sum: 0.6828171014785767
time_elpased: 3.507
#iterations: 231
currently lose_sum: 0.6925678849220276
time_elpased: 3.407
#iterations: 232
currently lose_sum: 0.6750270128250122
time_elpased: 3.724
#iterations: 233
currently lose_sum: 0.6823512315750122
time_elpased: 3.703
#iterations: 234
currently lose_sum: 0.6765106916427612
time_elpased: 3.716
#iterations: 235
currently lose_sum: 0.6894122362136841
time_elpased: 3.438
#iterations: 236
currently lose_sum: 0.6909138560295105
time_elpased: 3.473
#iterations: 237
currently lose_sum: 0.6931208968162537
time_elpased: 3.373
#iterations: 238
currently lose_sum: 0.691662073135376
time_elpased: 3.533
#iterations: 239
currently lose_sum: 0.6981348991394043
time_elpased: 3.418
start validation test
0.5356
0.542026708562
0.544164037855
0.543093270366
0.53547487607
17.151
#iterations: 240
currently lose_sum: 0.6747632026672363
time_elpased: 3.391
#iterations: 241
currently lose_sum: 0.6830292344093323
time_elpased: 3.482
#iterations: 242
currently lose_sum: 0.6901809573173523
time_elpased: 3.371
#iterations: 243
currently lose_sum: 0.7047582268714905
time_elpased: 3.522
#iterations: 244
currently lose_sum: 0.692395031452179
time_elpased: 3.371
#iterations: 245
currently lose_sum: 0.6901364326477051
time_elpased: 3.747
#iterations: 246
currently lose_sum: 0.6989166140556335
time_elpased: 3.559
#iterations: 247
currently lose_sum: 0.6760148406028748
time_elpased: 3.323
#iterations: 248
currently lose_sum: 0.6685798764228821
time_elpased: 3.391
#iterations: 249
currently lose_sum: 0.6905880570411682
time_elpased: 3.46
#iterations: 250
currently lose_sum: 0.6777753233909607
time_elpased: 3.354
#iterations: 251
currently lose_sum: 0.6785429120063782
time_elpased: 3.896
#iterations: 252
currently lose_sum: 0.7083339095115662
time_elpased: 3.563
#iterations: 253
currently lose_sum: 0.6783100962638855
time_elpased: 3.449
#iterations: 254
currently lose_sum: 0.6784501671791077
time_elpased: 3.391
#iterations: 255
currently lose_sum: 0.6899229288101196
time_elpased: 3.522
#iterations: 256
currently lose_sum: 0.690656304359436
time_elpased: 3.375
#iterations: 257
currently lose_sum: 0.6975789666175842
time_elpased: 3.416
#iterations: 258
currently lose_sum: 0.6989907622337341
time_elpased: 3.416
#iterations: 259
currently lose_sum: 0.689464271068573
time_elpased: 3.475
start validation test
0.544
0.554329371817
0.514984227129
0.533932951758
0.544423931746
17.154
#iterations: 260
currently lose_sum: 0.6748379468917847
time_elpased: 3.5
#iterations: 261
currently lose_sum: 0.688783586025238
time_elpased: 3.513
#iterations: 262
currently lose_sum: 0.6706458926200867
time_elpased: 3.404
#iterations: 263
currently lose_sum: 0.702025294303894
time_elpased: 3.79
#iterations: 264
currently lose_sum: 0.6830089688301086
time_elpased: 3.371
#iterations: 265
currently lose_sum: 0.679419994354248
time_elpased: 3.436
#iterations: 266
currently lose_sum: 0.6931688189506531
time_elpased: 3.38
#iterations: 267
currently lose_sum: 0.6821722388267517
time_elpased: 3.407
#iterations: 268
currently lose_sum: 0.6830394268035889
time_elpased: 3.361
#iterations: 269
currently lose_sum: 0.688188910484314
time_elpased: 3.432
#iterations: 270
currently lose_sum: 0.6808569431304932
time_elpased: 3.343
#iterations: 271
currently lose_sum: 0.6889474987983704
time_elpased: 3.485
#iterations: 272
currently lose_sum: 0.6873487234115601
time_elpased: 3.438
#iterations: 273
currently lose_sum: 0.6996396780014038
time_elpased: 3.514
#iterations: 274
currently lose_sum: 0.6787664294242859
time_elpased: 3.403
#iterations: 275
currently lose_sum: 0.6889574527740479
time_elpased: 3.602
#iterations: 276
currently lose_sum: 0.7049818634986877
time_elpased: 3.415
#iterations: 277
currently lose_sum: 0.6944121718406677
time_elpased: 3.407
#iterations: 278
currently lose_sum: 0.6966245770454407
time_elpased: 3.748
#iterations: 279
currently lose_sum: 0.6824135780334473
time_elpased: 3.752
start validation test
0.544
0.550552922591
0.549684542587
0.550118389897
0.543916946618
17.137
#iterations: 280
currently lose_sum: 0.6835785508155823
time_elpased: 3.354
#iterations: 281
currently lose_sum: 0.6910637617111206
time_elpased: 3.481
#iterations: 282
currently lose_sum: 0.6747618317604065
time_elpased: 3.331
#iterations: 283
currently lose_sum: 0.6801799535751343
time_elpased: 3.704
#iterations: 284
currently lose_sum: 0.6966841220855713
time_elpased: 3.729
#iterations: 285
currently lose_sum: 0.6872583031654358
time_elpased: 3.39
#iterations: 286
currently lose_sum: 0.6970210075378418
time_elpased: 3.397
#iterations: 287
currently lose_sum: 0.7070331573486328
time_elpased: 3.48
#iterations: 288
currently lose_sum: 0.6848899722099304
time_elpased: 3.355
#iterations: 289
currently lose_sum: 0.6870695352554321
time_elpased: 3.479
#iterations: 290
currently lose_sum: 0.6807653903961182
time_elpased: 3.338
#iterations: 291
currently lose_sum: 0.6677771806716919
time_elpased: 3.831
#iterations: 292
currently lose_sum: 0.6886436939239502
time_elpased: 3.423
#iterations: 293
currently lose_sum: 0.6836934685707092
time_elpased: 3.458
#iterations: 294
currently lose_sum: 0.6818693280220032
time_elpased: 3.461
#iterations: 295
currently lose_sum: 0.6882316470146179
time_elpased: 3.566
#iterations: 296
currently lose_sum: 0.682030439376831
time_elpased: 3.464
#iterations: 297
currently lose_sum: 0.7055500149726868
time_elpased: 3.388
#iterations: 298
currently lose_sum: 0.7081841230392456
time_elpased: 3.458
#iterations: 299
currently lose_sum: 0.6755844950675964
time_elpased: 3.369
start validation test
0.5344
0.529411764706
0.738170347003
0.616600790514
0.531422835839
17.139
#iterations: 300
currently lose_sum: 0.6981887221336365
time_elpased: 3.37
#iterations: 301
currently lose_sum: 0.6647839546203613
time_elpased: 3.426
#iterations: 302
currently lose_sum: 0.6902261972427368
time_elpased: 3.555
#iterations: 303
currently lose_sum: 0.6784026622772217
time_elpased: 3.381
#iterations: 304
currently lose_sum: 0.6839909553527832
time_elpased: 3.376
#iterations: 305
currently lose_sum: 0.6993075609207153
time_elpased: 3.372
#iterations: 306
currently lose_sum: 0.6834208965301514
time_elpased: 3.677
#iterations: 307
currently lose_sum: 0.6920893788337708
time_elpased: 4.182
#iterations: 308
currently lose_sum: 0.689929187297821
time_elpased: 3.552
#iterations: 309
currently lose_sum: 0.6868313550949097
time_elpased: 3.383
#iterations: 310
currently lose_sum: 0.6921752691268921
time_elpased: 3.387
#iterations: 311
currently lose_sum: 0.6953814625740051
time_elpased: 3.451
#iterations: 312
currently lose_sum: 0.6825171709060669
time_elpased: 3.401
#iterations: 313
currently lose_sum: 0.6896762251853943
time_elpased: 3.386
#iterations: 314
currently lose_sum: 0.6725000143051147
time_elpased: 3.618
#iterations: 315
currently lose_sum: 0.6749087572097778
time_elpased: 3.451
#iterations: 316
currently lose_sum: 0.6771717667579651
time_elpased: 3.434
#iterations: 317
currently lose_sum: 0.6764799356460571
time_elpased: 3.421
#iterations: 318
currently lose_sum: 0.6853687763214111
time_elpased: 3.356
#iterations: 319
currently lose_sum: 0.6766015887260437
time_elpased: 3.38
start validation test
0.5368
0.534898477157
0.664826498423
0.592827004219
0.534929482978
17.133
#iterations: 320
currently lose_sum: 0.6904544234275818
time_elpased: 3.36
#iterations: 321
currently lose_sum: 0.6833996772766113
time_elpased: 3.871
#iterations: 322
currently lose_sum: 0.6897375583648682
time_elpased: 3.384
#iterations: 323
currently lose_sum: 0.6879242062568665
time_elpased: 3.422
#iterations: 324
currently lose_sum: 0.6754819750785828
time_elpased: 3.376
#iterations: 325
currently lose_sum: 0.7132112383842468
time_elpased: 3.72
#iterations: 326
currently lose_sum: 0.6828181743621826
time_elpased: 3.408
#iterations: 327
currently lose_sum: 0.6819981336593628
time_elpased: 3.592
#iterations: 328
currently lose_sum: 0.6847553849220276
time_elpased: 3.428
#iterations: 329
currently lose_sum: 0.6802048683166504
time_elpased: 3.525
#iterations: 330
currently lose_sum: 0.6914607882499695
time_elpased: 3.386
#iterations: 331
currently lose_sum: 0.6902822852134705
time_elpased: 3.798
#iterations: 332
currently lose_sum: 0.6883563995361328
time_elpased: 3.387
#iterations: 333
currently lose_sum: 0.6921623945236206
time_elpased: 3.438
#iterations: 334
currently lose_sum: 0.6712841987609863
time_elpased: 3.47
#iterations: 335
currently lose_sum: 0.6730208396911621
time_elpased: 3.48
#iterations: 336
currently lose_sum: 0.6695640087127686
time_elpased: 3.52
#iterations: 337
currently lose_sum: 0.6767576336860657
time_elpased: 3.377
#iterations: 338
currently lose_sum: 0.671884298324585
time_elpased: 4.084
#iterations: 339
currently lose_sum: 0.695076584815979
time_elpased: 3.437
start validation test
0.5364
0.53626081171
0.635646687697
0.581739444244
0.534949967225
17.146
#iterations: 340
currently lose_sum: 0.6929810047149658
time_elpased: 3.535
#iterations: 341
currently lose_sum: 0.6629912853240967
time_elpased: 3.378
#iterations: 342
currently lose_sum: 0.6777832508087158
time_elpased: 3.571
#iterations: 343
currently lose_sum: 0.6914454698562622
time_elpased: 3.385
#iterations: 344
currently lose_sum: 0.6832608580589294
time_elpased: 3.396
#iterations: 345
currently lose_sum: 0.6849539279937744
time_elpased: 3.372
#iterations: 346
currently lose_sum: 0.6949493885040283
time_elpased: 3.424
#iterations: 347
currently lose_sum: 0.6729700565338135
time_elpased: 3.372
#iterations: 348
currently lose_sum: 0.6803473830223083
time_elpased: 3.373
#iterations: 349
currently lose_sum: 0.6741917133331299
time_elpased: 3.402
#iterations: 350
currently lose_sum: 0.6736175417900085
time_elpased: 3.352
#iterations: 351
currently lose_sum: 0.6861822605133057
time_elpased: 3.418
#iterations: 352
currently lose_sum: 0.6840090751647949
time_elpased: 3.341
#iterations: 353
currently lose_sum: 0.6794779896736145
time_elpased: 3.406
#iterations: 354
currently lose_sum: 0.6753631830215454
time_elpased: 3.397
#iterations: 355
currently lose_sum: 0.6870095133781433
time_elpased: 3.426
#iterations: 356
currently lose_sum: 0.6798074245452881
time_elpased: 3.531
#iterations: 357
currently lose_sum: 0.6820365786552429
time_elpased: 3.765
#iterations: 358
currently lose_sum: 0.7047922611236572
time_elpased: 3.729
#iterations: 359
currently lose_sum: 0.6977607607841492
time_elpased: 3.374
start validation test
0.536
0.535667107001
0.639589905363
0.583033788641
0.534486511123
17.119
#iterations: 360
currently lose_sum: 0.6894439458847046
time_elpased: 3.351
#iterations: 361
currently lose_sum: 0.6903796195983887
time_elpased: 3.483
#iterations: 362
currently lose_sum: 0.6858435273170471
time_elpased: 3.446
#iterations: 363
currently lose_sum: 0.680198609828949
time_elpased: 3.395
#iterations: 364
currently lose_sum: 0.6946936249732971
time_elpased: 3.563
#iterations: 365
currently lose_sum: 0.6916947364807129
time_elpased: 3.423
#iterations: 366
currently lose_sum: 0.6790240406990051
time_elpased: 3.399
#iterations: 367
currently lose_sum: 0.6921703219413757
time_elpased: 3.752
#iterations: 368
currently lose_sum: 0.6902238726615906
time_elpased: 3.397
#iterations: 369
currently lose_sum: 0.6692783236503601
time_elpased: 3.368
#iterations: 370
currently lose_sum: 0.6772815585136414
time_elpased: 3.548
#iterations: 371
currently lose_sum: 0.6754423379898071
time_elpased: 3.389
#iterations: 372
currently lose_sum: 0.6897796392440796
time_elpased: 3.458
#iterations: 373
currently lose_sum: 0.6890617609024048
time_elpased: 3.527
#iterations: 374
currently lose_sum: 0.6850681900978088
time_elpased: 3.848
#iterations: 375
currently lose_sum: 0.6830083727836609
time_elpased: 3.636
#iterations: 376
currently lose_sum: 0.6725417971611023
time_elpased: 3.458
#iterations: 377
currently lose_sum: 0.6943702697753906
time_elpased: 3.383
#iterations: 378
currently lose_sum: 0.6865793466567993
time_elpased: 3.519
#iterations: 379
currently lose_sum: 0.6987068057060242
time_elpased: 3.443
start validation test
0.5424
0.540103492885
0.658517350158
0.593461265103
0.540703480274
17.131
#iterations: 380
currently lose_sum: 0.6930850148200989
time_elpased: 3.404
#iterations: 381
currently lose_sum: 0.6894418597221375
time_elpased: 3.376
#iterations: 382
currently lose_sum: 0.6992963552474976
time_elpased: 3.519
#iterations: 383
currently lose_sum: 0.6800182461738586
time_elpased: 3.509
#iterations: 384
currently lose_sum: 0.6898402571678162
time_elpased: 3.457
#iterations: 385
currently lose_sum: 0.689810037612915
time_elpased: 3.375
#iterations: 386
currently lose_sum: 0.6473285555839539
time_elpased: 3.37
#iterations: 387
currently lose_sum: 0.6779845952987671
time_elpased: 3.382
#iterations: 388
currently lose_sum: 0.6910408139228821
time_elpased: 3.364
#iterations: 389
currently lose_sum: 0.6699452996253967
time_elpased: 3.557
#iterations: 390
currently lose_sum: 0.6781275868415833
time_elpased: 3.456
#iterations: 391
currently lose_sum: 0.6919522285461426
time_elpased: 3.372
#iterations: 392
currently lose_sum: 0.6676387190818787
time_elpased: 3.469
#iterations: 393
currently lose_sum: 0.67132568359375
time_elpased: 3.393
#iterations: 394
currently lose_sum: 0.6686433553695679
time_elpased: 3.463
#iterations: 395
currently lose_sum: 0.6901127696037292
time_elpased: 3.529
#iterations: 396
currently lose_sum: 0.6753699779510498
time_elpased: 3.412
#iterations: 397
currently lose_sum: 0.6780607104301453
time_elpased: 3.397
#iterations: 398
currently lose_sum: 0.6587163805961609
time_elpased: 3.43
#iterations: 399
currently lose_sum: 0.6792801022529602
time_elpased: 3.384
start validation test
0.5404
0.552608311229
0.492902208202
0.521050437682
0.541093961244
17.137
#iterations: 400
currently lose_sum: 0.695848822593689
time_elpased: 3.388
#iterations: 401
currently lose_sum: 0.6882258057594299
time_elpased: 3.441
#iterations: 402
currently lose_sum: 0.6815654635429382
time_elpased: 3.432
#iterations: 403
currently lose_sum: 0.6660302877426147
time_elpased: 3.385
#iterations: 404
currently lose_sum: 0.6811543107032776
time_elpased: 3.403
#iterations: 405
currently lose_sum: 0.6942042708396912
time_elpased: 3.415
#iterations: 406
currently lose_sum: 0.6829243302345276
time_elpased: 3.452
#iterations: 407
currently lose_sum: 0.6957713961601257
time_elpased: 3.399
#iterations: 408
currently lose_sum: 0.6942791938781738
time_elpased: 3.523
#iterations: 409
currently lose_sum: 0.6855402588844299
time_elpased: 3.37
#iterations: 410
currently lose_sum: 0.699403703212738
time_elpased: 3.59
#iterations: 411
currently lose_sum: 0.7039687633514404
time_elpased: 3.639
#iterations: 412
currently lose_sum: 0.670361340045929
time_elpased: 3.534
#iterations: 413
currently lose_sum: 0.6879898309707642
time_elpased: 4.093
#iterations: 414
currently lose_sum: 0.692074716091156
time_elpased: 3.434
#iterations: 415
currently lose_sum: 0.6858030557632446
time_elpased: 3.418
#iterations: 416
currently lose_sum: 0.6992242336273193
time_elpased: 3.362
#iterations: 417
currently lose_sum: 0.7046681046485901
time_elpased: 3.874
#iterations: 418
currently lose_sum: 0.6740165948867798
time_elpased: 3.35
#iterations: 419
currently lose_sum: 0.6921236515045166
time_elpased: 3.538
start validation test
0.5404
0.532854776367
0.761041009464
0.626826891848
0.537176348888
17.177
#iterations: 420
currently lose_sum: 0.6959099769592285
time_elpased: 3.404
#iterations: 421
currently lose_sum: 0.7015504240989685
time_elpased: 3.595
#iterations: 422
currently lose_sum: 0.684516429901123
time_elpased: 3.376
#iterations: 423
currently lose_sum: 0.6810940504074097
time_elpased: 3.462
#iterations: 424
currently lose_sum: 0.6887555718421936
time_elpased: 3.366
#iterations: 425
currently lose_sum: 0.6842684745788574
time_elpased: 3.468
#iterations: 426
currently lose_sum: 0.6784050464630127
time_elpased: 3.354
#iterations: 427
currently lose_sum: 0.6891071796417236
time_elpased: 3.419
#iterations: 428
currently lose_sum: 0.6984043717384338
time_elpased: 3.393
#iterations: 429
currently lose_sum: 0.6722015142440796
time_elpased: 3.466
#iterations: 430
currently lose_sum: 0.6927282810211182
time_elpased: 3.411
#iterations: 431
currently lose_sum: 0.6825302839279175
time_elpased: 3.553
#iterations: 432
currently lose_sum: 0.6949772834777832
time_elpased: 3.483
#iterations: 433
currently lose_sum: 0.692259669303894
time_elpased: 3.362
#iterations: 434
currently lose_sum: 0.691745936870575
time_elpased: 3.379
#iterations: 435
currently lose_sum: 0.6788623929023743
time_elpased: 3.4
#iterations: 436
currently lose_sum: 0.6907418966293335
time_elpased: 3.383
#iterations: 437
currently lose_sum: 0.6939858794212341
time_elpased: 3.419
#iterations: 438
currently lose_sum: 0.6843128204345703
time_elpased: 3.566
#iterations: 439
currently lose_sum: 0.6926596164703369
time_elpased: 3.405
start validation test
0.5356
0.544324772162
0.518138801262
0.530909090909
0.535855114917
17.138
#iterations: 440
currently lose_sum: 0.6781172752380371
time_elpased: 3.41
#iterations: 441
currently lose_sum: 0.680697500705719
time_elpased: 3.435
#iterations: 442
currently lose_sum: 0.70802903175354
time_elpased: 3.407
#iterations: 443
currently lose_sum: 0.705679714679718
time_elpased: 3.557
#iterations: 444
currently lose_sum: 0.6759774684906006
time_elpased: 3.984
#iterations: 445
currently lose_sum: 0.6939074993133545
time_elpased: 3.483
#iterations: 446
currently lose_sum: 0.6726580262184143
time_elpased: 3.551
#iterations: 447
currently lose_sum: 0.6734785437583923
time_elpased: 3.424
#iterations: 448
currently lose_sum: 0.6791781783103943
time_elpased: 3.372
#iterations: 449
currently lose_sum: 0.675740122795105
time_elpased: 3.428
#iterations: 450
currently lose_sum: 0.6994377374649048
time_elpased: 3.691
#iterations: 451
currently lose_sum: 0.6867175102233887
time_elpased: 3.445
#iterations: 452
currently lose_sum: 0.6818655133247375
time_elpased: 3.374
#iterations: 453
currently lose_sum: 0.6785316467285156
time_elpased: 3.444
#iterations: 454
currently lose_sum: 0.6945385932922363
time_elpased: 3.83
#iterations: 455
currently lose_sum: 0.6879630088806152
time_elpased: 3.607
#iterations: 456
currently lose_sum: 0.6919378042221069
time_elpased: 3.462
#iterations: 457
currently lose_sum: 0.6625036597251892
time_elpased: 3.481
#iterations: 458
currently lose_sum: 0.7047065496444702
time_elpased: 3.926
#iterations: 459
currently lose_sum: 0.6951116919517517
time_elpased: 3.859
start validation test
0.54
0.540972222222
0.614353312303
0.575332348597
0.538913669138
17.133
#iterations: 460
currently lose_sum: 0.6829086542129517
time_elpased: 3.403
#iterations: 461
currently lose_sum: 0.6966460347175598
time_elpased: 3.397
#iterations: 462
currently lose_sum: 0.696960985660553
time_elpased: 3.385
#iterations: 463
currently lose_sum: 0.6882169842720032
time_elpased: 3.397
#iterations: 464
currently lose_sum: 0.6891778707504272
time_elpased: 3.512
#iterations: 465
currently lose_sum: 0.6768039464950562
time_elpased: 3.382
#iterations: 466
currently lose_sum: 0.6924052238464355
time_elpased: 3.49
#iterations: 467
currently lose_sum: 0.690077543258667
time_elpased: 3.499
#iterations: 468
currently lose_sum: 0.6966055035591125
time_elpased: 3.791
#iterations: 469
currently lose_sum: 0.6944933533668518
time_elpased: 3.391
#iterations: 470
currently lose_sum: 0.6895540356636047
time_elpased: 3.402
#iterations: 471
currently lose_sum: 0.685578465461731
time_elpased: 3.93
#iterations: 472
currently lose_sum: 0.68365478515625
time_elpased: 3.421
#iterations: 473
currently lose_sum: 0.6861329674720764
time_elpased: 3.394
#iterations: 474
currently lose_sum: 0.693482518196106
time_elpased: 3.441
#iterations: 475
currently lose_sum: 0.6762133836746216
time_elpased: 3.382
#iterations: 476
currently lose_sum: 0.6869269609451294
time_elpased: 3.463
#iterations: 477
currently lose_sum: 0.6914608478546143
time_elpased: 3.404
#iterations: 478
currently lose_sum: 0.6806564331054688
time_elpased: 3.482
#iterations: 479
currently lose_sum: 0.6773378849029541
time_elpased: 3.441
start validation test
0.5296
0.5359375
0.541009463722
0.538461538462
0.52943330329
17.125
#iterations: 480
currently lose_sum: 0.6806881427764893
time_elpased: 3.627
#iterations: 481
currently lose_sum: 0.6953414678573608
time_elpased: 3.617
#iterations: 482
currently lose_sum: 0.6938517093658447
time_elpased: 3.428
#iterations: 483
currently lose_sum: 0.6985570788383484
time_elpased: 3.575
#iterations: 484
currently lose_sum: 0.6854899525642395
time_elpased: 3.422
#iterations: 485
currently lose_sum: 0.6752351522445679
time_elpased: 3.343
#iterations: 486
currently lose_sum: 0.6766847968101501
time_elpased: 3.366
#iterations: 487
currently lose_sum: 0.6745303869247437
time_elpased: 3.368
#iterations: 488
currently lose_sum: 0.6890638470649719
time_elpased: 3.392
#iterations: 489
currently lose_sum: 0.6836305260658264
time_elpased: 3.533
#iterations: 490
currently lose_sum: 0.6754676103591919
time_elpased: 3.415
#iterations: 491
currently lose_sum: 0.6918136477470398
time_elpased: 3.333
#iterations: 492
currently lose_sum: 0.6920242309570312
time_elpased: 3.81
#iterations: 493
currently lose_sum: 0.6649624705314636
time_elpased: 3.418
#iterations: 494
currently lose_sum: 0.6948080658912659
time_elpased: 3.863
#iterations: 495
currently lose_sum: 0.6854285597801208
time_elpased: 3.399
#iterations: 496
currently lose_sum: 0.6803399920463562
time_elpased: 3.357
#iterations: 497
currently lose_sum: 0.6823155283927917
time_elpased: 3.356
#iterations: 498
currently lose_sum: 0.6817753314971924
time_elpased: 3.51
#iterations: 499
currently lose_sum: 0.6780569553375244
time_elpased: 3.415
start validation test
0.5416
0.549674267101
0.532334384858
0.540865384615
0.541735374247
17.136
#iterations: 500
currently lose_sum: 0.6925866603851318
time_elpased: 3.344
#iterations: 501
currently lose_sum: 0.6787556409835815
time_elpased: 3.43
#iterations: 502
currently lose_sum: 0.6902689337730408
time_elpased: 3.384
#iterations: 503
currently lose_sum: 0.6731076836585999
time_elpased: 3.417
#iterations: 504
currently lose_sum: 0.6893219947814941
time_elpased: 3.44
#iterations: 505
currently lose_sum: 0.6732948422431946
time_elpased: 3.393
#iterations: 506
currently lose_sum: 0.6905863881111145
time_elpased: 3.526
#iterations: 507
currently lose_sum: 0.6741347312927246
time_elpased: 3.391
#iterations: 508
currently lose_sum: 0.6919882297515869
time_elpased: 3.381
#iterations: 509
currently lose_sum: 0.6959561109542847
time_elpased: 3.378
#iterations: 510
currently lose_sum: 0.6789019703865051
time_elpased: 3.447
#iterations: 511
currently lose_sum: 0.6891512870788574
time_elpased: 3.352
#iterations: 512
currently lose_sum: 0.6839798092842102
time_elpased: 3.388
#iterations: 513
currently lose_sum: 0.6874937415122986
time_elpased: 3.379
#iterations: 514
currently lose_sum: 0.6851804256439209
time_elpased: 3.379
#iterations: 515
currently lose_sum: 0.655693531036377
time_elpased: 4.178
#iterations: 516
currently lose_sum: 0.6728994846343994
time_elpased: 3.444
#iterations: 517
currently lose_sum: 0.6806256771087646
time_elpased: 3.4
#iterations: 518
currently lose_sum: 0.6736528873443604
time_elpased: 3.548
#iterations: 519
currently lose_sum: 0.6794316172599792
time_elpased: 3.383
start validation test
0.536
0.545075125209
0.514984227129
0.529602595296
0.53630704863
17.127
#iterations: 520
currently lose_sum: 0.7038388252258301
time_elpased: 3.438
#iterations: 521
currently lose_sum: 0.687472403049469
time_elpased: 3.44
#iterations: 522
currently lose_sum: 0.6815531849861145
time_elpased: 3.607
#iterations: 523
currently lose_sum: 0.6860068440437317
time_elpased: 3.359
#iterations: 524
currently lose_sum: 0.6804664134979248
time_elpased: 3.559
#iterations: 525
currently lose_sum: 0.6591433882713318
time_elpased: 3.387
#iterations: 526
currently lose_sum: 0.6792179942131042
time_elpased: 3.367
#iterations: 527
currently lose_sum: 0.6713012456893921
time_elpased: 3.394
#iterations: 528
currently lose_sum: 0.6841762065887451
time_elpased: 3.85
#iterations: 529
currently lose_sum: 0.6656824350357056
time_elpased: 3.55
#iterations: 530
currently lose_sum: 0.674091637134552
time_elpased: 3.382
#iterations: 531
currently lose_sum: 0.6946718096733093
time_elpased: 3.408
#iterations: 532
currently lose_sum: 0.6936768889427185
time_elpased: 3.543
#iterations: 533
currently lose_sum: 0.6794229745864868
time_elpased: 3.364
#iterations: 534
currently lose_sum: 0.7016509771347046
time_elpased: 3.505
#iterations: 535
currently lose_sum: 0.6800692081451416
time_elpased: 3.43
#iterations: 536
currently lose_sum: 0.6990504264831543
time_elpased: 3.363
#iterations: 537
currently lose_sum: 0.6770057082176208
time_elpased: 3.545
#iterations: 538
currently lose_sum: 0.6855729818344116
time_elpased: 3.537
#iterations: 539
currently lose_sum: 0.6863880753517151
time_elpased: 3.423
start validation test
0.5356
0.53896576839
0.583596214511
0.560393790231
0.534898756606
17.103
#iterations: 540
currently lose_sum: 0.6887199282646179
time_elpased: 3.419
#iterations: 541
currently lose_sum: 0.6951056718826294
time_elpased: 4.32
#iterations: 542
currently lose_sum: 0.688689112663269
time_elpased: 3.484
#iterations: 543
currently lose_sum: 0.663719117641449
time_elpased: 3.372
#iterations: 544
currently lose_sum: 0.6814247369766235
time_elpased: 3.448
#iterations: 545
currently lose_sum: 0.6841737627983093
time_elpased: 3.848
#iterations: 546
currently lose_sum: 0.6746807098388672
time_elpased: 3.774
#iterations: 547
currently lose_sum: 0.6743676662445068
time_elpased: 3.342
#iterations: 548
currently lose_sum: 0.6726183891296387
time_elpased: 3.77
#iterations: 549
currently lose_sum: 0.6715888977050781
time_elpased: 3.65
#iterations: 550
currently lose_sum: 0.7066988945007324
time_elpased: 3.774
#iterations: 551
currently lose_sum: 0.6943337917327881
time_elpased: 3.748
#iterations: 552
currently lose_sum: 0.6868873834609985
time_elpased: 3.653
#iterations: 553
currently lose_sum: 0.6653711795806885
time_elpased: 3.579
#iterations: 554
currently lose_sum: 0.6970217227935791
time_elpased: 3.354
#iterations: 555
currently lose_sum: 0.6743447184562683
time_elpased: 3.34
#iterations: 556
currently lose_sum: 0.672650158405304
time_elpased: 3.455
#iterations: 557
currently lose_sum: 0.6704418659210205
time_elpased: 3.352
#iterations: 558
currently lose_sum: 0.6879667043685913
time_elpased: 3.438
#iterations: 559
currently lose_sum: 0.6821087598800659
time_elpased: 3.498
start validation test
0.5512
0.561344537815
0.526813880126
0.543531326282
0.551556290712
17.110
#iterations: 560
currently lose_sum: 0.6703819036483765
time_elpased: 3.417
#iterations: 561
currently lose_sum: 0.6905143857002258
time_elpased: 3.391
#iterations: 562
currently lose_sum: 0.6773967146873474
time_elpased: 3.489
#iterations: 563
currently lose_sum: 0.6979549527168274
time_elpased: 3.389
#iterations: 564
currently lose_sum: 0.6849444508552551
time_elpased: 3.382
#iterations: 565
currently lose_sum: 0.6833192706108093
time_elpased: 3.543
#iterations: 566
currently lose_sum: 0.682236909866333
time_elpased: 3.414
#iterations: 567
currently lose_sum: 0.6750908493995667
time_elpased: 3.389
#iterations: 568
currently lose_sum: 0.6895586252212524
time_elpased: 3.387
#iterations: 569
currently lose_sum: 0.6666710376739502
time_elpased: 3.376
#iterations: 570
currently lose_sum: 0.6687162518501282
time_elpased: 3.365
#iterations: 571
currently lose_sum: 0.7015536427497864
time_elpased: 3.534
#iterations: 572
currently lose_sum: 0.7054505944252014
time_elpased: 3.56
#iterations: 573
currently lose_sum: 0.6759978532791138
time_elpased: 3.403
#iterations: 574
currently lose_sum: 0.6654852032661438
time_elpased: 3.39
#iterations: 575
currently lose_sum: 0.69098299741745
time_elpased: 3.402
#iterations: 576
currently lose_sum: 0.7052076458930969
time_elpased: 3.601
#iterations: 577
currently lose_sum: 0.6922297477722168
time_elpased: 3.394
#iterations: 578
currently lose_sum: 0.7013140916824341
time_elpased: 3.394
#iterations: 579
currently lose_sum: 0.7086169719696045
time_elpased: 3.53
start validation test
0.54
0.587537091988
0.312302839117
0.407826982492
0.543326744234
17.247
#iterations: 580
currently lose_sum: 0.6733906269073486
time_elpased: 3.36
#iterations: 581
currently lose_sum: 0.6948015093803406
time_elpased: 3.475
#iterations: 582
currently lose_sum: 0.6860125660896301
time_elpased: 3.45
#iterations: 583
currently lose_sum: 0.6886041760444641
time_elpased: 3.774
#iterations: 584
currently lose_sum: 0.6935312151908875
time_elpased: 3.461
#iterations: 585
currently lose_sum: 0.6867184638977051
time_elpased: 3.362
#iterations: 586
currently lose_sum: 0.6692926287651062
time_elpased: 3.386
#iterations: 587
currently lose_sum: 0.6740803718566895
time_elpased: 3.469
#iterations: 588
currently lose_sum: 0.6887747049331665
time_elpased: 3.388
#iterations: 589
currently lose_sum: 0.6643903255462646
time_elpased: 3.353
#iterations: 590
currently lose_sum: 0.6944700479507446
time_elpased: 3.467
#iterations: 591
currently lose_sum: 0.6756518483161926
time_elpased: 3.435
#iterations: 592
currently lose_sum: 0.6836322546005249
time_elpased: 3.373
#iterations: 593
currently lose_sum: 0.7074730396270752
time_elpased: 3.389
#iterations: 594
currently lose_sum: 0.7040080428123474
time_elpased: 3.352
#iterations: 595
currently lose_sum: 0.6955863833427429
time_elpased: 3.365
#iterations: 596
currently lose_sum: 0.6810179352760315
time_elpased: 3.6
#iterations: 597
currently lose_sum: 0.6853357553482056
time_elpased: 3.603
#iterations: 598
currently lose_sum: 0.7045802474021912
time_elpased: 3.636
#iterations: 599
currently lose_sum: 0.6872929930686951
time_elpased: 3.382
start validation test
0.5344
0.534391534392
0.637223974763
0.581294964029
0.532897701667
17.122
acc: 0.516
pre: 0.521
rec: 0.566
F1: 0.543
auc: 0.515
