start to construct computing graph
graph construct over
3372
epochs start
#iterations: 0
currently lose_sum: 0.6899588108062744
time_elpased: 10.957
#iterations: 1
currently lose_sum: 0.690308690071106
time_elpased: 10.683
#iterations: 2
currently lose_sum: 0.8353293538093567
time_elpased: 10.596
#iterations: 3
currently lose_sum: 0.7106510996818542
time_elpased: 10.547
#iterations: 4
currently lose_sum: 0.6864043474197388
time_elpased: 10.476
#iterations: 5
currently lose_sum: 0.6846154928207397
time_elpased: 10.47
#iterations: 6
currently lose_sum: 0.6186050176620483
time_elpased: 10.669
#iterations: 7
currently lose_sum: 0.694322943687439
time_elpased: 10.596
#iterations: 8
currently lose_sum: 0.6309540867805481
time_elpased: 10.277
#iterations: 9
currently lose_sum: 0.7786047458648682
time_elpased: 10.26
#iterations: 10
currently lose_sum: 0.696226954460144
time_elpased: 10.488
#iterations: 11
currently lose_sum: 0.6427806615829468
time_elpased: 10.368
#iterations: 12
currently lose_sum: 0.5986344218254089
time_elpased: 10.404
#iterations: 13
currently lose_sum: 0.5580062866210938
time_elpased: 10.392
#iterations: 14
currently lose_sum: 0.6189723610877991
time_elpased: 10.48
#iterations: 15
currently lose_sum: 0.6217105388641357
time_elpased: 10.582
#iterations: 16
currently lose_sum: 0.555292010307312
time_elpased: 10.465
#iterations: 17
currently lose_sum: 0.5996809005737305
time_elpased: 10.565
#iterations: 18
currently lose_sum: 0.6277070045471191
time_elpased: 10.445
#iterations: 19
currently lose_sum: 0.5600082874298096
time_elpased: 10.532
start validation test
0.633928571429
0.654786150713
0.57206405694
0.610636277303
0.63415030804
37.274
#iterations: 20
currently lose_sum: 0.5598807334899902
time_elpased: 9.601
#iterations: 21
currently lose_sum: 0.6580621004104614
time_elpased: 9.29
#iterations: 22
currently lose_sum: 0.705097496509552
time_elpased: 9.43
#iterations: 23
currently lose_sum: 0.5886417627334595
time_elpased: 9.503
#iterations: 24
currently lose_sum: 0.6527245044708252
time_elpased: 9.338
#iterations: 25
currently lose_sum: 0.6400952339172363
time_elpased: 9.43
#iterations: 26
currently lose_sum: 0.6022473573684692
time_elpased: 9.364
#iterations: 27
currently lose_sum: 0.5837712287902832
time_elpased: 9.334
#iterations: 28
currently lose_sum: 0.4902699589729309
time_elpased: 9.258
#iterations: 29
currently lose_sum: 0.6023826003074646
time_elpased: 9.419
#iterations: 30
currently lose_sum: 0.5714553594589233
time_elpased: 9.333
#iterations: 31
currently lose_sum: 0.6888440847396851
time_elpased: 9.293
#iterations: 32
currently lose_sum: 0.6744340062141418
time_elpased: 9.37
#iterations: 33
currently lose_sum: 0.5345256328582764
time_elpased: 9.433
#iterations: 34
currently lose_sum: 0.572339653968811
time_elpased: 9.396
#iterations: 35
currently lose_sum: 0.6495105028152466
time_elpased: 9.076
#iterations: 36
currently lose_sum: 0.6488421559333801
time_elpased: 9.31
#iterations: 37
currently lose_sum: 0.4532955586910248
time_elpased: 9.206
#iterations: 38
currently lose_sum: 0.6012280583381653
time_elpased: 9.394
#iterations: 39
currently lose_sum: 0.6493005752563477
time_elpased: 9.354
start validation test
0.674553571429
0.683039851715
0.655693950178
0.669087607808
0.674621168637
35.603
#iterations: 40
currently lose_sum: 0.6403769254684448
time_elpased: 9.331
#iterations: 41
currently lose_sum: 0.5878769159317017
time_elpased: 9.343
#iterations: 42
currently lose_sum: 0.5564335584640503
time_elpased: 9.49
#iterations: 43
currently lose_sum: 0.6040266752243042
time_elpased: 9.483
#iterations: 44
currently lose_sum: 0.43759042024612427
time_elpased: 9.402
#iterations: 45
currently lose_sum: 0.5282027125358582
time_elpased: 9.226
#iterations: 46
currently lose_sum: 0.6494286060333252
time_elpased: 9.351
#iterations: 47
currently lose_sum: 0.485246479511261
time_elpased: 9.48
#iterations: 48
currently lose_sum: 0.6154157519340515
time_elpased: 9.398
#iterations: 49
currently lose_sum: 0.6033766269683838
time_elpased: 9.348
#iterations: 50
currently lose_sum: 0.5791909098625183
time_elpased: 9.397
#iterations: 51
currently lose_sum: 0.45118895173072815
time_elpased: 9.332
#iterations: 52
currently lose_sum: 0.582283616065979
time_elpased: 9.328
#iterations: 53
currently lose_sum: 0.5310236215591431
time_elpased: 9.427
#iterations: 54
currently lose_sum: 0.6736984252929688
time_elpased: 9.374
#iterations: 55
currently lose_sum: 0.5161815881729126
time_elpased: 9.214
#iterations: 56
currently lose_sum: 0.49789780378341675
time_elpased: 9.491
#iterations: 57
currently lose_sum: 0.49896305799484253
time_elpased: 9.471
#iterations: 58
currently lose_sum: 0.4827592372894287
time_elpased: 9.401
#iterations: 59
currently lose_sum: 0.5077868700027466
time_elpased: 9.568
start validation test
0.688839285714
0.755077658303
0.562277580071
0.644569097399
0.689292911899
33.070
#iterations: 60
currently lose_sum: 0.4788210988044739
time_elpased: 9.278
#iterations: 61
currently lose_sum: 0.5503789782524109
time_elpased: 9.515
#iterations: 62
currently lose_sum: 0.5338888168334961
time_elpased: 9.438
#iterations: 63
currently lose_sum: 0.46454477310180664
time_elpased: 9.456
#iterations: 64
currently lose_sum: 0.5376508831977844
time_elpased: 9.433
#iterations: 65
currently lose_sum: 0.5744232535362244
time_elpased: 9.527
#iterations: 66
currently lose_sum: 0.5261190533638
time_elpased: 9.651
#iterations: 67
currently lose_sum: 0.6475871801376343
time_elpased: 9.228
#iterations: 68
currently lose_sum: 0.4229511320590973
time_elpased: 9.338
#iterations: 69
currently lose_sum: 0.5131511688232422
time_elpased: 9.562
#iterations: 70
currently lose_sum: 0.48068809509277344
time_elpased: 9.401
#iterations: 71
currently lose_sum: 0.4063413739204407
time_elpased: 9.343
#iterations: 72
currently lose_sum: 0.31351739168167114
time_elpased: 9.354
#iterations: 73
currently lose_sum: 0.488941490650177
time_elpased: 9.323
#iterations: 74
currently lose_sum: 0.38634657859802246
time_elpased: 9.463
#iterations: 75
currently lose_sum: 0.4997073709964752
time_elpased: 9.276
#iterations: 76
currently lose_sum: 0.3305043578147888
time_elpased: 9.504
#iterations: 77
currently lose_sum: 0.3851190507411957
time_elpased: 9.359
#iterations: 78
currently lose_sum: 0.506327748298645
time_elpased: 9.435
#iterations: 79
currently lose_sum: 0.5555044412612915
time_elpased: 9.515
start validation test
0.692857142857
0.783854166667
0.535587188612
0.636363636364
0.693420834449
35.181
#iterations: 80
currently lose_sum: 0.4988330900669098
time_elpased: 9.598
#iterations: 81
currently lose_sum: 0.4688555598258972
time_elpased: 9.44
#iterations: 82
currently lose_sum: 0.4500589370727539
time_elpased: 9.588
#iterations: 83
currently lose_sum: 0.48253339529037476
time_elpased: 9.493
#iterations: 84
currently lose_sum: 0.42778173089027405
time_elpased: 9.387
#iterations: 85
currently lose_sum: 0.38742145895957947
time_elpased: 9.336
#iterations: 86
currently lose_sum: 0.6133654713630676
time_elpased: 9.385
#iterations: 87
currently lose_sum: 0.3050875961780548
time_elpased: 9.498
#iterations: 88
currently lose_sum: 0.38967886567115784
time_elpased: 9.28
#iterations: 89
currently lose_sum: 0.40783604979515076
time_elpased: 9.436
#iterations: 90
currently lose_sum: 0.375115305185318
time_elpased: 9.294
#iterations: 91
currently lose_sum: 0.49987173080444336
time_elpased: 9.377
#iterations: 92
currently lose_sum: 0.46431106328964233
time_elpased: 9.45
#iterations: 93
currently lose_sum: 0.5607279539108276
time_elpased: 9.44
#iterations: 94
currently lose_sum: 0.5091271996498108
time_elpased: 9.474
#iterations: 95
currently lose_sum: 0.35926157236099243
time_elpased: 9.187
#iterations: 96
currently lose_sum: 0.36282476782798767
time_elpased: 9.464
#iterations: 97
currently lose_sum: 0.4246952533721924
time_elpased: 9.387
#iterations: 98
currently lose_sum: 0.3077252507209778
time_elpased: 9.402
#iterations: 99
currently lose_sum: 0.569277822971344
time_elpased: 9.418
start validation test
0.725892857143
0.745192307692
0.689501779359
0.716266173752
0.726023291113
35.796
#iterations: 100
currently lose_sum: 0.45789653062820435
time_elpased: 9.47
#iterations: 101
currently lose_sum: 0.4590436816215515
time_elpased: 9.36
#iterations: 102
currently lose_sum: 0.3314889967441559
time_elpased: 9.349
#iterations: 103
currently lose_sum: 0.42185744643211365
time_elpased: 9.345
#iterations: 104
currently lose_sum: 0.5392948389053345
time_elpased: 9.517
#iterations: 105
currently lose_sum: 0.4309201240539551
time_elpased: 9.426
#iterations: 106
currently lose_sum: 0.41151705384254456
time_elpased: 9.509
#iterations: 107
currently lose_sum: 0.3739469647407532
time_elpased: 9.469
#iterations: 108
currently lose_sum: 0.30164384841918945
time_elpased: 9.305
#iterations: 109
currently lose_sum: 0.3936464488506317
time_elpased: 9.717
#iterations: 110
currently lose_sum: 0.4889599680900574
time_elpased: 9.433
#iterations: 111
currently lose_sum: 0.3068120777606964
time_elpased: 9.427
#iterations: 112
currently lose_sum: 0.36949461698532104
time_elpased: 9.555
#iterations: 113
currently lose_sum: 0.3293724060058594
time_elpased: 9.472
#iterations: 114
currently lose_sum: 0.5797723531723022
time_elpased: 9.25
#iterations: 115
currently lose_sum: 0.48962172865867615
time_elpased: 9.137
#iterations: 116
currently lose_sum: 0.2915763258934021
time_elpased: 9.38
#iterations: 117
currently lose_sum: 0.3683623671531677
time_elpased: 9.252
#iterations: 118
currently lose_sum: 0.21170184016227722
time_elpased: 9.535
#iterations: 119
currently lose_sum: 0.38004162907600403
time_elpased: 9.44
start validation test
0.747321428571
0.769305019305
0.709074733096
0.737962962963
0.747458513501
32.616
#iterations: 120
currently lose_sum: 0.27817821502685547
time_elpased: 9.428
#iterations: 121
currently lose_sum: 0.3260437846183777
time_elpased: 9.143
#iterations: 122
currently lose_sum: 0.46675246953964233
time_elpased: 9.333
#iterations: 123
currently lose_sum: 0.24150021374225616
time_elpased: 9.386
#iterations: 124
currently lose_sum: 0.34260886907577515
time_elpased: 9.514
#iterations: 125
currently lose_sum: 0.40040236711502075
time_elpased: 9.503
#iterations: 126
currently lose_sum: 0.6165107488632202
time_elpased: 9.401
#iterations: 127
currently lose_sum: 0.45474773645401
time_elpased: 9.515
#iterations: 128
currently lose_sum: 0.36858242750167847
time_elpased: 9.435
#iterations: 129
currently lose_sum: 0.35764795541763306
time_elpased: 9.47
#iterations: 130
currently lose_sum: 0.35272517800331116
time_elpased: 9.415
#iterations: 131
currently lose_sum: 0.2743043899536133
time_elpased: 9.552
#iterations: 132
currently lose_sum: 0.33249756693840027
time_elpased: 9.479
#iterations: 133
currently lose_sum: 0.18311603367328644
time_elpased: 9.443
#iterations: 134
currently lose_sum: 0.5299707055091858
time_elpased: 9.499
#iterations: 135
currently lose_sum: 0.2412738800048828
time_elpased: 9.291
#iterations: 136
currently lose_sum: 0.30065056681632996
time_elpased: 9.501
#iterations: 137
currently lose_sum: 0.3084533214569092
time_elpased: 9.423
#iterations: 138
currently lose_sum: 0.2664722800254822
time_elpased: 9.401
#iterations: 139
currently lose_sum: 0.47450655698776245
time_elpased: 9.362
start validation test
0.727232142857
0.817843866171
0.5871886121
0.683583635422
0.727734090996
43.695
#iterations: 140
currently lose_sum: 0.2950182855129242
time_elpased: 9.371
#iterations: 141
currently lose_sum: 0.4053310453891754
time_elpased: 9.282
#iterations: 142
currently lose_sum: 0.23923464119434357
time_elpased: 9.366
#iterations: 143
currently lose_sum: 0.41212359070777893
time_elpased: 9.425
#iterations: 144
currently lose_sum: 0.2136026918888092
time_elpased: 9.456
#iterations: 145
currently lose_sum: 0.46890074014663696
time_elpased: 9.45
#iterations: 146
currently lose_sum: 0.44013652205467224
time_elpased: 9.318
#iterations: 147
currently lose_sum: 0.3906400799751282
time_elpased: 9.371
#iterations: 148
currently lose_sum: 0.3300410509109497
time_elpased: 9.422
#iterations: 149
currently lose_sum: 0.24851484596729279
time_elpased: 9.361
#iterations: 150
currently lose_sum: 0.1386902779340744
time_elpased: 9.29
#iterations: 151
currently lose_sum: 0.20944206416606903
time_elpased: 9.262
#iterations: 152
currently lose_sum: 0.2154119461774826
time_elpased: 9.228
#iterations: 153
currently lose_sum: 0.25114208459854126
time_elpased: 9.307
#iterations: 154
currently lose_sum: 0.2317241132259369
time_elpased: 9.378
#iterations: 155
currently lose_sum: 0.34623879194259644
time_elpased: 9.225
#iterations: 156
currently lose_sum: 0.2721133530139923
time_elpased: 9.438
#iterations: 157
currently lose_sum: 0.4838760495185852
time_elpased: 9.405
#iterations: 158
currently lose_sum: 0.4010792374610901
time_elpased: 9.443
#iterations: 159
currently lose_sum: 0.36602267622947693
time_elpased: 9.457
start validation test
0.725446428571
0.806257521059
0.596085409253
0.685421994885
0.725910088139
48.909
#iterations: 160
currently lose_sum: 0.4346785545349121
time_elpased: 9.351
#iterations: 161
currently lose_sum: 0.19423654675483704
time_elpased: 9.425
#iterations: 162
currently lose_sum: 0.4873051047325134
time_elpased: 9.476
#iterations: 163
currently lose_sum: 0.2980242669582367
time_elpased: 9.395
#iterations: 164
currently lose_sum: 0.295345664024353
time_elpased: 9.352
#iterations: 165
currently lose_sum: 0.3492929935455322
time_elpased: 9.119
#iterations: 166
currently lose_sum: 0.19444549083709717
time_elpased: 9.328
#iterations: 167
currently lose_sum: 0.289055734872818
time_elpased: 9.452
#iterations: 168
currently lose_sum: 0.20114073157310486
time_elpased: 9.392
#iterations: 169
currently lose_sum: 0.324129194021225
time_elpased: 9.395
#iterations: 170
currently lose_sum: 0.1494303047657013
time_elpased: 9.4
#iterations: 171
currently lose_sum: 0.18149252235889435
time_elpased: 9.242
#iterations: 172
currently lose_sum: 0.16707387566566467
time_elpased: 9.5
#iterations: 173
currently lose_sum: 0.16171225905418396
time_elpased: 9.353
#iterations: 174
currently lose_sum: 0.24418386816978455
time_elpased: 9.404
#iterations: 175
currently lose_sum: 0.23595456779003143
time_elpased: 9.334
#iterations: 176
currently lose_sum: 0.21387076377868652
time_elpased: 8.076
#iterations: 177
currently lose_sum: 0.11052866280078888
time_elpased: 6.547
#iterations: 178
currently lose_sum: 0.2156689465045929
time_elpased: 8.954
#iterations: 179
currently lose_sum: 0.2341979742050171
time_elpased: 9.362
start validation test
0.729910714286
0.788654060067
0.630782918149
0.700939199209
0.730266011046
50.029
#iterations: 180
currently lose_sum: 0.22567644715309143
time_elpased: 9.446
#iterations: 181
currently lose_sum: 0.21733085811138153
time_elpased: 9.527
#iterations: 182
currently lose_sum: 0.3830256760120392
time_elpased: 9.553
#iterations: 183
currently lose_sum: 0.2074420005083084
time_elpased: 9.464
#iterations: 184
currently lose_sum: 0.354153573513031
time_elpased: 9.392
#iterations: 185
currently lose_sum: 0.2792718708515167
time_elpased: 9.374
#iterations: 186
currently lose_sum: 0.36285844445228577
time_elpased: 9.398
#iterations: 187
currently lose_sum: 0.14453400671482086
time_elpased: 9.299
#iterations: 188
currently lose_sum: 0.1317598670721054
time_elpased: 9.537
#iterations: 189
currently lose_sum: 0.26836490631103516
time_elpased: 9.251
#iterations: 190
currently lose_sum: 0.29037898778915405
time_elpased: 9.408
#iterations: 191
currently lose_sum: 0.10391150414943695
time_elpased: 9.513
#iterations: 192
currently lose_sum: 0.444491446018219
time_elpased: 9.307
#iterations: 193
currently lose_sum: 0.19512629508972168
time_elpased: 9.262
#iterations: 194
currently lose_sum: 0.3125647306442261
time_elpased: 9.623
#iterations: 195
currently lose_sum: 0.23387689888477325
time_elpased: 9.398
#iterations: 196
currently lose_sum: 0.28683122992515564
time_elpased: 9.3
#iterations: 197
currently lose_sum: 0.36283689737319946
time_elpased: 9.268
#iterations: 198
currently lose_sum: 0.24390164017677307
time_elpased: 9.472
#iterations: 199
currently lose_sum: 0.21474404633045197
time_elpased: 9.519
start validation test
0.717857142857
0.83153638814
0.548932384342
0.661307609861
0.718462607941
60.502
#iterations: 200
currently lose_sum: 0.25036826729774475
time_elpased: 8.992
#iterations: 201
currently lose_sum: 0.23816795647144318
time_elpased: 9.677
#iterations: 202
currently lose_sum: 0.06346911936998367
time_elpased: 9.83
#iterations: 203
currently lose_sum: 0.0531911738216877
time_elpased: 9.775
#iterations: 204
currently lose_sum: 0.13832977414131165
time_elpased: 9.794
#iterations: 205
currently lose_sum: 0.28438881039619446
time_elpased: 9.713
#iterations: 206
currently lose_sum: 0.2768036723136902
time_elpased: 9.787
#iterations: 207
currently lose_sum: 0.22663550078868866
time_elpased: 9.843
#iterations: 208
currently lose_sum: 0.10690926015377045
time_elpased: 9.735
#iterations: 209
currently lose_sum: 0.29984283447265625
time_elpased: 9.791
#iterations: 210
currently lose_sum: 0.20025524497032166
time_elpased: 9.762
#iterations: 211
currently lose_sum: 0.2782716155052185
time_elpased: 9.791
#iterations: 212
currently lose_sum: 0.19646361470222473
time_elpased: 9.947
#iterations: 213
currently lose_sum: 0.10464133322238922
time_elpased: 9.757
#iterations: 214
currently lose_sum: 0.2060515433549881
time_elpased: 9.424
#iterations: 215
currently lose_sum: 0.2963355481624603
time_elpased: 9.795
#iterations: 216
currently lose_sum: 0.1248064860701561
time_elpased: 9.7
#iterations: 217
currently lose_sum: 0.08488750457763672
time_elpased: 9.777
#iterations: 218
currently lose_sum: 0.09960655868053436
time_elpased: 9.786
#iterations: 219
currently lose_sum: 0.0920669287443161
time_elpased: 9.771
start validation test
0.709375
0.833568406206
0.525800711744
0.644844517185
0.710032972359
64.908
#iterations: 220
currently lose_sum: 0.3086515963077545
time_elpased: 9.277
#iterations: 221
currently lose_sum: 0.15197905898094177
time_elpased: 9.741
#iterations: 222
currently lose_sum: 0.17548969388008118
time_elpased: 9.897
#iterations: 223
currently lose_sum: 0.10320477187633514
time_elpased: 9.833
#iterations: 224
currently lose_sum: 0.1744716614484787
time_elpased: 9.918
#iterations: 225
currently lose_sum: 0.3424381613731384
time_elpased: 9.784
#iterations: 226
currently lose_sum: 0.1491607427597046
time_elpased: 9.877
#iterations: 227
currently lose_sum: 0.3027034401893616
time_elpased: 9.633
#iterations: 228
currently lose_sum: 0.09497961401939392
time_elpased: 9.929
#iterations: 229
currently lose_sum: 0.08532993495464325
time_elpased: 9.782
#iterations: 230
currently lose_sum: 0.2661367356777191
time_elpased: 9.863
#iterations: 231
currently lose_sum: 0.425706684589386
time_elpased: 9.718
#iterations: 232
currently lose_sum: 0.1654539406299591
time_elpased: 9.709
#iterations: 233
currently lose_sum: 0.19435422122478485
time_elpased: 9.798
#iterations: 234
currently lose_sum: 0.5813199877738953
time_elpased: 9.477
#iterations: 235
currently lose_sum: 0.15181796252727509
time_elpased: 9.762
#iterations: 236
currently lose_sum: 0.24904349446296692
time_elpased: 9.675
#iterations: 237
currently lose_sum: 0.21752674877643585
time_elpased: 9.493
#iterations: 238
currently lose_sum: 0.24931108951568604
time_elpased: 9.727
#iterations: 239
currently lose_sum: 0.13545693457126617
time_elpased: 9.694
start validation test
0.697321428571
0.844135802469
0.48665480427
0.617381489842
0.698076506078
75.734
#iterations: 240
currently lose_sum: 0.19089670479297638
time_elpased: 9.608
#iterations: 241
currently lose_sum: 0.33738258481025696
time_elpased: 9.238
#iterations: 242
currently lose_sum: 0.07072741538286209
time_elpased: 9.72
#iterations: 243
currently lose_sum: 0.1398831307888031
time_elpased: 9.77
#iterations: 244
currently lose_sum: 0.13295583426952362
time_elpased: 9.754
#iterations: 245
currently lose_sum: 0.17457297444343567
time_elpased: 9.743
#iterations: 246
currently lose_sum: 0.2878117561340332
time_elpased: 9.699
#iterations: 247
currently lose_sum: 0.09343970566987991
time_elpased: 9.781
#iterations: 248
currently lose_sum: 0.09580651670694351
time_elpased: 9.832
#iterations: 249
currently lose_sum: 0.2104109525680542
time_elpased: 9.883
#iterations: 250
currently lose_sum: 0.12177393585443497
time_elpased: 9.727
#iterations: 251
currently lose_sum: 0.2453121691942215
time_elpased: 9.773
#iterations: 252
currently lose_sum: 0.4362095892429352
time_elpased: 9.801
#iterations: 253
currently lose_sum: 0.16434529423713684
time_elpased: 9.622
#iterations: 254
currently lose_sum: 0.25536221265792847
time_elpased: 9.811
#iterations: 255
currently lose_sum: 0.2459610402584076
time_elpased: 9.775
#iterations: 256
currently lose_sum: 0.20196381211280823
time_elpased: 9.799
#iterations: 257
currently lose_sum: 0.07846410572528839
time_elpased: 9.678
#iterations: 258
currently lose_sum: 0.21035900712013245
time_elpased: 9.715
#iterations: 259
currently lose_sum: 0.09667815268039703
time_elpased: 9.836
start validation test
0.705357142857
0.824022346369
0.524911032028
0.641304347826
0.706003903111
71.696
#iterations: 260
currently lose_sum: 0.15387973189353943
time_elpased: 9.816
#iterations: 261
currently lose_sum: 0.17314769327640533
time_elpased: 9.435
#iterations: 262
currently lose_sum: 0.0559956356883049
time_elpased: 9.804
#iterations: 263
currently lose_sum: 0.16784292459487915
time_elpased: 9.835
#iterations: 264
currently lose_sum: 0.1621253937482834
time_elpased: 9.473
#iterations: 265
currently lose_sum: 0.1331125795841217
time_elpased: 9.774
#iterations: 266
currently lose_sum: 0.04048972949385643
time_elpased: 9.743
#iterations: 267
currently lose_sum: 0.04938588663935661
time_elpased: 9.831
#iterations: 268
currently lose_sum: 0.17320170998573303
time_elpased: 9.823
#iterations: 269
currently lose_sum: 0.08419962972402573
time_elpased: 9.803
#iterations: 270
currently lose_sum: 0.22168251872062683
time_elpased: 9.798
#iterations: 271
currently lose_sum: 0.17782911658287048
time_elpased: 9.886
#iterations: 272
currently lose_sum: 0.09508819878101349
time_elpased: 9.609
#iterations: 273
currently lose_sum: 0.14753219485282898
time_elpased: 9.71
#iterations: 274
currently lose_sum: 0.06339891254901886
time_elpased: 9.761
#iterations: 275
currently lose_sum: 0.13864772021770477
time_elpased: 9.89
#iterations: 276
currently lose_sum: 0.1544256955385208
time_elpased: 9.748
#iterations: 277
currently lose_sum: 0.1520143449306488
time_elpased: 9.791
#iterations: 278
currently lose_sum: 0.2782886028289795
time_elpased: 9.777
#iterations: 279
currently lose_sum: 0.2796767055988312
time_elpased: 9.762
start validation test
0.692857142857
0.85737704918
0.465302491103
0.603229527105
0.693672750928
80.651
#iterations: 280
currently lose_sum: 0.05463193729519844
time_elpased: 9.76
#iterations: 281
currently lose_sum: 0.03997771814465523
time_elpased: 9.325
#iterations: 282
currently lose_sum: 0.2547534108161926
time_elpased: 9.833
#iterations: 283
currently lose_sum: 0.12697544693946838
time_elpased: 9.796
#iterations: 284
currently lose_sum: 0.1272122859954834
time_elpased: 9.83
#iterations: 285
currently lose_sum: 0.16213375329971313
time_elpased: 9.749
#iterations: 286
currently lose_sum: 0.23715345561504364
time_elpased: 9.88
#iterations: 287
currently lose_sum: 0.2009526789188385
time_elpased: 9.744
#iterations: 288
currently lose_sum: 0.1503337174654007
time_elpased: 9.676
#iterations: 289
currently lose_sum: 0.061961330473423004
time_elpased: 9.773
#iterations: 290
currently lose_sum: 0.19434773921966553
time_elpased: 9.782
#iterations: 291
currently lose_sum: 0.2716987431049347
time_elpased: 9.693
#iterations: 292
currently lose_sum: 0.2112499177455902
time_elpased: 9.72
#iterations: 293
currently lose_sum: 0.18922503292560577
time_elpased: 9.806
#iterations: 294
currently lose_sum: 0.13775961101055145
time_elpased: 9.735
#iterations: 295
currently lose_sum: 0.08790066838264465
time_elpased: 9.755
#iterations: 296
currently lose_sum: 0.1366288661956787
time_elpased: 9.669
#iterations: 297
currently lose_sum: 0.231424480676651
time_elpased: 9.777
#iterations: 298
currently lose_sum: 0.2112644612789154
time_elpased: 9.729
#iterations: 299
currently lose_sum: 0.036727238446474075
time_elpased: 9.776
start validation test
0.679910714286
0.843170320405
0.444839857651
0.582411182295
0.680753262159
82.415
#iterations: 300
currently lose_sum: 0.04492032900452614
time_elpased: 9.907
#iterations: 301
currently lose_sum: 0.268915593624115
time_elpased: 9.469
#iterations: 302
currently lose_sum: 0.09393499791622162
time_elpased: 9.939
#iterations: 303
currently lose_sum: 0.1079786866903305
time_elpased: 9.695
#iterations: 304
currently lose_sum: 0.19417043030261993
time_elpased: 9.783
#iterations: 305
currently lose_sum: 0.08744116127490997
time_elpased: 9.834
#iterations: 306
currently lose_sum: 0.13205894827842712
time_elpased: 9.613
#iterations: 307
currently lose_sum: 0.13903911411762238
time_elpased: 9.728
#iterations: 308
currently lose_sum: 0.17758652567863464
time_elpased: 9.872
#iterations: 309
currently lose_sum: 0.24051494896411896
time_elpased: 9.74
#iterations: 310
currently lose_sum: 0.25747427344322205
time_elpased: 9.752
#iterations: 311
currently lose_sum: 0.24752585589885712
time_elpased: 9.655
#iterations: 312
currently lose_sum: 0.41533294320106506
time_elpased: 9.74
#iterations: 313
currently lose_sum: 0.05094199255108833
time_elpased: 9.737
#iterations: 314
currently lose_sum: 0.1000564843416214
time_elpased: 9.668
#iterations: 315
currently lose_sum: 0.17823104560375214
time_elpased: 9.745
#iterations: 316
currently lose_sum: 0.05234096199274063
time_elpased: 9.774
#iterations: 317
currently lose_sum: 0.20768797397613525
time_elpased: 9.817
#iterations: 318
currently lose_sum: 0.05577848106622696
time_elpased: 9.758
#iterations: 319
currently lose_sum: 0.022083770483732224
time_elpased: 9.742
start validation test
0.677678571429
0.856382978723
0.429715302491
0.572274881517
0.678567328665
86.574
#iterations: 320
currently lose_sum: 0.21081772446632385
time_elpased: 9.817
#iterations: 321
currently lose_sum: 0.1299634426832199
time_elpased: 9.397
#iterations: 322
currently lose_sum: 0.41018199920654297
time_elpased: 9.683
#iterations: 323
currently lose_sum: 0.02385759726166725
time_elpased: 9.76
#iterations: 324
currently lose_sum: 0.21951138973236084
time_elpased: 9.77
#iterations: 325
currently lose_sum: 0.10821741819381714
time_elpased: 9.733
#iterations: 326
currently lose_sum: 0.11972202360630035
time_elpased: 9.81
#iterations: 327
currently lose_sum: 0.26076096296310425
time_elpased: 9.839
#iterations: 328
currently lose_sum: 0.0808311328291893
time_elpased: 9.81
#iterations: 329
currently lose_sum: 0.04183030128479004
time_elpased: 9.728
#iterations: 330
currently lose_sum: 0.2722420394420624
time_elpased: 9.803
#iterations: 331
currently lose_sum: 0.06272687017917633
time_elpased: 9.762
#iterations: 332
currently lose_sum: 0.08191541582345963
time_elpased: 9.683
#iterations: 333
currently lose_sum: 0.0926642119884491
time_elpased: 9.791
#iterations: 334
currently lose_sum: 0.1436104029417038
time_elpased: 9.657
#iterations: 335
currently lose_sum: 0.07277978956699371
time_elpased: 9.734
#iterations: 336
currently lose_sum: 0.1539837121963501
time_elpased: 9.795
#iterations: 337
currently lose_sum: 0.17574241757392883
time_elpased: 9.777
#iterations: 338
currently lose_sum: 0.0538569800555706
time_elpased: 9.871
#iterations: 339
currently lose_sum: 0.06368976831436157
time_elpased: 9.925
start validation test
0.678125
0.867030965392
0.423487544484
0.569037656904
0.679037679052
92.396
#iterations: 340
currently lose_sum: 0.27484455704689026
time_elpased: 9.78
#iterations: 341
currently lose_sum: 0.02333895117044449
time_elpased: 9.678
#iterations: 342
currently lose_sum: 0.2981775403022766
time_elpased: 9.639
#iterations: 343
currently lose_sum: 0.023215312510728836
time_elpased: 9.855
#iterations: 344
currently lose_sum: 0.26357921957969666
time_elpased: 9.673
#iterations: 345
currently lose_sum: 0.11005192995071411
time_elpased: 9.732
#iterations: 346
currently lose_sum: 0.06067150831222534
time_elpased: 9.822
#iterations: 347
currently lose_sum: 0.11313961446285248
time_elpased: 9.702
#iterations: 348
currently lose_sum: 0.05596601963043213
time_elpased: 9.709
#iterations: 349
currently lose_sum: 0.03850848600268364
time_elpased: 9.746
#iterations: 350
currently lose_sum: 0.08699531853199005
time_elpased: 9.722
#iterations: 351
currently lose_sum: 0.24923507869243622
time_elpased: 9.706
#iterations: 352
currently lose_sum: 0.06987033039331436
time_elpased: 9.177
#iterations: 353
currently lose_sum: 0.2992100715637207
time_elpased: 9.664
#iterations: 354
currently lose_sum: 0.14156198501586914
time_elpased: 9.737
#iterations: 355
currently lose_sum: 0.1424449235200882
time_elpased: 9.714
#iterations: 356
currently lose_sum: 0.18319687247276306
time_elpased: 9.723
#iterations: 357
currently lose_sum: 0.06884928047657013
time_elpased: 9.751
#iterations: 358
currently lose_sum: 0.08305199444293976
time_elpased: 9.721
#iterations: 359
currently lose_sum: 0.058744657784700394
time_elpased: 9.562
start validation test
0.666071428571
0.860153256705
0.399466192171
0.545565006075
0.667027002895
97.088
#iterations: 360
currently lose_sum: 0.08591803163290024
time_elpased: 9.68
#iterations: 361
currently lose_sum: 0.1380312144756317
time_elpased: 9.663
#iterations: 362
currently lose_sum: 0.13501498103141785
time_elpased: 9.276
#iterations: 363
currently lose_sum: 0.03984858840703964
time_elpased: 9.772
#iterations: 364
currently lose_sum: 0.12263920158147812
time_elpased: 9.733
#iterations: 365
currently lose_sum: 0.18427664041519165
time_elpased: 9.662
#iterations: 366
currently lose_sum: 0.18007273972034454
time_elpased: 9.734
#iterations: 367
currently lose_sum: 0.07922502607107162
time_elpased: 9.83
#iterations: 368
currently lose_sum: 0.03623960167169571
time_elpased: 9.801
#iterations: 369
currently lose_sum: 0.10843463242053986
time_elpased: 9.783
#iterations: 370
currently lose_sum: 0.04429206997156143
time_elpased: 9.725
#iterations: 371
currently lose_sum: 0.042351171374320984
time_elpased: 9.769
#iterations: 372
currently lose_sum: 0.018462561070919037
time_elpased: 9.859
#iterations: 373
currently lose_sum: 0.2904505729675293
time_elpased: 9.732
#iterations: 374
currently lose_sum: 0.12348298728466034
time_elpased: 9.796
#iterations: 375
currently lose_sum: 0.11600270122289658
time_elpased: 9.896
#iterations: 376
currently lose_sum: 0.09292183816432953
time_elpased: 9.869
#iterations: 377
currently lose_sum: 0.06181640177965164
time_elpased: 9.85
#iterations: 378
currently lose_sum: 0.1565883606672287
time_elpased: 9.692
#iterations: 379
currently lose_sum: 0.13421599566936493
time_elpased: 9.754
start validation test
0.6625
0.868
0.386120996441
0.534482758621
0.663490605748
95.815
#iterations: 380
currently lose_sum: 0.23379190266132355
time_elpased: 9.708
#iterations: 381
currently lose_sum: 0.03398323804140091
time_elpased: 9.741
#iterations: 382
currently lose_sum: 0.009991316124796867
time_elpased: 9.144
#iterations: 383
currently lose_sum: 0.11825720965862274
time_elpased: 9.703
#iterations: 384
currently lose_sum: 0.022700252011418343
time_elpased: 9.657
#iterations: 385
currently lose_sum: 0.04454890266060829
time_elpased: 9.69
#iterations: 386
currently lose_sum: 0.018954817205667496
time_elpased: 9.742
#iterations: 387
currently lose_sum: 0.18999354541301727
time_elpased: 9.76
#iterations: 388
currently lose_sum: 0.10442431271076202
time_elpased: 9.647
#iterations: 389
currently lose_sum: 0.10001542419195175
time_elpased: 9.821
#iterations: 390
currently lose_sum: 0.1618311107158661
time_elpased: 9.753
#iterations: 391
currently lose_sum: 0.04495556280016899
time_elpased: 9.654
#iterations: 392
currently lose_sum: 0.0972033217549324
time_elpased: 9.679
#iterations: 393
currently lose_sum: 0.21782174706459045
time_elpased: 9.721
#iterations: 394
currently lose_sum: 0.047483496367931366
time_elpased: 9.708
#iterations: 395
currently lose_sum: 0.04887392371892929
time_elpased: 9.702
#iterations: 396
currently lose_sum: 0.13833002746105194
time_elpased: 9.751
#iterations: 397
currently lose_sum: 0.050489746034145355
time_elpased: 9.765
#iterations: 398
currently lose_sum: 0.0498172901570797
time_elpased: 9.693
#iterations: 399
currently lose_sum: 0.043251316994428635
time_elpased: 9.762
start validation test
0.644642857143
0.874429223744
0.340747330961
0.490396927017
0.645732088419
108.668
#iterations: 400
currently lose_sum: 0.20451442897319794
time_elpased: 9.907
#iterations: 401
currently lose_sum: 0.11781388521194458
time_elpased: 9.86
#iterations: 402
currently lose_sum: 0.12177927792072296
time_elpased: 9.382
#iterations: 403
currently lose_sum: 0.1920337677001953
time_elpased: 9.772
#iterations: 404
currently lose_sum: 0.07138804346323013
time_elpased: 9.729
#iterations: 405
currently lose_sum: 0.11321381479501724
time_elpased: 9.701
#iterations: 406
currently lose_sum: 0.023385247215628624
time_elpased: 9.495
#iterations: 407
currently lose_sum: 0.23564155399799347
time_elpased: 9.547
#iterations: 408
currently lose_sum: 0.19484400749206543
time_elpased: 9.868
#iterations: 409
currently lose_sum: 0.10197247564792633
time_elpased: 9.763
#iterations: 410
currently lose_sum: 0.14087525010108948
time_elpased: 9.686
#iterations: 411
currently lose_sum: 0.10815553367137909
time_elpased: 9.682
#iterations: 412
currently lose_sum: 0.13021203875541687
time_elpased: 9.649
#iterations: 413
currently lose_sum: 0.17442262172698975
time_elpased: 9.74
#iterations: 414
currently lose_sum: 0.16047820448875427
time_elpased: 9.716
#iterations: 415
currently lose_sum: 0.06093794107437134
time_elpased: 9.72
#iterations: 416
currently lose_sum: 0.01107882335782051
time_elpased: 9.701
#iterations: 417
currently lose_sum: 0.008661617524921894
time_elpased: 9.716
#iterations: 418
currently lose_sum: 0.03723687306046486
time_elpased: 9.787
#iterations: 419
currently lose_sum: 0.06870917975902557
time_elpased: 9.788
start validation test
0.654910714286
0.885714285714
0.358540925267
0.510449651678
0.655972971594
106.359
#iterations: 420
currently lose_sum: 0.15556158125400543
time_elpased: 9.773
#iterations: 421
currently lose_sum: 0.026232456788420677
time_elpased: 9.819
#iterations: 422
currently lose_sum: 0.12881512939929962
time_elpased: 9.558
#iterations: 423
currently lose_sum: 0.01271122694015503
time_elpased: 9.744
#iterations: 424
currently lose_sum: 0.25161007046699524
time_elpased: 9.669
#iterations: 425
currently lose_sum: 0.05689208582043648
time_elpased: 9.619
#iterations: 426
currently lose_sum: 0.15483061969280243
time_elpased: 9.704
#iterations: 427
currently lose_sum: 0.05128759145736694
time_elpased: 9.808
#iterations: 428
currently lose_sum: 0.1503881961107254
time_elpased: 9.82
#iterations: 429
currently lose_sum: 0.0269849244505167
time_elpased: 9.812
#iterations: 430
currently lose_sum: 0.0938299298286438
time_elpased: 9.457
#iterations: 431
currently lose_sum: 0.03231049329042435
time_elpased: 9.755
#iterations: 432
currently lose_sum: 0.07649515569210052
time_elpased: 9.839
#iterations: 433
currently lose_sum: 0.0759156197309494
time_elpased: 9.945
#iterations: 434
currently lose_sum: 0.030017683282494545
time_elpased: 9.716
#iterations: 435
currently lose_sum: 0.06222090870141983
time_elpased: 9.874
#iterations: 436
currently lose_sum: 0.015420359559357166
time_elpased: 9.738
#iterations: 437
currently lose_sum: 0.030699992552399635
time_elpased: 9.604
#iterations: 438
currently lose_sum: 0.20001883804798126
time_elpased: 9.671
#iterations: 439
currently lose_sum: 0.14020174741744995
time_elpased: 9.788
start validation test
0.647321428571
0.884792626728
0.341637010676
0.492939666239
0.648417071646
113.970
#iterations: 440
currently lose_sum: 0.030522936955094337
time_elpased: 9.792
#iterations: 441
currently lose_sum: 0.08158806711435318
time_elpased: 9.744
#iterations: 442
currently lose_sum: 0.1725383698940277
time_elpased: 9.824
#iterations: 443
currently lose_sum: 0.18476736545562744
time_elpased: 9.339
#iterations: 444
currently lose_sum: 0.11156277358531952
time_elpased: 9.344
#iterations: 445
currently lose_sum: 0.18333885073661804
time_elpased: 9.785
#iterations: 446
currently lose_sum: 0.19970424473285675
time_elpased: 9.666
#iterations: 447
currently lose_sum: 0.01245169434696436
time_elpased: 9.768
#iterations: 448
currently lose_sum: 0.05674460530281067
time_elpased: 9.742
#iterations: 449
currently lose_sum: 0.22991231083869934
time_elpased: 9.757
#iterations: 450
currently lose_sum: 0.10214708000421524
time_elpased: 9.63
#iterations: 451
currently lose_sum: 0.16959860920906067
time_elpased: 9.748
#iterations: 452
currently lose_sum: 0.11013449728488922
time_elpased: 9.736
#iterations: 453
currently lose_sum: 0.08748853206634521
time_elpased: 9.731
#iterations: 454
currently lose_sum: 0.07037971168756485
time_elpased: 9.773
#iterations: 455
currently lose_sum: 0.0389387384057045
time_elpased: 9.88
#iterations: 456
currently lose_sum: 0.11476349830627441
time_elpased: 9.78
#iterations: 457
currently lose_sum: 0.08700225502252579
time_elpased: 9.796
#iterations: 458
currently lose_sum: 0.22326382994651794
time_elpased: 9.804
#iterations: 459
currently lose_sum: 0.2565893232822418
time_elpased: 9.827
start validation test
0.651339285714
0.885393258427
0.350533807829
0.502230720204
0.652417441549
105.773
#iterations: 460
currently lose_sum: 0.1062917560338974
time_elpased: 9.859
#iterations: 461
currently lose_sum: 0.04357444494962692
time_elpased: 9.765
#iterations: 462
currently lose_sum: 0.05242398381233215
time_elpased: 9.635
#iterations: 463
currently lose_sum: 0.20400157570838928
time_elpased: 9.199
#iterations: 464
currently lose_sum: 0.2038765251636505
time_elpased: 9.707
#iterations: 465
currently lose_sum: 0.031284868717193604
time_elpased: 9.718
#iterations: 466
currently lose_sum: 0.05367066711187363
time_elpased: 9.743
#iterations: 467
currently lose_sum: 0.030071604996919632
time_elpased: 9.411
#iterations: 468
currently lose_sum: 0.05150948092341423
time_elpased: 9.764
#iterations: 469
currently lose_sum: 0.016733868047595024
time_elpased: 9.617
#iterations: 470
currently lose_sum: 0.024062376469373703
time_elpased: 9.754
#iterations: 471
currently lose_sum: 0.0157266054302454
time_elpased: 9.734
#iterations: 472
currently lose_sum: 0.0385432243347168
time_elpased: 9.713
#iterations: 473
currently lose_sum: 0.04374345764517784
time_elpased: 9.687
#iterations: 474
currently lose_sum: 0.0333072729408741
time_elpased: 9.787
#iterations: 475
currently lose_sum: 0.037680454552173615
time_elpased: 9.614
#iterations: 476
currently lose_sum: 0.12093250453472137
time_elpased: 9.676
#iterations: 477
currently lose_sum: 0.12835124135017395
time_elpased: 9.726
#iterations: 478
currently lose_sum: 0.0511842742562294
time_elpased: 9.948
#iterations: 479
currently lose_sum: 0.12354139238595963
time_elpased: 9.735
start validation test
0.644642857143
0.867713004484
0.344306049822
0.492993630573
0.645719333155
111.537
#iterations: 480
currently lose_sum: 0.021141277626156807
time_elpased: 9.952
#iterations: 481
currently lose_sum: 0.07484202086925507
time_elpased: 9.761
#iterations: 482
currently lose_sum: 0.02008643001317978
time_elpased: 9.929
#iterations: 483
currently lose_sum: 0.014596831984817982
time_elpased: 9.422
#iterations: 484
currently lose_sum: 0.0323517881333828
time_elpased: 9.889
#iterations: 485
currently lose_sum: 0.16392093896865845
time_elpased: 9.778
#iterations: 486
currently lose_sum: 0.1728397160768509
time_elpased: 9.797
#iterations: 487
currently lose_sum: 0.03611685335636139
time_elpased: 9.731
#iterations: 488
currently lose_sum: 0.07738745957612991
time_elpased: 9.788
#iterations: 489
currently lose_sum: 0.009878946468234062
time_elpased: 9.676
#iterations: 490
currently lose_sum: 0.03960331529378891
time_elpased: 9.732
#iterations: 491
currently lose_sum: 0.028094451874494553
time_elpased: 9.565
#iterations: 492
currently lose_sum: 0.0707961767911911
time_elpased: 9.739
#iterations: 493
currently lose_sum: 0.05121127516031265
time_elpased: 9.703
#iterations: 494
currently lose_sum: 0.17092549800872803
time_elpased: 9.345
#iterations: 495
currently lose_sum: 0.046470098197460175
time_elpased: 9.764
#iterations: 496
currently lose_sum: 0.1129017323255539
time_elpased: 9.651
#iterations: 497
currently lose_sum: 0.16272418200969696
time_elpased: 9.711
#iterations: 498
currently lose_sum: 0.11414524167776108
time_elpased: 9.82
#iterations: 499
currently lose_sum: 0.02505285106599331
time_elpased: 9.825
start validation test
0.635714285714
0.879310344828
0.317615658363
0.466666666667
0.636854424164
119.662
#iterations: 500
currently lose_sum: 0.03967876359820366
time_elpased: 9.904
#iterations: 501
currently lose_sum: 0.020564502105116844
time_elpased: 9.797
#iterations: 502
currently lose_sum: 0.024356510490179062
time_elpased: 9.802
#iterations: 503
currently lose_sum: 0.21592307090759277
time_elpased: 9.602
#iterations: 504
currently lose_sum: 0.030705291777849197
time_elpased: 9.612
#iterations: 505
currently lose_sum: 0.08426923304796219
time_elpased: 9.713
#iterations: 506
currently lose_sum: 0.06210356950759888
time_elpased: 9.74
#iterations: 507
currently lose_sum: 0.019610848277807236
time_elpased: 9.836
#iterations: 508
currently lose_sum: 0.020334377884864807
time_elpased: 9.762
#iterations: 509
currently lose_sum: 0.011210172437131405
time_elpased: 9.72
#iterations: 510
currently lose_sum: 0.06925062835216522
time_elpased: 9.679
#iterations: 511
currently lose_sum: 0.14068013429641724
time_elpased: 9.797
#iterations: 512
currently lose_sum: 0.16476556658744812
time_elpased: 9.742
#iterations: 513
currently lose_sum: 0.11437010765075684
time_elpased: 9.632
#iterations: 514
currently lose_sum: 0.03258510306477547
time_elpased: 9.861
#iterations: 515
currently lose_sum: 0.10568728297948837
time_elpased: 9.788
#iterations: 516
currently lose_sum: 0.16320981085300446
time_elpased: 9.73
#iterations: 517
currently lose_sum: 0.12449805438518524
time_elpased: 9.817
#iterations: 518
currently lose_sum: 0.061536334455013275
time_elpased: 9.794
#iterations: 519
currently lose_sum: 0.04574423283338547
time_elpased: 9.787
start validation test
0.629464285714
0.884816753927
0.300711743772
0.448871181939
0.630642610237
122.998
#iterations: 520
currently lose_sum: 0.044236015528440475
time_elpased: 9.803
#iterations: 521
currently lose_sum: 0.00887402892112732
time_elpased: 9.72
#iterations: 522
currently lose_sum: 0.21217580139636993
time_elpased: 9.76
#iterations: 523
currently lose_sum: 0.03123876452445984
time_elpased: 9.612
#iterations: 524
currently lose_sum: 0.026860440149903297
time_elpased: 9.13
#iterations: 525
currently lose_sum: 0.017324376851320267
time_elpased: 9.627
#iterations: 526
currently lose_sum: 0.025940973311662674
time_elpased: 9.499
#iterations: 527
currently lose_sum: 0.051270414143800735
time_elpased: 9.815
#iterations: 528
currently lose_sum: 0.03827022761106491
time_elpased: 9.786
#iterations: 529
currently lose_sum: 0.05389716103672981
time_elpased: 9.88
#iterations: 530
currently lose_sum: 0.038769859820604324
time_elpased: 9.852
#iterations: 531
currently lose_sum: 0.14087343215942383
time_elpased: 9.807
#iterations: 532
currently lose_sum: 0.022486085072159767
time_elpased: 9.835
#iterations: 533
currently lose_sum: 0.06480811536312103
time_elpased: 9.729
#iterations: 534
currently lose_sum: 0.23639726638793945
time_elpased: 9.795
#iterations: 535
currently lose_sum: 0.04215924069285393
time_elpased: 9.812
#iterations: 536
currently lose_sum: 0.06201965734362602
time_elpased: 9.779
#iterations: 537
currently lose_sum: 0.06655222177505493
time_elpased: 9.624
#iterations: 538
currently lose_sum: 0.031020518392324448
time_elpased: 9.788
#iterations: 539
currently lose_sum: 0.0133602200075984
time_elpased: 9.845
start validation test
0.624107142857
0.891666666667
0.285587188612
0.432614555256
0.625320476026
124.591
#iterations: 540
currently lose_sum: 0.10206304490566254
time_elpased: 9.835
#iterations: 541
currently lose_sum: 0.031217878684401512
time_elpased: 9.754
#iterations: 542
currently lose_sum: 0.05189058929681778
time_elpased: 9.786
#iterations: 543
currently lose_sum: 0.12783707678318024
time_elpased: 9.878
#iterations: 544
currently lose_sum: 0.03403036296367645
time_elpased: 9.484
#iterations: 545
currently lose_sum: 0.008185147307813168
time_elpased: 9.352
#iterations: 546
currently lose_sum: 0.029449310153722763
time_elpased: 10.138
#iterations: 547
currently lose_sum: 0.04713856056332588
time_elpased: 9.832
#iterations: 548
currently lose_sum: 0.038491927087306976
time_elpased: 9.756
#iterations: 549
currently lose_sum: 0.14300306141376495
time_elpased: 9.854
#iterations: 550
currently lose_sum: 0.10110287368297577
time_elpased: 9.719
#iterations: 551
currently lose_sum: 0.11917169392108917
time_elpased: 9.761
#iterations: 552
currently lose_sum: 0.0782662108540535
time_elpased: 9.724
#iterations: 553
currently lose_sum: 0.03782879188656807
time_elpased: 9.765
#iterations: 554
currently lose_sum: 0.01977277174592018
time_elpased: 9.781
#iterations: 555
currently lose_sum: 0.021887799724936485
time_elpased: 9.717
#iterations: 556
currently lose_sum: 0.01938040927052498
time_elpased: 9.796
#iterations: 557
currently lose_sum: 0.14438410103321075
time_elpased: 9.83
#iterations: 558
currently lose_sum: 0.09252257645130157
time_elpased: 9.869
#iterations: 559
currently lose_sum: 0.02752685546875
time_elpased: 9.746
start validation test
0.625
0.885869565217
0.290035587189
0.436997319035
0.626200589293
126.052
#iterations: 560
currently lose_sum: 0.05378309637308121
time_elpased: 9.813
#iterations: 561
currently lose_sum: 0.004695960786193609
time_elpased: 9.745
#iterations: 562
currently lose_sum: 0.04897293820977211
time_elpased: 9.821
#iterations: 563
currently lose_sum: 0.23454828560352325
time_elpased: 9.79
#iterations: 564
currently lose_sum: 0.04038793593645096
time_elpased: 9.028
#iterations: 565
currently lose_sum: 0.1525728553533554
time_elpased: 9.695
#iterations: 566
currently lose_sum: 0.00801408477127552
time_elpased: 9.755
#iterations: 567
currently lose_sum: 0.06909288465976715
time_elpased: 9.791
#iterations: 568
currently lose_sum: 0.020716072991490364
time_elpased: 9.739
#iterations: 569
currently lose_sum: 0.11605409532785416
time_elpased: 9.801
#iterations: 570
currently lose_sum: 0.10767052322626114
time_elpased: 9.587
#iterations: 571
currently lose_sum: 0.07112094014883041
time_elpased: 9.751
#iterations: 572
currently lose_sum: 0.07428024709224701
time_elpased: 9.78
#iterations: 573
currently lose_sum: 0.13970068097114563
time_elpased: 9.41
#iterations: 574
currently lose_sum: 0.04468429833650589
time_elpased: 9.807
#iterations: 575
currently lose_sum: 0.16408029198646545
time_elpased: 9.699
#iterations: 576
currently lose_sum: 0.12218539416790009
time_elpased: 9.642
#iterations: 577
currently lose_sum: 0.007560452912002802
time_elpased: 9.709
#iterations: 578
currently lose_sum: 0.028633296489715576
time_elpased: 9.733
#iterations: 579
currently lose_sum: 0.04185906797647476
time_elpased: 9.869
start validation test
0.622767857143
0.895184135977
0.281138790036
0.427894380501
0.623992334086
131.827
#iterations: 580
currently lose_sum: 0.03485463187098503
time_elpased: 9.744
#iterations: 581
currently lose_sum: 0.10573577880859375
time_elpased: 9.754
#iterations: 582
currently lose_sum: 0.04866897314786911
time_elpased: 9.735
#iterations: 583
currently lose_sum: 0.06732268631458282
time_elpased: 9.702
#iterations: 584
currently lose_sum: 0.0313682034611702
time_elpased: 9.65
#iterations: 585
currently lose_sum: 0.08970288932323456
time_elpased: 9.501
#iterations: 586
currently lose_sum: 0.181758850812912
time_elpased: 9.79
#iterations: 587
currently lose_sum: 0.007141414098441601
time_elpased: 9.778
#iterations: 588
currently lose_sum: 0.025018442422151566
time_elpased: 9.655
#iterations: 589
currently lose_sum: 0.07960839569568634
time_elpased: 9.728
#iterations: 590
currently lose_sum: 0.031919874250888824
time_elpased: 9.612
#iterations: 591
currently lose_sum: 0.12517674267292023
time_elpased: 9.766
#iterations: 592
currently lose_sum: 0.015209322795271873
time_elpased: 9.69
#iterations: 593
currently lose_sum: 0.005457140039652586
time_elpased: 9.751
#iterations: 594
currently lose_sum: 0.006533754523843527
time_elpased: 9.789
#iterations: 595
currently lose_sum: 0.012248015031218529
time_elpased: 9.788
#iterations: 596
currently lose_sum: 0.06141827628016472
time_elpased: 9.774
#iterations: 597
currently lose_sum: 0.07364913076162338
time_elpased: 9.928
#iterations: 598
currently lose_sum: 0.10461562871932983
time_elpased: 9.742
#iterations: 599
currently lose_sum: 0.0929551050066948
time_elpased: 9.694
start validation test
0.618303571429
0.885386819484
0.274911032028
0.419551934827
0.619534369061
134.019
acc: 0.739
pre: 0.769
rec: 0.687
F1: 0.726
auc: 0.740
