start to construct computing graph
graph construct over
3373
epochs start
#iterations: 0
currently lose_sum: 0.6718690395355225
time_elpased: 5.47
#iterations: 1
currently lose_sum: 0.6800315976142883
time_elpased: 5.107
#iterations: 2
currently lose_sum: 0.7160585522651672
time_elpased: 5.384
#iterations: 3
currently lose_sum: 0.7142952084541321
time_elpased: 5.245
#iterations: 4
currently lose_sum: 0.6780338287353516
time_elpased: 5.554
#iterations: 5
currently lose_sum: 0.6755536794662476
time_elpased: 5.047
#iterations: 6
currently lose_sum: 0.6737461090087891
time_elpased: 4.955
#iterations: 7
currently lose_sum: 0.7257920503616333
time_elpased: 4.908
#iterations: 8
currently lose_sum: 0.6974397897720337
time_elpased: 5.053
#iterations: 9
currently lose_sum: 0.6938486099243164
time_elpased: 4.889
#iterations: 10
currently lose_sum: 0.6699240803718567
time_elpased: 4.876
#iterations: 11
currently lose_sum: 0.6942499876022339
time_elpased: 5.31
#iterations: 12
currently lose_sum: 0.7013493180274963
time_elpased: 4.861
#iterations: 13
currently lose_sum: 0.6836199164390564
time_elpased: 4.69
#iterations: 14
currently lose_sum: 0.6747592687606812
time_elpased: 4.854
#iterations: 15
currently lose_sum: 0.6801241040229797
time_elpased: 4.856
#iterations: 16
currently lose_sum: 0.7064458131790161
time_elpased: 4.827
#iterations: 17
currently lose_sum: 0.6912068724632263
time_elpased: 4.882
#iterations: 18
currently lose_sum: 0.6557303667068481
time_elpased: 4.901
#iterations: 19
currently lose_sum: 0.6807145476341248
time_elpased: 4.814
start validation test
0.529017857143
0.53553038105
0.462633451957
0.496420047733
0.529255794079
38.590
#iterations: 20
currently lose_sum: 0.6934871673583984
time_elpased: 4.364
#iterations: 21
currently lose_sum: 0.700259804725647
time_elpased: 3.938
#iterations: 22
currently lose_sum: 0.6810765862464905
time_elpased: 3.86
#iterations: 23
currently lose_sum: 0.66950523853302
time_elpased: 3.972
#iterations: 24
currently lose_sum: 0.6626502871513367
time_elpased: 4.059
#iterations: 25
currently lose_sum: 0.6820729970932007
time_elpased: 3.838
#iterations: 26
currently lose_sum: 0.7014636993408203
time_elpased: 3.744
#iterations: 27
currently lose_sum: 0.7016372680664062
time_elpased: 3.729
#iterations: 28
currently lose_sum: 0.6691907048225403
time_elpased: 3.686
#iterations: 29
currently lose_sum: 0.6493566036224365
time_elpased: 3.763
#iterations: 30
currently lose_sum: 0.6850467920303345
time_elpased: 3.753
#iterations: 31
currently lose_sum: 0.6651389002799988
time_elpased: 3.719
#iterations: 32
currently lose_sum: 0.7075928449630737
time_elpased: 3.844
#iterations: 33
currently lose_sum: 0.6706265807151794
time_elpased: 3.272
#iterations: 34
currently lose_sum: 0.6597079038619995
time_elpased: 3.169
#iterations: 35
currently lose_sum: 0.6567972302436829
time_elpased: 3.253
#iterations: 36
currently lose_sum: 0.6762634515762329
time_elpased: 3.346
#iterations: 37
currently lose_sum: 0.6935259699821472
time_elpased: 3.397
#iterations: 38
currently lose_sum: 0.6880747079849243
time_elpased: 3.615
#iterations: 39
currently lose_sum: 0.6744624972343445
time_elpased: 3.65
start validation test
0.535267857143
0.537286612758
0.532028469751
0.534644613321
0.53527946785
38.537
#iterations: 40
currently lose_sum: 0.6740391850471497
time_elpased: 3.569
#iterations: 41
currently lose_sum: 0.6878142952919006
time_elpased: 3.202
#iterations: 42
currently lose_sum: 0.7172598838806152
time_elpased: 3.325
#iterations: 43
currently lose_sum: 0.6883078813552856
time_elpased: 3.143
#iterations: 44
currently lose_sum: 0.7107094526290894
time_elpased: 3.287
#iterations: 45
currently lose_sum: 0.6997610926628113
time_elpased: 3.709
#iterations: 46
currently lose_sum: 0.6956726312637329
time_elpased: 3.722
#iterations: 47
currently lose_sum: 0.6572278738021851
time_elpased: 3.763
#iterations: 48
currently lose_sum: 0.6798971891403198
time_elpased: 3.877
#iterations: 49
currently lose_sum: 0.6996269226074219
time_elpased: 3.821
#iterations: 50
currently lose_sum: 0.667524516582489
time_elpased: 4.059
#iterations: 51
currently lose_sum: 0.6924633383750916
time_elpased: 3.788
#iterations: 52
currently lose_sum: 0.6636772155761719
time_elpased: 4.077
#iterations: 53
currently lose_sum: 0.682816207408905
time_elpased: 3.881
#iterations: 54
currently lose_sum: 0.7023698091506958
time_elpased: 3.738
#iterations: 55
currently lose_sum: 0.6609357595443726
time_elpased: 3.955
#iterations: 56
currently lose_sum: 0.6884626150131226
time_elpased: 3.922
#iterations: 57
currently lose_sum: 0.7198595404624939
time_elpased: 3.696
#iterations: 58
currently lose_sum: 0.6955916285514832
time_elpased: 4.256
#iterations: 59
currently lose_sum: 0.7051099538803101
time_elpased: 3.799
start validation test
0.538839285714
0.541552511416
0.527580071174
0.534474988734
0.538879641322
38.588
#iterations: 60
currently lose_sum: 0.6971410512924194
time_elpased: 3.754
#iterations: 61
currently lose_sum: 0.6899791955947876
time_elpased: 3.861
#iterations: 62
currently lose_sum: 0.6478143930435181
time_elpased: 3.951
#iterations: 63
currently lose_sum: 0.6671608686447144
time_elpased: 3.719
#iterations: 64
currently lose_sum: 0.7034012675285339
time_elpased: 3.856
#iterations: 65
currently lose_sum: 0.6635705232620239
time_elpased: 3.699
#iterations: 66
currently lose_sum: 0.6577619314193726
time_elpased: 3.94
#iterations: 67
currently lose_sum: 0.6450883746147156
time_elpased: 3.827
#iterations: 68
currently lose_sum: 0.7087728381156921
time_elpased: 3.898
#iterations: 69
currently lose_sum: 0.687461256980896
time_elpased: 3.72
#iterations: 70
currently lose_sum: 0.678399920463562
time_elpased: 3.931
#iterations: 71
currently lose_sum: 0.7025061845779419
time_elpased: 4.049
#iterations: 72
currently lose_sum: 0.6918925046920776
time_elpased: 4.286
#iterations: 73
currently lose_sum: 0.6788117289543152
time_elpased: 4.593
#iterations: 74
currently lose_sum: 0.6985490918159485
time_elpased: 4.725
#iterations: 75
currently lose_sum: 0.6659365892410278
time_elpased: 4.844
#iterations: 76
currently lose_sum: 0.6698750257492065
time_elpased: 4.885
#iterations: 77
currently lose_sum: 0.6936739683151245
time_elpased: 4.545
#iterations: 78
currently lose_sum: 0.6778600811958313
time_elpased: 4.535
#iterations: 79
currently lose_sum: 0.674389660358429
time_elpased: 5.104
start validation test
0.529910714286
0.534838076546
0.48487544484
0.508632757816
0.530072131022
38.604
#iterations: 80
currently lose_sum: 0.6904433369636536
time_elpased: 4.765
#iterations: 81
currently lose_sum: 0.6870522499084473
time_elpased: 4.358
#iterations: 82
currently lose_sum: 0.6839402914047241
time_elpased: 4.483
#iterations: 83
currently lose_sum: 0.7278749942779541
time_elpased: 4.988
#iterations: 84
currently lose_sum: 0.687282145023346
time_elpased: 4.704
#iterations: 85
currently lose_sum: 0.6666860580444336
time_elpased: 4.819
#iterations: 86
currently lose_sum: 0.6493368148803711
time_elpased: 4.857
#iterations: 87
currently lose_sum: 0.6912890672683716
time_elpased: 4.684
#iterations: 88
currently lose_sum: 0.6846610903739929
time_elpased: 4.557
#iterations: 89
currently lose_sum: 0.6908867359161377
time_elpased: 4.744
#iterations: 90
currently lose_sum: 0.6932979822158813
time_elpased: 4.688
#iterations: 91
currently lose_sum: 0.7044445276260376
time_elpased: 4.741
#iterations: 92
currently lose_sum: 0.6853779554367065
time_elpased: 4.838
#iterations: 93
currently lose_sum: 0.6856405138969421
time_elpased: 4.398
#iterations: 94
currently lose_sum: 0.7166358232498169
time_elpased: 5.103
#iterations: 95
currently lose_sum: 0.6892915368080139
time_elpased: 4.908
#iterations: 96
currently lose_sum: 0.689430296421051
time_elpased: 4.636
#iterations: 97
currently lose_sum: 0.7107304334640503
time_elpased: 4.369
#iterations: 98
currently lose_sum: 0.6743630766868591
time_elpased: 4.833
#iterations: 99
currently lose_sum: 0.7097125053405762
time_elpased: 4.511
start validation test
0.525
0.52752293578
0.511565836299
0.519421860885
0.525048151124
38.610
#iterations: 100
currently lose_sum: 0.6560603976249695
time_elpased: 4.363
#iterations: 101
currently lose_sum: 0.6469525098800659
time_elpased: 4.552
#iterations: 102
currently lose_sum: 0.6794213056564331
time_elpased: 4.435
#iterations: 103
currently lose_sum: 0.6501246690750122
time_elpased: 4.526
#iterations: 104
currently lose_sum: 0.6876102685928345
time_elpased: 4.74
#iterations: 105
currently lose_sum: 0.7173827290534973
time_elpased: 4.876
#iterations: 106
currently lose_sum: 0.6750420331954956
time_elpased: 4.68
#iterations: 107
currently lose_sum: 0.6906560659408569
time_elpased: 4.569
#iterations: 108
currently lose_sum: 0.6841557025909424
time_elpased: 4.562
#iterations: 109
currently lose_sum: 0.6618863940238953
time_elpased: 4.479
#iterations: 110
currently lose_sum: 0.7097128629684448
time_elpased: 4.844
#iterations: 111
currently lose_sum: 0.7019374966621399
time_elpased: 4.735
#iterations: 112
currently lose_sum: 0.6815729141235352
time_elpased: 4.387
#iterations: 113
currently lose_sum: 0.6960333585739136
time_elpased: 4.607
#iterations: 114
currently lose_sum: 0.6764623522758484
time_elpased: 4.827
#iterations: 115
currently lose_sum: 0.6750179529190063
time_elpased: 5.004
#iterations: 116
currently lose_sum: 0.6617056131362915
time_elpased: 4.536
#iterations: 117
currently lose_sum: 0.6849478483200073
time_elpased: 4.631
#iterations: 118
currently lose_sum: 0.6780163049697876
time_elpased: 4.961
#iterations: 119
currently lose_sum: 0.7164545059204102
time_elpased: 4.749
start validation test
0.537946428571
0.541941564562
0.511565836299
0.526315789474
0.538040982666
38.573
#iterations: 120
currently lose_sum: 0.6851377487182617
time_elpased: 4.89
#iterations: 121
currently lose_sum: 0.6527140736579895
time_elpased: 5.076
#iterations: 122
currently lose_sum: 0.6894108057022095
time_elpased: 4.681
#iterations: 123
currently lose_sum: 0.6695681214332581
time_elpased: 4.817
#iterations: 124
currently lose_sum: 0.6918953657150269
time_elpased: 4.895
#iterations: 125
currently lose_sum: 0.6904772520065308
time_elpased: 4.63
#iterations: 126
currently lose_sum: 0.6970950961112976
time_elpased: 4.614
#iterations: 127
currently lose_sum: 0.6537939310073853
time_elpased: 4.628
#iterations: 128
currently lose_sum: 0.691839337348938
time_elpased: 4.563
#iterations: 129
currently lose_sum: 0.7012405395507812
time_elpased: 4.855
#iterations: 130
currently lose_sum: 0.6593276262283325
time_elpased: 4.339
#iterations: 131
currently lose_sum: 0.6851531267166138
time_elpased: 4.434
#iterations: 132
currently lose_sum: 0.6891964077949524
time_elpased: 4.866
#iterations: 133
currently lose_sum: 0.689385712146759
time_elpased: 4.423
#iterations: 134
currently lose_sum: 0.6625674366950989
time_elpased: 4.681
#iterations: 135
currently lose_sum: 0.6978884935379028
time_elpased: 4.414
#iterations: 136
currently lose_sum: 0.6803960800170898
time_elpased: 4.516
#iterations: 137
currently lose_sum: 0.6673033833503723
time_elpased: 4.512
#iterations: 138
currently lose_sum: 0.6759454607963562
time_elpased: 4.502
#iterations: 139
currently lose_sum: 0.6694610714912415
time_elpased: 4.333
start validation test
0.522767857143
0.52736318408
0.47153024911
0.497886331611
0.522951504483
38.597
#iterations: 140
currently lose_sum: 0.6891352534294128
time_elpased: 4.377
#iterations: 141
currently lose_sum: 0.7155443429946899
time_elpased: 3.971
#iterations: 142
currently lose_sum: 0.7140780687332153
time_elpased: 3.956
#iterations: 143
currently lose_sum: 0.7136563062667847
time_elpased: 3.85
#iterations: 144
currently lose_sum: 0.71747887134552
time_elpased: 3.921
#iterations: 145
currently lose_sum: 0.6888319253921509
time_elpased: 3.711
#iterations: 146
currently lose_sum: 0.6786182522773743
time_elpased: 3.361
#iterations: 147
currently lose_sum: 0.6460472345352173
time_elpased: 3.428
#iterations: 148
currently lose_sum: 0.6922812461853027
time_elpased: 3.288
#iterations: 149
currently lose_sum: 0.6937241554260254
time_elpased: 3.335
#iterations: 150
currently lose_sum: 0.6903440356254578
time_elpased: 3.364
#iterations: 151
currently lose_sum: 0.7098779082298279
time_elpased: 3.302
#iterations: 152
currently lose_sum: 0.6957134008407593
time_elpased: 3.7
#iterations: 153
currently lose_sum: 0.6684352159500122
time_elpased: 3.358
#iterations: 154
currently lose_sum: 0.6456016898155212
time_elpased: 3.367
#iterations: 155
currently lose_sum: 0.6595616936683655
time_elpased: 3.272
#iterations: 156
currently lose_sum: 0.6992910504341125
time_elpased: 3.31
#iterations: 157
currently lose_sum: 0.6831618547439575
time_elpased: 3.274
#iterations: 158
currently lose_sum: 0.6518728137016296
time_elpased: 3.454
#iterations: 159
currently lose_sum: 0.6707393527030945
time_elpased: 3.28
start validation test
0.528125
0.530098831986
0.524911032028
0.527492177023
0.528136519598
38.615
#iterations: 160
currently lose_sum: 0.6990698575973511
time_elpased: 3.193
#iterations: 161
currently lose_sum: 0.7138451933860779
time_elpased: 3.196
#iterations: 162
currently lose_sum: 0.70004802942276
time_elpased: 3.316
#iterations: 163
currently lose_sum: 0.6670977473258972
time_elpased: 3.124
#iterations: 164
currently lose_sum: 0.6771079897880554
time_elpased: 3.334
#iterations: 165
currently lose_sum: 0.691489577293396
time_elpased: 3.263
#iterations: 166
currently lose_sum: 0.7109549641609192
time_elpased: 3.338
#iterations: 167
currently lose_sum: 0.6736426949501038
time_elpased: 3.276
#iterations: 168
currently lose_sum: 0.6934154629707336
time_elpased: 3.258
#iterations: 169
currently lose_sum: 0.6709431409835815
time_elpased: 3.204
#iterations: 170
currently lose_sum: 0.6824513673782349
time_elpased: 3.566
#iterations: 171
currently lose_sum: 0.6919665932655334
time_elpased: 3.189
#iterations: 172
currently lose_sum: 0.697691798210144
time_elpased: 3.268
#iterations: 173
currently lose_sum: 0.6444118618965149
time_elpased: 3.243
#iterations: 174
currently lose_sum: 0.6561462879180908
time_elpased: 3.201
#iterations: 175
currently lose_sum: 0.6931910514831543
time_elpased: 3.235
#iterations: 176
currently lose_sum: 0.6904309391975403
time_elpased: 3.568
#iterations: 177
currently lose_sum: 0.7165891528129578
time_elpased: 3.33
#iterations: 178
currently lose_sum: 0.7012753486633301
time_elpased: 3.252
#iterations: 179
currently lose_sum: 0.7286489605903625
time_elpased: 3.342
start validation test
0.530803571429
0.533890436397
0.511565836299
0.522489777374
0.530872523884
38.617
#iterations: 180
currently lose_sum: 0.6947905421257019
time_elpased: 3.171
#iterations: 181
currently lose_sum: 0.6942516565322876
time_elpased: 3.212
#iterations: 182
currently lose_sum: 0.6906814575195312
time_elpased: 3.201
#iterations: 183
currently lose_sum: 0.6679416298866272
time_elpased: 3.364
#iterations: 184
currently lose_sum: 0.6893542408943176
time_elpased: 3.179
#iterations: 185
currently lose_sum: 0.6684107780456543
time_elpased: 3.172
#iterations: 186
currently lose_sum: 0.7074265480041504
time_elpased: 3.206
#iterations: 187
currently lose_sum: 0.6567873358726501
time_elpased: 3.162
#iterations: 188
currently lose_sum: 0.6635434627532959
time_elpased: 3.233
#iterations: 189
currently lose_sum: 0.672669529914856
time_elpased: 3.226
#iterations: 190
currently lose_sum: 0.709152340888977
time_elpased: 3.235
#iterations: 191
currently lose_sum: 0.6818327903747559
time_elpased: 3.205
#iterations: 192
currently lose_sum: 0.6964667439460754
time_elpased: 3.173
#iterations: 193
currently lose_sum: 0.6593040823936462
time_elpased: 3.411
#iterations: 194
currently lose_sum: 0.6743370294570923
time_elpased: 3.694
#iterations: 195
currently lose_sum: 0.6622844934463501
time_elpased: 3.539
#iterations: 196
currently lose_sum: 0.702497661113739
time_elpased: 3.457
#iterations: 197
currently lose_sum: 0.678969144821167
time_elpased: 3.26
#iterations: 198
currently lose_sum: 0.6602137684822083
time_elpased: 3.272
#iterations: 199
currently lose_sum: 0.6670523881912231
time_elpased: 3.257
start validation test
0.540625
0.541924095322
0.546263345196
0.544085068675
0.540604790877
38.536
#iterations: 200
currently lose_sum: 0.6495224237442017
time_elpased: 3.408
#iterations: 201
currently lose_sum: 0.6753560900688171
time_elpased: 3.455
#iterations: 202
currently lose_sum: 0.7047397494316101
time_elpased: 3.569
#iterations: 203
currently lose_sum: 0.6819977760314941
time_elpased: 3.322
#iterations: 204
currently lose_sum: 0.6564342975616455
time_elpased: 3.198
#iterations: 205
currently lose_sum: 0.7043763399124146
time_elpased: 3.426
#iterations: 206
currently lose_sum: 0.7148994207382202
time_elpased: 3.186
#iterations: 207
currently lose_sum: 0.7113755941390991
time_elpased: 3.123
#iterations: 208
currently lose_sum: 0.686097264289856
time_elpased: 3.581
#iterations: 209
currently lose_sum: 0.701563835144043
time_elpased: 3.312
#iterations: 210
currently lose_sum: 0.6920267343521118
time_elpased: 3.398
#iterations: 211
currently lose_sum: 0.6640740036964417
time_elpased: 3.31
#iterations: 212
currently lose_sum: 0.6618514060974121
time_elpased: 3.38
#iterations: 213
currently lose_sum: 0.7205955982208252
time_elpased: 3.13
#iterations: 214
currently lose_sum: 0.722293496131897
time_elpased: 3.319
#iterations: 215
currently lose_sum: 0.7100452184677124
time_elpased: 3.495
#iterations: 216
currently lose_sum: 0.6915037035942078
time_elpased: 3.29
#iterations: 217
currently lose_sum: 0.7085732221603394
time_elpased: 3.241
#iterations: 218
currently lose_sum: 0.7231322526931763
time_elpased: 3.198
#iterations: 219
currently lose_sum: 0.6922215819358826
time_elpased: 3.123
start validation test
0.534375
0.537396121884
0.517793594306
0.527412777526
0.534434431562
38.541
#iterations: 220
currently lose_sum: 0.6438679695129395
time_elpased: 3.14
#iterations: 221
currently lose_sum: 0.6798060536384583
time_elpased: 3.313
#iterations: 222
currently lose_sum: 0.6893746852874756
time_elpased: 3.471
#iterations: 223
currently lose_sum: 0.6670321226119995
time_elpased: 3.336
#iterations: 224
currently lose_sum: 0.7066551446914673
time_elpased: 3.156
#iterations: 225
currently lose_sum: 0.6840619444847107
time_elpased: 2.737
#iterations: 226
currently lose_sum: 0.6710817813873291
time_elpased: 2.688
#iterations: 227
currently lose_sum: 0.6851726770401001
time_elpased: 2.67
#iterations: 228
currently lose_sum: 0.6795380711555481
time_elpased: 2.725
#iterations: 229
currently lose_sum: 0.6913800835609436
time_elpased: 2.742
#iterations: 230
currently lose_sum: 0.67719566822052
time_elpased: 2.634
#iterations: 231
currently lose_sum: 0.6911332011222839
time_elpased: 2.697
#iterations: 232
currently lose_sum: 0.7035962343215942
time_elpased: 2.64
#iterations: 233
currently lose_sum: 0.7128683924674988
time_elpased: 2.642
#iterations: 234
currently lose_sum: 0.708605170249939
time_elpased: 3.088
#iterations: 235
currently lose_sum: 0.6812502145767212
time_elpased: 2.701
#iterations: 236
currently lose_sum: 0.688592791557312
time_elpased: 2.691
#iterations: 237
currently lose_sum: 0.7541848421096802
time_elpased: 2.762
#iterations: 238
currently lose_sum: 0.6808755397796631
time_elpased: 2.698
#iterations: 239
currently lose_sum: 0.6666374802589417
time_elpased: 2.692
start validation test
0.531696428571
0.535885167464
0.498220640569
0.516366989396
0.531816413475
38.565
#iterations: 240
currently lose_sum: 0.7313016653060913
time_elpased: 2.674
#iterations: 241
currently lose_sum: 0.6686862111091614
time_elpased: 2.918
#iterations: 242
currently lose_sum: 0.6708351373672485
time_elpased: 2.678
#iterations: 243
currently lose_sum: 0.6576279401779175
time_elpased: 2.672
#iterations: 244
currently lose_sum: 0.671026349067688
time_elpased: 2.677
#iterations: 245
currently lose_sum: 0.6986280679702759
time_elpased: 2.907
#iterations: 246
currently lose_sum: 0.6946462392807007
time_elpased: 2.883
#iterations: 247
currently lose_sum: 0.717901349067688
time_elpased: 2.754
#iterations: 248
currently lose_sum: 0.6833025217056274
time_elpased: 2.519
#iterations: 249
currently lose_sum: 0.6891719102859497
time_elpased: 2.415
#iterations: 250
currently lose_sum: 0.6575638055801392
time_elpased: 2.36
#iterations: 251
currently lose_sum: 0.676145613193512
time_elpased: 2.351
#iterations: 252
currently lose_sum: 0.6693350076675415
time_elpased: 2.425
#iterations: 253
currently lose_sum: 0.6982023119926453
time_elpased: 2.658
#iterations: 254
currently lose_sum: 0.6880781054496765
time_elpased: 2.469
#iterations: 255
currently lose_sum: 0.6575644612312317
time_elpased: 2.333
#iterations: 256
currently lose_sum: 0.7061556577682495
time_elpased: 2.345
#iterations: 257
currently lose_sum: 0.6844092607498169
time_elpased: 2.535
#iterations: 258
currently lose_sum: 0.6857129335403442
time_elpased: 2.461
#iterations: 259
currently lose_sum: 0.6961586475372314
time_elpased: 2.375
start validation test
0.537053571429
0.539366515837
0.53024911032
0.534768954688
0.537077960178
38.557
#iterations: 260
currently lose_sum: 0.6732872724533081
time_elpased: 2.47
#iterations: 261
currently lose_sum: 0.6992578506469727
time_elpased: 2.361
#iterations: 262
currently lose_sum: 0.6620551347732544
time_elpased: 2.442
#iterations: 263
currently lose_sum: 0.657819926738739
time_elpased: 2.427
#iterations: 264
currently lose_sum: 0.7009280920028687
time_elpased: 2.323
#iterations: 265
currently lose_sum: 0.6874263882637024
time_elpased: 2.391
#iterations: 266
currently lose_sum: 0.6848392486572266
time_elpased: 2.767
#iterations: 267
currently lose_sum: 0.7013958692550659
time_elpased: 2.546
#iterations: 268
currently lose_sum: 0.6804596781730652
time_elpased: 2.563
#iterations: 269
currently lose_sum: 0.6677757501602173
time_elpased: 2.552
#iterations: 270
currently lose_sum: 0.7122427821159363
time_elpased: 2.636
#iterations: 271
currently lose_sum: 0.6923540234565735
time_elpased: 2.574
#iterations: 272
currently lose_sum: 0.6694437861442566
time_elpased: 2.477
#iterations: 273
currently lose_sum: 0.6778892278671265
time_elpased: 2.306
#iterations: 274
currently lose_sum: 0.645007312297821
time_elpased: 2.552
#iterations: 275
currently lose_sum: 0.6597357988357544
time_elpased: 2.313
#iterations: 276
currently lose_sum: 0.6630626916885376
time_elpased: 2.29
#iterations: 277
currently lose_sum: 0.6586121916770935
time_elpased: 2.327
#iterations: 278
currently lose_sum: 0.6579510569572449
time_elpased: 2.499
#iterations: 279
currently lose_sum: 0.7041430473327637
time_elpased: 2.464
start validation test
0.534821428571
0.53634751773
0.538256227758
0.53730017762
0.534809117463
38.508
#iterations: 280
currently lose_sum: 0.6649200916290283
time_elpased: 2.329
#iterations: 281
currently lose_sum: 0.6899137496948242
time_elpased: 2.301
#iterations: 282
currently lose_sum: 0.6719321012496948
time_elpased: 2.304
#iterations: 283
currently lose_sum: 0.656657874584198
time_elpased: 2.626
#iterations: 284
currently lose_sum: 0.7063314318656921
time_elpased: 2.264
#iterations: 285
currently lose_sum: 0.6682308316230774
time_elpased: 2.52
#iterations: 286
currently lose_sum: 0.7100478410720825
time_elpased: 2.384
#iterations: 287
currently lose_sum: 0.6705714464187622
time_elpased: 2.3
#iterations: 288
currently lose_sum: 0.6368318796157837
time_elpased: 2.31
#iterations: 289
currently lose_sum: 0.6942723393440247
time_elpased: 2.337
#iterations: 290
currently lose_sum: 0.700360894203186
time_elpased: 2.294
#iterations: 291
currently lose_sum: 0.652288556098938
time_elpased: 2.291
#iterations: 292
currently lose_sum: 0.6740615963935852
time_elpased: 2.518
#iterations: 293
currently lose_sum: 0.6961100101470947
time_elpased: 2.296
#iterations: 294
currently lose_sum: 0.6893362402915955
time_elpased: 2.295
#iterations: 295
currently lose_sum: 0.7229872941970825
time_elpased: 2.419
#iterations: 296
currently lose_sum: 0.693091869354248
time_elpased: 3.023
#iterations: 297
currently lose_sum: 0.6659225225448608
time_elpased: 2.378
#iterations: 298
currently lose_sum: 0.7177115082740784
time_elpased: 2.297
#iterations: 299
currently lose_sum: 0.7014945149421692
time_elpased: 2.269
start validation test
0.527232142857
0.527849185947
0.548042704626
0.537756438237
0.52715755303
38.590
#iterations: 300
currently lose_sum: 0.7142346501350403
time_elpased: 2.296
#iterations: 301
currently lose_sum: 0.6670643091201782
time_elpased: 2.277
#iterations: 302
currently lose_sum: 0.7120388746261597
time_elpased: 2.505
#iterations: 303
currently lose_sum: 0.7196948528289795
time_elpased: 2.302
#iterations: 304
currently lose_sum: 0.6952744126319885
time_elpased: 2.294
#iterations: 305
currently lose_sum: 0.6718378067016602
time_elpased: 2.299
#iterations: 306
currently lose_sum: 0.6960886716842651
time_elpased: 2.316
#iterations: 307
currently lose_sum: 0.6903992891311646
time_elpased: 2.336
#iterations: 308
currently lose_sum: 0.6749238967895508
time_elpased: 2.297
#iterations: 309
currently lose_sum: 0.6777423620223999
time_elpased: 2.299
#iterations: 310
currently lose_sum: 0.6781061887741089
time_elpased: 2.662
#iterations: 311
currently lose_sum: 0.6828576326370239
time_elpased: 2.291
#iterations: 312
currently lose_sum: 0.6838685870170593
time_elpased: 2.415
#iterations: 313
currently lose_sum: 0.7305423617362976
time_elpased: 2.335
#iterations: 314
currently lose_sum: 0.6816840171813965
time_elpased: 2.304
#iterations: 315
currently lose_sum: 0.7066313028335571
time_elpased: 2.614
#iterations: 316
currently lose_sum: 0.6646475791931152
time_elpased: 2.355
#iterations: 317
currently lose_sum: 0.6658234000205994
time_elpased: 2.37
#iterations: 318
currently lose_sum: 0.6799831986427307
time_elpased: 2.287
#iterations: 319
currently lose_sum: 0.7174820303916931
time_elpased: 2.275
start validation test
0.533928571429
0.534843205575
0.546263345196
0.540492957746
0.53388436077
38.577
#iterations: 320
currently lose_sum: 0.6459016799926758
time_elpased: 2.283
#iterations: 321
currently lose_sum: 0.6791189312934875
time_elpased: 2.459
#iterations: 322
currently lose_sum: 0.6754320859909058
time_elpased: 2.288
#iterations: 323
currently lose_sum: 0.6871860027313232
time_elpased: 2.314
#iterations: 324
currently lose_sum: 0.7119385600090027
time_elpased: 2.44
#iterations: 325
currently lose_sum: 0.70345538854599
time_elpased: 2.283
#iterations: 326
currently lose_sum: 0.6803770065307617
time_elpased: 2.561
#iterations: 327
currently lose_sum: 0.6918343901634216
time_elpased: 2.317
#iterations: 328
currently lose_sum: 0.6826785206794739
time_elpased: 2.351
#iterations: 329
currently lose_sum: 0.6717086434364319
time_elpased: 2.502
#iterations: 330
currently lose_sum: 0.687118411064148
time_elpased: 2.31
#iterations: 331
currently lose_sum: 0.6767064332962036
time_elpased: 2.791
#iterations: 332
currently lose_sum: 0.6491095423698425
time_elpased: 2.592
#iterations: 333
currently lose_sum: 0.7003029584884644
time_elpased: 2.339
#iterations: 334
currently lose_sum: 0.7218673825263977
time_elpased: 2.284
#iterations: 335
currently lose_sum: 0.6710254549980164
time_elpased: 2.303
#iterations: 336
currently lose_sum: 0.6927671432495117
time_elpased: 2.326
#iterations: 337
currently lose_sum: 0.6783390641212463
time_elpased: 2.301
#iterations: 338
currently lose_sum: 0.6793203949928284
time_elpased: 2.38
#iterations: 339
currently lose_sum: 0.6392738223075867
time_elpased: 2.332
start validation test
0.527232142857
0.527659574468
0.551601423488
0.539364941279
0.527144797765
38.559
#iterations: 340
currently lose_sum: 0.7518502473831177
time_elpased: 2.338
#iterations: 341
currently lose_sum: 0.7049092054367065
time_elpased: 2.438
#iterations: 342
currently lose_sum: 0.7031711339950562
time_elpased: 2.687
#iterations: 343
currently lose_sum: 0.6854551434516907
time_elpased: 2.346
#iterations: 344
currently lose_sum: 0.6698129773139954
time_elpased: 2.293
#iterations: 345
currently lose_sum: 0.6937657594680786
time_elpased: 2.303
#iterations: 346
currently lose_sum: 0.7120851278305054
time_elpased: 2.329
#iterations: 347
currently lose_sum: 0.690761387348175
time_elpased: 2.393
#iterations: 348
currently lose_sum: 0.683797299861908
time_elpased: 2.382
#iterations: 349
currently lose_sum: 0.6842671632766724
time_elpased: 2.281
#iterations: 350
currently lose_sum: 0.6908587217330933
time_elpased: 2.314
#iterations: 351
currently lose_sum: 0.6620455980300903
time_elpased: 2.293
#iterations: 352
currently lose_sum: 0.6786719560623169
time_elpased: 2.493
#iterations: 353
currently lose_sum: 0.672378420829773
time_elpased: 2.368
#iterations: 354
currently lose_sum: 0.685581386089325
time_elpased: 2.424
#iterations: 355
currently lose_sum: 0.6914414167404175
time_elpased: 2.282
#iterations: 356
currently lose_sum: 0.6139426827430725
time_elpased: 2.307
#iterations: 357
currently lose_sum: 0.6670987010002136
time_elpased: 2.32
#iterations: 358
currently lose_sum: 0.6922610998153687
time_elpased: 2.315
#iterations: 359
currently lose_sum: 0.7014728784561157
time_elpased: 2.363
start validation test
0.528125
0.530989824237
0.510676156584
0.520634920635
0.528187540657
38.531
#iterations: 360
currently lose_sum: 0.6680071949958801
time_elpased: 2.405
#iterations: 361
currently lose_sum: 0.6755208373069763
time_elpased: 2.321
#iterations: 362
currently lose_sum: 0.6833198070526123
time_elpased: 2.312
#iterations: 363
currently lose_sum: 0.692677915096283
time_elpased: 2.307
#iterations: 364
currently lose_sum: 0.715459942817688
time_elpased: 2.31
#iterations: 365
currently lose_sum: 0.7059339284896851
time_elpased: 2.297
#iterations: 366
currently lose_sum: 0.6699065566062927
time_elpased: 2.324
#iterations: 367
currently lose_sum: 0.696131706237793
time_elpased: 2.307
#iterations: 368
currently lose_sum: 0.7112909555435181
time_elpased: 2.58
#iterations: 369
currently lose_sum: 0.707561194896698
time_elpased: 2.33
#iterations: 370
currently lose_sum: 0.6660396456718445
time_elpased: 2.321
#iterations: 371
currently lose_sum: 0.6469585299491882
time_elpased: 2.62
#iterations: 372
currently lose_sum: 0.6869510412216187
time_elpased: 2.303
#iterations: 373
currently lose_sum: 0.6885727047920227
time_elpased: 2.342
#iterations: 374
currently lose_sum: 0.6638900637626648
time_elpased: 2.317
#iterations: 375
currently lose_sum: 0.6634708642959595
time_elpased: 2.323
#iterations: 376
currently lose_sum: 0.6909834146499634
time_elpased: 2.312
#iterations: 377
currently lose_sum: 0.6799315214157104
time_elpased: 2.297
#iterations: 378
currently lose_sum: 0.6907394528388977
time_elpased: 2.295
#iterations: 379
currently lose_sum: 0.6785205602645874
time_elpased: 2.308
start validation test
0.535714285714
0.537974683544
0.529359430605
0.533632286996
0.535737062973
38.561
#iterations: 380
currently lose_sum: 0.6624249219894409
time_elpased: 2.353
#iterations: 381
currently lose_sum: 0.6600955128669739
time_elpased: 2.31
#iterations: 382
currently lose_sum: 0.7215321063995361
time_elpased: 2.33
#iterations: 383
currently lose_sum: 0.6918368339538574
time_elpased: 2.374
#iterations: 384
currently lose_sum: 0.6895553469657898
time_elpased: 2.322
#iterations: 385
currently lose_sum: 0.6438759565353394
time_elpased: 2.402
#iterations: 386
currently lose_sum: 0.6990225911140442
time_elpased: 2.335
#iterations: 387
currently lose_sum: 0.6733376979827881
time_elpased: 2.444
#iterations: 388
currently lose_sum: 0.6619170904159546
time_elpased: 2.493
#iterations: 389
currently lose_sum: 0.696746826171875
time_elpased: 2.359
#iterations: 390
currently lose_sum: 0.657452404499054
time_elpased: 2.814
#iterations: 391
currently lose_sum: 0.6645623445510864
time_elpased: 2.299
#iterations: 392
currently lose_sum: 0.6404855847358704
time_elpased: 2.337
#iterations: 393
currently lose_sum: 0.7056069374084473
time_elpased: 2.913
#iterations: 394
currently lose_sum: 0.7146829962730408
time_elpased: 2.29
#iterations: 395
currently lose_sum: 0.688919723033905
time_elpased: 2.516
#iterations: 396
currently lose_sum: 0.6853460669517517
time_elpased: 2.457
#iterations: 397
currently lose_sum: 0.672204852104187
time_elpased: 2.288
#iterations: 398
currently lose_sum: 0.6576040387153625
time_elpased: 2.539
#iterations: 399
currently lose_sum: 0.7006662487983704
time_elpased: 2.299
start validation test
0.526785714286
0.527491408935
0.546263345196
0.536713286713
0.526715901989
38.588
#iterations: 400
currently lose_sum: 0.6767821311950684
time_elpased: 2.311
#iterations: 401
currently lose_sum: 0.6967302560806274
time_elpased: 2.348
#iterations: 402
currently lose_sum: 0.680396318435669
time_elpased: 2.677
#iterations: 403
currently lose_sum: 0.7261247634887695
time_elpased: 2.701
#iterations: 404
currently lose_sum: 0.7093794941902161
time_elpased: 2.285
#iterations: 405
currently lose_sum: 0.684894859790802
time_elpased: 2.546
#iterations: 406
currently lose_sum: 0.7088860869407654
time_elpased: 2.356
#iterations: 407
currently lose_sum: 0.6895731687545776
time_elpased: 2.338
#iterations: 408
currently lose_sum: 0.6568086743354797
time_elpased: 2.296
#iterations: 409
currently lose_sum: 0.6825992465019226
time_elpased: 2.313
#iterations: 410
currently lose_sum: 0.6748383641242981
time_elpased: 2.311
#iterations: 411
currently lose_sum: 0.7331200838088989
time_elpased: 2.331
#iterations: 412
currently lose_sum: 0.6955376863479614
time_elpased: 2.381
#iterations: 413
currently lose_sum: 0.6641347408294678
time_elpased: 2.326
#iterations: 414
currently lose_sum: 0.6852436065673828
time_elpased: 2.35
#iterations: 415
currently lose_sum: 0.6440072059631348
time_elpased: 2.33
#iterations: 416
currently lose_sum: 0.706498920917511
time_elpased: 2.314
#iterations: 417
currently lose_sum: 0.6870298981666565
time_elpased: 2.302
#iterations: 418
currently lose_sum: 0.6828104853630066
time_elpased: 2.584
#iterations: 419
currently lose_sum: 0.7044042348861694
time_elpased: 2.355
start validation test
0.532142857143
0.534671532847
0.521352313167
0.527927927928
0.532181532928
38.559
#iterations: 420
currently lose_sum: 0.685439944267273
time_elpased: 2.298
#iterations: 421
currently lose_sum: 0.7138537168502808
time_elpased: 2.308
#iterations: 422
currently lose_sum: 0.6962698101997375
time_elpased: 2.278
#iterations: 423
currently lose_sum: 0.6734662652015686
time_elpased: 2.279
#iterations: 424
currently lose_sum: 0.6908199191093445
time_elpased: 2.284
#iterations: 425
currently lose_sum: 0.6485337615013123
time_elpased: 2.617
#iterations: 426
currently lose_sum: 0.6711753010749817
time_elpased: 2.295
#iterations: 427
currently lose_sum: 0.7092247009277344
time_elpased: 2.286
#iterations: 428
currently lose_sum: 0.7270689010620117
time_elpased: 2.296
#iterations: 429
currently lose_sum: 0.7118764519691467
time_elpased: 2.274
#iterations: 430
currently lose_sum: 0.6743474006652832
time_elpased: 2.289
#iterations: 431
currently lose_sum: 0.6851496696472168
time_elpased: 2.329
#iterations: 432
currently lose_sum: 0.7150049209594727
time_elpased: 2.562
#iterations: 433
currently lose_sum: 0.6635367274284363
time_elpased: 2.273
#iterations: 434
currently lose_sum: 0.6890933513641357
time_elpased: 2.537
#iterations: 435
currently lose_sum: 0.7064170837402344
time_elpased: 2.492
#iterations: 436
currently lose_sum: 0.6579044461250305
time_elpased: 2.293
#iterations: 437
currently lose_sum: 0.6813631653785706
time_elpased: 2.947
#iterations: 438
currently lose_sum: 0.6910859942436218
time_elpased: 2.474
#iterations: 439
currently lose_sum: 0.7000066041946411
time_elpased: 2.315
start validation test
0.529464285714
0.529812606474
0.553380782918
0.541340295909
0.529378563502
38.562
#iterations: 440
currently lose_sum: 0.7366308569908142
time_elpased: 2.503
#iterations: 441
currently lose_sum: 0.6445077061653137
time_elpased: 2.29
#iterations: 442
currently lose_sum: 0.6398428082466125
time_elpased: 2.306
#iterations: 443
currently lose_sum: 0.7055402994155884
time_elpased: 2.295
#iterations: 444
currently lose_sum: 0.6638874411582947
time_elpased: 2.415
#iterations: 445
currently lose_sum: 0.6685935854911804
time_elpased: 2.344
#iterations: 446
currently lose_sum: 0.7141799926757812
time_elpased: 2.529
#iterations: 447
currently lose_sum: 0.660614013671875
time_elpased: 2.35
#iterations: 448
currently lose_sum: 0.7213093042373657
time_elpased: 2.31
#iterations: 449
currently lose_sum: 0.7108451724052429
time_elpased: 2.291
#iterations: 450
currently lose_sum: 0.6946800947189331
time_elpased: 2.289
#iterations: 451
currently lose_sum: 0.6920062899589539
time_elpased: 2.282
#iterations: 452
currently lose_sum: 0.681583046913147
time_elpased: 2.289
#iterations: 453
currently lose_sum: 0.6544339060783386
time_elpased: 2.989
#iterations: 454
currently lose_sum: 0.6468867659568787
time_elpased: 2.639
#iterations: 455
currently lose_sum: 0.6880868673324585
time_elpased: 2.288
#iterations: 456
currently lose_sum: 0.7045125365257263
time_elpased: 2.326
#iterations: 457
currently lose_sum: 0.6850377917289734
time_elpased: 2.314
#iterations: 458
currently lose_sum: 0.6698252558708191
time_elpased: 2.303
#iterations: 459
currently lose_sum: 0.7121345400810242
time_elpased: 2.384
start validation test
0.53125
0.533035714286
0.531138790036
0.532085561497
0.531250398602
38.581
#iterations: 460
currently lose_sum: 0.6587542295455933
time_elpased: 2.283
#iterations: 461
currently lose_sum: 0.6828127503395081
time_elpased: 2.625
#iterations: 462
currently lose_sum: 0.6913616061210632
time_elpased: 2.363
#iterations: 463
currently lose_sum: 0.7142079472541809
time_elpased: 2.345
#iterations: 464
currently lose_sum: 0.6623374223709106
time_elpased: 2.402
#iterations: 465
currently lose_sum: 0.6954676508903503
time_elpased: 2.31
#iterations: 466
currently lose_sum: 0.7163522243499756
time_elpased: 2.333
#iterations: 467
currently lose_sum: 0.6771728992462158
time_elpased: 2.898
#iterations: 468
currently lose_sum: 0.6690673828125
time_elpased: 2.397
#iterations: 469
currently lose_sum: 0.7066255807876587
time_elpased: 2.917
#iterations: 470
currently lose_sum: 0.7064369916915894
time_elpased: 2.41
#iterations: 471
currently lose_sum: 0.6980959177017212
time_elpased: 2.3
#iterations: 472
currently lose_sum: 0.6932196617126465
time_elpased: 2.301
#iterations: 473
currently lose_sum: 0.6998435258865356
time_elpased: 2.294
#iterations: 474
currently lose_sum: 0.6628187894821167
time_elpased: 2.306
#iterations: 475
currently lose_sum: 0.6971138715744019
time_elpased: 2.54
#iterations: 476
currently lose_sum: 0.6438421010971069
time_elpased: 2.3
#iterations: 477
currently lose_sum: 0.7012840509414673
time_elpased: 2.311
#iterations: 478
currently lose_sum: 0.6741026043891907
time_elpased: 2.326
#iterations: 479
currently lose_sum: 0.6794384717941284
time_elpased: 2.302
start validation test
0.537053571429
0.537403267412
0.556049822064
0.54656755575
0.536985484509
38.557
#iterations: 480
currently lose_sum: 0.6915429830551147
time_elpased: 2.556
#iterations: 481
currently lose_sum: 0.6584067344665527
time_elpased: 2.312
#iterations: 482
currently lose_sum: 0.714169979095459
time_elpased: 2.307
#iterations: 483
currently lose_sum: 0.6688507199287415
time_elpased: 2.314
#iterations: 484
currently lose_sum: 0.6549012064933777
time_elpased: 2.309
#iterations: 485
currently lose_sum: 0.6594131588935852
time_elpased: 2.303
#iterations: 486
currently lose_sum: 0.6957915425300598
time_elpased: 2.312
#iterations: 487
currently lose_sum: 0.6374384760856628
time_elpased: 2.382
#iterations: 488
currently lose_sum: 0.7204400300979614
time_elpased: 2.292
#iterations: 489
currently lose_sum: 0.6580345034599304
time_elpased: 2.313
#iterations: 490
currently lose_sum: 0.6946434378623962
time_elpased: 2.319
#iterations: 491
currently lose_sum: 0.7356634140014648
time_elpased: 2.312
#iterations: 492
currently lose_sum: 0.7128574848175049
time_elpased: 2.409
#iterations: 493
currently lose_sum: 0.7083074450492859
time_elpased: 2.332
#iterations: 494
currently lose_sum: 0.7002032995223999
time_elpased: 2.331
#iterations: 495
currently lose_sum: 0.6844547986984253
time_elpased: 2.328
#iterations: 496
currently lose_sum: 0.7442795634269714
time_elpased: 2.334
#iterations: 497
currently lose_sum: 0.6581336855888367
time_elpased: 2.372
#iterations: 498
currently lose_sum: 0.710605800151825
time_elpased: 2.33
#iterations: 499
currently lose_sum: 0.7115389108657837
time_elpased: 2.299
start validation test
0.530803571429
0.532158590308
0.537366548043
0.534749889332
0.530780048215
38.611
#iterations: 500
currently lose_sum: 0.6969678997993469
time_elpased: 2.305
#iterations: 501
currently lose_sum: 0.6747297644615173
time_elpased: 2.28
#iterations: 502
currently lose_sum: 0.7051994204521179
time_elpased: 2.295
#iterations: 503
currently lose_sum: 0.6779571771621704
time_elpased: 2.295
#iterations: 504
currently lose_sum: 0.6884214282035828
time_elpased: 2.288
#iterations: 505
currently lose_sum: 0.7201223373413086
time_elpased: 2.318
#iterations: 506
currently lose_sum: 0.625494122505188
time_elpased: 2.446
#iterations: 507
currently lose_sum: 0.6706666946411133
time_elpased: 2.313
#iterations: 508
currently lose_sum: 0.6936019062995911
time_elpased: 2.3
#iterations: 509
currently lose_sum: 0.7165899872779846
time_elpased: 2.328
#iterations: 510
currently lose_sum: 0.6808682084083557
time_elpased: 2.304
#iterations: 511
currently lose_sum: 0.7069367170333862
time_elpased: 2.318
#iterations: 512
currently lose_sum: 0.6783575415611267
time_elpased: 2.313
#iterations: 513
currently lose_sum: 0.6797921061515808
time_elpased: 2.373
#iterations: 514
currently lose_sum: 0.6795459985733032
time_elpased: 2.296
#iterations: 515
currently lose_sum: 0.6662379503250122
time_elpased: 2.36
#iterations: 516
currently lose_sum: 0.6362268924713135
time_elpased: 2.289
#iterations: 517
currently lose_sum: 0.6770681142807007
time_elpased: 2.305
#iterations: 518
currently lose_sum: 0.642254114151001
time_elpased: 2.334
#iterations: 519
currently lose_sum: 0.7087869644165039
time_elpased: 2.319
start validation test
0.533482142857
0.534497816594
0.544483985765
0.53944468929
0.533442709728
38.554
#iterations: 520
currently lose_sum: 0.696445643901825
time_elpased: 2.59
#iterations: 521
currently lose_sum: 0.6802141070365906
time_elpased: 2.391
#iterations: 522
currently lose_sum: 0.688188374042511
time_elpased: 2.317
#iterations: 523
currently lose_sum: 0.6938470602035522
time_elpased: 2.346
#iterations: 524
currently lose_sum: 0.678533673286438
time_elpased: 2.425
#iterations: 525
currently lose_sum: 0.6836121678352356
time_elpased: 2.314
#iterations: 526
currently lose_sum: 0.6523765921592712
time_elpased: 2.364
#iterations: 527
currently lose_sum: 0.6734300255775452
time_elpased: 2.301
#iterations: 528
currently lose_sum: 0.6813713312149048
time_elpased: 2.327
#iterations: 529
currently lose_sum: 0.6793457865715027
time_elpased: 2.333
#iterations: 530
currently lose_sum: 0.6618651151657104
time_elpased: 2.84
#iterations: 531
currently lose_sum: 0.7070374488830566
time_elpased: 2.401
#iterations: 532
currently lose_sum: 0.6977301836013794
time_elpased: 2.341
#iterations: 533
currently lose_sum: 0.7160245180130005
time_elpased: 2.384
#iterations: 534
currently lose_sum: 0.6767274141311646
time_elpased: 2.318
#iterations: 535
currently lose_sum: 0.6330891847610474
time_elpased: 2.315
#iterations: 536
currently lose_sum: 0.6727644801139832
time_elpased: 2.296
#iterations: 537
currently lose_sum: 0.7259823083877563
time_elpased: 2.337
#iterations: 538
currently lose_sum: 0.6805601716041565
time_elpased: 2.523
#iterations: 539
currently lose_sum: 0.6919554471969604
time_elpased: 2.36
start validation test
0.538839285714
0.54095409541
0.534697508897
0.537807606264
0.538854130792
38.549
#iterations: 540
currently lose_sum: 0.6830240488052368
time_elpased: 2.318
#iterations: 541
currently lose_sum: 0.6909586191177368
time_elpased: 2.49
#iterations: 542
currently lose_sum: 0.6702059507369995
time_elpased: 2.367
#iterations: 543
currently lose_sum: 0.6472975611686707
time_elpased: 2.327
#iterations: 544
currently lose_sum: 0.6897870302200317
time_elpased: 2.305
#iterations: 545
currently lose_sum: 0.674612283706665
time_elpased: 2.416
#iterations: 546
currently lose_sum: 0.6937745809555054
time_elpased: 2.514
#iterations: 547
currently lose_sum: 0.6457169055938721
time_elpased: 2.56
#iterations: 548
currently lose_sum: 0.6824633479118347
time_elpased: 2.268
#iterations: 549
currently lose_sum: 0.6905152201652527
time_elpased: 2.305
#iterations: 550
currently lose_sum: 0.6637130975723267
time_elpased: 2.315
#iterations: 551
currently lose_sum: 0.7172037363052368
time_elpased: 2.308
#iterations: 552
currently lose_sum: 0.668887734413147
time_elpased: 2.318
#iterations: 553
currently lose_sum: 0.6560550928115845
time_elpased: 2.338
#iterations: 554
currently lose_sum: 0.6350773572921753
time_elpased: 2.299
#iterations: 555
currently lose_sum: 0.6983693242073059
time_elpased: 2.407
#iterations: 556
currently lose_sum: 0.667323112487793
time_elpased: 2.292
#iterations: 557
currently lose_sum: 0.7656289339065552
time_elpased: 2.286
#iterations: 558
currently lose_sum: 0.6477635502815247
time_elpased: 2.479
#iterations: 559
currently lose_sum: 0.713988184928894
time_elpased: 2.281
start validation test
0.532142857143
0.533158813264
0.54359430605
0.538325991189
0.532101812523
38.578
#iterations: 560
currently lose_sum: 0.6805850267410278
time_elpased: 2.295
#iterations: 561
currently lose_sum: 0.6927042007446289
time_elpased: 2.296
#iterations: 562
currently lose_sum: 0.6798074841499329
time_elpased: 2.305
#iterations: 563
currently lose_sum: 0.6839242577552795
time_elpased: 2.313
#iterations: 564
currently lose_sum: 0.6728329062461853
time_elpased: 2.327
#iterations: 565
currently lose_sum: 0.6909664273262024
time_elpased: 2.34
#iterations: 566
currently lose_sum: 0.6646652221679688
time_elpased: 2.318
#iterations: 567
currently lose_sum: 0.7065333127975464
time_elpased: 2.411
#iterations: 568
currently lose_sum: 0.7062329053878784
time_elpased: 2.313
#iterations: 569
currently lose_sum: 0.6686385869979858
time_elpased: 2.412
#iterations: 570
currently lose_sum: 0.6539819836616516
time_elpased: 2.572
#iterations: 571
currently lose_sum: 0.6825299263000488
time_elpased: 2.454
#iterations: 572
currently lose_sum: 0.6807155609130859
time_elpased: 2.41
#iterations: 573
currently lose_sum: 0.6796156764030457
time_elpased: 2.305
#iterations: 574
currently lose_sum: 0.6745549440383911
time_elpased: 2.289
#iterations: 575
currently lose_sum: 0.7046094536781311
time_elpased: 2.625
#iterations: 576
currently lose_sum: 0.680841326713562
time_elpased: 2.308
#iterations: 577
currently lose_sum: 0.680425226688385
time_elpased: 2.539
#iterations: 578
currently lose_sum: 0.6659644246101379
time_elpased: 2.895
#iterations: 579
currently lose_sum: 0.7002527117729187
time_elpased: 2.596
start validation test
0.534375
0.535936113576
0.537366548043
0.53665037761
0.534364277606
38.560
#iterations: 580
currently lose_sum: 0.6845974326133728
time_elpased: 2.298
#iterations: 581
currently lose_sum: 0.6867073774337769
time_elpased: 2.34
#iterations: 582
currently lose_sum: 0.7037489414215088
time_elpased: 2.448
#iterations: 583
currently lose_sum: 0.6832349896430969
time_elpased: 2.307
#iterations: 584
currently lose_sum: 0.6726773381233215
time_elpased: 2.363
#iterations: 585
currently lose_sum: 0.7103512287139893
time_elpased: 2.304
#iterations: 586
currently lose_sum: 0.6608957052230835
time_elpased: 2.305
#iterations: 587
currently lose_sum: 0.6689410209655762
time_elpased: 2.331
#iterations: 588
currently lose_sum: 0.709408164024353
time_elpased: 2.314
#iterations: 589
currently lose_sum: 0.7291153073310852
time_elpased: 2.447
#iterations: 590
currently lose_sum: 0.6474112272262573
time_elpased: 2.689
#iterations: 591
currently lose_sum: 0.6944769620895386
time_elpased: 2.572
#iterations: 592
currently lose_sum: 0.7369455099105835
time_elpased: 2.453
#iterations: 593
currently lose_sum: 0.6918656826019287
time_elpased: 2.375
#iterations: 594
currently lose_sum: 0.7131205201148987
time_elpased: 2.324
#iterations: 595
currently lose_sum: 0.6694307327270508
time_elpased: 2.327
#iterations: 596
currently lose_sum: 0.6947153210639954
time_elpased: 2.362
#iterations: 597
currently lose_sum: 0.69367516040802
time_elpased: 2.307
#iterations: 598
currently lose_sum: 0.6818538904190063
time_elpased: 2.31
#iterations: 599
currently lose_sum: 0.6770039796829224
time_elpased: 2.322
start validation test
0.532589285714
0.533104041273
0.551601423488
0.542195015304
0.532521141851
38.571
acc: 0.546
pre: 0.549
rec: 0.537
F1: 0.543
auc: 0.546
