start to construct computing graph
graph construct over
3373
epochs start
#iterations: 0
currently lose_sum: 0.6749957203865051
time_elpased: 3.147
#iterations: 1
currently lose_sum: 0.6846619248390198
time_elpased: 2.936
#iterations: 2
currently lose_sum: 0.7082054018974304
time_elpased: 3.013
#iterations: 3
currently lose_sum: 0.7137311100959778
time_elpased: 3.171
#iterations: 4
currently lose_sum: 0.6788373589515686
time_elpased: 3.376
#iterations: 5
currently lose_sum: 0.6736046671867371
time_elpased: 2.963
#iterations: 6
currently lose_sum: 0.6724172830581665
time_elpased: 3.322
#iterations: 7
currently lose_sum: 0.7285819053649902
time_elpased: 2.961
#iterations: 8
currently lose_sum: 0.6987495422363281
time_elpased: 3.126
#iterations: 9
currently lose_sum: 0.6929543614387512
time_elpased: 3.129
#iterations: 10
currently lose_sum: 0.6684523224830627
time_elpased: 2.965
#iterations: 11
currently lose_sum: 0.6950922012329102
time_elpased: 3.218
#iterations: 12
currently lose_sum: 0.7021931409835815
time_elpased: 3.035
#iterations: 13
currently lose_sum: 0.6828691363334656
time_elpased: 2.936
#iterations: 14
currently lose_sum: 0.6738373637199402
time_elpased: 2.916
#iterations: 15
currently lose_sum: 0.6815152168273926
time_elpased: 3.081
#iterations: 16
currently lose_sum: 0.7083271741867065
time_elpased: 3.161
#iterations: 17
currently lose_sum: 0.6925114393234253
time_elpased: 3.065
#iterations: 18
currently lose_sum: 0.6559876203536987
time_elpased: 3.089
#iterations: 19
currently lose_sum: 0.6792281866073608
time_elpased: 2.962
start validation test
0.531696428571
0.538304392237
0.468861209964
0.501188777936
0.531921644409
38.585
#iterations: 20
currently lose_sum: 0.6948658227920532
time_elpased: 2.294
#iterations: 21
currently lose_sum: 0.7006857395172119
time_elpased: 1.825
#iterations: 22
currently lose_sum: 0.6801196932792664
time_elpased: 1.793
#iterations: 23
currently lose_sum: 0.6674872040748596
time_elpased: 1.929
#iterations: 24
currently lose_sum: 0.6627206206321716
time_elpased: 1.827
#iterations: 25
currently lose_sum: 0.6803222894668579
time_elpased: 1.77
#iterations: 26
currently lose_sum: 0.7033498287200928
time_elpased: 1.756
#iterations: 27
currently lose_sum: 0.7008463144302368
time_elpased: 1.831
#iterations: 28
currently lose_sum: 0.6677153706550598
time_elpased: 1.793
#iterations: 29
currently lose_sum: 0.6493539214134216
time_elpased: 1.766
#iterations: 30
currently lose_sum: 0.6832596659660339
time_elpased: 1.764
#iterations: 31
currently lose_sum: 0.6610603332519531
time_elpased: 1.835
#iterations: 32
currently lose_sum: 0.7076217532157898
time_elpased: 1.781
#iterations: 33
currently lose_sum: 0.6689733266830444
time_elpased: 1.843
#iterations: 34
currently lose_sum: 0.6599307060241699
time_elpased: 1.779
#iterations: 35
currently lose_sum: 0.6565412282943726
time_elpased: 1.875
#iterations: 36
currently lose_sum: 0.6761960983276367
time_elpased: 1.852
#iterations: 37
currently lose_sum: 0.693088173866272
time_elpased: 1.921
#iterations: 38
currently lose_sum: 0.6868139505386353
time_elpased: 1.775
#iterations: 39
currently lose_sum: 0.673200786113739
time_elpased: 1.776
start validation test
0.536607142857
0.538599640934
0.533807829181
0.536193029491
0.536617176239
38.535
#iterations: 40
currently lose_sum: 0.6734811067581177
time_elpased: 1.786
#iterations: 41
currently lose_sum: 0.6896150708198547
time_elpased: 1.815
#iterations: 42
currently lose_sum: 0.716713547706604
time_elpased: 1.888
#iterations: 43
currently lose_sum: 0.687751293182373
time_elpased: 1.96
#iterations: 44
currently lose_sum: 0.7125568389892578
time_elpased: 1.895
#iterations: 45
currently lose_sum: 0.6994958519935608
time_elpased: 1.778
#iterations: 46
currently lose_sum: 0.6959227919578552
time_elpased: 1.889
#iterations: 47
currently lose_sum: 0.656385064125061
time_elpased: 1.793
#iterations: 48
currently lose_sum: 0.6800224184989929
time_elpased: 1.771
#iterations: 49
currently lose_sum: 0.7003875970840454
time_elpased: 1.765
#iterations: 50
currently lose_sum: 0.667521595954895
time_elpased: 1.975
#iterations: 51
currently lose_sum: 0.6932792067527771
time_elpased: 1.868
#iterations: 52
currently lose_sum: 0.6634467840194702
time_elpased: 2.016
#iterations: 53
currently lose_sum: 0.6825147867202759
time_elpased: 1.954
#iterations: 54
currently lose_sum: 0.7029691934585571
time_elpased: 1.765
#iterations: 55
currently lose_sum: 0.6607314944267273
time_elpased: 1.852
#iterations: 56
currently lose_sum: 0.6902106404304504
time_elpased: 1.781
#iterations: 57
currently lose_sum: 0.7196214199066162
time_elpased: 1.791
#iterations: 58
currently lose_sum: 0.6966776847839355
time_elpased: 2.235
#iterations: 59
currently lose_sum: 0.7047895789146423
time_elpased: 1.77
start validation test
0.538839285714
0.541476754786
0.52846975089
0.534894191805
0.538876452506
38.589
#iterations: 60
currently lose_sum: 0.6953293681144714
time_elpased: 1.792
#iterations: 61
currently lose_sum: 0.6902734637260437
time_elpased: 1.773
#iterations: 62
currently lose_sum: 0.6486150026321411
time_elpased: 1.771
#iterations: 63
currently lose_sum: 0.6680881381034851
time_elpased: 1.784
#iterations: 64
currently lose_sum: 0.702581524848938
time_elpased: 1.835
#iterations: 65
currently lose_sum: 0.6629547476768494
time_elpased: 1.786
#iterations: 66
currently lose_sum: 0.6555684208869934
time_elpased: 1.776
#iterations: 67
currently lose_sum: 0.6432168483734131
time_elpased: 1.782
#iterations: 68
currently lose_sum: 0.7122138738632202
time_elpased: 1.772
#iterations: 69
currently lose_sum: 0.6869248151779175
time_elpased: 1.769
#iterations: 70
currently lose_sum: 0.677810788154602
time_elpased: 1.798
#iterations: 71
currently lose_sum: 0.7019168734550476
time_elpased: 1.855
#iterations: 72
currently lose_sum: 0.6916000843048096
time_elpased: 1.901
#iterations: 73
currently lose_sum: 0.6789439916610718
time_elpased: 1.803
#iterations: 74
currently lose_sum: 0.6986950635910034
time_elpased: 1.865
#iterations: 75
currently lose_sum: 0.6645998954772949
time_elpased: 1.914
#iterations: 76
currently lose_sum: 0.6687026023864746
time_elpased: 2.072
#iterations: 77
currently lose_sum: 0.6938687562942505
time_elpased: 1.8
#iterations: 78
currently lose_sum: 0.6784543991088867
time_elpased: 1.896
#iterations: 79
currently lose_sum: 0.6763536930084229
time_elpased: 1.866
start validation test
0.527678571429
0.532803180915
0.476868327402
0.503286384977
0.527860686999
38.601
#iterations: 80
currently lose_sum: 0.690255343914032
time_elpased: 1.802
#iterations: 81
currently lose_sum: 0.6883683204650879
time_elpased: 1.769
#iterations: 82
currently lose_sum: 0.6847208142280579
time_elpased: 1.77
#iterations: 83
currently lose_sum: 0.7272353172302246
time_elpased: 1.918
#iterations: 84
currently lose_sum: 0.6885298490524292
time_elpased: 1.779
#iterations: 85
currently lose_sum: 0.6647344827651978
time_elpased: 1.772
#iterations: 86
currently lose_sum: 0.6489247679710388
time_elpased: 1.794
#iterations: 87
currently lose_sum: 0.6920543313026428
time_elpased: 1.855
#iterations: 88
currently lose_sum: 0.6840914487838745
time_elpased: 1.777
#iterations: 89
currently lose_sum: 0.6906007528305054
time_elpased: 1.802
#iterations: 90
currently lose_sum: 0.6937151551246643
time_elpased: 1.783
#iterations: 91
currently lose_sum: 0.7043973803520203
time_elpased: 2.106
#iterations: 92
currently lose_sum: 0.6841411590576172
time_elpased: 2.029
#iterations: 93
currently lose_sum: 0.6845554113388062
time_elpased: 1.932
#iterations: 94
currently lose_sum: 0.7181083559989929
time_elpased: 2.013
#iterations: 95
currently lose_sum: 0.6885306239128113
time_elpased: 1.767
#iterations: 96
currently lose_sum: 0.6904889345169067
time_elpased: 1.763
#iterations: 97
currently lose_sum: 0.7096501588821411
time_elpased: 1.777
#iterations: 98
currently lose_sum: 0.6736092567443848
time_elpased: 1.904
#iterations: 99
currently lose_sum: 0.7080831527709961
time_elpased: 1.77
start validation test
0.523660714286
0.526170798898
0.509786476868
0.517849073656
0.523710442735
38.609
#iterations: 100
currently lose_sum: 0.6572235822677612
time_elpased: 1.77
#iterations: 101
currently lose_sum: 0.646012544631958
time_elpased: 1.77
#iterations: 102
currently lose_sum: 0.6782840490341187
time_elpased: 1.782
#iterations: 103
currently lose_sum: 0.6489425897598267
time_elpased: 1.77
#iterations: 104
currently lose_sum: 0.6869582533836365
time_elpased: 1.773
#iterations: 105
currently lose_sum: 0.7164507508277893
time_elpased: 1.759
#iterations: 106
currently lose_sum: 0.6738103628158569
time_elpased: 1.92
#iterations: 107
currently lose_sum: 0.6909772753715515
time_elpased: 1.795
#iterations: 108
currently lose_sum: 0.6851704716682434
time_elpased: 1.768
#iterations: 109
currently lose_sum: 0.6611010432243347
time_elpased: 1.795
#iterations: 110
currently lose_sum: 0.7118021249771118
time_elpased: 1.896
#iterations: 111
currently lose_sum: 0.7038066983222961
time_elpased: 2.079
#iterations: 112
currently lose_sum: 0.680798351764679
time_elpased: 1.783
#iterations: 113
currently lose_sum: 0.6952992677688599
time_elpased: 1.797
#iterations: 114
currently lose_sum: 0.6767367720603943
time_elpased: 2.093
#iterations: 115
currently lose_sum: 0.6755646467208862
time_elpased: 1.933
#iterations: 116
currently lose_sum: 0.6628957986831665
time_elpased: 1.789
#iterations: 117
currently lose_sum: 0.6850402355194092
time_elpased: 1.803
#iterations: 118
currently lose_sum: 0.6786776781082153
time_elpased: 2.108
#iterations: 119
currently lose_sum: 0.7133055925369263
time_elpased: 1.887
start validation test
0.540178571429
0.544007490637
0.516903914591
0.530109489051
0.540261993138
38.574
#iterations: 120
currently lose_sum: 0.6844378709793091
time_elpased: 1.934
#iterations: 121
currently lose_sum: 0.6515771746635437
time_elpased: 2.179
#iterations: 122
currently lose_sum: 0.689595103263855
time_elpased: 1.786
#iterations: 123
currently lose_sum: 0.6680841445922852
time_elpased: 1.797
#iterations: 124
currently lose_sum: 0.688819408416748
time_elpased: 1.94
#iterations: 125
currently lose_sum: 0.6921002864837646
time_elpased: 1.758
#iterations: 126
currently lose_sum: 0.6957944631576538
time_elpased: 1.802
#iterations: 127
currently lose_sum: 0.6536554098129272
time_elpased: 1.771
#iterations: 128
currently lose_sum: 0.6935513615608215
time_elpased: 1.794
#iterations: 129
currently lose_sum: 0.7019309401512146
time_elpased: 1.784
#iterations: 130
currently lose_sum: 0.6578336954116821
time_elpased: 1.773
#iterations: 131
currently lose_sum: 0.6858100891113281
time_elpased: 1.79
#iterations: 132
currently lose_sum: 0.6893655061721802
time_elpased: 1.918
#iterations: 133
currently lose_sum: 0.6871699690818787
time_elpased: 1.792
#iterations: 134
currently lose_sum: 0.6626733541488647
time_elpased: 1.863
#iterations: 135
currently lose_sum: 0.6995622515678406
time_elpased: 1.776
#iterations: 136
currently lose_sum: 0.6785978078842163
time_elpased: 1.777
#iterations: 137
currently lose_sum: 0.664413332939148
time_elpased: 1.927
#iterations: 138
currently lose_sum: 0.6751334071159363
time_elpased: 1.778
#iterations: 139
currently lose_sum: 0.6681183576583862
time_elpased: 1.779
start validation test
0.528125
0.533135509397
0.479537366548
0.504918032787
0.528299149224
38.597
#iterations: 140
currently lose_sum: 0.6892281770706177
time_elpased: 1.783
#iterations: 141
currently lose_sum: 0.7146533727645874
time_elpased: 1.847
#iterations: 142
currently lose_sum: 0.7128941416740417
time_elpased: 1.795
#iterations: 143
currently lose_sum: 0.7127379179000854
time_elpased: 1.832
#iterations: 144
currently lose_sum: 0.7173806428909302
time_elpased: 1.887
#iterations: 145
currently lose_sum: 0.6892277002334595
time_elpased: 1.769
#iterations: 146
currently lose_sum: 0.677945613861084
time_elpased: 1.775
#iterations: 147
currently lose_sum: 0.6453266143798828
time_elpased: 1.873
#iterations: 148
currently lose_sum: 0.69435054063797
time_elpased: 1.784
#iterations: 149
currently lose_sum: 0.6938818693161011
time_elpased: 1.764
#iterations: 150
currently lose_sum: 0.6899609565734863
time_elpased: 1.839
#iterations: 151
currently lose_sum: 0.7099478840827942
time_elpased: 1.776
#iterations: 152
currently lose_sum: 0.6960488557815552
time_elpased: 2.11
#iterations: 153
currently lose_sum: 0.6688467264175415
time_elpased: 1.818
#iterations: 154
currently lose_sum: 0.6456573009490967
time_elpased: 1.765
#iterations: 155
currently lose_sum: 0.659923791885376
time_elpased: 1.777
#iterations: 156
currently lose_sum: 0.6985452771186829
time_elpased: 1.786
#iterations: 157
currently lose_sum: 0.6837405562400818
time_elpased: 1.816
#iterations: 158
currently lose_sum: 0.6530733704566956
time_elpased: 1.907
#iterations: 159
currently lose_sum: 0.6704784631729126
time_elpased: 1.78
start validation test
0.528571428571
0.530357142857
0.52846975089
0.529411764706
0.528571793008
38.605
#iterations: 160
currently lose_sum: 0.6997061967849731
time_elpased: 1.78
#iterations: 161
currently lose_sum: 0.7136350870132446
time_elpased: 1.796
#iterations: 162
currently lose_sum: 0.6999942660331726
time_elpased: 1.853
#iterations: 163
currently lose_sum: 0.6671006083488464
time_elpased: 1.787
#iterations: 164
currently lose_sum: 0.6767897605895996
time_elpased: 1.876
#iterations: 165
currently lose_sum: 0.6922550201416016
time_elpased: 1.796
#iterations: 166
currently lose_sum: 0.7120347619056702
time_elpased: 1.927
#iterations: 167
currently lose_sum: 0.6725376844406128
time_elpased: 1.858
#iterations: 168
currently lose_sum: 0.6936448216438293
time_elpased: 1.835
#iterations: 169
currently lose_sum: 0.6713976860046387
time_elpased: 1.766
#iterations: 170
currently lose_sum: 0.6811622977256775
time_elpased: 2.089
#iterations: 171
currently lose_sum: 0.6919859051704407
time_elpased: 1.816
#iterations: 172
currently lose_sum: 0.6970182657241821
time_elpased: 1.946
#iterations: 173
currently lose_sum: 0.6428403258323669
time_elpased: 1.766
#iterations: 174
currently lose_sum: 0.6560567617416382
time_elpased: 1.782
#iterations: 175
currently lose_sum: 0.6930180788040161
time_elpased: 1.807
#iterations: 176
currently lose_sum: 0.6895788311958313
time_elpased: 2.119
#iterations: 177
currently lose_sum: 0.7180272340774536
time_elpased: 2.063
#iterations: 178
currently lose_sum: 0.7007306218147278
time_elpased: 1.883
#iterations: 179
currently lose_sum: 0.7291280627250671
time_elpased: 1.928
start validation test
0.532589285714
0.535813953488
0.512455516014
0.523874488404
0.532661449763
38.616
#iterations: 180
currently lose_sum: 0.6927580237388611
time_elpased: 1.809
#iterations: 181
currently lose_sum: 0.6937934160232544
time_elpased: 1.788
#iterations: 182
currently lose_sum: 0.6911943554878235
time_elpased: 1.804
#iterations: 183
currently lose_sum: 0.6671766042709351
time_elpased: 2.045
#iterations: 184
currently lose_sum: 0.6886793971061707
time_elpased: 1.807
#iterations: 185
currently lose_sum: 0.6699662208557129
time_elpased: 1.784
#iterations: 186
currently lose_sum: 0.7085709571838379
time_elpased: 1.772
#iterations: 187
currently lose_sum: 0.6534091234207153
time_elpased: 1.768
#iterations: 188
currently lose_sum: 0.6636708378791809
time_elpased: 1.809
#iterations: 189
currently lose_sum: 0.6720446944236755
time_elpased: 1.931
#iterations: 190
currently lose_sum: 0.7079421877861023
time_elpased: 1.787
#iterations: 191
currently lose_sum: 0.6824292540550232
time_elpased: 1.817
#iterations: 192
currently lose_sum: 0.6965204477310181
time_elpased: 1.791
#iterations: 193
currently lose_sum: 0.6590538620948792
time_elpased: 1.778
#iterations: 194
currently lose_sum: 0.6743543148040771
time_elpased: 1.783
#iterations: 195
currently lose_sum: 0.6636556386947632
time_elpased: 1.79
#iterations: 196
currently lose_sum: 0.7012858390808105
time_elpased: 1.78
#iterations: 197
currently lose_sum: 0.6770914196968079
time_elpased: 1.793
#iterations: 198
currently lose_sum: 0.6574569344520569
time_elpased: 1.778
#iterations: 199
currently lose_sum: 0.6643266677856445
time_elpased: 1.804
start validation test
0.543303571429
0.544729849424
0.547153024911
0.545938748336
0.543289774104
38.548
#iterations: 200
currently lose_sum: 0.6502373218536377
time_elpased: 1.902
#iterations: 201
currently lose_sum: 0.6741660237312317
time_elpased: 2.009
#iterations: 202
currently lose_sum: 0.7032157778739929
time_elpased: 2.094
#iterations: 203
currently lose_sum: 0.6811915636062622
time_elpased: 1.782
#iterations: 204
currently lose_sum: 0.6567729115486145
time_elpased: 1.788
#iterations: 205
currently lose_sum: 0.7046190500259399
time_elpased: 2.002
#iterations: 206
currently lose_sum: 0.7140630483627319
time_elpased: 1.78
#iterations: 207
currently lose_sum: 0.7124983072280884
time_elpased: 1.79
#iterations: 208
currently lose_sum: 0.686734676361084
time_elpased: 2.054
#iterations: 209
currently lose_sum: 0.702497124671936
time_elpased: 1.797
#iterations: 210
currently lose_sum: 0.690899670124054
time_elpased: 2.029
#iterations: 211
currently lose_sum: 0.6608511209487915
time_elpased: 1.863
#iterations: 212
currently lose_sum: 0.6596698760986328
time_elpased: 1.792
#iterations: 213
currently lose_sum: 0.7219597101211548
time_elpased: 1.773
#iterations: 214
currently lose_sum: 0.7217389345169067
time_elpased: 1.805
#iterations: 215
currently lose_sum: 0.7092611193656921
time_elpased: 1.977
#iterations: 216
currently lose_sum: 0.6922087073326111
time_elpased: 1.775
#iterations: 217
currently lose_sum: 0.705981433391571
time_elpased: 1.806
#iterations: 218
currently lose_sum: 0.7217999696731567
time_elpased: 1.772
#iterations: 219
currently lose_sum: 0.6918562054634094
time_elpased: 1.775
start validation test
0.5375
0.540219378428
0.525800711744
0.532912533814
0.537541932933
38.543
#iterations: 220
currently lose_sum: 0.6450148820877075
time_elpased: 1.79
#iterations: 221
currently lose_sum: 0.6827649474143982
time_elpased: 1.964
#iterations: 222
currently lose_sum: 0.6907896995544434
time_elpased: 2.139
#iterations: 223
currently lose_sum: 0.6663204431533813
time_elpased: 1.83
#iterations: 224
currently lose_sum: 0.706506609916687
time_elpased: 1.878
#iterations: 225
currently lose_sum: 0.6853333711624146
time_elpased: 1.786
#iterations: 226
currently lose_sum: 0.671842098236084
time_elpased: 1.792
#iterations: 227
currently lose_sum: 0.6859634518623352
time_elpased: 1.841
#iterations: 228
currently lose_sum: 0.6808491945266724
time_elpased: 1.773
#iterations: 229
currently lose_sum: 0.6908008456230164
time_elpased: 1.777
#iterations: 230
currently lose_sum: 0.6769214868545532
time_elpased: 1.782
#iterations: 231
currently lose_sum: 0.6914408802986145
time_elpased: 1.753
#iterations: 232
currently lose_sum: 0.7031751871109009
time_elpased: 1.795
#iterations: 233
currently lose_sum: 0.7122171521186829
time_elpased: 1.78
#iterations: 234
currently lose_sum: 0.7081460356712341
time_elpased: 2.23
#iterations: 235
currently lose_sum: 0.6793268322944641
time_elpased: 1.775
#iterations: 236
currently lose_sum: 0.6894575357437134
time_elpased: 1.784
#iterations: 237
currently lose_sum: 0.7554349303245544
time_elpased: 1.873
#iterations: 238
currently lose_sum: 0.681065559387207
time_elpased: 1.781
#iterations: 239
currently lose_sum: 0.666710376739502
time_elpased: 1.785
start validation test
0.535714285714
0.540462427746
0.499110320285
0.518963922294
0.535845482723
38.564
#iterations: 240
currently lose_sum: 0.7315946221351624
time_elpased: 2.236
#iterations: 241
currently lose_sum: 0.6683513522148132
time_elpased: 2.67
#iterations: 242
currently lose_sum: 0.670159637928009
time_elpased: 2.533
#iterations: 243
currently lose_sum: 0.6567243933677673
time_elpased: 2.476
#iterations: 244
currently lose_sum: 0.6693812608718872
time_elpased: 2.426
#iterations: 245
currently lose_sum: 0.6986074447631836
time_elpased: 2.587
#iterations: 246
currently lose_sum: 0.6939959526062012
time_elpased: 2.562
#iterations: 247
currently lose_sum: 0.7159544825553894
time_elpased: 2.488
#iterations: 248
currently lose_sum: 0.6824750900268555
time_elpased: 2.457
#iterations: 249
currently lose_sum: 0.6904674768447876
time_elpased: 2.483
#iterations: 250
currently lose_sum: 0.6585793495178223
time_elpased: 2.483
#iterations: 251
currently lose_sum: 0.6764740943908691
time_elpased: 2.438
#iterations: 252
currently lose_sum: 0.6671258211135864
time_elpased: 2.526
#iterations: 253
currently lose_sum: 0.6987711191177368
time_elpased: 2.754
#iterations: 254
currently lose_sum: 0.6883597373962402
time_elpased: 2.587
#iterations: 255
currently lose_sum: 0.6584669947624207
time_elpased: 2.397
#iterations: 256
currently lose_sum: 0.7058911919593811
time_elpased: 2.458
#iterations: 257
currently lose_sum: 0.6845170259475708
time_elpased: 2.45
#iterations: 258
currently lose_sum: 0.6852260828018188
time_elpased: 2.444
#iterations: 259
currently lose_sum: 0.6953123807907104
time_elpased: 2.424
start validation test
0.534821428571
0.536870503597
0.531138790036
0.533989266547
0.534834627993
38.570
#iterations: 260
currently lose_sum: 0.6727410554885864
time_elpased: 2.556
#iterations: 261
currently lose_sum: 0.6990237832069397
time_elpased: 2.441
#iterations: 262
currently lose_sum: 0.6631433367729187
time_elpased: 2.489
#iterations: 263
currently lose_sum: 0.6564640998840332
time_elpased: 2.479
#iterations: 264
currently lose_sum: 0.7006022334098816
time_elpased: 2.392
#iterations: 265
currently lose_sum: 0.6884251832962036
time_elpased: 2.432
#iterations: 266
currently lose_sum: 0.6856411695480347
time_elpased: 2.656
#iterations: 267
currently lose_sum: 0.6997043490409851
time_elpased: 2.44
#iterations: 268
currently lose_sum: 0.6801249384880066
time_elpased: 2.52
#iterations: 269
currently lose_sum: 0.6681987047195435
time_elpased: 2.413
#iterations: 270
currently lose_sum: 0.7118639349937439
time_elpased: 2.504
#iterations: 271
currently lose_sum: 0.6938384771347046
time_elpased: 2.407
#iterations: 272
currently lose_sum: 0.6689601540565491
time_elpased: 2.451
#iterations: 273
currently lose_sum: 0.6784396171569824
time_elpased: 2.416
#iterations: 274
currently lose_sum: 0.6462095975875854
time_elpased: 2.48
#iterations: 275
currently lose_sum: 0.6593488454818726
time_elpased: 2.432
#iterations: 276
currently lose_sum: 0.6650197505950928
time_elpased: 2.429
#iterations: 277
currently lose_sum: 0.657564640045166
time_elpased: 2.41
#iterations: 278
currently lose_sum: 0.6574119329452515
time_elpased: 2.463
#iterations: 279
currently lose_sum: 0.7033088803291321
time_elpased: 2.6
start validation test
0.536160714286
0.537643932684
0.540035587189
0.538837106081
0.536146825852
38.508
#iterations: 280
currently lose_sum: 0.6639650464057922
time_elpased: 2.45
#iterations: 281
currently lose_sum: 0.6908935904502869
time_elpased: 2.501
#iterations: 282
currently lose_sum: 0.6722810864448547
time_elpased: 2.456
#iterations: 283
currently lose_sum: 0.6567197442054749
time_elpased: 2.804
#iterations: 284
currently lose_sum: 0.7070875763893127
time_elpased: 2.413
#iterations: 285
currently lose_sum: 0.66705721616745
time_elpased: 2.674
#iterations: 286
currently lose_sum: 0.7115439772605896
time_elpased: 2.503
#iterations: 287
currently lose_sum: 0.6691520810127258
time_elpased: 2.388
#iterations: 288
currently lose_sum: 0.6356382369995117
time_elpased: 2.479
#iterations: 289
currently lose_sum: 0.6944614052772522
time_elpased: 2.435
#iterations: 290
currently lose_sum: 0.700806736946106
time_elpased: 2.419
#iterations: 291
currently lose_sum: 0.6524444818496704
time_elpased: 2.42
#iterations: 292
currently lose_sum: 0.6718602180480957
time_elpased: 2.714
#iterations: 293
currently lose_sum: 0.6959878206253052
time_elpased: 2.377
#iterations: 294
currently lose_sum: 0.6903409361839294
time_elpased: 2.356
#iterations: 295
currently lose_sum: 0.7250148057937622
time_elpased: 2.611
#iterations: 296
currently lose_sum: 0.692483127117157
time_elpased: 3.244
#iterations: 297
currently lose_sum: 0.6663015484809875
time_elpased: 2.421
#iterations: 298
currently lose_sum: 0.7183204889297485
time_elpased: 2.41
#iterations: 299
currently lose_sum: 0.7016116380691528
time_elpased: 2.402
start validation test
0.526785714286
0.5276816609
0.542704626335
0.535087719298
0.526728657253
38.571
#iterations: 300
currently lose_sum: 0.714381217956543
time_elpased: 2.412
#iterations: 301
currently lose_sum: 0.6671572923660278
time_elpased: 2.426
#iterations: 302
currently lose_sum: 0.7126511335372925
time_elpased: 2.698
#iterations: 303
currently lose_sum: 0.7194861173629761
time_elpased: 2.441
#iterations: 304
currently lose_sum: 0.69560307264328
time_elpased: 2.39
#iterations: 305
currently lose_sum: 0.669347882270813
time_elpased: 2.497
#iterations: 306
currently lose_sum: 0.6967771649360657
time_elpased: 2.429
#iterations: 307
currently lose_sum: 0.6890993714332581
time_elpased: 2.479
#iterations: 308
currently lose_sum: 0.6740205883979797
time_elpased: 2.42
#iterations: 309
currently lose_sum: 0.6773883700370789
time_elpased: 2.439
#iterations: 310
currently lose_sum: 0.6774804592132568
time_elpased: 2.808
#iterations: 311
currently lose_sum: 0.6826522946357727
time_elpased: 2.444
#iterations: 312
currently lose_sum: 0.683816134929657
time_elpased: 2.62
#iterations: 313
currently lose_sum: 0.731463611125946
time_elpased: 2.41
#iterations: 314
currently lose_sum: 0.6822983026504517
time_elpased: 2.424
#iterations: 315
currently lose_sum: 0.7045888900756836
time_elpased: 2.463
#iterations: 316
currently lose_sum: 0.664948582649231
time_elpased: 2.438
#iterations: 317
currently lose_sum: 0.6654137372970581
time_elpased: 2.554
#iterations: 318
currently lose_sum: 0.6775711178779602
time_elpased: 2.425
#iterations: 319
currently lose_sum: 0.7176030874252319
time_elpased: 2.465
start validation test
0.533035714286
0.534210526316
0.541814946619
0.537985865724
0.533004247503
38.578
#iterations: 320
currently lose_sum: 0.647505521774292
time_elpased: 2.463
#iterations: 321
currently lose_sum: 0.6793814897537231
time_elpased: 2.549
#iterations: 322
currently lose_sum: 0.6753310561180115
time_elpased: 2.437
#iterations: 323
currently lose_sum: 0.6869221925735474
time_elpased: 2.502
#iterations: 324
currently lose_sum: 0.7133522033691406
time_elpased: 2.554
#iterations: 325
currently lose_sum: 0.7011502385139465
time_elpased: 2.397
#iterations: 326
currently lose_sum: 0.6792157292366028
time_elpased: 2.621
#iterations: 327
currently lose_sum: 0.691428542137146
time_elpased: 2.429
#iterations: 328
currently lose_sum: 0.6833328008651733
time_elpased: 2.465
#iterations: 329
currently lose_sum: 0.671833872795105
time_elpased: 2.564
#iterations: 330
currently lose_sum: 0.6856490969657898
time_elpased: 2.439
#iterations: 331
currently lose_sum: 0.6760624051094055
time_elpased: 2.748
#iterations: 332
currently lose_sum: 0.6468328237533569
time_elpased: 2.674
#iterations: 333
currently lose_sum: 0.7008722424507141
time_elpased: 2.449
#iterations: 334
currently lose_sum: 0.721847653388977
time_elpased: 2.403
#iterations: 335
currently lose_sum: 0.6711815595626831
time_elpased: 2.374
#iterations: 336
currently lose_sum: 0.6916826963424683
time_elpased: 2.589
#iterations: 337
currently lose_sum: 0.6761900186538696
time_elpased: 2.766
#iterations: 338
currently lose_sum: 0.6791003346443176
time_elpased: 2.701
#iterations: 339
currently lose_sum: 0.6402407884597778
time_elpased: 2.703
start validation test
0.529464285714
0.529812606474
0.553380782918
0.541340295909
0.529378563502
38.564
#iterations: 340
currently lose_sum: 0.7507826089859009
time_elpased: 2.721
#iterations: 341
currently lose_sum: 0.7049878239631653
time_elpased: 2.854
#iterations: 342
currently lose_sum: 0.7031521797180176
time_elpased: 2.879
#iterations: 343
currently lose_sum: 0.6847794055938721
time_elpased: 2.711
#iterations: 344
currently lose_sum: 0.6693493127822876
time_elpased: 2.705
#iterations: 345
currently lose_sum: 0.6934533715248108
time_elpased: 2.704
#iterations: 346
currently lose_sum: 0.712049663066864
time_elpased: 2.669
#iterations: 347
currently lose_sum: 0.6910742521286011
time_elpased: 2.788
#iterations: 348
currently lose_sum: 0.6829949617385864
time_elpased: 2.755
#iterations: 349
currently lose_sum: 0.6834907531738281
time_elpased: 2.75
#iterations: 350
currently lose_sum: 0.6910333633422852
time_elpased: 2.695
#iterations: 351
currently lose_sum: 0.6622138023376465
time_elpased: 2.757
#iterations: 352
currently lose_sum: 0.6790876388549805
time_elpased: 2.845
#iterations: 353
currently lose_sum: 0.6726828813552856
time_elpased: 2.756
#iterations: 354
currently lose_sum: 0.6856111288070679
time_elpased: 2.887
#iterations: 355
currently lose_sum: 0.6911858916282654
time_elpased: 2.706
#iterations: 356
currently lose_sum: 0.6106492877006531
time_elpased: 2.601
#iterations: 357
currently lose_sum: 0.6667760014533997
time_elpased: 2.528
#iterations: 358
currently lose_sum: 0.691064178943634
time_elpased: 2.657
#iterations: 359
currently lose_sum: 0.7009970545768738
time_elpased: 2.667
start validation test
0.53125
0.533944954128
0.517793594306
0.525745257453
0.531298230845
38.540
#iterations: 360
currently lose_sum: 0.6682282090187073
time_elpased: 2.634
#iterations: 361
currently lose_sum: 0.6760597229003906
time_elpased: 2.64
#iterations: 362
currently lose_sum: 0.6827861666679382
time_elpased: 2.514
#iterations: 363
currently lose_sum: 0.6935793161392212
time_elpased: 2.633
#iterations: 364
currently lose_sum: 0.7153950333595276
time_elpased: 2.646
#iterations: 365
currently lose_sum: 0.7063857913017273
time_elpased: 2.564
#iterations: 366
currently lose_sum: 0.6697476506233215
time_elpased: 2.605
#iterations: 367
currently lose_sum: 0.696193516254425
time_elpased: 2.553
#iterations: 368
currently lose_sum: 0.7100383043289185
time_elpased: 3.033
#iterations: 369
currently lose_sum: 0.7061089277267456
time_elpased: 2.754
#iterations: 370
currently lose_sum: 0.6672714948654175
time_elpased: 2.654
#iterations: 371
currently lose_sum: 0.6464936137199402
time_elpased: 2.957
#iterations: 372
currently lose_sum: 0.6871156692504883
time_elpased: 2.684
#iterations: 373
currently lose_sum: 0.6884212493896484
time_elpased: 2.744
#iterations: 374
currently lose_sum: 0.6643663644790649
time_elpased: 2.629
#iterations: 375
currently lose_sum: 0.6631296873092651
time_elpased: 2.584
#iterations: 376
currently lose_sum: 0.6917061805725098
time_elpased: 2.514
#iterations: 377
currently lose_sum: 0.6789673566818237
time_elpased: 2.617
#iterations: 378
currently lose_sum: 0.6905699372291565
time_elpased: 2.615
#iterations: 379
currently lose_sum: 0.6794447898864746
time_elpased: 2.677
start validation test
0.536160714286
0.538461538462
0.529359430605
0.533871691341
0.536185091647
38.568
#iterations: 380
currently lose_sum: 0.6625401377677917
time_elpased: 2.711
#iterations: 381
currently lose_sum: 0.6600483655929565
time_elpased: 2.57
#iterations: 382
currently lose_sum: 0.7207714319229126
time_elpased: 2.67
#iterations: 383
currently lose_sum: 0.6908369064331055
time_elpased: 2.729
#iterations: 384
currently lose_sum: 0.6879265904426575
time_elpased: 2.591
#iterations: 385
currently lose_sum: 0.643992006778717
time_elpased: 2.683
#iterations: 386
currently lose_sum: 0.6982569098472595
time_elpased: 2.597
#iterations: 387
currently lose_sum: 0.6738607287406921
time_elpased: 2.725
#iterations: 388
currently lose_sum: 0.6622205376625061
time_elpased: 2.736
#iterations: 389
currently lose_sum: 0.696386456489563
time_elpased: 2.694
#iterations: 390
currently lose_sum: 0.6571320295333862
time_elpased: 3.268
#iterations: 391
currently lose_sum: 0.6643106341362
time_elpased: 2.682
#iterations: 392
currently lose_sum: 0.6389566659927368
time_elpased: 2.621
#iterations: 393
currently lose_sum: 0.7045055627822876
time_elpased: 3.352
#iterations: 394
currently lose_sum: 0.7140711545944214
time_elpased: 2.631
#iterations: 395
currently lose_sum: 0.689391016960144
time_elpased: 2.838
#iterations: 396
currently lose_sum: 0.6855664253234863
time_elpased: 2.884
#iterations: 397
currently lose_sum: 0.6721672415733337
time_elpased: 2.643
#iterations: 398
currently lose_sum: 0.6570578813552856
time_elpased: 2.927
#iterations: 399
currently lose_sum: 0.7021093964576721
time_elpased: 2.618
start validation test
0.527232142857
0.527993109388
0.54537366548
0.536542669584
0.527167119479
38.593
#iterations: 400
currently lose_sum: 0.6752555966377258
time_elpased: 2.645
#iterations: 401
currently lose_sum: 0.6977754831314087
time_elpased: 2.663
#iterations: 402
currently lose_sum: 0.681042492389679
time_elpased: 3.061
#iterations: 403
currently lose_sum: 0.7253310084342957
time_elpased: 3.078
#iterations: 404
currently lose_sum: 0.708660900592804
time_elpased: 2.607
#iterations: 405
currently lose_sum: 0.6840338706970215
time_elpased: 2.839
#iterations: 406
currently lose_sum: 0.708569347858429
time_elpased: 2.495
#iterations: 407
currently lose_sum: 0.6895893812179565
time_elpased: 2.278
#iterations: 408
currently lose_sum: 0.6574328541755676
time_elpased: 2.114
#iterations: 409
currently lose_sum: 0.6830172538757324
time_elpased: 2.042
#iterations: 410
currently lose_sum: 0.6729544997215271
time_elpased: 2.072
#iterations: 411
currently lose_sum: 0.7327910661697388
time_elpased: 1.985
#iterations: 412
currently lose_sum: 0.6948160529136658
time_elpased: 2.039
#iterations: 413
currently lose_sum: 0.6648648977279663
time_elpased: 1.926
#iterations: 414
currently lose_sum: 0.6852468252182007
time_elpased: 1.864
#iterations: 415
currently lose_sum: 0.6450287103652954
time_elpased: 1.799
#iterations: 416
currently lose_sum: 0.7058688402175903
time_elpased: 1.82
#iterations: 417
currently lose_sum: 0.686965823173523
time_elpased: 1.785
#iterations: 418
currently lose_sum: 0.6816427111625671
time_elpased: 2.065
#iterations: 419
currently lose_sum: 0.7054919004440308
time_elpased: 1.813
start validation test
0.533035714286
0.535071942446
0.529359430605
0.532200357782
0.53304889093
38.573
#iterations: 420
currently lose_sum: 0.6855127215385437
time_elpased: 1.811
#iterations: 421
currently lose_sum: 0.7145249843597412
time_elpased: 1.791
#iterations: 422
currently lose_sum: 0.6957650184631348
time_elpased: 1.826
#iterations: 423
currently lose_sum: 0.6718348264694214
time_elpased: 1.807
#iterations: 424
currently lose_sum: 0.6916516423225403
time_elpased: 1.793
#iterations: 425
currently lose_sum: 0.6487313508987427
time_elpased: 2.164
#iterations: 426
currently lose_sum: 0.6717910170555115
time_elpased: 2.053
#iterations: 427
currently lose_sum: 0.7079996466636658
time_elpased: 2.064
#iterations: 428
currently lose_sum: 0.7257856130599976
time_elpased: 1.789
#iterations: 429
currently lose_sum: 0.7122411131858826
time_elpased: 1.758
#iterations: 430
currently lose_sum: 0.6738864183425903
time_elpased: 1.772
#iterations: 431
currently lose_sum: 0.6851919889450073
time_elpased: 1.803
#iterations: 432
currently lose_sum: 0.7145818471908569
time_elpased: 2.03
#iterations: 433
currently lose_sum: 0.661700963973999
time_elpased: 1.771
#iterations: 434
currently lose_sum: 0.6894574165344238
time_elpased: 1.988
#iterations: 435
currently lose_sum: 0.7074113488197327
time_elpased: 1.964
#iterations: 436
currently lose_sum: 0.6574641466140747
time_elpased: 1.764
#iterations: 437
currently lose_sum: 0.6815892457962036
time_elpased: 2.387
#iterations: 438
currently lose_sum: 0.6901160478591919
time_elpased: 2.023
#iterations: 439
currently lose_sum: 0.6996356248855591
time_elpased: 1.974
start validation test
0.534375
0.534763948498
0.554270462633
0.544342507645
0.534303690098
38.560
#iterations: 440
currently lose_sum: 0.737585723400116
time_elpased: 1.871
#iterations: 441
currently lose_sum: 0.6454146504402161
time_elpased: 1.771
#iterations: 442
currently lose_sum: 0.6397213935852051
time_elpased: 1.777
#iterations: 443
currently lose_sum: 0.7055137753486633
time_elpased: 1.78
#iterations: 444
currently lose_sum: 0.6639531850814819
time_elpased: 1.909
#iterations: 445
currently lose_sum: 0.6683942675590515
time_elpased: 1.794
#iterations: 446
currently lose_sum: 0.713114321231842
time_elpased: 2.026
#iterations: 447
currently lose_sum: 0.6600416302680969
time_elpased: 1.798
#iterations: 448
currently lose_sum: 0.7218302488327026
time_elpased: 1.785
#iterations: 449
currently lose_sum: 0.7113634943962097
time_elpased: 1.777
#iterations: 450
currently lose_sum: 0.6950855255126953
time_elpased: 1.76
#iterations: 451
currently lose_sum: 0.6920052766799927
time_elpased: 1.752
#iterations: 452
currently lose_sum: 0.6812958121299744
time_elpased: 1.774
#iterations: 453
currently lose_sum: 0.6540616750717163
time_elpased: 2.135
#iterations: 454
currently lose_sum: 0.6467870473861694
time_elpased: 1.8
#iterations: 455
currently lose_sum: 0.6884006261825562
time_elpased: 1.796
#iterations: 456
currently lose_sum: 0.7034661173820496
time_elpased: 1.843
#iterations: 457
currently lose_sum: 0.6843429207801819
time_elpased: 1.773
#iterations: 458
currently lose_sum: 0.6695119142532349
time_elpased: 1.76
#iterations: 459
currently lose_sum: 0.7136673927307129
time_elpased: 1.886
start validation test
0.531696428571
0.53339269813
0.532918149466
0.533155318202
0.531692049643
38.591
#iterations: 460
currently lose_sum: 0.658385157585144
time_elpased: 1.767
#iterations: 461
currently lose_sum: 0.6821447014808655
time_elpased: 2.257
#iterations: 462
currently lose_sum: 0.6907232403755188
time_elpased: 1.832
#iterations: 463
currently lose_sum: 0.7145476341247559
time_elpased: 1.814
#iterations: 464
currently lose_sum: 0.6631368398666382
time_elpased: 1.921
#iterations: 465
currently lose_sum: 0.695408046245575
time_elpased: 1.779
#iterations: 466
currently lose_sum: 0.7165772914886475
time_elpased: 1.787
#iterations: 467
currently lose_sum: 0.6760852932929993
time_elpased: 2.164
#iterations: 468
currently lose_sum: 0.6689096689224243
time_elpased: 1.774
#iterations: 469
currently lose_sum: 0.7071178555488586
time_elpased: 2.147
#iterations: 470
currently lose_sum: 0.7080146670341492
time_elpased: 2.051
#iterations: 471
currently lose_sum: 0.6982294321060181
time_elpased: 1.799
#iterations: 472
currently lose_sum: 0.6939556002616882
time_elpased: 1.777
#iterations: 473
currently lose_sum: 0.699710488319397
time_elpased: 1.774
#iterations: 474
currently lose_sum: 0.6627920866012573
time_elpased: 1.764
#iterations: 475
currently lose_sum: 0.6961798071861267
time_elpased: 2.014
#iterations: 476
currently lose_sum: 0.6447421908378601
time_elpased: 1.785
#iterations: 477
currently lose_sum: 0.6996834874153137
time_elpased: 1.772
#iterations: 478
currently lose_sum: 0.6738711595535278
time_elpased: 1.782
#iterations: 479
currently lose_sum: 0.6793988943099976
time_elpased: 1.767
start validation test
0.536607142857
0.536941580756
0.556049822064
0.546328671329
0.536537455835
38.565
#iterations: 480
currently lose_sum: 0.6904476881027222
time_elpased: 2.022
#iterations: 481
currently lose_sum: 0.6580206155776978
time_elpased: 1.764
#iterations: 482
currently lose_sum: 0.715141773223877
time_elpased: 1.774
#iterations: 483
currently lose_sum: 0.6699038743972778
time_elpased: 1.789
#iterations: 484
currently lose_sum: 0.6552098393440247
time_elpased: 1.815
#iterations: 485
currently lose_sum: 0.659288227558136
time_elpased: 1.792
#iterations: 486
currently lose_sum: 0.6950348019599915
time_elpased: 1.809
#iterations: 487
currently lose_sum: 0.6371100544929504
time_elpased: 1.87
#iterations: 488
currently lose_sum: 0.7211066484451294
time_elpased: 1.789
#iterations: 489
currently lose_sum: 0.6583451628684998
time_elpased: 1.765
#iterations: 490
currently lose_sum: 0.6952353715896606
time_elpased: 1.786
#iterations: 491
currently lose_sum: 0.735611617565155
time_elpased: 1.776
#iterations: 492
currently lose_sum: 0.7125507593154907
time_elpased: 1.918
#iterations: 493
currently lose_sum: 0.7076019048690796
time_elpased: 1.783
#iterations: 494
currently lose_sum: 0.6994540095329285
time_elpased: 1.79
#iterations: 495
currently lose_sum: 0.6835474967956543
time_elpased: 1.78
#iterations: 496
currently lose_sum: 0.7439191341400146
time_elpased: 1.788
#iterations: 497
currently lose_sum: 0.6580432653427124
time_elpased: 1.827
#iterations: 498
currently lose_sum: 0.7105225324630737
time_elpased: 1.789
#iterations: 499
currently lose_sum: 0.7111863493919373
time_elpased: 1.791
start validation test
0.533482142857
0.534740545295
0.540925266904
0.53781512605
0.533455464993
38.607
#iterations: 500
currently lose_sum: 0.6969164609909058
time_elpased: 1.761
#iterations: 501
currently lose_sum: 0.6739382743835449
time_elpased: 1.78
#iterations: 502
currently lose_sum: 0.7060231566429138
time_elpased: 1.792
#iterations: 503
currently lose_sum: 0.6775922775268555
time_elpased: 1.774
#iterations: 504
currently lose_sum: 0.6879776120185852
time_elpased: 1.808
#iterations: 505
currently lose_sum: 0.7191202044487
time_elpased: 1.775
#iterations: 506
currently lose_sum: 0.6261698603630066
time_elpased: 1.894
#iterations: 507
currently lose_sum: 0.6712533831596375
time_elpased: 1.77
#iterations: 508
currently lose_sum: 0.69355309009552
time_elpased: 1.775
#iterations: 509
currently lose_sum: 0.7151130437850952
time_elpased: 1.77
#iterations: 510
currently lose_sum: 0.6790771484375
time_elpased: 1.781
#iterations: 511
currently lose_sum: 0.7062629461288452
time_elpased: 1.771
#iterations: 512
currently lose_sum: 0.6774913668632507
time_elpased: 1.782
#iterations: 513
currently lose_sum: 0.6797987818717957
time_elpased: 1.867
#iterations: 514
currently lose_sum: 0.6777756214141846
time_elpased: 1.792
#iterations: 515
currently lose_sum: 0.6671538352966309
time_elpased: 1.87
#iterations: 516
currently lose_sum: 0.6352502703666687
time_elpased: 1.798
#iterations: 517
currently lose_sum: 0.6773686408996582
time_elpased: 1.789
#iterations: 518
currently lose_sum: 0.6419703364372253
time_elpased: 1.825
#iterations: 519
currently lose_sum: 0.7087743878364563
time_elpased: 1.772
start validation test
0.534821428571
0.535467128028
0.550711743772
0.54298245614
0.534764474037
38.564
#iterations: 520
currently lose_sum: 0.695864200592041
time_elpased: 2.094
#iterations: 521
currently lose_sum: 0.6807030439376831
time_elpased: 1.846
#iterations: 522
currently lose_sum: 0.6894799470901489
time_elpased: 1.781
#iterations: 523
currently lose_sum: 0.6941707134246826
time_elpased: 1.841
#iterations: 524
currently lose_sum: 0.6780088543891907
time_elpased: 1.88
#iterations: 525
currently lose_sum: 0.6843215823173523
time_elpased: 1.77
#iterations: 526
currently lose_sum: 0.651141345500946
time_elpased: 1.877
#iterations: 527
currently lose_sum: 0.6722427606582642
time_elpased: 1.769
#iterations: 528
currently lose_sum: 0.6797950863838196
time_elpased: 1.793
#iterations: 529
currently lose_sum: 0.6786330938339233
time_elpased: 1.768
#iterations: 530
currently lose_sum: 0.6615760922431946
time_elpased: 2.229
#iterations: 531
currently lose_sum: 0.7065310478210449
time_elpased: 1.842
#iterations: 532
currently lose_sum: 0.6979798078536987
time_elpased: 1.781
#iterations: 533
currently lose_sum: 0.7157825827598572
time_elpased: 1.881
#iterations: 534
currently lose_sum: 0.6763386130332947
time_elpased: 1.787
#iterations: 535
currently lose_sum: 0.6319705247879028
time_elpased: 1.798
#iterations: 536
currently lose_sum: 0.6724379062652588
time_elpased: 1.775
#iterations: 537
currently lose_sum: 0.7265191078186035
time_elpased: 1.824
#iterations: 538
currently lose_sum: 0.6805840730667114
time_elpased: 1.963
#iterations: 539
currently lose_sum: 0.6933487057685852
time_elpased: 1.771
start validation test
0.541517857143
0.543497757848
0.539145907473
0.541313086199
0.541526358755
38.552
#iterations: 540
currently lose_sum: 0.682176411151886
time_elpased: 1.775
#iterations: 541
currently lose_sum: 0.6920368075370789
time_elpased: 1.951
#iterations: 542
currently lose_sum: 0.669913649559021
time_elpased: 1.845
#iterations: 543
currently lose_sum: 0.6467055082321167
time_elpased: 1.79
#iterations: 544
currently lose_sum: 0.6889249682426453
time_elpased: 1.808
#iterations: 545
currently lose_sum: 0.6739276647567749
time_elpased: 1.913
#iterations: 546
currently lose_sum: 0.6942602396011353
time_elpased: 2.015
#iterations: 547
currently lose_sum: 0.6455553770065308
time_elpased: 2.054
#iterations: 548
currently lose_sum: 0.6834745407104492
time_elpased: 1.778
#iterations: 549
currently lose_sum: 0.6914981603622437
time_elpased: 1.777
#iterations: 550
currently lose_sum: 0.6628280878067017
time_elpased: 1.762
#iterations: 551
currently lose_sum: 0.7172476053237915
time_elpased: 1.756
#iterations: 552
currently lose_sum: 0.668855607509613
time_elpased: 1.776
#iterations: 553
currently lose_sum: 0.6563481092453003
time_elpased: 1.77
#iterations: 554
currently lose_sum: 0.6339539885520935
time_elpased: 1.768
#iterations: 555
currently lose_sum: 0.6984080672264099
time_elpased: 1.889
#iterations: 556
currently lose_sum: 0.6671745181083679
time_elpased: 1.782
#iterations: 557
currently lose_sum: 0.7656667828559875
time_elpased: 1.782
#iterations: 558
currently lose_sum: 0.6486630439758301
time_elpased: 1.943
#iterations: 559
currently lose_sum: 0.7129567861557007
time_elpased: 1.782
start validation test
0.533482142857
0.534377719756
0.546263345196
0.54025516938
0.533436332096
38.578
#iterations: 560
currently lose_sum: 0.6819482445716858
time_elpased: 1.781
#iterations: 561
currently lose_sum: 0.6924123764038086
time_elpased: 1.781
#iterations: 562
currently lose_sum: 0.6788984537124634
time_elpased: 1.78
#iterations: 563
currently lose_sum: 0.6840294003486633
time_elpased: 1.794
#iterations: 564
currently lose_sum: 0.673092246055603
time_elpased: 1.798
#iterations: 565
currently lose_sum: 0.6910523176193237
time_elpased: 1.842
#iterations: 566
currently lose_sum: 0.6645981669425964
time_elpased: 1.781
#iterations: 567
currently lose_sum: 0.7065936923027039
time_elpased: 1.842
#iterations: 568
currently lose_sum: 0.7052404284477234
time_elpased: 1.772
#iterations: 569
currently lose_sum: 0.667690098285675
time_elpased: 1.963
#iterations: 570
currently lose_sum: 0.6536948680877686
time_elpased: 2.087
#iterations: 571
currently lose_sum: 0.6812216639518738
time_elpased: 1.924
#iterations: 572
currently lose_sum: 0.6814976334571838
time_elpased: 1.879
#iterations: 573
currently lose_sum: 0.6796314120292664
time_elpased: 1.795
#iterations: 574
currently lose_sum: 0.6756228804588318
time_elpased: 1.796
#iterations: 575
currently lose_sum: 0.7038384675979614
time_elpased: 2.086
#iterations: 576
currently lose_sum: 0.6815134286880493
time_elpased: 1.866
#iterations: 577
currently lose_sum: 0.6806491017341614
time_elpased: 2.143
#iterations: 578
currently lose_sum: 0.6652711033821106
time_elpased: 2.234
#iterations: 579
currently lose_sum: 0.7000992298126221
time_elpased: 1.827
start validation test
0.533482142857
0.53492484527
0.538256227758
0.536585365854
0.533465031442
38.568
#iterations: 580
currently lose_sum: 0.6845235824584961
time_elpased: 1.814
#iterations: 581
currently lose_sum: 0.686324954032898
time_elpased: 1.787
#iterations: 582
currently lose_sum: 0.7039586305618286
time_elpased: 1.933
#iterations: 583
currently lose_sum: 0.6824843883514404
time_elpased: 1.817
#iterations: 584
currently lose_sum: 0.6728214025497437
time_elpased: 1.832
#iterations: 585
currently lose_sum: 0.7098217606544495
time_elpased: 1.808
#iterations: 586
currently lose_sum: 0.6615889668464661
time_elpased: 1.791
#iterations: 587
currently lose_sum: 0.6687261462211609
time_elpased: 1.796
#iterations: 588
currently lose_sum: 0.7092286348342896
time_elpased: 1.8
#iterations: 589
currently lose_sum: 0.728766143321991
time_elpased: 1.967
#iterations: 590
currently lose_sum: 0.6467122435569763
time_elpased: 2.171
#iterations: 591
currently lose_sum: 0.6932066082954407
time_elpased: 1.971
#iterations: 592
currently lose_sum: 0.737525463104248
time_elpased: 1.815
#iterations: 593
currently lose_sum: 0.6913277506828308
time_elpased: 1.855
#iterations: 594
currently lose_sum: 0.7127857208251953
time_elpased: 1.808
#iterations: 595
currently lose_sum: 0.6694461703300476
time_elpased: 1.805
#iterations: 596
currently lose_sum: 0.695188045501709
time_elpased: 1.856
#iterations: 597
currently lose_sum: 0.6935855746269226
time_elpased: 1.814
#iterations: 598
currently lose_sum: 0.6810404062271118
time_elpased: 1.791
#iterations: 599
currently lose_sum: 0.677390456199646
time_elpased: 1.826
start validation test
0.533482142857
0.534022394488
0.551601423488
0.542669584245
0.533417199199
38.570
acc: 0.546
pre: 0.548
rec: 0.537
F1: 0.543
auc: 0.546
