start to construct computing graph
graph construct over
3373
epochs start
#iterations: 0
currently lose_sum: 0.6945081949234009
time_elpased: 4.37
#iterations: 1
currently lose_sum: 0.6896794438362122
time_elpased: 4.346
#iterations: 2
currently lose_sum: 0.6985006928443909
time_elpased: 4.327
#iterations: 3
currently lose_sum: 0.7094875574111938
time_elpased: 4.348
#iterations: 4
currently lose_sum: 0.6979081034660339
time_elpased: 4.819
#iterations: 5
currently lose_sum: 0.6933478116989136
time_elpased: 4.28
#iterations: 6
currently lose_sum: 0.7103389501571655
time_elpased: 4.45
#iterations: 7
currently lose_sum: 0.6649347543716431
time_elpased: 4.278
#iterations: 8
currently lose_sum: 0.6958417892456055
time_elpased: 5.427
#iterations: 9
currently lose_sum: 0.7108868360519409
time_elpased: 4.284
#iterations: 10
currently lose_sum: 0.7067798972129822
time_elpased: 4.272
#iterations: 11
currently lose_sum: 0.6866634488105774
time_elpased: 4.32
#iterations: 12
currently lose_sum: 0.7244755029678345
time_elpased: 4.284
#iterations: 13
currently lose_sum: 0.6988784074783325
time_elpased: 4.263
#iterations: 14
currently lose_sum: 0.7083393931388855
time_elpased: 4.302
#iterations: 15
currently lose_sum: 0.6825595498085022
time_elpased: 4.259
#iterations: 16
currently lose_sum: 0.6865605115890503
time_elpased: 4.302
#iterations: 17
currently lose_sum: 0.6929386854171753
time_elpased: 4.261
#iterations: 18
currently lose_sum: 0.6885401606559753
time_elpased: 4.291
#iterations: 19
currently lose_sum: 0.6891968846321106
time_elpased: 4.25
start validation test
0.517857142857
0.520637898687
0.493772241993
0.506849315068
0.517943468667
38.701
#iterations: 20
currently lose_sum: 0.7056225538253784
time_elpased: 3.572
#iterations: 21
currently lose_sum: 0.66094970703125
time_elpased: 3.017
#iterations: 22
currently lose_sum: 0.716933012008667
time_elpased: 2.818
#iterations: 23
currently lose_sum: 0.69981449842453
time_elpased: 2.825
#iterations: 24
currently lose_sum: 0.6842225790023804
time_elpased: 2.835
#iterations: 25
currently lose_sum: 0.7013639211654663
time_elpased: 2.83
#iterations: 26
currently lose_sum: 0.669009804725647
time_elpased: 2.844
#iterations: 27
currently lose_sum: 0.6663804650306702
time_elpased: 3.134
#iterations: 28
currently lose_sum: 0.6861165165901184
time_elpased: 2.828
#iterations: 29
currently lose_sum: 0.6657264828681946
time_elpased: 2.866
#iterations: 30
currently lose_sum: 0.6993435621261597
time_elpased: 2.916
#iterations: 31
currently lose_sum: 0.6767812967300415
time_elpased: 2.98
#iterations: 32
currently lose_sum: 0.6633273959159851
time_elpased: 2.875
#iterations: 33
currently lose_sum: 0.6739133596420288
time_elpased: 3.519
#iterations: 34
currently lose_sum: 0.6611065864562988
time_elpased: 2.884
#iterations: 35
currently lose_sum: 0.6805378198623657
time_elpased: 2.993
#iterations: 36
currently lose_sum: 0.6829510927200317
time_elpased: 2.898
#iterations: 37
currently lose_sum: 0.700244665145874
time_elpased: 2.846
#iterations: 38
currently lose_sum: 0.6491027474403381
time_elpased: 2.823
#iterations: 39
currently lose_sum: 0.6745826601982117
time_elpased: 2.808
start validation test
0.529910714286
0.530629853322
0.547153024911
0.53876478318
0.529848913889
38.687
#iterations: 40
currently lose_sum: 0.658056914806366
time_elpased: 2.822
#iterations: 41
currently lose_sum: 0.7206792831420898
time_elpased: 2.834
#iterations: 42
currently lose_sum: 0.7130603194236755
time_elpased: 3.193
#iterations: 43
currently lose_sum: 0.7041851282119751
time_elpased: 2.993
#iterations: 44
currently lose_sum: 0.7023236155509949
time_elpased: 3.11
#iterations: 45
currently lose_sum: 0.7035518288612366
time_elpased: 2.817
#iterations: 46
currently lose_sum: 0.6744893193244934
time_elpased: 2.882
#iterations: 47
currently lose_sum: 0.6914800405502319
time_elpased: 2.835
#iterations: 48
currently lose_sum: 0.6244717836380005
time_elpased: 2.821
#iterations: 49
currently lose_sum: 0.674218475818634
time_elpased: 2.846
#iterations: 50
currently lose_sum: 0.6636154055595398
time_elpased: 3.029
#iterations: 51
currently lose_sum: 0.6921941637992859
time_elpased: 2.84
#iterations: 52
currently lose_sum: 0.6750262975692749
time_elpased: 3.152
#iterations: 53
currently lose_sum: 0.670731246471405
time_elpased: 2.89
#iterations: 54
currently lose_sum: 0.6926126480102539
time_elpased: 2.824
#iterations: 55
currently lose_sum: 0.6973260641098022
time_elpased: 2.932
#iterations: 56
currently lose_sum: 0.7417984008789062
time_elpased: 2.993
#iterations: 57
currently lose_sum: 0.6763640642166138
time_elpased: 2.853
#iterations: 58
currently lose_sum: 0.7122538685798645
time_elpased: 3.162
#iterations: 59
currently lose_sum: 0.6479965448379517
time_elpased: 2.852
start validation test
0.534821428571
0.53338762215
0.582740213523
0.556972789116
0.534649676654
38.557
#iterations: 60
currently lose_sum: 0.6972842812538147
time_elpased: 3.017
#iterations: 61
currently lose_sum: 0.6822696328163147
time_elpased: 2.874
#iterations: 62
currently lose_sum: 0.6591202616691589
time_elpased: 2.829
#iterations: 63
currently lose_sum: 0.7233201265335083
time_elpased: 2.846
#iterations: 64
currently lose_sum: 0.6523138880729675
time_elpased: 3.092
#iterations: 65
currently lose_sum: 0.7021000385284424
time_elpased: 2.853
#iterations: 66
currently lose_sum: 0.7085498571395874
time_elpased: 2.819
#iterations: 67
currently lose_sum: 0.6784079670906067
time_elpased: 2.817
#iterations: 68
currently lose_sum: 0.7271970510482788
time_elpased: 2.817
#iterations: 69
currently lose_sum: 0.6877841949462891
time_elpased: 2.84
#iterations: 70
currently lose_sum: 0.6482083201408386
time_elpased: 2.869
#iterations: 71
currently lose_sum: 0.6860634684562683
time_elpased: 3.18
#iterations: 72
currently lose_sum: 0.6461842060089111
time_elpased: 3.188
#iterations: 73
currently lose_sum: 0.6992080211639404
time_elpased: 2.836
#iterations: 74
currently lose_sum: 0.6891635060310364
time_elpased: 3.076
#iterations: 75
currently lose_sum: 0.6808966398239136
time_elpased: 2.909
#iterations: 76
currently lose_sum: 0.6863778233528137
time_elpased: 3.147
#iterations: 77
currently lose_sum: 0.6758800745010376
time_elpased: 2.844
#iterations: 78
currently lose_sum: 0.6729452013969421
time_elpased: 2.832
#iterations: 79
currently lose_sum: 0.7074178457260132
time_elpased: 2.82
start validation test
0.535714285714
0.538391224863
0.524021352313
0.531109107304
0.53575619587
38.572
#iterations: 80
currently lose_sum: 0.7073032259941101
time_elpased: 2.822
#iterations: 81
currently lose_sum: 0.6959456205368042
time_elpased: 2.82
#iterations: 82
currently lose_sum: 0.6562180519104004
time_elpased: 2.813
#iterations: 83
currently lose_sum: 0.7449706792831421
time_elpased: 2.95
#iterations: 84
currently lose_sum: 0.6749272346496582
time_elpased: 2.822
#iterations: 85
currently lose_sum: 0.6512823104858398
time_elpased: 2.823
#iterations: 86
currently lose_sum: 0.6589139103889465
time_elpased: 2.833
#iterations: 87
currently lose_sum: 0.6662598252296448
time_elpased: 2.878
#iterations: 88
currently lose_sum: 0.6968227624893188
time_elpased: 2.834
#iterations: 89
currently lose_sum: 0.6641209721565247
time_elpased: 2.822
#iterations: 90
currently lose_sum: 0.703792929649353
time_elpased: 2.844
#iterations: 91
currently lose_sum: 0.7142531275749207
time_elpased: 3.225
#iterations: 92
currently lose_sum: 0.6642131805419922
time_elpased: 2.977
#iterations: 93
currently lose_sum: 0.6760335564613342
time_elpased: 2.829
#iterations: 94
currently lose_sum: 0.6668671369552612
time_elpased: 2.849
#iterations: 95
currently lose_sum: 0.6846612095832825
time_elpased: 2.789
#iterations: 96
currently lose_sum: 0.6626979112625122
time_elpased: 2.792
#iterations: 97
currently lose_sum: 0.6642581224441528
time_elpased: 2.886
#iterations: 98
currently lose_sum: 0.6831358671188354
time_elpased: 3.29
#iterations: 99
currently lose_sum: 0.6962801814079285
time_elpased: 2.788
start validation test
0.539285714286
0.544921875
0.496441281139
0.519553072626
0.539439278562
38.486
#iterations: 100
currently lose_sum: 0.705032467842102
time_elpased: 2.799
#iterations: 101
currently lose_sum: 0.6853408217430115
time_elpased: 2.835
#iterations: 102
currently lose_sum: 0.689746081829071
time_elpased: 2.822
#iterations: 103
currently lose_sum: 0.7019109725952148
time_elpased: 2.832
#iterations: 104
currently lose_sum: 0.6697055697441101
time_elpased: 2.823
#iterations: 105
currently lose_sum: 0.6564175486564636
time_elpased: 2.835
#iterations: 106
currently lose_sum: 0.6636589765548706
time_elpased: 2.898
#iterations: 107
currently lose_sum: 0.6863158345222473
time_elpased: 2.802
#iterations: 108
currently lose_sum: 0.6746593713760376
time_elpased: 2.794
#iterations: 109
currently lose_sum: 0.7016943693161011
time_elpased: 2.778
#iterations: 110
currently lose_sum: 0.6842576265335083
time_elpased: 3.102
#iterations: 111
currently lose_sum: 0.6859618425369263
time_elpased: 2.799
#iterations: 112
currently lose_sum: 0.6903612613677979
time_elpased: 2.814
#iterations: 113
currently lose_sum: 0.650098443031311
time_elpased: 2.785
#iterations: 114
currently lose_sum: 0.6976369619369507
time_elpased: 2.935
#iterations: 115
currently lose_sum: 0.6982015371322632
time_elpased: 2.853
#iterations: 116
currently lose_sum: 0.6938570141792297
time_elpased: 2.783
#iterations: 117
currently lose_sum: 0.7148226499557495
time_elpased: 2.799
#iterations: 118
currently lose_sum: 0.7002606987953186
time_elpased: 2.934
#iterations: 119
currently lose_sum: 0.64190673828125
time_elpased: 3.058
start validation test
0.524107142857
0.525985663082
0.522241992883
0.524107142857
0.524113827982
38.552
#iterations: 120
currently lose_sum: 0.683549702167511
time_elpased: 2.984
#iterations: 121
currently lose_sum: 0.6600756645202637
time_elpased: 3.289
#iterations: 122
currently lose_sum: 0.7110016345977783
time_elpased: 2.793
#iterations: 123
currently lose_sum: 0.7000093460083008
time_elpased: 2.783
#iterations: 124
currently lose_sum: 0.7049217820167542
time_elpased: 2.86
#iterations: 125
currently lose_sum: 0.6780920624732971
time_elpased: 2.816
#iterations: 126
currently lose_sum: 0.6569607853889465
time_elpased: 2.832
#iterations: 127
currently lose_sum: 0.7128232717514038
time_elpased: 2.8
#iterations: 128
currently lose_sum: 0.6819861531257629
time_elpased: 2.806
#iterations: 129
currently lose_sum: 0.6848189830780029
time_elpased: 2.873
#iterations: 130
currently lose_sum: 0.7205090522766113
time_elpased: 2.796
#iterations: 131
currently lose_sum: 0.7040082216262817
time_elpased: 2.804
#iterations: 132
currently lose_sum: 0.6892444491386414
time_elpased: 3.081
#iterations: 133
currently lose_sum: 0.6790515184402466
time_elpased: 2.793
#iterations: 134
currently lose_sum: 0.6819173693656921
time_elpased: 2.982
#iterations: 135
currently lose_sum: 0.7014259099960327
time_elpased: 2.808
#iterations: 136
currently lose_sum: 0.6470562219619751
time_elpased: 3.062
#iterations: 137
currently lose_sum: 0.7110797166824341
time_elpased: 3.18
#iterations: 138
currently lose_sum: 0.7005125880241394
time_elpased: 2.813
#iterations: 139
currently lose_sum: 0.6865477561950684
time_elpased: 2.79
start validation test
0.525
0.526978417266
0.521352313167
0.524150268336
0.525013074146
38.599
#iterations: 140
currently lose_sum: 0.6628947854042053
time_elpased: 2.78
#iterations: 141
currently lose_sum: 0.7104061841964722
time_elpased: 2.939
#iterations: 142
currently lose_sum: 0.6593207120895386
time_elpased: 2.807
#iterations: 143
currently lose_sum: 0.6888177394866943
time_elpased: 2.84
#iterations: 144
currently lose_sum: 0.7133334875106812
time_elpased: 3.19
#iterations: 145
currently lose_sum: 0.7173994779586792
time_elpased: 2.778
#iterations: 146
currently lose_sum: 0.7136961221694946
time_elpased: 2.796
#iterations: 147
currently lose_sum: 0.6896885633468628
time_elpased: 2.805
#iterations: 148
currently lose_sum: 0.6863025426864624
time_elpased: 2.788
#iterations: 149
currently lose_sum: 0.6730097532272339
time_elpased: 2.786
#iterations: 150
currently lose_sum: 0.7239996790885925
time_elpased: 2.816
#iterations: 151
currently lose_sum: 0.6981362700462341
time_elpased: 2.837
#iterations: 152
currently lose_sum: 0.6970030665397644
time_elpased: 3.154
#iterations: 153
currently lose_sum: 0.6859920024871826
time_elpased: 2.865
#iterations: 154
currently lose_sum: 0.6815016865730286
time_elpased: 2.827
#iterations: 155
currently lose_sum: 0.6848387718200684
time_elpased: 2.789
#iterations: 156
currently lose_sum: 0.6722477674484253
time_elpased: 2.791
#iterations: 157
currently lose_sum: 0.7094570398330688
time_elpased: 2.909
#iterations: 158
currently lose_sum: 0.6810188889503479
time_elpased: 2.876
#iterations: 159
currently lose_sum: 0.6772252321243286
time_elpased: 2.873
start validation test
0.531696428571
0.535816618911
0.499110320285
0.516812528789
0.531813224658
38.516
#iterations: 160
currently lose_sum: 0.6969512104988098
time_elpased: 2.823
#iterations: 161
currently lose_sum: 0.6973526477813721
time_elpased: 2.786
#iterations: 162
currently lose_sum: 0.6291977763175964
time_elpased: 2.812
#iterations: 163
currently lose_sum: 0.6997811794281006
time_elpased: 2.79
#iterations: 164
currently lose_sum: 0.6957064867019653
time_elpased: 2.929
#iterations: 165
currently lose_sum: 0.700059711933136
time_elpased: 2.79
#iterations: 166
currently lose_sum: 0.6941601037979126
time_elpased: 2.977
#iterations: 167
currently lose_sum: 0.6927398443222046
time_elpased: 2.977
#iterations: 168
currently lose_sum: 0.7015071511268616
time_elpased: 2.863
#iterations: 169
currently lose_sum: 0.6755306124687195
time_elpased: 2.816
#iterations: 170
currently lose_sum: 0.6948474049568176
time_elpased: 2.892
#iterations: 171
currently lose_sum: 0.6712790131568909
time_elpased: 2.816
#iterations: 172
currently lose_sum: 0.7093787789344788
time_elpased: 2.913
#iterations: 173
currently lose_sum: 0.6677900552749634
time_elpased: 2.838
#iterations: 174
currently lose_sum: 0.6892772912979126
time_elpased: 2.814
#iterations: 175
currently lose_sum: 0.6785076856613159
time_elpased: 2.857
#iterations: 176
currently lose_sum: 0.6884480714797974
time_elpased: 3.052
#iterations: 177
currently lose_sum: 0.7219923138618469
time_elpased: 2.854
#iterations: 178
currently lose_sum: 0.6782382726669312
time_elpased: 2.843
#iterations: 179
currently lose_sum: 0.6830447912216187
time_elpased: 3.05
start validation test
0.527678571429
0.534375
0.45640569395
0.492322456814
0.527934029771
38.806
#iterations: 180
currently lose_sum: 0.7029067277908325
time_elpased: 2.827
#iterations: 181
currently lose_sum: 0.6518529653549194
time_elpased: 2.825
#iterations: 182
currently lose_sum: 0.6936354637145996
time_elpased: 2.828
#iterations: 183
currently lose_sum: 0.6523610353469849
time_elpased: 3.554
#iterations: 184
currently lose_sum: 0.690658450126648
time_elpased: 2.842
#iterations: 185
currently lose_sum: 0.6651061773300171
time_elpased: 2.779
#iterations: 186
currently lose_sum: 0.6917555928230286
time_elpased: 2.836
#iterations: 187
currently lose_sum: 0.6340290307998657
time_elpased: 2.809
#iterations: 188
currently lose_sum: 0.658420741558075
time_elpased: 2.796
#iterations: 189
currently lose_sum: 0.7028623819351196
time_elpased: 3.005
#iterations: 190
currently lose_sum: 0.7257165908813477
time_elpased: 2.824
#iterations: 191
currently lose_sum: 0.6947249174118042
time_elpased: 2.812
#iterations: 192
currently lose_sum: 0.7098267674446106
time_elpased: 2.8
#iterations: 193
currently lose_sum: 0.6855446100234985
time_elpased: 2.794
#iterations: 194
currently lose_sum: 0.7184693217277527
time_elpased: 2.808
#iterations: 195
currently lose_sum: 0.6743041276931763
time_elpased: 2.783
#iterations: 196
currently lose_sum: 0.7096897959709167
time_elpased: 2.867
#iterations: 197
currently lose_sum: 0.6488737463951111
time_elpased: 2.782
#iterations: 198
currently lose_sum: 0.6685003042221069
time_elpased: 2.837
#iterations: 199
currently lose_sum: 0.6721032857894897
time_elpased: 2.808
start validation test
0.533482142857
0.538687561214
0.489323843416
0.512820512821
0.533640416332
38.572
#iterations: 200
currently lose_sum: 0.7039347887039185
time_elpased: 2.839
#iterations: 201
currently lose_sum: 0.6656046509742737
time_elpased: 2.99
#iterations: 202
currently lose_sum: 0.6950958967208862
time_elpased: 2.932
#iterations: 203
currently lose_sum: 0.703271746635437
time_elpased: 2.848
#iterations: 204
currently lose_sum: 0.6565279960632324
time_elpased: 2.805
#iterations: 205
currently lose_sum: 0.6606060862541199
time_elpased: 2.804
#iterations: 206
currently lose_sum: 0.7015494108200073
time_elpased: 2.851
#iterations: 207
currently lose_sum: 0.6825988292694092
time_elpased: 2.806
#iterations: 208
currently lose_sum: 0.6929892301559448
time_elpased: 2.913
#iterations: 209
currently lose_sum: 0.6663528680801392
time_elpased: 2.784
#iterations: 210
currently lose_sum: 0.678615927696228
time_elpased: 3.103
#iterations: 211
currently lose_sum: 0.6511795520782471
time_elpased: 3.076
#iterations: 212
currently lose_sum: 0.6730203032493591
time_elpased: 2.815
#iterations: 213
currently lose_sum: 0.6541613340377808
time_elpased: 2.823
#iterations: 214
currently lose_sum: 0.6730064153671265
time_elpased: 2.831
#iterations: 215
currently lose_sum: 0.6939002275466919
time_elpased: 2.863
#iterations: 216
currently lose_sum: 0.7050367593765259
time_elpased: 2.834
#iterations: 217
currently lose_sum: 0.6724795699119568
time_elpased: 2.789
#iterations: 218
currently lose_sum: 0.7113702297210693
time_elpased: 2.808
#iterations: 219
currently lose_sum: 0.6852892637252808
time_elpased: 2.829
start validation test
0.528125
0.529619805482
0.532918149466
0.531263858093
0.528107820253
38.631
#iterations: 220
currently lose_sum: 0.6966970562934875
time_elpased: 2.797
#iterations: 221
currently lose_sum: 0.6742464303970337
time_elpased: 2.934
#iterations: 222
currently lose_sum: 0.655595600605011
time_elpased: 3.031
#iterations: 223
currently lose_sum: 0.7014518976211548
time_elpased: 2.785
#iterations: 224
currently lose_sum: 0.694492757320404
time_elpased: 3.007
#iterations: 225
currently lose_sum: 0.6983465552330017
time_elpased: 2.807
#iterations: 226
currently lose_sum: 0.6562665700912476
time_elpased: 2.82
#iterations: 227
currently lose_sum: 0.6772211194038391
time_elpased: 2.795
#iterations: 228
currently lose_sum: 0.6716386675834656
time_elpased: 2.794
#iterations: 229
currently lose_sum: 0.6590853333473206
time_elpased: 2.808
#iterations: 230
currently lose_sum: 0.6810528635978699
time_elpased: 2.794
#iterations: 231
currently lose_sum: 0.6732866764068604
time_elpased: 2.81
#iterations: 232
currently lose_sum: 0.6884828209877014
time_elpased: 2.844
#iterations: 233
currently lose_sum: 0.6939197778701782
time_elpased: 2.847
#iterations: 234
currently lose_sum: 0.6625640988349915
time_elpased: 2.897
#iterations: 235
currently lose_sum: 0.7176750898361206
time_elpased: 2.821
#iterations: 236
currently lose_sum: 0.6723639369010925
time_elpased: 2.826
#iterations: 237
currently lose_sum: 0.7028186917304993
time_elpased: 3.054
#iterations: 238
currently lose_sum: 0.6804336309432983
time_elpased: 2.831
#iterations: 239
currently lose_sum: 0.6778955459594727
time_elpased: 2.865
start validation test
0.527232142857
0.529734675206
0.51512455516
0.522327469553
0.527275539229
38.620
#iterations: 240
currently lose_sum: 0.6699507832527161
time_elpased: 2.837
#iterations: 241
currently lose_sum: 0.669555127620697
time_elpased: 3.003
#iterations: 242
currently lose_sum: 0.6977664828300476
time_elpased: 2.813
#iterations: 243
currently lose_sum: 0.6796808838844299
time_elpased: 2.816
#iterations: 244
currently lose_sum: 0.6837062835693359
time_elpased: 2.847
#iterations: 245
currently lose_sum: 0.6778830885887146
time_elpased: 2.884
#iterations: 246
currently lose_sum: 0.6790071725845337
time_elpased: 3.057
#iterations: 247
currently lose_sum: 0.689672589302063
time_elpased: 3.079
#iterations: 248
currently lose_sum: 0.701566219329834
time_elpased: 2.94
#iterations: 249
currently lose_sum: 0.7097827792167664
time_elpased: 2.855
#iterations: 250
currently lose_sum: 0.7100064158439636
time_elpased: 2.978
#iterations: 251
currently lose_sum: 0.6767641305923462
time_elpased: 2.812
#iterations: 252
currently lose_sum: 0.6747003197669983
time_elpased: 2.885
#iterations: 253
currently lose_sum: 0.6590754389762878
time_elpased: 2.867
#iterations: 254
currently lose_sum: 0.6928723454475403
time_elpased: 3.248
#iterations: 255
currently lose_sum: 0.6805099844932556
time_elpased: 2.795
#iterations: 256
currently lose_sum: 0.6763277053833008
time_elpased: 2.811
#iterations: 257
currently lose_sum: 0.7172818183898926
time_elpased: 2.8
#iterations: 258
currently lose_sum: 0.6545505523681641
time_elpased: 2.795
#iterations: 259
currently lose_sum: 0.6325582265853882
time_elpased: 2.799
start validation test
0.5375
0.539215686275
0.538256227758
0.538735529831
0.537497289506
38.597
#iterations: 260
currently lose_sum: 0.6936842799186707
time_elpased: 3.064
#iterations: 261
currently lose_sum: 0.6695473194122314
time_elpased: 2.784
#iterations: 262
currently lose_sum: 0.698509156703949
time_elpased: 3.018
#iterations: 263
currently lose_sum: 0.6862615346908569
time_elpased: 2.867
#iterations: 264
currently lose_sum: 0.6896247267723083
time_elpased: 2.773
#iterations: 265
currently lose_sum: 0.691006600856781
time_elpased: 2.785
#iterations: 266
currently lose_sum: 0.6770345568656921
time_elpased: 2.905
#iterations: 267
currently lose_sum: 0.6824194192886353
time_elpased: 2.803
#iterations: 268
currently lose_sum: 0.6938047409057617
time_elpased: 2.808
#iterations: 269
currently lose_sum: 0.6584222316741943
time_elpased: 2.806
#iterations: 270
currently lose_sum: 0.7147324681282043
time_elpased: 3.071
#iterations: 271
currently lose_sum: 0.6881312131881714
time_elpased: 2.805
#iterations: 272
currently lose_sum: 0.7123188972473145
time_elpased: 2.81
#iterations: 273
currently lose_sum: 0.6606024503707886
time_elpased: 2.807
#iterations: 274
currently lose_sum: 0.6878993511199951
time_elpased: 3.224
#iterations: 275
currently lose_sum: 0.6455276608467102
time_elpased: 2.834
#iterations: 276
currently lose_sum: 0.6919527649879456
time_elpased: 2.815
#iterations: 277
currently lose_sum: 0.7038308382034302
time_elpased: 2.84
#iterations: 278
currently lose_sum: 0.6600390672683716
time_elpased: 2.917
#iterations: 279
currently lose_sum: 0.698386013507843
time_elpased: 3.538
start validation test
0.531696428571
0.532865907099
0.540925266904
0.536865342163
0.531663350298
38.603
#iterations: 280
currently lose_sum: 0.6650794744491577
time_elpased: 2.822
#iterations: 281
currently lose_sum: 0.7025959491729736
time_elpased: 2.823
#iterations: 282
currently lose_sum: 0.6769310235977173
time_elpased: 2.816
#iterations: 283
currently lose_sum: 0.6732190847396851
time_elpased: 3.431
#iterations: 284
currently lose_sum: 0.663245677947998
time_elpased: 2.834
#iterations: 285
currently lose_sum: 0.6721922159194946
time_elpased: 3.038
#iterations: 286
currently lose_sum: 0.7203499674797058
time_elpased: 2.825
#iterations: 287
currently lose_sum: 0.6695506572723389
time_elpased: 2.794
#iterations: 288
currently lose_sum: 0.6629517674446106
time_elpased: 2.801
#iterations: 289
currently lose_sum: 0.7026601433753967
time_elpased: 2.806
#iterations: 290
currently lose_sum: 0.6890199780464172
time_elpased: 2.804
#iterations: 291
currently lose_sum: 0.6549950838088989
time_elpased: 2.975
#iterations: 292
currently lose_sum: 0.6808530688285828
time_elpased: 3.174
#iterations: 293
currently lose_sum: 0.6893280744552612
time_elpased: 2.829
#iterations: 294
currently lose_sum: 0.7077751159667969
time_elpased: 2.815
#iterations: 295
currently lose_sum: 0.6784813404083252
time_elpased: 3.408
#iterations: 296
currently lose_sum: 0.6901475191116333
time_elpased: 3.225
#iterations: 297
currently lose_sum: 0.7023882865905762
time_elpased: 2.808
#iterations: 298
currently lose_sum: 0.7088552713394165
time_elpased: 2.817
#iterations: 299
currently lose_sum: 0.7033027410507202
time_elpased: 2.805
start validation test
0.532589285714
0.535483870968
0.516903914591
0.526029877773
0.532645505682
38.571
#iterations: 300
currently lose_sum: 0.6839492321014404
time_elpased: 2.797
#iterations: 301
currently lose_sum: 0.7118388414382935
time_elpased: 2.799
#iterations: 302
currently lose_sum: 0.6878968477249146
time_elpased: 3.018
#iterations: 303
currently lose_sum: 0.6554773449897766
time_elpased: 2.795
#iterations: 304
currently lose_sum: 0.6585677862167358
time_elpased: 2.798
#iterations: 305
currently lose_sum: 0.6772664785385132
time_elpased: 2.807
#iterations: 306
currently lose_sum: 0.659023106098175
time_elpased: 2.868
#iterations: 307
currently lose_sum: 0.7017883658409119
time_elpased: 2.791
#iterations: 308
currently lose_sum: 0.6361204385757446
time_elpased: 2.786
#iterations: 309
currently lose_sum: 0.6972103118896484
time_elpased: 2.804
#iterations: 310
currently lose_sum: 0.6616967916488647
time_elpased: 3.237
#iterations: 311
currently lose_sum: 0.703582763671875
time_elpased: 2.789
#iterations: 312
currently lose_sum: 0.663743257522583
time_elpased: 3.147
#iterations: 313
currently lose_sum: 0.6646535992622375
time_elpased: 2.819
#iterations: 314
currently lose_sum: 0.6990167498588562
time_elpased: 2.809
#iterations: 315
currently lose_sum: 0.6443570852279663
time_elpased: 2.945
#iterations: 316
currently lose_sum: 0.6626020073890686
time_elpased: 2.967
#iterations: 317
currently lose_sum: 0.6955724954605103
time_elpased: 3.023
#iterations: 318
currently lose_sum: 0.6639735102653503
time_elpased: 2.788
#iterations: 319
currently lose_sum: 0.644731342792511
time_elpased: 2.797
start validation test
0.527678571429
0.528846153846
0.538256227758
0.533509700176
0.527640658682
38.626
#iterations: 320
currently lose_sum: 0.6568807363510132
time_elpased: 2.79
#iterations: 321
currently lose_sum: 0.6572532653808594
time_elpased: 3.052
#iterations: 322
currently lose_sum: 0.6604222059249878
time_elpased: 2.77
#iterations: 323
currently lose_sum: 0.7068411707878113
time_elpased: 2.811
#iterations: 324
currently lose_sum: 0.7141072750091553
time_elpased: 2.9
#iterations: 325
currently lose_sum: 0.708703875541687
time_elpased: 2.845
#iterations: 326
currently lose_sum: 0.6872163414955139
time_elpased: 2.999
#iterations: 327
currently lose_sum: 0.6602020859718323
time_elpased: 2.837
#iterations: 328
currently lose_sum: 0.6756470799446106
time_elpased: 2.951
#iterations: 329
currently lose_sum: 0.7090784311294556
time_elpased: 3.124
#iterations: 330
currently lose_sum: 0.6904314160346985
time_elpased: 2.788
#iterations: 331
currently lose_sum: 0.6334365010261536
time_elpased: 2.838
#iterations: 332
currently lose_sum: 0.6413679122924805
time_elpased: 2.904
#iterations: 333
currently lose_sum: 0.667809784412384
time_elpased: 2.82
#iterations: 334
currently lose_sum: 0.6973943710327148
time_elpased: 2.802
#iterations: 335
currently lose_sum: 0.7054101824760437
time_elpased: 2.85
#iterations: 336
currently lose_sum: 0.6779836416244507
time_elpased: 2.812
#iterations: 337
currently lose_sum: 0.6706449389457703
time_elpased: 2.771
#iterations: 338
currently lose_sum: 0.6991456747055054
time_elpased: 2.78
#iterations: 339
currently lose_sum: 0.6387635469436646
time_elpased: 3.054
start validation test
0.523214285714
0.525408348457
0.51512455516
0.520215633423
0.523243281164
38.643
#iterations: 340
currently lose_sum: 0.6896215081214905
time_elpased: 2.782
#iterations: 341
currently lose_sum: 0.698965847492218
time_elpased: 2.929
#iterations: 342
currently lose_sum: 0.7269797921180725
time_elpased: 2.815
#iterations: 343
currently lose_sum: 0.6727843880653381
time_elpased: 2.824
#iterations: 344
currently lose_sum: 0.7256403565406799
time_elpased: 2.799
#iterations: 345
currently lose_sum: 0.67702716588974
time_elpased: 2.79
#iterations: 346
currently lose_sum: 0.6656632423400879
time_elpased: 3.008
#iterations: 347
currently lose_sum: 0.653759777545929
time_elpased: 2.992
#iterations: 348
currently lose_sum: 0.682881236076355
time_elpased: 2.844
#iterations: 349
currently lose_sum: 0.6469701528549194
time_elpased: 2.849
#iterations: 350
currently lose_sum: 0.6639230251312256
time_elpased: 2.809
#iterations: 351
currently lose_sum: 0.6678867936134338
time_elpased: 2.8
#iterations: 352
currently lose_sum: 0.6725759506225586
time_elpased: 2.952
#iterations: 353
currently lose_sum: 0.7060298323631287
time_elpased: 2.89
#iterations: 354
currently lose_sum: 0.6995223164558411
time_elpased: 2.917
#iterations: 355
currently lose_sum: 0.6756789088249207
time_elpased: 2.84
#iterations: 356
currently lose_sum: 0.6735826730728149
time_elpased: 3.105
#iterations: 357
currently lose_sum: 0.6686180233955383
time_elpased: 2.969
#iterations: 358
currently lose_sum: 0.6848418116569519
time_elpased: 2.875
#iterations: 359
currently lose_sum: 0.6704614162445068
time_elpased: 2.977
start validation test
0.533035714286
0.534090909091
0.54359430605
0.538800705467
0.532997869871
38.628
#iterations: 360
currently lose_sum: 0.6828837990760803
time_elpased: 3.087
#iterations: 361
currently lose_sum: 0.6704332232475281
time_elpased: 2.853
#iterations: 362
currently lose_sum: 0.7169445753097534
time_elpased: 2.828
#iterations: 363
currently lose_sum: 0.6983140110969543
time_elpased: 2.828
#iterations: 364
currently lose_sum: 0.7210389971733093
time_elpased: 2.868
#iterations: 365
currently lose_sum: 0.6856964826583862
time_elpased: 2.84
#iterations: 366
currently lose_sum: 0.6827147006988525
time_elpased: 2.815
#iterations: 367
currently lose_sum: 0.6274827122688293
time_elpased: 2.837
#iterations: 368
currently lose_sum: 0.6579170823097229
time_elpased: 2.99
#iterations: 369
currently lose_sum: 0.6749303936958313
time_elpased: 2.81
#iterations: 370
currently lose_sum: 0.6749811172485352
time_elpased: 2.807
#iterations: 371
currently lose_sum: 0.6895684003829956
time_elpased: 2.854
#iterations: 372
currently lose_sum: 0.7110623121261597
time_elpased: 2.808
#iterations: 373
currently lose_sum: 0.6447064876556396
time_elpased: 2.804
#iterations: 374
currently lose_sum: 0.7221257090568542
time_elpased: 2.8
#iterations: 375
currently lose_sum: 0.6589459180831909
time_elpased: 2.87
#iterations: 376
currently lose_sum: 0.6981476545333862
time_elpased: 2.819
#iterations: 377
currently lose_sum: 0.6942951679229736
time_elpased: 2.816
#iterations: 378
currently lose_sum: 0.6901042461395264
time_elpased: 2.806
#iterations: 379
currently lose_sum: 0.6398736238479614
time_elpased: 2.832
start validation test
0.541964285714
0.548707753479
0.491103202847
0.518309859155
0.542146583502
38.615
#iterations: 380
currently lose_sum: 0.6775864362716675
time_elpased: 2.969
#iterations: 381
currently lose_sum: 0.6771465539932251
time_elpased: 2.823
#iterations: 382
currently lose_sum: 0.6606858372688293
time_elpased: 2.899
#iterations: 383
currently lose_sum: 0.6890052556991577
time_elpased: 2.929
#iterations: 384
currently lose_sum: 0.6924324035644531
time_elpased: 2.786
#iterations: 385
currently lose_sum: 0.6883547306060791
time_elpased: 2.812
#iterations: 386
currently lose_sum: 0.6768382787704468
time_elpased: 2.838
#iterations: 387
currently lose_sum: 0.7027222514152527
time_elpased: 3.082
#iterations: 388
currently lose_sum: 0.6651673913002014
time_elpased: 2.896
#iterations: 389
currently lose_sum: 0.667962372303009
time_elpased: 3.017
#iterations: 390
currently lose_sum: 0.6768496036529541
time_elpased: 2.981
#iterations: 391
currently lose_sum: 0.6505857706069946
time_elpased: 2.829
#iterations: 392
currently lose_sum: 0.6850168108940125
time_elpased: 2.849
#iterations: 393
currently lose_sum: 0.6915894746780396
time_elpased: 2.995
#iterations: 394
currently lose_sum: 0.6900039911270142
time_elpased: 2.827
#iterations: 395
currently lose_sum: 0.6924591660499573
time_elpased: 3.014
#iterations: 396
currently lose_sum: 0.6618360280990601
time_elpased: 2.871
#iterations: 397
currently lose_sum: 0.7003817558288574
time_elpased: 2.824
#iterations: 398
currently lose_sum: 0.6976748704910278
time_elpased: 2.956
#iterations: 399
currently lose_sum: 0.6920596361160278
time_elpased: 2.828
start validation test
0.537053571429
0.539013452915
0.534697508897
0.53684680661
0.537062016097
38.625
#iterations: 400
currently lose_sum: 0.6773058176040649
time_elpased: 2.823
#iterations: 401
currently lose_sum: 0.6918509602546692
time_elpased: 2.86
#iterations: 402
currently lose_sum: 0.7190128564834595
time_elpased: 3.003
#iterations: 403
currently lose_sum: 0.7051149606704712
time_elpased: 2.893
#iterations: 404
currently lose_sum: 0.670731246471405
time_elpased: 2.833
#iterations: 405
currently lose_sum: 0.6779323816299438
time_elpased: 3.206
#iterations: 406
currently lose_sum: 0.693938136100769
time_elpased: 2.959
#iterations: 407
currently lose_sum: 0.6672588586807251
time_elpased: 2.806
#iterations: 408
currently lose_sum: 0.6757960915565491
time_elpased: 2.826
#iterations: 409
currently lose_sum: 0.6757096648216248
time_elpased: 2.821
#iterations: 410
currently lose_sum: 0.6890390515327454
time_elpased: 2.786
#iterations: 411
currently lose_sum: 0.6754274368286133
time_elpased: 2.812
#iterations: 412
currently lose_sum: 0.6715850234031677
time_elpased: 2.839
#iterations: 413
currently lose_sum: 0.7025285959243774
time_elpased: 2.791
#iterations: 414
currently lose_sum: 0.6974533796310425
time_elpased: 2.788
#iterations: 415
currently lose_sum: 0.6846143007278442
time_elpased: 2.795
#iterations: 416
currently lose_sum: 0.6874502897262573
time_elpased: 2.818
#iterations: 417
currently lose_sum: 0.7266391515731812
time_elpased: 2.814
#iterations: 418
currently lose_sum: 0.6751059889793396
time_elpased: 2.931
#iterations: 419
currently lose_sum: 0.6994717717170715
time_elpased: 2.81
start validation test
0.53125
0.533944954128
0.517793594306
0.525745257453
0.531298230845
38.628
#iterations: 420
currently lose_sum: 0.6756926774978638
time_elpased: 2.842
#iterations: 421
currently lose_sum: 0.6686068177223206
time_elpased: 2.862
#iterations: 422
currently lose_sum: 0.6339238882064819
time_elpased: 2.857
#iterations: 423
currently lose_sum: 0.7000583410263062
time_elpased: 2.845
#iterations: 424
currently lose_sum: 0.6724732518196106
time_elpased: 2.871
#iterations: 425
currently lose_sum: 0.6577825546264648
time_elpased: 2.951
#iterations: 426
currently lose_sum: 0.655217707157135
time_elpased: 2.853
#iterations: 427
currently lose_sum: 0.6594117879867554
time_elpased: 2.889
#iterations: 428
currently lose_sum: 0.6747857332229614
time_elpased: 3.084
#iterations: 429
currently lose_sum: 0.6364058256149292
time_elpased: 2.84
#iterations: 430
currently lose_sum: 0.7087047100067139
time_elpased: 2.87
#iterations: 431
currently lose_sum: 0.6899160146713257
time_elpased: 3.115
#iterations: 432
currently lose_sum: 0.716519296169281
time_elpased: 3.044
#iterations: 433
currently lose_sum: 0.7131791114807129
time_elpased: 2.8
#iterations: 434
currently lose_sum: 0.7004173994064331
time_elpased: 3.0
#iterations: 435
currently lose_sum: 0.6667037010192871
time_elpased: 3.014
#iterations: 436
currently lose_sum: 0.6526035070419312
time_elpased: 2.858
#iterations: 437
currently lose_sum: 0.7055991888046265
time_elpased: 2.936
#iterations: 438
currently lose_sum: 0.6978174448013306
time_elpased: 2.909
#iterations: 439
currently lose_sum: 0.6960118412971497
time_elpased: 2.827
start validation test
0.535714285714
0.539473684211
0.510676156584
0.524680073126
0.535804028113
38.657
#iterations: 440
currently lose_sum: 0.6926136016845703
time_elpased: 2.878
#iterations: 441
currently lose_sum: 0.6973485350608826
time_elpased: 2.829
#iterations: 442
currently lose_sum: 0.7114565372467041
time_elpased: 2.887
#iterations: 443
currently lose_sum: 0.6742604970932007
time_elpased: 2.793
#iterations: 444
currently lose_sum: 0.6680030226707458
time_elpased: 2.928
#iterations: 445
currently lose_sum: 0.6488726735115051
time_elpased: 3.221
#iterations: 446
currently lose_sum: 0.6858712434768677
time_elpased: 2.916
#iterations: 447
currently lose_sum: 0.6402240991592407
time_elpased: 2.812
#iterations: 448
currently lose_sum: 0.6615445017814636
time_elpased: 2.882
#iterations: 449
currently lose_sum: 0.6888413429260254
time_elpased: 2.873
#iterations: 450
currently lose_sum: 0.6774309873580933
time_elpased: 2.828
#iterations: 451
currently lose_sum: 0.6632984280586243
time_elpased: 2.863
#iterations: 452
currently lose_sum: 0.662579357624054
time_elpased: 2.83
#iterations: 453
currently lose_sum: 0.6904079914093018
time_elpased: 2.878
#iterations: 454
currently lose_sum: 0.6412849426269531
time_elpased: 3.096
#iterations: 455
currently lose_sum: 0.6782064437866211
time_elpased: 2.826
#iterations: 456
currently lose_sum: 0.6771466732025146
time_elpased: 2.963
#iterations: 457
currently lose_sum: 0.6190268397331238
time_elpased: 2.836
#iterations: 458
currently lose_sum: 0.656028151512146
time_elpased: 2.836
#iterations: 459
currently lose_sum: 0.7344114184379578
time_elpased: 2.953
start validation test
0.534821428571
0.536283185841
0.539145907473
0.537710736469
0.534805928647
38.637
#iterations: 460
currently lose_sum: 0.6986312866210938
time_elpased: 2.785
#iterations: 461
currently lose_sum: 0.6914048194885254
time_elpased: 2.851
#iterations: 462
currently lose_sum: 0.6834961175918579
time_elpased: 2.817
#iterations: 463
currently lose_sum: 0.6836073994636536
time_elpased: 3.189
#iterations: 464
currently lose_sum: 0.6940706372261047
time_elpased: 2.886
#iterations: 465
currently lose_sum: 0.681915283203125
time_elpased: 2.83
#iterations: 466
currently lose_sum: 0.707105278968811
time_elpased: 2.821
#iterations: 467
currently lose_sum: 0.6911628842353821
time_elpased: 2.808
#iterations: 468
currently lose_sum: 0.6624249219894409
time_elpased: 2.807
#iterations: 469
currently lose_sum: 0.6802095174789429
time_elpased: 3.086
#iterations: 470
currently lose_sum: 0.7244232892990112
time_elpased: 2.838
#iterations: 471
currently lose_sum: 0.678167998790741
time_elpased: 2.812
#iterations: 472
currently lose_sum: 0.6560018062591553
time_elpased: 2.813
#iterations: 473
currently lose_sum: 0.6655556559562683
time_elpased: 2.798
#iterations: 474
currently lose_sum: 0.6800757646560669
time_elpased: 2.792
#iterations: 475
currently lose_sum: 0.6724028587341309
time_elpased: 3.315
#iterations: 476
currently lose_sum: 0.6716250777244568
time_elpased: 2.819
#iterations: 477
currently lose_sum: 0.6817524433135986
time_elpased: 2.793
#iterations: 478
currently lose_sum: 0.6458341479301453
time_elpased: 2.824
#iterations: 479
currently lose_sum: 0.6718391180038452
time_elpased: 2.802
start validation test
0.536160714286
0.538955087076
0.523131672598
0.530925507901
0.53620741336
38.631
#iterations: 480
currently lose_sum: 0.6803817749023438
time_elpased: 3.133
#iterations: 481
currently lose_sum: 0.6866448521614075
time_elpased: 2.798
#iterations: 482
currently lose_sum: 0.6754332184791565
time_elpased: 2.787
#iterations: 483
currently lose_sum: 0.7103912234306335
time_elpased: 2.859
#iterations: 484
currently lose_sum: 0.689190685749054
time_elpased: 2.883
#iterations: 485
currently lose_sum: 0.7278003692626953
time_elpased: 2.836
#iterations: 486
currently lose_sum: 0.6456800699234009
time_elpased: 2.808
#iterations: 487
currently lose_sum: 0.6526315212249756
time_elpased: 2.865
#iterations: 488
currently lose_sum: 0.7035261392593384
time_elpased: 2.843
#iterations: 489
currently lose_sum: 0.6840568780899048
time_elpased: 2.842
#iterations: 490
currently lose_sum: 0.6844803094863892
time_elpased: 2.79
#iterations: 491
currently lose_sum: 0.6582800149917603
time_elpased: 2.852
#iterations: 492
currently lose_sum: 0.6984171867370605
time_elpased: 2.875
#iterations: 493
currently lose_sum: 0.6606763005256653
time_elpased: 2.836
#iterations: 494
currently lose_sum: 0.7008633613586426
time_elpased: 2.836
#iterations: 495
currently lose_sum: 0.6533799171447754
time_elpased: 2.826
#iterations: 496
currently lose_sum: 0.6860230565071106
time_elpased: 2.836
#iterations: 497
currently lose_sum: 0.676411509513855
time_elpased: 2.903
#iterations: 498
currently lose_sum: 0.6919024586677551
time_elpased: 2.803
#iterations: 499
currently lose_sum: 0.6617773175239563
time_elpased: 2.822
start validation test
0.542410714286
0.544554455446
0.538256227758
0.541387024609
0.542425604918
38.631
#iterations: 500
currently lose_sum: 0.6994514465332031
time_elpased: 2.878
#iterations: 501
currently lose_sum: 0.6792277097702026
time_elpased: 2.796
#iterations: 502
currently lose_sum: 0.6587569713592529
time_elpased: 2.823
#iterations: 503
currently lose_sum: 0.7091244459152222
time_elpased: 2.816
#iterations: 504
currently lose_sum: 0.6762694716453552
time_elpased: 2.845
#iterations: 505
currently lose_sum: 0.6919669508934021
time_elpased: 2.808
#iterations: 506
currently lose_sum: 0.7096826434135437
time_elpased: 3.31
#iterations: 507
currently lose_sum: 0.7016259431838989
time_elpased: 2.8
#iterations: 508
currently lose_sum: 0.6506438851356506
time_elpased: 2.785
#iterations: 509
currently lose_sum: 0.6791776418685913
time_elpased: 2.81
#iterations: 510
currently lose_sum: 0.6669788360595703
time_elpased: 2.806
#iterations: 511
currently lose_sum: 0.6332325339317322
time_elpased: 2.764
#iterations: 512
currently lose_sum: 0.6845741271972656
time_elpased: 2.815
#iterations: 513
currently lose_sum: 0.6752632856369019
time_elpased: 2.782
#iterations: 514
currently lose_sum: 0.6764379739761353
time_elpased: 2.795
#iterations: 515
currently lose_sum: 0.6782339215278625
time_elpased: 2.904
#iterations: 516
currently lose_sum: 0.7029762268066406
time_elpased: 2.815
#iterations: 517
currently lose_sum: 0.6718028783798218
time_elpased: 2.811
#iterations: 518
currently lose_sum: 0.6731066107749939
time_elpased: 2.852
#iterations: 519
currently lose_sum: 0.7150710821151733
time_elpased: 2.791
start validation test
0.537946428571
0.540344514959
0.53024911032
0.535249214189
0.537974017526
38.652
#iterations: 520
currently lose_sum: 0.7298267483711243
time_elpased: 3.268
#iterations: 521
currently lose_sum: 0.6974304914474487
time_elpased: 3.15
#iterations: 522
currently lose_sum: 0.6282409429550171
time_elpased: 2.802
#iterations: 523
currently lose_sum: 0.6652617454528809
time_elpased: 2.837
#iterations: 524
currently lose_sum: 0.635593593120575
time_elpased: 2.947
#iterations: 525
currently lose_sum: 0.6515561938285828
time_elpased: 2.836
#iterations: 526
currently lose_sum: 0.7128596305847168
time_elpased: 3.031
#iterations: 527
currently lose_sum: 0.677417516708374
time_elpased: 2.824
#iterations: 528
currently lose_sum: 0.6750229597091675
time_elpased: 2.808
#iterations: 529
currently lose_sum: 0.6895564198493958
time_elpased: 2.812
#iterations: 530
currently lose_sum: 0.6801093220710754
time_elpased: 2.856
#iterations: 531
currently lose_sum: 0.6857155561447144
time_elpased: 2.882
#iterations: 532
currently lose_sum: 0.7069492936134338
time_elpased: 3.339
#iterations: 533
currently lose_sum: 0.6546907424926758
time_elpased: 2.829
#iterations: 534
currently lose_sum: 0.6962406039237976
time_elpased: 2.819
#iterations: 535
currently lose_sum: 0.6531869173049927
time_elpased: 2.862
#iterations: 536
currently lose_sum: 0.7076956033706665
time_elpased: 2.814
#iterations: 537
currently lose_sum: 0.7066469192504883
time_elpased: 2.817
#iterations: 538
currently lose_sum: 0.6642812490463257
time_elpased: 3.288
#iterations: 539
currently lose_sum: 0.6792415380477905
time_elpased: 2.816
start validation test
0.541071428571
0.542704626335
0.542704626335
0.542704626335
0.541065574816
38.649
#iterations: 540
currently lose_sum: 0.7039337158203125
time_elpased: 2.842
#iterations: 541
currently lose_sum: 0.6770879030227661
time_elpased: 3.108
#iterations: 542
currently lose_sum: 0.6861149668693542
time_elpased: 2.915
#iterations: 543
currently lose_sum: 0.6801281571388245
time_elpased: 2.832
#iterations: 544
currently lose_sum: 0.737191915512085
time_elpased: 2.801
#iterations: 545
currently lose_sum: 0.7029983401298523
time_elpased: 3.162
#iterations: 546
currently lose_sum: 0.7133744955062866
time_elpased: 2.904
#iterations: 547
currently lose_sum: 0.684069812297821
time_elpased: 3.338
#iterations: 548
currently lose_sum: 0.668747067451477
time_elpased: 2.819
#iterations: 549
currently lose_sum: 0.6346504092216492
time_elpased: 2.849
#iterations: 550
currently lose_sum: 0.6810437440872192
time_elpased: 2.829
#iterations: 551
currently lose_sum: 0.6829236149787903
time_elpased: 2.814
#iterations: 552
currently lose_sum: 0.6827012300491333
time_elpased: 2.797
#iterations: 553
currently lose_sum: 0.6718502044677734
time_elpased: 2.828
#iterations: 554
currently lose_sum: 0.6215306520462036
time_elpased: 2.804
#iterations: 555
currently lose_sum: 0.6129881143569946
time_elpased: 2.865
#iterations: 556
currently lose_sum: 0.6902343034744263
time_elpased: 2.81
#iterations: 557
currently lose_sum: 0.6657816767692566
time_elpased: 2.871
#iterations: 558
currently lose_sum: 0.6833151578903198
time_elpased: 2.894
#iterations: 559
currently lose_sum: 0.6721795797348022
time_elpased: 2.849
start validation test
0.541964285714
0.542387543253
0.557829181495
0.55
0.541907422289
38.607
#iterations: 560
currently lose_sum: 0.694743812084198
time_elpased: 2.787
#iterations: 561
currently lose_sum: 0.7070145010948181
time_elpased: 2.827
#iterations: 562
currently lose_sum: 0.6635314226150513
time_elpased: 2.825
#iterations: 563
currently lose_sum: 0.6511136889457703
time_elpased: 2.834
#iterations: 564
currently lose_sum: 0.629653811454773
time_elpased: 2.818
#iterations: 565
currently lose_sum: 0.7144250869750977
time_elpased: 2.876
#iterations: 566
currently lose_sum: 0.6626445055007935
time_elpased: 2.858
#iterations: 567
currently lose_sum: 0.668077290058136
time_elpased: 3.125
#iterations: 568
currently lose_sum: 0.6548379063606262
time_elpased: 2.811
#iterations: 569
currently lose_sum: 0.6880664229393005
time_elpased: 2.948
#iterations: 570
currently lose_sum: 0.6934184432029724
time_elpased: 2.857
#iterations: 571
currently lose_sum: 0.6632269620895386
time_elpased: 3.236
#iterations: 572
currently lose_sum: 0.6938278079032898
time_elpased: 3.137
#iterations: 573
currently lose_sum: 0.6696892380714417
time_elpased: 2.801
#iterations: 574
currently lose_sum: 0.6914076209068298
time_elpased: 2.805
#iterations: 575
currently lose_sum: 0.6678971648216248
time_elpased: 3.023
#iterations: 576
currently lose_sum: 0.7256735563278198
time_elpased: 2.773
#iterations: 577
currently lose_sum: 0.6697414517402649
time_elpased: 3.145
#iterations: 578
currently lose_sum: 0.6786209940910339
time_elpased: 2.972
#iterations: 579
currently lose_sum: 0.7201969027519226
time_elpased: 2.942
start validation test
0.541517857143
0.544783010157
0.524911032028
0.534662437698
0.541577379814
38.684
#iterations: 580
currently lose_sum: 0.6920050382614136
time_elpased: 2.788
#iterations: 581
currently lose_sum: 0.6958031058311462
time_elpased: 2.766
#iterations: 582
currently lose_sum: 0.6666527390480042
time_elpased: 2.79
#iterations: 583
currently lose_sum: 0.6877424120903015
time_elpased: 2.764
#iterations: 584
currently lose_sum: 0.6930995583534241
time_elpased: 2.856
#iterations: 585
currently lose_sum: 0.6870473623275757
time_elpased: 2.813
#iterations: 586
currently lose_sum: 0.7005634307861328
time_elpased: 2.784
#iterations: 587
currently lose_sum: 0.6846715211868286
time_elpased: 3.281
#iterations: 588
currently lose_sum: 0.6777690052986145
time_elpased: 2.787
#iterations: 589
currently lose_sum: 0.6653477549552917
time_elpased: 3.087
#iterations: 590
currently lose_sum: 0.6771756410598755
time_elpased: 3.514
#iterations: 591
currently lose_sum: 0.7357639074325562
time_elpased: 3.082
#iterations: 592
currently lose_sum: 0.6947317123413086
time_elpased: 2.823
#iterations: 593
currently lose_sum: 0.7169146537780762
time_elpased: 2.795
#iterations: 594
currently lose_sum: 0.6991667747497559
time_elpased: 2.79
#iterations: 595
currently lose_sum: 0.712441623210907
time_elpased: 2.84
#iterations: 596
currently lose_sum: 0.7187209129333496
time_elpased: 2.837
#iterations: 597
currently lose_sum: 0.6795300245285034
time_elpased: 2.79
#iterations: 598
currently lose_sum: 0.6872051358222961
time_elpased: 2.837
#iterations: 599
currently lose_sum: 0.6897660493850708
time_elpased: 2.832
start validation test
0.541071428571
0.543795620438
0.53024911032
0.536936936937
0.541110218243
38.623
acc: 0.550
pre: 0.555
rec: 0.520
F1: 0.537
auc: 0.550
