start to construct computing graph
graph construct over
3373
epochs start
#iterations: 0
currently lose_sum: 0.6732407808303833
time_elpased: 4.697
#iterations: 1
currently lose_sum: 0.6918395757675171
time_elpased: 4.748
#iterations: 2
currently lose_sum: 0.680793285369873
time_elpased: 4.693
#iterations: 3
currently lose_sum: 0.6771427392959595
time_elpased: 4.737
#iterations: 4
currently lose_sum: 0.648004412651062
time_elpased: 4.907
#iterations: 5
currently lose_sum: 0.6923385262489319
time_elpased: 4.627
#iterations: 6
currently lose_sum: 0.5664026141166687
time_elpased: 4.73
#iterations: 7
currently lose_sum: 0.5175145864486694
time_elpased: 4.601
#iterations: 8
currently lose_sum: 0.572496771812439
time_elpased: 4.666
#iterations: 9
currently lose_sum: 0.46711134910583496
time_elpased: 4.614
#iterations: 10
currently lose_sum: 0.6602938771247864
time_elpased: 4.584
#iterations: 11
currently lose_sum: 0.6762279272079468
time_elpased: 4.695
#iterations: 12
currently lose_sum: 0.5692905187606812
time_elpased: 4.591
#iterations: 13
currently lose_sum: 0.6394741535186768
time_elpased: 4.565
#iterations: 14
currently lose_sum: 0.6235002279281616
time_elpased: 4.57
#iterations: 15
currently lose_sum: 0.5050345659255981
time_elpased: 4.589
#iterations: 16
currently lose_sum: 0.5887948870658875
time_elpased: 4.586
#iterations: 17
currently lose_sum: 0.7290990948677063
time_elpased: 4.571
#iterations: 18
currently lose_sum: 0.4532700181007385
time_elpased: 4.561
#iterations: 19
currently lose_sum: 0.5222867727279663
time_elpased: 4.645
start validation test
0.698660714286
0.69884853853
0.701957295374
0.700399467377
0.698648898583
32.900
#iterations: 20
currently lose_sum: 0.6283222436904907
time_elpased: 3.797
#iterations: 21
currently lose_sum: 0.5348063707351685
time_elpased: 3.551
#iterations: 22
currently lose_sum: 0.5107267498970032
time_elpased: 3.549
#iterations: 23
currently lose_sum: 0.48694467544555664
time_elpased: 3.55
#iterations: 24
currently lose_sum: 0.5963453054428101
time_elpased: 3.547
#iterations: 25
currently lose_sum: 0.6947270631790161
time_elpased: 3.55
#iterations: 26
currently lose_sum: 0.46702346205711365
time_elpased: 3.608
#iterations: 27
currently lose_sum: 0.6270585656166077
time_elpased: 3.612
#iterations: 28
currently lose_sum: 0.6378303170204163
time_elpased: 3.547
#iterations: 29
currently lose_sum: 0.44693583250045776
time_elpased: 3.524
#iterations: 30
currently lose_sum: 0.6257427334785461
time_elpased: 3.545
#iterations: 31
currently lose_sum: 0.5046176910400391
time_elpased: 3.638
#iterations: 32
currently lose_sum: 0.43830356001853943
time_elpased: 3.556
#iterations: 33
currently lose_sum: 0.4424629807472229
time_elpased: 4.143
#iterations: 34
currently lose_sum: 0.6029280424118042
time_elpased: 3.534
#iterations: 35
currently lose_sum: 0.5631085634231567
time_elpased: 3.674
#iterations: 36
currently lose_sum: 0.4154856204986572
time_elpased: 3.606
#iterations: 37
currently lose_sum: 0.48956650495529175
time_elpased: 3.552
#iterations: 38
currently lose_sum: 0.46758565306663513
time_elpased: 3.64
#iterations: 39
currently lose_sum: 0.41383782029151917
time_elpased: 3.591
start validation test
0.727232142857
0.738161559889
0.707295373665
0.722398909587
0.727303600811
31.024
#iterations: 40
currently lose_sum: 0.5690536499023438
time_elpased: 3.617
#iterations: 41
currently lose_sum: 0.45094290375709534
time_elpased: 3.564
#iterations: 42
currently lose_sum: 0.5647646188735962
time_elpased: 3.585
#iterations: 43
currently lose_sum: 0.5117692947387695
time_elpased: 3.782
#iterations: 44
currently lose_sum: 0.5132240056991577
time_elpased: 3.731
#iterations: 45
currently lose_sum: 0.3978569209575653
time_elpased: 3.558
#iterations: 46
currently lose_sum: 0.4142383635044098
time_elpased: 3.67
#iterations: 47
currently lose_sum: 0.40821290016174316
time_elpased: 3.603
#iterations: 48
currently lose_sum: 0.4148002564907074
time_elpased: 3.535
#iterations: 49
currently lose_sum: 0.587179958820343
time_elpased: 3.565
#iterations: 50
currently lose_sum: 0.6034526228904724
time_elpased: 3.732
#iterations: 51
currently lose_sum: 0.4266672134399414
time_elpased: 3.578
#iterations: 52
currently lose_sum: 0.5275657176971436
time_elpased: 3.668
#iterations: 53
currently lose_sum: 0.33118075132369995
time_elpased: 3.865
#iterations: 54
currently lose_sum: 0.4825315475463867
time_elpased: 3.574
#iterations: 55
currently lose_sum: 0.2787594199180603
time_elpased: 3.65
#iterations: 56
currently lose_sum: 0.4934079051017761
time_elpased: 3.768
#iterations: 57
currently lose_sum: 0.5148425102233887
time_elpased: 3.552
#iterations: 58
currently lose_sum: 0.4644913673400879
time_elpased: 3.545
#iterations: 59
currently lose_sum: 0.3903656601905823
time_elpased: 3.57
start validation test
0.750446428571
0.772420443587
0.712633451957
0.74132346136
0.750581958954
30.147
#iterations: 60
currently lose_sum: 0.3998740613460541
time_elpased: 3.743
#iterations: 61
currently lose_sum: 0.3814632296562195
time_elpased: 3.582
#iterations: 62
currently lose_sum: 0.40218502283096313
time_elpased: 3.523
#iterations: 63
currently lose_sum: 0.39566510915756226
time_elpased: 3.571
#iterations: 64
currently lose_sum: 0.5111333727836609
time_elpased: 3.666
#iterations: 65
currently lose_sum: 0.35137444734573364
time_elpased: 3.588
#iterations: 66
currently lose_sum: 0.333182156085968
time_elpased: 3.611
#iterations: 67
currently lose_sum: 0.49323567748069763
time_elpased: 3.606
#iterations: 68
currently lose_sum: 0.3524041771888733
time_elpased: 3.531
#iterations: 69
currently lose_sum: 0.3445635735988617
time_elpased: 3.537
#iterations: 70
currently lose_sum: 0.27091196179389954
time_elpased: 3.606
#iterations: 71
currently lose_sum: 0.5546467304229736
time_elpased: 3.533
#iterations: 72
currently lose_sum: 0.36657658219337463
time_elpased: 3.717
#iterations: 73
currently lose_sum: 0.2597197890281677
time_elpased: 3.546
#iterations: 74
currently lose_sum: 0.40443262457847595
time_elpased: 3.666
#iterations: 75
currently lose_sum: 0.287939190864563
time_elpased: 3.569
#iterations: 76
currently lose_sum: 0.41444292664527893
time_elpased: 3.758
#iterations: 77
currently lose_sum: 0.34345465898513794
time_elpased: 3.535
#iterations: 78
currently lose_sum: 0.4398075044155121
time_elpased: 3.561
#iterations: 79
currently lose_sum: 0.3548803925514221
time_elpased: 3.728
start validation test
0.742857142857
0.773453093812
0.689501779359
0.729068673565
0.743048380719
31.325
#iterations: 80
currently lose_sum: 0.40746837854385376
time_elpased: 3.558
#iterations: 81
currently lose_sum: 0.3295280933380127
time_elpased: 3.554
#iterations: 82
currently lose_sum: 0.46844297647476196
time_elpased: 3.516
#iterations: 83
currently lose_sum: 0.29480549693107605
time_elpased: 4.002
#iterations: 84
currently lose_sum: 0.4195617139339447
time_elpased: 3.616
#iterations: 85
currently lose_sum: 0.4398554861545563
time_elpased: 3.538
#iterations: 86
currently lose_sum: 0.2556268572807312
time_elpased: 3.647
#iterations: 87
currently lose_sum: 0.4436195492744446
time_elpased: 3.601
#iterations: 88
currently lose_sum: 0.48412686586380005
time_elpased: 3.56
#iterations: 89
currently lose_sum: 0.33955180644989014
time_elpased: 3.552
#iterations: 90
currently lose_sum: 0.3428167998790741
time_elpased: 3.535
#iterations: 91
currently lose_sum: 0.42659464478492737
time_elpased: 3.966
#iterations: 92
currently lose_sum: 0.24653759598731995
time_elpased: 3.827
#iterations: 93
currently lose_sum: 0.3183852434158325
time_elpased: 3.765
#iterations: 94
currently lose_sum: 0.35137075185775757
time_elpased: 3.765
#iterations: 95
currently lose_sum: 0.2762851119041443
time_elpased: 3.556
#iterations: 96
currently lose_sum: 0.5077818036079407
time_elpased: 3.604
#iterations: 97
currently lose_sum: 0.3135913610458374
time_elpased: 3.562
#iterations: 98
currently lose_sum: 0.321353554725647
time_elpased: 3.574
#iterations: 99
currently lose_sum: 0.3378417193889618
time_elpased: 3.522
start validation test
0.755357142857
0.788577154309
0.700177935943
0.741753063148
0.755554917792
32.572
#iterations: 100
currently lose_sum: 0.26098090410232544
time_elpased: 3.576
#iterations: 101
currently lose_sum: 0.2082376480102539
time_elpased: 3.635
#iterations: 102
currently lose_sum: 0.30058789253234863
time_elpased: 3.534
#iterations: 103
currently lose_sum: 0.3006400465965271
time_elpased: 3.546
#iterations: 104
currently lose_sum: 0.45752087235450745
time_elpased: 3.552
#iterations: 105
currently lose_sum: 0.3366697430610657
time_elpased: 3.539
#iterations: 106
currently lose_sum: 0.34144455194473267
time_elpased: 3.609
#iterations: 107
currently lose_sum: 0.35751602053642273
time_elpased: 3.523
#iterations: 108
currently lose_sum: 0.3233656883239746
time_elpased: 3.519
#iterations: 109
currently lose_sum: 0.3752114772796631
time_elpased: 3.501
#iterations: 110
currently lose_sum: 0.311006635427475
time_elpased: 3.583
#iterations: 111
currently lose_sum: 0.3457922339439392
time_elpased: 3.583
#iterations: 112
currently lose_sum: 0.3735170066356659
time_elpased: 3.674
#iterations: 113
currently lose_sum: 0.26044023036956787
time_elpased: 3.523
#iterations: 114
currently lose_sum: 0.44234758615493774
time_elpased: 3.826
#iterations: 115
currently lose_sum: 0.3622487187385559
time_elpased: 3.554
#iterations: 116
currently lose_sum: 0.3056275248527527
time_elpased: 3.627
#iterations: 117
currently lose_sum: 0.2761983275413513
time_elpased: 3.598
#iterations: 118
currently lose_sum: 0.5398021936416626
time_elpased: 3.739
#iterations: 119
currently lose_sum: 0.34883108735084534
time_elpased: 3.653
start validation test
0.7625
0.818965517241
0.67615658363
0.740740740741
0.762809474611
34.230
#iterations: 120
currently lose_sum: 0.36406901478767395
time_elpased: 3.642
#iterations: 121
currently lose_sum: 0.3863331377506256
time_elpased: 3.871
#iterations: 122
currently lose_sum: 0.2036171406507492
time_elpased: 3.559
#iterations: 123
currently lose_sum: 0.36245858669281006
time_elpased: 3.542
#iterations: 124
currently lose_sum: 0.21061548590660095
time_elpased: 3.797
#iterations: 125
currently lose_sum: 0.30769118666648865
time_elpased: 3.546
#iterations: 126
currently lose_sum: 0.2559807002544403
time_elpased: 3.515
#iterations: 127
currently lose_sum: 0.2963528633117676
time_elpased: 3.548
#iterations: 128
currently lose_sum: 0.47159385681152344
time_elpased: 3.538
#iterations: 129
currently lose_sum: 0.309677392244339
time_elpased: 3.978
#iterations: 130
currently lose_sum: 0.19340136647224426
time_elpased: 3.57
#iterations: 131
currently lose_sum: 0.381574809551239
time_elpased: 3.558
#iterations: 132
currently lose_sum: 0.3720790147781372
time_elpased: 3.582
#iterations: 133
currently lose_sum: 0.31942230463027954
time_elpased: 3.643
#iterations: 134
currently lose_sum: 0.34376293420791626
time_elpased: 3.618
#iterations: 135
currently lose_sum: 0.3442308306694031
time_elpased: 3.571
#iterations: 136
currently lose_sum: 0.3399108648300171
time_elpased: 3.625
#iterations: 137
currently lose_sum: 0.30848920345306396
time_elpased: 3.813
#iterations: 138
currently lose_sum: 0.34803515672683716
time_elpased: 3.572
#iterations: 139
currently lose_sum: 0.42847269773483276
time_elpased: 3.62
start validation test
0.768303571429
0.823529411765
0.685053380783
0.747935891209
0.768601959209
35.733
#iterations: 140
currently lose_sum: 0.20170673727989197
time_elpased: 3.643
#iterations: 141
currently lose_sum: 0.3773188889026642
time_elpased: 3.683
#iterations: 142
currently lose_sum: 0.195451021194458
time_elpased: 3.563
#iterations: 143
currently lose_sum: 0.11014430224895477
time_elpased: 3.702
#iterations: 144
currently lose_sum: 0.300628125667572
time_elpased: 3.662
#iterations: 145
currently lose_sum: 0.2189202755689621
time_elpased: 3.545
#iterations: 146
currently lose_sum: 0.2598017156124115
time_elpased: 3.561
#iterations: 147
currently lose_sum: 0.194444939494133
time_elpased: 3.607
#iterations: 148
currently lose_sum: 0.2161048948764801
time_elpased: 3.557
#iterations: 149
currently lose_sum: 0.2816067636013031
time_elpased: 3.592
#iterations: 150
currently lose_sum: 0.32317233085632324
time_elpased: 3.632
#iterations: 151
currently lose_sum: 0.27137723565101624
time_elpased: 3.599
#iterations: 152
currently lose_sum: 0.38376155495643616
time_elpased: 3.671
#iterations: 153
currently lose_sum: 0.2530890107154846
time_elpased: 3.608
#iterations: 154
currently lose_sum: 0.18216276168823242
time_elpased: 3.548
#iterations: 155
currently lose_sum: 0.2692438066005707
time_elpased: 3.546
#iterations: 156
currently lose_sum: 0.28190940618515015
time_elpased: 3.527
#iterations: 157
currently lose_sum: 0.19860556721687317
time_elpased: 3.685
#iterations: 158
currently lose_sum: 0.42046910524368286
time_elpased: 4.14
#iterations: 159
currently lose_sum: 0.19615212082862854
time_elpased: 3.518
start validation test
0.75
0.832547169811
0.628113879004
0.716024340771
0.750436867817
40.582
#iterations: 160
currently lose_sum: 0.3255687654018402
time_elpased: 3.524
#iterations: 161
currently lose_sum: 0.23368462920188904
time_elpased: 3.593
#iterations: 162
currently lose_sum: 0.26523518562316895
time_elpased: 3.715
#iterations: 163
currently lose_sum: 0.2746281325817108
time_elpased: 3.575
#iterations: 164
currently lose_sum: 0.22693029046058655
time_elpased: 3.633
#iterations: 165
currently lose_sum: 0.21820545196533203
time_elpased: 3.537
#iterations: 166
currently lose_sum: 0.24328239262104034
time_elpased: 3.63
#iterations: 167
currently lose_sum: 0.26197177171707153
time_elpased: 3.551
#iterations: 168
currently lose_sum: 0.30162304639816284
time_elpased: 3.651
#iterations: 169
currently lose_sum: 0.1636401265859604
time_elpased: 3.651
#iterations: 170
currently lose_sum: 0.16790518164634705
time_elpased: 4.627
#iterations: 171
currently lose_sum: 0.1936553567647934
time_elpased: 3.602
#iterations: 172
currently lose_sum: 0.21034154295921326
time_elpased: 3.657
#iterations: 173
currently lose_sum: 0.18879802525043488
time_elpased: 3.541
#iterations: 174
currently lose_sum: 0.16214099526405334
time_elpased: 3.548
#iterations: 175
currently lose_sum: 0.24209046363830566
time_elpased: 3.575
#iterations: 176
currently lose_sum: 0.1931103765964508
time_elpased: 3.734
#iterations: 177
currently lose_sum: 0.18726958334445953
time_elpased: 3.86
#iterations: 178
currently lose_sum: 0.27021870017051697
time_elpased: 3.723
#iterations: 179
currently lose_sum: 0.30901631712913513
time_elpased: 3.796
start validation test
0.741071428571
0.832518337408
0.605871886121
0.701338825953
0.741556014745
43.536
#iterations: 180
currently lose_sum: 0.26572903990745544
time_elpased: 3.566
#iterations: 181
currently lose_sum: 0.34416380524635315
time_elpased: 3.542
#iterations: 182
currently lose_sum: 0.16789129376411438
time_elpased: 3.549
#iterations: 183
currently lose_sum: 0.1762928068637848
time_elpased: 3.808
#iterations: 184
currently lose_sum: 0.2542501986026764
time_elpased: 3.626
#iterations: 185
currently lose_sum: 0.2895151674747467
time_elpased: 3.547
#iterations: 186
currently lose_sum: 0.299547016620636
time_elpased: 3.528
#iterations: 187
currently lose_sum: 0.16182813048362732
time_elpased: 3.566
#iterations: 188
currently lose_sum: 0.21201424300670624
time_elpased: 3.564
#iterations: 189
currently lose_sum: 0.25237587094306946
time_elpased: 3.596
#iterations: 190
currently lose_sum: 0.30733734369277954
time_elpased: 3.684
#iterations: 191
currently lose_sum: 0.2114221602678299
time_elpased: 3.701
#iterations: 192
currently lose_sum: 0.1862809658050537
time_elpased: 3.677
#iterations: 193
currently lose_sum: 0.30336517095565796
time_elpased: 3.659
#iterations: 194
currently lose_sum: 0.424679696559906
time_elpased: 3.797
#iterations: 195
currently lose_sum: 0.30532175302505493
time_elpased: 3.78
#iterations: 196
currently lose_sum: 0.31869786977767944
time_elpased: 3.691
#iterations: 197
currently lose_sum: 0.16556665301322937
time_elpased: 3.61
#iterations: 198
currently lose_sum: 0.08291564881801605
time_elpased: 3.673
#iterations: 199
currently lose_sum: 0.13282063603401184
time_elpased: 3.681
start validation test
0.736607142857
0.850393700787
0.576512455516
0.687168610817
0.737180958941
48.727
#iterations: 200
currently lose_sum: 0.2999173104763031
time_elpased: 4.073
#iterations: 201
currently lose_sum: 0.16618242859840393
time_elpased: 3.842
#iterations: 202
currently lose_sum: 0.13452479243278503
time_elpased: 3.842
#iterations: 203
currently lose_sum: 0.1309812068939209
time_elpased: 3.678
#iterations: 204
currently lose_sum: 0.08119367063045502
time_elpased: 3.785
#iterations: 205
currently lose_sum: 0.23681128025054932
time_elpased: 3.956
#iterations: 206
currently lose_sum: 0.13336411118507385
time_elpased: 3.737
#iterations: 207
currently lose_sum: 0.2209363877773285
time_elpased: 3.705
#iterations: 208
currently lose_sum: 0.15106530487537384
time_elpased: 3.961
#iterations: 209
currently lose_sum: 0.14103010296821594
time_elpased: 3.707
#iterations: 210
currently lose_sum: 0.11502355337142944
time_elpased: 3.79
#iterations: 211
currently lose_sum: 0.296983003616333
time_elpased: 3.702
#iterations: 212
currently lose_sum: 0.21625380218029022
time_elpased: 3.673
#iterations: 213
currently lose_sum: 0.1732690930366516
time_elpased: 3.75
#iterations: 214
currently lose_sum: 0.21538646519184113
time_elpased: 3.768
#iterations: 215
currently lose_sum: 0.2202930897474289
time_elpased: 4.064
#iterations: 216
currently lose_sum: 0.12212077528238297
time_elpased: 4.024
#iterations: 217
currently lose_sum: 0.12319646030664444
time_elpased: 4.061
#iterations: 218
currently lose_sum: 0.28317829966545105
time_elpased: 3.938
#iterations: 219
currently lose_sum: 0.1738777458667755
time_elpased: 3.614
start validation test
0.746875
0.851197982346
0.600533807829
0.704225352113
0.747399520402
51.729
#iterations: 220
currently lose_sum: 0.29416894912719727
time_elpased: 3.723
#iterations: 221
currently lose_sum: 0.4062193036079407
time_elpased: 3.793
#iterations: 222
currently lose_sum: 0.20556822419166565
time_elpased: 4.186
#iterations: 223
currently lose_sum: 0.19322185218334198
time_elpased: 3.643
#iterations: 224
currently lose_sum: 0.19133827090263367
time_elpased: 4.131
#iterations: 225
currently lose_sum: 0.1799561232328415
time_elpased: 3.665
#iterations: 226
currently lose_sum: 0.09845254570245743
time_elpased: 3.693
#iterations: 227
currently lose_sum: 0.20205184817314148
time_elpased: 3.698
#iterations: 228
currently lose_sum: 0.1774037629365921
time_elpased: 3.666
#iterations: 229
currently lose_sum: 0.08574717491865158
time_elpased: 3.602
#iterations: 230
currently lose_sum: 0.15048494935035706
time_elpased: 3.64
#iterations: 231
currently lose_sum: 0.235866978764534
time_elpased: 3.626
#iterations: 232
currently lose_sum: 0.21636684238910675
time_elpased: 3.561
#iterations: 233
currently lose_sum: 0.1576276570558548
time_elpased: 3.672
#iterations: 234
currently lose_sum: 0.09397139400243759
time_elpased: 3.743
#iterations: 235
currently lose_sum: 0.11958565562963486
time_elpased: 3.665
#iterations: 236
currently lose_sum: 0.21455791592597961
time_elpased: 3.616
#iterations: 237
currently lose_sum: 0.08740111440420151
time_elpased: 3.692
#iterations: 238
currently lose_sum: 0.1706310212612152
time_elpased: 3.691
#iterations: 239
currently lose_sum: 0.20034094154834747
time_elpased: 3.601
start validation test
0.735267857143
0.855421686747
0.568505338078
0.683057188669
0.735865572265
57.013
#iterations: 240
currently lose_sum: 0.12366163730621338
time_elpased: 3.582
#iterations: 241
currently lose_sum: 0.14167049527168274
time_elpased: 3.917
#iterations: 242
currently lose_sum: 0.19886383414268494
time_elpased: 3.595
#iterations: 243
currently lose_sum: 0.22397425770759583
time_elpased: 3.65
#iterations: 244
currently lose_sum: 0.18517395853996277
time_elpased: 3.624
#iterations: 245
currently lose_sum: 0.14983190596103668
time_elpased: 3.648
#iterations: 246
currently lose_sum: 0.13281676173210144
time_elpased: 3.909
#iterations: 247
currently lose_sum: 0.11679287254810333
time_elpased: 4.041
#iterations: 248
currently lose_sum: 0.12299473583698273
time_elpased: 3.897
#iterations: 249
currently lose_sum: 0.13283871114253998
time_elpased: 3.606
#iterations: 250
currently lose_sum: 0.1931350827217102
time_elpased: 3.859
#iterations: 251
currently lose_sum: 0.2627331614494324
time_elpased: 3.671
#iterations: 252
currently lose_sum: 0.23847278952598572
time_elpased: 3.987
#iterations: 253
currently lose_sum: 0.13687463104724884
time_elpased: 4.216
#iterations: 254
currently lose_sum: 0.21429899334907532
time_elpased: 4.129
#iterations: 255
currently lose_sum: 0.1905592978000641
time_elpased: 3.834
#iterations: 256
currently lose_sum: 0.18071222305297852
time_elpased: 3.718
#iterations: 257
currently lose_sum: 0.16984117031097412
time_elpased: 3.805
#iterations: 258
currently lose_sum: 0.12567023932933807
time_elpased: 3.771
#iterations: 259
currently lose_sum: 0.22501428425312042
time_elpased: 3.729
start validation test
0.722767857143
0.853727144866
0.540035587189
0.661580381471
0.723422811515
63.646
#iterations: 260
currently lose_sum: 0.11260543018579483
time_elpased: 4.323
#iterations: 261
currently lose_sum: 0.12539982795715332
time_elpased: 3.925
#iterations: 262
currently lose_sum: 0.18670395016670227
time_elpased: 3.943
#iterations: 263
currently lose_sum: 0.15551960468292236
time_elpased: 3.776
#iterations: 264
currently lose_sum: 0.31094950437545776
time_elpased: 3.63
#iterations: 265
currently lose_sum: 0.10345488786697388
time_elpased: 3.591
#iterations: 266
currently lose_sum: 0.2799415588378906
time_elpased: 4.03
#iterations: 267
currently lose_sum: 0.15863926708698273
time_elpased: 3.6
#iterations: 268
currently lose_sum: 0.0835963636636734
time_elpased: 3.579
#iterations: 269
currently lose_sum: 0.16644851863384247
time_elpased: 3.531
#iterations: 270
currently lose_sum: 0.17587032914161682
time_elpased: 3.746
#iterations: 271
currently lose_sum: 0.07727755606174469
time_elpased: 3.626
#iterations: 272
currently lose_sum: 0.15164059400558472
time_elpased: 3.566
#iterations: 273
currently lose_sum: 0.09215264022350311
time_elpased: 3.533
#iterations: 274
currently lose_sum: 0.16201528906822205
time_elpased: 3.67
#iterations: 275
currently lose_sum: 0.1501745879650116
time_elpased: 3.563
#iterations: 276
currently lose_sum: 0.0959155485033989
time_elpased: 3.568
#iterations: 277
currently lose_sum: 0.1533776968717575
time_elpased: 3.54
#iterations: 278
currently lose_sum: 0.17633788287639618
time_elpased: 3.707
#iterations: 279
currently lose_sum: 0.18777231872081757
time_elpased: 3.599
start validation test
0.713392857143
0.865151515152
0.508007117438
0.640134529148
0.714129006748
70.144
#iterations: 280
currently lose_sum: 0.11175169050693512
time_elpased: 3.578
#iterations: 281
currently lose_sum: 0.2328445017337799
time_elpased: 3.593
#iterations: 282
currently lose_sum: 0.1532425433397293
time_elpased: 3.658
#iterations: 283
currently lose_sum: 0.2149495631456375
time_elpased: 4.083
#iterations: 284
currently lose_sum: 0.11246975511312485
time_elpased: 3.552
#iterations: 285
currently lose_sum: 0.20207829773426056
time_elpased: 3.763
#iterations: 286
currently lose_sum: 0.1200614720582962
time_elpased: 3.628
#iterations: 287
currently lose_sum: 0.299288272857666
time_elpased: 3.675
#iterations: 288
currently lose_sum: 0.12698987126350403
time_elpased: 3.619
#iterations: 289
currently lose_sum: 0.11140298843383789
time_elpased: 3.824
#iterations: 290
currently lose_sum: 0.16903169453144073
time_elpased: 3.638
#iterations: 291
currently lose_sum: 0.24163153767585754
time_elpased: 3.696
#iterations: 292
currently lose_sum: 0.16117805242538452
time_elpased: 3.562
#iterations: 293
currently lose_sum: 0.12175266444683075
time_elpased: 3.552
#iterations: 294
currently lose_sum: 0.14132395386695862
time_elpased: 3.577
#iterations: 295
currently lose_sum: 0.09802062809467316
time_elpased: 3.795
#iterations: 296
currently lose_sum: 0.057898957282304764
time_elpased: 4.011
#iterations: 297
currently lose_sum: 0.14867840707302094
time_elpased: 3.573
#iterations: 298
currently lose_sum: 0.04088188335299492
time_elpased: 3.602
#iterations: 299
currently lose_sum: 0.0435301698744297
time_elpased: 3.682
start validation test
0.716964285714
0.859237536657
0.521352313167
0.648947951274
0.717665403895
71.287
#iterations: 300
currently lose_sum: 0.26720839738845825
time_elpased: 3.722
#iterations: 301
currently lose_sum: 0.15004709362983704
time_elpased: 3.632
#iterations: 302
currently lose_sum: 0.22579964995384216
time_elpased: 3.842
#iterations: 303
currently lose_sum: 0.1330263614654541
time_elpased: 3.627
#iterations: 304
currently lose_sum: 0.0641527771949768
time_elpased: 3.664
#iterations: 305
currently lose_sum: 0.15656591951847076
time_elpased: 3.576
#iterations: 306
currently lose_sum: 0.06585924327373505
time_elpased: 3.699
#iterations: 307
currently lose_sum: 0.2917277216911316
time_elpased: 4.093
#iterations: 308
currently lose_sum: 0.0458645299077034
time_elpased: 3.589
#iterations: 309
currently lose_sum: 0.23320727050304413
time_elpased: 3.603
#iterations: 310
currently lose_sum: 0.09676341712474823
time_elpased: 4.105
#iterations: 311
currently lose_sum: 0.0978701189160347
time_elpased: 3.558
#iterations: 312
currently lose_sum: 0.06339360028505325
time_elpased: 3.852
#iterations: 313
currently lose_sum: 0.04743996635079384
time_elpased: 3.713
#iterations: 314
currently lose_sum: 0.13875195384025574
time_elpased: 3.574
#iterations: 315
currently lose_sum: 0.10839138925075531
time_elpased: 3.63
#iterations: 316
currently lose_sum: 0.22923429310321808
time_elpased: 3.741
#iterations: 317
currently lose_sum: 0.08550648391246796
time_elpased: 3.768
#iterations: 318
currently lose_sum: 0.17445220053195953
time_elpased: 3.642
#iterations: 319
currently lose_sum: 0.09878329932689667
time_elpased: 3.509
start validation test
0.718303571429
0.860907759883
0.523131672598
0.650802434975
0.719003112285
73.070
#iterations: 320
currently lose_sum: 0.05950121954083443
time_elpased: 3.67
#iterations: 321
currently lose_sum: 0.16629382967948914
time_elpased: 3.72
#iterations: 322
currently lose_sum: 0.03964689373970032
time_elpased: 3.635
#iterations: 323
currently lose_sum: 0.1146044135093689
time_elpased: 3.537
#iterations: 324
currently lose_sum: 0.06262831389904022
time_elpased: 3.601
#iterations: 325
currently lose_sum: 0.0739714652299881
time_elpased: 3.639
#iterations: 326
currently lose_sum: 0.06747481971979141
time_elpased: 3.53
#iterations: 327
currently lose_sum: 0.22617188096046448
time_elpased: 3.623
#iterations: 328
currently lose_sum: 0.1940390169620514
time_elpased: 3.708
#iterations: 329
currently lose_sum: 0.07094775140285492
time_elpased: 3.885
#iterations: 330
currently lose_sum: 0.10602451860904694
time_elpased: 3.605
#iterations: 331
currently lose_sum: 0.08002228289842606
time_elpased: 3.722
#iterations: 332
currently lose_sum: 0.07133112847805023
time_elpased: 3.939
#iterations: 333
currently lose_sum: 0.27889174222946167
time_elpased: 3.579
#iterations: 334
currently lose_sum: 0.09201662242412567
time_elpased: 3.552
#iterations: 335
currently lose_sum: 0.07571297138929367
time_elpased: 3.544
#iterations: 336
currently lose_sum: 0.16181644797325134
time_elpased: 3.548
#iterations: 337
currently lose_sum: 0.10045675933361053
time_elpased: 3.534
#iterations: 338
currently lose_sum: 0.08629480749368668
time_elpased: 3.5
#iterations: 339
currently lose_sum: 0.25764966011047363
time_elpased: 3.633
start validation test
0.7
0.88566552901
0.461743772242
0.60701754386
0.700853964974
84.227
#iterations: 340
currently lose_sum: 0.1107558161020279
time_elpased: 3.549
#iterations: 341
currently lose_sum: 0.12074144184589386
time_elpased: 3.71
#iterations: 342
currently lose_sum: 0.22261032462120056
time_elpased: 3.85
#iterations: 343
currently lose_sum: 0.08769257366657257
time_elpased: 3.63
#iterations: 344
currently lose_sum: 0.07374967634677887
time_elpased: 3.618
#iterations: 345
currently lose_sum: 0.0892350822687149
time_elpased: 3.785
#iterations: 346
currently lose_sum: 0.1689930409193039
time_elpased: 3.731
#iterations: 347
currently lose_sum: 0.11373613029718399
time_elpased: 3.648
#iterations: 348
currently lose_sum: 0.053939420729875565
time_elpased: 3.714
#iterations: 349
currently lose_sum: 0.2166009247303009
time_elpased: 3.688
#iterations: 350
currently lose_sum: 0.12470263242721558
time_elpased: 3.595
#iterations: 351
currently lose_sum: 0.04056500270962715
time_elpased: 3.657
#iterations: 352
currently lose_sum: 0.06570829451084137
time_elpased: 4.006
#iterations: 353
currently lose_sum: 0.07106485217809677
time_elpased: 3.844
#iterations: 354
currently lose_sum: 0.2010553628206253
time_elpased: 4.057
#iterations: 355
currently lose_sum: 0.10214929282665253
time_elpased: 3.72
#iterations: 356
currently lose_sum: 0.06026886776089668
time_elpased: 3.665
#iterations: 357
currently lose_sum: 0.12277092784643173
time_elpased: 3.996
#iterations: 358
currently lose_sum: 0.05985160544514656
time_elpased: 3.807
#iterations: 359
currently lose_sum: 0.13108061254024506
time_elpased: 4.065
start validation test
0.698214285714
0.887543252595
0.45640569395
0.602820211516
0.699080983176
86.601
#iterations: 360
currently lose_sum: 0.12124709784984589
time_elpased: 4.414
#iterations: 361
currently lose_sum: 0.21654510498046875
time_elpased: 3.812
#iterations: 362
currently lose_sum: 0.059948790818452835
time_elpased: 3.716
#iterations: 363
currently lose_sum: 0.09479442983865738
time_elpased: 3.635
#iterations: 364
currently lose_sum: 0.04153100773692131
time_elpased: 3.609
#iterations: 365
currently lose_sum: 0.13974890112876892
time_elpased: 3.583
#iterations: 366
currently lose_sum: 0.09493982791900635
time_elpased: 3.69
#iterations: 367
currently lose_sum: 0.13091719150543213
time_elpased: 3.765
#iterations: 368
currently lose_sum: 0.19541363418102264
time_elpased: 3.645
#iterations: 369
currently lose_sum: 0.15397286415100098
time_elpased: 3.601
#iterations: 370
currently lose_sum: 0.12185470759868622
time_elpased: 3.673
#iterations: 371
currently lose_sum: 0.07272207736968994
time_elpased: 3.763
#iterations: 372
currently lose_sum: 0.050205789506435394
time_elpased: 3.551
#iterations: 373
currently lose_sum: 0.06397341191768646
time_elpased: 3.634
#iterations: 374
currently lose_sum: 0.08335486799478531
time_elpased: 3.817
#iterations: 375
currently lose_sum: 0.27405038475990295
time_elpased: 3.603
#iterations: 376
currently lose_sum: 0.04960644617676735
time_elpased: 3.842
#iterations: 377
currently lose_sum: 0.10977442562580109
time_elpased: 3.653
#iterations: 378
currently lose_sum: 0.16236311197280884
time_elpased: 3.867
#iterations: 379
currently lose_sum: 0.12176575511693954
time_elpased: 4.614
start validation test
0.70625
0.889632107023
0.473309608541
0.617886178862
0.707084911797
87.792
#iterations: 380
currently lose_sum: 0.10851743072271347
time_elpased: 4.17
#iterations: 381
currently lose_sum: 0.15355077385902405
time_elpased: 3.719
#iterations: 382
currently lose_sum: 0.06424982845783234
time_elpased: 3.757
#iterations: 383
currently lose_sum: 0.0347786471247673
time_elpased: 3.802
#iterations: 384
currently lose_sum: 0.08644072711467743
time_elpased: 3.903
#iterations: 385
currently lose_sum: 0.18590021133422852
time_elpased: 4.192
#iterations: 386
currently lose_sum: 0.06444712728261948
time_elpased: 3.92
#iterations: 387
currently lose_sum: 0.18852946162223816
time_elpased: 4.212
#iterations: 388
currently lose_sum: 0.07538796216249466
time_elpased: 4.399
#iterations: 389
currently lose_sum: 0.0950433611869812
time_elpased: 4.003
#iterations: 390
currently lose_sum: 0.1434820145368576
time_elpased: 4.012
#iterations: 391
currently lose_sum: 0.08927862346172333
time_elpased: 3.724
#iterations: 392
currently lose_sum: 0.05539299175143242
time_elpased: 3.594
#iterations: 393
currently lose_sum: 0.2227601557970047
time_elpased: 3.613
#iterations: 394
currently lose_sum: 0.12204978615045547
time_elpased: 3.571
#iterations: 395
currently lose_sum: 0.17729827761650085
time_elpased: 3.929
#iterations: 396
currently lose_sum: 0.1310037523508072
time_elpased: 3.838
#iterations: 397
currently lose_sum: 0.19144730269908905
time_elpased: 3.743
#iterations: 398
currently lose_sum: 0.05460559204220772
time_elpased: 3.757
#iterations: 399
currently lose_sum: 0.14982855319976807
time_elpased: 3.67
start validation test
0.710267857143
0.901861252115
0.474199288256
0.621574344023
0.711113981046
90.915
#iterations: 400
currently lose_sum: 0.25826841592788696
time_elpased: 3.619
#iterations: 401
currently lose_sum: 0.13265332579612732
time_elpased: 3.645
#iterations: 402
currently lose_sum: 0.17162683606147766
time_elpased: 3.951
#iterations: 403
currently lose_sum: 0.07156229019165039
time_elpased: 3.661
#iterations: 404
currently lose_sum: 0.18997621536254883
time_elpased: 3.598
#iterations: 405
currently lose_sum: 0.02989952638745308
time_elpased: 3.887
#iterations: 406
currently lose_sum: 0.31182608008384705
time_elpased: 4.001
#iterations: 407
currently lose_sum: 0.046243816614151
time_elpased: 3.648
#iterations: 408
currently lose_sum: 0.024402843788266182
time_elpased: 3.414
#iterations: 409
currently lose_sum: 0.1406773328781128
time_elpased: 2.948
#iterations: 410
currently lose_sum: 0.07547535747289658
time_elpased: 2.934
#iterations: 411
currently lose_sum: 0.13662314414978027
time_elpased: 2.922
#iterations: 412
currently lose_sum: 0.03242664411664009
time_elpased: 3.511
#iterations: 413
currently lose_sum: 0.1239098310470581
time_elpased: 3.708
#iterations: 414
currently lose_sum: 0.21406540274620056
time_elpased: 3.549
#iterations: 415
currently lose_sum: 0.08960665017366409
time_elpased: 3.481
#iterations: 416
currently lose_sum: 0.08441492915153503
time_elpased: 3.506
#iterations: 417
currently lose_sum: 0.056694675236940384
time_elpased: 3.395
#iterations: 418
currently lose_sum: 0.05017302557826042
time_elpased: 3.488
#iterations: 419
currently lose_sum: 0.16677670180797577
time_elpased: 3.437
start validation test
0.702678571429
0.892123287671
0.463523131673
0.610070257611
0.703535759385
95.664
#iterations: 420
currently lose_sum: 0.08004108816385269
time_elpased: 3.45
#iterations: 421
currently lose_sum: 0.06878279894590378
time_elpased: 3.406
#iterations: 422
currently lose_sum: 0.04956049472093582
time_elpased: 3.371
#iterations: 423
currently lose_sum: 0.1059192419052124
time_elpased: 3.332
#iterations: 424
currently lose_sum: 0.06395411491394043
time_elpased: 3.376
#iterations: 425
currently lose_sum: 0.052761804312467575
time_elpased: 3.421
#iterations: 426
currently lose_sum: 0.21054816246032715
time_elpased: 3.46
#iterations: 427
currently lose_sum: 0.1333134025335312
time_elpased: 3.437
#iterations: 428
currently lose_sum: 0.042130354791879654
time_elpased: 3.42
#iterations: 429
currently lose_sum: 0.06623256951570511
time_elpased: 3.392
#iterations: 430
currently lose_sum: 0.1755039095878601
time_elpased: 3.422
#iterations: 431
currently lose_sum: 0.04797577112913132
time_elpased: 3.692
#iterations: 432
currently lose_sum: 0.033378686755895615
time_elpased: 3.942
#iterations: 433
currently lose_sum: 0.11611757427453995
time_elpased: 3.401
#iterations: 434
currently lose_sum: 0.05899670720100403
time_elpased: 3.69
#iterations: 435
currently lose_sum: 0.2596510648727417
time_elpased: 3.715
#iterations: 436
currently lose_sum: 0.07149684429168701
time_elpased: 3.384
#iterations: 437
currently lose_sum: 0.048331212252378464
time_elpased: 3.638
#iterations: 438
currently lose_sum: 0.15164747834205627
time_elpased: 3.389
#iterations: 439
currently lose_sum: 0.07580257952213287
time_elpased: 3.379
start validation test
0.693303571429
0.889483065954
0.443950177936
0.592284866469
0.69419731119
99.270
#iterations: 440
currently lose_sum: 0.08296270668506622
time_elpased: 3.605
#iterations: 441
currently lose_sum: 0.04467223212122917
time_elpased: 3.545
#iterations: 442
currently lose_sum: 0.08283962309360504
time_elpased: 3.54
#iterations: 443
currently lose_sum: 0.0931820422410965
time_elpased: 3.556
#iterations: 444
currently lose_sum: 0.09095670282840729
time_elpased: 3.66
#iterations: 445
currently lose_sum: 0.15106788277626038
time_elpased: 3.653
#iterations: 446
currently lose_sum: 0.09900865703821182
time_elpased: 3.746
#iterations: 447
currently lose_sum: 0.16328857839107513
time_elpased: 3.557
#iterations: 448
currently lose_sum: 0.027847105637192726
time_elpased: 3.607
#iterations: 449
currently lose_sum: 0.11685235798358917
time_elpased: 3.57
#iterations: 450
currently lose_sum: 0.02350471168756485
time_elpased: 3.627
#iterations: 451
currently lose_sum: 0.04703429341316223
time_elpased: 3.545
#iterations: 452
currently lose_sum: 0.18505661189556122
time_elpased: 3.594
#iterations: 453
currently lose_sum: 0.20340636372566223
time_elpased: 3.711
#iterations: 454
currently lose_sum: 0.08680172264575958
time_elpased: 3.551
#iterations: 455
currently lose_sum: 0.182769775390625
time_elpased: 3.515
#iterations: 456
currently lose_sum: 0.09313496202230453
time_elpased: 3.837
#iterations: 457
currently lose_sum: 0.19702458381652832
time_elpased: 3.528
#iterations: 458
currently lose_sum: 0.05433971434831619
time_elpased: 3.555
#iterations: 459
currently lose_sum: 0.06357864290475845
time_elpased: 3.561
start validation test
0.694196428571
0.889875666075
0.445729537367
0.593953764078
0.695086990905
100.924
#iterations: 460
currently lose_sum: 0.1094466894865036
time_elpased: 3.532
#iterations: 461
currently lose_sum: 0.1008419618010521
time_elpased: 3.832
#iterations: 462
currently lose_sum: 0.03949933499097824
time_elpased: 3.574
#iterations: 463
currently lose_sum: 0.07544293999671936
time_elpased: 3.944
#iterations: 464
currently lose_sum: 0.29911041259765625
time_elpased: 3.727
#iterations: 465
currently lose_sum: 0.04353272169828415
time_elpased: 3.564
#iterations: 466
currently lose_sum: 0.03482703119516373
time_elpased: 3.577
#iterations: 467
currently lose_sum: 0.08959972858428955
time_elpased: 3.605
#iterations: 468
currently lose_sum: 0.08534238487482071
time_elpased: 3.531
#iterations: 469
currently lose_sum: 0.33422407507896423
time_elpased: 3.808
#iterations: 470
currently lose_sum: 0.07559661567211151
time_elpased: 3.542
#iterations: 471
currently lose_sum: 0.31073901057243347
time_elpased: 3.599
#iterations: 472
currently lose_sum: 0.040767572820186615
time_elpased: 3.675
#iterations: 473
currently lose_sum: 0.17126578092575073
time_elpased: 3.59
#iterations: 474
currently lose_sum: 0.07819218188524246
time_elpased: 3.592
#iterations: 475
currently lose_sum: 0.22233760356903076
time_elpased: 3.632
#iterations: 476
currently lose_sum: 0.03301128000020981
time_elpased: 3.57
#iterations: 477
currently lose_sum: 0.08888596296310425
time_elpased: 3.554
#iterations: 478
currently lose_sum: 0.13336782157421112
time_elpased: 3.526
#iterations: 479
currently lose_sum: 0.07727139443159103
time_elpased: 3.551
start validation test
0.695535714286
0.891843971631
0.447508896797
0.595971563981
0.696424699295
101.606
#iterations: 480
currently lose_sum: 0.05758340284228325
time_elpased: 3.636
#iterations: 481
currently lose_sum: 0.05530218407511711
time_elpased: 3.546
#iterations: 482
currently lose_sum: 0.03842141106724739
time_elpased: 3.549
#iterations: 483
currently lose_sum: 0.05053688958287239
time_elpased: 3.528
#iterations: 484
currently lose_sum: 0.10223925113677979
time_elpased: 3.717
#iterations: 485
currently lose_sum: 0.026755839586257935
time_elpased: 3.563
#iterations: 486
currently lose_sum: 0.14175419509410858
time_elpased: 3.539
#iterations: 487
currently lose_sum: 0.04872933775186539
time_elpased: 3.557
#iterations: 488
currently lose_sum: 0.056369565427303314
time_elpased: 3.521
#iterations: 489
currently lose_sum: 0.05791568011045456
time_elpased: 3.532
#iterations: 490
currently lose_sum: 0.04884003847837448
time_elpased: 3.552
#iterations: 491
currently lose_sum: 0.11211727559566498
time_elpased: 3.547
#iterations: 492
currently lose_sum: 0.07516665756702423
time_elpased: 3.837
#iterations: 493
currently lose_sum: 0.09074904024600983
time_elpased: 3.553
#iterations: 494
currently lose_sum: 0.047959767282009125
time_elpased: 3.533
#iterations: 495
currently lose_sum: 0.06970419734716415
time_elpased: 3.518
#iterations: 496
currently lose_sum: 0.13923470675945282
time_elpased: 3.553
#iterations: 497
currently lose_sum: 0.039425380527973175
time_elpased: 3.785
#iterations: 498
currently lose_sum: 0.08403918892145157
time_elpased: 3.567
#iterations: 499
currently lose_sum: 0.11953093111515045
time_elpased: 3.581
start validation test
0.689732142857
0.890710382514
0.435053380783
0.584578601315
0.690644969961
106.348
#iterations: 500
currently lose_sum: 0.03513767570257187
time_elpased: 3.579
#iterations: 501
currently lose_sum: 0.057168327271938324
time_elpased: 3.517
#iterations: 502
currently lose_sum: 0.2656915783882141
time_elpased: 3.505
#iterations: 503
currently lose_sum: 0.1232176274061203
time_elpased: 3.572
#iterations: 504
currently lose_sum: 0.026942286640405655
time_elpased: 3.517
#iterations: 505
currently lose_sum: 0.09588979184627533
time_elpased: 3.504
#iterations: 506
currently lose_sum: 0.08970770984888077
time_elpased: 3.845
#iterations: 507
currently lose_sum: 0.05339483171701431
time_elpased: 3.56
#iterations: 508
currently lose_sum: 0.10593786090612411
time_elpased: 3.51
#iterations: 509
currently lose_sum: 0.216973215341568
time_elpased: 3.692
#iterations: 510
currently lose_sum: 0.04385632649064064
time_elpased: 3.515
#iterations: 511
currently lose_sum: 0.0856991857290268
time_elpased: 3.519
#iterations: 512
currently lose_sum: 0.15078014135360718
time_elpased: 3.496
#iterations: 513
currently lose_sum: 0.058707285672426224
time_elpased: 3.799
#iterations: 514
currently lose_sum: 0.03239741921424866
time_elpased: 3.543
#iterations: 515
currently lose_sum: 0.018277758732438087
time_elpased: 4.016
#iterations: 516
currently lose_sum: 0.20743849873542786
time_elpased: 3.487
#iterations: 517
currently lose_sum: 0.06246991083025932
time_elpased: 3.536
#iterations: 518
currently lose_sum: 0.25922292470932007
time_elpased: 3.787
#iterations: 519
currently lose_sum: 0.028815096244215965
time_elpased: 3.635
start validation test
0.689732142857
0.899441340782
0.429715302491
0.581577363034
0.690664102858
110.404
#iterations: 520
currently lose_sum: 0.09289805591106415
time_elpased: 3.802
#iterations: 521
currently lose_sum: 0.09833700954914093
time_elpased: 3.738
#iterations: 522
currently lose_sum: 0.07566249370574951
time_elpased: 3.553
#iterations: 523
currently lose_sum: 0.04138414189219475
time_elpased: 3.587
#iterations: 524
currently lose_sum: 0.08435332775115967
time_elpased: 3.851
#iterations: 525
currently lose_sum: 0.13662497699260712
time_elpased: 3.602
#iterations: 526
currently lose_sum: 0.07759517431259155
time_elpased: 3.582
#iterations: 527
currently lose_sum: 0.03738564997911453
time_elpased: 3.546
#iterations: 528
currently lose_sum: 0.12444891780614853
time_elpased: 3.517
#iterations: 529
currently lose_sum: 0.03722340241074562
time_elpased: 3.565
#iterations: 530
currently lose_sum: 0.1307011842727661
time_elpased: 3.663
#iterations: 531
currently lose_sum: 0.10269781202077866
time_elpased: 3.605
#iterations: 532
currently lose_sum: 0.06750525534152985
time_elpased: 3.748
#iterations: 533
currently lose_sum: 0.12481451034545898
time_elpased: 3.781
#iterations: 534
currently lose_sum: 0.07583089172840118
time_elpased: 3.552
#iterations: 535
currently lose_sum: 0.15151357650756836
time_elpased: 3.579
#iterations: 536
currently lose_sum: 0.09031271934509277
time_elpased: 3.523
#iterations: 537
currently lose_sum: 0.10618430376052856
time_elpased: 3.574
#iterations: 538
currently lose_sum: 0.2606380581855774
time_elpased: 3.672
#iterations: 539
currently lose_sum: 0.15211041271686554
time_elpased: 3.531
start validation test
0.679464285714
0.899606299213
0.406583629893
0.560049019608
0.680442352581
116.674
#iterations: 540
currently lose_sum: 0.10473467409610748
time_elpased: 3.579
#iterations: 541
currently lose_sum: 0.07335890084505081
time_elpased: 3.947
#iterations: 542
currently lose_sum: 0.09881867468357086
time_elpased: 3.624
#iterations: 543
currently lose_sum: 0.10168496519327164
time_elpased: 3.551
#iterations: 544
currently lose_sum: 0.11382390558719635
time_elpased: 3.586
#iterations: 545
currently lose_sum: 0.17725738883018494
time_elpased: 4.209
#iterations: 546
currently lose_sum: 0.09876494109630585
time_elpased: 3.662
#iterations: 547
currently lose_sum: 0.26868852972984314
time_elpased: 3.556
#iterations: 548
currently lose_sum: 0.14404471218585968
time_elpased: 3.573
#iterations: 549
currently lose_sum: 0.05122346803545952
time_elpased: 3.633
#iterations: 550
currently lose_sum: 0.08891841769218445
time_elpased: 3.566
#iterations: 551
currently lose_sum: 0.03784198686480522
time_elpased: 3.496
#iterations: 552
currently lose_sum: 0.05509702116250992
time_elpased: 3.554
#iterations: 553
currently lose_sum: 0.18634311854839325
time_elpased: 3.57
#iterations: 554
currently lose_sum: 0.1386716067790985
time_elpased: 3.497
#iterations: 555
currently lose_sum: 0.0908704549074173
time_elpased: 3.539
#iterations: 556
currently lose_sum: 0.17240343987941742
time_elpased: 3.56
#iterations: 557
currently lose_sum: 0.04674612730741501
time_elpased: 3.791
#iterations: 558
currently lose_sum: 0.039761610329151154
time_elpased: 3.759
#iterations: 559
currently lose_sum: 0.05575377866625786
time_elpased: 3.584
start validation test
0.682589285714
0.905697445972
0.410142348754
0.564605021433
0.683565798033
114.485
#iterations: 560
currently lose_sum: 0.03414132073521614
time_elpased: 3.6
#iterations: 561
currently lose_sum: 0.04437108710408211
time_elpased: 3.594
#iterations: 562
currently lose_sum: 0.07425139844417572
time_elpased: 3.512
#iterations: 563
currently lose_sum: 0.11454610526561737
time_elpased: 3.55
#iterations: 564
currently lose_sum: 0.291382372379303
time_elpased: 3.621
#iterations: 565
currently lose_sum: 0.05034739524126053
time_elpased: 3.96
#iterations: 566
currently lose_sum: 0.033930372446775436
time_elpased: 3.603
#iterations: 567
currently lose_sum: 0.06852760165929794
time_elpased: 3.618
#iterations: 568
currently lose_sum: 0.2592940926551819
time_elpased: 3.597
#iterations: 569
currently lose_sum: 0.0611472949385643
time_elpased: 3.742
#iterations: 570
currently lose_sum: 0.06562255322933197
time_elpased: 4.083
#iterations: 571
currently lose_sum: 0.08967503905296326
time_elpased: 3.679
#iterations: 572
currently lose_sum: 0.08257254213094711
time_elpased: 3.932
#iterations: 573
currently lose_sum: 0.04511566832661629
time_elpased: 3.592
#iterations: 574
currently lose_sum: 0.21422679722309113
time_elpased: 3.65
#iterations: 575
currently lose_sum: 0.06297866255044937
time_elpased: 4.546
#iterations: 576
currently lose_sum: 0.10549938678741455
time_elpased: 3.653
#iterations: 577
currently lose_sum: 0.1028703898191452
time_elpased: 4.257
#iterations: 578
currently lose_sum: 0.04071127623319626
time_elpased: 4.07
#iterations: 579
currently lose_sum: 0.07393449544906616
time_elpased: 3.716
start validation test
0.687053571429
0.898305084746
0.424377224199
0.576435045317
0.687995063713
115.728
#iterations: 580
currently lose_sum: 0.060709308832883835
time_elpased: 3.64
#iterations: 581
currently lose_sum: 0.027839798480272293
time_elpased: 3.606
#iterations: 582
currently lose_sum: 0.11770854145288467
time_elpased: 3.734
#iterations: 583
currently lose_sum: 0.2097255289554596
time_elpased: 3.581
#iterations: 584
currently lose_sum: 0.05327166989445686
time_elpased: 3.622
#iterations: 585
currently lose_sum: 0.13382872939109802
time_elpased: 3.535
#iterations: 586
currently lose_sum: 0.1276446282863617
time_elpased: 3.591
#iterations: 587
currently lose_sum: 0.14178034663200378
time_elpased: 3.882
#iterations: 588
currently lose_sum: 0.07048704475164413
time_elpased: 3.584
#iterations: 589
currently lose_sum: 0.11095716059207916
time_elpased: 3.646
#iterations: 590
currently lose_sum: 0.09967529028654099
time_elpased: 4.384
#iterations: 591
currently lose_sum: 0.24524815380573273
time_elpased: 3.642
#iterations: 592
currently lose_sum: 0.12965551018714905
time_elpased: 3.659
#iterations: 593
currently lose_sum: 0.2259228229522705
time_elpased: 3.691
#iterations: 594
currently lose_sum: 0.17894616723060608
time_elpased: 3.526
#iterations: 595
currently lose_sum: 0.05568275973200798
time_elpased: 3.579
#iterations: 596
currently lose_sum: 0.09929978847503662
time_elpased: 3.69
#iterations: 597
currently lose_sum: 0.11019103229045868
time_elpased: 3.576
#iterations: 598
currently lose_sum: 0.14590248465538025
time_elpased: 3.545
#iterations: 599
currently lose_sum: 0.061400193721055984
time_elpased: 3.545
start validation test
0.679910714286
0.901380670611
0.406583629893
0.560392397302
0.680890381255
121.059
acc: 0.728
pre: 0.752
rec: 0.681
F1: 0.715
auc: 0.728
