37	CID000054687
38	CID000003404
43	CID000003007
48	CID000387447
51	CID000033741
54	CID000003365
61	CID000005212
72	CID000002771
73	CID000077993
80	CID000053232
83	CID005486971
102	CID000001775
109	CID000002182
119	CID000002179
128	CID000005656
142	CID005481350
161	CID000002160
170	CID000004095
171	CID000004585
180	CID000039186
197	CID000002818
203	CID000060613
219	CID000031072
225	CID000005994
231	CID000969472
255	CID000002094
257	CID000446156
261	CID000009782
263	CID000041867
275	CID005284513
284	CID000003386
291	CID000216326
298	CID000002477
303	CID000035370
310	CID000392622
312	CID000000564
325	CID000176870
326	CID000002907
327	CID000005090
335	CID000003385
352	CID000062886
357	CID000004946
362	CID000119607
364	CID000071616
379	CID000003869
387	CID000002719
391	CID000002405
394	CID000005291
395	CID000031307
400	CID000064139
407	CID000005865
412	CID000054454
426	CID000071158
428	CID000002520
433	CID000005358
447	CID000031378
448	CID005281078
453	CID000030323
462	CID000005625
466	CID000060825
471	CID000043815
474	CID000060871
478	CID000057469
481	CID000441290
484	CID000047320
490	CID000005070
491	CID000005754
503	CID000005538
541	CID000003702
544	CID000037542
545	CID000003345
573	CID000005394
576	CID000005755
580	CID000445643
592	CID000060877
595	CID000002800
606	CID000050599
622	CID000123606
629	CID000009444
640	CID000024066
654	CID000006741
666	CID000150311
667	CID000003108
670	CID000003948
686	CID000031703
720	CID000026757
721	CID000003339
726	CID005381226
746	CID000148192
764	CID000446157
767	CID000060953
769	CID000005210
775	CID000004485
788	CID000002585
801	CID009571107
816	CID000146570
818	CID000042890
820	CID000003690
836	CID000005735
842	CID000004212
846	CID000084029
856	CID000005002
863	CID000005743
866	CID000060795
869	CID000003463
870	CID000002801
879	CID003062316
884	CID000451668
886	CID000213039
887	CID000159269
889	CID005329102
927	CID000002833
966	CID000031401
984	CID000003652
1026	CID000005453
1044	CID006445540
1094	CID010113978
1175	CID000010100
