      2 0
      9 1
      2 2
      4 3
     94 4
     13 5
      2 7
      2 8
     18 9
      1 11
     23 14
      3 17
      1 22
      2 26
      2 27
     63 29
     21 32
      3 33
      5 36
     65 37
      7 38
    103 39
    112 40
      2 41
     34 42
     12 43
     15 44
      1 45
     94 46
     41 48
     22 49
      1 50
     70 51
      2 52
      2 53
     33 54
     17 56
     19 57
     16 58
     11 59
     52 61
      1 62
     39 65
      2 66
      2 68
      2 69
     71 70
     13 71
    103 72
      3 73
     32 74
     11 75
     32 76
      4 78
      9 79
     29 80
      1 82
    113 83
     21 84
     26 90
      1 91
      2 93
      9 94
     18 95
     11 96
     26 97
      7 99
      6 100
      1 101
     47 102
     21 103
      1 104
      3 106
      3 107
      1 108
      2 109
      5 110
    173 112
      1 113
     15 114
      1 115
     49 116
     35 118
     20 120
      1 121
      5 122
      2 123
     17 124
     43 125
      3 127
     97 128
     70 129
      4 130
      1 131
     24 132
      5 133
     33 136
     75 137
      5 138
     21 139
      1 141
     76 142
      9 143
      3 144
      2 145
      5 147
      2 148
      5 151
    118 153
      6 155
    375 156
      7 157
     31 158
      5 159
      1 160
     71 161
      1 162
      1 163
     19 165
     10 166
      8 167
    176 168
     19 169
     38 170
     74 171
    148 172
      5 174
    185 175
      4 176
     50 178
     63 180
      1 181
      2 182
     10 185
      1 186
      1 187
      4 188
      2 190
      3 192
      1 193
     13 195
     67 197
      9 198
     30 201
      1 202
     49 204
      1 205
     16 207
     12 208
      1 210
      1 211
      2 213
    237 214
     28 216
      5 218
     35 220
      6 221
     16 223
     30 224
      6 225
     28 227
    109 228
      1 230
     22 231
    151 232
      1 234
     39 236
     11 237
     12 238
     10 239
     28 243
     34 244
     13 245
      1 246
     85 247
     14 252
      3 253
     22 254
     64 255
      5 256
      5 257
     47 258
     38 259
      6 260
      6 261
      1 262
     13 263
      2 265
    120 266
      1 267
    250 268
     11 270
     49 271
      2 273
      6 274
      1 275
      1 276
      7 277
      2 278
      4 279
      6 280
     56 283
     88 284
      4 286
     74 287
      2 288
      2 289
      2 290
     34 291
     13 292
     90 293
     10 294
      3 295
      4 296
     11 297
      8 298
      8 300
     16 302
     58 303
      1 304
    134 305
      1 306
      9 308
     42 309
     90 310
     20 311
      7 313
     49 314
      2 315
      3 317
      2 318
      8 319
      5 320
     22 322
      2 323
     12 325
     88 326
    131 327
      4 328
     65 329
      9 330
     12 331
     60 332
     12 333
      2 334
     31 335
      1 338
      5 339
      1 341
      6 342
    106 343
     23 345
      4 346
     28 347
      1 348
     83 350
     74 351
      1 352
     24 353
      2 354
     11 355
      4 356
     33 357
      9 358
     31 360
     24 361
     13 362
      7 363
     14 364
     44 366
      4 367
     88 368
     97 369
     22 371
      2 372
      2 374
      1 375
      4 378
      2 379
      9 381
      3 382
     17 383
      2 384
      1 385
      1 386
      3 387
     66 391
      1 392
     32 394
     29 395
      2 397
      1 398
     11 399
     26 400
      1 401
     61 402
      6 403
    170 404
      7 405
    146 407
      1 411
    416 412
     16 413
      5 415
     19 417
     14 418
      1 421
     17 422
      2 423
     46 424
      3 425
     19 427
     36 428
      6 432
     25 433
      1 435
      6 437
      3 438
     66 439
      9 442
    171 443
     13 444
      4 445
      1 446
      5 447
     47 448
      3 449
      1 450
     11 453
    165 454
     11 456
      8 457
      4 458
      2 459
      1 460
     29 463
      1 465
     92 466
     39 467
      2 468
      1 470
    133 471
     16 473
      8 474
      1 475
    141 477
      1 478
     37 480
      4 481
      3 483
    100 485
    121 487
      4 488
      2 489
      1 490
     25 491
      1 492
      4 493
     16 495
      1 496
      2 497
     10 499
      2 501
      1 502
     59 503
    138 506
      7 507
      7 508
     34 509
     14 510
      2 511
     14 512
     22 513
      3 514
      1 515
      2 516
     35 518
      1 519
     18 520
      1 522
      2 523
     40 526
      4 527
     29 528
     90 529
     14 530
     23 531
      4 532
     12 533
     38 534
      5 535
      2 536
     24 538
      2 539
      9 541
      1 542
      9 543
      6 544
    104 545
     20 546
     22 548
     21 550
      1 551
     88 555
      3 556
      4 557
      1 558
      1 559
     11 560
      1 561
      1 562
      6 563
     17 564
      1 566
      1 567
      1 570
      4 571
      1 572
     11 573
     17 574
    102 576
      2 577
      7 578
     71 579
     36 580
      5 582
      8 583
      2 584
      4 585
      1 586
      4 587
      1 589
     16 590
     11 591
     42 592
      1 593
     18 594
      5 596
     39 597
      7 598
      2 599
     12 600
      1 601
      9 603
     38 604
      1 605
     25 606
      1 608
     29 609
      6 610
      5 611
      9 612
     11 614
      1 615
      7 617
      9 619
     36 620
      1 623
     19 624
     32 625
     50 628
      4 629
     16 630
      3 631
      2 633
      2 635
     78 639
      1 640
    494 641
      4 642
      3 643
     35 645
      4 646
      1 647
      5 648
    137 651
     11 652
     29 653
     42 654
      3 655
      3 656
      1 657
     26 659
      6 660
      1 661
      6 663
      1 664
      1 665
    117 666
     22 667
     14 668
     70 669
      1 670
      2 672
      8 673
     31 674
     36 677
      5 679
     12 680
      3 681
     29 682
      1 684
    125 685
     61 686
    141 688
    134 689
      2 692
      8 693
     21 694
     11 696
      4 697
      3 700
      1 701
     28 702
     35 703
      9 704
      2 705
     26 707
      5 708
      4 709
     14 710
     11 711
      6 712
     25 714
      4 715
      9 717
     19 719
     60 721
     35 722
     40 723
     14 724
      4 725
     11 726
      1 727
      2 728
     27 729
    156 731
      5 732
      1 733
      1 734
      5 735
     69 736
      6 737
      2 739
     23 741
    109 742
     19 743
     38 746
     23 747
     36 749
    408 750
      3 751
      6 753
      4 754
      5 755
     10 757
      1 759
     10 760
     20 762
     12 763
    176 764
      1 765
     37 767
    119 768
      3 769
      1 770
      3 771
      9 772
      3 774
     33 775
      2 776
     37 777
     17 779
      1 781
     13 782
      1 783
      6 784
     33 785
      2 786
     33 787
     62 788
     55 789
      3 793
      1 796
      3 798
      1 799
     80 802
      9 805
      4 807
      8 808
     17 809
      3 810
      4 811
      1 812
      1 813
     10 815
     76 816
      2 817
      4 818
     10 820
      1 821
     10 822
      6 823
      2 825
      3 826
     19 828
      4 830
      2 831
      2 832
      4 833
      6 835
     22 836
      2 838
     48 840
      4 841
      3 842
     70 846
     26 847
      2 848
     14 849
     17 850
      2 853
     51 854
    115 856
     36 858
      1 859
      7 861
     20 862
    132 863
     29 864
     11 865
     52 866
     11 868
     26 869
      3 870
      1 872
     30 874
      1 875
      6 879
      9 880
     14 881
     34 883
      2 884
      3 885
     20 886
      5 887
     17 888
     36 889
     81 890
      6 892
      2 893
      3 896
      8 899
      5 900
      1 901
      3 903
      3 908
      1 909
     47 911
     44 913
      3 918
     45 920
     10 921
     11 922
      8 923
      2 924
      3 926
     13 927
     46 928
      2 932
      4 933
     51 936
      4 939
      1 941
      1 942
      3 945
     12 946
      7 948
      4 949
      1 950
      3 952
     10 953
      3 956
      5 958
      2 959
      1 960
     12 963
     11 966
      4 967
     15 969
     10 970
     23 971
      7 973
      5 974
      5 975
     37 978
      5 980
     14 982
      3 983
      8 984
      2 986
      1 987
      1 991
      1 992
      1 993
      1 994
      1 995
      1 997
      1 1002
     18 1005
      8 1021
      1 1024
      2 1026
      5 1028
      1 1033
      2 1034
      2 1037
      3 1039
      2 1044
     11 1045
      5 1046
     12 1047
      1 1048
      6 1049
      1 1052
      1 1056
      6 1057
      2 1059
      2 1061
      1 1062
      1 1063
      3 1065
      1 1067
      2 1068
      2 1069
      1 1072
      1 1074
      4 1076
      5 1077
      2 1080
      9 1081
      3 1082
      7 1087
     14 1088
      4 1089
     13 1091
      1 1092
      8 1093
      4 1094
      3 1098
     32 1101
     18 1104
      1 1105
      2 1110
     15 1111
      1 1115
     12 1116
      1 1117
      1 1120
      1 1121
      2 1122
      5 1123
      2 1125
     24 1127
      1 1129
      2 1134
      1 1141
      6 1143
     11 1144
      1 1145
      2 1149
      2 1150
      2 1151
      1 1152
      1 1154
      2 1155
     15 1156
      1 1157
      2 1158
     10 1159
      1 1160
      1 1161
     17 1162
      6 1163
      8 1164
      1 1168
      4 1169
      2 1170
      1 1171
      2 1172
      3 1173
      1 1174
     20 1175
     17 1176
