      4 0
     10 1
      2 2
      5 3
     87 4
     15 5
      3 7
      3 8
     16 9
     17 14
      5 17
      1 20
      1 22
      5 26
      2 27
     55 29
     21 32
      4 33
      4 36
     61 37
      7 38
     96 39
    111 40
      2 41
     30 42
     11 43
     13 44
     85 46
     44 48
     22 49
     71 51
      2 52
      1 53
     37 54
     14 56
     21 57
     12 58
     11 59
     48 61
      1 62
     40 65
      5 66
      2 68
      3 69
     71 70
     10 71
    101 72
      2 73
     30 74
      8 75
     36 76
      4 78
     12 79
     29 80
    106 83
     21 84
     25 90
      1 91
      2 93
      6 94
     20 95
     11 96
     26 97
      8 99
      5 100
      1 101
     52 102
     20 103
      1 104
      3 106
      4 107
      1 109
      2 110
    164 112
     12 114
      2 115
     48 116
     33 118
      1 119
     19 120
      1 121
      5 122
      2 123
     18 124
     46 125
      2 127
    101 128
     77 129
      5 130
     24 132
      7 133
     33 136
     68 137
      4 138
     21 139
     78 142
      7 143
      4 144
      2 145
      3 147
      2 148
      4 151
    116 153
      4 155
    363 156
      4 157
     35 158
      5 159
      1 160
     69 161
      1 162
      1 163
     19 165
     10 166
      8 167
    180 168
     21 169
     38 170
     80 171
    159 172
      5 174
    191 175
      3 176
     47 178
     62 180
      1 181
      3 182
     11 185
      2 186
      1 187
      3 188
      1 190
      3 192
      1 193
     11 195
     68 197
      9 198
     35 201
      1 202
     49 204
      1 205
     14 207
     15 208
      6 210
      1 211
      3 213
    239 214
     27 216
      6 218
      1 219
     39 220
     10 221
     14 223
     34 224
      7 225
     30 227
    108 228
     19 231
    139 232
      2 233
      1 234
     42 236
     10 237
     13 238
      9 239
     32 243
     35 244
      8 245
      1 246
     94 247
      1 248
     18 252
      4 253
     22 254
     70 255
      5 256
      4 257
     46 258
     34 259
      6 260
      9 261
     13 263
      2 265
    112 266
      2 267
    256 268
      9 270
     48 271
      2 273
      6 274
      2 275
      1 276
      6 277
      2 278
      3 279
      7 280
      1 282
     55 283
     87 284
      4 286
     66 287
      2 288
      3 289
      2 290
     38 291
     16 292
     93 293
      8 294
      3 295
      4 296
      8 297
      7 298
      1 299
      5 300
     17 302
     64 303
      1 304
    130 305
      1 306
     11 308
     41 309
     93 310
     20 311
      9 313
     48 314
      2 315
      4 317
      2 318
      7 319
      4 320
     20 322
      3 323
     13 325
     89 326
    121 327
      4 328
     64 329
      9 330
     11 331
     52 332
     12 333
      2 334
     32 335
      1 338
      5 339
      6 342
     96 343
      1 344
     23 345
      5 346
     25 347
      1 348
     71 350
     74 351
      1 352
     21 353
      2 354
      7 355
      5 356
     40 357
     10 358
     31 360
     30 361
     14 362
      6 363
     13 364
     45 366
      3 367
     83 368
     91 369
     23 371
      3 372
      3 374
      1 375
      5 378
      4 379
      7 381
      2 382
     17 383
      3 384
      1 386
      3 387
     67 391
      1 392
     36 394
     26 395
      2 397
      1 398
     10 399
     26 400
      1 401
     60 402
      2 403
    171 404
      5 405
    141 407
      2 411
    420 412
     15 413
      3 415
     17 417
     10 418
      2 421
     16 422
      1 423
     45 424
      4 425
     14 427
     35 428
      8 432
     19 433
      1 435
      6 437
      2 438
     65 439
     10 442
    180 443
      8 444
      4 445
      5 447
     39 448
      3 449
      1 450
      9 453
    174 454
     11 456
      7 457
      5 458
      3 459
     30 463
      1 465
     87 466
     38 467
      3 468
      1 470
    130 471
      1 472
     14 473
      7 474
      1 475
    154 477
      1 478
     34 480
      3 481
      2 483
    111 485
    124 487
      3 488
      4 489
      1 490
     20 491
      2 492
      7 493
     16 495
      1 496
      3 497
      9 499
      1 501
      1 502
     57 503
    151 506
      7 507
      8 508
     30 509
     14 510
      3 511
     12 512
     21 513
      2 514
      2 515
      1 516
     33 518
      1 519
     17 520
      1 522
      2 523
     37 526
      5 527
     26 528
     86 529
     19 530
     23 531
      5 532
     10 533
     41 534
      5 535
      1 536
     23 538
      4 539
      8 541
      1 542
      9 543
      7 544
    108 545
     18 546
     25 548
     21 550
      1 551
     86 555
      3 556
      3 557
      1 558
     12 560
      1 561
      2 562
      5 563
     18 564
      1 566
      1 567
      1 570
      5 571
      1 572
     11 573
     15 574
    107 576
      2 577
      8 578
     72 579
     38 580
      5 582
      6 583
      2 584
      3 585
      2 586
      5 587
      1 589
     13 590
     12 591
     47 592
      1 593
     23 594
      2 595
      5 596
     44 597
      6 598
      1 599
     11 600
      1 601
     13 603
     36 604
      1 605
     24 606
      2 608
     32 609
      6 610
      3 611
      9 612
      8 614
      1 615
      7 617
      9 619
     33 620
      1 621
      1 623
     20 624
     37 625
     50 628
      5 629
     14 630
      3 631
      2 633
      1 635
     76 639
      1 640
    519 641
      4 642
      5 643
     34 645
      6 646
      1 647
      2 648
    128 651
      9 652
     25 653
     47 654
      3 655
      2 656
     25 659
      9 660
      1 661
      5 663
      1 665
    119 666
     18 667
      8 668
     75 669
      1 670
      1 671
      3 672
      7 673
     32 674
     32 677
      1 678
      6 679
     12 680
      2 681
     33 682
    120 685
     59 686
    129 688
    136 689
      1 692
      8 693
     15 694
     10 696
      2 697
      3 700
      2 701
     27 702
     33 703
     10 704
      3 705
     27 707
      5 708
      2 709
     15 710
     10 711
      5 712
     25 714
      4 715
      7 717
     17 719
     62 721
     33 722
     28 723
     11 724
      7 725
     14 726
      1 727
      2 728
     27 729
    136 731
      6 732
      1 733
      1 734
      5 735
     74 736
      8 737
      4 739
     24 741
    101 742
     23 743
     35 746
     17 747
      1 748
     35 749
    408 750
      3 751
      4 753
      4 754
      6 755
     11 757
      1 759
     12 760
     15 762
     15 763
    181 764
      1 765
      1 766
     34 767
    119 768
      3 769
      1 770
      2 771
      6 772
      5 774
     36 775
      1 776
     38 777
     23 779
      1 781
      9 782
      8 784
     38 785
      1 786
     30 787
     50 788
     53 789
      3 793
      1 794
      1 796
      2 798
      1 799
     77 802
     10 805
      1 806
      4 807
      9 808
     13 809
      6 810
      3 811
      1 812
      1 813
     14 815
     78 816
      1 817
      2 818
     12 820
      1 821
     12 822
      8 823
      1 825
      2 826
      1 827
     15 828
      3 830
      3 831
      2 832
      5 833
      7 835
     22 836
      2 838
     41 840
      3 841
      3 842
     70 846
     27 847
      4 848
     13 849
     17 850
      1 853
     49 854
    122 856
     36 858
      2 859
     10 861
     24 862
    133 863
     28 864
     14 865
     61 866
     11 868
     28 869
      2 870
     32 874
      1 875
      1 876
      6 879
     10 880
     12 881
     35 883
      3 884
      2 885
     20 886
      7 887
     17 888
     33 889
     92 890
      5 892
      2 893
      3 896
      6 899
      6 900
      1 901
      3 903
      2 908
      1 909
     48 911
     48 913
      1 915
      5 918
     41 920
     11 921
     14 922
      6 923
      2 924
      3 926
      8 927
     53 928
      1 930
      3 932
      4 933
     45 936
      3 939
      1 941
      2 942
      2 945
     11 946
      4 948
      2 949
      1 950
      2 952
      9 953
      4 956
      1 957
      5 958
      2 959
      1 960
     12 963
     11 966
      3 967
     17 969
     10 970
     21 971
      8 973
      5 974
      5 975
     40 978
      4 980
      2 981
     12 982
      1 983
      7 984
      2 986
      1 987
      1 991
      1 993
      1 994
      1 995
      1 997
      2 1002
      1 1003
     14 1005
      9 1021
      1 1024
      1 1026
      6 1028
      1 1033
      3 1034
      4 1037
      3 1039
      1 1044
     12 1045
      6 1046
     14 1047
      1 1048
      7 1049
      1 1052
      1 1056
      6 1057
      2 1059
      1 1061
      1 1062
      1 1063
      2 1065
      1 1067
      2 1068
      1 1069
      1 1072
      3 1076
      4 1077
      1 1080
     11 1081
      5 1082
      1 1083
      8 1087
     11 1088
      1 1089
     15 1091
      1 1092
      9 1093
      3 1094
      3 1098
     26 1101
     19 1104
      1 1110
     18 1111
      1 1115
      9 1116
      1 1117
      1 1120
      2 1121
      1 1122
      5 1123
      3 1125
     29 1127
      1 1129
      2 1134
      7 1143
     14 1144
      1 1145
      1 1148
      2 1149
      1 1150
      2 1151
      1 1152
      1 1154
      2 1155
     12 1156
      1 1157
      3 1158
     14 1159
      1 1160
      1 1161
     19 1162
      5 1163
      8 1164
      1 1168
      4 1169
      1 1170
      1 1171
      6 1172
      4 1173
      1 1174
     20 1175
     18 1176
      2 1178
