      2 0
     13 1
      2 2
      6 3
     95 4
     12 5
      2 7
      4 8
     18 9
      1 11
     20 14
      4 17
      1 20
      2 22
      4 26
      3 27
     64 29
     21 32
      3 33
      5 36
     64 37
     10 38
     97 39
    110 40
      1 41
     32 42
     13 43
     13 44
      1 45
     94 46
     41 48
     18 49
      1 50
     76 51
      2 52
      2 53
     35 54
     20 56
     17 57
     11 58
     10 59
     47 61
      1 62
     38 65
      4 66
      2 69
     72 70
     11 71
    101 72
      4 73
     29 74
      8 75
     35 76
      3 78
      9 79
     26 80
      1 82
    120 83
     19 84
     26 90
      1 91
      2 93
      9 94
     22 95
      8 96
     28 97
      5 99
      5 100
      1 101
     49 102
     19 103
      1 104
      2 106
      4 107
      1 108
      1 109
      5 110
    185 112
      1 113
     14 114
      2 115
     53 116
     33 118
      1 119
     19 120
      5 122
      2 123
     19 124
     41 125
      2 127
     99 128
     77 129
      3 130
      1 131
     24 132
      6 133
     40 136
     68 137
      3 138
     20 139
      1 141
     77 142
     10 143
      6 144
      1 145
      5 147
      1 148
      1 150
      6 151
    113 153
      2 155
    379 156
      7 157
     35 158
      4 159
      1 160
     58 161
      1 163
     20 165
     10 166
      9 167
    180 168
     21 169
     36 170
     80 171
    155 172
      4 174
    199 175
      5 176
     48 178
     63 180
      1 181
      3 182
     10 185
      2 186
      1 187
      3 188
      3 190
      4 192
      1 193
     12 195
     63 197
      5 198
     31 201
      2 202
     49 204
     16 207
     11 208
      4 210
      1 211
      3 213
    245 214
     27 216
      5 218
      1 219
     30 220
     12 221
     14 223
     29 224
      6 225
     29 227
    102 228
      1 230
     21 231
    151 232
      3 233
      2 234
     40 236
     12 237
     13 238
      8 239
     30 243
     30 244
     11 245
      1 246
     85 247
      1 248
     15 252
      3 253
     25 254
     68 255
      4 256
      5 257
     48 258
     35 259
      7 260
      9 261
      1 262
     11 263
      2 265
    120 266
      2 267
    234 268
     10 270
     49 271
      4 274
      3 275
      1 276
      5 277
      3 278
      3 279
      8 280
      1 282
     53 283
     82 284
      6 286
     66 287
      3 288
      2 289
      1 290
     35 291
     15 292
     86 293
     10 294
      2 295
      4 296
     12 297
      8 298
      1 299
      9 300
     13 302
     60 303
    121 305
      1 306
     10 308
     37 309
     90 310
     18 311
      9 313
     46 314
      1 315
      1 316
      3 317
      2 318
      5 319
      2 320
     20 322
      4 323
     14 325
     80 326
    130 327
      3 328
     54 329
      6 330
      7 331
     60 332
      9 333
      1 334
     30 335
      4 339
      1 341
      5 342
     98 343
      1 344
     20 345
      8 346
     31 347
      1 348
     86 350
     74 351
     22 353
      2 354
     12 355
      5 356
     35 357
     10 358
     24 360
     27 361
     16 362
      9 363
     13 364
     41 366
      4 367
     76 368
     95 369
     27 371
      3 372
      3 374
      2 375
      2 378
      3 379
      8 381
      3 382
     20 383
      4 384
      1 385
      1 386
      3 387
     69 391
      2 392
     30 394
     28 395
      2 397
     11 399
     30 400
     57 402
      6 403
    171 404
      5 405
    144 407
      3 411
    415 412
     15 413
      5 415
     17 417
     18 418
      2 421
     19 422
      2 423
     47 424
      3 425
     10 427
     38 428
      7 432
     19 433
      6 437
      4 438
     65 439
      6 442
    174 443
     12 444
      3 445
      2 446
      3 447
     49 448
      2 449
      1 450
     11 453
    173 454
      9 456
     10 457
      5 458
      3 459
      1 460
     32 463
      1 465
     85 466
     36 467
      2 468
    123 471
      1 472
     15 473
      9 474
      1 475
    153 477
     33 480
      4 481
      4 483
    103 485
    117 487
      4 488
      2 489
      2 490
     21 491
      2 492
      3 493
     12 495
      1 496
      1 497
      6 499
      2 501
      1 502
     61 503
    134 506
      4 507
      6 508
     28 509
     16 510
      3 511
     17 512
     18 513
      2 514
      2 515
      2 516
     41 518
     19 520
      1 522
      2 523
     43 526
      5 527
     30 528
     88 529
     15 530
     24 531
      3 532
     12 533
     36 534
      5 535
      2 536
     19 538
      4 539
     11 541
      1 542
     10 543
      5 544
    106 545
     12 546
     27 548
     22 550
      1 551
     84 555
      2 556
      4 557
      1 558
      1 559
     12 560
      1 561
      3 562
      7 563
     15 564
      1 566
      1 567
      1 570
      6 571
      1 572
      8 573
     18 574
    108 576
      2 577
      9 578
     72 579
     40 580
      3 582
      7 583
      1 584
      4 585
      2 586
      4 587
      1 589
     19 590
     12 591
     43 592
      1 593
     17 594
      1 595
      5 596
     37 597
      9 598
      2 599
     12 600
      1 601
     10 603
     38 604
     29 606
      1 608
     26 609
      6 610
      4 611
      8 612
     13 614
      2 615
      8 617
      8 619
     32 620
      2 623
     27 624
     29 625
     56 628
      6 629
     13 630
      3 631
      2 633
      2 635
     71 639
    504 641
      5 642
      5 643
     32 645
      5 646
      5 648
    124 651
     11 652
     33 653
     42 654
      2 655
      3 656
      1 657
     23 659
      7 660
      1 661
      4 663
      1 664
      1 665
    120 666
     24 667
     14 668
     85 669
      1 671
      2 672
      6 673
     28 674
     39 677
      1 678
      5 679
      7 680
      2 681
     30 682
      1 684
    116 685
     58 686
    138 688
    124 689
      2 692
      8 693
     19 694
     13 696
      3 697
      1 699
      3 700
      2 701
     28 702
     36 703
      9 704
      2 705
     29 707
      5 708
      4 709
     16 710
     12 711
      4 712
     23 714
      3 715
     10 717
     16 719
     58 721
     35 722
     39 723
     12 724
      4 725
     13 726
      1 727
      2 728
     26 729
    151 731
      5 732
      1 733
      4 735
     73 736
      7 737
      4 739
     27 741
    105 742
     21 743
     37 746
     23 747
      1 748
     39 749
    419 750
      3 751
      6 753
      4 754
      6 755
     11 757
      1 759
     10 760
     22 762
     12 763
    168 764
      1 765
      1 766
     30 767
    125 768
      2 769
      1 770
      3 771
      8 772
      3 774
     42 775
      3 776
     39 777
     20 779
     13 782
      1 783
      8 784
     35 785
      3 786
     28 787
     52 788
     56 789
      4 793
      1 794
      1 796
      4 798
      1 799
     79 802
     11 805
      1 806
      4 807
      9 808
     16 809
      6 810
      4 811
      2 813
     14 815
     79 816
      2 817
      5 818
     11 820
      1 821
     17 822
      8 823
      2 825
      3 826
      1 827
     18 828
      3 830
      3 831
      1 832
      3 833
      6 835
     29 836
     42 840
      5 841
      2 842
     72 846
     27 847
      3 848
     15 849
     18 850
      2 853
     43 854
    116 856
     36 858
      1 859
      8 861
     19 862
    127 863
     21 864
     14 865
     58 866
      1 867
     12 868
     27 869
      2 870
      1 872
     26 874
      1 875
      1 876
      7 879
     10 880
     12 881
     38 883
      3 884
      2 885
     19 886
      6 887
     19 888
     31 889
     86 890
      6 892
      2 893
      2 896
      9 899
      4 900
      1 901
      2 903
      4 908
      1 909
     45 911
     42 913
      1 915
      4 918
     39 920
     12 921
     11 922
      6 923
      2 924
      4 926
     15 927
     49 928
      1 930
      4 932
      2 933
     48 936
      4 939
      2 941
      2 942
      4 945
     13 946
      4 948
      6 949
      1 950
      3 952
     11 953
      4 956
      1 957
      5 958
      1 959
      1 960
     13 963
     13 966
      4 967
     14 969
      8 970
     26 971
      8 973
      5 974
      5 975
     41 978
      4 980
      1 981
     12 982
      3 983
      9 984
      1 986
      1 987
      1 991
      1 992
      1 993
      1 994
      1 995
      1 997
      1 1002
      1 1003
     22 1005
      1 1018
      9 1021
      1 1024
      1 1026
      6 1028
      1 1033
      3 1034
      3 1037
      6 1039
      2 1044
      8 1045
      6 1046
     11 1047
      1 1048
      6 1049
      1 1052
      1 1056
      5 1057
      2 1059
      1 1061
      1 1063
      3 1065
      1 1067
      1 1068
      2 1069
      1 1072
      1 1074
      3 1076
      6 1077
      2 1080
      9 1081
      1 1082
      1 1083
      7 1087
     10 1088
      3 1089
     13 1091
      1 1092
      5 1093
      5 1094
      2 1098
     26 1101
     22 1104
      1 1105
      1 1110
     21 1111
      1 1115
     13 1116
      1 1117
      1 1120
      2 1122
      4 1123
      2 1125
     26 1127
      1 1129
      1 1134
      1 1141
      5 1143
     10 1144
      1 1145
      1 1148
      2 1150
      2 1151
      2 1152
      2 1154
      2 1155
     11 1156
      1 1157
      2 1158
     15 1159
      1 1161
     19 1162
      6 1163
      7 1164
      1 1168
      3 1169
      2 1170
      1 1171
      5 1172
      3 1173
      1 1174
     19 1175
     16 1176
      2 1178
