113 126 157 229 253 294 346 546 592 626 768 1176
52 71 96 154 169 172 173 198 211 310 358 425 444 455 458 478 642 690 704 738 751 769 788 857 931
269 405
172 732 868
330 549
413 713
330 413
15 33 103 405 533
40 113 642
157 343
173 864
80 333 687 864
129 765
77 169 176 891
369 539 624 629 1084 1163
215 217 244 642 722 789
413 778 884
367 369 392 413 580 642 668 1006
57 646 726
38 413 751 765
40 58 113 215 351 413 455 642 689
405 667
77 169 256 413 642
130 344
689 751
66 256 380 408 413 599
157 443
75 929
229 514 737 912
121 224
413 478 667 686 789
15 405
169 237 413 722 751 765 788
91 467 730
549 751
58 705 737
33 464 642
413 778 1046
444 763 790
66 751
261 475 967
181 328 732
215 565 751
392 507 535 1048
47 129 157 330 428 488 546 626 652 686 726 790
233 247 488 580
405 769
157 546 652 690
267 575
157 176 229 689
507 535 1162
413 507 642
248 262 425 464 472 765 849 867 884 922
396 405 408 764
396 669
81 667
169 367 369
9 10 244 267 455 475 751 922 967
84 113 125 173 288 738
126 229 644
40 1144
159 769
351 678
55 330 413 488
425 751
38 507 751
157 306 405
120 157 160 248 249 318 365 474 488 498 509 621 678 817 819 824 863 864 981
311 468 629 646 979
77 169 704
764 995
222 248
722 751
137 346 670 769
248 743 744 847 867 974
488 737 751 847 923
440 912 1145
129 285 405 425 478 652
311 467 607 730 979
137 472 670
84 233 297 686 912
113 328 413 488
144 176 413 809 1006 1165
55 66 73 85 98 117 129 137 157 162 232 233 373 425 455 556 621 652 655 670 701 743 786 803 857
173 478 751
269 478
18 72 369 455 539 660 1163
38 269 405
751 765
80 494 531
41 217 689 789
15 181 444
667 689 751
507 1034
173 413 667
5 328 408 577 817 929
57 298
229 413
113 176 224 413 530 556
113 413 507 532 642
413 667 1157
5 71 113 408 449 507 642 686 763
52 129 233 424 468 626
81 84 115 269 405 408 455 472 478 689
256 440 455
73 130 267 284 405 604 817
5 38 41 455 577 642 683
245 259 703
6 73 269 306 535
84 595 751
169 440 751
115 618 711
333 519 687 821
10 67 214 267 362 530 642 708 790 967
172 472 769
40 392 1157
176 293 751
405 472
162 173 217 328 425 472 478 492 689
642 946
646 751
84 157 306 556 652
27 157 159 285
143 259 311 418 467 593 703 979
98 743 1105
38 217 248 294 358 947 1022 1163
41 405 751
58 504 829
176 330 440 642 851 983
81 233 380 742 934 1117
84 162 233
233 405 817
73 173 284 370 580 640
478 722
179 472 629 686
229 681 1111
168 847
176 202
5 413 486
173 507 642
139 657
38 765
173 215 244 455 642 660
113 403 413 478
392 413
38 722
81 440 444 765
173 642 751
58 413
413 444 810
2 27 55 413 478 513 720 806
181 269 405
41 642 667
228 464
577 655 790
181 348 577
667 751 769
202 528
176 256 413 455 751 778
40 215 267 269 294 689 751 855
30 60 96 156 257 293 306 405 413
30 765
229 351
215 328 704
474 769
198 841
215 720 751
5 255 276
58 144 413 621 773 847
157 159 330
75 84 126 138 157 229 233 248 267 294 333 354 408 472 546 556 578 601 610 652 686 744 829 864 923
310 486 744
327 333 408 811
66 561
315 395
119 215 228
598 669 751
580 937
38 41 52 105 215 267 392 642
47 49
5 577 864
121 294
173 790
85 157 267 288 306 370 457 640 690
294 478 751
173 413 532
5 55 330 408
113 157 215 751
301 328 527
233 765
176 269 413 507
103 202 344 737 786
47 113 157 172 176 205 229 272 507 580 642
18 405
73 129 157 225 285 299 306 328 368 425 457 652 1176
169 173 237 404 478 488 667 715 751
259 504 703
228 561
41 162 169 259 269 285 413 481 527 640 642 701 780 1047
76 143 154 186 256 259 304 311 401 418 467 561 607 615 816 979 1019
751 967
154 198 233 301 346 455 510 667 690 742 857
395 604
169 256 455 704 751
642 890
445 629
214 568 575
40 472 689
769 954
413 668
157 328 642
40 215 667 1157
157 328 652 737
162 294 306 346 408 486 682 686 764
117 294
50 222 239 248 629 646 751 865 1177
280 423
66 130 157 233 306 363 556 652 803
176 181 440 642 912
157 215 642 652 667 732 751 765
157 413 507 642 667 789
413 689
10 38 72 267 362 947
81 237
269 1053
30 59 157 179 229 370 425 546 646 652 695 732 737 769 827 857
330 392 455 642 751
38 169 413 722 751 765
38 298 758
157 173 530 765
85 488 546 556 686
269 275 285 405 413 444
198 354
267 507 625 642 751 824 1006
84 370 405 527 558 640
229 233 405
413 444 667
365 413 667
117 129 732
751 959
269 405 751
211 472 620 1177
126 157 292 652 751 864
126 157 169 176 221 229 306 320 367 455 488 556 689 695 704 722 751 789
413 478 751
96 577 683
369 539 636 1163
403 751 765
77 215 413 618 817
595 751
333 687 723 864
413 486
256 751
58 751
413 449 581
181 221 455 1102
62 267 405 449 577 667 751
631 765
162 225 248 306 361 530
565 689
405 408 598
403 478
642 778 1046
154 352 816
157 294 328 472 530 642 704 732
181 367
545 625 817 823
169 269 715 751
33 40 49 126 229 269 370 400 413 444 455 667 723 864
358 472 556
510 646
137 488 670 1112
75 215 248 405 413 690 742 847
428 546 686 743
40 328 413
73 413 478
52 751 891
269 468 851 921
79 418 607
413 751
41 169 605
530 1145
6 642
41 215 344 352 372 642 953
392 444 577 642 751
157 405 408 598
40 215 751
352 405 816
121 284 405 408 690
47 85 113 172 176 233 267 285 306 328 455 510 621 658 769
173 215 564 642 689 751 810
71 129 667 736 765
154 171
5 577 928
169 413 667 780
126 229 405
215 244 365 790 810 847
285 867 914
668 751
113 507 642 667
440 1050
62 217 233 245 472 530 626 689 803
129 176 751 891
117 352 556
157 577
66 157 159
654 882
40 169 237 751
96 157 173 215 306 546 642
884 1048
103 751
413 857
40 215 233 267 444 947
468 1170
229 269
113 162 507 557 751
84 850
228 358
52 176 288 510 789
38 173 403 642
256 478 642 751
358 478 751
260 323 601 655 775
157 159 488 929
113 269 765
41 413 642 751 780
392 751
405 408
39 113 152 215 269 272 284 408 413 459 496 580 595 597 642
113 137 157 269 354 512 670 690 750 842
47 71 85 126 157 176 229 244 245 248 285 455 472 488 530 546 556 580 644 652 681 695 769 803 972
444 751
169 328 413 631
52 81 233 269 334 580 592 847
176 392 413 507 847
408 790
47 157 162 246 294 328 425 652 686 732
237 478 512 704
233 488 642
126 229 269 695 851 859
468 751
137 202 354 670
575 642
403 765
198 486 837
73 84 125 686 900 1156
116 215 233 361 488 609
129 143 173 545 593 642 765 1128
157 170 176 535 642 675 689 690 807
269 413 642 667
33 37 405 468 527 921
40 169 413 507 667 884
260 859
41 95 259 413 481 642 708 789
513 783
162 343 370 405 626 640 690
107 239 320 504 705 829
535 642 751
10 269
143 262 272 311 467 593 730 901
237 328 751
326 751
95 113 176 413 455 481 507 708 893
486 960
41 104 157 176 269 285 364 392 481 507 599 642 708 711 751
172 259 346 413
179 284 370 408
211 310 914
169 478 689 751
104 320 504
214 575
47 71 96 172 233 488 612 629 799 803 817
215 405 527
269 681
358 751
143 475
478 642 751
47 129 157 179 232 248 267 294 405 455 458 652 971
267 751
395 786 1177
742 765
104 496 686 689 743 786 817
129 233 346
41 751 1077
157 248 328 652
169 621 737
6 71 152 215 455 769 786 842
157 306 428 457 472 652
403 642 788
269 472 751
73 294
867 954
39 172
358 507
5 928
215 595 642 751
96 504
472 813
362 597 786
575 646
15 30 39 248 267 369 539 743 922 947 1163
173 285 769 776
38 221 311 369 392 401 444 901 1128
530 642 667
52 297
285 750
113 642 765
507 715 765
413 683
229 233
44 84 625 823 964
646 722
66 330 372
52 288 468 686 732 743 786
176 405 413
215 269 488 751
351 413 577 685
40 440 629 837
233 556 625 823
269 344 486 502 556 686 841
269 405 468
143 311 730 747
55 577 581 970
326 591
743 937
55 259 413 507
169 413 736 780
176 405 413 440
128 169 237 704
455 577 629
751 946
763 870
176 215 269 413 532 642 732 737
162 472 744
41 55 169 173 259 413 507 703 780
47 84 198 310
405 695
43 55 62 75 126 129 138 157 166 171 176 225 229 233 248 278 290 294 306 400 408 457 500 546 556 626 629 652 686 737 790
169 413 667
157 159 405 530 577 775 837
84 129 157 288 408 478 689
81 751
413 722 751
41 176 181 255 392 642 765
215 413 565 725 751
176 229
193 769
354 413 514 535 558 642 737 789 847 855 870
413 667 689
344 405 769 857 914
686 715
117 154 769
486 544 954 974
154 233 267 440 486 544 604 737 776 847 912 933
77 169 413
173 215 326 413 642 667
269 413 642
145 669
157 652 743 857
52 974
159 732
41 52 413 642 668
215 455 478 765 891 912
85 166 256 267 306 361 556 720 738 928 1078
297 546
47 681 842
176 405 408
726 790
162 765
176 1078
97 172 198 248 857 914
137 157 670 732
751 836
288 625 743 823 831
413 478 642 667
157 176 233 245 267 278 279 299 408 434 504 750 751
269 488 765
269 405 468 488 786 921
40 119 162 173 181 215 255 285 413 472 478 542 732 743 841
84 96 104 126 157 183 229 294 362 405 481 561 592 598 642 751 783
47 71 126 138 157 225 229 382 396 488 527 546 652 695 732 786 829 851
157 269 288 626 652 686 891
293 405
881 964
52 173 176 642 818 847 864 1058
103 104 138 171 221 229 486 592 790 829
84 285 857
137 267 670 690 737 847
173 751
598 803
55 269 413 751
33 38
176 405 469 478 546
38 152 478 1102
162 173 205 233 255 708
229 610
257 291 864 1069
62 217 370 492 689 690 729 790
41 455 529 642 686 789
49 157 225 259 292 306 362 642 703 864
129 130 425 891
294 507 547
327 333 351 395 492 678 687 864
269 765 836
27 172 246 732 786 806 914
269 765
41 113 413 642 1058
47 172 233 488 612 629 799 803
126 166 229 245 246 269 646 686 695 1117
176 789
44 47 472 964
113 507 642 765
33 217 405 510 547 626
73 285 472 556
38 41 173 392 444
154 330 580 655 668
113 330
173 444 822
38 478 891
39 604
80 228 331 379 494 531 723 788
75 790
43 1145
423 446
222 486 751 954
215 500 629 751 1177
173 205 288
157 579 652 732
215 272 396 405 598 640 690 711 751
6 71 170 173 253 294 328 370 408 455 640 690 786 803
351 492 678
43 330
138 253 275
392 413 884
126 157 306 444
233 306 626
535 642 765
71 670 929
41 176 392 413 444 455 481 837 847 972 1165
40 215 1144
330 732
104 354 504
154 172 256 732 743 765 914
40 215 455
351 577 683
77 128 215 369 500 598 709 974
173 413 722
55 621
577 727
176 269 751
629 829
52 224 690
71 176 255
269 722 765 778 943
103 145 181 239 309 556 629 904
6 574 768
113 413 507 642
205 486
176 1177
181 269 751
352 478
687 864 1058
138 954
30 229 921
10 38 40 215
413 667 847
162 352
129 162 233 306 732
215 217 228 455 488 510 642 689
41 157 176 392 413 957
66 179 311 629 690 855 887 984 1038 1128
176 405 492
629 668 751 967 1177
440 642 765
765 769
44 71 129 344 964
71 126 138 157 176 413 478 488 514 561 580 629 652 737 847 912 972
399 413 642
119 269 321 413 507 599 642 667 742 778 789 884
91 143 311 401 418 461 467 490 624 847 862 979
138 271 546
403 408 642
119 642 765
176 330
113 176 444 577
370 504 690
84 113 169
73 157 253 267 269 455 535 642
41 113 765
486 565
215 367 372 642
59 126 181 229 232 546 621 675 681 690 743 790 855
38 143 311 507 593 747
38 130 229 248 267 269 288 455 478 592 667 776 829
751 1006
49 269 687 864
38 810
162 652 686
765 857 914
294 369 686
154 267 288 320 344 402 652 817
215 237 478
269 667
117 129 857
488 642 751
55 157 481 488 621 642 773 981
38 413 722 751
176 269 405
41 169 642 751 780 788 884
137 157 670 1176
137 269 530 670 732
215 413 535 809
215 330 478
15 217 363 405 478 661 689 851
119 405 527 921
367 642 695 709 1111 1142
47 137 670 769
181 405
113 267 751
84 162 686
642 722
181 715
40 71 169 395 507 642 689 722 751 788
395 751
80 205 281 310 364 863
408 546 1066
173 215 629 689
143 304 311 607 747
97 98 154 169 172 173 181 215 217 248 256 258 269 285 288 369 472 486 689 769 857 867
530 577 764 922
507 667 765
71 229 306 354 368
269 403 751
173 215 751
98 129 857
113 119 642 751
77 169 237 765
5 365 408 581 591 683
113 233 507 751
352 751
455 711 890
173 215 444 667 850
632 667
113 258 272 328 530 642 646 689 732 751 836
176 301 413 507
330 988
176 413 737 847
50 303 743 865
413 736
293 405 580 921
84 546
38 413 667 751
157 233 306 686
176 215 413 532 642 732
176 328 408
269 667 751
488 642 765
689 715 751
41 285 372 413 711 758 974
157 159 295 413 429 455 478 640 642 690
478 765
41 642 765
38 125 157 173 176 205 256 478 481 486 565 642 686 689 803
40 176 233 269 983
222 310 486 544 604 629 867 954 959
96 229
359 866
138 492 549 686
255 267 695 715 974
41 507 667 751
455 478 642 751
138 472
172 556
284 370 646 690
205 914
98 171 546
157 751 790
269 281
434 488 642 667 751 1006
130 294 363 413 577 686
140 229 433
43 138
181 269 507 642 708 751
172 272 472 642
41 173 215 255 372 413 1006
52 157 369 686
154 344 352 841
359 511 577
751 783
333 678 864
215 413 751
722 765
47 85 117 154 157 169 172 225 232 248 285 299 346 425 434 478 486 521 649 686 722 743 817 836 857
269 492 1088
215 256 444 455 1048
256 507 629 642 660 776 809
169 405 765 1152
238 303
113 137 157 652 653 670 732
49 215 256 259 267 330 455 535 703 810 864 947
580 601 859 864
44 344 817 964
84 157 219 314 588
113 444 507 642 751 834 1046
267 507 642 715 765
751 786
215 689 751
130 176 233 328 472
140 433 546
294 546 736
267 408 504 653 670
504 881
113 440 642 751
187 504
41 113 157 481 507 642 652 751
215 244 392 413 542 595 642 708
233 504 646 690 732
215 535 575 751
47 73 154 198 330 737
173 444 458 642 689 720
84 444 556
253 269 743 863 891
73 144 157 159 244 259 413 444 455 532 599 642 702 778 1047
667 751
309 492 629
4 413
173 176 413 535 778
47 215 751
176 237 269 328 332 396 413 642 740 756
367 667 689
751 937
468 488
440 642 713 751
269 413 667
751 789
169 440 765
30 751
595 644 851
5 40 80 233 248 294 331 379 449 494 531 642 750 806
326 698
5 259 449 703 970
73 472 834
157 369 642
215 478 751
743 803 914
668 765
58 101 396 504 508 705 829
157 294 363
293 751
157 469 655 732 769 847 1145
199 256 395 629 704
129 968
298 488
328 429 481 562
687 1058
113 269 751
715 751
620 1145
45 85
176 235 247 384
173 372 535 667
5 351 724
330 514 621 737 912
215 413 783
30 405 900
84 103 171 267 344 626 732 841
81 870
367 413 580 642 668
41 870
513 751
121 157 219 605 737 837
327 333 408 610
40 413 667
269 653 670
71 129 751
475 888
47 299 358 396 587 626 769
642 751
41 113 413 642
41 181 413 523 594 642 870
66 160 175 239 257 259 329 333 351 514 601 610 687 703 718 737 864 912
179 328 334 370 408 642 720
369 472 539 954 1163
52 157 159 248 605 959
269 285 686
130 157 159 176 269 328 367 413
455 478 765
488 535 765
215 440 751 912
40 71 72 392 488 507 642 667 734 923
604 751 864
215 689 765
41 198 267 392 722 1089
33 129 395
41 173 642 751
47 126 199 217 229 292 306 365 444 464 510 631 686 689 723 743 756 864
113 138 176 225 288 332 361 440 455 474 510 686
403 722 765
84 444 455
129 358 472
113 642 751
405 488 577
57 85 157 176 306 817 983
229 369 924
5 413 683
137 157 179 370 640 652 670 690 744
38 472
169 478 642 765
143 157 580 593 747
119 751
52 157 306
59 84 157 652 743 891 923
413 535
359 546 549 866 909 1160
364 392 444 455 751 847 1006
84 233 1078
129 162 245 285 354 408 425 489 496 705 725 751 817
15 30 248 267 369 539 743 771 922 947 1163
100 303 620
41 256 413
167 256 269 351 367 444 751 789
267 395
369 733
403 413 642
187 269 504
41 169 413
405 447
173 507 751
113 142 176 217 294 328 369 546 689 751 769
403 413 927
157 803
358 413
47 75 84 126 138 157 229 233 248 267 294 333 354 408 472 556 578 601 610 652 686 829 864
472 486 867
157 306 328 556 652 686 957
176 527 765
113 642 704 751
39 198 1089
327 336 610 655 863
233 285 358 556
6 215 228 244 267 306 455 546 547 604
256 413 478
30 55 73 84 126 157 229 253 292 306 333 346 514 592 631 687 724 737 786 864 912 972
323 610 859
55 413
507 765
40 84 113 233 281 405 413 507 642 667 686 776
154 486 575
732 794
413 1122
55 215 292 864 922
327 601 875
45 129 173 285 358 530 743
38 403 478
43 405
434 642 921
38 173 413
140 157 361 546 773
28 71 598 921
253 395
81 113 269 478 507 597 642 742 934
440 455 629
285 867 929
330 392 455 642 751 1006
157 504
229 546 592 829 921
403 478 507 751
765 789
157 272 329 504 732
751 870
481 642 765
215 217 478 689
215 535 765
181 413
403 642 817
169 413 532
215 413 642
157 215 440 642 652 751
5 408 440 449 455 458 492 763
173 215 256 455 492 751 786 890
41 66 75 126 157 159 176 229 244 413 444 514 592 621 652 737 751 789 864 912
642 972
30 85 157 173 248 272 306 328 351 408 413 580 708 732
284 370 675
468 598
261 888
514 530 732 737 912 929
119 686 732 743 751
169 237 352 780
30 103 154 179 690 769 841
316 443
76 143 467
130 217 269 319 328 689
215 231
113 215 444 464 769 850 1102
119 169 173 215 328 403 413 642 788 789
55 157 256 259 333 351 454 580 610 864
71 751
621 751
176 221 790 806 850
785 1040
104 259 312 848
294 413
215 267 438 922
75 215 334 642 669 751 790
157 159 162 169 224 285 413 478 690
403 413 870
52 287
309 654 750 859 864
71 157 359 549 797 854 1176
181 444 1046
169 256 478 751 884
298 642 751
15 33 269 294 358 405 472 642 786 921
328 488 539 626 642
169 215 488 642 715 751 884 1157
482 549 866
334 751
157 159 228 306 428 444 652
33 103 215 429 507 667 708 751
244 595 742 765
172 358 556
256 367 392 413 455 642 848
161 358
77 169 367 413 642 689 778
47 52 159 162 176 205 472 556 743 857
75 284
145 157 205 732 769
173 444 776
311 607 979
440 507 751
38 47 157 162 328 370 472 652 686 740 847 850 860
269 689 751
646 765
269 413 765
248 434 732 817 929
117 157 615 743
269 294 444
405 689
41 413 464 507 642
84 117 157 652
173 535 642 751
173 367 413 449 581 591
113 455 776
405 413
43 55 62 75 126 129 138 157 166 171 176 225 229 233 248 278 290 294 306 400 408 457 500 546 556 626 629 652 686 790
269 405 455 690
269 405 577
258 534 722 751 765 780 1003
73 113 169 176 413
715 756 769
47 129 172 486 968
765 870
215 413 532 642 668 751
30 167 170 215 224 258 328 334 405 408 530 631 642 689 690 708 750 751 985 1117
58 154 259 344
60 285 867 914
157 306 413 429 652
215 580 751
468 765
62 129 157 162 285 306 363 413 652 686 803
472 786
129 425 686
229 405 507 751
38 751 790
362 504
255 256 267 444 530 642 751
52 440 527
43 496 817 972
269 507 642 751
661 751
71 113 248 388 507 532 642 751
77 215 751 788 884
248 478 625 823 1105
52 157 269 413
47 172 310 867
129 173
75 354
21 369 433 531 539 629 916 1163
41 95 215 259 413 481 642 708 789 1165
71 642 751
58 104 259 267 320 504 621 653 670 703 705 829
358 472 556 837
138 468
335 472 743 1155 1163
205 363 546
113 126 157 229 294 346 592 626 768 1176
259 312 848
358 803
888 1160
215 642 732
41 413 478 751
256 484
71 103 111 448 642 689 841 864 900
751 921
6 173 215 403 689
158 262 369 580
642 751 786
84 117 129 732
403 751
440 790
400 751
3 354 504 655
162 176 269 293 328 507 742
215 507 535 689 751
157 1145
327 336 864
113 215 667 751
143 259 304 401 418 467
256 292 642
2 169 642
181 507 751
217 269 405 689
478 667
96 121 176 269 306 359 370 408 556 640 690 756 769 867
72 765
47 66 130 157 176 179 205 225 266 267 272 328 330 369 396 583 652 726 738 744
41 77 169 642
95 751
10 215 370 405 444 478 689 789 900
6 395
55 312 349 848 975 976
104 559 631
215 352 841 867
38 130
172 176 444
472 556
413 1022 1050
47 85 157 173 306 642 695 1174
52 157 356 750
370 413 458 646 751 790
743 769
157 328 361 425 428 652
551 751
168 727
413 577
73 123 137 176 269 527 670 803
327 357 572 577 687 811
765 890
52 84 126 154 157 217 233 306 352 361 362 370 444 529 620 686 689 743 769
157 315 511 790
143 311 467 593 730 887
84 138 546
84 269 288 547 817
157 169 181 233 269 328 455 481 488 510 527 642 652 751 832 870
30 108 144 181 240 413 444 536 642 743 769 947 1006 1116 1165
808 848
45 405 546
176 367 413 444 597 629 642 668 912 1060
285 428 455 496 803 863
5 769
47 157 248 306 642
96 577
103 117 163 205 303 344 352 612 686 841 865
488 530 642
4 40 113 157 169 215 244 306 387 444 455 510 598 642 893 1171
215 294 334
405 408 468 752 921
71 256 364 408 429 455 510 765
138 157 166 306 310 537 546 686
66 413
169 765
504 653 670
406 581
60 137 670
580 880
40 1048
131 319 372 413 478 642 689 704
84 157 169 173 256 267 369 372 455 532 551 642 667 751 957 972
66 254
413 481 507 642
413 870
598 751
41 689
176 288 408 468
786 864
113 215 269
113 413 580 595
535 971
75 113 929
413 763
667 1144
41 47 72 113 203 267 352 356 413 455 642 954 1070
113 413 444 481 715
264 327 336 859 864
49 157 306 323 336 419
215 392 478 642 711 751 850
47 49 113 176 292 686 817 864
157 159 233 328 330 354 478 642 832
405 841
372 615 751
413 847
154 186 284 352 535 661
474 674
514 530 737 912
221 768
169 642 667
41 413 1006
41 444 455 464 642 667 751 783 789
440 884
173 751 870
765 912
311 607 730 979
695 732
81 478 891
137 284 646 670 690
125 162 306 405 455
40 77 642
73 162 169 255 413 642
33 157 328 732
507 642 751
113 667
52 157 269 405 455 472 626 652
408 413
138 311 529 577 607 686 730 790 979
173 642 765
229 921
154 450 472 857 889 953
176 751
215 455 642 765
255 413 429 580 957 1006
73 167 173 176 179 306 328 370 530 652 786
41 113 507 642
176 575
84 157 162 686
455 681
232 914
40 47 58 81 107 113 169 176 179 181 215 221 224 246 309 354 372 396 403 413 444 481 530 580 642 655 686 689 711 737 751 773 778 842 870 994
137 157 225 530 652 670 790 803
403 850
413 640 690
173 294 413 642 667 732 850
47 126 229 248 267 306 539 686
41 181 267 310 642 686
84 157 159 369 556 769
284 370 640 690 765
41 77 113 169 267 507 642 708 742 751
71 157 169 328 652 742 751
66 157 233 259 306 330 331 531 621 652 689 703
363 751
478 507 642 765
455 642 751 770 778
84 170 408 488 556 690 891 921 937
472 529
229 564
215 413 667
129 157 294 652
50 303 839 865
50 115 303 471 865
670 675 929
392 765
81 413 667
233 1163
176 765
41 413 532 642 751
405 468 598 1029
47 769 803
445 866 909
30 733 983
179 314
52 144 157 167 176 413 1006
269 413 440 912
85 143 232 248 304 311 358 400 490 561 593 722 887 1094
328 385
5 256 408 455 478 507 683 751
157 328 428 652 1176
215 532 642 751
413 440
455 642 708
38 413 1046
113 215 642 751
2 27 30 55 413 478 513 720 806
113 765
285 674
455 765
912 971
330 621
413 928
413 440 642 667 912
121 848
30 455 708 711 722 1047
34 66 175 257 259 312 333 351 396 408 492 592 629 703 718 737 848 864
47 310 486
129 504 803 817
154 172 310
751 763 765
125 138 157 160 166 652 790 981
50 565 865
84 867
413 769
208 725
176 215 256 413 535 642 1040
70 80 84 267 306 331 379 426 494 507 531 612 686 769
294 309 751
62 113 579
556 565
367 890
405 598 985
5 413 713
181 535
269 751
2 27 30 55 413 478 720 806
73 129 172 275 285 556
179 328 370 408 642 720 751
58 847
171 172 440 937
556 557
367 369
598 765
154 211 352 486 982
52 85 119 129 171 225 248 269 294 547 642 652 690 743
172 310 352
267 535
71 405 580
173 288 405 449
667 751 870
6 73 85 166 546 601 803
30 598
113 367 413
176 215 256 413 535 1040
173 765
176 181 221 527 1046 1102
176 233 328
71 84 173 179 233 361 539
41 72 215 392 413 464 507 642 847
413 500 626
176 392 413 847
215 507 642 765 1158
75 113 119 215 225 413 642
169 176 751
33 157 162 267 405 468 1176
238 751
346 661
722 751 765 884
169 413 780
73 198 310 605
181 217 328 689 751
34 154 816
413 667 870
176 577 642
765 921
81 173 181
103 157 233 285 642 652 765
176 413 642
689 751 912
333 395 577 687
10 362 369 529
176 215 413 532 642 732 737
215 275 425 646 751
113 681
176 245 269 405 496 675 769 855
565 655 725 1099
248 629 751
269 285 288
173 595 751
129 157
117 154 344 743
73 352 857
157 225 328 1176
84 233 867 1105
130 215 294 328 444 558 642 921
84 527
5 181 408 413 449 455 642
396 864
272 434
413 667 788
138 140 166
84 675 711 855 971
77 169 237 484 618
403 667 751
113 413 642 751
84 113 157 416 642 790
121 157 219 737 837
115 238 303 620
169 237 660 751
667 751 765
43 457 743
10 84 369 516 539 1163
472 646 972
403 667
113 215 408 478 689 1078
38 763
66 259 309 340 504 508 530 561 626 703 705 847 998
40 52 72 73 162 233 248 306 321 328 332 455 457 488 510 530 686 817
41 425 472 751
598 776
44 496 615 964
113 413
5 408 413 449
113 158 256 429 444 751
172 413 914
269 786
103 186 375
124 256 413 642
73 817
113 269 642 765
269 923
205 215 233 455 817 1124
413 507 660 668
440 763
84 157 642
73 169 173 215 255 344 352 367 642 668 751 780
84 732
92 157 239 245 266 504 652
59 113 244 269 380 444 609 610 756 923 1048 1102
269 405 455
267 455 890 1173
344 817 889
138 267 336 419 511 890
84 344 744 769 803 837 933
267 667 737 847
157 504 580 653 670
413 429 667
41 157 413 455 789 855 900
642 884
244 400
169 285 413 486 857
328 765
5 111 351 449 724 748
30 154 344
71 413 667
372 751
507 532 642
45 173 255 256 413 642 1040
58 413 847
143 259 401 467
169 478 642 751
215 269 405
359 546 866 909 1160
413 642
262 675 690 737 855
169 267 751
478 689 751
667 722 751
269 306
255 369 372 413 440 642 668
173 176 269 751
248 546 577 655 859
285 765
173 237 642 765
113 642 983
173 478 765
117 137 670
328 413 580
751 1046
169 413
157 267 408 472 598 764
172 352 743
129 233 248 267 284 370 513 640 667 690 891 937
751 1128
507 670 929
369 686
413 695
288 769 803 1105
98 205 215 233 455 817 1124
660 751
269 539 751
58 162 169 237 269 413 478 599 957
47 84 225 306 425 530 642 732
157 413 488 530 769
413 660 689
215 267 412 413 642 778 847 848 972
413 765 870
392 642 732 751
41 45
405 488 923
272 489 539 794 855
113 233 751
228 912
269 763
405 481
786 891
41 157 159 169 176 330 413 642 780
43 154 1145
248 284 370 640 690 1048
52 157 246 269 743
119 824
157 225 405 530 652
129 425 486 769 803
162 233 285 425 743 769 803 857 867
52 129
41 173 642 667
233 481 507 595 642 751 789 817
138 157 405 652
117 137 176 272 670 769
96 171 271 330 352 408 492 504 683
327 351 395 581
527 1040
41 217 689 751 789
205 486 544
73 267 847
157 346 580 652 670 703 929
40 248 429 444 472 642 1163 1164 1179
629 694
255 711 834
73 413
30 189
413 429 444 455
138 157 229
12 15 37 405 1117
215 267 269 478 937
398 765
395 912
58 172 486 556
575 642 776 967
336 356 429 511 532 642
579 751
113 215 221 413 478 642
2 229 307
41 413 642 778
38 413 667
121 248
129 137 162 670
751 851
38 722 751
413 737 847
269 946
199 228 364
40 52 285 306 328 580 649 769
130 732 929
344 486 817
173 233 248 267 294 363 682 817
157 344 408 985
55 157 413
507 642 971
38 173
38 128 215 444 598 642 780 847
71 157 166 229 306 354 368 546 1156
369 472 539 837 857 954 1163
38 173 507 765 776
173 215 689
169 667 704
43 138 140 268
575 751
41 117 269 413 533
580 743
455 472 642
157 167 229 271 306 405 413 642
275 335 914
367 790
667 763
76 467 730
15 284 405 468
586 675 855 937
113 817
285 486 565
47 73 172
157 294 328 363
444 531 836
556 629 816 1022
75 446 732
38 440
478 488 751
52 369 488
369 751
113 269 464 629 660 842
169 478 891
157 642 751
751 788
248 491
81 215 395 1047
478 850
143 311 593 747 927
181 403 413
113 173 328 372 455
115 527 769
73 113 157 162 221 233 256 370 472 478 556 615 640 642 743 769 789
84 269 362
476 983
181 765
455 689
130 384 405 408 598
642 708 765 776
43 166
113 253 488 885
327 610 863 875
500 534
212 580 750 864
129 405 546 695
722 1157
173 413
169 1146
49 561
157 159 162 169 285 413 478 690
259 443 703 810
306 346 457 686
413 667 765
642 660 789
575 698
413 722
405 488
154 157 642 841
38 71
73 413 478 642
642 689 751
215 267 272 372 455 507 642 660 776
401 467 607 730
57 70 75 81 108 181 256 285 408 444 455 478 580 642 669 789 893
113 642 751 1077
346 486
119 173 176 215 281 478 642 708 751
52 71 138 546 625
176 370 640 690
143 215 369 401 478 593
113 215 667
440 751 912
40 215 668 722
41 173 507 751
157 306 328 652
30 33 43 59 129 130 157 162 176 233 240 278 280 285 294 328 354 385 396 403 404 416 425 429 458 474 481 488 507 529 621 629 652 670 686 737 738 743 751 809 841 847 863 1171 1176
367 413
173 408 765
362 472 652 655 686 891
41 144 169 413 440 642 780 1006
488 667 923
176 580 1048
49 256 610
66 269 513 556 732 929
642 765 921
157 513 560 669
30 60 96 156 257 293 306 405
486 799 857
547 914
467 888
113 269 405 444 455 510 778
215 413 444
642 667
176 215 455
690 737 855
256 314 455 460 789 790 863 1177
157 285 287 472 605 732
269 660 765
138 502 857
113 440 742 890
530 776
598 667
5 33 130 157 164 205 224 284 405 626 686 690 921
193 233
655 751
179 294 328 408 472 488 507 529 737
507 642 751 789
208 584 611
60 929
478 580 642
229 751
248 468
196 260 654
269 851
30 269 332 472 556
867 972
47 85 117 129 173 248 306 363 546 626 686 803
413 455 478 642 737 789
221 478 642 751
169 173 751
39 169 245 370 425 472 478 530 642 690 751 803
370 413 640 642 690 900
40 689 751 891
157 181 248 269 306 344 486 743 750 914
513 855
100 826
513 640 690 937
215 255 413 478 751
113 208 217 233 256 295 413 660 689 704 803
41 392 413 507
547 776
38 751 765
52 157 176 743 1047
370 440 640
284 440 626 661 686 690 744 891
43 60 73 157 162 172 176 199 233 248 306 361 369 413 425 434 488 539 547 556 580 652 686 689 863 870
705 790
143 157 259 311 488 593 610 703 864 887 1058
157 306 425 605 652 1176
352 439
272 675 690 855
413 468 667 722 763 765 946
113 145 444 478 507 642 751
169 237 413 751 765 788
311 593 747 979
732 765
152 751
507 642 765 789
38 413 551 751 765
267 642 704 788 1050
30 33 221 328 413 444 455 584
137 285 434 444 670 790
233 546 605
215 256 667 788 967
667 870
45 71 157 167 215 256 354 370 404 413 478 488 546 580 640 652 690 722 928
113 217 689
413 690
38 85 126 157 162 225 229 248 267 294 408 413 472 481 652 686 724 737 743 763
642 751 870
52 369
41 52 62 71 460
598 769
169 215 361 464 668 704 789
66 1130 1177
413 429 870
49 138 864
30 113 157 176 328 351 413 419 507 732 1176
413 884
171 259 703
84 157 233 306 652
205 478
405 408 921
217 689
143 593 730 747
47 198 344
301 765
408 751
75 229 445 546 549 583 690
269 660 689
84 96 104 126 157 183 229 294 362 405 481 561 592 598 751 783
5 95 181 413 789
47 157 162 246 294 328 330 425 652 686
113 751
173 294 704 751 769 870
413 667 751
464 667
77 215 380 507 642 751
47 50 52 129 154 157 233 238 303 346 713 732 737 769 773 784 826 837 865 968
1102 1117
786 824
40 62 455
413 429 643
43 352 686
176 224 272 340 690 732
333 519 664
215 642 776 829 975 976
438 486 725
157 159 386 429 556 765
328 527 595 626 836
405 598
84 169 176 440 689 765 912
171 304 311 467 747
125 271 434
38 55 256 292 444 703 790 864 940
291 778
85 129 225 233 248 269 288 425 478 686 689 722 769 803 817 857
547 722
130 226 328 405 474 527 670 921
361 847 928
176 244 604 863
790 924
119 229
157 176 233 245 267 278 279 299 408 434 504 751
629 751
661 841
130 269 384 405
38 298 488
129 413 667
293 642 751
267 413 751
259 690 703
369 395 455 629 863
285 751
113 334 370 455 640 690 751 937
41 751
51 137 670
97 172 310
891 912
507 751
117 269 413
41 173 215 413 642
530 732 733 863
143 169 311 593 747
40 169 722 751
40 47 81 113 132 170 238 413 457 561 599 626 642 668 689 704 750 751 884 937
40 77 215 244 709
488 598
38 551
176 737 847
413 667
169 237 642 765
162 173 215 256 281 413 455 642
130 176 395 405 429 434 515 686 743 756 769
50 130 176 285 405 413 865
84 521
169 403 507 642 765
176 328 440 510 751 769
126 130 138 157 162 229 269 288 294 405 571 598 610 652 732 803 863
267 429 660
40 967
472 640
30 38 73 169 455 806 1102
395 478 507 621
298 429
103 293 344 615 743 841
256 722
369 413 751
113 413 667
129 173 642
173 215 267 863
244 269
38 751
73 181 413 478
369 539 629 1163
5 327 351 655 697
53 125 272 362 369 459 947
5 413 444 577 683
354 669
413 776
215 392 891
256 413 847 848
259 370 449 703
173 215 413 532 776 1090
71 129 233 248 306 880
413 642 1003
392 455 847
104 138 171 221 229 486 592 790 829
169 413 478 642 780 788
55 138 162 229 240 253 306 312 327 330 332 333 444 519 529 580 626 686 687 723 724 732 737 829 850 864 972
154 362 488 837 987
71 448 492 768 769 890
40 215 222
330 671 726 790
40 130 157 248 269 328 403 626 722 1176
30 71 138 140 166 199 225 425 652
77 169 248 300 837 849
444 765
478 689 776
413 440 912
642 765
269 715
40 215 1177
413 667 751 765
81 113 157 294 681 776
41 413 440 642 912
113 642 667
129 248 405 626 751
618 1151
173 591 683
5 113 408 467 642 893
405 921
40 52 72 73 162 248 306 321 328 455 457 488 510 530 686
41 157 244 267 269 392 444 455 972
167 848
179 208 488 513 584 686 891
18 162 176 248 269 272 328 422 510 556 738 863
556 743
269 405 530 646
47 84 117 269 272 817
5 413 667
38 157 478 626 652 689 722 732
478 689 765
413 789 1102
478 851
40 1177
176 233 267 408 488 530
642 711
269 531
138 310 549 686
269 284 370 640
330 765
269 405 413
413 642 1040
40 328 351 408 440
4 312 413 536 790 940
67 215 751
413 690 937
73 157 159 392 413 455 481 532 642 736 865
403 413
294 413 686
255 413 478 642
10 475 535
215 629 660 751 849
38 413 751
47 154 198 486
157 513 669 732
154 344 455 755
311 875 979
143 304 311 467 472 593 730 959 979 1128
267 546 686
758 803
129 1102
413 810
284 370 504
642 667 722
85 129 157 159 246 306 472 652 686 743 857 961
130 157 267 269 285 328 652 751
356 507 642
73 129 173 176 215 233 267 272 293 405 580 743
595 765
157 272 328 413 689 921
5 41 71 413 642 643 655 667 789
38 113 173 642 742 751
47 328 574 580 864
38 870
41 392 542 778
272 751
288 652
41 52 445 690
138 157 323 768 864
39 172 496 867
577 683 712
293 751 1170
369 629 849 1177
486 544 556
39 472
392 689 751
47 81 455 486 547 769 857 891
173 215 370 640 690 891
38 248 294 310 404 722 873
597 642 810
405 413 689
233 769 794
45 169 173 181 361 370 413 455 510 640 690 769 890
400 405
43 847
534 924
47 157 162 181 267 328 457 527 642 652 668 686 751 799
113 754
478 751
84 392 689
478 642 765
440 893
62 332 361 686
62 157 176 328 363 413 472 478 488 652 751
181 751
157 253 370 403 405 455 458 632 667 1176
616 972
84 429 507
5 104 256 312 413 416 455 642 970 976
215 413
455 481
157 306 468
413 1006
113 478 642 751
215 269 440 912
33 162 170 272 340 369 370 405 530 632 640 690 776 803 870
113 478 765
272 344
181 298 413 444 751
72 113 167 529 642 710 763 890
224 284 352 370 508
413 765
40 130 176 269 328 732
15 732 929
233 269 275 413 751
113 488 765
40 751
365 413
162 205 285 405 743
211 245 346 486 743 982
261 475 888
66 330
30 41 47 73 113 269 413 425 642
113 269 478 751
159 215 228 678 837
71 169 642 705 722 870
43 140 361 546
41 361 413 667 789
198 413 1089
38 40 215 328 689 870
327 333 577 687 810
183 215 392 478 711 751 850
126 229 405 598
369 529 604
680 933
458 765
43 205
42 157 170 219 272 284 314 403 588 690 855
215 334 542
81 413 751 765
333 1048
71 72 95 157 229 481 530 642 751 789 928
288 405 468 598
646 857
103 765
222 486 544
215 376
205 358 472 556
181 256 413 455 642 836
395 413
215 440 912 971
328 799
45 732
294 884 1177
255 324 413 535 642 667
176 272 370 640 690
38 887
119 169 173 215 510 722 751
129 154 344 413 642 857 985
181 509 549 629 848
215 413 440 642 912
457 547 1177
50 238 303 620 865 919
413 669
47 101 285 396 472
179 751
405 751 769 921
137 670 817
642 751 971
233 369 539 636 1163
352 640
5 173 351 365 367 413 486 529
413 720
500 534 542
38 173 176 294 478 652 689 722 728
344 972
267 405 577
169 237 413 642 884
2 41 108 113 121 324 455 689
405 640 690
157 215 440 642 652 686 751
77 237 751
71 129 233 248 269 306 880
269 621
113 130 751
269 405 413 468 478 598
542 629 765
233 486 544 732 857
52 173 328 455 478 540 580 626 642 776
49 885
284 737
256 529
62 413 667
327 333 351 678 718 894
103 157 246 428 652 732
84 233 403 405 413 444 455 478 510 789 921
248 546 626
229 369
328 361 367 689
222 248 722
370 546
47 66 75 104 113 125 126 130 138 166 171 229 233 239 248 271 306 327 330 408 455 488 492 510 530 546 564 626 655 686 724 743 744 750 790 827 847 921
30 413 765 769
170 413 690
173 413 1006
81 103 173 344 464 481 507 642
157 233 642 652 891
81 413
83 121 267 284 405 455 535 577 631 751 947 1022 1164
98 129 154 156 162 172 205 225 245 288 294 299 332 344 352 425 428 434 472 486 556 743 769 803 817 857 914
130 305 1029
176 281 413 642 737 847
121 130 157 170 215 267 269 272 328 455 478 595 642 689 690 773 789 1176
117 344 615
181 269 492 642 736
162 176
413 429
472 642 751
267 440 444 455
52 130 328 455 595 646 985
143 311 593 862 979
138 492 549
55 91 418 467
40 113 176 284 510 597 642 690 751 769
30 328 413 488 686
472 1163
157 225 248 294 306 457 546 743
157 225 306 546 652
642 765 960 1135
455 786
768 1045
79 304 311 418 467
157 202 732
440 765 786
143 272 304 467 593 629 751
269 429
113 176 328 385 642
40 215 575
455 751
47 73 172 198
157 181 248 455 481 667 690
267 504 577 653 670
413 788
767 769
58 239 262 580 972
47 71 817
30 117 129 344
244 392 413
71 113 129 413 507 642 660 743 751 765 803 1105
405 751
173 255 413 642
38 403 751 765
255 285 532 556
123 269 294 413 598 686 751 790 817
15 33 157 159 306 328 413
215 269 751
52 157 233 328 372 652
47 269 486
66 170 690
154 408 455 768 841 882
528 558
259 304 467 730
327 333 577 810
408 667
137 444 670
73 233 580
157 629 848
71 330 737
84 269 306 455 510 722 750 765 789
96 269 702
510 751
42 73 81 169 295 301 306 332 343 352 354 367 370 464 580 686 742 788 850
294 362 405 408 478
5 55 176 233 327 351 362 490 514 737 912
113 269 367 396 413 472 529 689 897 921
119 689 765
113 478 507 642 751
71 176 455 488 947
5 392 763 923
269 468 921
55 763
667 722 751 765
44 84 157 166 233 530 652 670 743 744 769 929 964
642 704 751
330 751
157 176 344 652
575 765
215 1145
30 426
405 732
229 405
43 157 162 369 488 686 743 817 971 1145
215 577 598 764 1152
41 259 413 599 1006
50 751 865
47 205 486
133 361
43 146 372 488 686 751 783 923
71 445 546 769
413 535 667
181 392 455 481 751
157 173 176 413 642 652
542 763
47 54 244
276 890
405 690
169 751 765
269 328 530
113 157 179 652 942
293 765
43 1099
38 40 269 405
169 527 751
159 395
497 983
157 267 346 472 615 722 841 891
124 157 173 215 239 444 809
580 758
71 84 115 130 157 173 179 226 248 284 288 361 396 458 488 496 515 527 530 547 652 661 666 689 722 743 817 855
5 157 159 269 413 455 561 642 824 972
157 272 405 646 661 750
585 743
269 889
103 344 737 786
311 467 730 887
215 565 642 922
66 472 583 744 855
392 472 552 590 686 1068
169 173 440 455 763 768 959
259 848
215 765
267 310 686
472 851
104 413 573
500 971
269 285 405
133 575
96 405
41 392 413 455 464 642 810
403 722 751
157 362 529
425 455 507 642 709 789 857
38 169 413 751 765
77 667 751
429 478 629 751
413 478 668 689
229 488
38 642
40 52 84 113 157 162 269 306 751
229 631
413 507 751
173 176 215 413 440 642 689 912 943
215 255
455 642 660 776
41 642 751
80 113 215 408 507 531 642 1117
10 77 169 413 532 642 789
256 1144
75 642
84 205 556
40 851
138 549 686
113 285 408 642 667 690 743 751 855 937
642 763
84 157 288 425 652 817
173 256 392 413 642 847
269 722
98 205 233 817
193 392 642
157 352 530
362 564 765 824 987
157 162 253 262 292 362 422 443 546 686 743 864 1163 1173 1177
269 367 405 598 689
367 370 640
71 444 507 722 751 847
256 642 751
97 198 486
215 267 412 413 642 778 847 848
923 1170
449 504
40 709 776
173 269 689 722 765 837 1157
248 556
615 660
138 310 549
113 328 488
171 176 292 864
47 176 215 392 642
60 652 732 929
145 151 176 333 443 563 577 810 837 880 940
84 306 817 857
169 478 765
248 949
514 733 737 912
38 84
169 413 704 788
157 229 546
84 162 288
40 429 642 751
15 49 812
40 455 507 661 667 690
59 137 670
327 610 687 864
478 642 667 689 765
588 675 690 855 937 996
143 311 593 862 1094 1128
71 117 274
253 546
143 425 593 613 1128
176 392 642 667 1145
157 276
111 173 413 629 841 864
344 524
40 67 362 367 372 444 642 776
215 372 751
140 580
41 507 642 751
38 667 722
73 117 474 539
169 715 765
113 642 680
513 732
40 440 689 912
157 267 392 413 642 695 769
30 154 248 328 444 455 769
121 425 810
157 504 580 653 670 744
71 246 253 267 269 283 306 478 776 890
224 690 847
403 413 488 642
306 358 413
71 157 166 171 172 198 233 248 271 306 310 413 486 488 557 744 857 992
351 395
80 379 531
330 413 751
41 119 413 481 642 708 1165
138 157 642 652
62 551 751
198 205 220 222 267 358 486 824 914
532 642 751
75 769
157 159 344 352 732 860
642 751 789
130 284 328 396
113 507 751
108 113 256 267 413 444 531 686 863
478 642 870
84 130 294 363 413 577 686
129 179 328 330 334 527 621 720
269 294 751
113 413 507
50 73 865
41 113 154 198 321 507 599 642 867
488 751 765
84 176 686
233 625 743 823
248 744 847 867 974
229 405 598
41 413 440 488 689 751 912
84 167 269 288 732
429 440 478 912
233 751
294 306 556
47 138 652 654 859
358 530 732 737 790
743 803 817 857
79 311 418 467
59 269
765 776
392 642 751
2 413 444 810
81 765
129 690
113 169 751
217 689 765
62 355 369 413 900
113 126 129 130 205 229 233 278 425 769 864
38 413
40 113 751
176 269 642 667 690 715
312 395
49 157 530 687
215 488 535
126 292 864
171 428 496 612 652 817
172 486 743
6 41 269
74 84 285 413 488 667 743
763 765
38 267 413 751
41 62 173 181 233 400 507 580 642 667 722 806
267 413
169 413 704 751
464 751
157 245
392 763
751 786 847
157 269 328 367 413 478 481 507 642 708 1176
354 504
176 370 408 488 514 669 732 737 912
157 159 224 295 413 429 455 478 640 642 690
229 577
259 401 467 703 730
256 330
413 481
41 81 778
143 888
395 605
507 786 790
413 530 642
84 598
30 157 306 351 405 408 478 527 598 631 751 985
152 244 324 478
71 395 689
169 370 405 481 640 704 751
267 546
301 405 468 646 690 803 891 921
43 344
245 248 280 288 306 605 690
66 157 320 732 929
403 530
98 113 119 169 173 205 215 285 367 413 472 689 806
157 186 392 486 510 642
40 113 215 294 400 413 478 507 551 642
233 306 546 817
256 575
403 507 642 660
123 269 294
75 169
370 640 690 732 937
10 199 215 267 455 660 743
467 475 888
169 269 392 532 667 689 751 782
269 309 330 413 455 642 656 708 1165
413 667 769
169 413 478 667
260 369 539 1163
73 129 173 205 786
173 395
40 269 751
84 689 715
661 891
559 631
604 967
224 269 272
351 405 530
369 440 539 1163
198 751
40 294 642 751
43 215 475 491 1164
413 478
715 765
642 667 765
47 172 310 352 486 544 556 837 974 1164 1177
47 173 310 486
40 642 751
75 269 870
77 169 722
157 159 173 215 510 595 631 1170
215 217 689 751
47 113 176 233 413 440 481 507 642 912 967
261 888 925
626 751
205 837
71 758 803
577 629 776 1164 1177
121 129 162 233 346 388 586 598 618 640 675 808 810 837 847 855 937
130 405 440
228 652
215 262 373 642 751
38 143 176 221 311 369 392 401 444 593 901 1128
264 408 875
75 488
157 328 413 642 652
365 886
138 239 455 751 922 954
38 267 413 751 765
720 765
715 891
95 507
235 504
171 176 292 530 642 732 864
75 408
173 215 413 478 642 751
47 50 865
33 162 225 285 328 358
5 77 176 577 1050
234 486 933
269 928
84 1073
172 486 889
5 267 269 392 413 642 847
119 169 884
52 73 294 425 478 626 642 686 689 742 751 884
59 395
405 468
40 169 173 704 751
81 713
215 367 790
269 423 751
62 267 449 577 667 751
274 535
154 179 284 361 425 750 889 914
41 77 113 169 267 507 605 642 708 742 751
15 33 50 115 256 665 667 689 711 783 865
310 486 914
154 344 549
38 267 351 369 388 408 527 751 765
10 30 259 529
144 413 1006
344 370 488 530 640 857 867 914
765 847
34 443 492 556
100 527
405 468 598 752
169 369 455 595 708
123 358
215 440 765
248 288 344 743
157 248
28 50 52 294 303 546 817 837 865 919
103 129 154 352 533 686 743 841 863
267 412 413 642 778 847 848 972
256 765
445 546 769
596 695
269 309 330 413 642 656 708 1165
129 229 285 405 425 478 652
113 478 689 803
52 130 157 225 328 545 578 595 646 803 1176
392 507 765
606 1160
30 40 113 176 217 405 413 689 921
33 229 405 488
138 285 546 629 863
198 310 521
71 288 351 392 405 408 642 1035
41 667 751
97 172 486 889
176 580 751
215 256 269 392 413 455 464 488 507 1165
15 173 215 217 269 275 455 580 595 689 732 751 912 914
248 725
157 408 750
60 84
71 176
215 372 440
690 983
245 790
117 129 137 157 233 306 670
40 71 84 157 169 173 507 642 743 783
40 376
248 443 546 655 859
43 176 269 528 857 871 914
60 71 84 85 170 199 229 240 248 288 292 294 306 364 370 382 408 428 444 472 488 610 640 642 655 675 690 744 756 789 848 855
546 786
272 370 732
310 352 486 544
232 233 751
173 751 765
55 751
333 351 655 678 687 864
47 73 172 244
137 157 670
429 765
138 971
215 267 413 642 778 847 848 972
8 189 631
41 84 169 667 765
751 790
157 240 314 751 855
157 306 362
328 413 667
510 631 642 751 776
405 478 689
181 269 405 686
173 405 527
173 294 328 358
269 405 884
55 778
73 84 287 837
73 96 504 790
229 732
610 630 744 834 983
84 565 725
52 382 642 751 1006
535 890
33 722
113 181 405
130 233 405 542
173 292
113 405 413 444 478 667 689
851 1177
310 486 743
113 444 667 765
59 891
181 413 870
176 642 884
217 328 689 711
157 294 306
41 176 369 455 507 585
215 413 642 667
238 620
267 864
47 66 157 215 217 248 306 346 354 369 413 455 478 488 556 592 642 652 655 744 750 754 800 817
215 229
71 173 181 413 444 455 708 749
369 790
157 288 652
269 320 751
215 440 642 751
39 233 352 565 1155
40 41 52 176 181 221 233 244 267 444 455 472 481 489 510 533 610 629 642 744 751 778 789 863 1174
405 468 527 598
15 37 176 405 921
176 413 642 1006
77 507 788
5 176 181 240 281 413 449 529 577 810
5 467
176 444 507 642
123 269 1105
413 747 778
625 686 743 823
5 751
91 154 304 467 556
169 423
119 413 642 667
42 169 170 176 256 272 306 413 455 540 580 690 742 788 850 928
440 642 751 921
403 722
233 267 269
751 785 1173
130 162 173 176 224 246 267 269 328 478
84 428 652
40 530 765
722 751 765
575 577 655
422 1170
62 113 367 403 507 642 765
284 370 690 855
30 144 173 256 267 413 507 536 668 780 847 848 947 1006 1117
52 157 356 396 629 750 1117
113 162 169 176 181 413 455 642 708 910
130 405 488
507 642 765
751 928
256 367 392 413 667 708
267 890
130 642 751 921
334 668 751
444 468 488 507
524 642
259 703
40 215 256 267 455 694 922 1048
403 642 704
348 475
269 413
77 169 751 788
38 130 328 369 413 626 737 870
5 413
40 489 689 880 1048
85 225 233 248 269 288 425 478 686 689 722 769 803 817 857
81 579
84 361 686
62 455 869
130 405
173 176 260 287 330 413 601 642 654 737 776 847
327 333 351 678 718
413 459 535 604 837 1050
621 733
129 229 269 285 405 425 478 652
66 705
440 927
113 176 642 751
661 855
237 642 765
315 336 610 652
765 786
751 923
47 129 968
38 267 281 413 478 642
52 176 253
103 642 686 1174
43 546
259 703 894
157 176 233 328 580 626 642 646
176 267 405
468 667
464 642 765
50 154 865
496 949
158 248 260 294 315 859
137 272 642 670
173 405 468 527
413 507 667
803 851
157 652 754
267 328 413
198 392
196 519 821
41 84 144 507 621 625 642 751 1006
215 472 580
58 101 396 504 508 705
41 173 507 642 667 751
73 157 215 256 478 928
176 370 488 514 669 732 737 912
113 157 169 176 215 246 328 404 413 472 488 507 642 646 667 686 689 704 722 732 751 1176
176 686
479 642 751
119 215 464 472
469 631 698 709 786 824 1060 1118 1177
751 763
113 169 455 742 751
328 972
130 269
41 55 169 173 259 413 507 780
157 173 546 652
168 393
269 293 363 405 751
130 405 598
43 73 113 157 215 233 306 642 652 686
667 732
121 221 253 352 455 574 864
73 255 413 810
138 343 405 413 547 667 921
52 58 221 267 392 413 444 599
364 629 814 922
765 778
657 866
269 754
267 667
715 763
40 642 765
215 358 468
413 429 440 642 765 912
176 255 478 535
240 732
288 352 556 837
258 870
413 642 689
140 157 159 272 488 929
169 343 455
751 785
30 103 233 344 574 642 751 769 841 864
154 198 486 867
73 97 98 154 172
215 403 751
138 157 369 546 549 610 828 866
292 327 642 864
66 179 253 396 504 580 618 653 670 701 722 737 750 756 776 790 827 829 1121
52 312 408 536 848 1175
233 248 253 472
84 765
267 722 788
157 159 468
119 765
154 720
143 169 191 237 593 607 704 730
248 358 450 472
221 298 444 455 478 778
181 642 751
113 169 334 405 413 642 742
269 288
5 408 413 549 655
215 722
103 154 743
71 405
330 790
115 646
222 233 369 440 539 556 1163
73 198 1089
169 742 765
215 751
176 790
169 269 765
157 248 269 306 403 642 682 743 751
121 293
57 159
486 974
157 176 577 655 764
169 751
84 362 556
358 851
162 173 256 369 413 455 478 488 507
203 493 549 679
478 507 751
215 642 667
267 438 486 565
642 722 765
59 84 157 306
73 205 675 855
154 172 605 803
444 455 595 742 751
84 179
546 549 866
43 352 556
47 52 159 162 176 205 472 556 743 824 857
103 117 154 445 816
327 687 859
267 340 564 586 642 776
71 642 765
875 1088
41 95 176 215 413 444 1165
173 488 751
228 508
333 351 454 655 678
52 71 154 157 763 817
143 259 304 311 607 703 747
215 751 765
269 530 751
193 330 760
50 73 233 238 269 303 743 751 865
157 352 652
233 248 267 472
154 743 1089
267 284 370 405 468 640 690
38 535
143 467 730 747
47 52 55 256 330 564 678 710 863 975
343 507
117 176
138 581
47 52 205 472 743 857
269 405 546
176 413
15 71 130 157 176 215 392 440 455 472 481 488 507 546 652 704 738 751 972
395 561
40 113 455 598 695
157 267 328 803 1176
40 113 232 351 361 428 765
38 809 1048
294 405
129 198 556
58 777 787
66 166 176 233 248 253 271 285 306 330 331 455 531 556 689 713 751 769 850 864 876
40 169 413
113 157 169 176 215 246 328 404 413 472 488 507 642 646 667 686 689 690 704 722 732 751 1176
139 546 657
38 429 580
234 486
40 173 215 519 601 642 654 927
324 642 1157
176 369 405
129 765 857
66 84 157 159 255 423 686
173 176 413 464 580 642 720
113 301 328 372 689 708 742 751
30 157 238 269 440 620 683 743 817
157 215 255 367 413
330 940
101 208 365 408 686 790 923
71 176 215 248 383 408
769 1145
40 215 413 667
496 817 1145
126 129 157 267 269 362 370 527 640 652 786 829 848 864
205 604
103 354 529 841
577 655 942
269 285 413 486 837
238 303 319 423
41 113 403 642 765
40 113 157 233 413 488 514 652 689 737 864 875
47 130 157 225 233 720 732 1176
157 344 732
47 285 857
41 413
751 912
41 169
169 215 358 413 455 507 780 806
392 507 535 880 1048
444 642 765
215 765 789
73 498
732 751
10 30 176 413 577 690 737
217 527 640 689 937
40 215 464
77 169 181 765
215 455 871
413 565 704
37 229 921
47 289 310 486 750
413 575
60 129 288 332 530 649 949
41 240 267 392 507 642 751 847 1165
382 642 751 1006
751 769
196 269 455 751 778 834
62 348 513 761 1160
41 52 140 732
74 84 162 284 1153
269 890
154 405
244 288 405 468 527
328 413 472
392 642 765
41 71 408 413 507 642 934
73 84
40 403 765
198 269
137 488 670
47 50 66 71 73 113 126 129 157 176 179 215 229 233 239 248 267 272 278 288 294 296 306 328 329 332 344 354 396 408 423 428 444 472 481 514 539 547 556 577 583 621 626 642 686 733 737 817 864 865 912 1124
49 162 215 365 529 642
137 157 530 670 769
54 765
403 464 751
37 38 176 217 405 468 478 689 921
413 686
176 392 642 667
152 170 370 640
765 790
269 405 598
41 173 413 642
38 413 765
84 817 958
40 689 817
30 205 215 259 354 440 529 580 912
742 751
405 598 921
66 297 408 504 613 951
367 429 478 914
154 765
15 52 84 126 154 157 217 233 306 352 361 362 370 444 529 620 686 689 732 743 769
405 474 598 670 921
173 440 751 912
413 667 689 715
272 547
488 783
40 169 704 765
413 444 642
405 765
244 256 455 535 786 789 884 1050 1102 1144 1172
281 369 413 751
130 405 580
73 358 369 444 642 722 751 857
256 395
157 652 751
233 408
765 817
169 382
84 173 413 556 642 744 769
119 129 169 400 551 675 689 715 765 789 855 937 1090
103 104 113 126 229 240 330 413 472 529 592
181 413 459
59 269 621
256 362 529 604 1173 1179
10 30 33 181 221 294 309 328 351 403 408 455 464 683 708 732 742
173 269 405 642 763
52 750
5 413 449
551 579 642 1145
119 884
237 256 455 704
130 765
49 333 351 678 687 864
667 765
272 504 732
328 351 408 534
488 921
169 444 478
137 629 670
263 327 333 351 519 678 718 864
73 123 405 629 740
436 595 642 742 751 776
311 722 887 959 1094 1128
77 1049
38 272 328 370 464 556 711 803
413 850
55 79 157 259 281 304 328 425 428 467 539 580 631 646 652 703 738 776 863
47 104 126 130 229 233 239 248 271 327 408 686 724 743 790 847 921
565 769
492 670 1112
57 790
41 176 400 621 737 775
173 405 478 642 751
362 529 535 947
18 30 426
269 527 751
413 667 884
482 546 549 866
221 367 455 789
413 626
169 367
444 751 778
179 765
40 352 689
643 751
403 478 642 765 789
413 934
215 528
173 293 405 683 877
40 233 689
173 413 642
269 667 765
137 396 510 670 689 732
413 514 737 847
95 413
173 215 459 535 556 642 769 1089
73 157 176 179 215 364 392 507 715 751
73 769
38 328 403 478 642 690 789
62 169 372 413 440 455 642 711 780 912
344 556 710 841
228 413
484 751
413 642 667
52 130 157 171 225 233 306 332 472 556 648 652 686 690 732 769
130 285 384 405 751
41 73 113 244 248 369 413 486 642 778 803
448 492 1150
84 369
621 737 790
103 344 352
143 157 259 311 467 488 593 610 703 864 887 1058
248 751
2 52 176 298 478 540 689 785
15 405 921
173 405 689
41 52 157 176 689 743 1047
173 285 440 769 776
294 785
137 434 670 732
84 113 125 157 233 288 332 372 444 478 521 652 686 689 967
52 157 546 652
52 866
269 278 405 646 738
208 423 743
121 478 690
352 841 953
47 116 126 157 166 169 215 217 229 301 306 367 473 580 618 689 742 863
47 330 914
119 215 629 837 1173
130 405 921
173 591 683 864
296 1105
157 751 1176
41 173 751
330 683
81 126 157 176 229 280 351 392 408 500 547 652 681 689
113 510 689 884
157 215 751
71 215 507 751
9 10 244 267 455 467 475 751 922 967
675 769 855
71 157 229 514 528 737 847 912 1035
154 472 486
306 428 496 652
233 370 640 690 937
173 215 642 708 751
157 652 890
179 215 433 546 580 646 750
130 346 720
72 215 368 642
405 580
370 640 689 690 790 912
413 429 478 708
269 642 751
660 1144
125 140 549
269 392 764
575 669
41 173 507 642 751
403 413 667 722
40 47 215 269 423 689 817 1046 1176
157 202
334 642 751
171 556 613 950
113 215 751
667 722 765
38 85 126 157 162 225 229 267 294 408 413 472 481 652 686 724 737 743 763
169 629
43 137 157 233 428 652 670 732 737 817
152 891
98 346 769 857
138 166 546 556
130 162 176 294 369 405 413 455 530 539 580 689 751 786
181 413 642
47 143 311 467 735 862
75 119 173 175 176 246 272 339 396 403 413 428 488 508 515 547 583 646 652 667 669 689 715 732 743 751 847 855
77 113 130 269 272 328 367 451 481 642
172 352 922
119 237 642 667 786
215 405 751
137 176
81 129 425 472 527
55 66 73 75 102 149 157 175 176 179 199 233 239 267 269 272 346 354 373 392 396 408 492 529 536 577 581 621 629 646 652 669 689 690 729 751 758 848
38 113 130 205 256 267 358 395 722 743
4 413 790
269 370 640
113 169 488 642 742 765 937
372 440 751
30 47 103 138 168 171 191 194 239 259 310 346 445 467 493 529 613 629 829 848 862
104 413
311 625 690 747 823
41 95 215 259 413 481 642 708 789
81 181
169 440 667 751
215 248 267 369 455 542
126 138 1117
272 642 690
43 205 817
369 629
358 468
413 440 530
228 358 708
580 640
50 303 857 865
642 851
328 535
73 162
130 530 626 642
33 294 405 478 580 751
40 765
113 472 765
15 642 1145
6 970
369 413 539 547 598 780 1163 1173
40 233 464 765 788 890
460 642
168 727 1066
257 312 362 367 490 1128
138 162 260 315 546
40 169 173
117 129 137 156 179 670 722
58 66 69 104 320 396 408 504 508
173 181 221 328 413 488 512 923
41 169 237 486 751
84 176 233 269 686
157 169 328 413 595 642 652 704
70 80 84 267 306 331 379 426 448 494 507 531 612 686 769 1124
208 751
514 621 737 808
84 157 225 233 288 306 362 428 472 478 556 732 754
403 413 667
40 310 433 1135
96 171 271 330 352 408 492 504 683 744
330 621 773
143 311 369 593 979
857 949
405 425 642 1144
144 751 1006
279 794
772 972
413 747
37 229 763 921
41 413 455
496 871 949
91 143 467 730
176 405
565 642 751
413 751 765
229 668
176 217 405 408 598 646 689
215 248 1050
47 166 176 284 396 750
5 72 215 256 367 449 455 577 629 751 925 967
98 133 232 233 425
326 598
84 157 169 181 455 507 510
370 891
149 269
157 219 314 588 790
10 215 314 346 356 359 500 514 542 598 629 642 737 904 912 922 1177
41 711
130 328 529 642 751 921
15 28 30 33 138 157 269 306 405 510 652 686 864
157 176 255 532 640 690
113 269 440 444
128 642 763 788
248 269 328 405 769
304 467 730 870
157 229
137 670 732
269 870
288 444 620 1099 1145
681 695
121 370 577 640 690
73 84 85 130 157 162 233 294 652 686 720
117 751
695 851
66 284 847 864
395 425 610 863
85 97 169 686 743 867
113 413 478 642
413 667 778
240 530 732
233 524
33 173 413
84 157 743
121 262 284 577
96 262
244 299 413 488 530
157 215 284 370 640 652 1095
173 413 711
76 143 304 311 418 467 607 641 730 979
169 1089
113 642 722
40 689 751
351 890
751 806
346 395
176 443 577 880
643 686
40 269 789
413 629
125 359 556
157 205 215 472 565
71 117 182 288 579 722 743
545 629 1177
121 157 173 176 225 306 413 481 513 556 642 652
6 769
47 157 162 246 294 328 330 425 652 686 732
119 269 765
15 43 46 66 71 75 84 104 113 125 126 138 157 162 166 171 176 215 217 229 233 246 248 284 288 306 330 356 362 363 447 455 527 546 625 644 652 686 689 732 786 790 817 851 900 912 921
75 269
157 765
58 172 504 803
77 169 847
38 113 176 642
71 119 369 488 530 751
126 138 157 162 301 309 352 530 546 580 626 644 652
642 732 790
751 867
233 330 354
269 309 330 413 455 642 656 708
803 959
130 269 384 405 921
924 937
259 294
269 689 765
298 413
296 392 413 769 778
369 455 549 732 751 928
217 689 751
258 328 788
81 157 403 450 626 642
403 704
129 173 751
58 71 157 416 509 722 765
531 732
113 464 765
38 1102
413 886
478 841 882 1095
413 732
340 478 546 897
41 392 507 642 765
294 722
179 272 405 646
284 370 640 690 929
52 173 176 601 642 687 818 847 864 1058
38 113 642
52 84 256 440 488 530 912
75 370 646
344 621
172 222 486
267 655
751 847
269 405 527
642 689 715
41 77 113 169 642
532 765
121 157 737 837
408 1150
154 172 803 867
229 642 921
689 715 765
642 790
41 545
690 765
47 425 472 653 670 743
468 642
130 405 704 751
176 405 577 642
344 743 816
288 306 546
71 269 284 690 867 949 1093
72 221 294 328 361 595 642
169 413 722 751
267 646
143 401 467 730
269 689
170 328 413 478 530 580 642 690 806
269 408 468
272 642 751
67 629 642 751
233 285 625 823
40 215 478
237 751
413 444
244 269 367 455 510
94 259 703
215 269 765
113 228 444
172 725
534 1177
71 695
41 81 301 455 510 642 765 789
261 732
47 743
113 413 751
113 176 248 272 285 413 488 507 642
47 413
198 330 737
73 84 173 413 556 642 744 769 837
23 38 77 145 215 222 765
41 169 392 455 642 751
157 269 1176
413 778
47 921
244 670 732 929
40 176 215
119 269 758
47 472 486
179 284 690 929
73 137 157
15 751
169 413 751
41 176 413 507
176 655
405 413 535
667 722
440 751
104 631
674 850
40 486 565
77 765
84 546 1035
113 131 215 229 413 444 455 464 478 510 1160 1169
481 776
215 372 455
57 157 790
269 535
181 217 689 751
101 304 467
38 667
157 490 574 610 629 686
215 535 751
413 556 642
167 769
488 751
44 52 129
103 841
209 348 551
173 769
654 1045
312 330
55 327 748
40 444
580 929
129 144 176 351 416 534 621 686 772 985
444 778
5 449
73 750
269 642
133 706
40 680
113 361
215 595
129 154
30 694 983
113 444
62 348 444 869
351 581 591
49 724
260 687
284 370
137 169 670
73 172 486
205 233
352 605
327 859
215 776
370 640 1160
472 580
330 829
294 363
312 621
167 369 732
285 732
158 654 859
41 173
30 73
156 488
294 732
91 304 311 401 467 730 979
113 778
38 891
41 169 429 444 455 577 675 690 751
57 444
221 1102
154 288
129 857 914
670 929
23 57
199 488
362 369
215 660
47 172 867
173 267 455 478 481 642 751
148 336
130 478
546 890
157 690
49 327 723 864
103 157
269 285
690 855
50 303 865 1062
62 348 869
577 642
496 803
169 507
621 847
581 591
66 370 640
486 556
157 642 732 854 972
504 530
516 761 1160
937 1057
143 304 311 593 887 1128
655 764
675 690 855 937
425 486
228 364
157 159 530
157 929
352 1082
129 867
229 260
49 529 864
327 687
215 629
221 267 392 455 532 642 667 778
154 509
215 267
306 950
777 787
817 881
413 891
408 581 683
455 778
129 344 743
292 723 724 864
103 352 816
73 690
208 295
464 579
577 864
84 288
146 312
237 478
253 610
157 652 1176
530 803
49 529
157 764
690 937
272 646
311 887
154 486
5 327 351
344 841
77 237
615 841
311 1128
277 396
91 143 401 593
482 546 549
546 681
157 546
304 311 467 862 979
580 859 864
103 902
228 261
732 769
138 890
119 642
315 882
157 306 546
73 837
369 577
285 670 1112
311 979 1128
73 914
323 336 419 511
157 159
47 154 857
640 937
129 162
429 605
264 875
172 486 857 867
55 581
429 434
789 1102
507 520 642
30 983
362 529
73 205 486 743
712 970
55 103 330 621
245 285
233 652
545 1064
348 444 869
229 687
5 408 449
143 311 593 634 887 1094 1128
284 661
129 202
546 652
208 611
507 642 809
133 690
294 686
333 687 716
260 326
306 613
642 725
683 718
103 533
269 1102
817 891
405 947
413 660
237 765
43 138 140 361
139 396
351 577 764
670 817 1112
196 654
642 864
269 891
330 577 790
73 85 157 159 215 372 532 556
285 546
5 408 591
171 233 306
5 327 697
119 269 642 769
285 472 769
778 928
170 690 1160
504 670 929
130 384 478
395 444
256 328
737 848
5 408 449 655
179 732
228 309
351 359 577 678 866
351 419
351 631
294 328 363
875 882
294 764
57 254 1022
288 817
228 455
169 670 929
328 478
5 655 683
758 770
312 940
215 256
154 352
288 891
284 370 640 937
304 401 607
157 328
580 891
162 546
351 655
60 157
221 267 392 444 455 532 642 667 778
455 789
264 327 336 351
138 556
169 704
15 929
670 769 1112
73 444
546 695
629 642
315 511
162 288
327 333 519 577 687
169 704 732
157 625
49 315 327 519 723 724 864
129 891
472 605
467 475
327 333 408 687
233 625 823
321 455
697 724 748
690 855 937
647 727
170 690
292 408 642 724
84 169
384 1029
113 488 857
284 370 640
62 869
66 446 732
62 215
859 882
171 625
294 580
143 311 593
129 154 205 288 486 857 867 914
467 607 747
269 492
248 285
521 803
408 449 581 984
444 737
543 602
891 1025
157 773
328 363
229 546
84 689
41 328
486 857
169 742 788
5 577 970
157 652
370 690
84 478
66 504
367 751
30 972
30 59 414 654 864
129 154 173 198
488 786
129 751
47 486
723 724 864
154 344 743
233 328
229 864
103 732
233 306
581 712
565 642 725
309 750 859 864
507 1077
5 408 655
284 370 690
130 384 527 1029
126 723
47 306
98 344
202 352
157 472
444 488
73 743 857
294 306
653 670 1112
507 530
47 769
138 140 866
333 408 454 678
228 323 768
686 769
30 351
704 788
121 640 937
233 803
292 455
43 140 546
328 455
198 413
229 890
172 310
720 1106
358 512
269 670 1112
121 690
370 472 640
129 344
444 723
91 418 467
71 157 221 224 256 413 444 455 532 690 937
323 511 768
310 486 857
683 855
169 237
264 327 336
169 788 884
5 327 351 697
345 563
126 723 864
269 720
232 472
98 172
62 348 444
73 172
84 857
344 816
209 444 1092
172 486 857
716 859
113 580
670 737 1112
157 267
40 405
455 510
327 351 577
98 914
328 440
751 857
5 577 655
104 621
670 1112
5 519 864
269 732
198 498
154 574
269 294
780 884
577 591
304 401 467
343 369
488 765 857
680 725
315 351 687 821
348 455
751 891
395 875
169 780
245 605
348 642
157 652 929
642 660
306 626
60 732
233 488
117 352
326 414
103 743
369 507
139 361
530 929
455 546
310 352
133 867
869 1092
318 443
73 245
1046 1102
472 929
654 859 1088
344 737
630 983
352 556
117 154 352
154 1082
344 352 841
306 605
52 625
176 408
292 642 864
71 215
171 950
304 311 467 887
306 743
47 154 310
311 862 979
154 817
168 727 847
30 59 315 414
444 551
803 1105
328 408
113 530
580 751
157 198
323 768 882
169 484
260 315 655
327 333 687
125 531
776 890
640 690 937
363 642
157 347 847
179 269
157 344
285 891
248 1105
294 642
172 310 486 857
347 847
580 654 750 859 864
117 269
267 405
294 328 642
288 605
129 642
202 769
233 1105
41 113
367 789
215 1047
143 607
169 403 642
176 670 929
172 179
867 881
304 311 467 747
130 384 474 670
323 419
198 285
229 724 864
45 891
406 454
96 408 683
642 1102
117 486
91 143 607
137 344
62 869 1092
221 444
169 605 613
449 577 591
57 847
530 690
138 306
101 567 727
162 556
267 929
113 890
66 929
406 678 819
228 654 859
914 1081
172 857
154 914
133 245 486
233 486
260 315 890
154 344 352
292 678
269 611
91 607
98 172 486 857 867
172 310 857
444 869
238 919
233 732
172 817
52 162
126 229 723 864
71 580
172 352
171 233
351 718
143 259 311 593 703 747
47 817
73 546
675 937
464 971
504 674
267 488
245 769
71 737 847
408 724
245 881
556 769
271 744
55 443
545 1149
864 875
323 768 875
577 724
113 117
294 478
168 647 727
625 950
259 478 703
2 785
113 1102
143 467 747
689 891
6 778
143 304 401 593
47 205
444 642
344 769
126 229 695
449 581 724 748
76 304 467
434 769
157 233 605 652
50 865 1062
62 209
179 370 640
143 304 467
687 723
113 546
41 85 198 344 472 1089
642 789
154 486 857
176 472
173 429
154 186 352
351 581
179 284 690
173 891
323 768
138 686
215 890
748 843 864
269 778
778 1102
937 1160
179 284 370 640 690
196 882
117 154 344
403 642 689
84 891
157 478
352 686
138 610
66 732
133 732
344 352
154 816
260 601
333 519 654
344 803
408 891
6 660 689
370 640 690 891
5 449 577 683
318 365
333 351 678
228 642
444 507 642
137 670
172 198 857
157 817
326 880
408 723
162 686
547 891
172 288
344 1082
143 304 311 593 747
336 419 511
315 414
229 723 864
162 198
117 288
229 577 875
84 119
133 284
113 221
686 803
111 519 678 724
73 171
472 646
5 449 970
405 686
205 743
260 326 768
316 383
292 510
2 229 439
272 370 640
100 839
449 591
5 365
208 295 423 584
521 867
113 1046
232 769
743 817
113 119
169 444
232 288
315 768 875
208 423
327 683
173 181
260 414
233 248 769
73 98
154 486 743
198 344 1089
157 233
530 732 750
513 937
157 248 652
172 1081
743 914
723 724
642 817
224 284 690
327 581
847 928
369 848 1164
202 504
228 1088
678 748 819
181 358
369 1102
157 561
311 634
245 504
577 581
330 727
468 851
365 810
47 891
472 972
52 769
173 1157
289 857
172 686
50 115 865
370 640 937
173 890
327 333
169 369
49 408 723 724
821 1095
117 285
157 546 652
176 488
41 789
41 84 104 157 169 255 306 455 642 751
110 694
198 352
732 1117
229 851
284 370 640 690
173 1102
686 732
260 336 419
138 233
519 654
890 1174
170 937
546 743
472 486
423 642
816 841
62 444 761
233 425
117 769
507 580
205 344
326 768
285 758
285 817
315 511 519
205 769
157 306 328
77 1050
817 1105
697 748
328 444
52 157 652
229 292 642 864
488 507 765
687 864
610 630
157 625 652
157 530 652
687 859
750 891
408 1078
172 486
732 750
267 507
333 351 408 718
50 865
486 857 914
113 403 478 642
221 642
55 444
172 285 486
5 351 748
652 891
269 770
675 690 855
62 1092
179 284
30 841
304 467 607
52 891
486 605
157 352
171 556 613
467 730 1128
98 857
514 737 912
478 546
154 891
285 486 496
181 221
41 392 413 834
129 344 857
52 530
49 577 724
41 269 344 423 444 464 850
98 154
445 549
488 580
370 640 803
556 889
52 138 157
157 171 556 652
724 748
75 778
126 229 864
803 914
5 269
530 750
434 649
326 444
248 857
143 304 311 467 730 979
154 556
74 157
370 640 855
40 215 372
44 133 964
327 333 687 724 864
215 937
245 690
5 748
232 803
244 367
73 889
269 403 642
173 202
549 909
98 288
157 732 848
202 530
57 737
169 891
154 521 841
166 306
642 1077
642 776
154 344 914
327 408
91 143 593
256 1122
71 269
62 209 1092
113 157
49 315 327 519 864
284 370 640 646
653 670
654 687
176 215 256 269 413 530 751
405 468 921
737 790
143 311 593 887 1094 1128
157 355 642
546 866
367 392 599 708
215 769
169 237 618
130 269 384 527
73 198 556
162 405
154 198
45 690
202 269
113 891
551 1092
73 575
408 581
260 315 875
488 675 765 855
138 162
221 472
521 841 1082
103 864
45 472
143 311 593 747 887
49 327
401 418 467
778 1046
233 743
887 1128
260 323
15 812 885
288 344
472 776
157 269
130 384 405
130 1105
228 890
179 929
642 857
154 269
49 229 864
130 384 474 527 670
269 884
169 890
173 478
642 1048
47 556
52 546 686
170 675 690 937
664 724
154 198 205
285 769
179 284 370 640
530 626
358 434
284 640
157 530
169 929
84 788
704 884
284 640 690
248 803
440 689 912
130 527
285 720 847
269 673
49 1088
327 687 864 875
577 581 970
891 914
137 670 772
433 690
472 817
245 706
344 486
47 172 486
847 848
172 857 867
196 260 687
143 311 467 747
30 414 864
336 351
237 884
84 924
304 607
129 288
556 891
294 534
138 140 546
157 514 732 737 912
267 732
670 972 1112
154 198 867
157 233 546 652
654 864 875
157 652 686
157 225 652
680 857
803 857
133 154
94 327
57 254
333 351 687 864
143 304 311 467 593 747
169 478 884
75 732
444 455
157 233 306
98 803
49 444 529 687 723
642 686
117 344
198 472
148 336 419 668
137 202 670
73 202
311 887 1038 1128
829 848
232 233
202 732
233 530
129 1105
269 690
581 970
269 929
646 803
198 857
157 172 392
157 652 891
327 655
198 743
9 768
103 405
130 173 384
52 84
344 867
610 744
125 369
724 1027
157 642 652
202 233
138 744
52 686
73 686
333 351
172 803
169 884
84 157 306
91 143 304 311 467 979 1128
330 444
605 817
55 577
198 444
173 1105
157 732 929
143 311 593 747
157 605 642
454 678
449 577 581
444 715
315 859
625 823 950
238 303 865
143 304 311 979
198 545
143 311 401 593 747
472 867
157 769
3 269 492
678 812
269 1048
260 654 859
202 653 670
440 789
346 769
519 654 821
642 689
157 786
577 985
720 751
91 304 467 972
344 857
370 640 642
486 769
62 444 869
732 758
336 419 511 890
134 327 333 408 519 687 811
49 292
134 333 357 408 572 600 687 811
73 891
169 1090
260 864
5 351 577
130 384 474 527
348 761
228 970
119 789
133 179
154 352 615
76 418 607
77 169 884
580 601 654 750 859 864
154 172 914
519 678 843
264 315 336
138 157 652
169 202
284 855
464 530
472 743
336 419
425 803
117 817
186 521
143 304 311 593 979
327 697 748
315 795
312 509
403 870
186 352
5 697 748
486 857 867
5 327 577
311 467 607 979
215 328
129 486
315 336 875
464 783
62 891
181 1102
408 642 723 724
544 857
41 392
73 803
292 454 678
803 817
577 970
292 724 864
40 215
269 284
172 269
288 803
232 269
328 556
169 769
15 732
315 327 519 687 723 864
40 675
577 726
472 488
304 467 747
425 867
169 237 478 704
1038 1094 1128
521 1082
413 1102
504 769
157 732
172 803 857
323 336
414 864
228 574
272 690
272 284 370
172 889
130 226 527
137 670 1112
98 198
351 581 724 748
113 675 855
130 474
221 778
73 455
143 311 887 1128
396 504
311 887 1094 1128
233 625
157 605 732
330 777 787
215 642
5 724 748
113 857
488 929
237 788
245 486
259 327 703 748
507 540
294 530
160 330 981
228 260 315
109 168 177 814
260 511
157 504 732
304 311 467
444 669
244 455
232 743
581 724 748
55 365
113 221 444
40 84
79 418 467
157 306 686
413 530
408 937
225 546
586 855
507 642
530 689
130 226 384 527
209 444 551
6 166
486 889
405 530
157 605
361 867
245 817
370 513
444 1124
507 660 668
154 157
577 675 690 737 855
40 215 689
344 556
403 478 642
546 768
315 519
62 481
98 486 857 867
47 269
488 855
697 724
157 328 1176
73 743
117 521
370 646
71 686
315 336 687
215 530
62 761 1092
129 817
157 434
690 732
169 403
237 742
328 921
154 198 857
269 400
292 983
519 654 724
444 769
344 1105
233 686
292 864
143 467 1128
229 723
743 891
306 444
323 336 768
306 546 556
202 642
327 519
55 810
125 549
352 816
5 577 712
154 375
315 687
333 351 408 454
256 403
889 914
5 611
472 954
215 715
530 732 929
272 803
169 642
455 864
425 1105
73 117
304 311 747
179 769
134 333 408 572 600 811
154 686
449 577
117 154 352 816
208 295 423
444 468
890 970
169 596
504 812
138 260
351 519 821
488 535
486 680
789 937
96 176
267 530
288 881
117 803
129 425
176 403
605 803
49 687
215 507
444 761
154 486 889
267 288
369 507 642
73 472
228 572
5 408 655 683
77 788
157 205
43 84
40 403 642
172 642
233 248
154 344 857
162 198 769
857 914
403 478 689
344 686
310 914
84 803
169 237 780
245 284
157 737
215 891
408 732
269 486
769 857
52 626
62 579
97 310 914
577 875
169 237 642
315 351 357 687
444 478
356 643
5 449 577 655 693
5 449 655
269 695
215 444
311 467 747
173 405
80 331
49 292 327 864
113 173
117 743
228 444
269 362
52 285
117 857
157 219 314 588
689 1157
154 172
311 401 747
507 891
154 198 1089
238 865
690 929
73 352
113 732
472 751
75 444
327 687 864
143 311 607 979
344 751
2 229
43 140 166
228 260
77 169
306 686
288 444
5 591
111 574
129 686
598 921
157 225 306 652
260 610
96 408
179 202
47 154 172
40 119
160 981
209 444
154 769 857
179 855
333 687
66 444
40 173
176 488 580
154 521
488 754
73 198 205 867
100 269
169 328
292 694
103 154 344
113 403 642
323 610 864
173 215 328
514 737
45 233
440 912
91 304 607
304 311 467 901
395 408
478 530
5 449 577 581
130 384 424
5 351 697 748
315 654 859
327 697
154 245 486
176 294
535 689
261 467
57 157 732
176 670 1112
73 233
304 467 1128
260 875
154 857 867
233 472 803
546 950
73 306
172 344 914
285 803
642 694
5 327 748
140 577
103 521
370 640 891
233 605
630 723
336 768
52 157
154 841
769 881
229 768
154 198 914
113 294
327 406 519
133 272
488 890
30 414
670 769 929
370 408 690
312 727
817 857 867
157 159 369
171 248
333 351 454 678 864
408 577
344 803 817
169 788
351 581 697 748
362 929
157 652 769
209 348 444
890 1088
551 579
169 440
725 857
117 472
352 615 743
179 580
154 172 556
327 748 843
546 686
867 914
488 530
41 157 159 173 205 269 642 732 1083
285 867
131 833
511 574
654 859 875
233 288 857
138 306 556
18 674
113 429
125 396
269 972
423 611
71 176 267 786
77 169 788
202 472
49 229 723 864
580 732
157 328 652
369 534
196 260
769 889
5 327
202 474
642 783
294 507 642
605 769
209 348 444 551
288 488
45 97 113 157 169 172 176 205 306 310 346 413 474 481 510 732 743 891 924
472 744
154 172 486
40 642 689
272 370
5 103 351 529 697 748
181 776
530 534
507 642 1102
168 177 647 727
196 768
891 921
80 531
486 817
328 405
49 315 327 519 687 723 864
130 732
43 352
169 269
115 919
143 311 979
143 304 311 401 467 593 979
129 670 1112
288 1105
292 723
66 737
464 850
133 803
172 565
260 768
697 724 1027
170 370 690
71 507
169 1151
169 237 742
129 837
743 1105
642 668
530 642
444 857
467 730 747
306 831
233 344
295 423
30 59 414 654
488 675 855 857
444 789
229 644
229 444
47 154
351 405
129 248
50 303 865 919
121 937
530 817
138 361
15 891
98 172 486 857
5 587
769 803
91 304 311 467 979
580 629
504 737
138 225
292 444
169 176
41 269
196 260 264
761 1092
40 689 1157
443 766
45 198
40 484
96 718
73 344
158 875
312 536
73 285 769
344 817 857
154 857 914
113 288
202 737
113 221 1102
196 875
444 929
408 468
269 789
769 867
47 98
625 823
73 488
857 1089
133 172
62 444
98 1105
504 642
140 445
403 507
49 327 333 408 687
769 1105
131 208 295
271 445
205 857
130 1029
556 867
133 472
6 768
215 455
30 103 179 472 841 857
157 642
103 117 521 1082
233 306 546
103 117
269 1105
170 370 640 690 937
76 91 304 467
285 556
85 232
333 351 408 454 678
215 294
486 725
159 546
215 478 689
40 113 215
215 689 715
215 1102
285 352
91 304
5 449 683
654 875
393 847
52 229
328 351
173 444
403 507 642 765
535 642
472 565
408 581 970
157 169
269 395
311 401 979
157 1176
229 859
173 215
439 851
330 408 790
170 690 891
6 169
591 712
44 964
157 329
408 449
226 527
140 904
73 382
530 900
580 642
500 542
245 857
348 444 551 869
311 418 979
119 169
327 336 351
162 171
333 572
138 140 361
486 881
202 288
84 352
167 642
348 444 455
71 176 488
352 769
119 776
449 581 693
73 133
367 455
202 670 929
73 157
267 891
52 215 743
323 336 419 610
605 750
323 511
179 215
245 867
5 449 591
472 914
269 488
30 59 414
369 642
267 294
408 764
172 248
40 789
2 851
687 859 882
472 546
646 670 1112
244 478
351 408
41 255
75 577 1126
84 769
115 865
521 841
62 761
269 857
129 172
328 367
304 311 467 730 979
103 154 841
370 640 690 891 937
154 176 202 233 285 472
310 857
315 326
113 237
133 769
91 401 418 467
403 413 642 667
5 577 655 683
129 358
143 304 311 467 747 979
129 803
260 336
76 418 467
52 817
157 225 306
306 732
126 229 468
169 173 369
119 403 642
71 173 176 310 372 382 546 727 837 1089
256 292
143 593
47 344
530 769
351 764
41 642
143 593 901
369 472 539 1163
642 680
488 857
143 401
294 328
129 328
75 330
49 724 864
157 179 732
358 472
224 690
130 384 474
488 675 855
330 737
260 864 875
133 288
675 855
408 530
344 857 867
315 519 864
113 642
1092 1160
103 117 352
176 330 351 529 581 810
444 937
196 229
298 1102
605 891
129 743
675 855 937
783 850
288 1075
62 400
157 605 652
259 354 444 542 621 776 832
328 914
336 511
202 689
750 803
336 875
392 689
52 157 259 369
403 444
315 327 333 519
63 444
47 686
233 306 605
154 186 841
400 551
176 929
44 202 964
202 444
49 687 864
486 743
413 642 732
215 686
2 439
306 556
356 642
176 530
5 327 577 655
474 670
272 504
133 285
73 233 857
84 285
408 683
157 347 1022
866 1160
577 581 683
215 488
77 788 884
219 464 672 1126
129 732
580 610 654 655 775 859
323 875
269 530
84 444
40 642
675 690 937
30 344
260 315 326
472 769
519 678
177 727
30 59 414 864
198 288
304 311 467 887 979
170 370 690 937
260 264 327 859
867 889
129 914
62 209 444
444 1046
327 577 655
327 333 664
327 333 408 519 687
546 556
444 768
41 392 413 507 642 751
351 369
403 507 642
530 652
408 675 855
264 315 768
346 359
704 726
62 478
478 891
320 504
311 862
530 737
221 455
62 209 444 1092
418 607
414 654
472 857
224 535 690
154 172 472
176 455
52 138
158 315
91 304 467
267 737 847
143 311 401 593 979
138 306 546
221 298 429 444 532
98 817
348 444 761
181 642
352 472
327 577
304 311 979
40 776
53 362
433 750
621 773
169 618
188 327 333 351 678 687 864
233 769
294 444
162 285
577 1048
327 546 687
49 454 678
103 117 344
264 859
154 841 1082
687 875
176 732
176 507
69 504
331 531
39 486
130 384 1029
40 403
157 613
449 970
370 640 690
143 311 593 887
577 655
130 173
507 642 715
113 535
859 864
444 847
172 285
172 914
233 673
202 690
327 408 723
103 344
179 370 640 690
352 914
556 625 823
245 740
169 215
171 233 857
115 303
690 891 937
5 55 327 406 449 529 621 678 790
103 444
695 882
169 722
181 789
113 181 778
425 857
294 351
327 333 519 687 821
5 351
294 507
43 138 361
288 413
30 472
181 328
103 154 352
292 408
232 817
202 272
117 186 352
233 472
62 444 1092
41 448 492 507 642 751
115 686
209 551
292 642
531 556
228 687
113 689
440 891
577 1123
176 215
170 370 640 690
438 725
233 306 556
133 881
384 527
530 670 1112
732 857
229 875
737 847
157 306 556
103 891
91 467 607
326 654 859
157 556 652
134 327 333 519 577 687 811
504 690
168 177 259 647 727
41 84 392 413 507 642
49 454 519 678
408 581 591
642 809
171 556
625 823 857
254 347 1022
264 333 519 654 664 821
202 285
84 233
304 311 467 747 979
173 232
344 857 914
5 327 351 519
134 315 519 864
40 361
157 233 652 891
41 176 215 413 507 732
157 732 750
232 751
817 867
5 655
58 577
130 384 642
126 229 859
351 678 864
466 549
169 173 255 256 372 507 532 642 715 780
348 444 761 1160
169 478
52 743
130 527 1029
154 344 686
264 768
689 715
172 198
260 315 654
66 848
77 169 237
157 652 743
179 891
293 947
311 607 730 747
154 743 857
288 867
97 486
434 732
642 803
577 1066
148 260
62 256
488 535 689
181 215
129 198
625 817 823
198 344
444 725
444 790
162 891
229 924
732 847
113 202
737 891
370 444 640
687 821
229 785
73 556
546 732
154 889
162 306
154 285
30 344 841
115 486
5 449 748
546 831
527 891
408 712 970
43 140
221 789
138 159
157 171 306
260 882
40 169 689
365 408 449 581
134 357 572 687
62 413
464 785
444 1102
272 670 1112
565 857
245 949
169 577 788
143 311 467 730 747
817 929
304 311 887 1128
317 429
125 433
768 875
157 626 652
221 348 444
8 189
706 881
154 245
887 1094 1128
52 73
229 294
694 880
122 444
229 292
504 530 732
40 507
117 352 841 1082
269 817
444 621
154 172 867
285 605
77 169 788 884
129 133
52 215 234 352 444
179 370
176 546
723 864
113 472
478 857
73 198 253 413 708 837
260 326 654
327 333 577 687
370 675 855
304 311 607 979
344 769 857
674 929
330 530
209 551 1092
50 100 303 865
157 215 298 642
299 769
84 205
306 750
577 683
507 642 1083
284 577
327 336
138 546
413 667 891
50 115 303 865
580 864
521 816
269 575
330 509
157 172
43 138 140
154 172 486 857
113 803
117 154 841
73 867
173 294
356 444
551 761
196 655
49 229
44 803 964
208 295 584 611
369 1164
157 162 652
581 655
91 304 467 730
171 172
133 857
215 334
205 605
445 546 549
722 891
117 841
395 694
259 574 703
172 310 486
1 642
743 769 857
154 186
73 642
233 831
751 776
260 654
117 154
577 847
40 215 642
30 73 157 215 285 532 642
327 864
574 723
577 764
311 467 730 747
642 778
169 288
751 1105
52 732
130 686
455 836
215 809
30 315 414
157 179
408 449 591
504 819
84 344
304 311 401 467 979
405 577
312 790
449 577 581 655
130 384 527
405 478
267 403
333 351 718
73 157 159
392 1157
183 783
143 311 593 862
84 294
73 857 914
817 857
233 857
312 975 976
84 642
315 336 419
248 817
323 336 419
370 640 646 690
233 269
857 1105
84 157 732
198 867
138 157
113 403 413 642
864 890
662 893
769 817
43 556
370 408 640 690
80 494
157 580
172 205
327 336 351 546
73 129
62 269
237 413
269 768
80 331 494 531
205 288
472 732
284 370 640 690 937
43 140 166 268 361
171 857
157 1070
269 660
5 577 712 970
73 288
269 769
166 546
351 534
62 732
259 444 703
205 803
169 758
133 646
208 295 611
455 1092
202 972
304 1128
267 472
172 486 867
173 778
732 803
75 847
41 169 237
113 328
157 642 732
176 1102
580 750 859 864
504 670 1112
775 1088
157 488
294 488
605 642
311 979
333 864
269 293
288 686
352 857
5 449 697 748
312 382
288 857
157 171
472 530
344 615
179 670 1112
186 841
62 551
304 311 467 607 979
237 413 722 751
75 157
143 401 467
176 486
327 342
768 859
285 889
413 642 668
62 348 761
363 686
176 385
244 367 455
154 803 857
30 352
47 233
71 130
244 348 455
57 1022
267 737
370 640 675 855
408 655 790
5 327 351 748
198 914
91 467
5 408 449 581
154 344 615
642 891
208 423 833
418 467 747
444 1092
172 769
358 743
84 248
58 310
49 408 723
267 444
49 678
209 1092
654 859
104 202
40 169 179 205 256 372 928
103 344 841
62 348
401 467 730
140 396
256 455
91 143 304 593
315 351 687
129 352
5 34 173 372 449 467 532 642 647 751
347 1022
62 169
77 169 751
351 891
315 654
73 857
455 642
154 472
119 269
408 723 724
157 891
130 226 384
444 642 668
30 41 198 255 259 267 364 455 532 556 751 837 867 972
162 743
605 857
169 488
176 285
327 351
351 577
91 304 418 467
237 780
367 689
176 198
71 891
154 630
488 642
113 181
73 154
551 869
73 670 1112
621 808
472 837
304 311 467 730 747
117 670 1112
113 1157
129 154 857
370 408 640
310 743
264 327 859
173 642
98 172 857 867
327 519 697
311 467 607 747
670 690 1112
157 652 732
143 593 1128
245 361
84 472
294 408
169 780 884
750 769
333 351 718 864
84 937
857 867
530 670 929
40 215 1157
269 434
369 530
248 605
55 318
678 843
408 864 875
62 209 348
172 344
5 449 577 655
438 565
327 1159
232 248
117 198 205
71 769
179 513
157 159 503 537 546 549 686 864 866 1160
864 904
640 855
172 544
143 304 311 467 593 979
323 336 419 610 864
157 159 306
62 348 444 1160
40 173 689
5 581
327 748
660 776
157 314 347
129 929
574 716
66 157
551 642
41 267
352 642
405 752
143 311 593 979
126 229
474 527
121 284
154 867
327 333 351 519 664
285 743
260 315
30 59 315 414 864
344 642
267 847
198 556
272 732
264 327 336 875
546 605
205 867
284 937
370 396 640
5 449 581
44 857 964
154 198 743
157 472 652
157 314
57 620
162 233
315 336
77 438
125 140
71 488
310 867
642 732
358 556
138 605
642 1157
449 581
138 171
287 517
514 732 737 912
125 139
1094 1128
507 642 668
315 351 519 687 821
783 785
52 294 365 698
288 486
434 670 1112
857 889
504 653 670 732
45 803
138 158
5 712
737 786 847
288 425
370 855
133 245
113 488
478 890
130 891
157 732 773
84 129
565 725
344 817
40 113 689
91 304 311 467 730 862
60 642
98 285
327 333 408
444 530
62 176
670 732 1112
269 803
455 478
284 675 855
248 344
891 937
198 993
176 504
154 172 857
154 803
171 306 546
488 937
323 336 419 768
370 640 690 937
5 577 581 683
84 162
169 237 765
169 704 884
117 1082
723 768
114 383
610 687 821 863
229 405 468
272 891
262 398
2 546
49 408 723 724 864
5 408 683
5 577 683
454 519 678
5 970
157 669
478 776
215 293
642 1083
125 546
198 267
157 890
519 678 819
248 486
348 444 642
577 1078
455 660
77 884
472 891
10 362
369 732
284 690 855
408 690
654 687 859
504 929
348 507
577 581 712
264 327 882
103 1082
348 444
130 215
67 507 642
84 530
228 786
556 803
551 761 1092
1 1077
315 519 654
655 690
198 486
221 429 444
171 769
294 369
71 256 510 519 529 610 678 864 886
472 504
444 667
117 352 841
129 743 857
157 330
580 863
62 464
769 929
743 867
44 344 964
157 285
130 474 527
5 983
52 472
449 581 591
370 937
91 143 311 979
256 683
154 344 841
248 891
126 229 768
743 803
288 472
285 486
130 642
288 306
170 690 937
10 30 414 864
245 344
478 689
41 73 269 344 444 789
49 511
73 358 803
49 315 327 519 687 723 724 864
232 425
73 535
157 306 652
215 372
472 737
98 486 857
245 803
353 546 549
40 689
157 776
45 269
8 631
196 315
157 514 737 912
449 655
292 687 864
472 803
803 867
472 743 857
352 521
333 687 864
98 686
209 444 551 1092
215 751 769
40 1157
333 351 678 864
817 889
327 723 864
130 751
408 591
312 848
171 288
131 423
10 30 414
403 444 642
610 864
157 162
403 642
198 1089
408 712
556 605
285 496
642 723
294 769
177 647 727
468 1117
327 351 581 748
616 700
408 449 581
96 855
882 1095
444 722
173 530
198 605
482 549
478 937
369 891
113 776
670 732 929
694 983
423 584
129 488
686 1105
47 84
41 455
84 103 117
327 333 577
143 304
52 306
288 352
269 328
455 1157
458 472
530 732
678 748
5 327 449 748
449 984
519 821 1159
98 889
6 138
229 732 737
43 686
157 233 1176
351 369 577
170 640
267 369
232 891
229 408 724
76 304 418 467
289 472
527 642
205 817
45 751
288 546
143 304 311 467 979
448 492
472 642
720 971
52 328
272 530
103 556
115 269
179 284 370
84 157 159
157 233 652
215 546
444 891
369 444
514 737 847 912
169 237 704
113 367
344 841 1082
306 326
530 605
591 683
41 660
133 817
413 642 891
157 369 732
215 751 891
148 687
472 743 803
327 351 581
154 352 743
129 285
546 847
176 444
157 306 891
382 509
352 867
143 259 401 593
429 444
269 580
348 507 642
113 478
445 546
58 330 444 507 509 621 642 1069
504 732
887 1094
446 690
315 519 821
138 157 306 652
333 351 864
157 294
534 764
769 914
49 723
643 778
769 891
143 304 311 401 467 593 747
488 817
143 311 593 887 1128
97 198
5 577
117 434
269 472
577 581 655
49 327 864
328 769
157 288 306
143 311 593 607 747
84 225 306 444 652 732 750
5 351 724 748
215 789
137 670 674
62 348 444 761
750 1088
408 504
157 347
351 724 748
33 504
285 642
215 244
198 817
348 1160
837 867
76 304 311 467 979
5 408
91 191
408 750
80 331 379 494 531
157 750
202 929
574 577
47 232
315 768
138 288
104 259 703
233 306 613
169 732
129 232
9 768 882
285 929
344 743 841
30 285
30 103
382 769
330 478
304 311 467 730 747 979
91 304 413 607 847
233 285
344 743 857
113 215
50 303 865
352 369
73 248
154 857
488 1117
100 865
577 890
97 310
119 403
173 507 642 751
306 857
486 867
348 551
157 233 306 652
143 261
221 244 455
492 504
248 673
157 292
294 891
169 704 788
49 229 292 864
370 640 897
348 444 551
169 455
323 336 419 875
62 642
81 403 642
574 841
143 304 311 467 593 747 979
198 269 413 642 1089
173 776
675 765 855
269 504
311 467 979
395 678
40 891
267 754
157 306
425 817
358 891
292 630
38 41 215 244 392 413 444
55 107
288 743 857
172 867
134 315 519
344 929
285 288
327 333 687 864
154 755
157 841
408 1123
228 326
91 418 607
472 690
40 169 884
171 613
154 198 285
66 157 287 290 306 396 504 517 595
418 467
125 531 1161
546 642
344 575
76 304 401 467
57 732
129 344 914
352 841
768 882
208 584
103 154 186 344 352 375 755 816 841
103 176
344 758
157 306 605
198 769
143 311 593 1128
478 732
256 928
133 740
196 315 859
245 472
579 642
303 865
73 486
173 743
40 173 215
304 467
288 743
134 327 333 357 408 519 572 687 811
299 803
642 769
49 1004
117 186 344 755
237 642
103 352
98 269
47 857
580 1117
157 848
209 348
292 724
173 198
362 891
113 488 675 855
175 581
156 434
157 171 652
310 544
138 652
30 154
103 233
1083 1102
169 237 328
130 226
478 884
148 511
57 157
5 327 406 449 678
468 768
169 742
742 788
352 486
488 629
288 496
352 847
143 418 467
507 1102
429 642
129 564
215 228
311 747
306 546
103 768
788 884
315 875
157 225
292 408 724
57 157 1022
328 732
233 248 472
444 890
556 857
176 890
486 914
157 369
117 344 841
403 732
47 310
84 176
267 269
472 670 1112
260 357 687
117 867
169 198
39 198
62 455
169 237 884
170 690 855
229 970
260 315 859
176 817
239 504
179 690
478 1102
76 304
179 272
306 652
233 891
670 690 929
514 737 790 912
732 817
370 1153
403 642 722
311 418 467 747
434 803
336 419 519
521 743
327 642 723 864
50 100 865
181 478
206 674
84 743
84 1105
642 750
333 408 454
91 401
84 157 652
30 117
621 848
486 954
488 507
47 198
352 737
60 530
464 937
74 434
40 328
841 1082
49 864
269 670 929
488 732
425 891
344 914
138 891
348 869
143 401 593
284 675 690 855
229 864 875
790 848
256 642
44 245 964
743 889
315 678 864
157 857
179 284 370 690
73 198
232 857
171 625 823
41 169 429 444 455 577 675 690 751 855 937
157 610
406 678
405 924
328 369
344 425
173 472
158 260
62 173
170 640 690
157 294 642
1 507 642
172 743
293 598
534 577
408 581 712
202 803
724 864
52 803
328 642
488 765
179 344
304 311 467 979
143 259 401 593 703
215 788
5 712 970
269 344
215 681
5 408 970
323 336 419 601 864
395 1048
327 664
225 306
4 312
80 331 531
47 73
96 534
328 689
4 727
449 581 655
803 891
732 929
783 806
173 488
49 292 864
47 605
732 737
975 976
670 803 1112
327 333 351 408 492
5 408 449 683
103 642
162 328
225 233
440 642
211 486
91 143
546 769
455 1102
401 467 607
113 215 429 732
126 229 723
47 285
323 336 864
530 642 732
176 507 642
43 140 166 361
248 288
157 530 732
344 521
315 687 859
157 306 530
157 790
488 891
44 867 964
311 887 1128
30 59 414 864 1063
344 472
47 172
49 687 723 864
304 311 467 862
138 642
444 723 864
169 642 884
751 1102
577 598
84 103
405 547
228 306
49 723 864
323 336 511
875 890
103 154
130 384
8 622
310 889
133 486
264 323 768
41 143 401 593
395 455
85 169 332 369 649
803 929
57 347
113 169
356 507
126 864
292 327 864
215 667
50 303 680 865
41 85 198 344 472
143 311 467 979
52 294
157 288
157 642 750
551 869 1092
47 1105
449 577 581 683
71 546
547 642
370 640 937 1160
171 306
130 269 384
130 474 670
73 605
103 816
306 625 823
610 863
269 423
233 817
237 704
344 375
113 789
40 169
129 605
444 772
233 472 769
221 244 367 455
157 306 625 823
202 527
84 455
267 769
229 333 687 864
157 232
143 593 1038
356 540
91 143 467
821 1159
351 530
157 652 670 929
269 369
169 478 742
285 686
229 468
5 683
50 238 865
133 157
47 546
57 369
884 1090
49 408 724
169 857
205 248
351 985
40 809
208 423 584
743 857
154 642
359 563
486 642
169 551
62 209 348 444
154 198 310
157 225 233 652
5 408 712
5 327 351 678
162 429
129 171
84 817
129 154 198
157 272
221 348
119 413
154 344
189 710
157 176
143 311 467 901
267 642
444 1083
1102 1124
30 154 841
284 690 937
84 306
444 507
91 143 259 304 330 401 467 561 703 732 847
119 215 751
315 716
488 769
47 867
157 545
5 577 581
370 488 640
229 768 882
370 640
75 1126
154 732
478 510
160 312 981
438 486
511 864
143 311 593 747 979
330 847
361 881
750 859 864
348 408
601 864 875
40 62
41 413 580
640 690
125 358 433
52 546
1 507
521 686
654 716
62 348 642
157 504 652
222 472
414 1095
344 605
157 444
644 851
269 370 640 690
110 642
173 857
126 229 408 724
47 889
229 681
367 1157
408 985
