0 B2ZDZ3
1 G3X745
2 O00305
3 O00555
4 O15244
5 O15245
6 O15427
7 O15431
8 O15432
9 O15438
10 O15439
11 O15440
12 O43497
13 O43868
14 O60494
15 O60669
16 O60840
17 O75751
18 O76054
19 O76082
20 O94956
21 O95180
22 O95255
23 O95342
24 O95436
25 O95477
26 O95528
27 P00450
28 P00480
29 P02768
30 P02786
31 P02787
32 P02792
33 P02794
34 P02931
35 P05023
36 P08183
37 P11166
38 P11168
39 P11169
40 P13866
41 P14672
42 P15328
43 P15941
44 P20061
45 P20062
46 P20648
47 P21439
48 P21817
49 P22309
50 P22732
51 P23975
52 P27352
53 P29373
54 P29762
55 P30531
56 P31639
57 P31641
58 P31645
59 P32418
60 P33527
61 P35670
62 P36021
63 P41440
64 P43005
65 P46059
66 P46721
67 P48066
68 P49281
69 P49638
70 P49908
71 P51164
72 P53007
73 P53985
74 P54284
75 P55011
76 Q01650
77 Q01668
78 Q01860
79 Q01959
80 Q02641
81 Q03518
82 Q04656
83 Q06495
84 Q08289
85 Q08357
86 Q0VD83
87 Q12809
88 Q12908
89 Q13183
90 Q13336
91 Q13621
92 Q13698
93 Q13936
94 Q14542
95 Q14643
96 Q14973
97 Q15311
98 Q15413
99 Q15758
100 Q15849
101 Q15878
102 Q16348
103 Q2M3G0
104 Q2Y0W8
105 Q3KNW5
106 Q495M3
107 Q4U2R8
108 Q53GD3
109 Q5T3U5
110 Q63ZE4
111 Q6PXP3
112 Q6U841
113 Q6ZQN7
114 Q7RTT9
115 Q7Z2H8
116 Q7Z443
117 Q86UW1
118 Q86UW2
119 Q86VL8
120 Q86VW1
121 Q86YT5
122 Q8IWA5
123 Q8N130
124 Q8N4M1
125 Q8N695
126 Q8NEC5
127 Q8TCC7
128 Q8TD20
129 Q8TF71
130 Q8WTV0
131 Q8WUM9
132 Q8WWI5
133 Q8WWZ7
134 Q92736
135 Q92887
136 Q92959
137 Q96BD0
138 Q96FL8
139 Q96GZ6
140 Q96J66
141 Q96NT5
142 Q96QT4
143 Q96S37
144 Q99624
145 Q99707
146 Q99758
147 Q99808
148 Q9BQT8
149 Q9BX84
150 Q9BXJ7
151 Q9BY07
152 Q9BYW1
153 Q9GZV3
154 Q9H015
155 Q9H1D0
156 Q9H221
157 Q9H222
158 Q9H2D1
159 Q9H2X9
160 Q9H8M5
161 Q9HAS3
162 Q9NPD5
163 Q9NQA5
164 Q9NRM0
165 Q9NSA0
166 Q9NUT2
167 Q9NY64
168 Q9NYB5
169 Q9P0L9
170 Q9P0X4
171 Q9UBD6
172 Q9UDX3
173 Q9UDX4
174 Q9UGQ3
175 Q9UHC9
176 Q9UHI5
177 Q9UHI7
178 Q9UHW9
179 Q9UIG8
180 Q9UM01
181 Q9UN76
182 Q9UNQ0
183 Q9UP52
184 Q9UP95
185 Q9UPY5
186 Q9WTN6
187 Q9Y289
188 Q9Y666
189 Q9Y694
190 Q9Y6L6
191 Q9Y6M7
192 Q9Y6R1
193 Q9Z4N6
