0 A0A0E1R3H3
1 A0A0H2UQB5
2 A0A0H2URW2
3 A0A0H2WWQ9
4 A0A0H2XJ39
5 A0A0H2Z368
6 A0A0H3JRU9
7 A0A0H3JWX6
8 A0A0H3K1U2
9 A0A144A2G5
10 A0R559
11 A1A2B5
12 A1Z199
13 A2QLK4
14 A5W4F4
15 A5X5Y0
16 A7B6P0
17 A7J8L3
18 A8MPY1
19 A9CJ63
20 B7JA91
21 B7JBP8
22 C0H419
23 C0H4L1
24 C0H4V6
25 C0H4X5
26 C0H4Y6
27 C0H546
28 C0H551
29 C0H571
30 C0H5C2
31 C0H5H0
32 C6KSR5
33 C6KT34
34 C6KT50
35 C6KTA4
36 C6S3C7
37 F5HC79
38 F5HCU8
39 F5HGI9
40 L0DSL2
41 L0LZJ6
42 O00141
43 O00142
44 O00180
45 O00182
46 O00187
47 O00204
48 O00206
49 O00217
50 O00222
51 O00238
52 O00244
53 O00264
54 O00299
55 O00303
56 O00305
57 O00329
58 O00341
59 O00408
60 O00444
61 O00459
62 O00469
63 O00483
64 O00519
65 O00555
66 O00591
67 O00750
68 O00763
69 O00764
70 O05935
71 O06644
72 O06796
73 O07015
74 O07347
75 O07529
76 O07653
77 O07732
78 O08398
79 O08498
80 O11885
81 O13332
82 O14521
83 O14556
84 O14561
85 O14578
86 O14594
87 O14618
88 O14646
89 O14649
90 O14672
91 O14717
92 O14727
93 O14730
94 O14732
95 O14735
96 O14746
97 O14756
98 O14757
99 O14763
100 O14764
101 O14786
102 O14788
103 O14791
104 O14792
105 O14793
106 O14818
107 O14832
108 O14841
109 O14842
110 O14874
111 O14880
112 O14920
113 O14936
114 O14939
115 O14949
116 O14957
117 O14958
118 O14964
119 O14965
120 O14976
121 O14983
122 O15067
123 O15075
124 O15111
125 O15143
126 O15144
127 O15145
128 O15146
129 O15169
130 O15197
131 O15217
132 O15230
133 O15239
134 O15264
135 O15269
136 O15270
137 O15304
138 O15350
139 O15374
140 O15375
141 O15379
142 O15382
143 O15392
144 O15399
145 O15403
146 O15427
147 O15439
148 O15440
149 O15460
150 O15496
151 O15511
152 O15528
153 O15530
154 O15554
155 O15923
156 O24990
157 O25096
158 O25323
159 O25608
160 O25926
161 O25927
162 O25928
163 O30527
164 O31158
165 O31168
166 O31410
167 O31440
168 O31465
169 O31616
170 O32248
171 O32393
172 O32449
173 O32723
174 O33199
175 O33407
176 O33830
177 O33833
178 O34002
179 O34450
180 O34453
181 O34598
182 O34667
183 O34714
184 O34928
185 O34974
186 O35000
187 O39930
188 O43169
189 O43174
190 O43175
191 O43181
192 O43193
193 O43246
194 O43252
195 O43272
196 O43283
197 O43293
198 O43353
199 O43399
200 O43424
201 O43447
202 O43451
203 O43497
204 O43519
205 O43525
206 O43526
207 O43570
208 O43612
209 O43613
210 O43614
211 O43617
212 O43674
213 O43676
214 O43677
215 O43678
216 O43681
217 O43704
218 O43708
219 O43739
220 O43741
221 O43766
222 O43772
223 O43776
224 O43837
225 O43920
226 O43923
227 O52646
228 O52791
229 O52806
230 O53240
231 O60218
232 O60264
233 O60285
234 O60294
235 O60391
236 O60427
237 O60488
238 O60494
239 O60502
240 O60512
241 O60513
242 O60547
243 O60551
244 O60568
245 O60603
246 O60656
247 O60658
248 O60664
249 O60669
250 O60674
251 O60701
252 O60706
253 O60733
254 O60760
255 O60779
256 O60840
257 O60858
258 O60882
259 O60894
260 O60895
261 O60896
262 O60909
263 O60911
264 O60931
265 O60939
266 O60942
267 O66145
268 O66496
269 O66529
270 O67040
271 O67135
272 O67636
273 O67648
274 O67757
275 O67854
276 O67931
277 O67987
278 O68541
279 O68600
280 O68601
281 O68874
282 O69007
283 O69755
284 O75015
285 O75116
286 O75251
287 O75306
288 O75311
289 O75330
290 O75340
291 O75380
292 O75385
293 O75390
294 O75438
295 O75460
296 O75469
297 O75489
298 O75493
299 O75521
300 O75533
301 O75600
302 O75636
303 O75676
304 O75715
305 O75716
306 O75746
307 O75747
308 O75762
309 O75838
310 O75865
311 O75874
312 O75879
313 O75880
314 O75891
315 O75899
316 O75900
317 O75908
318 O75911
319 O75914
320 O75936
321 O75964
322 O75976
323 O76054
324 O76074
325 O76082
326 O76083
327 O77323
328 O77361
329 O82839
330 O85361
331 O85465
332 O87696
333 O87949
334 O90777
335 O91734
336 O92972
337 O93182
338 O94760
339 O94766
340 O94768
341 O94788
342 O94804
343 O94903
344 O94925
345 O94956
346 O95045
347 O95069
348 O95139
349 O95167
350 O95168
351 O95169
352 O95178
353 O95180
354 O95182
355 O95190
356 O95237
357 O95255
358 O95259
359 O95263
360 O95264
361 O95298
362 O95299
363 O95342
364 O95363
365 O95382
366 O95470
367 O95477
368 O95479
369 O95573
370 O95622
371 O95644
372 O95665
373 O95718
374 O95747
375 O95749
376 O95750
377 O95819
378 O95831
379 O95835
380 O95838
381 O95864
382 O95865
383 O95881
384 O95907
385 O95954
386 O96000
387 O96013
388 O96017
389 O96221
390 O97313
391 P00091
392 P00101
393 P00132
394 P00137
395 P00148
396 P00156
397 P00167
398 P00183
399 P00269
400 P00282
401 P00323
402 P00325
403 P00326
404 P00338
405 P00352
406 P00362
407 P00363
408 P00367
409 P00374
410 P00381
411 P00387
412 P00390
413 P00395
414 P00403
415 P00414
416 P00436
417 P00437
418 P00438
419 P00439
420 P00441
421 P00450
422 P00451
423 P00469
424 P00480
425 P00484
426 P00488
427 P00490
428 P00491
429 P00492
430 P00497
431 P00505
432 P00509
433 P00512
434 P00519
435 P00524
436 P00533
437 P00558
438 P00568
439 P00582
440 P00587
441 P00634
442 P00644
443 P00646
444 P00691
445 P00692
446 P00709
447 P00720
448 P00722
449 P00734
450 P00736
451 P00739
452 P00740
453 P00742
454 P00746
455 P00747
456 P00748
457 P00749
458 P00750
459 P00751
460 P00775
461 P00778
462 P00780
463 P00782
464 P00797
465 P00800
466 P00803
467 P00805
468 P00807
469 P00808
470 P00811
471 P00813
472 P00846
473 P00861
474 P00864
475 P00909
476 P00914
477 P00915
478 P00918
479 P00929
480 P00935
481 P00943
482 P00947
483 P00953
484 P00959
485 P00966
486 P00973
487 P01008
488 P01009
489 P01011
490 P01019
491 P01023
492 P01024
493 P01031
494 P01042
495 P01100
496 P01106
497 P01112
498 P01116
499 P01127
500 P01130
501 P01133
502 P01137
503 P01138
504 P01178
505 P01189
506 P01270
507 P01303
508 P01308
509 P01350
510 P01374
511 P01375
512 P01552
513 P01556
514 P01563
515 P01574
516 P01579
517 P01583
518 P01584
519 P01589
520 P01591
521 P01730
522 P01906
523 P02144
524 P02359
525 P02452
526 P02458
527 P02461
528 P02533
529 P02538
530 P02585
531 P02647
532 P02649
533 P02652
534 P02655
535 P02656
536 P02671
537 P02675
538 P02679
539 P02689
540 P02708
541 P02741
542 P02743
543 P02745
544 P02746
545 P02747
546 P02748
547 P02749
548 P02750
549 P02751
550 P02753
551 P02763
552 P02765
553 P02766
554 P02768
555 P02774
556 P02775
557 P02776
558 P02778
559 P02786
560 P02787
561 P02788
562 P02792
563 P02794
564 P02795
565 P02818
566 P02918
567 P02919
568 P02920
569 P02924
570 P02925
571 P02929
572 P02930
573 P02931
574 P02941
575 P02943
576 P02974
577 P03007
578 P03023
579 P03176
580 P03198
581 P03200
582 P03234
583 P03276
584 P03277
585 P03300
586 P03302
587 P03303
588 P03316
589 P03355
590 P03366
591 P03367
592 P03369
593 P03372
594 P03422
595 P03437
596 P03472
597 P03474
598 P03692
599 P03706
600 P03765
601 P03886
602 P03891
603 P03897
604 P03901
605 P03905
606 P03915
607 P03923
608 P03950
609 P03951
610 P03952
611 P03956
612 P03960
613 P04003
614 P04004
615 P04015
616 P04035
617 P04036
618 P04040
619 P04049
620 P04053
621 P04054
622 P04062
623 P04070
624 P04075
625 P04079
626 P04080
627 P04083
628 P04118
629 P04141
630 P04150
631 P04155
632 P04156
633 P04179
634 P04181
635 P04183
636 P04190
637 P04217
638 P04229
639 P04234
640 P04252
641 P04264
642 P04271
643 P04275
644 P04278
645 P04279
646 P04293
647 P04350
648 P04377
649 P04390
650 P04391
651 P04392
652 P04406
653 P04424
654 P04531
655 P04547
656 P04585
657 P04587
658 P04626
659 P04629
660 P04632
661 P04637
662 P04731
663 P04732
664 P04733
665 P04745
666 P04746
667 P04792
668 P04798
669 P04818
670 P04825
671 P04839
672 P04936
673 P04958
674 P04964
675 P05019
676 P05020
677 P05023
678 P05041
679 P05042
680 P05062
681 P05067
682 P05089
683 P05090
684 P05091
685 P05093
686 P05100
687 P05102
688 P05106
689 P05107
690 P05108
691 P05109
692 P05112
693 P05113
694 P05120
695 P05121
696 P05129
697 P05141
698 P05154
699 P05155
700 P05156
701 P05160
702 P05162
703 P05164
704 P05165
705 P05166
706 P05177
707 P05181
708 P05186
709 P05187
710 P05193
711 P05230
712 P05231
713 P05305
714 P05327
715 P05362
716 P05364
717 P05412
718 P05451
719 P05452
720 P05543
721 P05546
722 P05556
723 P05618
724 P05653
725 P05655
726 P05695
727 P05771
728 P05787
729 P05896
730 P05981
731 P06008
732 P06009
733 P06010
734 P06126
735 P06129
736 P06132
737 P06149
738 P06202
739 P06210
740 P06213
741 P06239
742 P06241
743 P06276
744 P06280
745 P06396
746 P06400
747 P06401
748 P06441
749 P06478
750 P06493
751 P06576
752 P06608
753 P06612
754 P06632
755 P06653
756 P06672
757 P06702
758 P06703
759 P06709
760 P06710
761 P06715
762 P06716
763 P06729
764 P06730
765 P06731
766 P06732
767 P06733
768 P06734
769 P06737
770 P06744
771 P06746
772 P06748
773 P06753
774 P06756
775 P06818
776 P06820
777 P06850
778 P06858
779 P06864
780 P06870
781 P06881
782 P06968
783 P06971
784 P06983
785 P06986
786 P06988
787 P06993
788 P07003
789 P07014
790 P07024
791 P07026
792 P07071
793 P07097
794 P07098
795 P07101
796 P07108
797 P07110
798 P07195
799 P07202
800 P07203
801 P07204
802 P07225
803 P07237
804 P07254
805 P07288
806 P07307
807 P07327
808 P07332
809 P07333
810 P07339
811 P07355
812 P07357
813 P07358
814 P07359
815 P07360
816 P07384
817 P07437
818 P07438
819 P07445
820 P07451
821 P07464
822 P07477
823 P07498
824 P07510
825 P07515
826 P07550
827 P07585
828 P07602
829 P07617
830 P07650
831 P07658
832 P07686
833 P07711
834 P07737
835 P07741
836 P07766
837 P07771
838 P07773
839 P07801
840 P07814
841 P07822
842 P07858
843 P07864
844 P07900
845 P07919
846 P07942
847 P07944
848 P07947
849 P07948
850 P07949
851 P07986
852 P07998
853 P08048
854 P08069
855 P08100
856 P08123
857 P08149
858 P08164
859 P08172
860 P08173
861 P08174
862 P08179
863 P08183
864 P08185
865 P08192
866 P08200
867 P08217
868 P08235
869 P08238
870 P08243
871 P08244
872 P08246
873 P08253
874 P08254
875 P08263
876 P08306
877 P08311
878 P08319
879 P08337
880 P08373
881 P08473
882 P08493
883 P08506
884 P08514
885 P08519
886 P08546
887 P08559
888 P08574
889 P08581
890 P08588
891 P08603
892 P08617
893 P08620
894 P08631
895 P08637
896 P08648
897 P08670
898 P08684
899 P08686
900 P08690
901 P08692
902 P08697
903 P08700
904 P08708
905 P08709
906 P08729
907 P08758
908 P08773
909 P08779
910 P08842
911 P08865
912 P08870
913 P08877
914 P08887
915 P08908
916 P08909
917 P08912
918 P08913
919 P08922
920 P09012
921 P09038
922 P09063
923 P09104
924 P09110
925 P09142
926 P09147
927 P09148
928 P09152
929 P09172
930 P09210
931 P09211
932 P09237
933 P09238
934 P09252
935 P09373
936 P09382
937 P09391
938 P09417
939 P09429
940 P09455
941 P09466
942 P09467
943 P09486
944 P09488
945 P09493
946 P09525
947 P09546
948 P09592
949 P09598
950 P09601
951 P09619
952 P09622
953 P09668
954 P09669
955 P09693
956 P09769
957 P09788
958 P09848
959 P09850
960 P09871
961 P09874
962 P09884
963 P09917
964 P09936
965 P09958
966 P09960
967 P0A006
968 P0A017
969 P0A076
970 P0A078
971 P0A079
972 P0A094
973 P0A0K8
974 P0A0N4
975 P0A0N5
976 P0A0Z8
977 P0A108
978 P0A110
979 P0A112
980 P0A115
981 P0A1F6
982 P0A1P6
983 P0A1V8
984 P0A1X2
985 P0A1X3
986 P0A2K1
987 P0A2W7
988 P0A2Y7
989 P0A333
990 P0A334
991 P0A3D9
992 P0A3M5
993 P0A3M6
994 P0A3R9
995 P0A3Y5
996 P0A433
997 P0A434
998 P0A444
999 P0A4L9
1000 P0A6A8
1001 P0A6B1
1002 P0A6C8
1003 P0A6D3
1004 P0A6E4
1005 P0A6F3
1006 P0A6G7
1007 P0A6H7
1008 P0A6I0
1009 P0A6I3
1010 P0A6I8
1011 P0A6I9
1012 P0A6J8
1013 P0A6K3
1014 P0A6L0
1015 P0A6L6
1016 P0A6M2
1017 P0A6Q3
1018 P0A6Q5
1019 P0A6R0
1020 P0A6T8
1021 P0A6V7
1022 P0A6V8
1023 P0A6W9
1024 P0A6Y5
1025 P0A716
1026 P0A721
1027 P0A733
1028 P0A745
1029 P0A749
1030 P0A751
1031 P0A753
1032 P0A759
1033 P0A786
1034 P0A789
1035 P0A793
1036 P0A794
1037 P0A7D4
1038 P0A7E1
1039 P0A7G9
1040 P0A7J6
1041 P0A7R5
1042 P0A7S3
1043 P0A7S9
1044 P0A7U3
1045 P0A7V3
1046 P0A7V8
1047 P0A7W7
1048 P0A7X3
1049 P0A7Z3
1050 P0A7Z4
1051 P0A805
1052 P0A808
1053 P0A820
1054 P0A827
1055 P0A872
1056 P0A876
1057 P0A884
1058 P0A8D6
1059 P0A8M5
1060 P0A8P1
1061 P0A8Q0
1062 P0A8Q3
1063 P0A8T7
1064 P0A8V2
1065 P0A8V6
1066 P0A8V9
1067 P0A8X2
1068 P0A910
1069 P0A915
1070 P0A917
1071 P0A921
1072 P0A927
1073 P0A953
1074 P0A955
1075 P0A988
1076 P0A9B2
1077 P0A9D2
1078 P0A9E0
1079 P0A9J6
1080 P0A9J8
1081 P0A9M2
1082 P0A9M5
1083 P0A9P4
1084 P0A9S1
1085 P0A9Z7
1086 P0AA43
1087 P0AAI5
1088 P0AAJ3
1089 P0AB71
1090 P0AB74
1091 P0AB77
1092 P0AB80
1093 P0AB87
1094 P0AB91
1095 P0ABA0
1096 P0ABE7
1097 P0ABF6
1098 P0ABK9
1099 P0ABP8
1100 P0ABQ0
1101 P0ABQ4
1102 P0AC13
1103 P0AC38
1104 P0AC41
1105 P0AC44
1106 P0AC47
1107 P0ACB2
1108 P0ACC1
1109 P0ACC7
1110 P0ACJ8
1111 P0ACQ4
1112 P0AD63
1113 P0AD64
1114 P0AD65
1115 P0AD68
1116 P0AD69
1117 P0ADA1
1118 P0ADY7
1119 P0AE12
1120 P0AE18
1121 P0AE22
1122 P0AE67
1123 P0AEB2
1124 P0AEB3
1125 P0AEE5
1126 P0AEG4
1127 P0AEG6
1128 P0AEJ4
1129 P0AEK2
1130 P0AEK4
1131 P0AEK7
1132 P0AER0
1133 P0AES2
1134 P0AES4
1135 P0AES6
1136 P0AET8
1137 P0AEX9
1138 P0AEZ1
1139 P0AF12
1140 P0AF14
1141 P0AF93
1142 P0AFB1
1143 P0AFG8
1144 P0AFI2
1145 P0AFI5
1146 P0AFI7
1147 P0AFK9
1148 P0AFL3
1149 P0AFM2
1150 P0AFU8
1151 P0AG16
1152 P0AG59
1153 P0AG82
1154 P0AGC3
1155 P0AGE0
1156 P0AGG2
1157 P0AGJ9
1158 P0C002
1159 P0C0E6
1160 P0C0F4
1161 P0C0H6
1162 P0C0J0
1163 P0C0L4
1164 P0C0L5
1165 P0C0T5
1166 P0C0X1
1167 P0C0X2
1168 P0C0Y9
1169 P0C1V1
1170 P0C264
1171 P0C278
1172 P0C2P0
1173 P0C6U8
1174 P0C6X7
1175 P0CG29
1176 P0CG47
1177 P0CG48
1178 P0CI79
1179 P0DJ06
1180 P0DM35
1181 P0DM80
1182 P0DMS8
1183 P0DP23
1184 P10092
1185 P10109
1186 P10114
1187 P10145
1188 P10147
1189 P10153
1190 P10176
1191 P10186
1192 P10253
1193 P10275
1194 P10276
1195 P10340
1196 P10384
1197 P10398
1198 P10412
1199 P10415
1200 P10478
1201 P10515
1202 P10589
1203 P10599
1204 P10600
1205 P10606
1206 P10613
1207 P10614
1208 P10620
1209 P10632
1210 P10635
1211 P10636
1212 P10644
1213 P10646
1214 P10696
1215 P10721
1216 P10724
1217 P10745
1218 P10768
1219 P10802
1220 P10809
1221 P10826
1222 P10827
1223 P10828
1224 P10844
1225 P10875
1226 P10902
1227 P10909
1228 P10912
1229 P10915
1230 P10930
1231 P10943
1232 P10997
1233 P11021
1234 P11047
1235 P11086
1236 P11124
1237 P11137
1238 P11142
1239 P11166
1240 P11168
1241 P11172
1242 P11177
1243 P11216
1244 P11217
1245 P11226
1246 P11229
1247 P11230
1248 P11233
1249 P11274
1250 P11309
1251 P11310
1252 P11349
1253 P11350
1254 P11362
1255 P11387
1256 P11388
1257 P11409
1258 P11411
1259 P11413
1260 P11439
1261 P11444
1262 P11473
1263 P11474
1264 P11485
1265 P11488
1266 P11498
1267 P11509
1268 P11511
1269 P11546
1270 P11586
1271 P11597
1272 P11678
1273 P11684
1274 P11712
1275 P11717
1276 P11759
1277 P11766
1278 P11797
1279 P11802
1280 P11836
1281 P11922
1282 P11926
1283 P11998
1284 P12004
1285 P12070
1286 P12081
1287 P12104
1288 P12235
1289 P12236
1290 P12256
1291 P12259
1292 P12268
1293 P12271
1294 P12277
1295 P12314
1296 P12318
1297 P12319
1298 P12429
1299 P12461
1300 P12488
1301 P12497
1302 P12499
1303 P12528
1304 P12532
1305 P12564
1306 P12644
1307 P12676
1308 P12724
1309 P12758
1310 P12814
1311 P12821
1312 P12823
1313 P12851
1314 P12883
1315 P12915
1316 P12931
1317 P12995
1318 P12996
1319 P12998
1320 P13000
1321 P13001
1322 P13009
1323 P13036
1324 P13051
1325 P13073
1326 P13100
1327 P13196
1328 P13254
1329 P13299
1330 P13376
1331 P13423
1332 P13498
1333 P13500
1334 P13501
1335 P13507
1336 P13569
1337 P13611
1338 P13612
1339 P13631
1340 P13632
1341 P13637
1342 P13639
1343 P13640
1344 P13645
1345 P13647
1346 P13650
1347 P13661
1348 P13674
1349 P13686
1350 P13688
1351 P13693
1352 P13702
1353 P13716
1354 P13726
1355 P13727
1356 P13843
1357 P13861
1358 P13866
1359 P13900
1360 P13901
1361 P13922
1362 P13929
1363 P13945
1364 P13956
1365 P13981
1366 P13995
1367 P14060
1368 P14061
1369 P14090
1370 P14169
1371 P14174
1372 P14193
1373 P14207
1374 P14210
1375 P14218
1376 P14262
1377 P14324
1378 P14385
1379 P14410
1380 P14416
1381 P14489
1382 P14532
1383 P14543
1384 P14550
1385 P14555
1386 P14598
1387 P14616
1388 P14618
1389 P14621
1390 P14625
1391 P14649
1392 P14677
1393 P14679
1394 P14735
1395 P14739
1396 P14751
1397 P14756
1398 P14770
1399 P14778
1400 P14779
1401 P14780
1402 P14784
1403 P14854
1404 P14866
1405 P14867
1406 P14868
1407 P14900
1408 P14902
1409 P14920
1410 P14923
1411 P14927
1412 P14941
1413 P15034
1414 P15043
1415 P15056
1416 P15085
1417 P15086
1418 P15104
1419 P15121
1420 P15144
1421 P15151
1422 P15153
1423 P15169
1424 P15170
1425 P15259
1426 P15260
1427 P15273
1428 P15289
1429 P15291
1430 P15309
1431 P15328
1432 P15336
1433 P15382
1434 P15391
1435 P15428
1436 P15474
1437 P15502
1438 P15509
1439 P15531
1440 P15538
1441 P15555
1442 P15559
1443 P15636
1444 P15692
1445 P15770
1446 P15813
1447 P15814
1448 P15879
1449 P15880
1450 P15917
1451 P15924
1452 P15925
1453 P15954
1454 P16006
1455 P16050
1456 P16066
1457 P16070
1458 P16083
1459 P16088
1460 P16099
1461 P16100
1462 P16109
1463 P16112
1464 P16113
1465 P16115
1466 P16118
1467 P16144
1468 P16152
1469 P16184
1470 P16218
1471 P16219
1472 P16220
1473 P16233
1474 P16234
1475 P16304
1476 P16384
1477 P16389
1478 P16410
1479 P16422
1480 P16435
1481 P16442
1482 P16444
1483 P16455
1484 P16471
1485 P16473
1486 P16499
1487 P16502
1488 P16519
1489 P16544
1490 P16581
1491 P16591
1492 P16608
1493 P16615
1494 P16640
1495 P16753
1496 P16860
1497 P16870
1498 P16930
1499 P16932
1500 P17050
1501 P17117
1502 P17169
1503 P17174
1504 P17181
1505 P17213
1506 P17252
1507 P17291
1508 P17297
1509 P17302
1510 P17315
1511 P17342
1512 P17405
1513 P17412
1514 P17413
1515 P17443
1516 P17516
1517 P17540
1518 P17544
1519 P17568
1520 P17584
1521 P17596
1522 P17600
1523 P17612
1524 P17658
1525 P17676
1526 P17707
1527 P17735
1528 P17752
1529 P17787
1530 P17802
1531 P17812
1532 P17844
1533 P17846
1534 P17900
1535 P17931
1536 P17936
1537 P17948
1538 P17980
1539 P18031
1540 P18085
1541 P18089
1542 P18283
1543 P18314
1544 P18357
1545 P18405
1546 P18505
1547 P18507
1548 P18509
1549 P18510
1550 P18545
1551 P18548
1552 P18669
1553 P18825
1554 P18843
1555 P18846
1556 P18847
1557 P18848
1558 P18850
1559 P18858
1560 P18925
1561 P19021
1562 P19079
1563 P19080
1564 P19099
1565 P19105
1566 P19113
1567 P19235
1568 P19320
1569 P19367
1570 P19404
1571 P19424
1572 P19429
1573 P19438
1574 P19440
1575 P19480
1576 P19525
1577 P19531
1578 P19571
1579 P19622
1580 P19624
1581 P19634
1582 P19652
1583 P19711
1584 P19784
1585 P19793
1586 P19801
1587 P19821
1588 P19823
1589 P19827
1590 P19838
1591 P19878
1592 P19883
1593 P19909
1594 P19926
1595 P19938
1596 P19961
1597 P19971
1598 P20035
1599 P20061
1600 P20083
1601 P20132
1602 P20138
1603 P20231
1604 P20248
1605 P20261
1606 P20273
1607 P20276
1608 P20292
1609 P20309
1610 P20333
1611 P20339
1612 P20393
1613 P20472
1614 P20581
1615 P20586
1616 P20594
1617 P20618
1618 P20648
1619 P20674
1620 P20701
1621 P20711
1622 P20807
1623 P20810
1624 P20813
1625 P20815
1626 P20823
1627 P20839
1628 P20851
1629 P20906
1630 P20932
1631 P20963
1632 P20964
1633 P21266
1634 P21281
1635 P21283
1636 P21291
1637 P21333
1638 P21340
1639 P21397
1640 P21404
1641 P21408
1642 P21430
1643 P21452
1644 P21453
1645 P21462
1646 P21549
1647 P21554
1648 P21589
1649 P21631
1650 P21638
1651 P21673
1652 P21695
1653 P21709
1654 P21728
1655 P21731
1656 P21796
1657 P21802
1658 P21817
1659 P21890
1660 P21905
1661 P21912
1662 P21917
1663 P21918
1664 P21926
1665 P21964
1666 P21980
1667 P22001
1668 P22033
1669 P22055
1670 P22061
1671 P22073
1672 P22088
1673 P22102
1674 P22188
1675 P22234
1676 P22256
1677 P22262
1678 P22266
1679 P22301
1680 P22303
1681 P22309
1682 P22314
1683 P22340
1684 P22352
1685 P22364
1686 P22392
1687 P22413
1688 P22455
1689 P22459
1690 P22460
1691 P22513
1692 P22557
1693 P22570
1694 P22607
1695 P22619
1696 P22626
1697 P22629
1698 P22637
1699 P22676
1700 P22694
1701 P22695
1702 P22748
1703 P22749
1704 P22792
1705 P22830
1706 P22869
1707 P22888
1708 P22891
1709 P22894
1710 P22897
1711 P22906
1712 P22939
1713 P22983
1714 P23141
1715 P23181
1716 P23219
1717 P23222
1718 P23234
1719 P23246
1720 P23258
1721 P23276
1722 P23280
1723 P23284
1724 P23297
1725 P23340
1726 P23367
1727 P23368
1728 P23378
1729 P23381
1730 P23415
1731 P23416
1732 P23434
1733 P23458
1734 P23467
1735 P23469
1736 P23526
1737 P23528
1738 P23560
1739 P23677
1740 P23743
1741 P23763
1742 P23786
1743 P23827
1744 P23837
1745 P23882
1746 P23904
1747 P23905
1748 P23919
1749 P23921
1750 P23945
1751 P23946
1752 P23975
1753 P24024
1754 P24046
1755 P24092
1756 P24093
1757 P24158
1758 P24182
1759 P24183
1760 P24228
1761 P24232
1762 P24298
1763 P24300
1764 P24310
1765 P24311
1766 P24347
1767 P24385
1768 P24394
1769 P24425
1770 P24462
1771 P24474
1772 P24530
1773 P24557
1774 P24630
1775 P24666
1776 P24670
1777 P24752
1778 P24941
1779 P25006
1780 P25021
1781 P25024
1782 P25052
1783 P25053
1784 P25084
1785 P25092
1786 P25098
1787 P25100
1788 P25101
1789 P25103
1790 P25105
1791 P25116
1792 P25275
1793 P25311
1794 P25391
1795 P25524
1796 P25553
1797 P25705
1798 P25713
1799 P25774
1800 P25779
1801 P25786
1802 P25787
1803 P25788
1804 P25789
1805 P25815
1806 P25910
1807 P25924
1808 P25929
1809 P25942
1810 P25963
1811 P25971
1812 P26010
1813 P26196
1814 P26221
1815 P26276
1816 P26281
1817 P26358
1818 P26391
1819 P26392
1820 P26393
1821 P26394
1822 P26396
1823 P26397
1824 P26439
1825 P26440
1826 P26447
1827 P26466
1828 P26514
1829 P26572
1830 P26602
1831 P26639
1832 P26640
1833 P26660
1834 P26661
1835 P26662
1836 P26663
1837 P26664
1838 P26676
1839 P26827
1840 P26841
1841 P26918
1842 P26951
1843 P27017
1844 P27037
1845 P27142
1846 P27169
1847 P27302
1848 P27338
1849 P27348
1850 P27361
1851 P27448
1852 P27487
1853 P27505
1854 P27623
1855 P27635
1856 P27693
1857 P27695
1858 P27696
1859 P27707
1860 P27708
1861 P27797
1862 P27815
1863 P27816
1864 P27824
1865 P27828
1866 P27914
1867 P27915
1868 P27958
1869 P27986
1870 P28062
1871 P28065
1872 P28066
1873 P28070
1874 P28072
1875 P28074
1876 P28161
1877 P28221
1878 P28222
1879 P28223
1880 P28248
1881 P28305
1882 P28329
1883 P28331
1884 P28335
1885 P28472
1886 P28476
1887 P28482
1888 P28566
1889 P28593
1890 P28676
1891 P28702
1892 P28720
1893 P28790
1894 P28793
1895 P28838
1896 P28845
1897 P28861
1898 P28907
1899 P28908
1900 P29034
1901 P29074
1902 P29120
1903 P29166
1904 P29208
1905 P29218
1906 P29274
1907 P29275
1908 P29317
1909 P29320
1910 P29322
1911 P29371
1912 P29372
1913 P29376
1914 P29377
1915 P29395
1916 P29401
1917 P29422
1918 P29460
1919 P29466
1920 P29474
1921 P29475
1922 P29498
1923 P29508
1924 P29559
1925 P29590
1926 P29597
1927 P29622
1928 P29717
1929 P29723
1930 P29768
1931 P29803
1932 P29813
1933 P29827
1934 P29894
1935 P29899
1936 P29957
1937 P29965
1938 P29972
1939 P29973
1940 P30012
1941 P30038
1942 P30041
1943 P30043
1944 P30044
1945 P30049
1946 P30084
1947 P30085
1948 P30086
1949 P30101
1950 P30153
1951 P30197
1952 P30273
1953 P30291
1954 P30301
1955 P30305
1956 P30405
1957 P30411
1958 P30418
1959 P30419
1960 P30518
1961 P30519
1962 P30520
1963 P30530
1964 P30531
1965 P30532
1966 P30536
1967 P30542
1968 P30556
1969 P30559
1970 P30613
1971 P30626
1972 P30711
1973 P30749
1974 P30793
1975 P30825
1976 P30837
1977 P30838
1978 P30872
1979 P30874
1980 P30901
1981 P30920
1982 P30926
1983 P30939
1984 P30968
1985 P30988
1986 P31012
1987 P31013
1988 P31025
1989 P31040
1990 P31057
1991 P31101
1992 P31133
1993 P31142
1994 P31151
1995 P31152
1996 P31153
1997 P31213
1998 P31224
1999 P31260
2000 P31323
2001 P31327
2002 P31350
2003 P31358
2004 P31391
2005 P31415
2006 P31434
2007 P31491
2008 P31572
2009 P31639
2010 P31644
2011 P31645
2012 P31677
2013 P31723
2014 P31749
2015 P31751
2016 P31785
2017 P31930
2018 P31937
2019 P31939
2020 P31942
2021 P31943
2022 P31946
2023 P31948
2024 P31949
2025 P31992
2026 P31994
2027 P31995
2028 P32004
2029 P32019
2030 P32055
2031 P32056
2032 P32119
2033 P32169
2034 P32170
2035 P32173
2036 P32238
2037 P32239
2038 P32297
2039 P32320
2040 P32322
2041 P32396
2042 P32397
2043 P32418
2044 P32427
2045 P32722
2046 P32745
2047 P32754
2048 P32884
2049 P32890
2050 P32927
2051 P32929
2052 P32947
2053 P33038
2054 P33121
2055 P33151
2056 P33221
2057 P33247
2058 P33260
2059 P33261
2060 P33316
2061 P33402
2062 P33517
2063 P33527
2064 P33590
2065 P33644
2066 P33673
2067 P33681
2068 P33905
2069 P33981
2070 P34024
2071 P34096
2072 P34741
2073 P34896
2074 P34897
2075 P34903
2076 P34913
2077 P34932
2078 P34969
2079 P34972
2080 P34981
2081 P34995
2082 P34998
2083 P35030
2084 P35080
2085 P35218
2086 P35219
2087 P35222
2088 P35225
2089 P35228
2090 P35237
2091 P35241
2092 P35243
2093 P35247
2094 P35270
2095 P35340
2096 P35346
2097 P35348
2098 P35354
2099 P35367
2100 P35368
2101 P35372
2102 P35398
2103 P35408
2104 P35462
2105 P35498
2106 P35499
2107 P35520
2108 P35527
2109 P35556
2110 P35557
2111 P35558
2112 P35568
2113 P35579
2114 P35590
2115 P35610
2116 P35625
2117 P35626
2118 P35749
2119 P35754
2120 P35858
2121 P35869
2122 P35908
2123 P35913
2124 P35914
2125 P35916
2126 P35968
2127 P36021
2128 P36204
2129 P36275
2130 P36405
2131 P36419
2132 P36507
2133 P36542
2134 P36544
2135 P36578
2136 P36673
2137 P36683
2138 P36871
2139 P36873
2140 P36888
2141 P36894
2142 P36896
2143 P36897
2144 P36924
2145 P36946
2146 P36952
2147 P36955
2148 P36956
2149 P36959
2150 P36969
2151 P37001
2152 P37023
2153 P37058
2154 P37059
2155 P37062
2156 P37063
2157 P37088
2158 P37093
2159 P37173
2160 P37231
2161 P37268
2162 P37288
2163 P37330
2164 P37551
2165 P37610
2166 P37672
2167 P37698
2168 P37700
2169 P37747
2170 P37802
2171 P37840
2172 P37957
2173 P38038
2174 P38424
2175 P38435
2176 P38484
2177 P38489
2178 P38516
2179 P38606
2180 P38936
2181 P38940
2182 P39019
2183 P39023
2184 P39045
2185 P39086
2186 P39126
2187 P39135
2188 P39265
2189 P39300
2190 P39304
2191 P39377
2192 P39593
2193 P39594
2194 P39621
2195 P39639
2196 P39646
2197 P39662
2198 P39748
2199 P39805
2200 P39841
2201 P39900
2202 P39905
2203 P40238
2204 P40261
2205 P40306
2206 P40394
2207 P40406
2208 P40429
2209 P40616
2210 P40763
2211 P40859
2212 P40871
2213 P40925
2214 P40926
2215 P40933
2216 P40939
2217 P40943
2218 P41007
2219 P41020
2220 P41021
2221 P41022
2222 P41052
2223 P41091
2224 P41143
2225 P41145
2226 P41146
2227 P41180
2228 P41231
2229 P41235
2230 P41240
2231 P41250
2232 P41252
2233 P41407
2234 P41439
2235 P41594
2236 P41595
2237 P41597
2238 P41743
2239 P41789
2240 P41972
2241 P42081
2242 P42085
2243 P42126
2244 P42216
2245 P42261
2246 P42262
2247 P42263
2248 P42328
2249 P42330
2250 P42336
2251 P42338
2252 P42345
2253 P42357
2254 P42443
2255 P42512
2256 P42574
2257 P42593
2258 P42679
2259 P42680
2260 P42681
2261 P42684
2262 P42685
2263 P42766
2264 P42768
2265 P42790
2266 P42858
2267 P42892
2268 P42898
2269 P42971
2270 P43003
2271 P43004
2272 P43005
2273 P43007
2274 P43026
2275 P43080
2276 P43088
2277 P43099
2278 P43115
2279 P43116
2280 P43119
2281 P43133
2282 P43155
2283 P43166
2284 P43220
2285 P43235
2286 P43353
2287 P43403
2288 P43405
2289 P43457
2290 P43487
2291 P43490
2292 P43522
2293 P43652
2294 P43681
2295 P43683
2296 P43700
2297 P43702
2298 P43777
2299 P43813
2300 P43876
2301 P43886
2302 P43889
2303 P43912
2304 P43985
2305 P44160
2306 P44345
2307 P44469
2308 P44490
2309 P44725
2310 P44783
2311 P44801
2312 P44868
2313 P44886
2314 P45059
2315 P45066
2316 P45124
2317 P45314
2318 P45381
2319 P45452
2320 P45494
2321 P45510
2322 P45563
2323 P45568
2324 P45799
2325 P45844
2326 P45877
2327 P45880
2328 P45954
2329 P45973
2330 P45983
2331 P45984
2332 P46059
2333 P46072
2334 P46098
2335 P46336
2336 P46439
2337 P46459
2338 P46597
2339 P46663
2340 P46721
2341 P46734
2342 P46736
2343 P46781
2344 P46782
2345 P46828
2346 P46849
2347 P46859
2348 P46881
2349 P46883
2350 P46926
2351 P46939
2352 P46940
2353 P46976
2354 P47205
2355 P47228
2356 P47229
2357 P47712
2358 P47775
2359 P47869
2360 P47870
2361 P47871
2362 P47872
2363 P47895
2364 P47898
2365 P47901
2366 P47929
2367 P47944
2368 P47985
2369 P47989
2370 P48029
2371 P48039
2372 P48047
2373 P48048
2374 P48050
2375 P48051
2376 P48058
2377 P48060
2378 P48061
2379 P48065
2380 P48066
2381 P48067
2382 P48068
2383 P48147
2384 P48163
2385 P48167
2386 P48169
2387 P48181
2388 P48357
2389 P48443
2390 P48448
2391 P48449
2392 P48506
2393 P48507
2394 P48544
2395 P48547
2396 P48549
2397 P48551
2398 P48552
2399 P48632
2400 P48637
2401 P48651
2402 P48664
2403 P48723
2404 P48728
2405 P48729
2406 P48735
2407 P48736
2408 P48745
2409 P49019
2410 P49069
2411 P49137
2412 P49146
2413 P49189
2414 P49190
2415 P49228
2416 P49247
2417 P49257
2418 P49286
2419 P49302
2420 P49327
2421 P49336
2422 P49354
2423 P49356
2424 P49366
2425 P49368
2426 P49411
2427 P49419
2428 P49424
2429 P49448
2430 P49585
2431 P49588
2432 P49589
2433 P49591
2434 P49619
2435 P49674
2436 P49720
2437 P49721
2438 P49747
2439 P49759
2440 P49760
2441 P49761
2442 P49763
2443 P49765
2444 P49773
2445 P49788
2446 P49789
2447 P49821
2448 P49840
2449 P49841
2450 P49862
2451 P49888
2452 P49902
2453 P49908
2454 P49913
2455 P49915
2456 P49916
2457 P50052
2458 P50135
2459 P50213
2460 P50225
2461 P50250
2462 P50281
2463 P50391
2464 P50406
2465 P50416
2466 P50440
2467 P50453
2468 P50579
2469 P50597
2470 P50607
2471 P50613
2472 P50618
2473 P50740
2474 P50747
2475 P50750
2476 P50859
2477 P50870
2478 P50897
2479 P50914
2480 P50921
2481 P50993
2482 P51003
2483 P51149
2484 P51151
2485 P51160
2486 P51161
2487 P51164
2488 P51168
2489 P51170
2490 P51172
2491 P51178
2492 P51451
2493 P51511
2494 P51512
2495 P51553
2496 P51570
2497 P51580
2498 P51584
2499 P51606
2500 P51617
2501 P51648
2502 P51649
2503 P51659
2504 P51671
2505 P51681
2506 P51686
2507 P51687
2508 P51691
2509 P51692
2510 P51693
2511 P51698
2512 P51787
2513 P51788
2514 P51800
2515 P51812
2516 P51813
2517 P51843
2518 P51852
2519 P51857
2520 P51858
2521 P51884
2522 P51955
2523 P51956
2524 P51957
2525 P51970
2526 P52026
2527 P52045
2528 P52197
2529 P52209
2530 P52270
2531 P52333
2532 P52477
2533 P52564
2534 P52569
2535 P52597
2536 P52647
2537 P52664
2538 P52687
2539 P52699
2540 P52700
2541 P52732
2542 P52758
2543 P52788
2544 P52848
2545 P52895
2546 P52961
2547 P53004
2548 P53041
2549 P53350
2550 P53355
2551 P53554
2552 P53582
2553 P53597
2554 P53608
2555 P53609
2556 P53611
2557 P53667
2558 P53671
2559 P53778
2560 P53779
2561 P53805
2562 P53848
2563 P53985
2564 P54219
2565 P54278
2566 P54284
2567 P54289
2568 P54317
2569 P54368
2570 P54455
2571 P54548
2572 P54577
2573 P54578
2574 P54583
2575 P54619
2576 P54646
2577 P54652
2578 P54687
2579 P54710
2580 P54716
2581 P54750
2582 P54760
2583 P54762
2584 P54764
2585 P54802
2586 P54819
2587 P54820
2588 P54886
2589 P54965
2590 P54997
2591 P55011
2592 P55017
2593 P55038
2594 P55055
2595 P55072
2596 P55073
2597 P55157
2598 P55196
2599 P55210
2600 P55263
2601 P55407
2602 P55408
2603 P55769
2604 P55786
2605 P55789
2606 P55792
2607 P55809
2608 P55818
2609 P55882
2610 P56122
2611 P56181
2612 P56194
2613 P56282
2614 P56385
2615 P56524
2616 P56537
2617 P56556
2618 P56601
2619 P56690
2620 P56696
2621 P56817
2622 P56868
2623 P56937
2624 P57059
2625 P58335
2626 P58558
2627 P58758
2628 P59676
2629 P59768
2630 P59796
2631 P59846
2632 P59998
2633 P60063
2634 P60174
2635 P60327
2636 P60339
2637 P60355
2638 P60472
2639 P60484
2640 P60493
2641 P60568
2642 P60709
2643 P60723
2644 P60725
2645 P60757
2646 P60842
2647 P60844
2648 P60880
2649 P60900
2650 P60903
2651 P60906
2652 P60953
2653 P60981
2654 P61024
2655 P61073
2656 P61158
2657 P61160
2658 P61177
2659 P61278
2660 P61313
2661 P61320
2662 P61322
2663 P61432
2664 P61457
2665 P61497
2666 P61586
2667 P61587
2668 P61604
2669 P61626
2670 P61713
2671 P61769
2672 P61888
2673 P61889
2674 P61925
2675 P61927
2676 P61949
2677 P61978
2678 P61987
2679 P62136
2680 P62166
2681 P62219
2682 P62241
2683 P62258
2684 P62269
2685 P62277
2686 P62312
2687 P62316
2688 P62330
2689 P62344
2690 P62491
2691 P62508
2692 P62580
2693 P62593
2694 P62594
2695 P62617
2696 P62619
2697 P62623
2698 P62658
2699 P62660
2700 P62661
2701 P62662
2702 P62663
2703 P62669
2704 P62714
2705 P62736
2706 P62745
2707 P62750
2708 P62753
2709 P62807
2710 P62826
2711 P62829
2712 P62837
2713 P62857
2714 P62913
2715 P62917
2716 P62937
2717 P62942
2718 P62993
2719 P63000
2720 P63027
2721 P63092
2722 P63096
2723 P63098
2724 P63104
2725 P63151
2726 P63185
2727 P63208
2728 P63244
2729 P63261
2730 P63316
2731 P63462
2732 P65389
2733 P66010
2734 P67775
2735 P67870
2736 P67910
2737 P67936
2738 P68104
2739 P68133
2740 P68344
2741 P68363
2742 P68366
2743 P68371
2744 P68400
2745 P68638
2746 P68771
2747 P68826
2748 P68871
2749 P69054
2750 P69178
2751 P69441
2752 P69488
2753 P69681
2754 P69772
2755 P69795
2756 P69856
2757 P69903
2758 P69905
2759 P69908
2760 P69923
2761 P69924
2762 P71119
2763 P71143
2764 P71278
2765 P71447
2766 P72161
2767 P72181
2768 P72524
2769 P72525
2770 P74334
2771 P74645
2772 P75430
2773 P75792
2774 P75914
2775 P76045
2776 P76187
2777 P76216
2778 P76270
2779 P76577
2780 P77150
2781 P77173
2782 P77390
2783 P77398
2784 P77425
2785 P77444
2786 P77454
2787 P77541
2788 P77674
2789 P77836
2790 P77872
2791 P78330
2792 P78334
2793 P78348
2794 P78352
2795 P78356
2796 P78362
2797 P78368
2798 P78417
2799 P78508
2800 P78527
2801 P78536
2802 P78540
2803 P78559
2804 P80040
2805 P80075
2806 P80099
2807 P80188
2808 P80192
2809 P80294
2810 P80297
2811 P80303
2812 P80357
2813 P80365
2814 P80371
2815 P80372
2816 P80373
2817 P80374
2818 P80376
2819 P80377
2820 P80380
2821 P80404
2822 P80511
2823 P80561
2824 P80874
2825 P81040
2826 P81605
2827 P82251
2828 P82543
2829 P83223
2830 P83453
2831 P83792
2832 P83793
2833 P83794
2834 P83844
2835 P84077
2836 P84098
2837 P87066
2838 P94182
2839 P94548
2840 P94622
2841 P94690
2842 P94692
2843 P95276
2844 P95468
2845 P95673
2846 P95780
2847 P96113
2848 P96558
2849 P96618
2850 P96622
2851 P96945
2852 P96965
2853 P97084
2854 P97253
2855 P98002
2856 P98066
2857 P98155
2858 P98160
2859 P98164
2860 P98170
2861 P98194
2862 P99999
2863 P9WFF5
2864 P9WFF7
2865 P9WG35
2866 P9WGR1
2867 P9WGT1
2868 P9WGV3
2869 P9WGY3
2870 P9WGY7
2871 P9WH11
2872 P9WH69
2873 P9WHE9
2874 P9WHH7
2875 P9WHT9
2876 P9WHU1
2877 P9WI73
2878 P9WI81
2879 P9WIB9
2880 P9WIE5
2881 P9WIJ3
2882 P9WIL5
2883 P9WIQ1
2884 P9WIQ3
2885 P9WJI5
2886 P9WJJ7
2887 P9WJM7
2888 P9WK17
2889 P9WK19
2890 P9WK83
2891 P9WKD7
2892 P9WKE1
2893 P9WKE9
2894 P9WKK7
2895 P9WMC1
2896 P9WN25
2897 P9WN38
2898 P9WN39
2899 P9WN95
2900 P9WNC7
2901 P9WND1
2902 P9WNG3
2903 P9WNH5
2904 P9WNL5
2905 P9WNL7
2906 P9WNL9
2907 P9WNP5
2908 P9WNS5
2909 P9WNW7
2910 P9WNX1
2911 P9WNX3
2912 P9WP01
2913 P9WP23
2914 P9WPB3
2915 P9WPB5
2916 P9WPB7
2917 P9WPE1
2918 P9WPF1
2919 P9WPN5
2920 P9WPP7
2921 P9WPQ5
2922 P9WPS1
2923 P9WPX7
2924 P9WQ77
2925 P9WQB3
2926 P9WQD9
2927 P9WQN9
2928 Q00169
2929 Q00266
2930 Q00441
2931 Q00532
2932 Q00534
2933 Q00535
2934 Q00536
2935 Q00537
2936 Q00613
2937 Q00653
2938 Q00740
2939 Q00796
2940 Q00975
2941 Q00987
2942 Q01043
2943 Q01064
2944 Q01082
2945 Q01118
2946 Q01234
2947 Q01344
2948 Q01362
2949 Q01468
2950 Q01581
2951 Q01668
2952 Q01693
2953 Q01698
2954 Q01718
2955 Q01726
2956 Q01770
2957 Q01782
2958 Q01959
2959 Q02054
2960 Q02127
2961 Q02156
2962 Q02169
2963 Q02192
2964 Q02218
2965 Q02221
2966 Q02224
2967 Q02252
2968 Q02338
2969 Q02641
2970 Q02643
2971 Q02750
2972 Q02760
2973 Q02761
2974 Q02762
2975 Q02763
2976 Q02768
2977 Q02779
2978 Q02809
2979 Q02817
2980 Q02818
2981 Q02834
2982 Q02880
2983 Q02928
2984 Q03013
2985 Q03154
2986 Q03181
2987 Q03393
2988 Q03403
2989 Q03405
2990 Q03426
2991 Q03431
2992 Q03721
2993 Q03736
2994 Q04095
2995 Q04206
2996 Q04230
2997 Q04416
2998 Q04609
2999 Q04707
3000 Q04759
3001 Q04760
3002 Q04771
3003 Q04782
3004 Q04828
3005 Q04830
3006 Q04844
3007 Q04912
3008 Q04917
3009 Q05315
3010 Q05329
3011 Q05397
3012 Q05486
3013 Q05488
3014 Q05513
3015 Q05514
3016 Q05581
3017 Q05586
3018 Q05599
3019 Q05603
3020 Q05655
3021 Q05901
3022 Q05932
3023 Q05940
3024 Q06033
3025 Q06110
3026 Q06124
3027 Q06174
3028 Q06187
3029 Q06203
3030 Q06278
3031 Q06323
3032 Q06418
3033 Q06432
3034 Q06481
3035 Q06520
3036 Q06528
3037 Q06609
3038 Q06700
3039 Q06830
3040 Q07001
3041 Q07011
3042 Q07020
3043 Q07021
3044 Q07075
3045 Q07343
3046 Q07412
3047 Q07699
3048 Q07785
3049 Q07806
3050 Q07817
3051 Q07820
3052 Q07837
3053 Q07864
3054 Q07869
3055 Q07912
3056 Q07954
3057 Q07955
3058 Q07973
3059 Q07982
3060 Q08170
3061 Q08188
3062 Q08209
3063 Q08210
3064 Q08257
3065 Q08288
3066 Q08289
3067 Q08345
3068 Q08426
3069 Q08462
3070 Q08493
3071 Q08499
3072 Q08638
3073 Q08698
3074 Q08751
3075 Q08828
3076 Q08881
3077 Q09013
3078 Q09428
3079 Q09470
3080 Q0P8G4
3081 Q0S9X1
3082 Q0VD83
3083 Q0WKM4
3084 Q10588
3085 Q12756
3086 Q12791
3087 Q12797
3088 Q12809
3089 Q12851
3090 Q12852
3091 Q12866
3092 Q12874
3093 Q12879
3094 Q12882
3095 Q12908
3096 Q12965
3097 Q13002
3098 Q13003
3099 Q13085
3100 Q13093
3101 Q13126
3102 Q13131
3103 Q13133
3104 Q13153
3105 Q13163
3106 Q13164
3107 Q13177
3108 Q13183
3109 Q13188
3110 Q13219
3111 Q13224
3112 Q13231
3113 Q13233
3114 Q13237
3115 Q13255
3116 Q13258
3117 Q13285
3118 Q13315
3119 Q13332
3120 Q13362
3121 Q13363
3122 Q13370
3123 Q13393
3124 Q13421
3125 Q13423
3126 Q13426
3127 Q13427
3128 Q13443
3129 Q13464
3130 Q13470
3131 Q13509
3132 Q13523
3133 Q13526
3134 Q13546
3135 Q13547
3136 Q13554
3137 Q13555
3138 Q13557
3139 Q13564
3140 Q13621
3141 Q13627
3142 Q13630
3143 Q13639
3144 Q13698
3145 Q13748
3146 Q13838
3147 Q13873
3148 Q13882
3149 Q13885
3150 Q13907
3151 Q13936
3152 Q13946
3153 Q13956
3154 Q14003
3155 Q14012
3156 Q14032
3157 Q14081
3158 Q14103
3159 Q14123
3160 Q14145
3161 Q14164
3162 Q14181
3163 Q14289
3164 Q14330
3165 Q14353
3166 Q14376
3167 Q14416
3168 Q14432
3169 Q14457
3170 Q14494
3171 Q14500
3172 Q14520
3173 Q14524
3174 Q14534
3175 Q14541
3176 Q14542
3177 Q14565
3178 Q14571
3179 Q14573
3180 Q14624
3181 Q14626
3182 Q14627
3183 Q14643
3184 Q14654
3185 Q14680
3186 Q14697
3187 Q146M9
3188 Q14721
3189 Q14749
3190 Q14790
3191 Q14831
3192 Q14832
3193 Q14833
3194 Q14872
3195 Q14894
3196 Q14914
3197 Q14956
3198 Q14957
3199 Q14978
3200 Q14994
3201 Q14995
3202 Q15031
3203 Q15046
3204 Q15067
3205 Q15075
3206 Q15078
3207 Q15080
3208 Q15102
3209 Q15111
3210 Q15116
3211 Q15118
3212 Q15119
3213 Q15120
3214 Q15125
3215 Q15139
3216 Q15155
3217 Q15185
3218 Q15208
3219 Q15238
3220 Q15274
3221 Q15303
3222 Q15375
3223 Q15382
3224 Q15393
3225 Q15418
3226 Q15428
3227 Q15493
3228 Q15569
3229 Q15596
3230 Q15637
3231 Q15648
3232 Q15661
3233 Q15722
3234 Q15738
3235 Q15746
3236 Q15750
3237 Q15758
3238 Q15759
3239 Q15761
3240 Q15788
3241 Q15796
3242 Q15800
3243 Q15822
3244 Q15825
3245 Q15842
3246 Q15858
3247 Q15878
3248 Q15942
3249 Q16099
3250 Q16134
3251 Q16206
3252 Q16222
3253 Q16270
3254 Q16288
3255 Q16322
3256 Q16348
3257 Q16445
3258 Q16478
3259 Q16498
3260 Q16512
3261 Q16513
3262 Q16515
3263 Q16518
3264 Q16539
3265 Q16552
3266 Q16555
3267 Q16558
3268 Q16566
3269 Q16568
3270 Q16584
3271 Q16595
3272 Q16602
3273 Q16613
3274 Q16620
3275 Q16644
3276 Q16647
3277 Q16651
3278 Q16654
3279 Q16665
3280 Q16671
3281 Q16678
3282 Q16698
3283 Q16706
3284 Q16718
3285 Q16719
3286 Q16739
3287 Q16740
3288 Q16760
3289 Q16762
3290 Q16769
3291 Q16772
3292 Q16773
3293 Q16774
3294 Q16775
3295 Q16787
3296 Q16790
3297 Q16795
3298 Q16798
3299 Q16816
3300 Q16831
3301 Q16832
3302 Q16836
3303 Q16850
3304 Q16853
3305 Q16873
3306 Q16877
3307 Q16878
3308 Q16881
3309 Q18BX5
3310 Q1LCS4
3311 Q23022
3312 Q26000
3313 Q26609
3314 Q26966
3315 Q27738
3316 Q27743
3317 Q27796
3318 Q2LU76
3319 Q2M2I8
3320 Q2M3G0
3321 Q2QJL3
3322 Q2RJ67
3323 Q2TU84
3324 Q32MK0
3325 Q32P28
3326 Q37875
3327 Q38087
3328 Q3IWB0
3329 Q3J170
3330 Q3J1A5
3331 Q3J1A6
3332 Q3JP94
3333 Q3JUV5
3334 Q3JWH7
3335 Q44048
3336 Q44244
3337 Q44532
3338 Q45135
3339 Q45515
3340 Q45697
3341 Q46079
3342 Q460N3
3343 Q46220
3344 Q46393
3345 Q46444
3346 Q46509
3347 Q46604
3348 Q46702
3349 Q46704
3350 Q46705
3351 Q46730
3352 Q46822
3353 Q46856
3354 Q46891
3355 Q46893
3356 Q47066
3357 Q47644
3358 Q47764
3359 Q47NK3
3360 Q47PU3
3361 Q47Q21
3362 Q48152
3363 Q48255
3364 Q48436
3365 Q49184
3366 Q494W8
3367 Q4KH25
3368 Q4L5E3
3369 Q4L5E4
3370 Q4U2R8
3371 Q4W8W1
3372 Q4W9V8
3373 Q4ZHU6
3374 Q51225
3375 Q51366
3376 Q51504
3377 Q51705
3378 Q51782
3379 Q51792
3380 Q51793
3381 Q51911
3382 Q51948
3383 Q51990
3384 Q52369
3385 Q52437
3386 Q52546
3387 Q52WX2
3388 Q53119
3389 Q53464
3390 Q53547
3391 Q53586
3392 Q53591
3393 Q53707
3394 Q53728
3395 Q53901
3396 Q53908
3397 Q53ET4
3398 Q53H96
3399 Q53I07
3400 Q53ZE5
3401 Q54089
3402 Q54276
3403 Q54468
3404 Q54527
3405 Q54528
3406 Q54873
3407 Q54AI1
3408 Q55013
3409 Q55793
3410 Q55813
3411 Q56148
3412 Q56232
3413 Q56268
3414 Q56308
3415 Q56310
3416 Q56313
3417 Q56320
3418 Q56691
3419 Q56694
3420 Q56748
3421 Q56839
3422 Q56UN5
3423 Q57254
3424 Q57265
3425 Q57366
3426 Q57VC7
3427 Q58L87
3428 Q59192
3429 Q59288
3430 Q59325
3431 Q59334
3432 Q59401
3433 Q59560
3434 Q59643
3435 Q59675
3436 Q59721
3437 Q59771
3438 Q59931
3439 Q59961
3440 Q59976
3441 Q59FK2
3442 Q59GM9
3443 Q59H18
3444 Q59HE2
3445 Q5HEB7
3446 Q5JAM2
3447 Q5JPH6
3448 Q5JTZ9
3449 Q5JVS0
3450 Q5KUI2
3451 Q5KUI3
3452 Q5L1E2
3453 Q5L2G3
3454 Q5LI27
3455 Q5LRQ9
3456 Q5MYR6
3457 Q5NUL3
3458 Q5PXQ6
3459 Q5S007
3460 Q5SHF5
3461 Q5SHN3
3462 Q5SHN7
3463 Q5SHP2
3464 Q5SHQ5
3465 Q5SHR6
3466 Q5SHZ4
3467 Q5SID9
3468 Q5SIH3
3469 Q5SII2
3470 Q5SIR5
3471 Q5SJ28
3472 Q5SJ76
3473 Q5SJ79
3474 Q5SJ80
3475 Q5SJH3
3476 Q5SJI0
3477 Q5SKC5
3478 Q5SKH6
3479 Q5SKH7
3480 Q5SKW1
3481 Q5SL87
3482 Q5SLP8
3483 Q5SLQ0
3484 Q5SSJ5
3485 Q5T1J1
3486 Q5T4S7
3487 Q5T601
3488 Q5T6L4
3489 Q5TDP6
3490 Q5UPJ7
3491 Q5VZ30
3492 Q5XXA6
3493 Q60037
3494 Q60049
3495 Q60053
3496 Q60099
3497 Q64822
3498 Q64823
3499 Q65CX5
3500 Q66282
3501 Q693P7
3502 Q69600
3503 Q6A8X5
3504 Q6DT37
3505 Q6FEW8
3506 Q6FHJ7
3507 Q6GGU4
3508 Q6GI75
3509 Q6GII7
3510 Q6GJI1
3511 Q6IA69
3512 Q6IB77
3513 Q6IBS8
3514 Q6L8H2
3515 Q6LFH8
3516 Q6MZM0
3517 Q6N063
3518 Q6NS38
3519 Q6NSD4
3520 Q6NUM9
3521 Q6NUS8
3522 Q6NVY1
3523 Q6NXR0
3524 Q6P093
3525 Q6P3R8
3526 Q6P996
3527 Q6PEY2
3528 Q6PHR2
3529 Q6PHW0
3530 Q6PI48
3531 Q6PKH6
3532 Q6QNK2
3533 Q6TGC4
3534 Q6UWM7
3535 Q6UWN8
3536 Q6UWP2
3537 Q6UX15
3538 Q6V0L0
3539 Q6W5P4
3540 Q6WRI0
3541 Q6YP21
3542 Q6ZMR3
3543 Q6ZN16
3544 Q6ZQY3
3545 Q6ZZJ1
3546 Q701N4
3547 Q70AC7
3548 Q70GK9
3549 Q70I53
3550 Q70KI2
3551 Q70Z44
3552 Q71LY2
3553 Q71U36
3554 Q72497
3555 Q72EF3
3556 Q72EF4
3557 Q72JD8
3558 Q72JJ3
3559 Q72K87
3560 Q72LA4
3561 Q72LA5
3562 Q72LA6
3563 Q734I1
3564 Q746I8
3565 Q746J6
3566 Q746L7
3567 Q74EF5
3568 Q75N90
3569 Q75UV1
3570 Q75WK2
3571 Q76NM6
3572 Q76NN7
3573 Q79FX6
3574 Q79FX8
3575 Q79G13
3576 Q7ADF8
3577 Q7AUG5
3578 Q7BJM5
3579 Q7BK04
3580 Q7CL96
3581 Q7CRA4
3582 Q7DB61
3583 Q7DC80
3584 Q7DHH4
3585 Q7K6A4
3586 Q7K9G0
3587 Q7KQK0
3588 Q7KQL5
3589 Q7KQM4
3590 Q7KZA3
3591 Q7KZI7
3592 Q7L0J3
3593 Q7L266
3594 Q7L3T8
3595 Q7L5Y9
3596 Q7L7X3
3597 Q7LG56
3598 Q7MUW6
3599 Q7NSZ5
3600 Q7RTV2
3601 Q7RTX0
3602 Q7WT42
3603 Q7WUJ1
3604 Q7Z2H8
3605 Q7Z2W7
3606 Q7Z2Z2
3607 Q7Z3Y4
3608 Q7Z406
3609 Q7Z460
3610 Q7Z4J2
3611 Q7Z4W1
3612 Q7Z5B4
3613 Q816R0
3614 Q819K2
3615 Q819U0
3616 Q81C15
3617 Q81EE4
3618 Q81EW9
3619 Q81F54
3620 Q81JF8
3621 Q81L49
3622 Q81R22
3623 Q81VW8
3624 Q81Y15
3625 Q81ZL8
3626 Q820S6
3627 Q820T1
3628 Q82122
3629 Q82EE4
3630 Q82IZ1
3631 Q82ZJ0
3632 Q836J0
3633 Q837V6
3634 Q83JC4
3635 Q83LD8
3636 Q83M58
3637 Q83P33
3638 Q83QN9
3639 Q83WG3
3640 Q840M4
3641 Q84424
3642 Q84CU3
3643 Q84EX5
3644 Q84FH6
3645 Q84II6
3646 Q86SZ2
3647 Q86T13
3648 Q86UE8
3649 Q86US8
3650 Q86UW7
3651 Q86UW8
3652 Q86V86
3653 Q86VB7
3654 Q86VU5
3655 Q86W47
3656 Q86WA6
3657 Q86XF0
3658 Q86Y39
3659 Q86YB8
3660 Q86YV6
3661 Q86YZ3
3662 Q873X9
3663 Q87MW5
3664 Q88016
3665 Q888A4
3666 Q88CZ6
3667 Q88H32
3668 Q88K39
3669 Q89ZI2
3670 Q8AAK6
3671 Q8DNB6
3672 Q8DNV6
3673 Q8DP79
3674 Q8DR59
3675 Q8DW21
3676 Q8EBR3
3677 Q8GB52
3678 Q8GBW6
3679 Q8GEZ8
3680 Q8GGK7
3681 Q8GI16
3682 Q8GIQ0
3683 Q8GJ44
3684 Q8GMG0
3685 Q8GN86
3686 Q8GR64
3687 Q8GR70
3688 Q8I0V4
3689 Q8I0X2
3690 Q8I2Z8
3691 Q8I372
3692 Q8I3T9
3693 Q8I3X4
3694 Q8I3Z5
3695 Q8I431
3696 Q8I487
3697 Q8I492
3698 Q8I4R5
3699 Q8I4W4
3700 Q8I5G6
3701 Q8I5H4
3702 Q8I5Y3
3703 Q8I6U8
3704 Q8I814
3705 Q8IB72
3706 Q8IB78
3707 Q8IBI3
3708 Q8IBN5
3709 Q8IBS5
3710 Q8IC05
3711 Q8ID50
3712 Q8IDD3
3713 Q8IDH5
3714 Q8IDI5
3715 Q8IDP1
3716 Q8IDP8
3717 Q8IDQ9
3718 Q8IDV0
3719 Q8IE82
3720 Q8IEM3
3721 Q8IEN3
3722 Q8IHS5
3723 Q8II73
3724 Q8II92
3725 Q8IIA4
3726 Q8III5
3727 Q8IIR9
3728 Q8IJ60
3729 Q8IJ74
3730 Q8IJA9
3731 Q8IJC6
3732 Q8IJK8
3733 Q8IJN7
3734 Q8IJR6
3735 Q8IJT2
3736 Q8IKF0
3737 Q8IKH8
3738 Q8IKK7
3739 Q8IKL4
3740 Q8IKM5
3741 Q8IKM6
3742 Q8IKR1
3743 Q8IKW5
3744 Q8IL80
3745 Q8IL86
3746 Q8IL88
3747 Q8ILE8
3748 Q8ILF7
3749 Q8ILK3
3750 Q8ILV2
3751 Q8IM15
3752 Q8IM16
3753 Q8IM74
3754 Q8IU85
3755 Q8IUR0
3756 Q8IUZ5
3757 Q8IVA8
3758 Q8IVH4
3759 Q8IVH8
3760 Q8IVL5
3761 Q8IVL6
3762 Q8IVS2
3763 Q8IW41
3764 Q8IW54
3765 Q8IWL2
3766 Q8IWT1
3767 Q8IWU9
3768 Q8IY84
3769 Q8IYQ7
3770 Q8IYT8
3771 Q8IZS8
3772 Q8KI25
3773 Q8KN66
3774 Q8KNZ7
3775 Q8MU52
3776 Q8N0U8
3777 Q8N119
3778 Q8N142
3779 Q8N159
3780 Q8N1C3
3781 Q8N1G2
3782 Q8N1Q1
3783 Q8N339
3784 Q8N4C8
3785 Q8N543
3786 Q8N568
3787 Q8N5S9
3788 Q8N5Z0
3789 Q8N8N7
3790 Q8N8R3
3791 Q8N907
3792 Q8N9I0
3793 Q8NBN7
3794 Q8NBP7
3795 Q8NBQ5
3796 Q8NEB9
3797 Q8NER1
3798 Q8NET8
3799 Q8NEV4
3800 Q8NFA2
3801 Q8NFD2
3802 Q8NFJ5
3803 Q8NFW8
3804 Q8NG66
3805 Q8NI22
3806 Q8NI60
3807 Q8NMG3
3808 Q8NW68
3809 Q8NX78
3810 Q8P8J2
3811 Q8P9V9
3812 Q8Q3H0
3813 Q8RJN5
3814 Q8RJN8
3815 Q8RLY5
3816 Q8RQE7
3817 Q8RQE8
3818 Q8RQE9
3819 Q8RQP5
3820 Q8SPQ9
3821 Q8T8E9
3822 Q8TAB3
3823 Q8TBX8
3824 Q8TC12
3825 Q8TCC7
3826 Q8TCG2
3827 Q8TCT1
3828 Q8TCT9
3829 Q8TCU5
3830 Q8TD08
3831 Q8TD19
3832 Q8TD30
3833 Q8TDR2
3834 Q8TDS4
3835 Q8TDU6
3836 Q8TDV5
3837 Q8TE23
3838 Q8TED1
3839 Q8TF61
3840 Q8TF76
3841 Q8UCK6
3842 Q8V397
3843 Q8VP84
3844 Q8VTT5
3845 Q8VUS7
3846 Q8VUS8
3847 Q8VUT0
3848 Q8VVD2
3849 Q8WTS6
3850 Q8WTV0
3851 Q8WU03
3852 Q8WU08
3853 Q8WUI4
3854 Q8WVQ1
3855 Q8WWL2
3856 Q8WWQ8
3857 Q8WWT9
3858 Q8WX39
3859 Q8WXA8
3860 Q8WXI7
3861 Q8WY07
3862 Q8WYK2
3863 Q8X444
3864 Q8XB74
3865 Q8XJ01
3866 Q8XL08
3867 Q8Y7N7
3868 Q8YSC4
3869 Q8YWS4
3870 Q8Z2X8
3871 Q8ZIV7
3872 Q8ZKF6
3873 Q8ZKR2
3874 Q8ZNF3
3875 Q8ZPC0
3876 Q92206
3877 Q92506
3878 Q92569
3879 Q92570
3880 Q92598
3881 Q92637
3882 Q92696
3883 Q92731
3884 Q92736
3885 Q92753
3886 Q92769
3887 Q92772
3888 Q92781
3889 Q92793
3890 Q92806
3891 Q92830
3892 Q92831
3893 Q92843
3894 Q92847
3895 Q92876
3896 Q92887
3897 Q92911
3898 Q92918
3899 Q92930
3900 Q92934
3901 Q92945
3902 Q92947
3903 Q92952
3904 Q92953
3905 Q92993
3906 Q93088
3907 Q939D2
3908 Q93CA2
3909 Q93D82
3910 Q93EK7
3911 Q93LD7
3912 Q93LE9
3913 Q93PP9
3914 Q93TU6
3915 Q93UV9
3916 Q94655
3917 Q94M05
3918 Q95460
3919 Q969F8
3920 Q969G3
3921 Q969G6
3922 Q969I3
3923 Q969P6
3924 Q969S2
3925 Q969S8
3926 Q969V6
3927 Q96A70
3928 Q96AE4
3929 Q96AZ6
3930 Q96BH3
3931 Q96BI3
3932 Q96BR1
3933 Q96C24
3934 Q96C36
3935 Q96C86
3936 Q96CD2
3937 Q96D53
3938 Q96DB2
3939 Q96DP5
3940 Q96EB6
3941 Q96EM0
3942 Q96EN8
3943 Q96EY8
3944 Q96FI4
3945 Q96FQ6
3946 Q96G91
3947 Q96GA7
3948 Q96GD0
3949 Q96GD3
3950 Q96GD4
3951 Q96GR2
3952 Q96HD9
3953 Q96I15
3954 Q96I59
3955 Q96I99
3956 Q96IY4
3957 Q96JQ3
3958 Q96KC2
3959 Q96KG9
3960 Q96KS0
3961 Q96L12
3962 Q96L21
3963 Q96L34
3964 Q96LB9
3965 Q96LZ3
3966 Q96MA6
3967 Q96NR8
3968 Q96NX5
3969 Q96P88
3970 Q96PD5
3971 Q96PD7
3972 Q96PR1
3973 Q96PY6
3974 Q96Q40
3975 Q96Q83
3976 Q96QT4
3977 Q96QU6
3978 Q96RD7
3979 Q96RI0
3980 Q96RI1
3981 Q96RJ0
3982 Q96RP8
3983 Q96RQ3
3984 Q96RQ9
3985 Q96RR4
3986 Q96S37
3987 Q96S86
3988 Q96SL4
3989 Q96SW2
3990 Q96T66
3991 Q97E82
3992 Q97R46
3993 Q98GN8
3994 Q99062
3995 Q99250
3996 Q99259
3997 Q99418
3998 Q99436
3999 Q99456
4000 Q99470
4001 Q99497
4002 Q99519
4003 Q99527
4004 Q99542
4005 Q99571
4006 Q99584
4007 Q99623
4008 Q99624
4009 Q99640
4010 Q99643
4011 Q99653
4012 Q99661
4013 Q99705
4014 Q99707
4015 Q99712
4016 Q99714
4017 Q99720
4018 Q99735
4019 Q99759
4020 Q99798
4021 Q99808
4022 Q99828
4023 Q99829
4024 Q99835
4025 Q99884
4026 Q99928
4027 Q99933
4028 Q99AU2
4029 Q9A1B7
4030 Q9A1X4
4031 Q9A5I5
4032 Q9AFC7
4033 Q9AGP8
4034 Q9AIU0
4035 Q9AQS0
4036 Q9BQB6
4037 Q9BQE3
4038 Q9BQI3
4039 Q9BRS2
4040 Q9BTZ2
4041 Q9BUB5
4042 Q9BUF5
4043 Q9BV57
4044 Q9BVA1
4045 Q9BVG9
4046 Q9BVJ7
4047 Q9BVM4
4048 Q9BVS4
4049 Q9BW91
4050 Q9BW92
4051 Q9BWD1
4052 Q9BXA1
4053 Q9BXA5
4054 Q9BXA7
4055 Q9BXI2
4056 Q9BXJ7
4057 Q9BY32
4058 Q9BY41
4059 Q9BY49
4060 Q9BY66
4061 Q9BYC2
4062 Q9BYF1
4063 Q9BYT3
4064 Q9BYV1
4065 Q9BYZ2
4066 Q9BZV2
4067 Q9BZV3
4068 Q9BZW2
4069 Q9BZX2
4070 Q9BZZ2
4071 Q9C098
4072 Q9C0B1
4073 Q9CBQ2
4074 Q9F0I5
4075 Q9F0J6
4076 Q9F5I8
4077 Q9F6D4
4078 Q9FA38
4079 Q9FBC5
4080 Q9FCA6
4081 Q9FD87
4082 Q9FDN7
4083 Q9GPQ4
4084 Q9GV41
4085 Q9GZP0
4086 Q9GZR5
4087 Q9GZT4
4088 Q9GZT9
4089 Q9GZU7
4090 Q9GZZ6
4091 Q9H015
4092 Q9H093
4093 Q9H0K1
4094 Q9H169
4095 Q9H1K4
4096 Q9H1R3
4097 Q9H228
4098 Q9H239
4099 Q9H244
4100 Q9H252
4101 Q9H2G2
4102 Q9H2K8
4103 Q9H2M3
4104 Q9H2P9
4105 Q9H2S1
4106 Q9H2X6
4107 Q9H2X9
4108 Q9H306
4109 Q9H3N8
4110 Q9H3S4
4111 Q9H3Y6
4112 Q9H422
4113 Q9H4B4
4114 Q9H4B7
4115 Q9H4G4
4116 Q9H4M7
4117 Q9H4Y5
4118 Q9H598
4119 Q9H6X2
4120 Q9H6Z9
4121 Q9H853
4122 Q9H8P0
4123 Q9H936
4124 Q9HA77
4125 Q9HAB3
4126 Q9HAN9
4127 Q9HAZ1
4128 Q9HB21
4129 Q9HB40
4130 Q9HB55
4131 Q9HBA0
4132 Q9HBH1
4133 Q9HBH5
4134 Q9HBH9
4135 Q9HBK9
4136 Q9HBL8
4137 Q9HC29
4138 Q9HC97
4139 Q9HCC0
4140 Q9HCD5
4141 Q9HCP0
4142 Q9HCR9
4143 Q9HD40
4144 Q9HGT2
4145 Q9HTN2
4146 Q9HTQ2
4147 Q9HU21
4148 Q9HU22
4149 Q9HUR5
4150 Q9HVJ6
4151 Q9HVZ0
4152 Q9HYN5
4153 Q9HYX1
4154 Q9HZZ3
4155 Q9I194
4156 Q9I596
4157 Q9I5F3
4158 Q9I5I9
4159 Q9I7A8
4160 Q9JZW6
4161 Q9K2N0
4162 Q9K578
4163 Q9KB30
4164 Q9KEI9
4165 Q9KEQ1
4166 Q9KFR4
4167 Q9KG76
4168 Q9KIE5
4169 Q9KKU4
4170 Q9KL51
4171 Q9KM65
4172 Q9KPI8
4173 Q9KQN0
4174 Q9KU37
4175 Q9KVB4
4176 Q9KWT5
4177 Q9KWT6
4178 Q9KWU1
4179 Q9KX40
4180 Q9L5C7
4181 Q9L5C8
4182 Q9L888
4183 Q9L915
4184 Q9L9D7
4185 Q9LAG2
4186 Q9LCC8
4187 Q9LCV9
4188 Q9LCX9
4189 Q9N587
4190 Q9NNW7
4191 Q9NP56
4192 Q9NP99
4193 Q9NPA1
4194 Q9NPA2
4195 Q9NPB1
4196 Q9NPC1
4197 Q9NPC2
4198 Q9NPD5
4199 Q9NPF7
4200 Q9NPH2
4201 Q9NPJ3
4202 Q9NQ25
4203 Q9NQS7
4204 Q9NQU5
4205 Q9NQX3
4206 Q9NR19
4207 Q9NR28
4208 Q9NR33
4209 Q9NR63
4210 Q9NR82
4211 Q9NR96
4212 Q9NR97
4213 Q9NRE1
4214 Q9NRF9
4215 Q9NRH2
4216 Q9NRP7
4217 Q9NRX3
4218 Q9NS18
4219 Q9NS40
4220 Q9NS75
4221 Q9NS85
4222 Q9NSA0
4223 Q9NSA2
4224 Q9NSD5
4225 Q9NSD9
4226 Q9NSE4
4227 Q9NSY1
4228 Q9NTG7
4229 Q9NUB1
4230 Q9NUV7
4231 Q9NVH6
4232 Q9NVS9
4233 Q9NWM0
4234 Q9NWT6
4235 Q9NWZ3
4236 Q9NWZ5
4237 Q9NXA8
4238 Q9NXE4
4239 Q9NXG6
4240 Q9NY46
4241 Q9NY47
4242 Q9NY56
4243 Q9NY59
4244 Q9NY65
4245 Q9NY72
4246 Q9NYK1
4247 Q9NYL2
4248 Q9NYQ3
4249 Q9NYR8
4250 Q9NYV7
4251 Q9NYX4
4252 Q9NYY3
4253 Q9NZ42
4254 Q9NZD2
4255 Q9NZD4
4256 Q9NZK7
4257 Q9NZQ7
4258 Q9NZV8
4259 Q9P0J0
4260 Q9P0L2
4261 Q9P0X4
4262 Q9P0Z9
4263 Q9P286
4264 Q9P289
4265 Q9P2E9
4266 Q9P2J5
4267 Q9P2K8
4268 Q9P2N6
4269 Q9P2R7
4270 Q9P2W7
4271 Q9PM68
4272 Q9PPP5
4273 Q9Q2G8
4274 Q9QNF7
4275 Q9R381
4276 Q9RA47
4277 Q9RA63
4278 Q9RC23
4279 Q9RC92
4280 Q9REC4
4281 Q9RHZ6
4282 Q9RME2
4283 Q9RN59
4284 Q9RN68
4285 Q9RP17
4286 Q9RQB9
4287 Q9RRU8
4288 Q9RUZ0
4289 Q9RVD6
4290 Q9RW27
4291 Q9RX51
4292 Q9RYA6
4293 Q9RYU4
4294 Q9RZ04
4295 Q9S400
4296 Q9S427
4297 Q9TY94
4298 Q9U8D3
4299 Q9UBF8
4300 Q9UBK8
4301 Q9UBM7
4302 Q9UBN7
4303 Q9UBQ6
4304 Q9UBS5
4305 Q9UBT6
4306 Q9UBV8
4307 Q9UBX1
4308 Q9UBX3
4309 Q9UDR5
4310 Q9UDW1
4311 Q9UDX3
4312 Q9UDX4
4313 Q9UEE5
4314 Q9UEW3
4315 Q9UEW8
4316 Q9UF33
4317 Q9UG56
4318 Q9UGI5
4319 Q9UGI6
4320 Q9UGI9
4321 Q9UGJ0
4322 Q9UGM1
4323 Q9UGM6
4324 Q9UGN5
4325 Q9UHA3
4326 Q9UHC3
4327 Q9UHC9
4328 Q9UHD2
4329 Q9UHF0
4330 Q9UHI5
4331 Q9UHI7
4332 Q9UHQ9
4333 Q9UHW9
4334 Q9UHY7
4335 Q9UI09
4336 Q9UI32
4337 Q9UI33
4338 Q9UIC8
4339 Q9UIK4
4340 Q9UJ68
4341 Q9UJ70
4342 Q9UJM8
4343 Q9UJS0
4344 Q9UJT0
4345 Q9UJT1
4346 Q9UJU2
4347 Q9UJX1
4348 Q9UK17
4349 Q9UK23
4350 Q9UK32
4351 Q9UKE5
4352 Q9UKG9
4353 Q9UKI8
4354 Q9UKL6
4355 Q9UKM7
4356 Q9UKQ2
4357 Q9UKU7
4358 Q9UKV0
4359 Q9UKY3
4360 Q9UL51
4361 Q9UL54
4362 Q9ULA0
4363 Q9ULB1
4364 Q9ULC6
4365 Q9ULK0
4366 Q9ULU8
4367 Q9ULW8
4368 Q9ULX7
4369 Q9ULY5
4370 Q9ULZ9
4371 Q9UM01
4372 Q9UM07
4373 Q9UM73
4374 Q9UMX2
4375 Q9UN19
4376 Q9UN76
4377 Q9UN88
4378 Q9UNA0
4379 Q9UNI1
4380 Q9UNK4
4381 Q9UNN8
4382 Q9UNP4
4383 Q9UNQ0
4384 Q9UNX3
4385 Q9UNX9
4386 Q9UP95
4387 Q9UPY5
4388 Q9UPZ9
4389 Q9UQB9
4390 Q9UQD0
4391 Q9UQF2
4392 Q9UQL6
4393 Q9UQM7
4394 Q9UQQ2
4395 Q9WMX2
4396 Q9WWU5
4397 Q9WXN1
4398 Q9WXS0
4399 Q9WXV1
4400 Q9WY54
4401 Q9WYA5
4402 Q9WYE2
4403 Q9WYH8
4404 Q9WYS2
4405 Q9WYT0
4406 Q9WYV8
4407 Q9WZ40
4408 Q9WZ57
4409 Q9WZC2
4410 Q9WZD5
4411 Q9WZI0
4412 Q9WZK0
4413 Q9WZS7
4414 Q9WZW1
4415 Q9WZX6
4416 Q9X022
4417 Q9X0A2
4418 Q9X0D0
4419 Q9X0F9
4420 Q9X0G9
4421 Q9X0L5
4422 Q9X0N8
4423 Q9X0P2
4424 Q9X0V0
4425 Q9X108
4426 Q9X112
4427 Q9X180
4428 Q9X1B3
4429 Q9X1F0
4430 Q9X1F8
4431 Q9X1H9
4432 Q9X1K9
4433 Q9X1T2
4434 Q9X242
4435 Q9X266
4436 Q9X278
4437 Q9X286
4438 Q9X2W8
4439 Q9X4K7
4440 Q9X519
4441 Q9X592
4442 Q9X5N2
4443 Q9X6R4
4444 Q9X6V3
4445 Q9X6W0
4446 Q9X9L0
4447 Q9XB59
4448 Q9XB61
4449 Q9XBQ3
4450 Q9Y221
4451 Q9Y230
4452 Q9Y233
4453 Q9Y234
4454 Q9Y257
4455 Q9Y266
4456 Q9Y271
4457 Q9Y275
4458 Q9Y277
4459 Q9Y285
4460 Q9Y286
4461 Q9Y289
4462 Q9Y296
4463 Q9Y2D0
4464 Q9Y2D1
4465 Q9Y2H1
4466 Q9Y2H9
4467 Q9Y2I1
4468 Q9Y2J8
4469 Q9Y2K2
4470 Q9Y2Q0
4471 Q9Y2Q3
4472 Q9Y2T6
4473 Q9Y2U5
4474 Q9Y2Z4
4475 Q9Y345
4476 Q9Y3I0
4477 Q9Y3R4
4478 Q9Y463
4479 Q9Y468
4480 Q9Y478
4481 Q9Y4I5
4482 Q9Y4K4
4483 Q9Y4R7
4484 Q9Y4U1
4485 Q9Y4W6
4486 Q9Y5K3
4487 Q9Y5N1
4488 Q9Y5R2
4489 Q9Y5R8
4490 Q9Y5S1
4491 Q9Y5S8
4492 Q9Y5Y4
4493 Q9Y5Y6
4494 Q9Y5Y9
4495 Q9Y600
4496 Q9Y616
4497 Q9Y617
4498 Q9Y619
4499 Q9Y646
4500 Q9Y663
4501 Q9Y666
4502 Q9Y678
4503 Q9Y689
4504 Q9Y691
4505 Q9Y694
4506 Q9Y697
4507 Q9Y698
4508 Q9Y6B6
4509 Q9Y6E0
4510 Q9Y6F1
4511 Q9Y6I3
4512 Q9Y6K9
4513 Q9Y6L6
4514 Q9Y6L7
4515 Q9Y6M4
4516 Q9Y6M9
4517 Q9Y6Q6
4518 Q9Y6R4
4519 Q9Y6Y9
4520 Q9Z4J7
4521 Q9Z4N6
4522 Q9Z4P0
4523 Q9ZAG3
4524 Q9ZB17
4525 Q9ZEU2
4526 Q9ZF99
4527 Q9ZGH3
4528 Q9ZGI2
4529 Q9ZHG9
4530 Q9ZIV5
4531 Q9ZK53
4532 Q9ZLT0
4533 Q9ZNA2
