227 379
287 500
227 287
24 77 447
104 236
87 537
146 147 166 447 509 557
287 546 625
22 287 530 537
45 174 262 283 287 417
82 153
61 321 514
379 530
18 319 447
287 546 699
304 535 558
45 530
122 226 515
146 391 530
271 351 370 701
104 377 455 483
182 399
287 351 447
274 468
56 467
24 753
106 540
240 474
36 227 287 335
292 530
22 351 530
536 680
151 168
509 530
92 238 469 540
168 524 525 598 615 673
92 324 469
77 226 287 335
9 50 254 310 372 462 761
530 537
351 691
3 226 283 400 576 648
77 119 153 287 366 383
77 287 351 367 447
287 467 759
3 49 77 283 306 351 447 480 535
174 302 310
3 22 25 310 400 447 479
167 176 493
4 51 183 208 370
78 430 498
229 359 481 580
5 46 145 182 249 366 447 496 558 667
116 324 540
24 271 759
119 198 530
451 530
14 104 106 194
65 524 738
38 349 585
119 227 302 447 602 675
119 137
3 287 334
22 537
271 287
22 509
56 302 304 537
38 287
287 304 569
25 447 467
157 319
400 458 558
122 239 400
467 530 540
137 364
119 174 287 310 530 546
16 537
146 226 494
325 540
146 507 530
3 173 188
104 106 227
212 334 525
225 229 283 570
45 388
216 273
416 468 530
403 655
22 25 33 71 146 182 271 447
30 31
3 400 612
82 199
58 104 182 196 208 255 312 445 483
3 36 227 283
77 104 146 530
161 537
119 183 287 351
69 137 237 519 554
51 87 104 154 194 203 208 226 253 292 312 455 766
176 349 493
157 388
530 667
273 420
447 629
305 439
540 660
104 226 447
24 146 467 759
104 226 455 519
108 199 208 238 283 334 478 480 536
80 199
104 146 447 455 467 515 530 537
104 287 351 447 467 557
56 163
227 271 310 447 530
58 335 377 383 480
134 242
287 304 467
251 287 467
80 87 515
530 662
254 372 443 761
279 530 537
54 146 287 430 576
229 481 510 612
287 334
174 530
38 530
287 306 404
122 150 310 737
108 154 168 208 248 366
447 546 699
102 241 575
104 199 226 324 366 447 494 515
122 252
376 435 576 582
245 324 383
92 335 469 742
24 226 287
287 530
366 754
4 447
271 304 400 447 530
24 146 530
49 87 467 518 537
102 115
3 400 647
146 166 251 558 569 598
77 351 447 467
80 241 383
104 400
45 104 106
457 624
625 701
69 530
287 608
77 108 351 384 530
157 245
177 222 418 458 543
104 106 335 648
77 183 537
25 287 447 530 548
271 530
304 530
33 56 161 183 230 403 412 598
119 271 287 351 598
283 558
161 335 447
92 137 242 469
399 447
279 537
134 334 593
79 146 161 248 335 422
183 287 447 467
177 609
25 63 176 287 331 447 496 557
356 551
370 447 530
5 183
96 178 185 213 321 413 514 635
163 226 530
224 530
63 77 119 287 310 331 351 496 631
334 663
116 176 238 287
70 221 349
145 399
183 477
245 530
96 326
182 530
523 537
87 161 238
25 530 718
104 168 226 455
279 447 556
183 324 530
51 199
615 660
23 116
245 351
3 647
324 572
249 415 554
399 451
22 150 213 254 271 278 304 635 747
366 447 467
33 202
194 529
77 447 537
351 502 537
287 479
451 509
45 227 257
146 183 335 530
24 302 439 593
161 383 435 582
96 213 514 527
36 400 404 670
224 411
524 655
36 176 287 351
310 400 439
535 617
119 146 183 287 367 447 515 519
108 324 525
56 530
287 509 530
25 119 122 173 271 447 537
146 287 391 511 530
130 540
480 502
80 102 540
334 375 660 673
183 287 447
104 455 524 608
33 673
106 515
58 112 174 182 208 248 383 507 520 647 719
202 377
108 537
119 719
92 104 469 515
530 592
196 435 524 582 587
183 335 537
92 182 469 483 519 598
416 565
36 183 287 530
18 22
25 310 365 447 480 557
199 351 378
225 229 240 273 339 474 481 612
183 537 592
183 537
25 77 287 447 706
30 116 161 335 424 439 563 565
119 557
27 30 324 664
77 351 447 537
51 194 324 383
77 227
23 420
151 334 530 660
104 402 455 515
240 339 474
93 171 187
271 287 625
161 208 436
370 447 537
49 469 648
24 146 753
227 515
70 242 349
24 146 310
240 400 479
36 432
400 512
119 183 530
439 585
33 153 483
49 119 173
183 509 537 546 658
4 398 539
77 287 351 447
140 334
122 183 530
481 612 706
93 660
5 22 24 146
287 467 598
108 241
87 108 161 208 515
25 104 119 271 287 661
302 447 537
537 540
27 49 87 237 664
276 287 447
93 184 377
279 283 447
119 227
77 119 304 400
255 349 483
51 104 171 182 183 310 370 447
25 77 537
334 391
146 252 257 447
22 96 213 351 413 527
31 183 481 612
22 569
108 455 480
199 254 480
183 467
80 87 608
335 447 530
22 287 509 530
92 104 469 766
92 183 366 469 515
146 287 370 568
30 92 469 540
77 182 530
447 509
122 502
273 530
283 377 710
351 467 537
183 279 530
65 87 608
3 251 283 404 411 479
77 161 351 530
241 530
310 498 629
119 287 519 598
287 518
22 287 467 530
104 161 208 480
119 146 287 367 447 515
119 226 283
183 467 530
335 447 537
25 194 257 287 498 532 673
25 447 537
24 119 161 183 675
151 212 334 375 420 439 615 660 662
246 614
93 339 379 480
173 182 486 502 673
25 351 467 530
93 324
116 383
193 255 451 483
65 115 377
104 530 558
183 190
122 183 351 447 496 530
116 185 324 447
33 104 254 480
246 354 400
530 551
229 474 612
146 287 530
509 537
183 339 726
146 174 304 310 701
174 351 439 447 462 544 568
77 92 104 455 456 469 515
403 418 609 612
27 237 576 664
77 304 351 447 530 590 699
182 351 447 502 537
530 554
95 296 377
199 377 518
182 283 349 456 469
77 302 447 530
25 77 104 331 351 447 455 530
161 349 451 483 515
146 370 399 530
30 51 102 134 227 519
51 97 104 106 166 176 287 304 310 367 417 447 492 546 700
467 530
211 339 439
30 146 530
530 655
302 447 500 530
183 287 467
530 557
16 530
224 489
3 176 306 493 670
51 324 590
104 254 447
104 199 250
198 530
104 322 458 515 540 598 754
87 668
481 706
77 183 530
502 530
431 754
28 58
146 287 551
56 617
25 617
356 530
82 104 148 421 519 593
225 229 283 423
24 287 467
183 456 469
49 87 530
447 530
25 77 287 447
254 324 372 660 761
33 104 106 168 421 662
183 194 480
335 370 537
420 530 612
18 87 273
279 509 537
87 245 324
77 447 530
3 287 479
22 324
96 104 403 413 527
33 104 208
287 370
67 205 431
25 174 287
113 174 183 240 252 304 530 557
182 273
279 287 447
279 287 646
104 565
245 287
324 334 615
104 208 226 383 455 480 661
119 363 537
77 447 494 530
225 232 423 458 611
161 194 245 383
4 146 157 166 182 208 310 377 378 420
222 423 609
36 287
351 537
102 334 399
515 561
287 745
225 418 621
171 273
302 310 439
194 615 648
104 349
537 557
530 617
331 447 537
146 370 537
122 287
279 447 576
146 287 447
104 146 302 447 455 530
3 283 302 306 310 313 339 535
193 255 473
53 96 321
146 159
77 146 304 319 540 601 737
36 104 174 176 229 240 309 403 423 612
49 530
432 530
553 695
199 287
279 287 617
33 195
211 457 529 609 612
122 304 699
226 335 372 436 447
230 530
18 69 146 293 351 467 496 530
116 245 383
174 252 271 287 310 447 599
107 245
30 33 106 108 119 140 324 383 524 608
302 351 530
451 537
183 287 537
168 297 515 576 648
80 104 427 524
183 199 304
25 287 319 351 447
77 310 544
175 369 509 530 537 548 682
30 87 116 334 668
537 617
38 102 176 237
104 208 287 293 455
146 403 530
41 87 104 108 194 208 250 287 455 480 565
324 554
87 292 480
22 530 558
249 349
173 174 182 304 366 447 530
33 302 363
183 351 447 530
463 530
49 77 168 270 351 367 447 530
54 146 530 556 625
33 104 183 287
30 116 212 615
49 447 530
245 324 383 593
140 250 377
245 565
146 447 515
174 333
105 178 254 403
447 530 554
279 530
302 558
277 530
2 242 349 458
108 119 183 198 226 351 523
104 754
225 232 612
77 146 467 530
122 351 530
50 537
63 530
4 273
116 119 304
324 383
255 287 313 451 530 558
524 540
381 530
287 400
225 244 396 400 481 570
537 629
104 216 354 558
96 213 321 413 514 628
567 599
3 540
30 104 168 208 447
335 366 447
146 199 230
93 104 112 208 212 371 377 480
45 287
349 456 469
281 404
39 92 469
403 623
24 701
45 172
287 331 351 447
287 617
416 530
554 612
77 146 183
370 671
287 535
467 753
77 287 304 331 502
180 225 232 609 612
257 427 530
287 598
102 126 193 241 370 463
150 539
25 304 310 319 447 467 530 551 557
302 625
486 515
92 193 451 469 483
24 54 447
18 104 226 515
351 447 530
77 467
283 287
119 530
146 310 447 537
25 77 351 447
119 399
310 477
92 104 154 366 455 469 558 565
279 601
287 445 483
25 122 182 212 447 480
193 255 445 483 537
250 530
310 447 530 541 546
324 365
146 287 467
87 104 199 455
469 473 648
271 537
56 287 467
161 761
119 537
25 287 367 447 530
30 540 565
58 96 160 168 206 213 245 277 337 388 413 509 628 730
226 267
146 367 447 530
287 302
310 447 496
22 287 699
77 146 447 530
77 537
310 537
227 432
287 647
82 599
16 310 496 498 509 700
30 212 334
87 349 565 576
102 116 212
530 535 537
287 540
142 511
119 146 174 287 370 447 695
199 211 530
41 77 402
383 391
252 629
3 287 500
122 370
183 530
51 87 116 187 194 383
38 598
115 116 302 655
383 384
252 254
416 537
116 212 241
182 370
467 530 617
4 51 58 112 377 418 565
16 416
77 252 287
119 146 174 287 370 695
119 122 150 363 699 737
119 161 226
25 50 146 271 287 319 351 447 598
287 345 436
119 271 287 598
238 463
509 530 537 625
51 134 212 421
19 102 575
287 467 617
119 400 447
69 104 161 194 447 455 537
119 287 447
229 273 400 481
5 249 254 365
119 146 287 367 447 515 519
146 187 292 451 530
77 477
391 458 511 735
168 439 530
183 194 196
87 104
80 102 237 524
51 241 608
104 154 226 766
3 122 283 287 306 310 447
274 612
185 297
287 467 556
93 95 112
279 467 530
77 287 447 530
82 104 148 519 593
467 530 537
279 467
22 535
25 292 324 530
416 544
27 342 427 664
77 287
3 283 287 306
77 105 174 293 304 530
183 554
69 126 260
84 174 287 447
51 576
77 183 447 537
302 535
182 467 519 598
104 349 403 456 469
287 293 467
25 104 287 310 557 606 634
447 625
166 277
226 537
16 102 237
49 287 467
257 530
351 367 447
38 287 598
96 176 278 321
287 447
178 473 483 519 606
467 509 530
183 208
168 377 400 458 609
194 537
77 447 675
80 92 469
226 287 403
530 699
104 182 283 324 416 536
116 241 524
530 747
351 469 648
254 480
287 486
196 540 565 738
462 530
183 372 530
104 287 335 366 540
287 537 617
271 447 515 530
25 28
185 336 372 561 606
77 161 530
183 535
168 193 255 445 483 701
87 292 334 540 565
108 161 194 292 524 540 565 608 615
33 87
80 92 119 185 469 540
225 240 273 404
363 695
140 334 375
51 182 598
104 238 403 455 469 493 648
439 485
173 498 590
51 287
16 128
287 293 304 310
275 537
38 116 334 383
399 447 544 667
402 530
25 287 447 546
22 287 467
82 168
87 92 108 469
530 602
22 509 530
287 519 598
24 33 194 208 226 403 454 540
237 334 576
104 237 283 676
36 104 287
351 447 671
254 324 372 593 608 660 761
399 530
25 80 183 287 368
403 524
310 324 447
252 558
467 535
53 321 514
408 473 606 655
77 576
194 334 391
30 51 116
104 199 226 250
22 302
33 254 335
254 530
104 447 530
530 556
168 338
56 146 273 700
96 213 413 527 646
122 279 287
78 363 540
327 675
122 537
447 496 537 544
77 171 335 626
225 423 611 621
345 369
144 403 529 612
509 759
31 388
208 238 312 480
287 467 537
447 462 557
399 489
287 509
22 49
146 182 185 257 310 351 447 462 544
77 447 530 718
238 334
33 49 93 377 435
119 255 445 483
77 146 467
104 208 226 455
252 287
119 403 701
31 174 423
45 183 356 383 515 648
104 356 387 468
334 563 608
146 287 304
447 467
119 146 310
483 519 606
104 194 195 324 421 515
183 462 537
93 347 608
77 302 523 629
366 544
416 467
130 161
458 530
351 447 530 557
39 648
133 177 457
183 602
16 183 228 324 383
255 287 445 447 483 634
356 606
67 584
356 445 483 655
25 271 287 351
378 544
22 530 537
33 104 119 524 700
255 302 445
96 104 176 213 335 413 423 493 612 628 706
104 208 292 421 455 766
241 301
185 473 483 606
213 413 527 674
515 537
351 447 537 557
22 287 381 530 537
16 18 150 226 287 304 310 406
92 194 297 304 469 558
161 377 421
146 174 467 556 667
467 617
287 483
447 530 617
33 254
25 33 41 49 315
416 540
287 293 617
31 93 612
287 625
115 176 493
96 413 514 527
30 134 237
283 530
3 63 122 287 557
77 530
287 467 530
319 467
54 146 262 351 447 530
554 583
24 41 310
287 293 448
119 153 185 234 483 515
300 334 511
104 106 268 293 383 537
115 206 213 321 527
85 184 297
378 509
248 598 647
119 166 420 611
558 644
439 530
87 287 467
198 447 530
182 287 530
176 483 493
254 273 310 439 611
194 530
77 230 255 310 445 483 530 655
25 530
32 92 469
64 116 212
351 530
80 183 287
24 54 146 166 497
335 416
22 381
119 519 598
287 467
182 293 462
24 667
324 445
174 509
254 287 530
77 287 467
166 183
22 530
254 372 439 761
3 225 240 458 488
3 287 304 400 479
242 468
287 544
174 287 598 599
176 255 306 493
49 87 161 168 208 623
287 447 682
271 310 598
24 146 151
304 537
447 537
183 502
287 467 530 537
56 77 104 199 477 544
77 447 467
430 757
3 77 283 321 447 631
113 599
383 524
3 287 467
287 557 737
119 161 182 283 335 366
447 498
93 212 379 480
183 193 255 445
227 537
287 447 695
24 226 240 283 302
46 146 530
287 483 655
51 104 106 271 287 310 331 367 447 518 613
279 287
199 287 480
5 326 370
146 439 462 530 600
22 287 530
30 102 134 334
104 356 468 515
213 621 674
96 206 213 321 324 413 514 662 674 747
182 377 480
532 565
87 737
287 569
193 255 349
447 467 509
3 25 49 287 447 448 458 467 557
30 226 398 403 612
22 617
25 271 374 546
185 530
196 455
25 33 305 483
93 104 222 539 612
23 116 342 615
400 479 499
334 375 383
23 324
22 168 199 212 280 509 620
415 447 569
161 540 561
369 644
77 531
302 631
41 228 248 480
122 530
146 287
310 331
185 237
153 193 241 255 352
287 537
161 183 187 287 530
77 335 537
24 530
251 287
45 227
16 25 30 51 77 183 287 292 447
106 146 157 474 593
25 248 287 467 557
225 229 400 481 569
254 365 420
476 651
313 537
146 230 374
56 287 530 537
229 701
451 608
69 537
151 334 375
146 261
140 245 324 383
122 174 287 310 447 592
273 287
226 563
28 515
173 223 287 370 447 467
119 185 255 445 483
22 628
87 102 237 287 447 608 676
122 353 379 439 599
287 468
30 68 194 274 324
92 469 576
447 530 671
161 254 372 443 761
241 445
287 507
345 369 374
104 146 302 447 455 480 530
54 163 530
49 87 161 168 183 208 623
183 432
374 439 537
161 334 375 515 608
31 626
193 519
174 365
41 287 467
225 229 240 474 505 632
168 377 436
151 168 509
255 377
16 287 537 540
114 287 483
56 287
119 190 287 447 519 598
80 237 427
122 183 339 447 518
108 119
287 293
324 447 530
182 302 304 310
96 213 413 610 674
93 339 379
16 226 287 335 480
324 761
104 154 168 199 208 312 377 524
104 154 208 377 455
447 537 663 749
310 554
539 698
104 137 515
302 537 554
96 185 206 321 413 439 530
183 293
77 119 226 267 447
24 146 399
310 530
30 51 116 134
104 122 168 310 331 467 483
182 349 400 456 469
287 556
538 540
30 49 576
16 80 87 237
166 271 287
49 77 87 287 351 447 462 524 530 537 565 738
22 279 530 537
173 194 367 383
146 183 530
33 104 161 226 257 455
30 183 334
45 114 483
364 385
176 206 321 514
225 229 400 569
283 467
92 304 469
51 161 403
104 439 599
49 227 519
36 535
467 509 530 537
447 494 530
227 530
104 119 237 455
399 537
146 754
30 140 334
88 248
49 305 377 540
287 370 467
122 271 310 331 530
374 535
30 35 166
188 629
183 226 366
198 537
106 273
343 675
403 532
407 524
69 237 519 554
213 321 514 628
271 324 382 410 480 712
176 599
146 537
182 212 480
324 602
70 287 397
345 671
88 399
25 271 287 310 319 447 569
279 509 530
104 249 365
292 310 351 447 497 557 608
54 467 530
22 447
287 351 530
146 173
310 447 462 544
25 447 530
174 753
24 602
93 379 480
77 194 283 447 467 483 524 530 606 655
447 535
183 509
65 140 161 576
130 271 447
104 241 366
252 255 445
49 304 351 509 530 598
174 447 530
64 134 334
146 182 286 287 447 546 598 599
306 349
24 497 544
168 383
427 462
93 212 379
77 226 335
30 119 146 271 447
39 455 515 648
24 293 447 530
24 310 351 463 467 483
225 423 481 612
96 213 413 610 730 747
49 80 186
171 377
96 292 413 425 747
119 271 447 467 754
104 188
237 362
24 46 249 252 257 304 447 544
146 257 530
95 403
25 351 447 530
22 467 509
51 80 325 372
77 447 476
356 515
104 182 271 287 447 486 540
16 102 168 226 304 310 540
82 292 569
104 349 403 456 469 525
153 483 598
279 287 335 447
208 245 287
49 104 112 115 116 134 161 168 184 208 212 287 334 335 384 525 608 678
240 273
227 287 530
93 104 447 455
41 381 530
367 447 530
447 530 557
77 351 530
183 199 530
77 287 351
335 530 537
161 435 524 582
168 525 598 615 673
161 530
199 208 383
30 93 455 457 609
245 366 515 519 558
524 565 576 608
537 544
271 447 530
56 537
87 483
41 243 254 287 634
22 287
24 77 530
119 183 447 467 483 502
31 104 366 481
146 335 370
116 334 524
4 25 183
535 537
22 182 287 530
182 287
319 530
104 167
271 535
530 554 598
242 349
176 278 321 493 514
174 227
287 331
25 56 546
273 421
351 554 558
287 366 447
182 377
45 104 221 515 648
279 366
161 208 377 576
174 399
279 351 447 462
255 445 483 515 655
287 467 540
177 254 372 761
24 183 530
420 667
153 183 185
254 302 372 761
134 530
24 199 447 530
502 537
447 467 537
24 447 530
436 530
140 593
49 532 565
82 87 108 161 238 270 408 416 430 445 473 567 569 593 598 606 655
157 455
146 178 258 447 530
22 96 119 150 213 254 271 278 304 413 635 747
180 283 621
104 226 287 447 455
251 627
22 182 287 530 537
507 537
63 351
18 108 154 194 226 245
183 647
3 182 183 271 287 447 598
56 500
146 252 558
41 182 306 400 467 530
186 370
102 237 379
22 182 240 254 270 283 363 530 537
5 16 176 365
537 598
67 363
146 302 537
168 196 237 524
104 168
174 537
305 377 540
414 486
271 351 537
93 194 377 439 611
134 212 360
25 467 530
119 403 530
168 511
104 283 529
49 119
146 257 302
483 675
167 558
80 87 92 104 161 208 469
24 261
377 554
185 255 515
212 241 334 375
160 161 530
36 530
229 240 458 474 481 612
30 51 116 166
92 104 469
293 537
93 671
530 558
104 208 249
226 287 467
36 546
423 440 525 590 675
370 629
18 509
212 334 524
77 304 467 537
122 287 617
119 447 625
104 199 208
25 119 254 310 351 407
146 287 447 467
182 612
254 558
104 196 455
183 221 530
146 302 447 530
54 351 556
3 321
119 304 351 447
287 527 546
435 480 524 582
3 530
61 102 206 321 383
279 509
161 182 183
24 366 537
509 530 537
399 400 458
41 77 252 279 351 447 537
193 255 483 606
351 447 537
530 647
174 252 271 287 467 496
182 629
362 447
176 493
279 447 494
239 326
183 287
3 287
56 402
41 310 616
225 229 240 474 505
302 646
77 119 447 530
463 606
163 447 537
216 232 423 455
537 554
30 87 668
33 119 171
176 493 632
104 119 161 226 403 436 447 451
319 447 537
105 168 177 199 216 609
92 185 447 469
287 351 467
565 602
104 455 531
182 226 287
134 271
133 359 580
146 324 403
119 480
329 447 530
530 535
467 515
82 150 171 241 310 398 612
51 173 287 569
33 38 150 182 271 287 304 417
537 546
183 531
182 467
502 535
24 447 537
196 241 383 593
175 617
95 104 106 185 335 648
530 553
102 134 334 615
51 64 65 102 116
146 279 530
161 168 171 324
182 509 556
102 507
168 245 307 324
122 447 530
183 196
3 283 287 379 458
146 509
69 102 524
227 558
78 451
151 161 254 302 372 383 761
146 530
119 558
104 168 183 208 279 447 478 524 530
82 198
334 673
104 119 400 458 536
245 602
138 340 379 475
146 447 467
182 300 334 391
447 509 537
51 140 473 606
102 116 421 565
377 379 614
30 33 106 108 119 140 324 383 524 583 608
69 80 102 305 575
225 481 609
182 234 390 408 447 544
49 447 537
621 726
157 352
229 240 309 458 474
33 49 102 104 535 576
146 530 537
183 366 530
130 227 534
104 241 455
161 168 182 324
22 370
96 321 514 527
236 351
80 119
93 404
30 33 140 324 524 608
119 287
273 388
24 77 310 416 486
104 182 226 565 766
22 568 701
87 134 383
38 545 555
22 293 403
223 447 759
87 537 608
104 146 173 252 287
49 119 146 168 265 283
540 754
24 146 287 467
342 576 754
140 420
183 194 287 334 593
25 77 279 447 537
104 237 515
30 194 608
25 287
271 351 370 623 701
304 447 537
146 537 557
515 530
5 16 119 287 400 483 519
24 146 319
146 310 618
287 391 494
30 197 212 334 529
287 399
530 540
133 183 310 530 546 590
25 33 95 515
183 629
226 287 324
271 447 537
25 49 283 287 351 447 652
24 279 537
134 183
92 335 469
31 108 146 251 365 447
92 104 366 469 540
35 537
279 319 530
287 480
119 271 447 467
537 558
22 287 537
523 530
102 537
185 378
335 551
287 304 447
190 254 287 530
51 245 254 304 447 509 530 608
174 273
104 455 530
161 283
537 576
122 287 314
5 16 18 122 150 199 211 226 240 279 283 310 319 479 496 515 523
33 529
3 287 306
381 402 447 754
163 174 310 494
31 229 240 474 481 612
467 537
185 349 515
226 240 283 369
92 439 469
179 225 229 240 359 474 505 612
213 509 628 662 730 747
22 185 226 255 319 383 498 565
287 601
391 540
339 469 742
25 119 277 432 519 543
183 363 530
287 467 625
150 252 310 557
287 436
304 530 546
448 530
287 652
146 364
183 467 537
63 287
51 540
157 287
333 530
287 447 467
25 51 77 166 168 254 287 334 447 546 565
432 519 558
69 237 241
96 104 176 213 321 335 413 423 493 612 628 706
168 530
199 553
92 297 469 515
33 104 377 455
33 614
201 738
104 530 766
227 479
104 146 530
49 146 351 530
473 540 606
102 324 334
161 255 445 483 655
104 455 629
50 146 253 447
183 447 530
462 753
85 95 379
183 271 536
399 468
279 287 467 509
104 137
230 447 530
77 146 530
467 509 537
65 238 540 608
93 112 377 383
122 287 447
30 96 213 321 517 610
92 119
56 87 292 324 363
183 255 445
257 302 530
70 287
213 435 483 527 582
25 63 146 176 287 331 447 496 557
56 122
146 168 182 254 310 374
185 447 483
254 439
287 302 366
157 245 496
403 445
447 602
226 370
51 108
24 537
77 324 537
4 670
24 161 319 537 556 629
315 447
93 108 177 216 377
142 530
279 287 467
24 212 296 749
96 213 254 413 674
287 527
25 287 310
61 96 321 514
391 447 530
287 530 537
30 112 119 193 274 529
65 88 160 161 292
224 416
99 183
25 498
104 119 173 367 445 483
77 183 302 304
206 321 514 617
92 469 515
183 617
196 304 431 735 754
477 486
82 255 400 445 483
80 530
486 602
45 193 598 612
273 292 423 611
287 467 546
161 362
82 178 193 400
166 203 287 335 366
104 146 193 255 445 455 731
77 447 509
240 629
238 273
448 480
24 183 557
287 439
85 246 383
104 140 146 324 391
49 80 123 196 402 509 524
4 540
104 537
38 116 349 565
22 77 119 447
447 515 558
530 615
161 227 242
183 211 227 287 310 447 459 496
565 662
644 655
176 199
201 271 287 540 546
254 310 379 515 530 647
175 226 556
56 104 279 307 436 447
279 494
77 319 537
22 737
287 627
287 515
25 271 351 447 537
199 509
193 255 445 483 648
22 77 447
237 432
116 151 334
182 458
530 598
367 537
82 104 519 593
283 756
102 116 565 615
447 558
25 376
483 537
30 292 324 456 469 524
237 524 575
196 208 377
182 451
96 278 321 514
185 447 530
46 439 447 530
161 194 435 582
163 530
287 304
62 176 493
146 183 537
77 157 304
116 511
49 486
30 524
77 287 530
77 119 168 185 194 287 335 351 447
30 287
134 227 519
104 183 766
287 546
166 469 515 648
24 119 146
30 324 334
51 92 104
25 119 287 351
119 458
467 509
302 530
24 334 391
54 537
331 544
146 257 310
183 370
68 206 321
22 467
104 337 398 423 439 480
146 370 530
287 383 447
113 540
335 530
27 33 87
143 239 381
457 698
24 304
403 648
304 546
3 306
51 529
183 447
88 495
24 476
77 248
87 102
16 485 675
77 304
41 239 304 616
240 404 411
177 481
193 255
51 116 334
140 161
241 421
225 609
146 544
324 403
227 585
199 250
113 254 515
194 515
105 457 609
16 51
103 335
199 515
61 206 213 278 321 514 674
77 546
150 737
102 196
469 648
249 254
146 462
30 116 615
98 232
377 629
104 483
31 225 510 612
69 104
183 194
483 606
41 239 616
400 447
342 565
432 598
404 411
45 255 445
334 383
349 366
655 705
96 206 213 413 628 747
458 536
473 483 606 655
292 334
104 106 366
104 648
87 615
31 365 612
225 481
146 439
150 182 271 310 367 447 467 546
102 353
146 182
545 555
283 404 479
310 546
87 237 524
69 241 575
51 483
142 200
319 402
400 612
171 423
104 455 766
366 565
31 365
104 536
483 655
185 451
213 628
102 334
3 225 240
54 163
213 747
61 96 278 413
377 477
104 377
206 213 321 610 674
403 609 612
69 636
515 540
93 629
216 624
104 208 377
51 593
254 400
194 469 742
213 674 747
104 106
30 102 608
445 655
87 108
293 421
180 621
116 334 608 615
36 404
293 297
557 737
16 675
249 365
51 140 334 524
499 670
36 69 227 432
167 194
161 455
376 709
239 304 616
3 283 306
96 213 413 441 628 730 747
193 463
87 137
377 455
351 447 568
88 483
199 480
229 481 503
177 224
208 425
447 511
479 505
69 368
183 737
287 462
163 537
94 274
240 400 536
469 576 742
133 457
447 612
227 400 558
51 58 104 106 146 257 367 383
194 377
3 283 411
115 161 208
3 225 488
194 324 540
546 647
349 469 648
273 304
174 226
519 599
3 283 306 458
157 211
240 246 400 474 614
199 226 250
621 624
199 536
196 576
157 310
3 458 479
532 541
146 174
102 241
193 255 445 655
104 226
108 377
240 458
39 104
150 182 271 304 310 367 447 467 546
310 557
180 225 232 240
93 383
469 540 742
51 304
377 486
439 447
216 354
108 196
225 229 359 400 481
104 435
324 421
321 326
225 229 283 481
161 435 582
483 606 655
452 512
114 483
266 689
77 335 608
193 255 445
41 616
41 146
609 624
115 435
199 403
96 213 413
183 339
168 194
360 565
304 519
226 250
25 226
334 608
3 400 670
104 455
255 483
45 349
252 530
335 554
87 530
30 334
102 237 524
161 226
69 515
161 208
404 499
391 447 511
211 529 609 612
351 718
3 283 458
193 255 483
30 208
65 237
137 241
104 324
304 335
51 524 608
199 208
456 469 742
351 366
30 540
93 95 614
229 283 309 474
157 222 539
480 540
16 240
494 556
82 445 655
161 565
226 310
134 287
116 212
507 739
245 355
183 469 742
82 483
255 324 445
87 237
304 510
49 104 150 153 174 287 304 310 367 483 655
222 354 539
212 334 608
479 606
180 225 232
3 225 240 488
183 507
160 324
65 116
41 239 304
51 116
237 575
143 304 728
116 334 608
503 609
77 403
469 519 742
104 182
225 240 400
226 302
530 608
3 400 458
70 432
469 742
3 359 612
183 515
102 398
183 199
548 625
400 411
206 278 321
236 254
335 537 608
476 511
216 240 481 580
239 310
273 621
167 421
239 447
104 455 648
447 462
208 436
39 515
161 335
80 241
224 288
69 524
254 351
94 248
366 648
310 377
212 241
88 615
616 728
51 167
699 737
324 648
457 609 726
237 519
440 675
241 383
80 102 241
208 421
33 435
119 283
49 146
206 213 321 628
208 524
30 102 212
213 610 674
102 576
304 381
565 738
226 283
77 366
403 530
104 134
222 539 624
177 216 458
225 229 481
544 629
445 483 655
250 447
104 237
168 738
199 447
116 212 334 608
403 457 529 609 612
80 183
199 226 447
196 421
87 447
137 540
161 738
25 77
252 557
146 700
119 469 648
206 213 321 527
134 194
281 309
447 737
80 334
92 237
41 616 728
150 304
306 400 411
366 483
93 208
68 392 512
108 383
182 648
77 629
45 648
281 474 578
157 457 609
116 608
88 167 334
161 334
177 216 629
102 237 241
65 116 334 608 615
116 212 608
304 616
161 515
116 576
33 108
49 403
116 241
115 161
240 505
96 176 213 413 493 527
30 576
51 377
473 655
319 671
182 335
167 540
49 519 598
383 540
184 525
376 755
612 621
222 539 621
77 80
77 737
96 321 527
4 546
96 206 278 413
30 140
304 447
237 540
53 206 321
297 540
104 161 421 455
41 143
96 206 321
481 510
77 377
447 557
102 334 608
119 324
102 126 241
240 404
222 539
93 480
146 629
183 546
546 737
133 624
80 102 237
241 480
93 423
45 515
88 515
237 241
102 575
177 418
229 359 457
237 565
3 306 400 479
219 251
229 240 474
157 447
304 351 447
92 469
116 134 608
104 576
224 623
283 510
108 480
116 196
96 206 213 413 527
216 288
108 134
80 196
88 193
77 150
480 565
51 115
324 451
3 306 670
140 524
177 224 539
217 265
185 255 445
67 594
306 411
3 251
360 615
77 699
160 540
524 576
160 196
216 539 621
225 479
177 288
161 168 540
51 65
102 334 524
104 161
366 515 529
356 655
104 168 455
116 721
447 576
153 193 483
225 404
598 647
254 599 762
137 349
157 726
122 245
254 737
104 388
213 441
167 349
400 404
227 512
251 569
33 540
197 608
116 480
255 445 655
225 229
580 731
80 194
104 377 455
119 335
25 557
74 485
134 241
193 255 445 483
480 515
93 161
359 457
114 655
377 524
324 334
161 292
80 540
351 403
140 237
224 539
194 532
194 576
216 354 359
140 540
104 208 226
576 738
226 304
33 104 455
335 351 537
481 612
423 440
104 435 455
104 366 455
481 609
283 719
116 334
515 529
182 351
229 240 283 505
150 447
36 304
116 194 334
183 541
473 483 606
41 728
334 421
104 241
115 383 425
321 514 747
65 608
194 334 342
122 150
25 271 287 590
87 237 608
33 366
65 102
305 379
335 403
255 445 565
33 93 104
104 115 383 455
3 183
366 529
297 454
224 304
168 608
96 206 213 321 514 674
102 383
52 104
255 445 606
24 146 257
27 88 664
146 655
167 483
160 565
166 252
183 279 447
65 196
104 515 599
137 366
112 208
447 718
447 544
225 283
61 96 413
174 745
49 183
41 143 728
77 104
31 216 225 359 612
193 255 445 451
456 469
457 481
119 146 174 183 287 366 530
519 558
96 213 413 628 730 747
104 243 447
377 614
252 271 417 496
146 540
51 134 383
102 134
28 483
137 183
381 728
51 399
283 404
177 216 621
335 473 537 606
93 108
150 324
69 612
28 324
96 213 413 527 628
31 225
546 699
161 524
628 747
177 222
196 237
324 544
104 183
157 629
447 608
102 183
183 625
447 701
30 383
33 377 480
114 473 483 655
102 134 140
194 540
366 436
245 297
193 445
104 366
494 625
193 445 483
168 565
194 507 598
183 472
31 726
225 481 612 621
400 404 670
92 469 542
296 483
324 576
167 495
237 334
30 116 334
598 599
116 608 615
133 177 481
96 213 321 527
16 288 612
232 240
163 625
87 196
199 369
93 95 377
182 515
102 134 615
104 161 377 455
457 612 621
104 455 480
104 154 455
476 608
565 608
88 102
62 225
229 240 481 612
96 206 213 321 413 527
304 310
104 161 208
65 565
31 304 365 481 510
447 480
80 237
134 324
92 137 469
51 137
213 628 694 747
585 599
160 161
137 515
161 366
87 738
183 483
404 670
183 648
451 565
134 608
104 116 271
225 458
134 524
237 615
423 525
85 254
104 447 455
137 161
93 525
33 480
51 480
229 240
116 565
61 96 206 213 321 674 747
227 304
421 576
36 400
134 304
104 515 648
96 213 413 527
104 421 447
309 474
306 400 404
304 502
216 609
96 206 213 674
134 376
96 213 278 413 527
324 615
104 540
2 183 339
474 571
183 701
177 457 609
137 456 469
302 557
238 540
359 457 580
104 554
400 676
507 530
237 608
255 445 447
334 540
41 304 616
515 532
89 225 229 283 359 481 570
177 612
3 240 400
157 670
102 241 427
403 418 457 529 609 612
359 474 596
180 216 232
93 104 455
193 606
319 366
324 524
292 565
80 576
126 360
96 206 213 413 674
216 562
279 617
126 241
334 608 615
3 225 400
146 226
87 334
216 232 621
319 551
122 737
375 608
25 271
51 565
565 576
400 670
24 146
183 193
116 183
196 565
160 183
226 383
216 225 359 481 510 612
24 473
324 335
206 321 527
292 615
694 730 747
287 737
349 540
104 515
116 565 608
222 232
288 612
157 398
185 483
185 193 255
92 469 742
65 134
77 473 606
150 546
51 310
96 213 628 747
274 349
213 628 730 747
161 435
104 421 515
227 545 555
146 447
77 608
335 648
163 556
167 334
351 373
199 366
157 177 216
177 354
104 349 515
206 213 321
304 468
166 310
160 524
36 251
77 150 304
104 208 480
287 366
283 655
154 377
408 606
351 447
143 304 381
4 112
104 421
248 615
167 576
255 356
102 104
400 473 483 519 606
237 383
377 539
216 359
41 331
65 334 608 615
30 183
335 606
104 226 766
51 524
80 360
255 451
49 480
216 232 481
146 366
87 576
104 297
483 515
163 523
102 134 608
183 277
304 540
237 738
161 480
96 321 747
208 304
222 232 539
208 377 383
137 447
225 359
36 569
85 379
241 575
3 400 499
102 260
216 481
229 240 283 309
174 279
324 660
146 502
366 515 648
185 565
310 612
292 738
51 80
206 213 527
102 480
306 400
80 102 241 575
629 670
349 571
93 177
240 359 580
335 370
334 476
557 655
182 366
80 565
87 292
119 279
421 565
31 481
146 351
182 196
254 351 447
51 324
157 396
3 283 458 479
54 556
104 140
24 279 447
116 447
161 168
102 237 608
108 134 540
237 480
167 193
104 519
283 515
183 334
540 608
33 436
41 402
400 621
216 240 244 481
3 306 458
183 486
146 304
213 321 527
80 524
157 304
183 249
33 194
80 608
102 116
213 278 527
483 648
51 241
77 515
324 530
225 481 612
237 530
157 177
208 480
196 304
3 411
75 398
87 480
104 154 208 455
177 423
30 102 116
143 304
102 540 608
229 481
45 304
119 335 403
102 360
335 531
51 134 140 615
67 183
69 102 237
77 279 447
222 423 612
28 161
206 213 321 635
273 283
3 306 400 404
216 457 609
225 488
102 167 334
119 199
119 469 742
51 161
206 321 747
177 621
102 608 615
161 324 565
51 208
194 565
447 485
95 400
69 360
161 421
440 510
232 539
33 104
77 199
225 281 359
88 185
335 629
16 288
469 540 648
255 283 483
576 608 615
104 106 254
115 168
229 240 309 474 612
283 400
237 565 576
249 648
104 455 540
143 239 304
629 726
381 402
511 608
80 324
241 427 524
102 116 383
377 480
335 366
194 615
354 398
457 609 621
161 196 608
93 208 383
77 293
85 274
49 119 182 554
137 324
403 515
104 226 455
254 369
133 177
3 225
137 325
447 551
199 351 447
421 540
143 239 304 381
196 335
324 525
102 116 334
185 255
122 544
366 369
351 447 737
133 539
334 576
31 216 225 359 481 510 612
78 643
96 213 674
96 206 213 278 321 413 674
87 469 742
196 738
45 519
319 601
88 565
116 391
177 539
114 255 483
49 351
87 593
524 738
366 447
304 608
321 514 527
208 587
161 237
335 473 606 608
304 557
30 102
87 168
82 655
366 576
93 248
65 116 334 608
540 565
61 206 213 321 674
403 439
349 519
93 154
25 183
133 177 180
28 134
24 333
51 237
105 621
51 194 540
237 576 608
77 196
137 519
77 150 737
133 621
304 648
183 557
540 615
30 65
435 582
51 335
88 116
41 304
65 738
349 447
95 305
279 351
31 225 229 283 481
540 738
184 305
140 608
383 615
88 324
4 539
146 310
104 447
161 208 377
69 80
183 738
114 255 445 483 655
53 61 206 321
194 383
58 160
229 240 283 309 474
146 199
334 511
106 377
24 77 146
146 737
194 241
61 206
3 306 479
457 621
272 598
226 240
279 351 447 537
370 447
324 391
283 404 670
183 273
213 278 674
104 766
301 602
227 283 558
411 499
27 664
283 306
155 363
95 638
51 264
366 634
403 447
345 374
167 608
239 304 381 616
225 232 240
108 115
229 396
93 95 248
137 196
113 447
239 304 310
49 119 335
241 540
51 88
252 310
137 469 648
51 104
33 146 524
421 529
222 354
167 615
3 306 411
183 335
254 447
182 199
283 536
116 168
24 557
481 609 624
324 377
451 469 742
240 283
25 173
78 613
183 608
87 116
226 252
206 213 321 514 674
102 119 137 161 194 324
212 608
216 224
77 163
88 540
279 287 447 467
3 400 458 479
87 245
96 206 213 321 527 674
87 565
177 232
33 576
104 154 208
208 515
96 413
30 237
366 540
240 536
25 447
96 413 635
254 324 372 761
447 476
335 608
96 278
199 226
87 226
245 324
153 483
335 473 606
227 519
177 612 621
88 196
473 606
283 366
237 608 615
216 359 612
77 447
69 80 241
119 227 240 365 404 569
304 655
87 524
473 606 655
551 601
196 716
41 277
104 421 455
176 242 304 374 432 544 588
232 354
529 565
232 621
33 104 176 254
279 304
216 225 229 359
42 304
30 480
161 208 421
277 381
119 648
27 137 664
137 304
31 481 612
334 524
287 447 515
146 480
208 383
119 366
3 225 400 458
325 469
185 349
88 194
51 161 608
283 479
400 404 479
146 335
54 556 625
87 515
403 423 457 458 543 609
222 621
183 366
24 447
473 483 655
16 237
177 216 224
324 540
359 474
120 512
134 196
206 213 321 628 674
114 255 483 655
177 180 225 609
41 143 304
304 699
225 400 458
225 229 283 359 481
377 383
304 539
25 271 287 351 447 530
240 254
279 351 447
366 455
283 473 606
180 216 539
238 246
221 349
213 610
366 519
150 310
41 143 304 728
288 457
324 608
153 370 483
102 116 324
119 310
33 93
105 216
61 206 321
182 519 598
96 213 278 413 674
93 208 377
65 576
122 447
241 324
225 400
206 213 674
24 544
34 249
296 529
127 225 229 240 474 481 612
161 540
199 304
108 194
400 701
225 377 481
31 309 474
69 80 237
180 609
481 621
119 515
119 351
23 334
24 279
104 425
306 670
255 445 483
96 213 413 628
400 458
351 447 502
77 370
609 612
304 598
116 194
161 472
137 483
225 283 510
69 237
383 435 582
167 522
115 161 608
78 205
3 36 225 281 306 365 432 474 558
69 304
486 624
122 557
77 122 546
292 608
199 240
225 229 359 481 580
3 240
199 351
196 287
16 324
122 226
69 102 241
160 576
137 185
80 126 241
161 324
41 304 728
78 480
143 381
157 481
400 746
119 146
114 255 445 483
300 511
161 208 383
266 363
366 469 742
515 608
519 598
104 208 383
224 457 609
104 383 455
89 225 229 359 400 481 570
349 483
31 309 359 474
283 404 411
447 568
115 383
435 582 608
137 194
206 213 321 527 674
3 225 240 359
89 216 359 612
24 248
25 119 146 287 351 515
104 515 529
160 530
576 615
3 458
38 400
240 474 612
320 379
33 524
102 237 480
180 539
116 134
177 216 457
45 599
104 455 524
102 524 608
196 615
64 334
297 515
447 565
400 710
98 177
41 174
122 146
87 134
435 576 582
134 237
304 511
304 558
515 598
77 137
255 304 445
481 580
51 383
377 515
108 208
102 194
78 334
377 587
283 499 670
150 557
93 106
104 115 208
177 624
251 283 306 404
89 244 396 481
41 287
319 553
304 737
185 469 742
391 608
96 213 321 514 527
576 648
206 213 628 747
218 293
85 296
539 621
104 436 455
150 239 304
102 167
628 730 747
33 51
485 623
83 304
349 366 515
24 351
183 576
304 432
102 116 615
194 421
87 88
119 377
510 612
77 324
51 134 171 287 496 593
177 224 457
225 229 400 481
255 473 606
237 540 608
227 366
143 381 728
203 540
208 529
400 479
351 447 722
193 400
225 232
93 377
403 612
360 575
183 399
227 353
104 116
102 116 334 608
77 565
51 615
133 458
27 565 664
254 762
104 108 455
404 458
61 206 321 514
115 116
88 608
146 230
140 421
305 377 379
273 485
176 398 493
116 212 334
1 447
524 540 608
102 126
51 447
161 587
530 544
177 457
80 102
400 598
24 146 447
16 51 104 146 194 367 447
225 612
398 510
400 536
213 321 514 527
447 546
530 738
33 515
310 592
146 568
16 216 288
283 306 411
349 578
206 213 278 321 674
306 400 404 458
182 279
229 240 505
51 104 106
271 759
124 551
96 213 413 610
576 608
161 608
168 576
255 445 451 483
161 183
608 738
134 615
93 104
77 279 287 447
612 629
464 631
540 576
255 283 445 483
104 403
116 140
225 232 240 377
51 87
41 183
163 287
183 539
140 196
324 515
193 255 445 483 655
115 608
183 462
3 400 499 670
51 196
183 540
112 377
240 369
41 515
176 304 493
140 565
88 451
310 728
206 747
182 324
116 334 615
515 565
77 226
104 447 515
119 737
403 529 609 612
349 469 742
543 726
104 335
199 335
421 447
213 674
229 612
183 198
196 480
241 608
196 608
104 115
324 366
237 427
41 381
163 287 509 530
96 278 321
119 334
539 609
250 480
119 267
166 252 310
102 565 608
16 241
30 161
166 239 310
182 519
255 445 473 606
283 458 558
61 321
3 283 306 404
102 237 427
304 728
116 540
245 524
38 212
31 283 510
182 304
31 474
143 728
457 609
70 137
41 239
278 321 514
95 274
174 310
61 96 206 413
216 240 481
87 241
216 457
51 608
310 447
102 324
108 524
421 608
119 194
225 240
240 400
163 548
119 134
102 440
335 447
77 122
51 102
381 616
51 469 742
432 567
324 593
206 213 321 514 527
80 469 742
77 759
87 102 608
255 283 445
212 524
180 225 609
65 116 608 615
225 359 488
469 483 742
104 455 515
96 413 747
167 248
199 283
529 540
229 240 505 612
608 615
366 469 648
24 146 759
183 297
254 366
168 421
36 219
474 596
283 612 621
41 143 239
116 237
3 306 400 458
300 391
225 760
160 168
80 134 140
49 540
612 638
445 606
116 375
96 206 213 321 413 674
104 106 208
3 404
462 544
87 648
398 503
45 104
381 447
25 182
241 447
96 213 413 674
325 363
82 193
102 615
194 524
177 216
237 447
182 598
134 383
185 515
180 225 232 621
377 421
140 615
193 655
255 274 445
3 306 404
27 608 664
102 134 524
104 324 455
104 215
108 161
216 232
54 300
85 95
49 335
212 615
447 515
245 383
93 421
447 759
306 404
93 115
85 94
730 747
216 240 359 481 580
551 553
33 199 251 489
196 334
297 469 742
349 456 469 515
28 565
93 105
3 499
519 554 598
196 292
255 606
88 167
77 335
391 511
237 576
61 206 213 321 514 610
39 447
65 194
225 229 283
304 366
41 119
469 515 742
183 565
193 473 606
168 237
134 679
119 349
102 116 608
102 565
115 208 377
335 655
255 445 483 655
3 400 404 479
510 539
423 481 580 611
178 275
3 283 479
3 400 479
309 359 474
3 670
104 468
146 198
447 722
85 377
134 182
104 629
359 474 578
168 334
239 304 447
400 719
310 462
54 625
5 249
254 515
193 483 606
283 483
457 481 609
349 648
239 351
400 404 499
180 225 624
239 304
46 351 447
157 554
383 565
1 718
216 359 457
458 483
134 334
150 293 304
115 540
199 254
324 349
304 467
87 524 608
104 227
403 611
41 319
540 648
524 615
27 237 664
104 194
3 675
33 324
306 404 411
255 655
61 96 213 674
174 479
524 565
196 324
194 334
196 208
114 483 655
5 16 288 612
167 237
25 51 183 237 304 557
31 354
51 245 565
160 292
51 370
104 208 455
146 257
324 519
65 334 608
167 565
104 544
28 183
133 216
306 458
324 565
565 615
324 524 608
241 360
229 481 612
65 480
143 304 381 728
146 530 540
24 759
229 240 474 612
225 510 612
283 411
115 196
5 16 288
279 304 447
423 612
104 108
279 447
283 499
383 421
194 342
447 510
199 540
120 452 512
428 491
283 306 404
624 731
304 509
134 421
77 544
469 515 648
485 675
87 335
480 738
25 310
225 229 400
96 206
33 208
196 241
183 226
310 759
313 324
366 515
359 580 760
4 93
104 161 766
240 254 400
114 445
182 254
197 324
363 447
140 576
28 530
196 377
96 206 213 321 674
324 447
507 671
33 226
185 366
69 383
78 183
104 161 455
146 377
254 304
77 252
208 224
366 421
411 479
25 462
88 576
104 254 515
98 481
324 524 565
225 240 404
102 241 524
87 194
377 598
119 304
264 353
241 615
96 176 278 413
293 304
183 403
239 351 447
305 377
349 515
628 730
216 359 580
93 104 208 455
229 240 612
104 199
369 536
31 510
448 546
96 206 213 278 321 413 527
335 576
96 213 413 628 747
64 134
3 400
80 297
183 324
400 404 458
31 225 612
226 540
104 196 208
146 557
529 726
283 349
18 349
194 447
146 166
134 576
593 615
53 206 213 321 674
3 283
283 529
104 529
137 648
398 400
30 160
216 539
93 196
70 176 493
161 208 425
87 160
194 648
16 194
16 69
264 540
206 213 321 514 527 674
161 194
237 524 608
77 146
241 254
51 168
102 608
67 613
400 629
64 212
208 608
334 615
239 381
104 161 208 455
150 166 310
339 349
168 472
239 304 381
41 447
56 279 447
96 206 213 321 413 527 674
473 537 606
183 349
213 321 674
273 474
182 531
104 208
292 576
22 25 146 166 271 287 304
36 72
196 524 608
116 615
89 216 359
237 648
194 196
225 229 481 612
283 746
157 224
324 483
115 425
102 134 194
377 447
237 399
53 206 278 321
539 624
142 406
69 119
237 532
104 208 421
134 540
96 213 413 747
174 647
88 522
133 216 609
167 324
402 447
205 613
51 334
206 321
196 524
89 225 229 244 283 359 396 481 570
203 565
447 540
163 447
69 241
65 183
30 608
104 599
143 239
77 335 473 606
118 404
103 297
104 115 455
212 375
93 455
16 102
69 161
722 737
98 354
3 225 281 306 474
523 556
241 334
335 439
196 342
241 598
351 737
293 447
87 390
146 157
213 527
208 377
69 539
556 625
216 621
104 154
226 515
161 168 324
304 629
383 608
119 629
104 254
279 515
30 212
182 183
324 469 742
177 244 481
80 615
23 134
41 310
114 483 606
177 216 609
119 576
53 206
208 455
469 483 648
515 576
255 758
279 447 509
297 565
360 524
225 447 510 612
447 529
229 283 309
61 278
16 80
432 599
334 660
335 351
30 134
241 519
39 366
319 655
52 297
24 226
31 612
183 469 648
335 515
239 616
96 278 413
193 473 483 606
558 599
174 447
27 167 664
216 474 612
104 608
51 134
160 608
115 435 582
104 423
281 474
226 254
237 292
105 177
114 445 483
104 199 447
1 351 447
116 524
198 416
369 400
283 404 499
137 565
33 565
226 447
335 537
206 213 321 674
96 176 278 413 493
146 556
3 499 670
183 237
146 477
3 283 670
273 701
154 208
30 51
306 404 458
515 648
30 421
515 519
469 565 742
225 229 240 283 339
3 283 306 479
69 447
108 226
154 161
302 447
61 96
377 540
310 737
77 146 293 515
30 194
222 232 612
366 447 515
119 351 447
168 196
104 366 515
237 360
216 481 609
104 208 366
104 558
27 615 664
213 628 747
237 324
30 116
31 481 510 612
206 213 321 610
93 447
304 510 612
530 737
400 416
157 208
31 510 612
222 232 354
621 629
69 102
88 334
180 222 539
25 96 278 413
273 310
565 648
146 467
25 58 134 237 324
96 213 321 674
33 199
104 196
104 447 529
381 616 728
30 738
306 400 404 479
49 377
378 447
115 208
51 421
69 575
208 435 582
423 611
161 576
163 494
237 260
77 557
87 421
304 542
161 324 540
150 166 252 310
104 208 435 582
137 363
182 540
104 160
96 413 694
61 96 321
580 760
240 366
104 455 469 648
183 254
194 480
3 479
88 104
30 377
625 727
140 168
240 676
24 568
524 608
102 447
246 389
334 447
41 143 239 304
102 134 212
104 154 161 455
3 283 499
3 225 240 474
108 293
87 115
87 102 134
104 185
150 239
102 237
104 119
96 213 321 635
182 447
304 722
193 483 655
304 351
61 96 176 206 227 278 321 388 493 515 598
216 503
335 540
30 615
104 376
3 400 404
255 335 445
255 445
102 515
300 334
354 612
96 213 413 527 674
227 598
529 609 612
239 283
418 612 621
24 41
25 287 403
445 483
85 245 296
33 377
1 351
360 480
457 503
41 239 447
104 349 455
151 324
288 731
237 421
104 304
449 602
183 255 445 483
74 447
252 759
283 676
