      2 0
      1 1
     52 2
      9 3
      6 4
      1 13
     21 15
      5 17
     20 21
      2 22
     30 23
     46 24
      5 26
      6 27
     37 29
     17 30
      1 31
     32 32
      1 33
      2 34
     12 35
      5 37
      4 38
     26 40
     13 44
      4 45
     28 48
      1 49
     48 50
      1 51
      5 52
     10 53
     12 55
      7 57
     12 60
      2 61
      6 62
      4 63
     15 64
      4 66
      2 67
     18 68
      5 69
      1 71
      1 73
     70 76
      7 77
      1 78
     28 79
     14 81
      1 83
      7 84
     49 86
     16 87
      3 88
     20 91
     31 92
      2 93
     10 94
     40 95
      1 97
     60 101
      1 102
    156 103
      2 104
     14 105
     26 107
      6 111
      3 112
      7 113
     16 114
     46 115
      1 117
     70 118
      2 119
     26 121
      1 122
      4 125
      1 126
      1 127
      3 129
      9 132
     35 133
     23 136
      1 137
     18 139
      2 141
      9 142
      2 144
     88 145
      1 146
      1 147
     12 149
      3 150
      9 152
      7 153
     17 156
     17 159
     70 160
      8 162
     14 165
     13 166
     34 167
      7 170
      1 171
      7 172
     23 173
      1 174
     22 175
     28 176
      8 179
     52 181
     93 182
      2 183
     19 184
      1 185
      3 186
      2 187
      2 189
     25 192
     43 193
      1 194
     37 195
      3 196
      5 197
     28 198
      1 200
      1 201
      3 202
      2 204
     38 205
     50 207
      5 210
     18 211
     47 212
      1 214
     31 215
      1 218
      2 220
     11 221
      2 222
     12 223
     58 224
     43 225
     21 226
      2 227
     34 228
      4 229
     13 231
      1 233
      1 235
     48 236
      7 237
     17 238
     47 239
     39 240
      5 241
      1 242
      4 243
     19 244
      2 245
      7 247
      8 248
      6 249
      5 250
     12 251
     40 253
     45 254
     10 256
      1 259
      2 260
      1 261
      3 263
      2 265
      2 266
      1 267
      1 269
     25 270
     13 272
      4 273
      1 275
      3 276
     14 277
     36 278
      4 280
     60 282
      1 285
    175 286
      7 287
     18 291
     16 292
      4 295
     10 296
      4 299
     22 301
     71 303
      6 304
     25 305
      2 306
      6 308
     52 309
      3 311
      2 312
      1 314
     12 318
      1 319
     49 320
     74 323
      3 324
      2 325
      1 326
      8 330
      1 332
     57 333
     51 334
      1 335
      1 336
      1 337
     10 338
      1 339
      3 341
      1 342
      2 344
      1 346
     26 348
     63 350
      1 351
      4 352
      9 353
      6 355
     23 358
      6 359
      9 362
      9 364
     47 365
      8 366
      2 367
      6 368
     22 369
      8 371
      3 373
      4 374
      5 375
     58 376
      4 377
     11 378
     12 380
      1 381
     40 382
      3 383
      3 387
      1 389
      8 390
      2 395
      1 396
      5 397
     11 398
     61 399
      9 401
     27 402
     23 403
      1 405
      1 406
      3 407
      1 409
      8 410
     25 412
      1 414
      7 415
      1 416
      5 417
      7 419
     25 420
      1 421
     18 422
      1 423
      6 424
      7 426
      1 427
      3 429
      2 430
     13 431
     10 434
      6 435
     13 438
      2 439
      2 442
     39 444
    207 446
      4 447
     11 450
      2 451
      1 453
     40 454
      7 455
     21 456
     27 457
     14 461
      3 462
      1 463
     64 466
      4 467
     47 468
      2 471
     20 472
     22 473
      1 474
      5 475
      4 476
      1 477
     18 478
     39 479
     41 480
     63 482
      4 484
      7 485
      3 487
      1 490
     11 492
      7 493
      2 494
      8 495
      2 496
      4 497
     10 498
      2 499
      9 501
      2 502
      4 504
      5 506
     19 508
     12 509
      7 510
      5 511
     16 513
     72 514
      1 516
      2 517
     27 518
      1 521
      6 522
     54 523
      7 524
     21 526
     20 528
    160 529
      3 530
      6 531
     14 534
      9 535
     86 536
     20 538
     53 539
      3 540
      2 541
      3 542
     13 543
     27 545
      3 547
      6 550
      2 552
     11 553
     11 555
     25 556
     23 557
      3 560
      1 561
      1 562
     45 564
      2 566
      4 567
      6 568
      2 569
      1 570
      1 571
      7 574
     36 575
      1 577
     10 579
      7 581
      1 582
      1 584
      1 587
      4 589
      1 591
      7 592
      1 593
      2 595
     27 597
     10 598
      1 599
      3 600
      6 601
     29 605
     67 607
     25 608
      4 609
      6 610
     58 611
      3 612
      3 613
     29 614
      8 615
     11 616
      1 617
     19 620
      4 622
      8 623
      9 624
      2 625
      1 626
     12 627
     17 628
      3 630
      1 631
      4 633
      2 634
      1 637
      1 642
      3 643
      1 645
      9 646
     32 647
      1 650
      2 651
     31 654
      1 657
      4 659
      1 660
      3 661
      5 663
      6 666
      2 667
     11 669
      3 670
      5 672
     18 673
      7 674
      3 675
      1 677
      1 679
      1 681
      1 688
      1 690
      3 694
      2 697
      5 698
      1 699
      6 700
      4 705
      1 708
      1 709
      1 711
      3 718
      2 721
      5 725
     11 727
      5 729
      2 730
      1 734
     10 736
     11 737
      1 738
     12 741
      1 744
      2 745
     16 746
      3 752
      7 753
      1 754
      1 755
      1 756
      1 757
      7 758
      3 759
      7 760
      9 765
