286	499	1
226	286	1
23	76	446	1
145	146	165	446	508	556	1
286	545	624	1
21	286	529	536	1
60	320	513	1
378	529	1
17	318	446	1
44	529	1
121	225	514	1
145	390	529	1
181	398	1
286	350	446	1
273	467	1
105	539	1
239	473	1
35	226	286	334	1
535	679	1
150	167	1
508	529	1
91	323	468	1
76	225	286	334	1
8	49	253	309	371	461	760	1
2	225	282	399	575	647	1
76	118	152	286	365	382	1
76	286	350	366	446	1
173	301	309	1
2	21	24	309	399	446	478	1
166	175	492	1
228	358	480	579	1
4	45	144	181	248	365	446	495	557	666	1
115	323	539	1
450	529	1
13	103	105	193	1
64	523	737	1
118	136	1
2	286	333	1
21	536	1
55	301	303	536	1
37	286	1
286	303	568	1
399	457	557	1
121	238	399	1
466	529	539	1
15	536	1
145	225	493	1
324	539	1
103	105	226	1
211	333	524	1
224	228	282	569	1
415	467	529	1
402	654	1
21	24	32	70	145	181	270	446	1
81	198	1
57	103	181	195	207	254	311	444	482	1
2	35	226	282	1
118	182	286	350	1
68	136	236	518	553	1
50	86	103	153	193	202	207	225	252	291	311	454	765	1
529	666	1
272	419	1
446	628	1
103	225	446	1
23	145	466	758	1
103	225	454	518	1
103	145	446	454	466	514	529	536	1
103	286	350	446	466	556	1
55	162	1
133	241	1
286	303	466	1
250	286	466	1
253	371	442	760	1
278	529	536	1
53	145	286	429	575	1
173	529	1
37	529	1
286	305	403	1
446	545	698	1
101	240	574	1
103	198	225	323	365	446	493	514	1
244	323	382	1
91	334	468	741	1
23	225	286	1
3	446	1
270	303	399	446	529	1
23	145	529	1
2	399	646	1
145	165	250	557	568	597	1
76	350	446	466	1
44	103	105	1
456	623	1
624	700	1
76	107	350	383	529	1
156	244	1
176	221	417	457	542	1
24	286	446	529	547	1
270	529	1
303	529	1
282	557	1
160	334	446	1
91	136	241	468	1
133	333	592	1
78	145	160	247	334	421	1
182	286	446	466	1
355	550	1
369	446	529	1
4	182	1
223	529	1
62	76	118	286	309	330	350	495	630	1
333	662	1
144	398	1
182	476	1
244	529	1
522	536	1
86	160	237	1
24	529	717	1
182	323	529	1
50	198	1
614	659	1
2	646	1
323	571	1
248	414	553	1
365	446	466	1
32	201	1
193	528	1
286	478	1
450	508	1
44	226	256	1
160	382	434	581	1
95	212	513	526	1
35	399	403	669	1
35	175	286	350	1
309	399	438	1
534	616	1
55	529	1
286	508	529	1
24	118	121	172	270	446	536	1
479	501	1
79	101	539	1
333	374	659	672	1
32	672	1
105	514	1
57	111	173	181	207	247	382	506	519	646	718	1
118	718	1
91	103	468	514	1
529	591	1
91	181	468	482	518	597	1
415	564	1
35	182	286	529	1
198	350	377	1
224	228	239	272	338	473	480	611	1
182	536	591	1
29	115	160	334	423	438	562	564	1
118	556	1
26	29	323	663	1
76	226	1
22	419	1
150	333	529	659	1
92	170	186	1
270	286	624	1
160	207	435	1
23	145	752	1
226	514	1
69	241	348	1
35	431	1
399	511	1
118	182	529	1
48	118	172	1
182	508	536	545	657	1
3	397	538	1
121	182	529	1
480	611	705	1
92	659	1
107	240	1
86	107	160	207	514	1
24	103	118	270	286	660	1
26	48	86	236	663	1
275	286	446	1
92	183	376	1
76	118	303	399	1
254	348	482	1
50	103	170	181	182	309	369	446	1
145	251	256	446	1
21	95	212	350	412	526	1
30	182	480	611	1
198	253	479	1
182	466	1
79	86	607	1
91	103	468	765	1
91	182	365	468	514	1
145	286	369	567	1
446	508	1
121	501	1
272	529	1
182	278	529	1
64	86	607	1
2	250	282	403	410	478	1
309	497	628	1
118	286	518	597	1
286	517	1
118	145	286	366	446	514	1
118	225	282	1
182	466	529	1
24	446	536	1
23	118	160	182	674	1
150	211	333	374	419	438	614	659	661	1
172	181	485	501	672	1
24	350	466	529	1
92	323	1
64	114	376	1
103	529	557	1
182	189	1
32	103	253	479	1
245	353	399	1
529	550	1
508	536	1
182	338	725	1
145	173	303	309	700	1
402	417	608	611	1
26	236	575	663	1
76	303	350	446	529	589	698	1
94	295	376	1
198	376	517	1
181	282	348	455	468	1
160	348	450	482	514	1
145	369	398	529	1
29	50	101	133	226	518	1
210	338	438	1
29	145	529	1
529	654	1
529	556	1
15	529	1
223	488	1
103	253	446	1
103	198	249	1
197	529	1
480	705	1
76	182	529	1
501	529	1
145	286	550	1
55	616	1
24	616	1
224	228	282	422	1
23	286	466	1
182	455	468	1
24	76	286	446	1
253	323	371	659	760	1
32	103	105	167	420	661	1
419	529	611	1
17	86	272	1
278	508	536	1
2	286	478	1
21	323	1
95	103	402	412	526	1
66	204	430	1
24	173	286	1
112	173	182	239	251	303	529	556	1
278	286	645	1
103	564	1
244	286	1
118	362	536	1
76	446	493	529	1
224	231	422	457	610	1
221	422	608	1
35	286	1
350	536	1
286	744	1
224	417	620	1
170	272	1
103	348	1
536	556	1
529	616	1
121	286	1
278	446	575	1
145	286	446	1
192	254	472	1
52	95	320	1
145	158	1
48	529	1
431	529	1
552	694	1
32	194	1
210	456	528	608	611	1
121	303	698	1
17	68	145	292	350	466	495	529	1
115	244	382	1
173	251	270	286	309	446	598	1
301	350	529	1
450	536	1
182	286	536	1
182	198	303	1
24	286	318	350	446	1
76	309	543	1
536	616	1
37	101	175	236	1
103	207	286	292	454	1
323	553	1
86	291	479	1
21	529	557	1
32	301	362	1
182	350	446	529	1
462	529	1
32	103	182	286	1
29	115	211	614	1
48	446	529	1
244	564	1
145	446	514	1
173	332	1
278	529	1
301	557	1
276	529	1
103	753	1
224	231	611	1
76	145	466	529	1
62	529	1
3	272	1
115	118	303	1
523	539	1
380	529	1
286	399	1
103	215	353	557	1
95	212	320	412	513	627	1
566	598	1
334	365	446	1
145	198	229	1
92	103	111	207	211	370	376	479	1
280	403	1
38	91	468	1
402	622	1
286	330	350	446	1
286	616	1
415	529	1
369	670	1
286	534	1
466	752	1
256	426	529	1
286	597	1
101	125	192	240	369	462	1
301	624	1
485	514	1
91	192	450	468	482	1
350	446	529	1
76	466	1
282	286	1
24	76	350	446	1
118	398	1
309	476	1
286	444	482	1
24	121	181	211	446	479	1
192	254	444	482	536	1
323	364	1
145	286	466	1
86	103	198	454	1
55	286	466	1
160	760	1
118	536	1
57	95	159	167	205	212	244	276	336	387	412	508	627	729	1
225	266	1
145	366	446	529	1
21	286	698	1
76	145	446	529	1
76	536	1
286	646	1
81	598	1
15	309	495	497	508	699	1
101	115	211	1
529	534	536	1
286	539	1
198	210	529	1
40	76	401	1
382	390	1
121	369	1
182	529	1
50	86	115	186	193	382	1
382	383	1
251	253	1
415	536	1
466	529	616	1
3	50	57	111	376	417	564	1
15	415	1
118	121	149	362	698	736	1
118	160	225	1
24	49	145	270	286	318	350	446	597	1
237	462	1
508	529	536	624	1
50	133	211	420	1
118	399	446	1
68	103	160	193	446	454	536	1
118	286	446	1
118	145	286	366	446	514	518	1
145	186	291	450	529	1
76	476	1
182	193	195	1
86	103	1
79	101	236	523	1
2	121	282	286	305	309	446	1
273	611	1
184	296	1
278	466	529	1
76	286	446	529	1
81	103	147	518	592	1
21	534	1
24	291	323	529	1
415	543	1
2	282	286	305	1
76	104	173	292	303	529	1
182	553	1
50	575	1
76	182	446	536	1
301	534	1
286	292	466	1
24	103	286	309	556	605	633	1
446	624	1
15	101	236	1
48	286	466	1
256	529	1
95	175	277	320	1
286	446	1
177	472	482	518	605	1
167	376	399	457	608	1
193	536	1
76	446	674	1
529	698	1
103	181	282	323	415	535	1
115	240	523	1
253	479	1
286	485	1
195	539	564	737	1
103	286	334	365	539	1
286	536	616	1
270	446	514	529	1
76	160	529	1
182	534	1
167	192	254	444	482	700	1
32	86	1
79	91	118	184	468	539	1
224	239	272	403	1
50	181	597	1
103	237	402	454	468	492	647	1
438	484	1
15	127	1
286	292	303	309	1
274	536	1
401	529	1
24	286	446	545	1
21	286	466	1
529	601	1
21	508	529	1
286	518	597	1
103	236	282	675	1
35	103	286	1
350	446	670	1
24	79	182	286	367	1
402	523	1
309	323	446	1
52	320	513	1
407	472	605	654	1
76	575	1
103	198	225	249	1
21	301	1
32	253	334	1
529	555	1
167	337	1
55	145	272	699	1
77	362	539	1
326	674	1
121	536	1
224	422	610	620	1
344	368	1
143	402	528	611	1
207	237	311	479	1
286	466	536	1
446	461	556	1
21	48	1
145	181	184	256	309	350	446	461	543	1
76	446	529	717	1
118	254	444	482	1
76	145	466	1
103	207	225	454	1
30	173	422	1
44	182	355	382	514	647	1
103	355	386	467	1
446	466	1
118	145	309	1
482	518	605	1
92	346	607	1
76	301	522	628	1
365	543	1
457	529	1
350	446	529	556	1
38	647	1
15	182	227	323	382	1
254	286	444	446	482	633	1
355	605	1
24	270	286	350	1
377	543	1
21	529	536	1
95	103	175	212	334	412	422	492	611	627	705	1
103	207	291	420	454	765	1
240	300	1
514	536	1
350	446	536	556	1
21	286	380	529	536	1
160	376	420	1
145	173	466	555	666	1
466	616	1
32	253	1
24	32	40	48	314	1
415	539	1
286	624	1
114	175	492	1
95	412	513	526	1
2	62	121	286	556	1
76	529	1
286	466	529	1
553	582	1
23	40	309	1
286	292	447	1
103	105	267	292	382	536	1
114	205	212	320	526	1
84	183	296	1
118	165	419	610	1
557	643	1
438	529	1
181	286	529	1
175	482	492	1
253	272	309	438	610	1
24	529	1
31	91	468	1
63	115	211	1
23	53	145	165	496	1
334	415	1
21	380	1
181	292	461	1
23	666	1
323	444	1
76	286	466	1
165	182	1
21	529	1
2	286	303	399	478	1
241	467	1
286	543	1
48	86	160	167	207	622	1
286	446	681	1
270	309	597	1
446	536	1
182	501	1
286	466	529	536	1
429	756	1
2	76	282	320	446	630	1
112	598	1
286	556	736	1
118	160	181	282	334	365	1
446	497	1
226	536	1
286	446	694	1
23	225	239	282	301	1
50	103	105	270	286	309	330	366	446	517	612	1
278	286	1
198	286	479	1
21	286	529	1
29	101	133	333	1
103	355	467	514	1
181	376	479	1
531	564	1
86	736	1
446	466	508	1
2	24	48	286	446	447	457	466	556	1
29	225	397	402	611	1
184	529	1
195	454	1
24	32	304	482	1
399	478	498	1
333	374	382	1
22	323	1
160	539	560	1
368	643	1
76	530	1
121	529	1
145	286	1
309	330	1
286	536	1
160	182	186	286	529	1
76	334	536	1
44	226	1
15	24	29	50	76	182	286	291	446	1
105	145	156	473	592	1
253	364	419	1
475	650	1
312	536	1
228	700	1
450	607	1
68	536	1
139	244	323	382	1
121	173	286	309	446	591	1
272	286	1
172	222	286	369	446	466	1
118	184	254	444	482	1
21	627	1
286	467	1
29	67	193	273	323	1
91	468	575	1
240	444	1
286	506	1
344	368	373	1
48	86	160	167	182	207	622	1
182	431	1
373	438	536	1
192	518	1
173	364	1
40	286	466	1
150	167	508	1
254	376	1
15	286	536	539	1
118	189	286	446	518	597	1
79	236	426	1
121	182	338	446	517	1
323	446	529	1
181	301	303	309	1
95	212	412	609	673	1
323	760	1
103	153	167	198	207	311	376	523	1
103	153	207	376	454	1
538	697	1
103	136	514	1
301	536	553	1
76	118	225	266	446	1
23	145	398	1
309	529	1
181	348	399	455	468	1
286	555	1
537	539	1
165	270	286	1
48	76	86	286	350	446	461	523	529	536	564	737	1
21	278	529	536	1
32	103	160	225	256	454	1
29	182	333	1
44	113	482	1
224	228	399	568	1
282	466	1
91	303	468	1
48	226	518	1
35	534	1
466	508	529	536	1
103	118	236	454	1
398	536	1
145	753	1
48	304	376	539	1
286	369	466	1
121	270	309	330	529	1
187	628	1
182	225	365	1
197	536	1
402	531	1
406	523	1
68	236	518	553	1
175	598	1
145	536	1
181	211	479	1
344	670	1
87	398	1
24	270	286	309	318	446	568	1
291	309	350	446	496	556	607	1
53	466	529	1
21	446	1
309	446	461	543	1
24	446	529	1
173	752	1
76	193	282	446	466	482	523	529	605	654	1
446	534	1
182	508	1
103	240	365	1
251	254	444	1
48	303	350	508	529	597	1
145	181	285	286	446	545	597	598	1
305	348	1
23	496	543	1
92	211	378	1
76	225	334	1
29	118	145	270	446	1
23	309	350	462	466	482	1
224	422	480	611	1
95	212	412	609	729	746	1
95	291	412	424	746	1
118	270	446	466	753	1
103	187	1
145	256	529	1
94	402	1
24	350	446	529	1
76	446	475	1
355	514	1
103	181	270	286	446	485	539	1
103	348	402	455	468	524	1
152	482	597	1
278	286	334	446	1
239	272	1
226	286	529	1
92	103	446	454	1
446	529	556	1
76	350	529	1
182	198	529	1
160	434	523	581	1
167	524	597	614	672	1
160	529	1
244	365	514	518	557	1
523	564	575	607	1
536	543	1
86	482	1
40	242	253	286	633	1
21	286	1
30	103	365	480	1
145	334	369	1
115	333	523	1
21	181	286	529	1
181	286	1
318	529	1
529	553	597	1
241	348	1
175	277	320	492	513	1
24	55	545	1
272	420	1
350	553	557	1
44	103	220	514	647	1
278	365	1
160	207	376	575	1
254	444	482	514	654	1
286	466	539	1
176	253	371	760	1
152	182	184	1
253	301	371	760	1
133	529	1
446	466	536	1
23	446	529	1
435	529	1
81	86	107	160	237	269	407	415	429	444	472	566	568	592	597	605	654	1
156	454	1
145	177	257	446	529	1
103	225	286	446	454	1
250	626	1
21	181	286	529	536	1
17	107	153	193	225	244	1
182	646	1
2	181	182	270	286	446	597	1
40	181	305	399	466	529	1
185	369	1
101	236	378	1
536	597	1
66	362	1
145	301	536	1
173	536	1
304	376	539	1
413	485	1
133	211	359	1
24	466	529	1
118	402	529	1
48	118	1
145	256	301	1
482	674	1
23	260	1
376	553	1
184	254	514	1
35	529	1
228	239	457	473	480	611	1
29	50	115	165	1
92	670	1
529	557	1
103	207	248	1
422	439	524	589	674	1
369	628	1
17	508	1
121	286	616	1
118	446	624	1
103	198	207	1
181	611	1
253	557	1
103	195	454	1
53	350	555	1
2	320	1
118	303	350	446	1
2	529	1
60	101	205	320	382	1
278	508	1
508	529	536	1
398	399	457	1
40	76	251	278	350	446	536	1
529	646	1
173	251	270	286	466	495	1
181	628	1
278	446	493	1
238	325	1
182	286	1
40	309	615	1
224	228	239	473	504	1
301	645	1
162	446	536	1
215	231	422	454	1
536	553	1
175	492	631	1
103	118	160	225	402	435	446	450	1
318	446	536	1
286	350	466	1
564	601	1
103	454	530	1
132	358	579	1
145	323	402	1
118	479	1
466	514	1
81	149	170	240	309	397	611	1
50	172	286	568	1
182	530	1
181	466	1
501	534	1
174	616	1
94	103	105	184	334	647	1
529	552	1
145	278	529	1
160	167	170	323	1
181	508	555	1
121	446	529	1
182	195	1
2	282	286	378	457	1
226	557	1
77	450	1
150	160	253	301	371	382	760	1
103	167	182	207	278	446	477	523	529	1
81	197	1
333	672	1
137	339	378	474	1
145	446	466	1
181	299	333	390	1
101	115	420	564	1
376	378	613	1
29	32	105	107	118	139	323	382	523	582	607	1
181	233	389	407	446	543	1
48	446	536	1
620	725	1
32	48	101	103	534	575	1
145	529	536	1
182	365	529	1
160	167	181	323	1
21	369	1
95	320	513	526	1
92	403	1
29	32	139	323	523	607	1
118	286	1
103	181	225	564	765	1
21	567	700	1
86	133	382	1
222	446	758	1
86	536	607	1
103	145	172	251	286	1
23	145	286	466	1
341	575	753	1
139	419	1
103	236	514	1
29	193	607	1
24	286	1
145	536	556	1
514	529	1
4	15	118	286	399	482	518	1
286	390	493	1
29	196	211	333	528	1
286	398	1
24	32	94	514	1
182	628	1
225	286	323	1
23	278	536	1
133	182	1
91	334	468	1
34	536	1
278	318	529	1
286	479	1
21	286	536	1
522	529	1
101	536	1
286	303	446	1
189	253	286	529	1
50	244	253	303	446	508	529	607	1
160	282	1
536	575	1
121	286	313	1
2	286	305	1
380	401	446	753	1
162	173	309	493	1
184	348	514	1
225	239	282	368	1
91	438	468	1
21	184	225	254	318	382	497	564	1
286	600	1
390	539	1
182	362	529	1
286	466	624	1
149	251	309	556	1
447	529	1
286	651	1
145	363	1
50	539	1
156	286	1
332	529	1
431	518	557	1
68	236	240	1
95	103	175	212	320	334	412	422	492	611	627	705	1
91	296	468	514	1
32	103	376	454	1
32	613	1
226	478	1
103	145	529	1
48	145	350	529	1
160	254	444	482	654	1
103	454	628	1
49	145	252	446	1
84	94	378	1
182	270	535	1
398	467	1
229	446	529	1
76	145	529	1
466	508	536	1
121	286	446	1
29	95	212	320	516	609	1
91	118	1
256	301	529	1
69	286	1
212	434	482	526	581	1
145	167	181	253	309	373	1
184	446	482	1
253	438	1
402	444	1
446	601	1
225	369	1
76	323	536	1
3	669	1
23	160	318	536	555	628	1
141	529	1
278	286	466	1
23	211	295	748	1
24	286	309	1
60	95	320	513	1
390	446	529	1
64	87	159	160	291	1
223	415	1
98	182	1
76	182	301	303	1
205	320	513	616	1
91	468	514	1
476	485	1
81	254	399	444	482	1
79	529	1
272	291	422	610	1
286	466	545	1
160	361	1
103	145	192	254	444	454	730	1
76	446	508	1
239	628	1
23	182	556	1
286	438	1
84	245	382	1
3	539	1
103	536	1
37	115	348	564	1
529	614	1
160	226	241	1
182	210	226	286	309	446	458	495	1
175	198	1
200	270	286	539	545	1
253	309	378	514	529	646	1
278	493	1
76	318	536	1
21	736	1
24	270	350	446	536	1
198	508	1
192	254	444	482	647	1
115	150	333	1
181	457	1
529	597	1
282	755	1
101	115	564	614	1
446	557	1
29	291	323	455	468	523	1
236	523	574	1
195	207	376	1
184	446	529	1
45	438	446	529	1
160	193	434	581	1
61	175	492	1
145	182	536	1
76	156	303	1
29	523	1
76	286	529	1
76	118	167	184	193	286	334	350	446	1
103	182	765	1
286	545	1
165	468	514	647	1
50	91	103	1
24	118	286	350	1
118	457	1
23	333	390	1
53	536	1
330	543	1
67	205	320	1
21	466	1
103	336	397	422	438	479	1
112	539	1
334	529	1
26	32	86	1
23	303	1
402	647	1
303	545	1
182	446	1
87	494	1
23	475	1
15	484	674	1
76	303	1
40	238	303	615	1
192	254	1
50	115	333	1
139	160	1
145	543	1
323	402	1
226	584	1
193	514	1
104	456	608	1
15	50	1
60	205	212	277	320	513	673	1
76	545	1
149	736	1
248	253	1
145	461	1
29	115	614	1
103	482	1
30	224	509	611	1
68	103	1
40	238	615	1
399	446	1
341	564	1
44	254	444	1
333	382	1
348	365	1
457	535	1
472	482	605	654	1
291	333	1
86	614	1
30	364	611	1
224	480	1
101	352	1
145	181	1
544	554	1
86	236	523	1
68	240	574	1
50	482	1
399	611	1
170	422	1
103	454	765	1
103	535	1
482	654	1
184	450	1
2	224	239	1
53	162	1
212	746	1
103	376	1
205	212	320	609	673	1
402	608	611	1
92	628	1
215	623	1
103	207	376	1
193	468	741	1
212	673	746	1
103	105	1
86	107	1
292	420	1
179	620	1
292	296	1
556	736	1
15	674	1
498	669	1
35	68	226	431	1
166	193	1
238	303	615	1
2	282	305	1
95	212	412	440	627	729	746	1
376	454	1
350	446	567	1
87	482	1
176	223	1
207	424	1
446	510	1
182	736	1
286	461	1
162	536	1
468	575	741	1
132	456	1
446	611	1
193	376	1
2	282	410	1
114	160	207	1
545	646	1
348	468	647	1
272	303	1
2	282	305	457	1
156	210	1
239	245	399	473	613	1
198	535	1
195	575	1
156	309	1
145	173	1
101	240	1
192	254	444	654	1
239	457	1
38	103	1
149	181	270	303	309	366	446	466	545	1
92	382	1
468	539	741	1
50	303	1
215	353	1
107	195	1
224	228	358	399	480	1
320	325	1
224	228	282	480	1
160	434	581	1
113	482	1
265	688	1
76	334	607	1
40	145	1
608	623	1
114	434	1
182	338	1
167	193	1
359	564	1
24	225	1
333	607	1
2	399	669	1
44	348	1
251	529	1
334	553	1
101	236	523	1
160	225	1
68	514	1
390	446	510	1
210	528	608	611	1
350	717	1
29	207	1
64	236	1
136	240	1
50	523	607	1
198	207	1
455	468	741	1
92	94	613	1
228	282	308	473	1
156	221	538	1
493	555	1
81	444	654	1
160	564	1
115	211	1
506	738	1
244	354	1
254	323	444	1
86	236	1
303	509	1
211	333	607	1
478	605	1
179	224	231	1
159	323	1
64	115	1
40	238	303	1
142	303	727	1
115	333	607	1
502	608	1
103	181	1
224	239	399	1
225	301	1
69	431	1
468	741	1
2	358	611	1
182	198	1
547	624	1
399	410	1
334	536	607	1
475	510	1
215	239	480	579	1
166	420	1
238	446	1
103	454	647	1
38	514	1
160	334	1
79	240	1
253	350	1
93	247	1
365	647	1
87	614	1
615	727	1
50	166	1
456	608	725	1
236	518	1
439	674	1
207	420	1
32	434	1
118	282	1
207	523	1
29	101	211	1
212	609	673	1
564	737	1
225	282	1
76	365	1
221	538	623	1
176	215	457	1
224	228	480	1
249	446	1
103	236	1
167	737	1
402	456	528	608	611	1
79	182	1
198	225	446	1
136	539	1
160	737	1
24	76	1
118	468	647	1
205	212	320	526	1
133	193	1
79	333	1
91	236	1
40	615	727	1
365	482	1
92	207	1
67	391	511	1
76	628	1
44	647	1
280	473	577	1
87	166	333	1
160	333	1
176	215	628	1
115	211	607	1
303	615	1
160	514	1
48	402	1
115	240	1
114	160	1
29	575	1
50	376	1
472	654	1
166	539	1
48	518	597	1
382	539	1
611	620	1
221	538	620	1
76	79	1
3	545	1
95	205	277	412	1
29	139	1
52	205	320	1
296	539	1
103	160	420	454	1
480	509	1
76	376	1
446	556	1
101	125	240	1
239	403	1
221	538	1
182	545	1
545	736	1
132	623	1
92	422	1
44	514	1
87	514	1
176	417	1
228	358	456	1
236	564	1
228	239	473	1
156	446	1
303	350	446	1
103	575	1
223	622	1
282	509	1
95	205	212	412	526	1
215	287	1
107	133	1
76	149	1
479	564	1
50	114	1
139	523	1
176	223	538	1
216	264	1
305	410	1
2	250	1
359	614	1
523	575	1
159	195	1
215	538	620	1
160	167	539	1
50	64	1
101	333	523	1
355	654	1
103	167	454	1
115	720	1
224	403	1
597	646	1
253	598	761	1
121	244	1
253	736	1
103	387	1
399	403	1
226	511	1
250	568	1
115	479	1
254	444	654	1
224	228	1
103	376	454	1
118	334	1
24	556	1
192	254	444	482	1
479	514	1
92	160	1
376	523	1
323	333	1
160	291	1
139	236	1
223	538	1
193	531	1
139	539	1
103	207	225	1
575	737	1
334	350	536	1
480	611	1
422	439	1
480	608	1
282	718	1
115	333	1
228	239	282	504	1
149	446	1
35	303	1
472	482	605	1
40	727	1
333	420	1
320	513	746	1
64	607	1
193	333	341	1
86	236	607	1
32	365	1
64	101	1
254	444	564	1
32	92	103	1
103	114	382	454	1
296	453	1
223	303	1
167	607	1
51	103	1
254	444	605	1
23	145	256	1
166	482	1
159	564	1
165	251	1
103	514	598	1
136	365	1
111	207	1
224	282	1
60	95	412	1
173	744	1
76	103	1
30	215	224	358	611	1
192	254	444	450	1
118	145	173	182	286	365	529	1
518	557	1
95	212	412	627	729	746	1
251	270	416	495	1
145	539	1
50	133	382	1
136	182	1
380	727	1
50	398	1
334	472	536	605	1
92	107	1
149	323	1
95	212	412	526	627	1
30	224	1
545	698	1
176	221	1
195	236	1
323	543	1
446	607	1
101	182	1
182	624	1
32	376	479	1
113	472	482	654	1
101	133	139	1
244	296	1
192	444	1
103	365	1
167	564	1
193	506	597	1
182	471	1
399	403	669	1
91	468	541	1
295	482	1
236	333	1
29	115	333	1
597	598	1
95	212	320	526	1
15	287	611	1
231	239	1
198	368	1
92	94	376	1
181	514	1
456	611	620	1
103	454	479	1
103	153	454	1
87	101	1
61	224	1
228	239	480	611	1
103	160	207	1
64	564	1
30	303	364	480	509	1
133	323	1
91	136	468	1
50	136	1
159	160	1
136	514	1
160	365	1
403	669	1
182	647	1
450	564	1
224	457	1
133	523	1
236	614	1
103	446	454	1
136	160	1
92	524	1
228	239	1
115	564	1
60	95	205	212	320	673	746	1
35	399	1
133	303	1
103	514	647	1
308	473	1
305	399	403	1
303	501	1
133	375	1
95	212	277	412	526	1
323	614	1
473	570	1
182	700	1
176	456	608	1
237	539	1
358	456	579	1
103	553	1
236	607	1
254	444	446	1
333	539	1
88	224	228	282	358	480	569	1
176	611	1
2	239	399	1
402	417	456	528	608	611	1
358	473	595	1
179	215	231	1
318	365	1
323	523	1
291	564	1
95	205	212	412	673	1
215	561	1
278	616	1
2	224	399	1
145	225	1
86	333	1
121	736	1
374	607	1
24	270	1
399	669	1
23	145	1
182	192	1
159	182	1
225	382	1
215	224	358	480	509	611	1
205	320	526	1
291	614	1
693	729	746	1
103	514	1
115	564	607	1
221	231	1
184	482	1
184	192	254	1
91	468	741	1
149	545	1
50	309	1
95	212	627	746	1
160	434	1
103	420	514	1
226	544	554	1
334	647	1
162	555	1
166	333	1
156	176	215	1
176	353	1
103	348	514	1
165	309	1
159	523	1
35	250	1
286	365	1
282	654	1
153	376	1
142	303	380	1
3	111	1
103	420	1
254	355	1
101	103	1
399	472	482	518	605	1
215	358	1
40	330	1
64	333	607	614	1
103	225	765	1
50	523	1
79	359	1
215	231	480	1
145	365	1
86	575	1
162	522	1
101	133	607	1
182	276	1
160	479	1
95	320	746	1
207	303	1
136	446	1
224	358	1
35	568	1
2	399	498	1
101	259	1
215	480	1
323	659	1
145	501	1
365	514	647	1
291	737	1
50	79	1
205	212	526	1
79	101	240	574	1
628	669	1
348	570	1
334	369	1
333	475	1
556	654	1
86	291	1
118	278	1
420	564	1
181	195	1
253	350	446	1
50	323	1
53	555	1
103	139	1
23	278	446	1
101	236	607	1
107	133	539	1
236	479	1
282	514	1
182	333	1
539	607	1
399	620	1
215	239	243	480	1
2	305	457	1
212	320	526	1
79	523	1
156	303	1
79	607	1
101	115	1
212	277	526	1
76	514	1
323	529	1
224	480	611	1
207	479	1
195	303	1
2	410	1
103	153	207	454	1
176	422	1
29	101	115	1
228	480	1
44	303	1
118	334	402	1
50	133	139	614	1
66	182	1
68	101	236	1
27	160	1
205	212	320	634	1
272	282	1
224	487	1
101	166	333	1
118	198	1
205	320	746	1
176	620	1
101	607	614	1
193	564	1
446	484	1
94	399	1
439	509	1
231	538	1
32	103	1
87	184	1
334	628	1
15	287	1
575	607	614	1
103	105	253	1
114	167	1
236	564	575	1
248	647	1
103	454	539	1
380	401	1
510	607	1
79	323	1
376	479	1
334	365	1
193	614	1
160	195	607	1
92	207	382	1
76	292	1
136	323	1
402	514	1
103	225	454	1
2	224	1
136	324	1
446	550	1
142	238	303	380	1
195	334	1
323	524	1
121	543	1
365	368	1
350	446	736	1
30	215	224	358	480	509	611	1
77	642	1
95	212	673	1
195	737	1
44	518	1
318	600	1
176	538	1
113	254	482	1
48	350	1
365	446	1
303	607	1
320	513	526	1
334	472	605	607	1
303	556	1
29	101	1
365	575	1
92	247	1
64	115	333	607	1
402	438	1
348	518	1
92	153	1
27	133	1
23	332	1
50	236	1
236	575	607	1
76	195	1
136	518	1
303	647	1
182	556	1
539	614	1
50	334	1
87	115	1
40	303	1
94	304	1
278	350	1
30	224	228	282	480	1
139	607	1
382	614	1
87	323	1
103	446	1
160	207	376	1
68	79	1
52	60	205	320	1
193	382	1
57	159	1
333	510	1
105	376	1
23	76	145	1
60	205	1
2	305	478	1
456	620	1
278	350	446	536	1
369	446	1
323	390	1
212	277	673	1
103	765	1
300	601	1
26	663	1
282	305	1
154	362	1
365	633	1
402	446	1
344	373	1
224	231	239	1
107	114	1
228	395	1
112	446	1
238	303	309	1
48	118	334	1
251	309	1
136	468	647	1
50	103	1
221	353	1
166	614	1
2	305	410	1
181	198	1
282	535	1
115	167	1
323	376	1
450	468	741	1
239	282	1
182	607	1
86	115	1
225	251	1
211	607	1
215	223	1
76	162	1
2	399	457	478	1
86	244	1
95	205	212	320	526	673	1
32	575	1
103	153	207	1
207	514	1
365	539	1
239	535	1
24	446	1
446	475	1
334	607	1
95	277	1
244	323	1
152	482	1
334	472	605	1
87	195	1
472	605	1
282	365	1
76	446	1
68	79	240	1
118	226	239	364	403	568	1
472	605	654	1
550	600	1
195	715	1
175	241	303	373	431	543	587	1
231	353	1
528	564	1
278	303	1
215	224	228	358	1
41	303	1
276	380	1
118	647	1
26	136	663	1
333	523	1
286	446	514	1
145	479	1
2	224	399	457	1
324	468	1
184	348	1
282	478	1
399	403	478	1
145	334	1
402	422	456	457	542	608	1
221	620	1
182	365	1
15	236	1
176	215	223	1
323	539	1
133	195	1
205	212	320	627	673	1
113	254	482	654	1
303	698	1
224	399	457	1
224	228	282	358	480	1
24	270	286	350	446	529	1
239	253	1
278	350	446	1
179	215	538	1
237	245	1
220	348	1
149	309	1
40	142	303	727	1
287	456	1
101	115	323	1
118	309	1
32	92	1
181	518	597	1
95	212	277	412	673	1
92	207	376	1
240	323	1
224	399	1
205	212	673	1
295	528	1
126	224	228	239	473	480	611	1
160	539	1
399	700	1
224	376	480	1
30	308	473	1
480	620	1
118	514	1
118	350	1
103	424	1
305	669	1
254	444	482	1
350	446	501	1
76	369	1
608	611	1
160	471	1
136	482	1
224	282	509	1
166	521	1
114	160	607	1
77	204	1
485	623	1
121	556	1
76	121	545	1
224	228	358	480	579	1
2	239	1
198	350	1
121	225	1
68	101	240	1
159	575	1
160	323	1
40	303	727	1
77	479	1
399	745	1
118	145	1
113	254	444	482	1
265	362	1
365	468	741	1
514	607	1
223	456	608	1
103	382	454	1
88	224	228	358	399	480	569	1
282	403	410	1
446	567	1
114	382	1
205	212	320	526	673	1
2	224	239	358	1
88	215	358	611	1
103	514	528	1
159	529	1
575	614	1
239	473	611	1
319	378	1
32	523	1
115	133	1
176	215	456	1
44	598	1
195	614	1
63	333	1
296	514	1
97	176	1
40	173	1
121	145	1
133	236	1
303	510	1
303	557	1
254	303	444	1
480	579	1
50	382	1
101	193	1
77	333	1
376	586	1
92	105	1
103	114	207	1
176	623	1
40	286	1
318	552	1
303	736	1
95	212	320	513	526	1
575	647	1
205	212	627	746	1
538	620	1
103	435	454	1
149	238	303	1
32	50	1
484	622	1
82	303	1
182	575	1
303	431	1
101	115	614	1
118	376	1
509	611	1
76	323	1
224	228	399	480	1
254	472	605	1
236	539	607	1
202	539	1
207	528	1
399	478	1
224	231	1
92	376	1
402	611	1
226	352	1
103	115	1
101	115	333	607	1
132	457	1
26	564	663	1
253	761	1
60	205	320	513	1
114	115	1
87	607	1
304	376	378	1
272	484	1
175	397	492	1
523	539	607	1
101	125	1
50	446	1
176	456	1
79	101	1
399	597	1
224	611	1
397	509	1
399	535	1
529	737	1
32	514	1
309	591	1
282	305	410	1
348	577	1
205	212	277	320	673	1
228	239	504	1
50	103	105	1
270	758	1
575	607	1
160	607	1
167	575	1
607	737	1
133	614	1
92	103	1
463	630	1
539	575	1
254	282	444	482	1
224	231	239	376	1
50	86	1
40	182	1
139	195	1
323	514	1
192	254	444	482	654	1
2	399	498	669	1
50	195	1
182	539	1
40	514	1
175	303	492	1
139	564	1
205	746	1
181	323	1
115	333	614	1
103	446	514	1
118	736	1
402	528	608	611	1
103	334	1
198	334	1
420	446	1
182	197	1
195	479	1
240	607	1
323	365	1
236	426	1
40	380	1
118	333	1
538	608	1
249	479	1
101	564	607	1
15	240	1
29	160	1
254	444	472	605	1
282	457	557	1
60	320	1
303	727	1
115	539	1
244	523	1
181	303	1
30	473	1
142	727	1
40	238	1
277	320	513	1
94	273	1
215	239	480	1
86	240	1
215	456	1
101	323	1
107	523	1
420	607	1
239	399	1
162	547	1
118	133	1
76	121	1
50	101	1
380	615	1
323	592	1
205	212	320	513	526	1
79	468	741	1
254	282	444	1
211	523	1
179	224	608	1
468	482	741	1
103	454	514	1
95	412	746	1
528	539	1
228	239	504	611	1
607	614	1
182	296	1
253	365	1
167	420	1
282	611	620	1
40	142	238	1
115	236	1
224	759	1
159	167	1
79	133	139	1
444	605	1
115	374	1
95	205	212	320	412	673	1
461	543	1
86	647	1
397	502	1
24	181	1
240	446	1
95	212	412	673	1
101	614	1
193	523	1
176	215	1
133	382	1
184	514	1
179	224	231	620	1
192	654	1
254	273	444	1
2	305	403	1
103	323	454	1
103	214	1
107	160	1
84	94	1
48	334	1
211	614	1
92	420	1
446	758	1
305	403	1
729	746	1
215	239	358	480	579	1
550	552	1
296	468	741	1
348	455	468	514	1
27	564	1
518	553	597	1
195	291	1
254	605	1
390	510	1
236	575	1
60	205	212	320	513	609	1
224	228	282	1
303	365	1
40	118	1
192	472	605	1
167	236	1
133	678	1
101	564	1
114	207	376	1
334	654	1
509	538	1
422	480	579	610	1
177	274	1
308	358	473	1
2	669	1
103	467	1
84	376	1
133	181	1
103	628	1
238	303	446	1
399	718	1
309	461	1
253	514	1
192	482	605	1
282	482	1
238	350	1
399	403	498	1
179	224	623	1
156	553	1
382	564	1
0	717	1
133	333	1
149	292	303	1
114	539	1
303	466	1
86	523	607	1
103	226	1
539	647	1
523	614	1
26	236	663	1
32	323	1
305	403	410	1
254	654	1
523	564	1
195	323	1
193	333	1
4	15	287	611	1
166	236	1
24	50	182	236	303	556	1
159	291	1
50	369	1
103	207	454	1
64	333	607	1
166	564	1
103	543	1
305	457	1
323	564	1
564	614	1
228	480	611	1
64	479	1
142	303	380	727	1
228	239	473	611	1
224	509	611	1
282	410	1
278	303	446	1
422	611	1
103	107	1
382	420	1
193	341	1
446	509	1
427	490	1
282	305	403	1
623	730	1
76	543	1
468	514	647	1
484	674	1
24	309	1
224	228	399	1
95	205	1
182	225	1
309	758	1
312	323	1
3	92	1
103	160	765	1
239	253	399	1
196	323	1
362	446	1
139	575	1
95	205	212	320	673	1
323	446	1
506	670	1
68	382	1
77	182	1
103	160	454	1
76	251	1
207	223	1
365	420	1
87	575	1
103	253	514	1
97	480	1
101	240	523	1
86	193	1
376	597	1
240	614	1
95	175	277	412	1
292	303	1
304	376	1
348	514	1
627	729	1
228	239	611	1
103	198	1
368	535	1
95	205	212	277	320	412	526	1
334	575	1
95	212	412	627	746	1
79	296	1
182	323	1
399	403	457	1
103	195	207	1
145	556	1
528	725	1
193	446	1
145	165	1
133	575	1
2	282	1
282	528	1
103	528	1
29	159	1
215	538	1
92	195	1
86	159	1
193	647	1
15	193	1
205	212	320	513	526	673	1
160	193	1
236	523	607	1
50	167	1
101	607	1
66	612	1
207	607	1
333	614	1
238	380	1
338	348	1
167	471	1
238	303	380	1
95	205	212	320	412	526	673	1
472	536	605	1
182	348	1
181	530	1
103	207	1
291	575	1
195	523	607	1
115	614	1
88	215	358	1
224	228	480	611	1
282	745	1
156	223	1
101	133	193	1
376	446	1
236	398	1
141	405	1
68	118	1
236	531	1
95	212	412	746	1
173	646	1
87	521	1
401	446	1
204	612	1
50	333	1
88	224	228	243	282	358	395	480	569	1
202	564	1
446	539	1
64	182	1
29	607	1
103	598	1
117	403	1
102	296	1
103	114	454	1
15	101	1
68	160	1
721	736	1
522	555	1
240	333	1
334	438	1
350	736	1
292	446	1
86	389	1
207	376	1
68	538	1
555	624	1
225	514	1
160	167	323	1
303	628	1
103	253	1
278	514	1
29	211	1
176	243	480	1
79	614	1
22	133	1
176	215	608	1
118	575	1
52	205	1
514	575	1
254	757	1
278	446	508	1
224	446	509	611	1
446	528	1
228	282	308	1
431	598	1
333	659	1
334	350	1
38	365	1
318	654	1
51	296	1
182	468	647	1
334	514	1
238	615	1
557	598	1
173	446	1
26	166	663	1
50	133	1
159	607	1
114	434	581	1
225	253	1
236	291	1
104	176	1
0	350	446	1
115	523	1
197	415	1
136	564	1
32	564	1
225	446	1
95	175	277	412	492	1
145	555	1
2	498	669	1
2	282	669	1
272	700	1
153	207	1
514	647	1
29	420	1
514	518	1
2	282	305	478	1
68	446	1
107	225	1
60	95	1
376	539	1
309	736	1
221	231	611	1
365	446	514	1
118	350	446	1
236	359	1
215	480	608	1
103	207	365	1
212	627	746	1
236	323	1
29	115	1
92	446	1
303	509	611	1
529	736	1
30	509	611	1
221	231	353	1
620	628	1
179	221	538	1
24	95	277	412	1
272	309	1
24	57	133	236	323	1
95	212	320	673	1
32	198	1
380	615	727	1
29	737	1
305	399	403	478	1
114	207	1
50	420	1
68	574	1
160	575	1
162	493	1
236	259	1
303	541	1
160	323	539	1
149	165	251	309	1
181	539	1
103	159	1
95	412	693	1
239	365	1
103	454	468	647	1
182	253	1
87	103	1
29	376	1
624	726	1
23	567	1
523	607	1
101	446	1
40	142	238	303	1
101	133	211	1
103	153	160	454	1
107	292	1
86	114	1
86	101	133	1
101	236	1
103	118	1
95	212	320	634	1
192	482	654	1
303	350	1
60	95	175	205	226	277	320	387	492	514	597	1
29	614	1
103	375	1
2	399	403	1
101	514	1
299	333	1
353	611	1
528	608	611	1
238	282	1
417	611	620	1
444	482	1
84	244	295	1
32	376	1
456	502	1
40	238	446	1
103	348	454	1
236	420	1
103	303	1
448	601	1
251	758	1
282	675	1
