71	297	357	1
174	288	1
140	174	1
61	145	1
55	314	1
281	307	1
174	321	404	1
68	156	158	1
63	316	1
16	215	307	1
307	314	1
47	174	215	224	264	1
97	188	195	1
12	61	63	117	1
72	215	264	1
16	314	1
72	86	95	195	264	269	1
72	264	307	1
19	264	274	1
240	268	326	1
75	147	240	1
73	97	174	195	307	321	1
14	314	1
81	347	1
30	237	1
130	165	1
49	86	89	1
0	240	355	1
72	174	224	1
0	23	140	171	1
47	61	86	307	1
123	138	221	1
73	108	174	215	1
89	237	1
307	384	1
264	366	1
18	202	281	1
174	275	1
61	174	215	264	274	325	1
174	281	1
37	92	1
61	72	223	314	1
81	150	1
107	215	258	264	307	341	391	1
248	307	1
97	307	1
26	307	1
75	87	195	424	1
61	120	138	202	223	264	285	297	1
217	265	1
18	138	174	1
18	86	307	1
275	307	1
47	215	264	274	1
30	61	63	1
267	363	1
18	68	92	307	1
364	405	1
42	307	1
174	352	1
89	152	1
16	72	169	264	1
47	108	314	1
171	326	1
169	314	1
18	68	174	215	274	364	1
226	264	307	1
92	138	307	1
137	307	1
152	307	1
107	307	1
33	120	1
17	71	1
152	215	1
0	374	1
117	306	1
73	86	108	174	224	264	297	301	1
66	202	303	1
37	307	1
73	90	1
79	316	1
174	274	281	1
108	174	264	1
63	297	1
66	314	1
307	344	1
39	117	352	1
72	307	1
23	108	174	307	1
108	314	344	1
108	314	1
73	325	1
33	117	202	233	1
60	140	242	268	275	1
47	140	1
148	209	278	1
20	140	1
226	264	314	1
18	86	432	1
140	297	1
43	150	214	1
18	86	195	1
240	296	1
73	108	307	1
47	174	215	264	1
1	16	18	86	1
66	149	1
169	171	264	1
39	47	68	1
19	47	314	1
307	391	1
16	335	1
108	274	1
47	107	307	1
108	169	307	1
72	86	307	1
195	287	366	1
47	99	109	138	223	264	265	281	297	307	344	1
73	123	174	215	1
174	300	1
16	174	274	307	1
73	86	174	224	264	297	1
108	274	307	1
19	215	274	307	1
61	307	326	1
71	109	202	264	1
60	146	149	347	1
108	209	416	1
120	230	300	1
107	171	214	266	276	1
47	188	264	307	1
274	307	1
127	209	260	1
188	264	288	307	1
307	325	1
68	188	314	1
14	307	1
137	283	1
61	158	264	1
0	148	294	1
37	358	1
156	174	242	264	275	1
19	358	1
264	307	1
19	47	174	264	1
86	281	314	1
19	72	264	307	1
55	152	202	1
47	264	307	1
16	202	1
49	307	1
19	97	174	1
107	165	1
158	298	1
169	174	264	1
19	68	174	1
215	314	1
297	329	1
16	72	174	1
61	214	1
75	174	1
68	174	224	1
0	171	188	190	195	197	209	312	1
72	86	97	195	209	307	323	366	1
49	68	72	86	138	169	174	264	324	325	1
32	307	1
169	174	358	1
142	307	1
71	152	233	1
65	152	1
108	281	307	1
265	314	1
108	174	314	1
72	226	264	307	1
72	156	174	190	243	246	1
33	47	68	73	174	1
314	358	1
26	60	100	146	1
86	242	307	1
16	307	326	1
108	215	264	307	1
270	307	1
55	72	1
86	264	297	1
264	307	323	1
169	307	1
188	326	1
168	307	1
97	119	264	1
75	215	307	1
202	233	1
314	366	1
39	57	230	1
334	351	1
0	316	1
86	120	142	1
30	174	1
68	314	1
214	266	276	1
18	405	1
174	358	1
323	355	1
174	312	1
274	432	1
174	350	1
60	77	116	149	226	270	1
188	364	1
72	307	358	1
47	274	1
171	174	1
72	264	314	1
73	307	1
39	61	63	158	233	316	1
86	174	274	1
37	174	274	1
73	314	1
19	174	224	264	307	1
174	188	1
16	174	404	1
47	314	1
195	314	1
174	374	1
51	351	1
60	71	128	1
307	312	314	1
120	127	307	1
75	226	1
33	55	71	112	117	233	1
70	71	188	376	1
156	158	1
71	128	149	1
107	226	1
47	156	174	1
72	314	1
73	75	87	221	404	424	1
37	72	75	1
73	174	264	1
141	165	240	280	1
1	154	158	222	1
73	86	174	224	264	297	301	1
86	112	179	265	307	1
72	248	307	1
55	61	1
39	221	1
174	274	324	1
169	274	307	1
274	307	314	1
169	274	1
0	171	174	190	1
108	323	1
174	215	269	275	1
39	61	264	1
39	297	1
61	214	242	266	276	1
95	168	1
14	60	146	1
32	174	274	1
215	224	264	1
26	174	350	1
68	107	307	1
72	73	108	307	1
117	314	1
72	92	264	314	1
307	404	1
68	174	1
269	307	1
174	314	358	1
19	72	264	274	1
33	107	350	1
33	174	1
57	61	90	1
166	314	1
19	174	264	321	1
16	174	274	1
23	61	174	1
16	72	1
72	86	281	1
68	274	285	1
16	188	1
307	324	1
47	72	138	159	195	1
39	108	154	1
212	225	1
174	274	314	1
264	269	325	1
60	61	264	347	1
16	32	1
19	72	215	307	1
156	174	1
72	171	314	1
73	242	405	1
264	274	1
73	86	195	1
108	269	314	1
215	264	307	325	1
16	307	314	1
286	326	1
149	187	1
297	314	1
86	97	274	324	384	1
274	358	1
174	364	1
123	314	1
171	307	1
108	269	281	1
47	307	1
72	120	285	307	316	358	1
174	274	307	1
323	341	1
18	28	195	1
141	220	272	1
61	63	163	181	233	314	1
70	125	129	199	304	1
153	350	374	1
49	90	1
260	307	1
270	347	1
55	174	274	1
117	307	1
215	307	1
73	301	350	1
66	72	86	97	113	174	195	264	1
73	138	188	217	307	316	1
107	181	269	1
14	16	33	68	195	333	424	1
55	72	264	1
95	108	1
264	314	1
174	325	424	1
18	138	148	171	188	1
169	174	1
16	174	307	1
60	146	195	309	1
129	361	386	1
55	424	1
109	307	1
20	350	1
75	307	1
39	181	215	1
174	391	1
109	146	1
174	314	1
30	140	1
19	153	174	274	325	1
16	18	86	138	281	358	1
37	174	307	314	1
141	405	1
265	352	1
42	314	1
86	160	1
138	331	1
22	297	1
116	301	1
97	222	1
28	174	274	1
90	158	1
138	153	156	281	1
14	174	314	316	1
72	174	391	1
73	113	174	264	301	350	1
75	108	209	264	300	1
66	73	1
202	264	307	1
195	323	1
36	125	129	175	199	1
108	181	1
195	307	1
107	214	240	266	276	1
16	169	307	314	1
86	108	307	1
171	274	1
217	307	1
23	312	1
140	307	1
19	100	174	250	391	1
32	189	230	316	1
108	138	223	1
100	351	1
16	68	174	307	314	1
174	215	307	1
19	264	307	1
97	432	1
86	107	173	174	264	321	350	351	1
190	214	1
70	73	119	355	1
68	174	285	324	1
86	159	307	1
19	215	264	307	1
51	179	335	1
61	214	242	266	276	303	1
148	165	1
264	307	325	1
47	215	307	1
108	120	307	1
47	174	215	1
36	129	175	199	1
314	320	1
37	314	1
47	68	307	1
16	174	1
18	47	307	1
16	107	174	307	1
107	174	1
68	174	285	307	1
307	323	350	1
90	240	1
97	140	1
32	165	281	1
107	230	1
52	108	120	1
174	274	316	1
72	165	1
81	307	1
264	274	314	1
18	264	307	1
104	171	361	1
70	73	119	223	264	297	355	1
108	374	1
18	68	72	285	307	1
37	288	1
108	177	307	1
28	107	190	240	274	307	1
111	226	1
1	14	100	222	1
314	350	1
52	152	1
86	188	314	1
97	314	1
19	274	307	1
73	242	307	1
27	39	1
32	73	1
18	160	1
72	307	314	1
23	307	1
141	148	268	278	280	355	1
181	314	1
307	326	1
23	321	1
226	366	1
72	119	1
75	174	358	1
73	264	364	1
93	256	1
158	326	1
108	134	307	1
73	174	264	391	1
174	304	321	1
68	177	1
215	264	314	1
307	374	1
147	204	1
108	174	1
0	174	1
30	286	1
188	373	1
47	73	264	307	1
92	264	314	1
314	323	1
20	230	1
174	215	274	1
86	202	242	1
19	72	215	264	274	307	1
307	312	1
314	321	1
107	274	1
174	264	281	1
68	145	195	1
49	314	1
140	326	1
86	307	1
73	326	1
25	63	1
86	264	274	1
20	149	233	1
32	264	314	1
361	416	1
89	216	1
108	223	307	1
73	174	1
55	81	233	1
16	181	242	1
55	314	352	1
140	378	1
42	150	222	347	1
19	47	169	264	314	1
61	146	297	1
19	174	1
33	211	1
297	307	1
86	195	359	1
307	316	1
34	39	66	116	437	1
138	174	202	1
33	39	1
18	169	314	1
16	174	314	1
109	231	1
113	158	174	307	1
97	165	1
39	72	174	233	264	303	316	1
49	364	1
92	97	195	285	1
274	314	1
109	214	297	1
138	148	171	225	1
25	326	1
174	274	364	1
18	149	281	1
72	174	264	1
108	274	314	1
89	174	1
174	264	274	1
39	158	1
47	217	281	364	1
61	86	307	1
32	86	215	307	1
108	264	307	1
269	432	1
47	86	307	1
68	260	1
75	174	264	1
49	92	264	274	323	1
159	188	307	1
43	174	1
68	188	274	307	1
158	260	1
33	66	1
18	68	72	1
169	174	274	1
19	174	195	1
174	307	314	1
90	275	1
39	61	68	75	195	215	217	1
61	90	1
30	116	350	355	1
72	174	287	1
18	108	325	1
174	260	1
264	297	326	1
100	120	1
108	281	314	1
169	285	1
16	424	1
174	365	1
174	297	1
16	47	264	1
107	268	1
224	314	1
171	435	1
107	265	1
108	281	1
109	264	307	1
95	108	156	195	217	1
86	108	314	1
71	295	1
19	37	123	195	217	264	314	325	1
47	174	307	1
174	321	1
18	73	86	1
4	307	1
73	268	1
188	307	1
86	159	195	1
25	61	326	1
86	226	307	1
174	233	264	1
67	316	1
42	347	1
72	316	1
0	190	1
47	153	1
86	248	1
55	60	1
148	243	246	1
101	280	1
202	242	1
62	267	353	1
14	33	1
120	297	1
154	158	1
42	61	1
240	264	1
376	406	1
61	63	223	1
86	107	1
195	321	1
240	355	1
61	313	1
109	265	1
146	347	1
125	129	199	354	386	1
135	143	176	218	1
61	63	1
104	361	1
23	243	1
229	408	1
116	270	1
141	280	289	1
108	424	1
174	269	1
80	267	1
264	355	1
140	240	326	1
49	108	264	316	1
117	202	316	1
321	374	1
97	138	1
301	351	1
89	127	1
148	176	1
120	313	1
86	97	1
60	149	1
66	230	1
27	61	1
195	325	1
68	285	1
260	264	1
130	218	1
68	285	297	1
199	204	1
119	171	264	294	1
28	86	1
70	258	1
199	251	304	1
108	209	1
61	318	1
39	281	1
19	138	1
90	355	1
127	306	353	355	1
61	202	1
215	223	1
141	171	194	278	1
14	148	1
119	195	1
81	174	1
90	366	1
71	128	1
55	146	1
68	324	364	1
39	352	1
47	242	1
61	107	1
195	217	1
307	352	1
0	240	268	1
0	220	355	1
81	211	1
240	246	1
145	158	1
165	361	1
264	269	1
158	215	1
128	149	1
267	353	416	1
149	233	1
119	264	355	1
32	86	1
129	354	386	1
242	307	1
61	81	1
68	207	1
320	366	1
61	146	1
120	264	1
242	267	306	353	355	1
156	325	1
58	251	1
68	169	264	1
135	176	1
81	117	1
170	194	1
264	424	1
190	240	246	1
25	350	1
66	233	1
170	278	338	1
89	267	353	1
71	352	1
101	130	366	1
60	146	149	1
119	278	1
148	291	1
32	301	350	1
233	316	1
240	294	1
47	424	1
58	199	304	1
190	243	294	305	1
35	125	199	1
47	230	1
264	325	1
73	202	1
60	77	149	1
148	243	1
86	366	1
305	349	355	1
321	424	1
30	297	1
60	337	1
141	220	267	1
141	148	278	1
89	264	1
71	81	352	1
137	362	1
143	176	218	1
66	81	1
39	49	1
47	87	1
33	70	1
202	265	1
190	246	1
47	49	1
85	177	1
223	297	306	1
278	305	338	1
75	152	1
158	424	1
129	261	1
240	243	1
140	296	1
118	352	1
72	366	1
81	149	1
101	143	176	1
220	267	1
366	439	1
69	376	1
177	264	1
337	347	1
215	242	1
130	218	220	1
280	355	1
280	353	1
171	412	1
297	306	1
87	264	1
0	148	305	1
28	418	1
75	87	1
55	146	352	1
0	108	1
223	306	1
60	233	1
0	305	1
264	320	1
267	280	1
73	86	97	108	174	223	307	1
301	326	1
86	316	1
68	92	255	1
33	81	233	1
60	81	1
171	243	1
57	66	1
42	355	1
22	202	1
321	404	1
101	135	1
89	366	1
108	364	1
264	405	1
152	184	1
39	324	1
350	351	1
80	101	280	1
120	225	1
107	297	1
141	148	280	355	1
54	158	1
57	303	1
23	240	1
194	278	1
130	353	1
81	229	1
61	316	1
278	336	1
108	405	1
188	325	1
264	281	1
146	352	1
101	355	1
147	311	1
49	325	1
220	278	349	1
104	130	143	1
143	176	1
77	149	1
86	138	1
119	194	278	1
119	294	355	1
108	116	1
71	108	1
4	297	1
214	316	1
61	297	1
135	143	1
87	321	1
0	294	305	1
120	223	1
61	214	297	1
125	129	199	1
95	195	1
243	294	305	1
18	39	1
174	223	1
215	269	275	1
60	61	1
18	86	281	1
130	220	1
130	143	280	1
86	223	1
28	311	418	1
61	184	1
60	81	352	1
220	267	294	1
119	355	1
23	335	1
130	280	1
141	148	171	194	1
97	169	1
68	264	1
195	355	1
125	129	304	1
190	240	1
68	249	1
57	101	1
107	223	1
73	169	1
158	215	264	1
60	146	352	1
66	81	316	1
61	301	1
316	352	1
68	92	264	1
129	199	304	1
108	154	1
93	356	1
202	307	1
58	129	251	386	1
89	101	1
0	246	1
18	49	1
60	316	352	1
141	280	1
18	72	1
68	138	1
42	60	146	1
47	169	264	1
72	86	138	1
165	171	1
0	190	240	243	1
130	267	353	1
226	281	1
25	61	297	1
47	120	1
141	148	194	278	355	1
171	240	1
68	324	1
366	416	1
295	352	1
267	353	361	1
158	225	1
80	101	1
120	215	264	1
202	303	1
75	320	1
223	225	1
68	108	1
30	301	1
32	215	1
68	436	1
264	275	1
68	73	1
19	108	1
22	81	1
33	146	1
62	361	1
33	117	316	1
47	87	424	1
108	325	1
258	340	1
86	195	1
61	264	1
117	233	1
18	47	86	1
86	424	1
117	149	1
267	361	1
138	148	1
169	215	264	314	1
61	68	1
108	165	1
72	86	1
140	171	326	1
61	139	1
242	264	1
66	70	1
39	149	1
67	264	1
149	316	1
190	243	282	1
33	61	1
135	218	1
0	190	246	1
158	264	1
107	120	1
171	313	1
280	353	363	1
55	71	1
138	156	1
130	137	1
169	174	264	274	1
101	143	1
35	175	199	1
68	72	158	1
223	316	1
148	313	1
120	138	1
73	140	148	222	243	335	1
80	90	1
28	168	1
143	361	1
60	77	347	1
203	276	1
109	214	1
39	117	1
135	361	1
108	223	1
14	146	1
202	316	1
220	278	1
230	233	1
148	158	1
134	214	1
129	354	1
223	301	1
175	251	1
202	352	1
73	195	1
107	301	350	1
68	255	1
104	353	1
73	297	1
73	215	1
61	253	1
240	268	1
47	226	1
353	355	1
42	146	1
179	352	1
120	148	1
0	148	1
42	60	149	1
119	171	1
119	264	1
47	281	1
73	86	1
297	352	1
137	267	353	1
171	243	246	1
258	340	352	1
125	129	199	304	386	1
18	153	1
19	73	86	174	215	297	1
61	297	306	1
0	268	1
148	278	355	1
71	81	1
101	130	267	1
30	351	1
184	297	1
240	409	1
28	97	1
75	86	1
55	81	1
297	350	1
230	297	1
60	117	1
0	190	305	1
87	325	1
57	63	1
18	68	281	1
28	174	1
132	181	1
54	183	1
90	119	1
18	215	1
47	202	1
101	137	267	1
125	129	251	386	1
146	316	352	1
140	223	1
122	316	1
215	264	414	1
242	355	1
61	71	1
243	268	1
33	264	1
240	350	1
18	86	264	1
14	33	61	86	117	224	264	1
195	344	1
171	190	246	1
39	146	1
190	240	243	268	1
107	169	1
141	148	291	1
39	120	1
135	143	176	1
57	61	1
20	233	1
202	297	1
61	410	1
148	225	1
195	418	1
72	321	1
19	68	92	1
47	138	1
61	264	297	1
319	416	1
129	386	1
149	352	1
202	223	1
77	347	1
125	129	199	251	386	1
95	156	195	1
95	147	195	1
107	301	1
171	268	326	1
0	171	190	243	1
175	199	304	1
71	316	1
26	128	1
267	353	1
28	147	1
97	195	1
130	148	280	1
55	149	1
33	352	1
60	202	1
148	240	1
73	81	1
129	199	251	304	1
120	171	1
306	316	1
141	148	291	355	1
108	184	1
23	133	1
278	349	1
171	355	361	1
0	190	240	268	1
18	72	281	1
19	107	1
149	264	1
51	116	1
107	350	1
116	376	1
0	190	243	1
25	256	1
130	143	1
264	297	1
190	243	1
57	70	1
215	264	275	1
214	266	276	297	1
57	62	1
301	323	350	1
18	47	281	1
27	264	1
28	73	1
39	66	1
68	92	314	1
68	285	364	1
54	230	1
81	107	1
61	366	1
220	278	338	1
240	412	1
195	269	1
267	280	353	1
147	215	1
89	323	1
70	316	1
120	158	1
202	214	1
61	140	1
61	117	1
60	146	347	1
86	159	1
61	320	1
80	130	1
190	268	1
119	280	355	1
141	148	278	355	1
171	246	1
61	66	1
363	420	1
72	223	1
47	320	1
19	195	1
278	305	1
190	387	1
35	125	175	199	1
118	202	1
221	264	1
22	307	1
58	125	129	199	386	1
202	264	1
109	223	1
39	61	63	1
86	230	1
68	92	285	1
47	156	1
19	269	1
55	117	1
230	350	1
214	297	1
141	148	355	1
61	120	1
0	240	1
108	202	1
240	243	268	1
138	316	1
306	416	1
171	214	1
148	294	305	1
0	171	1
171	306	1
61	306	1
68	297	1
14	117	1
14	42	1
149	158	1
240	366	1
72	215	264	307	1
87	95	195	1
209	214	1
61	119	1
68	285	324	1
68	195	1
28	264	1
72	320	1
129	199	386	1
107	308	1
23	45	1
61	347	1
171	427	1
70	253	1
60	81	117	1
175	199	1
230	264	1
25	297	1
149	347	1
42	73	1
18	72	86	1
125	199	1
264	316	1
61	351	1
119	294	1
72	81	1
68	92	138	1
25	61	1
149	350	1
58	175	199	1
181	264	1
324	364	1
130	361	1
138	297	1
233	352	1
61	158	1
169	297	1
39	73	1
107	108	1
101	151	280	1
68	81	1
17	81	1
28	195	1
101	130	353	1
143	176	220	1
264	306	1
141	171	194	1
34	184	1
18	138	1
326	351	1
33	81	1
170	278	1
138	158	1
146	179	1
28	72	1
294	355	1
125	129	199	386	1
86	324	1
108	146	1
138	281	1
188	264	1
47	86	181	297	1
135	143	355	1
223	264	297	1
73	215	264	1
61	223	297	1
130	280	353	1
61	326	1
146	202	1
125	129	199	354	1
39	42	1
135	143	218	1
361	366	1
42	60	1
47	68	1
61	264	306	1
32	230	1
42	337	1
92	285	1
18	68	1
87	95	156	195	1
39	195	1
107	316	1
90	141	280	355	1
148	223	1
108	158	1
25	158	1
364	417	1
60	264	1
66	181	1
55	70	1
55	60	81	1
87	147	1
49	174	1
14	60	347	1
130	289	1
0	240	243	1
218	355	1
140	350	1
306	353	355	1
147	171	1
18	28	1
54	152	183	1
267	289	1
72	352	1
81	104	264	0
199	272	0
152	386	0
174	264	0
125	143	0
158	274	0
30	146	276	0
68	71	194	0
194	240	0
225	274	312	0
117	274	0
47	81	107	130	240	0
156	158	174	0
55	174	233	354	0
109	149	314	0
86	174	0
58	188	223	226	307	404	0
108	125	195	0
149	264	316	0
177	215	264	0
233	264	307	0
39	47	72	86	214	286	0
240	320	0
16	274	0
202	220	0
63	66	0
143	202	350	0
20	130	307	0
108	146	267	0
129	220	285	424	0
61	86	146	264	0
125	181	264	0
49	61	116	264	0
199	307	0
141	314	0
109	129	0
68	120	307	0
199	215	0
0	73	107	188	326	408	0
87	391	0
207	307	0
67	146	223	274	0
314	391	0
39	47	73	107	156	169	199	0
214	350	0
171	281	0
23	278	0
68	267	297	307	0
42	120	158	209	215	288	307	350	0
215	281	0
39	281	314	0
60	307	333	0
39	61	0
60	146	152	202	0
72	174	307	0
0	307	0
73	199	215	352	0
140	269	0
18	264	0
18	240	0
174	280	0
33	60	195	251	0
215	294	424	0
47	265	0
25	264	0
148	153	174	188	301	303	0
70	116	307	0
71	149	412	0
86	347	0
47	347	0
23	108	0
47	86	0
20	324	0
108	386	0
195	237	0
138	408	0
18	72	92	148	249	269	314	364	0
33	174	420	0
49	73	0
81	108	0
100	240	0
0	133	135	0
68	195	222	0
107	240	0
18	321	0
16	60	0
23	268	297	0
268	358	0
129	156	314	351	0
61	307	353	0
60	307	0
16	221	0
0	42	80	274	0
80	135	195	214	316	0
214	264	0
108	149	169	0
215	352	0
174	202	355	0
0	174	350	0
26	72	0
138	148	314	0
18	264	347	0
224	326	0
120	128	307	0
86	138	143	281	0
128	240	326	352	0
73	97	0
117	120	316	0
267	307	358	0
57	86	152	0
61	108	0
47	223	0
135	209	0
72	73	264	0
97	202	278	0
120	195	264	0
81	215	337	0
68	107	117	130	148	176	307	314	355	366	405	0
39	87	148	258	0
90	95	0
47	71	146	355	0
100	138	152	160	233	314	0
16	314	347	0
47	51	97	188	0
148	264	307	0
14	18	86	353	0
138	174	267	350	0
195	251	314	0
61	81	297	0
68	86	128	226	267	0
19	97	243	435	0
19	285	0
47	81	246	0
26	107	264	274	0
104	169	0
61	226	307	0
325	408	0
0	75	0
316	347	386	0
73	149	278	0
143	314	0
60	108	153	174	323	0
187	347	0
108	350	0
120	159	220	352	0
146	174	230	0
47	75	148	418	0
61	101	117	0
19	188	297	0
230	391	0
30	264	0
61	140	204	0
86	190	0
130	305	0
19	195	240	0
68	211	314	0
177	281	0
54	307	0
68	141	195	0
86	246	0
19	285	0
188	190	316	0
19	61	101	112	160	174	304	364	0
60	147	158	168	171	190	199	264	0
18	47	62	72	108	138	174	264	353	364	0
68	326	0
195	281	386	0
143	258	0
70	117	246	0
90	174	0
129	171	355	0
47	72	0
233	353	354	0
16	80	306	316	0
68	81	216	217	364	391	0
49	188	215	260	288	0
0	355	0
118	138	174	306	0
140	159	294	0
39	174	307	0
90	174	326	353	0
47	165	0
73	95	0
120	174	297	0
174	314	424	0
308	355	0
16	316	0
32	274	0
73	174	424	0
220	233	264	0
68	325	0
72	264	0
18	199	307	0
264	268	0
107	366	0
33	97	188	0
86	264	0
120	204	0
73	280	321	0
86	189	0
230	294	0
174	222	0
195	281	0
325	355	0
281	344	0
86	99	117	141	260	281	0
55	297	0
156	215	307	0
281	374	0
248	352	0
77	80	314	0
129	307	0
60	90	181	307	325	406	0
26	55	119	0
307	349	355	0
174	264	0
47	117	127	143	195	0
108	141	0
16	202	308	0
199	350	0
92	416	0
141	264	0
72	364	0
32	75	174	0
107	137	307	0
39	72	314	0
92	376	0
39	108	149	264	274	347	0
128	174	246	353	0
81	86	0
72	174	359	0
215	216	0
86	264	386	0
16	75	0
43	145	171	297	307	355	0
148	190	221	0
246	264	314	0
22	265	307	366	0
47	256	264	307	0
16	47	81	135	174	220	226	0
108	119	231	281	282	0
47	184	270	0
202	280	0
138	326	0
156	264	274	0
72	129	202	0
30	141	307	0
75	324	0
55	72	92	364	0
274	352	0
171	264	265	314	0
188	281	324	0
16	195	0
19	57	66	152	169	0
140	405	0
25	140	154	0
16	18	120	0
16	171	307	0
68	276	278	0
146	274	306	0
39	55	135	215	0
169	321	0
86	129	135	424	0
125	242	0
14	285	0
125	174	0
148	169	188	0
86	176	220	233	0
16	86	188	0
148	307	0
18	117	174	0
108	242	0
73	107	109	355	0
30	42	171	0
61	195	240	0
90	264	0
0	107	127	0
39	107	174	0
174	242	0
19	112	0
49	125	174	214	248	0
33	71	307	0
267	351	0
14	143	174	0
230	243	314	0
129	146	169	314	0
33	165	0
22	72	140	432	0
68	117	0
20	215	264	0
61	86	352	0
194	264	0
107	108	264	0
34	316	325	0
0	61	264	307	0
22	130	278	0
34	73	0
70	141	0
174	347	0
39	104	240	267	417	0
202	300	0
16	51	0
86	350	0
276	424	0
86	314	417	0
68	71	0
33	39	75	215	264	355	0
92	174	215	0
28	184	0
23	28	264	0
72	92	188	0
49	60	61	107	171	214	0
35	199	281	303	358	0
61	68	174	0
291	314	0
66	202	0
143	272	0
19	138	215	0
269	274	0
68	120	0
55	148	149	0
141	148	175	214	222	268	350	373	0
19	47	61	68	307	353	0
152	307	314	0
23	81	112	174	268	294	314	0
0	134	174	0
0	16	0
47	264	0
37	174	270	0
33	57	73	107	376	0
0	47	0
16	68	101	0
108	129	268	307	0
18	274	361	0
61	269	0
140	314	0
72	424	0
175	307	0
220	260	364	0
81	270	0
0	376	0
130	355	0
86	297	0
47	141	280	307	314	0
108	120	171	174	270	281	0
119	281	307	314	0
268	366	0
347	366	0
19	226	0
280	307	0
118	188	0
0	72	0
267	325	0
28	190	0
68	140	150	0
66	68	0
60	86	221	355	0
75	148	222	286	0
61	174	220	0
86	154	225	274	350	366	0
14	195	269	281	384	0
107	436	0
63	169	195	0
97	174	0
12	39	127	307	314	0
314	352	0
36	146	0
89	108	156	274	314	0
75	265	304	355	0
61	108	199	0
89	158	0
128	306	0
267	306	0
60	101	0
16	169	188	233	353	0
30	55	138	264	0
16	86	354	0
70	97	0
16	39	215	223	321	0
143	307	337	0
108	215	366	0
274	301	0
32	47	73	171	204	314	352	355	0
37	386	0
61	268	307	358	0
42	60	217	314	0
61	264	353	0
49	169	195	264	0
127	148	209	0
39	130	304	314	347	366	0
307	355	0
307	344	349	0
23	75	352	0
171	307	316	0
95	281	307	0
39	220	307	341	0
125	267	0
61	174	0
174	202	297	0
61	307	0
19	276	307	0
39	140	179	314	0
0	307	0
117	125	169	337	0
43	307	321	0
195	226	0
95	171	0
233	264	294	0
27	323	0
72	148	274	0
248	275	325	0
62	352	0
266	281	0
0	19	20	0
148	190	297	0
0	68	355	0
61	86	137	138	174	188	314	0
204	437	0
90	171	199	209	274	0
49	97	0
73	280	352	0
18	61	141	152	240	264	0
72	242	0
61	129	171	352	0
47	335	0
25	156	0
73	233	314	0
129	229	0
190	195	314	0
266	307	314	0
92	143	0
22	355	0
230	307	0
95	320	384	0
72	93	0
51	61	72	214	224	324	0
215	221	0
97	366	0
107	314	0
128	297	0
32	61	0
39	60	141	0
71	108	217	0
195	301	0
86	122	0
73	140	275	0
71	174	264	269	0
72	242	276	0
107	314	0
138	202	314	0
246	265	0
73	129	0
61	276	0
275	355	0
47	158	0
274	437	0
117	233	264	314	0
60	174	195	0
174	240	0
37	60	0
264	307	350	0
141	307	352	0
4	33	86	119	148	152	0
86	274	0
66	264	0
57	272	0
137	282	340	0
264	307	349	0
61	215	0
75	101	0
148	276	0
158	307	0
86	190	0
61	221	307	0
287	307	320	0
18	72	264	0
149	267	0
307	355	0
109	143	195	0
86	314	0
28	316	366	0
57	195	316	0
202	355	386	0
251	305	0
61	156	174	264	0
14	16	47	169	276	0
86	174	195	0
60	68	0
18	307	0
120	344	0
32	108	352	0
220	352	0
47	226	242	307	418	0
116	130	195	0
108	233	0
39	72	267	0
14	280	355	0
68	294	0
101	108	148	264	0
87	195	0
47	55	101	143	174	264	316	0
243	323	0
95	217	314	323	0
89	242	0
174	307	324	0
16	108	314	354	0
267	307	0
60	73	149	0
0	148	280	0
37	72	90	0
75	120	194	0
117	352	0
60	188	323	0
86	108	0
68	97	171	350	0
18	66	226	0
47	68	87	250	0
264	314	355	0
80	141	0
268	278	366	0
47	316	0
68	280	424	0
81	100	278	297	349	0
33	81	107	0
47	86	0
61	92	175	300	0
218	225	0
37	73	0
174	240	265	0
274	324	376	0
61	66	361	0
138	202	435	0
223	354	0
68	85	158	230	265	297	351	0
86	274	0
23	72	264	297	0
117	214	223	0
214	314	340	0
150	251	0
72	268	350	0
154	246	0
16	195	326	0
149	307	0
47	129	0
86	190	0
195	274	0
107	146	264	0
119	324	0
325	364	0
14	233	0
18	129	0
171	230	0
90	195	297	0
71	119	352	374	384	0
107	216	316	0
14	23	0
0	156	165	220	264	274	278	355	0
86	326	386	0
0	156	0
226	264	412	0
325	350	0
148	307	0
264	356	0
86	174	281	0
90	222	297	0
61	174	264	0
47	222	225	0
72	174	0
202	268	0
220	223	0
39	108	0
108	148	0
75	214	0
77	117	0
68	147	307	0
119	226	0
75	267	0
37	49	72	0
146	281	0
19	61	0
120	323	0
119	190	0
107	149	0
269	301	0
264	294	307	0
72	274	0
97	274	0
47	152	0
19	143	0
264	318	0
125	175	0
60	68	117	223	243	0
20	194	264	297	0
68	352	0
61	195	0
276	307	0
87	174	0
85	207	0
39	211	240	0
18	47	0
86	314	0
171	352	0
138	233	0
73	174	314	0
16	139	209	215	0
171	181	307	0
274	352	0
66	77	0
72	258	0
86	264	0
39	264	0
108	278	0
223	324	0
73	248	0
130	307	0
120	307	0
72	274	0
55	307	0
264	358	0
18	61	0
16	18	307	0
27	138	0
66	156	316	352	0
16	108	0
16	190	0
123	260	307	0
242	314	0
0	199	0
68	306	0
81	108	0
66	148	0
116	147	195	325	0
55	267	0
174	355	0
72	137	174	274	0
109	424	0
97	171	0
158	314	0
95	274	0
86	146	0
209	321	0
70	174	325	0
22	55	0
169	316	0
158	174	0
240	274	0
297	305	0
108	117	150	0
148	281	416	0
39	156	0
66	119	0
18	86	0
108	303	0
307	436	0
120	242	0
108	366	0
73	174	269	0
174	285	0
18	264	373	0
125	177	0
174	215	314	0
174	264	0
171	211	0
68	107	0
113	307	0
60	71	0
101	148	0
61	68	129	215	264	0
314	326	0
174	325	0
33	108	316	0
117	152	0
107	199	0
138	169	0
92	152	0
47	355	358	0
37	149	0
286	307	0
16	101	195	0
61	86	366	0
52	194	0
60	120	337	0
129	195	355	0
117	350	0
148	230	0
73	195	296	0
16	87	0
225	281	0
55	366	0
32	174	353	0
95	108	117	171	0
60	68	176	0
33	268	0
123	418	0
23	32	0
86	129	307	0
171	314	0
97	240	0
33	135	314	0
174	307	0
57	171	0
60	305	0
0	297	314	0
158	174	195	0
86	432	0
146	264	265	0
297	340	0
61	90	190	0
281	366	0
72	278	0
61	305	0
174	307	0
25	127	0
125	297	0
47	108	0
142	202	0
68	265	297	0
61	240	314	0
0	92	0
60	307	0
286	351	0
86	274	0
43	223	0
39	97	0
86	323	0
18	174	0
101	188	297	0
72	217	0
18	174	0
16	275	0
68	364	0
130	264	0
148	171	0
237	264	316	0
39	175	0
224	248	0
138	233	0
18	268	0
20	174	0
18	95	270	0
47	61	0
253	264	0
61	117	384	0
39	307	0
23	323	0
18	265	0
28	60	0
60	274	0
138	146	0
60	87	95	181	264	268	309	0
195	226	0
77	307	0
60	226	316	0
107	352	353	0
12	242	0
47	220	0
47	280	0
72	264	0
209	242	0
86	267	0
86	314	0
146	174	0
171	256	0
35	221	0
49	175	0
224	274	0
217	297	0
14	130	412	0
89	117	0
47	264	0
73	225	314	335	0
32	416	0
146	195	0
174	243	0
149	190	0
71	365	0
222	306	0
28	324	0
30	285	0
16	366	0
60	314	0
95	264	0
54	165	0
18	274	0
104	319	0
86	152	0
148	233	242	0
174	347	352	0
274	353	0
77	281	0
86	264	0
75	107	174	0
158	220	326	0
130	233	0
123	307	0
43	75	0
95	424	0
62	117	0
240	323	0
119	301	0
215	230	281	0
37	117	0
215	220	278	0
22	223	264	0
77	226	0
22	61	92	0
14	73	0
216	307	0
0	195	312	0
0	300	0
60	75	307	0
18	199	0
61	202	307	0
55	86	0
18	215	264	0
32	324	0
68	143	174	0
86	138	148	0
264	278	0
86	152	0
304	309	0
86	129	195	297	0
92	347	0
156	353	0
73	281	0
149	215	233	0
61	280	0
72	297	0
47	325	0
68	222	0
119	242	0
52	61	305	0
268	296	361	0
17	86	285	0
108	199	0
285	307	0
33	81	267	0
39	300	386	0
171	215	0
61	307	0
130	307	0
68	188	314	352	0
278	366	0
60	350	0
148	221	0
195	246	274	0
55	148	0
0	251	0
68	148	0
174	264	285	0
190	212	269	0
92	220	350	0
34	61	0
47	75	86	294	0
61	181	223	0
100	260	0
174	297	386	0
107	148	0
223	243	264	297	366	0
87	230	0
171	242	0
20	316	0
86	215	0
71	174	276	0
0	23	0
86	264	0
18	152	321	0
107	358	0
54	281	0
217	280	0
243	352	0
307	364	0
304	355	0
116	230	0
47	264	0
141	188	0
337	355	0
140	355	0
73	158	0
47	233	0
86	280	366	0
165	314	358	0
202	209	0
86	141	0
73	278	0
97	231	0
249	355	0
86	174	297	0
120	307	0
37	297	0
72	243	0
92	264	0
60	72	174	233	0
62	260	0
268	294	0
147	174	0
68	240	338	0
109	202	0
73	148	0
160	174	0
156	353	0
195	218	0
174	220	0
33	68	291	0
86	276	0
32	329	0
297	316	355	0
66	140	0
72	174	0
214	264	0
49	274	301	0
18	171	0
33	158	0
68	307	0
75	171	215	314	0
47	355	0
61	70	107	0
108	174	409	0
16	116	0
120	220	0
153	171	0
42	61	174	190	246	307	0
16	326	0
86	325	0
215	391	0
14	16	312	0
184	278	0
217	281	0
81	297	0
18	307	0
20	73	0
160	174	0
18	120	0
107	233	0
214	267	0
100	141	0
97	347	0
243	281	0
212	240	0
97	323	0
174	307	0
55	188	0
55	156	171	0
61	338	0
264	347	0
148	320	0
49	61	0
81	188	0
243	295	0
55	291	0
55	316	0
325	358	0
215	264	0
138	199	0
66	307	0
148	174	314	0
61	323	0
140	352	0
72	174	0
81	306	0
95	355	0
14	174	350	0
174	264	364	0
54	66	223	0
25	242	266	267	347	0
202	304	0
0	72	86	171	218	280	0
81	138	175	0
92	174	0
73	225	233	0
165	211	0
71	274	365	0
174	316	0
16	81	0
294	335	0
61	73	0
97	230	0
73	391	0
171	188	0
39	251	0
146	326	0
174	323	353	0
174	404	0
300	307	0
0	71	174	0
364	391	0
71	226	0
1	174	0
108	120	0
43	307	0
47	165	0
32	149	195	0
33	57	158	420	0
66	117	264	0
326	364	0
34	160	0
18	149	243	0
190	307	0
158	274	0
314	352	0
71	119	0
119	374	0
47	230	355	0
86	112	158	199	202	304	352	0
72	297	0
169	251	347	0
265	361	0
217	264	314	418	0
70	264	0
123	171	276	0
16	55	0
18	174	264	0
272	314	0
16	280	0
86	202	0
72	159	0
71	307	0
16	117	0
18	108	0
18	141	169	0
224	334	0
23	181	199	0
138	145	0
117	321	0
73	146	0
125	307	0
52	267	0
143	189	209	226	307	0
63	107	364	0
73	117	268	0
116	352	0
42	281	355	0
158	174	264	326	0
68	86	152	0
108	243	0
130	307	0
100	285	0
19	147	0
215	240	0
28	202	281	0
140	240	0
224	350	0
276	314	0
108	316	0
107	280	0
23	174	184	214	0
152	275	0
140	275	0
148	149	224	268	0
28	92	0
0	60	0
158	251	0
160	305	366	0
90	141	278	321	0
26	169	409	0
47	61	0
226	264	0
190	366	0
109	165	0
171	267	0
71	81	281	0
355	376	0
146	316	0
146	195	0
280	282	0
171	320	0
175	214	220	0
33	89	188	264	0
156	190	0
108	135	226	0
146	264	307	0
285	325	0
47	66	0
224	267	0
18	73	314	0
107	297	349	0
176	274	0
14	237	0
176	386	0
81	171	307	0
92	148	0
169	264	0
107	313	355	0
0	195	0
314	329	0
60	323	0
174	386	0
68	306	0
190	316	0
307	364	0
190	307	416	0
33	221	0
109	145	0
119	347	0
86	320	0
47	195	215	0
109	220	307	404	0
272	325	0
75	125	0
35	307	0
188	272	0
57	215	0
174	222	0
120	268	0
32	314	0
61	243	274	316	0
61	314	0
243	316	0
298	305	0
32	68	89	120	242	0
60	314	0
214	307	0
23	75	202	0
113	337	0
152	264	306	0
289	307	0
116	176	0
73	358	0
215	364	0
138	174	0
225	314	420	0
20	148	0
148	282	0
0	307	0
89	137	349	0
138	174	0
134	165	0
39	152	0
73	174	307	0
86	174	0
47	215	0
72	408	0
156	274	0
107	146	0
57	130	0
171	216	0
174	264	0
190	215	224	353	0
68	125	190	0
16	75	0
18	202	0
19	109	264	0
181	323	0
240	267	0
316	324	0
138	147	215	0
209	353	0
174	420	0
32	359	0
18	57	0
264	312	0
118	220	230	0
233	307	0
117	171	0
243	297	0
66	242	0
158	190	0
42	47	61	0
174	274	0
86	174	0
60	307	0
90	264	0
86	278	0
278	307	312	0
87	197	0
19	117	0
61	165	366	0
129	301	0
125	264	0
86	108	0
128	281	0
143	278	0
0	230	0
61	280	0
16	75	0
264	276	0
75	237	240	0
47	353	0
174	289	0
138	140	0
117	176	264	0
18	130	222	0
19	73	0
71	179	230	0
72	233	0
146	168	0
86	404	0
130	237	0
86	87	0
109	202	0
215	264	0
215	347	0
20	81	0
47	117	203	355	0
143	294	0
47	214	0
176	215	0
337	358	0
243	246	264	353	0
25	86	90	0
68	278	297	0
95	149	326	0
108	281	297	0
0	117	138	0
68	171	0
14	230	0
60	108	269	280	0
326	355	0
123	181	355	0
195	199	0
17	19	0
86	352	0
33	242	326	0
33	355	0
175	233	0
267	350	0
125	138	0
86	127	195	199	0
108	351	0
141	240	0
0	109	323	404	0
120	261	0
118	119	0
107	324	0
188	218	0
61	87	0
112	129	0
130	307	0
108	195	366	0
20	86	0
18	107	0
108	233	250	0
55	188	0
61	255	275	0
303	306	0
314	316	0
86	307	316	0
61	174	0
158	268	0
49	60	146	0
86	314	0
61	314	0
