269 405
330 549
413 713
330 413
157 343
173 864
129 765
405 667
130 344
689 751
157 443
75 929
121 224
15 405
549 751
66 751
405 769
267 575
396 669
81 667
40 1144
159 769
351 678
425 751
764 995
222 248
722 751
269 478
751 765
507 1034
57 298
229 413
405 472
642 946
646 751
478 722
168 847
176 202
139 657
38 765
392 413
38 722
58 413
228 464
202 528
30 765
229 351
474 769
198 841
66 561
315 395
580 937
47 49
121 294
173 790
233 765
18 405
228 561
751 967
395 604
642 890
445 629
769 954
413 668
117 294
280 423
413 689
81 237
269 1053
198 354
751 959
595 751
413 486
256 751
58 751
631 765
565 689
403 478
181 367
510 646
413 751
530 1145
6 642
154 171
668 751
440 1050
157 577
654 882
884 1048
103 751
413 857
468 1170
229 269
84 850
228 358
392 751
405 408
444 751
408 790
468 751
575 642
403 765
260 859
513 783
10 269
326 751
486 960
214 575
269 681
358 751
143 475
267 751
742 765
73 294
867 954
39 172
358 507
5 928
96 504
472 813
575 646
52 297
285 750
413 683
229 233
646 722
326 591
743 937
751 946
763 870
405 695
81 751
176 229
193 769
686 715
145 669
52 974
159 732
297 546
726 790
162 765
176 1078
751 836
293 405
881 964
173 751
598 803
33 38
229 610
269 765
176 789
113 330
39 604
75 790
43 1145
423 446
43 330
330 732
55 621
577 727
629 829
205 486
176 1177
352 478
138 954
162 352
765 769
176 330
486 565
751 1006
38 810
269 667
181 405
642 722
181 715
395 751
352 751
632 667
330 988
413 736
84 546
478 765
96 229
359 866
138 472
172 556
205 914
269 281
43 138
751 783
722 765
238 303
751 786
504 881
187 504
667 751
4 413
751 937
468 488
751 789
30 751
326 698
668 765
293 751
129 968
298 488
687 1058
715 751
620 1145
45 85
81 870
41 870
513 751
475 888
642 751
38 472
119 751
413 535
267 395
369 733
405 447
157 803
358 413
55 413
507 765
732 794
413 1122
43 405
253 395
157 504
765 789
751 870
181 413
642 972
468 598
261 888
316 443
215 231
71 751
621 751
785 1040
294 413
52 287
334 751
161 358
75 284
646 765
405 689
405 413
765 870
468 765
472 786
362 504
661 751
129 173
75 354
138 468
358 803
888 1160
256 484
751 921
403 751
440 790
400 751
157 1145
478 667
72 765
95 751
6 395
38 130
472 556
743 769
551 751
168 727
413 577
765 890
808 848
5 769
96 577
66 413
169 765
406 581
580 880
40 1048
66 254
413 870
598 751
41 689
786 864
535 971
413 763
667 1144
405 841
413 847
474 674
221 768
440 884
765 912
695 732
113 667
408 413
229 921
176 751
176 575
455 681
232 914
403 850
363 751
472 529
229 564
392 765
233 1163
176 765
179 314
328 385
413 440
113 765
285 674
455 765
912 971
330 621
413 928
121 848
84 867
413 769
208 725
556 565
367 890
181 535
269 751
58 847
556 557
367 369
598 765
267 535
30 598
173 765
238 751
346 661
765 921
113 681
129 157
84 527
396 864
272 434
403 667
38 763
598 776
113 413
269 786
73 817
269 923
440 763
84 732
642 884
244 400
328 765
372 751
413 642
269 306
285 765
751 1046
169 413
751 1128
369 686
413 695
660 751
41 45
228 912
269 763
405 481
786 891
119 824
52 129
527 1040
629 694
73 413
30 189
398 765
395 912
579 751
121 248
751 851
269 946
38 173
575 751
580 743
367 790
667 763
113 817
38 440
369 751
751 788
248 491
478 850
476 983
181 765
455 689
43 166
500 534
722 1157
173 413
169 1146
49 561
575 698
413 722
405 488
38 71
346 486
367 413
547 914
467 888
642 667
530 776
598 667
193 233
655 751
60 929
229 751
248 468
269 851
867 972
513 855
100 826
547 776
705 790
352 439
732 765
152 751
667 870
413 690
52 369
598 769
413 884
205 478
217 689
301 765
408 751
113 751
464 667
1102 1117
786 824
405 598
291 778
547 722
790 924
119 229
629 751
661 841
285 751
41 751
891 912
507 751
488 598
38 551
413 667
84 521
40 967
472 640
298 429
256 722
244 269
38 751
354 669
413 776
444 765
642 765
269 715
618 1151
405 921
167 848
556 743
478 851
40 1177
642 711
269 531
330 765
403 413
758 803
129 1102
413 810
595 765
38 870
272 751
288 652
39 472
400 405
43 847
534 924
113 754
478 751
440 893
181 751
616 972
215 413
455 481
413 1006
272 344
413 765
40 751
365 413
66 330
680 933
458 765
43 205
333 1048
646 857
103 765
215 376
395 413
328 799
45 732
38 887
413 669
179 751
352 640
413 720
344 972
269 621
49 885
284 737
256 529
229 369
370 546
81 413
162 176
413 429
472 1163
455 786
768 1045
269 429
455 751
413 788
767 769
405 751
528 558
408 667
510 751
55 763
330 751
575 765
215 1145
30 426
405 732
229 405
133 361
542 763
276 890
405 690
293 765
43 1099
159 395
497 983
580 758
585 743
269 889
259 848
215 765
472 851
500 971
133 575
96 405
229 488
38 642
229 631
215 255
256 1144
75 642
40 851
642 763
269 722
923 1170
449 504
248 556
615 660
248 949
38 84
253 546
157 276
344 524
140 580
513 732
351 395
75 769
233 751
59 269
765 776
81 765
129 690
38 413
312 395
763 765
267 413
464 751
157 245
392 763
354 504
229 577
256 330
413 481
143 888
395 605
84 598
267 546
43 344
403 530
256 575
75 169
173 395
661 891
559 631
604 967
198 751
413 478
715 765
626 751
205 837
228 652
75 488
365 886
720 765
715 891
95 507
235 504
75 408
269 928
84 1073
59 395
405 468
81 713
274 535
765 847
100 527
123 358
157 248
256 765
596 695
606 1160
248 725
60 84
71 176
690 983
245 790
40 376
546 786
55 751
429 765
138 971
751 790
55 778
229 732
535 890
33 722
173 292
851 1177
59 891
238 620
267 864
215 229
369 790
5 467
5 751
169 423
403 722
422 1170
751 928
267 890
524 642
259 703
348 475
269 413
5 413
81 579
130 405
621 733
66 705
440 927
661 855
765 786
751 923
43 546
468 667
496 949
803 851
198 392
176 686
751 763
328 972
130 269
168 393
667 732
765 778
657 866
269 754
267 667
715 763
240 732
258 870
751 785
84 765
119 765
154 720
269 288
215 722
71 405
330 790
115 646
215 751
176 790
121 293
57 159
486 974
169 751
358 851
84 179
875 1088
228 508
38 535
343 507
117 176
138 581
176 413
395 561
294 405
234 486
330 940
769 1145
205 604
41 413
751 912
41 169
73 498
732 751
413 575
751 769
269 890
154 405
73 84
198 269
54 765
413 686
765 790
742 751
154 765
272 547
488 783
405 765
256 395
233 408
765 817
169 382
52 750
119 884
130 765
667 765
488 921
77 1049
413 850
565 769
57 790
413 626
169 367
179 765
643 751
413 934
215 528
95 413
73 769
228 413
484 751
84 369
248 751
294 785
52 866
296 1105
330 683
405 580
660 1144
575 669
157 202
169 629
152 891
137 176
104 413
81 181
369 629
358 468
580 640
642 851
328 535
73 162
40 765
6 970
460 642
208 751
857 949
279 794
772 972
413 747
176 405
229 668
326 598
370 891
149 269
41 711
157 229
269 870
681 695
117 751
695 851
233 524
96 262
169 1089
351 890
751 806
346 395
643 686
413 629
6 769
75 269
157 765
751 867
803 959
924 937
259 294
298 413
403 704
531 732
38 1102
413 886
413 732
294 722
344 621
267 655
751 847
532 765
408 1150
642 790
41 545
690 765
468 642
267 646
269 689
237 751
413 444
172 725
534 1177
71 695
261 732
47 743
47 413
413 778
47 921
15 751
176 655
667 722
440 751
104 631
674 850
77 765
481 776
269 535
38 667
167 769
488 751
103 841
173 769
654 1045
312 330
40 444
580 929
444 778
5 449
73 750
269 642
133 706
40 680
113 361
215 595
129 154
113 444
49 724
260 687
284 370
205 233
352 605
327 859
215 776
472 580
330 829
294 363
312 621
285 732
41 173
30 73
156 488
294 732
113 778
38 891
57 444
221 1102
154 288
670 929
23 57
199 488
362 369
215 660
148 336
130 478
546 890
157 690
103 157
269 285
690 855
577 642
496 803
169 507
621 847
581 591
486 556
504 530
937 1057
655 764
425 486
228 364
157 929
352 1082
129 867
229 260
327 687
215 629
154 509
215 267
306 950
777 787
817 881
413 891
455 778
73 690
208 295
464 579
577 864
84 288
146 312
237 478
253 610
530 803
49 529
157 764
690 937
272 646
311 887
154 486
344 841
77 237
615 841
311 1128
277 396
546 681
157 546
103 902
228 261
732 769
138 890
119 642
315 882
73 837
369 577
73 914
157 159
640 937
129 162
429 605
264 875
55 581
429 434
789 1102
30 983
362 529
712 970
245 285
233 652
545 1064
229 687
284 661
129 202
546 652
208 611
133 690
294 686
260 326
306 613
642 725
683 718
103 533
269 1102
817 891
405 947
413 660
237 765
139 396
196 654
642 864
269 891
285 546
778 928
395 444
256 328
737 848
179 732
228 309
351 419
351 631
875 882
294 764
288 817
228 455
328 478
758 770
312 940
215 256
154 352
288 891
157 328
580 891
162 546
351 655
60 157
455 789
138 556
169 704
15 929
73 444
546 695
629 642
315 511
162 288
157 625
129 891
472 605
467 475
321 455
647 727
170 690
84 169
384 1029
62 869
62 215
859 882
171 625
294 580
269 492
248 285
521 803
444 737
543 602
891 1025
157 773
328 363
229 546
84 689
41 328
486 857
157 652
370 690
84 478
66 504
367 751
30 972
488 786
129 751
47 486
233 328
229 864
103 732
233 306
581 712
507 1077
126 723
47 306
98 344
202 352
157 472
444 488
294 306
507 530
47 769
686 769
30 351
704 788
233 803
292 455
328 455
198 413
229 890
172 310
720 1106
358 512
121 690
129 344
444 723
683 855
169 237
345 563
269 720
232 472
98 172
73 172
84 857
344 816
716 859
113 580
157 267
40 405
455 510
98 914
328 440
751 857
104 621
670 1112
269 732
198 498
154 574
269 294
780 884
577 591
343 369
680 725
348 455
751 891
395 875
169 780
245 605
348 642
642 660
306 626
60 732
233 488
117 352
326 414
103 743
369 507
139 361
530 929
455 546
310 352
133 867
869 1092
318 443
73 245
1046 1102
472 929
344 737
630 983
352 556
154 1082
306 605
52 625
176 408
71 215
171 950
306 743
154 817
444 551
803 1105
328 408
113 530
580 751
157 198
169 484
125 531
776 890
363 642
179 269
157 344
285 891
248 1105
294 642
347 847
117 269
267 405
288 605
129 642
202 769
233 1105
41 113
367 789
215 1047
143 607
172 179
867 881
323 419
198 285
45 891
406 454
642 1102
117 486
137 344
221 444
57 847
530 690
138 306
162 556
267 929
113 890
66 929
914 1081
172 857
154 914
233 486
292 678
269 611
91 607
444 869
238 919
233 732
172 817
52 162
71 580
172 352
171 233
351 718
47 817
73 546
675 937
464 971
504 674
267 488
245 769
408 724
245 881
556 769
271 744
55 443
545 1149
864 875
577 724
113 117
294 478
625 950
2 785
113 1102
689 891
6 778
47 205
444 642
344 769
434 769
62 209
687 723
113 546
642 789
176 472
173 429
351 581
173 891
323 768
138 686
215 890
269 778
778 1102
937 1160
196 882
84 891
157 478
352 686
138 610
66 732
133 732
344 352
154 816
260 601
344 803
408 891
318 365
228 642
137 670
157 817
326 880
408 723
162 686
547 891
172 288
344 1082
315 414
162 198
117 288
84 119
133 284
113 221
686 803
73 171
472 646
405 686
205 743
316 383
292 510
100 839
449 591
5 365
521 867
113 1046
232 769
743 817
113 119
169 444
232 288
208 423
327 683
173 181
260 414
73 98
157 233
513 937
172 1081
743 914
723 724
642 817
327 581
847 928
202 504
228 1088
181 358
369 1102
157 561
311 634
245 504
577 581
330 727
468 851
365 810
47 891
472 972
52 769
173 1157
289 857
172 686
173 890
327 333
169 369
821 1095
117 285
176 488
41 789
110 694
198 352
732 1117
229 851
173 1102
686 732
138 233
519 654
890 1174
170 937
546 743
472 486
423 642
816 841
233 425
117 769
507 580
205 344
326 768
285 758
285 817
205 769
77 1050
817 1105
697 748
328 444
687 864
610 630
687 859
750 891
408 1078
172 486
732 750
267 507
50 865
221 642
55 444
652 891
269 770
62 1092
179 284
30 841
52 891
486 605
157 352
98 857
478 546
154 891
181 221
52 530
98 154
445 549
488 580
556 889
724 748
75 778
803 914
5 269
530 750
434 649
326 444
248 857
154 556
74 157
215 937
245 690
5 748
232 803
244 367
73 889
173 202
549 909
98 288
202 530
57 737
169 891
166 306
642 1077
642 776
327 408
256 1122
71 269
113 157
653 670
654 687
737 790
546 866
215 769
162 405
154 198
45 690
202 269
113 891
551 1092
73 575
408 581
138 162
221 472
103 864
45 472
49 327
778 1046
233 743
887 1128
260 323
288 344
472 776
157 269
130 1105
228 890
179 929
642 857
154 269
269 884
169 890
173 478
642 1048
47 556
664 724
285 769
530 626
358 434
284 640
157 530
169 929
84 788
704 884
248 803
130 527
269 673
49 1088
891 914
433 690
472 817
245 706
344 486
847 848
336 351
237 884
84 924
304 607
129 288
556 891
294 534
267 732
680 857
803 857
133 154
94 327
57 254
75 732
444 455
98 803
642 686
117 344
198 472
73 202
829 848
232 233
202 732
233 530
129 1105
269 690
581 970
269 929
646 803
198 857
327 655
198 743
9 768
103 405
52 84
344 867
610 744
125 369
724 1027
202 233
138 744
52 686
73 686
333 351
172 803
169 884
330 444
605 817
55 577
198 444
173 1105
454 678
444 715
315 859
198 545
472 867
157 769
678 812
269 1048
440 789
346 769
642 689
157 786
577 985
720 751
344 857
486 769
732 758
49 292
73 891
169 1090
260 864
348 761
228 970
119 789
133 179
169 202
284 855
464 530
472 743
336 419
425 803
117 817
186 521
315 795
312 509
403 870
186 352
215 328
129 486
464 783
62 891
181 1102
544 857
41 392
73 803
803 817
577 970
40 215
269 284
172 269
288 803
232 269
328 556
169 769
15 732
40 675
577 726
472 488
425 867
521 1082
413 1102
504 769
157 732
323 336
414 864
228 574
272 690
172 889
98 198
130 474
221 778
73 455
396 504
233 625
215 642
113 857
488 929
237 788
245 486
507 540
294 530
260 511
444 669
244 455
232 743
55 365
40 84
413 530
408 937
225 546
586 855
507 642
530 689
6 166
486 889
405 530
157 605
361 867
245 817
370 513
444 1124
154 157
344 556
546 768
315 519
62 481
47 269
488 855
697 724
73 743
117 521
370 646
71 686
215 530
129 817
157 434
690 732
169 403
237 742
328 921
269 400
292 983
444 769
344 1105
233 686
292 864
229 723
743 891
306 444
202 642
327 519
55 810
125 549
352 816
154 375
315 687
256 403
889 914
5 611
472 954
215 715
272 803
169 642
455 864
425 1105
73 117
179 769
154 686
449 577
444 468
890 970
169 596
504 812
138 260
488 535
486 680
789 937
96 176
267 530
288 881
117 803
129 425
176 403
605 803
49 687
215 507
444 761
267 288
73 472
228 572
77 788
157 205
43 84
172 642
233 248
857 914
344 686
310 914
84 803
245 284
157 737
215 891
408 732
269 486
769 857
52 626
62 579
577 875
444 478
356 643
269 695
215 444
173 405
80 331
113 173
117 743
228 444
269 362
52 285
117 857
689 1157
154 172
507 891
238 865
690 929
73 352
113 732
472 751
75 444
344 751
2 229
228 260
77 169
306 686
288 444
5 591
111 574
129 686
598 921
260 610
96 408
179 202
40 119
160 981
209 444
179 855
333 687
66 444
40 173
154 521
488 754
100 269
169 328
292 694
514 737
45 233
440 912
395 408
478 530
327 697
176 294
535 689
261 467
73 233
260 875
546 950
73 306
285 803
642 694
140 577
103 521
233 605
630 723
336 768
52 157
154 841
769 881
229 768
113 294
133 272
488 890
30 414
312 727
171 248
408 577
169 788
362 929
890 1088
551 579
169 440
725 857
117 472
179 580
546 686
867 914
488 530
285 867
131 833
511 574
18 674
113 429
125 396
269 972
423 611
202 472
580 732
369 534
196 260
769 889
5 327
202 474
642 783
605 769
288 488
472 744
272 370
181 776
530 534
196 768
891 921
80 531
486 817
328 405
130 732
43 352
169 269
115 919
288 1105
292 723
66 737
464 850
133 803
172 565
260 768
71 507
169 1151
129 837
743 1105
642 668
530 642
444 857
306 831
233 344
295 423
444 789
229 644
229 444
47 154
351 405
129 248
121 937
530 817
138 361
15 891
5 587
769 803
580 629
504 737
138 225
292 444
169 176
41 269
761 1092
443 766
45 198
40 484
96 718
73 344
158 875
312 536
113 288
202 737
196 875
444 929
408 468
269 789
769 867
47 98
625 823
73 488
857 1089
133 172
62 444
98 1105
504 642
140 445
403 507
769 1105
271 445
205 857
130 1029
556 867
133 472
6 768
215 455
157 642
103 117
269 1105
285 556
85 232
215 294
486 725
159 546
215 1102
285 352
91 304
654 875
393 847
52 229
328 351
173 444
535 642
472 565
157 169
269 395
157 1176
229 859
173 215
439 851
6 169
591 712
44 964
157 329
408 449
226 527
140 904
73 382
530 900
580 642
500 542
245 857
119 169
162 171
333 572
486 881
202 288
84 352
167 642
352 769
119 776
73 133
367 455
73 157
267 891
605 750
323 511
179 215
245 867
472 914
269 488
369 642
267 294
408 764
172 248
40 789
2 851
472 546
244 478
351 408
41 255
84 769
115 865
521 841
62 761
269 857
129 172
328 367
310 857
315 326
113 237
133 769
129 358
129 803
260 336
52 817
306 732
256 292
143 593
47 344
530 769
351 764
41 642
642 680
488 857
143 401
294 328
129 328
75 330
358 472
224 690
330 737
133 288
675 855
408 530
113 642
1092 1160
444 937
196 229
298 1102
605 891
129 743
783 850
288 1075
62 400
328 914
336 511
202 689
750 803
336 875
392 689
403 444
63 444
47 686
400 551
176 929
202 444
486 743
215 686
2 439
306 556
356 642
176 530
474 670
272 504
133 285
84 285
408 683
866 1160
215 488
129 732
323 875
269 530
84 444
40 642
30 344
472 769
519 678
177 727
198 288
867 889
129 914
444 1046
546 556
444 768
351 369
530 652
346 359
704 726
62 478
478 891
320 504
311 862
530 737
221 455
418 607
414 654
472 857
176 455
52 138
158 315
98 817
181 642
352 472
327 577
40 776
53 362
433 750
621 773
169 618
233 769
294 444
162 285
577 1048
264 859
687 875
176 732
176 507
69 504
331 531
39 486
40 403
157 613
449 970
577 655
130 173
113 535
859 864
444 847
172 285
172 914
233 673
202 690
103 344
352 914
245 740
169 215
115 303
103 444
695 882
169 722
181 789
425 857
294 351
5 351
294 507
288 413
30 472
181 328
292 408
232 817
202 272
233 472
115 686
209 551
292 642
531 556
228 687
113 689
440 891
577 1123
176 215
438 725
133 881
384 527
732 857
229 875
737 847
103 891
504 690
642 809
171 556
202 285
84 233
173 232
40 361
232 751
817 867
5 655
58 577
466 549
169 478
52 743
264 768
689 715
172 198
66 848
179 891
293 947
288 867
97 486
434 732
642 803
577 1066
148 260
62 256
181 215
129 198
198 344
444 725
444 790
162 891
229 924
732 847
113 202
737 891
687 821
229 785
73 556
546 732
154 889
162 306
154 285
115 486
546 831
527 891
43 140
221 789
138 159
260 882
62 413
464 785
444 1102
565 857
245 949
817 929
317 429
125 433
768 875
8 189
706 881
154 245
52 73
229 294
694 880
122 444
229 292
40 507
269 817
444 621
285 605
129 133
179 370
176 546
723 864
113 472
478 857
674 929
330 530
299 769
84 205
306 750
577 683
284 577
327 336
138 546
580 864
521 816
269 575
330 509
157 172
113 803
73 867
173 294
356 444
551 761
196 655
49 229
369 1164
581 655
171 172
133 857
215 334
205 605
722 891
117 841
395 694
1 642
154 186
73 642
233 831
751 776
260 654
117 154
577 847
327 864
574 723
577 764
642 778
169 288
751 1105
52 732
130 686
455 836
215 809
157 179
504 819
84 344
405 577
312 790
405 478
267 403
392 1157
183 783
84 294
817 857
233 857
84 642
248 817
233 269
857 1105
198 867
138 157
864 890
662 893
769 817
43 556
80 494
157 580
172 205
73 129
62 269
237 413
269 768
205 288
472 732
171 857
157 1070
269 660
73 288
269 769
166 546
351 534
62 732
205 803
169 758
133 646
455 1092
202 972
304 1128
267 472
173 778
732 803
75 847
113 328
176 1102
775 1088
157 488
294 488
605 642
311 979
333 864
269 293
288 686
352 857
312 382
288 857
157 171
472 530
344 615
186 841
62 551
75 157
176 486
327 342
768 859
285 889
363 686
176 385
30 352
47 233
71 130
57 1022
267 737
198 914
91 467
642 891
444 1092
172 769
358 743
84 248
58 310
267 444
49 678
209 1092
654 859
104 202
62 348
140 396
256 455
129 352
347 1022
62 169
351 891
315 654
73 857
455 642
154 472
119 269
157 891
162 743
605 857
169 488
176 285
327 351
351 577
237 780
367 689
176 198
71 891
154 630
488 642
113 181
73 154
551 869
621 808
472 837
113 1157
310 743
173 642
245 361
84 472
294 408
750 769
84 937
857 867
269 434
369 530
248 605
55 318
678 843
172 344
438 565
327 1159
232 248
71 769
179 513
864 904
640 855
172 544
5 581
327 748
660 776
129 929
574 716
66 157
551 642
41 267
352 642
405 752
126 229
474 527
121 284
154 867
285 743
260 315
344 642
267 847
198 556
272 732
546 605
205 867
284 937
157 314
57 620
162 233
315 336
77 438
125 140
71 488
310 867
642 732
358 556
138 605
642 1157
449 581
138 171
287 517
125 139
1094 1128
783 785
288 486
857 889
45 803
138 158
5 712
288 425
370 855
133 245
113 488
478 890
130 891
84 129
565 725
344 817
60 642
98 285
444 530
62 176
269 803
455 478
248 344
891 937
198 993
176 504
154 803
488 937
84 162
117 1082
723 768
114 383
272 891
262 398
2 546
5 970
157 669
478 776
215 293
642 1083
125 546
198 267
157 890
248 486
577 1078
455 660
77 884
472 891
10 362
369 732
408 690
504 929
348 507
103 1082
348 444
130 215
84 530
228 786
556 803
1 1077
655 690
198 486
171 769
294 369
472 504
444 667
157 330
580 863
62 464
769 929
743 867
157 285
5 983
52 472
370 937
256 683
248 891
743 803
288 472
285 486
130 642
288 306
245 344
478 689
49 511
232 425
73 535
215 372
472 737
245 803
40 689
157 776
45 269
8 631
196 315
449 655
472 803
803 867
352 521
98 686
40 1157
817 889
130 751
408 591
312 848
171 288
131 423
610 864
157 162
403 642
198 1089
408 712
556 605
285 496
642 723
294 769
468 1117
616 700
96 855
882 1095
444 722
173 530
198 605
482 549
478 937
369 891
113 776
694 983
423 584
129 488
686 1105
47 84
41 455
143 304
52 306
288 352
269 328
455 1157
458 472
530 732
678 748
449 984
98 889
6 138
43 686
170 640
267 369
232 891
289 472
527 642
205 817
45 751
288 546
448 492
472 642
720 971
52 328
272 530
103 556
115 269
215 546
444 891
369 444
113 367
306 326
530 605
591 683
41 660
133 817
148 687
129 285
546 847
176 444
382 509
352 867
429 444
269 580
113 478
445 546
504 732
887 1094
446 690
157 294
534 764
769 914
49 723
643 778
769 891
488 817
97 198
5 577
117 434
269 472
328 769
215 789
750 1088
408 504
157 347
33 504
285 642
215 244
198 817
348 1160
837 867
5 408
91 191
408 750
157 750
202 929
574 577
47 232
315 768
138 288
169 732
129 232
285 929
30 285
30 103
382 769
330 478
233 285
113 215
352 369
73 248
154 857
488 1117
100 865
577 890
97 310
119 403
306 857
486 867
348 551
143 261
492 504
248 673
157 292
294 891
169 455
62 642
574 841
173 776
269 504
395 678
40 891
267 754
157 306
425 817
358 891
292 630
55 107
172 867
344 929
285 288
154 755
157 841
408 1123
228 326
472 690
171 613
418 467
546 642
344 575
57 732
352 841
768 882
208 584
103 176
344 758
198 769
478 732
256 928
133 740
245 472
579 642
303 865
73 486
173 743
304 467
288 743
299 803
642 769
49 1004
237 642
103 352
98 269
47 857
580 1117
157 848
209 348
292 724
173 198
362 891
175 581
156 434
310 544
138 652
30 154
103 233
1083 1102
130 226
478 884
148 511
57 157
468 768
169 742
742 788
352 486
488 629
288 496
352 847
507 1102
429 642
129 564
215 228
311 747
306 546
103 768
788 884
315 875
157 225
328 732
444 890
556 857
176 890
486 914
157 369
403 732
47 310
84 176
267 269
117 867
169 198
39 198
62 455
229 970
176 817
239 504
179 690
478 1102
76 304
179 272
306 652
233 891
732 817
370 1153
434 803
521 743
181 478
206 674
84 743
84 1105
642 750
91 401
30 117
621 848
486 954
488 507
47 198
352 737
60 530
464 937
74 434
40 328
841 1082
49 864
488 732
425 891
344 914
138 891
348 869
790 848
256 642
743 889
157 857
73 198
232 857
157 610
406 678
405 924
328 369
344 425
173 472
158 260
62 173
172 743
293 598
534 577
202 803
724 864
52 803
328 642
488 765
179 344
215 788
269 344
215 681
395 1048
327 664
225 306
4 312
47 73
96 534
328 689
4 727
803 891
732 929
783 806
173 488
47 605
732 737
975 976
103 642
162 328
225 233
440 642
211 486
91 143
546 769
455 1102
47 285
248 288
344 521
157 790
488 891
344 472
47 172
138 642
751 1102
577 598
84 103
405 547
228 306
875 890
103 154
130 384
8 622
310 889
133 486
395 455
803 929
57 347
113 169
356 507
126 864
215 667
52 294
157 288
47 1105
71 546
547 642
171 306
73 605
103 816
610 863
269 423
233 817
237 704
344 375
113 789
40 169
129 605
444 772
202 527
84 455
267 769
157 232
356 540
821 1159
351 530
269 369
285 686
229 468
5 683
133 157
47 546
57 369
884 1090
169 857
205 248
351 985
40 809
743 857
154 642
359 563
486 642
169 551
162 429
129 171
84 817
157 272
221 348
119 413
154 344
189 710
157 176
267 642
444 1083
1102 1124
84 306
444 507
315 716
488 769
47 867
157 545
370 640
75 1126
154 732
478 510
438 486
511 864
330 847
361 881
348 408
40 62
640 690
52 546
1 507
521 686
654 716
222 472
414 1095
344 605
157 444
644 851
110 642
173 857
47 889
229 681
367 1157
408 985
