1;DB00006;BIVALIRUDIN
2;DB00014;GOSERELIN
3;DB00035;DESMOPRESSIN
4;DB00080;DAPTOMYCIN
5;DB00091;CYCLOSPORINE
6;DB00104;OCTREOTIDE
7;DB00106;ABARELIX
8;;OXYTOCIN
9;DB00114;PYRIDOXAL PHOSPHATE
10;DB00115;CYANOCOBALAMIN
11;DB00118;S-ADENOSYLMETHIONINE
12;DB00121;BIOTIN
13;DB00123;L-LYSINE
14;DB00125;L-ARGININE
15;DB00126;VITAMIN C
16;DB00134;L-METHIONINE
17;DB00135;L-TYROSINE
18;DB00136;CALCITRIOL
19;DB00137;XANTHOPHYLL
20;DB00140;RIBOFLAVIN
21;DB00143;GLUTATHIONE
22;DB00146;CALCIDIOL
23;DB00147;PYRIDOXAL
24;DB00148;CREATINE
25;DB00150;L-TRYPTOPHAN
26;DB00151;L-CYSTEINE
27;DB00152;THIAMINE
28;DB00153;ERGOCALCIFEROL
29;DB00155;L-CITRULLINE
30;DB00158;FOLIC ACID
31;DB00159;ICOSAPENT
32;DB00162;VITAMIN A
33;DB00163;VITAMIN E
34;DB00165;PYRIDOXINE
35;DB00166;LIPOIC ACID
36;DB00168;ASPARTAME
37;DB00169;CHOLECALCIFEROL
38;DB00175;PRAVASTATIN
39;DB00176;FLUVOXAMINE
40;DB00177;VALSARTAN
41;DB00178;RAMIPRIL
42;DB00180;FLUNISOLIDE
43;DB00181;BACLOFEN
44;DB00182;AMPHETAMINE
45;DB00184;NICOTINE
46;DB00185;CEVIMELINE
47;DB00186;LORAZEPAM
48;DB00187;ESMOLOL
49;DB00188;BORTEZOMIB
50;DB00190;CARBIDOPA
51;DB00191;PHENTERMINE
52;DB00193;TRAMADOL
53;DB00194;VIDARABINE
54;DB00195;BETAXOLOL
55;DB00196;FLUCONAZOLE
56;DB00197;TROGLITAZONE
57;DB00198;OSELTAMIVIR
58;DB00199;ERYTHROMYCIN
59;DB00200;HYDROXOCOBALAMIN
60;DB00201;CAFFEINE
61;DB00202;SUCCINYLCHOLINE
62;DB00203;SILDENAFIL
63;DB00204;DOFETILIDE
64;DB00205;PYRIMETHAMINE
65;DB00206;RESERPINE
66;DB00207;AZITHROMYCIN
67;DB00208;TICLOPIDINE
68;DB00209;TROSPIUM
69;DB00210;ADAPALENE
70;DB00211;MIDODRINE
71;DB00213;PANTOPRAZOLE
72;DB00214;TORASEMIDE
73;DB00215;CITALOPRAM
74;DB00216;ELETRIPTAN
75;DB00218;MOXIFLOXACIN
76;DB00220;NELFINAVIR
77;DB00222;GLIMEPIRIDE
78;DB00223;DIFLORASONE
79;DB00224;INDINAVIR
80;DB00225;GADODIAMIDE
81;DB00227;LOVASTATIN
82;DB00228;ENFLURANE
83;DB00229;CEFOTIAM
84;DB00230;PREGABALIN
85;DB00231;TEMAZEPAM
86;DB00232;METHYCLOTHIAZIDE
87;DB00233;AMINOSALICYLIC ACID
88;DB00234;REBOXETINE
89;DB00235;MILRINONE
90;DB00237;BUTABARBITAL
91;DB00238;NEVIRAPINE
92;DB00240;ALCLOMETASONE
93;DB00241;BUTALBITAL
94;DB00242;CLADRIBINE
95;DB00243;RANOLAZINE
96;DB00244;MESALAZINE
97;DB00245;BENZATROPINE
98;DB00246;ZIPRASIDONE
99;DB00247;METHYSERGIDE
100;DB00248;CABERGOLINE
101;DB00250;DAPSONE
102;DB00251;TERCONAZOLE
103;DB00252;PHENYTOIN
104;DB00254;DOXYCYCLINE
105;DB00255;DIETHYLSTILBESTROL
106;DB00256;LYMECYCLINE
107;DB00257;CLOTRIMAZOLE
108;DB00258;CALCIUM ACETATE
109;DB00260;CYCLOSERINE
110;DB00261;ANAGRELIDE
111;DB00262;CARMUSTINE
112;DB00263;SULFISOXAZOLE
113;DB00264;METOPROLOL
114;DB00265;CROTAMITON
115;DB00268;ROPINIROLE
116;DB00270;ISRADIPINE
117;DB00273;TOPIRAMATE
118;DB00274;CEFMETAZOLE
119;DB00275;OLMESARTAN
120;DB00276;AMSACRINE
121;DB00277;THEOPHYLLINE
122;DB00278;ARGATROBAN
123;DB00279;LIOTHYRONINE
124;DB00280;DISOPYRAMIDE
125;DB00281;LIDOCAINE
126;DB00282;PAMIDRONATE
127;DB00283;CLEMASTINE
128;DB00284;ACARBOSE
129;DB00285;VENLAFAXINE
130;;CONJUGATED ESTROGENS
131;DB00287;TRAVOPROST
132;DB00288;AMCINONIDE
133;DB00289;ATOMOXETINE
134;DB00290;BLEOMYCIN
135;DB00291;CHLORAMBUCIL
136;DB00292;ETOMIDATE
137;DB00294;ETONOGESTREL
138;DB00295;MORPHINE
139;DB00296;ROPIVACAINE
140;DB00297;BUPIVACAINE
141;DB00298;DAPIPRAZOLE
142;DB00299;PENCICLOVIR
143;DB00300;TENOFOVIR
144;DB00301;FLUCLOXACILLIN
145;DB00302;TRANEXAMIC ACID
146;DB00303;ERTAPENEM
147;DB00304;DESOGESTREL
148;DB00305;MITOMYCIN
149;DB00307;BEXAROTENE
150;DB00308;IBUTILIDE
151;DB00309;VINDESINE
152;DB00310;CHLORTHALIDONE
153;DB00312;PENTOBARBITAL
154;DB00313;VALPROIC ACID
155;DB00314;CAPREOMYCIN
156;DB00315;ZOLMITRIPTAN
157;DB00316;ACETAMINOPHEN
158;DB00317;GEFITINIB
159;DB00318;CODEINE
160;DB00319;PIPERACILLIN
161;DB00320;DIHYDROERGOTAMINE
162;DB00321;AMITRIPTYLINE
163;DB00323;TOLCAPONE
164;DB00324;FLUOROMETHOLONE
165;DB00325;NITROPRUSSIDE
166;DB00327;HYDROMORPHONE
167;DB00328;INDOMETHACIN
168;DB00330;ETHAMBUTOL
169;DB00331;METFORMIN
170;DB00332;IPRATROPIUM BROMIDE
171;DB00333;METHADONE
172;DB00334;OLANZAPINE
173;DB00335;ATENOLOL
174;DB00336;NITROFURAZONE
175;DB00337;PIMECROLIMUS
176;DB00338;OMEPRAZOLE
177;DB00339;PYRAZINAMIDE
178;DB00340;METIXENE
179;DB00341;CETIRIZINE
180;DB00342;TERFENADINE
181;DB00343;DILTIAZEM
182;DB00344;PROTRIPTYLINE
183;DB00346;ALFUZOSIN
184;DB00347;TRIMETHADIONE
185;DB00348;NITISINONE
186;DB00349;CLOBAZAM
187;DB00350;MINOXIDIL
188;DB00352;THIOGUANINE
189;DB00353;METHYLERGONOVINE
190;DB00354;BUCLIZINE
191;DB00355;AZTREONAM
192;DB00356;CHLORZOXAZONE
193;DB00358;MEFLOQUINE
194;DB00359;SULFADIAZINE
195;DB00360;TETRAHYDROBIOPTERIN
196;DB00361;VINORELBINE
197;DB00362;ANIDULAFUNGIN
198;DB00363;CLOZAPINE
199;DB00364;SUCRALFATE
200;DB00365;GREPAFLOXACIN
201;DB00366;DOXYLAMINE
202;DB00367;LEVONORGESTREL
203;DB00368;NOREPINEPHRINE
204;DB00369;CIDOFOVIR
205;DB00370;MIRTAZAPINE
206;DB00371;MEPROBAMATE
207;DB00372;THIETHYLPERAZINE
208;DB00373;TIMOLOL
209;DB00374;TREPROSTINIL
210;DB00375;COLESTIPOL
211;DB00376;TRIHEXYPHENIDYL
212;DB00377;PALONOSETRON
213;DB00378;DYDROGESTERONE
214;DB00379;MEXILETINE
215;DB00381;AMLODIPINE
216;DB00383;OXYPHENCYCLIMINE
217;DB00384;TRIAMTERENE
218;DB00387;PROCYCLIDINE
219;DB00388;PHENYLEPHRINE
220;DB00389;CARBIMAZOLE
221;DB00390;DIGOXIN
222;DB00391;SULPIRIDE
223;DB00393;NIMODIPINE
224;DB00394;BECLOMETASONE DIPROPIONATE
225;DB00395;CARISOPRODOL
226;DB00396;PROGESTERONE
227;DB00397;PHENYLPROPANOLAMINE
228;DB00398;SORAFENIB
229;DB00399;ZOLEDRONATE
230;DB00400;GRISEOFULVIN
231;DB00401;NISOLDIPINE
232;DB00402;ESZOPICLONE
233;DB00404;ALPRAZOLAM
234;DB00408;LOXAPINE
235;DB00410;MUPIROCIN
236;DB00411;CARBACHOL
237;DB00412;ROSIGLITAZONE
238;DB00413;PRAMIPEXOLE
239;DB00415;AMPICILLIN
240;DB00417;PENICILLIN V
241;DB00418;SECOBARBITAL
242;DB00419;MIGLUSTAT
243;DB00420;PROMAZINE
244;DB00421;SPIRONOLACTONE
245;DB00422;METHYLPHENIDATE
246;DB00423;METHOCARBAMOL
247;DB00424;HYOSCYAMINE
248;DB00425;ZOLPIDEM
249;DB00426;FAMCICLOVIR
250;DB00429;CARBOPROST TROMETHAMINE
251;DB00431;LINDANE
252;DB00432;TRIFLURIDINE
253;DB00433;PROCHLORPERAZINE
254;DB00434;CYPROHEPTADINE
255;DB00436;BENDROFLUMETHIAZIDE
256;DB00437;ALLOPURINOL
257;DB00438;CEFTAZIDIME
258;DB00439;CERIVASTATIN
259;DB00440;TRIMETHOPRIM
260;DB00441;GEMCITABINE
261;DB00442;ENTECAVIR
262;DB00443;BETAMETHASONE
263;DB00444;TENIPOSIDE
264;DB00445;EPIRUBICIN
265;DB00446;CHLORAMPHENICOL
266;DB00447;LORACARBEF
267;DB00448;LANSOPRAZOLE
268;DB00450;DROPERIDOL
269;DB00451;LEVOTHYROXINE
270;DB00452;FRAMYCETIN
271;DB00454;MEPERIDINE
272;DB00455;LORATADINE
273;DB00456;CEFALOTIN
274;DB00457;PRAZOSIN
275;DB00458;IMIPRAMINE
276;DB00459;ACITRETIN
277;DB00460;VERTEPORFIN
278;DB00461;NABUMETONE
279;DB11315;METHYLSCOPOLAMINE
280;DB00465;KETOROLAC
281;DB00468;QUININE
282;DB00469;TENOXICAM
283;DB00470;DRONABINOL
284;DB00471;MONTELUKAST
285;DB00472;FLUOXETINE
286;DB00474;METHOHEXITAL
287;DB00475;CHLORDIAZEPOXIDE
288;DB00476;DULOXETINE
289;DB00477;CHLORPROMAZINE
290;DB00478;RIMANTADINE
291;DB00479;AMIKACIN
292;DB00480;LENALIDOMIDE
293;DB00481;RALOXIFENE
294;DB00482;CELECOXIB
295;DB00484;BRIMONIDINE
296;DB00485;DICLOXACILLIN
297;DB00486;NABILONE
298;DB00489;SOTALOL
299;DB00490;BUSPIRONE
300;DB00491;MIGLITOL
301;DB00492;FOSINOPRIL
302;DB00493;CEFOTAXIME
303;DB00494;ENTACAPONE
304;DB00495;ZIDOVUDINE
305;DB00496;DARIFENACIN
306;DB00497;OXYCODONE
307;DB00499;FLUTAMIDE
308;DB00500;TOLMETIN
309;DB00501;CIMETIDINE
310;DB00502;HALOPERIDOL
311;DB00503;RITONAVIR
312;DB00512;VANCOMYCIN
313;DB00513;AMINOCAPROIC ACID
314;DB00514;DEXTROMETHORPHAN
315;DB00515;CISPLATIN
316;DB00518;ALBENDAZOLE
317;DB00519;TRANDOLAPRIL
318;DB00520;CASPOFUNGIN
319;DB00521;CARTEOLOL
320;DB00523;ALITRETINOIN
321;DB00524;METOLAZONE
322;DB00525;TOLNAFTATE
323;DB00526;OXALIPLATIN
324;DB00528;LERCANIDIPINE
325;DB00529;FOSCARNET
326;DB00530;ERLOTINIB
327;DB00531;CYCLOPHOSPHAMIDE
328;DB00533;ROFECOXIB
329;DB00535;CEFDINIR
330;DB00537;CIPROFLOXACIN
331;DB00538;GADOVERSETAMIDE
332;DB00540;NORTRIPTYLINE
333;DB00541;VINCRISTINE
334;DB00542;BENAZEPRIL
335;DB00543;AMOXAPINE
336;DB00544;FLUOROURACIL
337;DB00545;PYRIDOSTIGMINE
338;DB00547;DESOXIMETASONE
339;DB00548;AZELAIC ACID
340;DB00549;ZAFIRLUKAST
341;DB00550;PROPYLTHIOURACIL
342;DB00552;PENTOSTATIN
343;DB00554;PIROXICAM
344;DB00555;LAMOTRIGINE
345;DB00556;PERFLUTREN
346;DB00557;HYDROXYZINE
347;DB00558;ZANAMIVIR
348;DB00559;BOSENTAN
349;DB00560;TIGECYCLINE
350;DB00561;DOXAPRAM
351;DB00563;METHOTREXATE
352;DB00564;CARBAMAZEPINE
353;DB00565;CISATRACURIUM BESYLATE
354;DB00567;CEPHALEXIN
355;DB00568;CINNARIZINE
356;DB00569;FONDAPARINUX SODIUM
357;DB00570;VINBLASTINE
358;DB00571;PROPRANOLOL
359;DB00572;ATROPINE
360;DB00574;FENFLURAMINE
361;DB00575;CLONIDINE
362;DB00577;VALACICLOVIR
363;DB00580;VALDECOXIB
364;DB00581;LACTULOSE
365;DB00582;VORICONAZOLE
366;DB00583;L-CARNITINE
367;DB00584;ENALAPRIL
368;DB00585;NIZATIDINE
369;DB00586;DICLOFENAC
370;DB00588;FLUTICASONE PROPIONATE
371;DB00589;LISURIDE
372;DB00590;DOXAZOSIN
373;DB00591;FLUOCINOLONE ACETONIDE
374;DB00592;PIPERAZINE
375;DB00593;ETHOSUXIMIDE
376;DB00594;AMILORIDE
377;DB00595;OXYTETRACYCLINE
378;DB00596;HALOBETASOL PROPIONATE
379;DB00597;GADOTERIDOL
380;DB00598;LABETALOL
381;DB00599;THIOPENTAL
382;DB00601;LINEZOLID
383;DB00602;IVERMECTIN
384;DB00603;MEDROXYPROGESTERONE
385;DB00604;CISAPRIDE
386;DB00605;SULINDAC
387;DB00607;NAFCILLIN
388;DB00608;CHLOROQUINE
389;DB00609;ETHIONAMIDE
390;DB00610;METARAMINOL
391;DB00611;BUTORPHANOL
392;DB00612;BISOPROLOL
393;DB00615;RIFABUTIN
394;DB00618;DEMECLOCYCLINE
395;DB00619;IMATINIB
396;DB00620;TRIAMCINOLONE
397;DB00621;OXANDROLONE
398;DB00622;NICARDIPINE
399;DB00623;FLUPHENAZINE
400;DB00624;TESTOSTERONE
401;DB00625;EFAVIRENZ
402;DB00626;BACITRACIN
403;DB00627;NIACIN
404;DB00628;CLORAZEPATE
405;DB00630;ALENDRONATE
406;DB00631;CLOFARABINE
407;DB00633;DEXMEDETOMIDINE
408;DB00635;PREDNISONE
409;DB00636;CLOFIBRATE
410;DB00637;ASTEMIZOLE
411;DB00638;INULIN
412;DB00640;ADENOSINE
413;DB00641;SIMVASTATIN
414;DB00642;PEMETREXED
415;DB00643;MEBENDAZOLE
416;DB00646;NYSTATIN
417;DB00648;MITOTANE
418;DB00649;STAVUDINE
419;DB00650;LEUCOVORIN
420;DB00651;DYPHYLLINE
421;DB00652;PENTAZOCINE
422;DB00653;MAGNESIUM SULFATE
423;DB00654;LATANOPROST
424;DB00655;ESTRONE
425;DB00656;TRAZODONE
426;DB00658;SEVELAMER
427;DB00659;ACAMPROSATE
428;DB00660;METAXALONE
429;DB00661;VERAPAMIL
430;DB00662;TRIMETHOBENZAMIDE
431;DB00665;NILUTAMIDE
432;DB05381;HISTAMINE PHOSPHATE
433;DB00668;EPINEPHRINE
434;DB00669;SUMATRIPTAN
435;DB00671;CEFIXIME
436;DB00672;CHLORPROPAMIDE
437;DB00673;APREPITANT
438;DB00674;GALANTAMINE
439;DB00675;TAMOXIFEN
440;DB00678;LOSARTAN
441;DB00679;THIORIDAZINE
442;DB00680;MORICIZINE
443;DB00681;AMPHOTERICIN B
444;DB00682;WARFARIN
445;DB00683;MIDAZOLAM
446;DB00684;TOBRAMYCIN
447;DB00686;PENTOSAN POLYSULFATE
448;DB00687;FLUDROCORTISONE
449;DB00688;MYCOPHENOLATE MOFETIL
450;DB00690;FLURAZEPAM
451;DB00691;MOEXIPRIL
452;DB00692;PHENTOLAMINE
453;DB00693;FLUORESCEIN
454;DB00694;DAUNORUBICIN
455;DB00695;FUROSEMIDE
456;DB00696;ERGOTAMINE
457;DB00697;TIZANIDINE
458;DB00698;NITROFURANTOIN
459;DB00699;NICERGOLINE
460;DB00700;EPLERENONE
461;DB00701;AMPRENAVIR
462;DB00704;NALTREXONE
463;DB00705;DELAVIRDINE
464;DB00706;TAMSULOSIN
465;;PORFIMER
466;DB00708;SUFENTANIL
467;DB00709;LAMIVUDINE
468;DB00710;IBANDRONATE
469;DB00712;FLURBIPROFEN
470;DB00713;OXACILLIN
471;DB00714;APOMORPHINE
472;DB00715;PAROXETINE
473;DB00716;NEDOCROMIL
474;DB00717;NORETHINDRONE
475;DB00718;ADEFOVIR DIPIVOXIL
476;DB00720;CLODRONATE
477;DB00721;PROCAINE
478;DB00722;LISINOPRIL
479;DB00724;IMIQUIMOD
480;DB00726;TRIMIPRAMINE
481;DB00727;NITROGLYCERIN
482;DB00728;ROCURONIUM
483;DB00730;THIABENDAZOLE
484;DB00731;NATEGLINIDE
485;DB00732;ATRACURIUM
486;DB00734;RISPERIDONE
487;DB00735;NAFTIFINE
488;DB00736;ESOMEPRAZOLE
489;DB00737;MECLIZINE
490;DB00738;PENTAMIDINE
491;DB00740;RILUZOLE
492;DB00741;HYDROCORTISONE
493;DB00742;MANNITOL
494;DB00743;GADOBENATE DIMEGLUMINE
495;DB00744;ZILEUTON
496;DB00745;MODAFINIL
497;DB00746;DEFEROXAMINE
498;DB00747;SCOPOLAMINE
499;DB00748;CARBINOXAMINE
500;DB00749;ETODOLAC
501;DB00751;EPINASTINE
502;DB00752;TRANYLCYPROMINE
503;DB00753;ISOFLURANE
504;DB00755;TRETINOIN
505;DB00756;HEXACHLOROPHENE
506;DB00757;DOLASETRON
507;DB00758;CLOPIDOGREL
508;DB00759;TETRACYCLINE
509;DB00760;MEROPENEM
510;DB00761;POTASSIUM CHLORIDE
511;DB00762;IRINOTECAN
512;DB00763;METHIMAZOLE
513;DB00764;MOMETASONE
514;DB00766;CLAVULANATE
515;DB00768;OLOPATADINE
516;DB00770;ALPROSTADIL
517;DB00771;CLIDINIUM
518;DB00772;MALATHION
519;DB00773;ETOPOSIDE
520;DB00775;TIROFIBAN
521;DB00776;OXCARBAZEPINE
522;DB00777;PROPIOMAZINE
523;DB00778;ROXITHROMYCIN
524;DB00780;PHENELZINE
525;DB00781;POLYMYXIN B SULFATE
526;DB00782;PROPANTHELINE
527;DB00783;ESTRADIOL
528;DB00784;MEFENAMIC ACID
529;DB00787;ACYCLOVIR
530;DB00788;NAPROXEN
531;DB00789;GADOPENTETATE DIMEGLUMINE
532;DB00790;PERINDOPRIL
533;DB00794;PRIMIDONE
534;DB00795;SULFASALAZINE
535;DB13919;CANDESARTAN
536;DB00798;GENTAMICIN
537;DB00802;ALFENTANIL
538;DB00803;COLISTIN
539;DB00804;DICYCLOMINE
540;DB00806;PENTOXIFYLLINE
541;DB00807;PROPARACAINE
542;DB00808;INDAPAMIDE
543;DB00809;TROPICAMIDE
544;DB00810;BIPERIDEN
545;DB00811;RIBAVIRIN
546;DB00813;FENTANYL
547;DB00814;MELOXICAM
548;DB00816;ORCIPRENALINE
549;DB00818;PROPOFOL
550;DB00819;ACETAZOLAMIDE
551;DB00820;TADALAFIL
552;DB00822;DISULFIRAM
553;DB00823;ETHYNODIOL DIACETATE
554;DB00824;ENPROFYLLINE
555;DB00828;FOSFOMYCIN
556;DB00829;DIAZEPAM
557;DB00831;TRIFLUOPERAZINE
558;DB00833;CEFACLOR
559;DB00834;MIFEPRISTONE
560;DB00835;BROMPHENIRAMINE
561;DB00836;LOPERAMIDE
562;DB00839;TOLAZAMIDE
563;DB00841;DOBUTAMINE
564;DB00842;OXAZEPAM
565;DB00843;DONEPEZIL
566;DB00844;NALBUPHINE
567;DB00845;CLOFAZIMINE
568;DB00846;FLURANDRENOLIDE
569;DB00847;CYSTEAMINE
570;DB00849;METHYLPHENOBARBITAL
571;DB00850;PERPHENAZINE
572;DB00851;DACARBAZINE
573;DB00852;PSEUDOEPHEDRINE
574;DB00853;TEMOZOLOMIDE
575;DB00857;TERBINAFINE
576;DB00859;PENICILLAMINE
577;DB00860;PREDNISOLONE
578;DB00861;DIFLUNISAL
579;DB00862;VARDENAFIL
580;DB00863;RANITIDINE
581;DB00864;TACROLIMUS
582;DB00867;RITODRINE
583;DB00868;BENZONATATE
584;DB00869;DORZOLAMIDE
585;DB00870;SUPROFEN
586;DB00871;TERBUTALINE
587;DB00873;LOTEPREDNOL
588;DB00874;GUAIFENESIN
589;DB00875;FLUPENTHIXOL
590;DB00876;EPROSARTAN
591;DB00877;SIROLIMUS
592;DB00878;CHLORHEXIDINE
593;DB00879;EMTRICITABINE
594;DB00880;CHLOROTHIAZIDE
595;DB00881;QUINAPRIL
596;DB00882;CLOMIFENE
597;DB00883;ISOSORBIDE DINITRATE
598;DB00884;RISEDRONATE
599;DB00887;BUMETANIDE
600;DB00888;MECHLORETHAMINE
601;DB00889;GRANISETRON
602;DB00892;OXYBUPROCAINE
603;;IRON DEXTRAN
604;DB00897;TRIAZOLAM
605;DB00898;ETHANOL
606;DB00899;REMIFENTANIL
607;DB00900;DIDANOSINE
608;DB00901;BITOLTEROL
609;DB00903;ETHACRYNIC ACID
610;DB00904;ONDANSETRON
611;DB00905;BIMATOPROST
612;DB00906;TIAGABINE
613;DB00907;COCAINE
614;DB00908;QUINIDINE
615;DB00909;ZONISAMIDE
616;DB00910;PARICALCITOL
617;DB00911;TINIDAZOLE
618;DB00912;REPAGLINIDE
619;DB00913;ANILERIDINE
620;DB00915;AMANTADINE
621;DB00916;METRONIDAZOLE
622;DB00917;DINOPROSTONE
623;DB00918;ALMOTRIPTAN
624;DB00920;KETOTIFEN
625;DB00921;BUPRENORPHINE
626;DB00924;CYCLOBENZAPRINE
627;DB00925;PHENOXYBENZAMINE
628;DB00926;ETRETINATE
629;DB00927;FAMOTIDINE
630;DB00928;AZACITIDINE
631;DB00929;MISOPROSTOL
632;;COLESEVELAM
633;DB00931;METHACYCLINE
634;DB00932;TIPRANAVIR
635;DB00933;MESORIDAZINE
636;DB00934;MAPROTILINE
637;DB00935;OXYMETAZOLINE
638;DB00936;SALICYCLIC ACID
639;DB00937;DIETHYLPROPION
640;DB00938;SALMETEROL
641;DB00943;ZALCITABINE
642;DB00945;ACETYLSALICYLIC ACID
643;DB00946;PHENPROCOUMON
644;DB00947;FULVESTRANT
645;DB00949;FELBAMATE
646;DB00950;FEXOFENADINE
647;DB00951;ISONIAZID
648;DB00952;NARATRIPTAN
649;DB00953;RIZATRIPTAN
650;DB00954;DIRITHROMYCIN
651;DB00955;NETILMICIN
652;DB00956;HYDROCODONE
653;DB00957;NORGESTIMATE
654;DB00958;CARBOPLATIN
655;DB00959;METHYLPREDNISOLONE
656;DB00960;PINDOLOL
657;DB00961;MEPIVACAINE
658;DB00962;ZALEPLON
659;DB00963;BROMFENAC
660;DB00966;TELMISARTAN
661;DB00967;DESLORATADINE
662;DB00968;METHYLDOPA
663;DB00969;ALOSETRON
664;DB00970;DACTINOMYCIN
665;DB00971;SELENIUM SULFIDE
666;DB00972;AZELASTINE
667;DB00973;EZETIMIBE
668;DB00975;DIPYRIDAMOLE
669;DB00976;TELITHROMYCIN
670;DB00977;ETHINYL ESTRADIOL
671;DB00978;LOMEFLOXACIN
672;DB00979;CYCLOPENTOLATE
673;DB00980;RAMELTEON
674;DB00982;ISOTRETINOIN
675;DB00983;FORMOTEROL
676;DB00985;DIMENHYDRINATE
677;DB00986;GLYCOPYRROLATE
678;DB00987;CYTARABINE
679;DB00988;DOPAMINE
680;DB00989;RIVASTIGMINE
681;DB00990;EXEMESTANE
682;DB00991;OXAPROZIN
683;DB00993;AZATHIOPRINE
684;DB00452;NEOMYCIN
685;DB00995;AURANOFIN
686;DB00996;GABAPENTIN
687;DB00997;DOXORUBICIN
688;DB00998;FROVATRIPTAN
689;DB00999;HYDROCHLOROTHIAZIDE
690;DB01001;SALBUTAMOL
691;DB01002;LEVOBUPIVACAINE
692;DB01003;CROMOGLICIC ACID
693;DB01004;GANCICLOVIR
694;DB01005;HYDROXYUREA
695;DB01006;LETROZOLE
696;DB01007;TIOCONAZOLE
697;DB01008;BUSULFAN
698;DB01009;KETOPROFEN
699;DB01011;METYRAPONE
700;DB01012;CINACALCET
701;DB11750;CLOBETASOL
702;DB01014;BALSALAZIDE
703;DB01015;SULFAMETHOXAZOLE
704;DB01016;GLYBURIDE
705;DB01017;MINOCYCLINE
706;DB01018;GUANFACINE
707;DB01019;BETHANECHOL
708;DB01020;ISOSORBIDE MONONITRATE
709;DB01021;TRICHLORMETHIAZIDE
710;DB01022;PHYTONADIONE
711;DB01023;FELODIPINE
712;DB01024;MYCOPHENOLIC ACID
713;DB01026;KETOCONAZOLE
714;DB01028;METHOXYFLURANE
715;DB01029;IRBESARTAN
716;DB01030;TOPOTECAN
717;DB01032;PROBENECID
718;DB01033;MERCAPTOPURINE
719;DB01035;PROCAINAMIDE
720;DB01036;TOLTERODINE
721;DB01037;SELEGILINE
722;DB01039;FENOFIBRATE
723;DB01041;THALIDOMIDE
724;DB01042;MELPHALAN
725;DB01043;MEMANTINE
726;DB01044;GATIFLOXACIN
727;DB01045;RIFAMPIN
728;DB01046;LUBIPROSTONE
729;DB01047;FLUOCINONIDE
730;DB01048;ABACAVIR
731;;ERGOLOID MESYLATE
732;DB01050;IBUPROFEN
733;DB01053;PENICILLIN G
734;DB01054;NITRENDIPINE
735;DB01058;PRAZIQUANTEL
736;DB01059;NORFLOXACIN
737;DB01060;AMOXICILLIN
738;DB01062;OXYBUTYNIN
739;DB01064;ISOPROTERENOL
740;DB01065;MELATONIN
741;DB01066;CEFDITOREN
742;DB01067;GLIPIZIDE
743;DB01068;CLONAZEPAM
744;DB01069;PROMETHAZINE
745;DB01070;DIHYDROTACHYSTEROL
746;DB01071;MEQUITAZINE
747;DB01072;ATAZANAVIR
748;DB01073;FLUDARABINE
749;DB01074;PERHEXILINE
750;DB01075;DIPHENHYDRAMINE
751;DB01076;ATORVASTATIN
752;DB01077;ETIDRONIC ACID
753;DB01078;DESLANOSIDE
754;DB01079;TEGASEROD
755;DB01080;VIGABATRIN
756;DB01081;DIPHENOXYLATE
757;DB01082;STREPTOMYCIN
758;DB01083;ORLISTAT
759;DB01085;PILOCARPINE
760;DB01087;PRIMAQUINE
761;DB01088;ILOPROST
762;DB01091;BUTENAFINE
763;DB01095;FLUVASTATIN
764;DB01097;LEFLUNOMIDE
765;DB01098;ROSUVASTATIN
766;DB01099;FLUCYTOSINE
767;DB01100;PIMOZIDE
768;DB01101;CAPECITABINE
769;DB01104;SERTRALINE
770;DB01105;SIBUTRAMINE
771;DB01106;LEVOCABASTINE
772;DB01110;MICONAZOLE
773;DB01112;CEFUROXIME
774;DB01113;PAPAVERINE
775;DB01114;CHLORPHENIRAMINE
776;DB01115;NIFEDIPINE
777;DB01117;ATOVAQUONE
778;DB01118;AMIODARONE
779;DB01119;DIAZOXIDE
780;DB01120;GLICLAZIDE
781;DB01122;AMBENONIUM
782;DB01124;TOLBUTAMIDE
783;DB01126;DUTASTERIDE
784;DB01127;ECONAZOLE
785;DB01128;BICALUTAMIDE
786;DB01129;RABEPRAZOLE
787;DB01131;PROGUANIL
788;DB01132;PIOGLITAZONE
789;DB01136;CARVEDILOL
790;DB01137;LEVOFLOXACIN
791;DB01138;SULFINPYRAZONE
792;DB01140;CEFADROXIL
793;DB01141;MICAFUNGIN
794;DB01142;DOXEPIN
795;DB01143;AMIFOSTINE
796;DB01146;DIPHENYLPYRALINE
797;DB01147;CLOXACILLIN
798;DB01148;FLAVOXATE
799;DB01149;NEFAZODONE
800;DB01150;CEFPROZIL
801;DB01151;DESIPRAMINE
802;DB01155;GEMIFLOXACIN
803;DB01156;BUPROPION
804;DB01157;TRIMETREXATE
805;DB01159;HALOTHANE
806;DB01162;TERAZOSIN
807;DB01164;CALCIUM CHLORIDE
808;DB01165;OFLOXACIN
809;DB01166;CILOSTAZOL
810;DB01167;ITRACONAZOLE
811;DB01168;PROCARBAZINE
812;DB01169;ARSENIC TRIOXIDE
813;DB01171;MOCLOBEMIDE
814;DB01172;KANAMYCIN
815;DB01173;ORPHENADRINE
816;DB01174;PHENOBARBITAL
817;DB01175;ESCITALOPRAM
818;DB01176;CYCLIZINE
819;DB01177;IDARUBICIN
820;DB01179;PODOFILOX
821;DB01181;IFOSFAMIDE
822;DB01182;PROPAFENONE
823;DB01183;NALOXONE
824;DB01184;DOMPERIDONE
825;DB01185;FLUOXYMESTERONE
826;DB01186;PERGOLIDE
827;DB01188;CICLOPIROX
828;DB01189;DESFLURANE
829;DB01190;CLINDAMYCIN
830;DB01191;DEXFENFLURAMINE
831;DB01192;OXYMORPHONE
832;DB01193;ACEBUTOLOL
833;DB01194;BRINZOLAMIDE
834;DB01195;FLECAINIDE
835;DB01196;ESTRAMUSTINE
836;DB01197;CAPTOPRIL
837;DB01198;ZOPICLONE
838;DB01199;TUBOCURARINE
839;DB01200;BROMOCRIPTINE
840;DB01201;RIFAPENTINE
841;DB01202;LEVETIRACETAM
842;DB01203;NADOLOL
843;DB01204;MITOXANTRONE
844;DB01205;FLUMAZENIL
845;DB01206;LOMUSTINE
846;DB01210;LEVOBUNOLOL
847;DB01211;CLARITHROMYCIN
848;DB01212;CEFTRIAXONE
849;DB01215;ESTAZOLAM
850;DB01216;FINASTERIDE
851;DB01217;ANASTROZOLE
852;DB01219;DANTROLENE
853;DB01220;RIFAXIMIN
854;DB01221;KETAMINE
855;DB01222;BUDESONIDE
856;DB01223;AMINOPHYLLINE
857;DB01224;QUETIAPINE
858;DB01226;MIVACURIUM
859;DB01229;PACLITAXEL
860;DB01230;PEMOLINE
861;DB01231;DIPHENIDOL
862;DB01232;SAQUINAVIR
863;DB01233;METOCLOPRAMIDE
864;DB01234;DEXAMETHASONE
865;DB01235;LEVODOPA
866;DB01236;SEVOFLURANE
867;DB01238;ARIPIPRAZOLE
868;DB01239;CHLORPROTHIXENE
869;DB01240;EPOPROSTENOL
870;DB01241;GEMFIBROZIL
871;DB01242;CLOMIPRAMINE
872;DB01244;BEPRIDIL
873;DB01246;TRIMEPRAZINE
874;DB01247;ISOCARBOXAZID
875;DB01248;DOCETAXEL
876;DB01249;IODIXANOL
877;DB01250;OLSALAZINE
878;DB01251;GLIQUIDONE
879;DB01252;MITIGLINIDE
880;DB01254;DASATINIB
881;DB01255;LISDEXAMFETAMINE
882;DB01259;LAPATINIB
883;DB01260;DESONIDE
884;DB01261;SITAGLIPTIN
885;DB01262;DECITABINE
886;DB01263;POSACONAZOLE
887;DB01264;DARUNAVIR
888;DB01265;TELBIVUDINE
889;DB01267;PALIPERIDONE
890;DB01268;SUNITINIB
891;DB01273;VARENICLINE
892;DB01274;ARFORMOTEROL
893;DB01275;HYDRALAZINE
894;DB01280;NELARABINE
895;DB01283;LUMIRACOXIB
896;DB01288;FENOTEROL
897;DB01291;PIRBUTEROL
898;DB01294;BISMUTH SUBSALICYLATE
899;DB01295;BEVANTOLOL
900;DB01296;GLUCOSAMINE
901;DB01319;FOSAMPRENAVIR
902;DB01320;FOSPHENYTOIN
903;DB01321;JOSAMYCIN
904;DB01327;CEFAZOLIN
905;DB01329;CEFOPERAZONE
906;DB01330;CEFOTETAN
907;DB01331;CEFOXITIN
908;DB01337;PANCURONIUM
909;DB01339;VECURONIUM
910;DB01340;CILAZAPRIL
911;;POLYSTYRENE SULFONATE
912;DB01345;POTASSIUM
913;DB01351;AMOBARBITAL
914;DB01356;LITHIUM
915;DB01359;PENBUTOLOL
916;DB01362;IOHEXOL
917;DB01364;EPHEDRINE
918;DB01366;PROCATEROL
919;DB01367;RASAGILINE
920;DB01370;ALUMINIUM
921;DB01373;CALCIUM
922;DB01377;MAGNESIUM OXIDE
923;DB01378;MAGNESIUM
924;DB01380;CORTISONE ACETATE
925;DB01390;SODIUM BICARBONATE
926;DB01392;YOHIMBINE
927;DB01393;BEZAFIBRATE
928;DB01394;COLCHICINE
929;DB01395;DROSPIRENONE
930;DB01396;DIGITOXIN
931;DB01399;SALSALATE
932;DB01400;NEOSTIGMINE
933;DB01403;METHOTRIMEPRAZINE
934;DB01406;DANAZOL
935;DB01407;CLENBUTEROL
936;DB01408;BAMBUTEROL
937;DB01409;TIOTROPIUM
938;DB01410;CICLESONIDE
939;DB01411;PRANLUKAST
940;DB01413;CEFEPIME
941;DB01415;CEFTIBUTEN
942;DB01416;CEFPODOXIME
943;DB01418;ACENOCOUMAROL
944;DB01425;ALIZAPRIDE
945;DB01429;APRINDINE
946;;CHOLESTYRAMINE
947;DB01436;ALFACALCIDOL
948;DB01438;PHENAZOPYRIDINE
949;DB01440;GAMMA HYDROXYBUTYRIC ACID
950;DB01452;HEROIN
951;DB01454;3,4-METHYLENEDIOXYMETHAMPHETAMINE
952;DB01476;HALOXAZOLAM
953;DB01511;DELORAZEPAM
954;DB01544;FLUNITRAZEPAM
955;DB01545;ETHYL LOFLAZEPATE
956;DB01550;FENPROPOREX
957;DB01551;DIHYDROCODEINE
958;DB01553;CLOXAZOLAM
959;DB01558;BROMAZEPAM
960;DB01559;CLOTIAZEPAM
961;DB01563;CHLORAL HYDRATE
962;DB01567;FLUDIAZEPAM
963;DB01575;KAOLIN
964;DB01576;DEXTROAMPHETAMINE
965;DB01577;METHAMPHETAMINE
966;DB01583;LIOTRIX
967;DB01586;URSODEOXYCHOLIC ACID
968;DB01588;PRAZEPAM
969;DB01589;QUAZEPAM
970;DB01590;EVEROLIMUS
971;DB01591;SOLIFENACIN
972;DB01592;IRON
973;DB01593;ZINC
974;DB01595;NITRAZEPAM
975;DB01597;CILASTATIN
976;DB01598;IMIPENEM
977;DB01599;PROBUCOL
978;DB01600;TIAPROFENIC ACID
979;DB01601;LOPINAVIR
980;DB01605;PIVMECILLINAM
981;DB01606;TAZOBACTAM
982;DB01608;PROPERICIAZINE
983;DB01609;DEFERASIROX
984;DB01610;VALGANCICLOVIR
985;DB01611;HYDROXYCHLOROQUINE
986;DB01614;ACEPROMAZINE
987;DB01615;ACEPROMETAZINE
988;DB01616;ALVERINE
989;DB01618;MOLINDONE
990;DB01620;PHENIRAMINE
991;DB01621;PIPOTIAZINE
992;DB01623;THIOTHIXENE
993;DB01624;ZUCLOPENTHIXOL
994;DB01627;LINCOMYCIN
995;DB01628;ETORICOXIB
996;DB01656;ROFLUMILAST
997;DB01677;FUMARATE
998;DB01708;DEHYDROEPIANDROSTERONE
999;DB01783;PANTOTHENIC ACID
1000;DB01936;RIBOSE
1001;DB01992;COENZYME A
1002;DB02262;OROTIC ACID
1003;DB02300;CALCIPOTRIOL
1004;DB02546;VORINOSTAT
1005;DB02701;NICOTINAMIDE
1006;DB02703;FUSIDIC ACID
1007;DB02712;SORBINIL
1008;DB02789;PREGNENOLONE
1009;DB02901;DIHYDROTESTOSTERONE
1010;DB02925;PIRETANIDE
1011;DB03147;FLAVIN-ADENINE DINUCLEOTIDE
1012;DB03166;ACETIC ACID
1013;DB03193;STEARIC ACID
1014;DB03255;PHENOL
1015;DB03323;MALTOSE
1016;DB03575;PHENCYCLIDINE
1017;DB03585;OXYPHENBUTAZONE
1018;DB03904;UREA
1019;DB04115;BERBERINE
1020;DB04173;FRUCTOSE
1021;DB04216;QUERCETIN
1022;DB04339;CARBOXYMETHYLENECYSTEINE
1023;DB04398;LACTIC ACID
1024;DB04465;LACTOSE
1025;DB04540;CHOLESTEROL
1026;DB04552;NIFLUMIC ACID
1027;DB04572;THIOTEPA
1028;DB04573;ESTRIOL
1029;DB04574;ESTROPIPATE
1030;DB04630;ALDOSTERONE
1031;DB04743;NIMESULIDE
1032;DB04812;BENOXAPROFEN
1033;DB04815;CLIOQUINOL
1034;DB04816;DANTRON
1035;DB04817;DIPYRONE
1036;DB04824;PHENOLPHTHALEIN
1037;DB04829;LYSERGIC ACID DIETHYLAMIDE
1038;DB04835;MARAVIROC
1039;DB04837;CHLOPHEDIANOL
1040;DB04839;CYPROTERONE
1041;DB04841;FLUNARIZINE
1042;DB04842;FLUSPIRILENE
1043;DB04843;MEPENZOLATE
1044;DB04844;TETRABENAZINE
1045;DB04845;IXABEPILONE
1046;DB04855;DRONEDARONE
1047;DB04861;NEBIVOLOL
1048;DB04868;NILOTINIB
1049;DB04876;VILDAGLIPTIN
1050;DB04878;VOGLIBOSE
1051;DB04880;ENOXIMONE
1052;;PEGAPTANIB
1053;DB04896;MILNACIPRAN
1054;DB04930;PERMETHRIN
1055;DB04946;ILOPERIDONE
1056;DB04953;EZOGABINE
1057;DB05039;INDACATEROL
1058;DB05109;TRABECTEDIN
1059;DB05245;SILVER SULFADIAZINE
1060;DB05265;ECABET
1061;DB05266;IBUDILAST
1062;DB05271;ROTIGOTINE
1063;DB05294;VANDETANIB
1064;DB05521;TELAPREVIR
1065;DB05630;SODIUM STIBOGLUCONATE
1066;DB05812;ABIRATERONE
1067;DB06144;SERTINDOLE
1068;DB06148;MIANSERIN
1069;;TEICOPLANIN
1070;DB06151;ACETYLCYSTEINE
1071;DB06155;RIMONABANT
1072;DB06196;ICATIBANT
1073;DB06201;RUFINAMIDE
1074;DB06203;ALOGLIPTIN
1075;DB06204;TAPENTADOL
1076;DB06207;SILODOSIN
1077;DB06209;PRASUGREL
1078;DB06210;ELTROMBOPAG
1079;DB06212;TOLVAPTAN
1080;DB06213;REGADENOSON
1081;DB06216;ASENAPINE
1082;DB06218;LACOSAMIDE
1083;DB06228;RIVAROXABAN
1084;DB06262;DROXIDOPA
1085;DB06268;SITAXENTAN
1086;DB06274;ALVIMOPAN
1087;DB06282;LEVOCETIRIZINE
1088;DB06287;TEMSIROLIMUS
1089;DB06288;AMISULPRIDE
1090;DB06335;SAXAGLIPTIN
1091;DB06402;TELAVANCIN
1092;DB06403;AMBRISENTAN
1093;DB06413;ARMODAFINIL
1094;DB06414;ETRAVIRINE
1095;DB06589;PAZOPANIB
1096;DB06594;AGOMELATINE
1097;DB06605;APIXABAN
1098;DB06626;AXITINIB
1099;DB06637;DALFAMPRIDINE
1100;DB06684;VILAZODONE
1101;DB06694;XYLOMETAZOLINE
1102;DB06695;DABIGATRAN ETEXILATE
1103;DB06698;BETAHISTINE
1104;DB06699;DEGARELIX
1105;DB06700;DESVENLAFAXINE
1106;DB06702;FESOTERODINE
1107;DB06703;GADOBUTROL
1108;DB06709;METHACHOLINE
1109;DB06710;METHYLTESTOSTERONE
1110;DB06711;NAPHAZOLINE
1111;DB06712;NILVADIPINE
1112;DB06713;NORELGESTROMIN
1113;DB06714;PROPYLHEXEDRINE
1114;DB06715;POTASSIUM IODIDE
1115;DB06718;STANOZOLOL
1116;DB06723;ALUMINUM HYDROXIDE
1117;DB06724;CALCIUM CARBONATE
1118;DB06725;LORNOXICAM
1119;DB06742;AMBROXOL
1120;DB06751;DROTAVERINE
1121;DB06768;AMMONIUM LACTATE
1122;DB06769;BENDAMUSTINE
1123;DB06772;CABAZITAXEL
1124;;DALTEPARIN
1125;DB06792;LANTHANUM CARBONATE
1126;DB06802;NEPAFENAC
1127;DB06811;POLIDOCANOL
1128;DB06817;RALTEGRAVIR
1129;DB08604;TRICLOSAN
1130;DB08797;SALICYLAMIDE
1131;DB08801;DIMETHINDENE
1132;DB08804;NANDROLONE DECANOATE
1133;DB08807;BOPINDOLOL
1134;DB08810;CINITAPRIDE
1135;DB08811;TOFISOPAM
1136;DB08814;TRIFLUSAL
1137;DB08815;LURASIDONE
1138;DB08816;TICAGRELOR
1139;DB08818;HYALURONAN
1140;DB08822;AZILSARTAN MEDOXOMIL
1141;DB08828;VISMODEGIB
1142;DB08836;TEMOCAPRIL
1143;DB08837;TETRAETHYLAMMONIUM
1144;DB08860;PITAVASTATIN
1145;DB08868;FINGOLIMOD
1146;DB08869;TESAMORELIN
1147;DB08871;ERIBULIN
1148;DB08872;GABAPENTIN ENACARBIL
1149;DB08873;BOCEPREVIR
1150;DB08881;VEMURAFENIB
1151;DB08882;LINAGLIPTIN
1152;DB08887;ICOSAPENT ETHYL
1153;DB08906;FLUTICASONE FUROATE
1154;DB09000;CYAMEMAZINE
1155;DB09017;BROTIZOLAM
1156;DB09020;BISACODYL
1157;DB09026;ALISKIREN
1158;DB09069;TRIMETAZIDINE
1159;DB09110;MESNA
1160;DB09140;OXYGEN
1161;DB09153;SODIUM CHLORIDE
1162;DB09156;IOPROMIDE
1163;DB09166;ETIZOLAM
1164;DB09212;LOXOPROFEN
1165;DB09220;NICORANDIL
1166;DB09230;AZELNIDIPINE
1167;DB09231;BENIDIPINE
1168;DB09232;CILNIDIPINE
1169;DB11093;CALCIUM CITRATE
1170;DB11126;CALCIUM GLUCONATE
1171;;DOCUSATE
1172;;FERROUS CITRATE
1173;DB03614;MECOBALAMIN
1174;DB00351;MEGESTROL
1175;DB12293;NEFOPAM
1176;DB00647;PROPOXYPHENE
1177;DB11656;REBAMIPIDE
1178;DB09268;SODIUM PICOSULFATE
1179;;TEPRENONE
1180;DB12248;TULOBUTEROL
