1	1075
2	984
3	1074
4	1077
5	958
6	865
7	1076
8	826
9	21
11	616
12	804
13	482
14	515
15	1086
16	504
17	498
18	930
19	944
20	874
21	776
22	955
23	20
24	5
25	514
26	472
27	23
28	931
29	547
30	495
31	858
32	853
33	568
34	22
35	502
36	783
37	932
38	664
39	193
40	698
41	1000
42	745
43	62
44	139
45	748
47	246
48	678
49	822
50	614
51	339
52	611
53	583
54	67
55	181
56	443
57	717
58	561
60	84
61	398
62	390
63	733
64	372
65	463
66	864
67	418
68	974
69	680
70	282
71	324
72	638
73	111
74	741
75	792
76	714
77	201
79	1003
80	1083
81	660
82	161
83	645
84	1015
85	406
86	270
87	322
89	283
90	81
91	296
92	977
93	82
94	579
95	674
96	263
97	893
98	700
100	665
101	136
102	843
103	28
104	1088
105	144
106	1103
107	125
108	503
109	508
110	53
111	90
112	401
113	275
114	130
115	383
116	231
117	973
118	640
119	800
120	52
121	45
122	793
123	480
124	150
125	217
126	323
127	594
129	447
130	1085
131	950
132	848
133	667
135	96
136	887
137	1040
138	976
139	806
140	78
141	914
142	327
143	1013
144	581
145	427
146	789
147	636
148	457
149	743
150	690
151	635
152	103
153	329
154	152
156	702
157	30
158	774
159	957
160	644
161	553
162	48
163	927
164	549
165	1073
166	964
167	222
168	565
169	266
170	884
171	267
172	311
173	58
174	1006
175	1033
176	312
177	19
178	272
179	94
180	410
181	630
182	370
183	37
184	438
185	765
186	115
187	284
188	900
189	530
190	520
192	104
193	256
194	391
195	649
197	803
198	127
200	737
201	157
202	562
203	825
204	684
205	285
206	261
207	414
208	610
209	1041
210	709
211	436
212	1025
213	538
214	278
215	49
216	321
217	431
218	360
219	496
220	601
221	901
222	402
223	303
224	582
225	89
226	485
227	593
228	815
229	727
230	830
231	304
232	892
233	40
234	248
235	861
236	468
237	742
238	767
239	509
240	523
241	387
242	658
243	362
244	469
245	271
246	268
247	796
248	452
249	170
251	10
252	512
253	359
254	134
255	63
256	38
257	1012
258	855
259	440
260	689
261	794
262	548
263	869
264	639
265	481
266	966
267	239
268	158
269	466
270	532
271	259
272	245
273	493
274	351
275	220
276	959
277	1001
278	290
279	731
280	235
281	918
282	1096
283	571
284	938
285	188
286	537
287	97
288	696
289	101
290	379
291	625
292	816
293	376
294	93
295	74
296	577
297	967
298	394
299	79
300	841
301	671
302	1020
303	942
304	618
305	850
306	969
307	192
308	425
309	107
310	206
311	823
312	567
313	4
314	996
315	110
316	34
317	1014
319	91
320	866
321	274
322	426
324	721
325	195
326	807
327	133
328	382
329	1038
330	109
332	309
333	483
334	999
335	51
336	187
337	371
338	981
339	60
340	450
341	883
342	827
343	1093
344	238
345	516
346	213
347	701
348	756
349	1101
350	155
351	778
352	87
353	712
354	595
355	108
357	563
358	369
359	805
360	174
361	122
362	691
363	768
364	558
365	735
366	557
367	1005
368	915
369	142
370	851
371	599
372	156
373	506
374	342
375	165
376	572
377	1090
378	985
379	687
380	237
381	907
382	844
384	513
385	1039
386	895
387	536
388	98
389	903
390	478
392	73
393	1021
394	1098
395	396
396	603
397	475
398	297
399	184
400	491
401	713
402	1068
403	15
404	123
405	36
406	766
407	982
408	473
409	118
410	57
412	707
413	663
414	860
415	252
417	286
418	576
419	489
420	159
421	835
422	587
423	987
424	474
425	429
426	925
427	730
428	570
429	85
430	439
431	300
432	11
433	465
434	403
435	997
436	102
437	1045
438	545
439	902
440	247
441	415
442	615
443	933
444	1097
445	281
446	619
448	604
449	941
450	189
451	749
452	464
453	574
454	600
455	196
456	529
457	421
458	1035
459	612
460	845
461	716
462	995
463	446
464	779
466	637
467	695
468	699
469	190
470	505
471	488
472	646
473	654
474	507
475	703
476	590
477	357
478	998
479	676
480	442
481	307
482	838
483	413
484	989
485	650
486	380
488	1052
489	254
490	328
491	378
492	458
493	510
495	682
496	289
497	137
498	905
499	88
500	169
501	162
502	428
503	228
504	430
505	208
506	916
507	683
508	1089
509	829
510	346
511	697
512	894
513	842
514	934
515	940
517	113
518	250
519	621
520	705
521	613
522	367
523	1037
524	216
525	345
526	365
527	461
528	255
529	33
530	797
532	758
533	353
534	994
535	86
537	657
539	143
540	330
541	366
542	221
543	444
544	71
545	624
546	177
547	1095
548	265
549	368
550	31
551	762
552	151
553	539
554	26
555	863
556	140
557	435
558	656
559	669
560	522
561	244
562	423
563	622
564	316
565	154
566	988
567	116
568	569
569	499
570	531
571	333
572	993
573	525
574	407
575	898
576	471
577	459
578	146
579	761
580	909
581	854
582	608
583	528
584	961
585	404
586	409
588	204
589	945
590	937
591	972
592	1051
593	704
594	99
595	668
596	119
597	524
598	393
599	77
600	253
601	962
602	317
603	757
604	432
605	9
606	693
607	655
608	617
609	164
610	313
611	978
612	685
613	857
614	828
615	453
616	943
617	419
618	723
619	533
620	41
621	276
622	929
623	771
624	236
625	878
626	131
627	338
629	171
630	542
631	953
633	1092
634	1100
635	264
636	251
637	319
638	2
639	526
640	385
641	586
642	56
643	1099
644	1080
645	172
646	178
647	229
648	292
649	381
650	1032
651	840
652	963
653	1034
654	627
655	521
656	340
657	260
658	451
659	688
660	724
661	775
662	626
663	39
664	870
665	588
666	61
667	788
668	149
669	910
670	484
671	242
672	132
673	811
674	952
675	194
676	836
678	511
679	8
680	739
681	681
682	315
683	59
684	532
686	197
687	606
688	740
689	210
690	35
691	751
692	129
693	198
694	212
695	241
696	420
697	80
698	234
699	277
700	798
701	979
702	1023
703	399
704	203
705	1091
706	205
707	68
708	596
709	433
710	971
711	173
712	859
713	233
714	269
715	226
716	686
717	354
718	888
719	356
720	847
721	592
722	175
723	412
724	871
725	257
726	405
727	1004
728	799
729	544
730	839
732	215
733	477
734	306
735	350
736	308
737	609
738	318
739	230
740	13
742	202
743	121
744	363
745	983
746	262
747	786
748	882
749	331
750	147
751	694
752	167
753	598
754	1002
755	448
756	564
757	578
758	917
759	479
760	352
761	986
762	83
763	896
764	240
765	856
766	182
767	573
768	706
769	726
770	389
771	662
772	280
773	1009
774	325
775	100
776	298
777	738
778	46
779	141
780	200
781	42
782	424
783	1043
784	160
785	70
786	375
787	361
788	341
789	92
790	787
791	400
792	653
793	873
794	886
795	44
796	148
797	501
798	179
799	293
800	936
801	138
802	1053
803	3
804	441
805	207
806	408
807	956
808	310
809	106
810	670
811	358
812	820
813	288
814	494
815	314
816	336
817	784
818	519
819	642
820	554
821	219
822	364
823	968
824	153
825	517
826	652
827	105
828	641
829	862
830	725
831	970
832	29
833	728
834	180
835	819
836	647
837	454
838	487
839	602
840	1022
841	965
842	629
843	287
844	185
845	243
846	631
847	746
848	1010
849	163
850	675
851	54
852	1036
853	1027
854	232
855	935
856	541
857	374
858	939
859	620
860	326
861	145
862	833
863	273
864	455
865	497
866	388
867	692
868	885
870	199
871	120
872	64
873	437
874	227
875	785
876	223
878	750
879	769
880	921
882	812
883	980
884	926
885	868
886	872
887	813
888	801
889	764
890	992
892	924
893	209
894	913
895	791
896	176
897	343
898	1079
899	69
900	824
901	781
902	673
903	947
904	607
906	659
907	831
908	837
909	632
910	672
913	50
915	623
916	224
917	540
918	889
919	920
921	1007
922	566
923	12
924	456
925	875
926	535
927	628
928	128
929	729
930	832
931	386
932	295
933	736
934	597
935	112
936	666
937	1016
938	1042
939	348
940	1011
941	951
942	1024
943	1094
944	643
945	55
947	948
948	334
949	919
950	1008
951	25
953	575
954	186
955	166
957	960
958	126
959	75
960	124
961	95
962	183
964	467
965	556
967	605
968	349
969	373
970	1028
971	795
974	305
975	1026
976	754
977	355
978	417
979	752
980	763
981	773
982	332
983	1018
984	715
985	211
986	500
987	591
988	218
989	585
990	335
991	711
992	891
993	990
994	906
995	772
996	867
997	852
998	476
1001	747
1002	16
1003	975
1004	397
1005	14
1006	904
1007	821
1008	534
1009	555
1010	344
1011	877
1012	1
1013	395
1014	18
1016	518
1017	320
1018	24
1019	65
1021	928
1022	808
1023	7
1025	486
1026	299
1027	416
1028	460
1029	908
1030	470
1031	302
1032	633
1033	114
1034	135
1035	876
1036	337
1037	462
1038	911
1039	117
1040	550
1041	890
1042	191
1043	258
1044	492
1045	1030
1046	810
1047	732
1048	879
1049	1048
1050	849
1051	661
1053	720
1054	634
1055	734
1056	770
1057	1049
1058	760
1059	834
1060	719
1061	214
1062	677
1063	922
1064	912
1066	782
1067	679
1068	279
1070	560
1071	755
1073	780
1074	1071
1075	1056
1076	991
1077	1046
1078	1057
1080	817
1081	1072
1082	818
1083	1061
1084	753
1085	814
1086	1017
1087	897
1089	47
1090	1070
1091	923
1092	1047
1093	1054
1094	809
1095	1064
1096	744
1097	1066
1098	1031
1099	27
1100	1044
1101	449
1102	1029
1103	66
1104	1078
1105	777
1106	1050
1108	32
1109	490
1110	291
1111	301
1113	527
1114	347
1115	589
1116	1065
1117	552
1118	1102
1119	43
1120	899
1121	708
1122	718
1123	1058
1126	790
1127	880
1128	1087
1129	434
1130	384
1131	584
1132	546
1133	648
1135	422
1136	543
1138	1060
1140	1069
1141	1082
1142	846
1143	411
1144	954
1145	759
1148	1062
1149	1067
1150	1084
1151	1063
1152	1055
1153	1059
1154	710
1155	76
1156	72
1157	1019
1158	580
1159	6
1160	17
1161	392
1162	225
1163	168
1164	249
1165	651
1166	722
1167	881
1168	946
1171	1081
1174	559
1175	294
1176	551
1177	377
1179	949
1180	445
