1092 1112 336
363 761 866
1006 869 454
888 519 869
615 819 888
1157 202 821
888 76 222
884 1112 843
333 50 888
80 326 605
1029 80 1089
1128 202 303
1029 326 504
504 1022 888
44 724 323
551 819 293
1022 454 1112
57 1145 1046
202 1176 1022
819 334 222
454 531 347
414 1145 209
6 882 929
758 712 1177
91 1102 1112
1006 293 91
747 748 1046
888 1082 937
1006 288 607
823 333 50
819 866 224
591 964 1022
326 198 347
544 712 434
91 761 57
1112 293 168
347 80 1046
544 511 468
1006 869 504
697 75 2
1006 304 57
44 678 303
821 347 104
303 140 454
209 1022 137
363 264 613
261 819 595
202 730 819
511 613 1092
1029 654 1112
96 687 209
761 255 333
1092 196 475
303 454 747
882 209 418
761 202 414
418 884 347
137 140 295
295 747 697
810 347 544
810 531 209
264 76 140
6 475 544
869 336 888
712 504 544
748 59 1006
1128 866 1082
1092 819 890
363 888 819
970 418 531
137 261 595
363 810 1157
80 866 336
544 1029 654
347 418 866
91 869 1082
593 260 140
43 712 196
670 654 544
1082 697 889
80 544 653
653 395 888
531 311 323
888 1022 171
401 1145 323
725 264 504
168 475 1082
758 697 544
348 748 866
761 347 264
888 890 1112
76 1092 882
260 1006 209
888 549 504
295 137 414
613 819 209
970 869 531
712 504 859
843 209 758
869 748 344
1089 196 363
209 98 1128
414 303 613
1006 261 531
209 888 315
475 264 245
970 697 761
866 888 531
613 334 186
303 670 264
725 264 869
6 888 91
348 1082 724
843 888 605
653 336 80
363 678 1046
196 605 888
1092 964 228
449 882 888
76 50 882
613 1046 475
1157 209 97
414 866 137
869 97 196
888 724 168
1046 823 418
76 80 468
544 264 653
979 1029 454
823 347 678
747 6 202
186 97 6
80 866 882
468 475 591
888 761 867
712 454 1145
315 712 888
2 1145 1089
859 761 1006
327 889 303
96 347 531
549 418 414
1082 888 49
209 260 1145
209 1022 697
292 1082 613
788 504 209
748 615 1089
888 819 937
1082 264 653
889 869 419
1092 347 44
889 687 1145
712 521 264
888 418 653
605 843 295
98 76 531
748 76 866
670 261 819
819 137 1092
653 454 593
1029 1006 304
687 888 44
888 964 687
1046 315 475
697 1157 433
1046 866 1112
326 6 1089
891 591 1006
475 653 869
1145 6 821
819 1022 593
245 678 80
209 326 1128
866 712 891
292 1082 866
137 196 531
97 697 1157
1046 723 866
724 979 96
1102 929 819
264 168 81
304 1112 326
670 126 168
414 653 607
613 821 15
1082 869 678
202 1092 724
869 1112 475
1046 418 137
44 761 292
593 6 384
823 607 888
81 186 1006
730 819 1022
748 1157 544
209 172 80
326 474 843
1029 1022 613
347 591 1046
1029 531 209
6 1145 810
653 747 723
747 678 50
222 91 869
882 474 1128
1029 143 748
98 196 888
1006 6 80
1082 888 605
591 866 418
1022 1145 730
336 186 712
168 504 475
565 888 819
869 1006 336
261 937 866
653 888 519
591 511 1029
866 843 551
979 697 866
670 91 126
475 929 843
697 474 1177
97 347 326
347 292 531
202 292 303
323 1157 347
80 607 653
519 866 758
209 768 889
613 819 869
50 333 613
303 730 724
697 468 475
295 678 137
2 819 1145
186 819 742
888 418 1176
730 866 260
970 91 888
76 137 1157
859 544 869
137 140 414
303 747 697
859 653 261
613 264 115
511 186 1006
531 888 867
758 209 890
2 819 1082
6 613 115
758 859 613
222 823 1082
202 1092 890
1046 1006 615
653 519 889
595 712 821
80 527 979
2 823 761
1112 697 869
419 712 202
819 607 725
80 1082 418
591 613 418
1128 326 363
348 414 888
186 819 929
1029 264 613
888 511 401
80 819 670
929 544 292
761 889 519
697 98 255
209 1157 140
209 595 140
747 761 202
1092 768 414
869 1006 819
1022 91 761
712 504 888
889 209 748
217 255 697
531 1089 819
137 1046 768
1112 768 140
202 511 303
126 1006 209
888 1102 91
196 810 1145
869 475 414
607 1112 303
298 613 1006
81 544 80
1046 196 496
1112 711 888
119 819 347
137 697 711
1022 295 823
76 1029 823
91 748 869
347 983 882
168 866 653
454 115 613
1145 748 418
888 454 521
654 140 888
326 347 76
293 347 823
126 1006 98
819 869 344
1029 137 315
1082 605 2
929 890 819
1022 821 605
866 697 336
126 323 1092
1128 58 475
1145 1089 454
6 222 712
1128 44 711
929 821 1102
866 260 888
168 843 1046
347 882 328
531 758 336
882 544 475
1128 315 303
697 653 91
964 333 228
843 334 532
531 336 186
326 97 6
970 1006 97
875 1112 261
1006 531 1112
140 196 653
730 1006 819
546 1006 888
80 964 869
1029 76 323
264 727 209
1145 888 979
264 551 293
209 261 419
261 80 245
303 821 866
1112 1046 531
843 613 888
76 889 1029
859 137 531
44 255 761
1029 80 475
475 62 1089
724 761 866
264 80 1046
519 670 1102
98 712 315
1022 1145 1046
653 418 890
511 747 454
866 747 882
44 888 348
336 866 888
1128 414 209
761 615 419
653 295 414
347 697 59
866 143 511
712 98 819
843 869 237
527 1006 196
697 889 1006
326 1112 418
866 475 115
882 1046 474
474 196 1128
869 347 414
758 347 2
6 91 1046
929 168 890
264 888 474
511 347 137
209 76 1022
979 748 1029
843 326 98
1046 531 172
605 347 888
551 866 511
964 196 727
511 653 168
668 888 91
91 531 303
697 418 1112
1082 91 821
697 869 1145
768 1082 140
6 347 747
605 875 1082
1176 888 76
1092 222 140
76 323 843
1112 870 475
1092 748 186
1022 434 712
565 209 511
1082 126 348
888 454 121
823 423 76
474 1177 607
821 202 1102
347 626 264
504 295 866
819 334 186
363 1089 697
748 823 326
91 1102 670
304 758 80
264 869 222
816 821 653
593 697 303
748 888 97
1145 328 697
869 1082 414
613 348 531
1112 1128 1022
929 821 1102
531 819 33
1157 1089 653
91 768 761
475 591 613
292 888 202
970 866 819
454 348 414
866 468 653
454 1102 44
821 1145 1046
1128 6 983
697 544 6
761 1006 866
964 303 196
261 964 697
613 869 347
653 1102 418
748 1029 91
866 1145 607
511 725 869
1157 347 418
1112 889 882
295 196 747
303 929 748
544 758 859
1006 964 1177
653 454 869
712 202 819
326 819 140
202 1089 260
414 593 363
91 384 866
1102 810 653
712 98 866
724 1006 91
549 403 196
866 44 727
418 889 890
6 867 888
748 168 245
889 414 531
866 747 758
168 748 531
869 1022 821
888 1145 723
929 544 1092
1006 209 748
970 348 1089
544 209 859
222 76 474
544 724 823
889 196 209
544 414 454
1089 1092 49
843 209 186
613 532 347
209 511 605
44 209 264
80 414 140
315 1145 888
1082 1046 1029
866 384 418
1089 80 615
531 137 97
816 843 347
1128 6 1112
1046 347 819
1006 202 565
1089 1157 697
445 261 653
347 724 1082
1092 758 544
730 202 866
821 1046 91
454 1089 348
970 565 1029
209 6 168
819 348 80
298 823 347
504 1089 326
224 261 454
140 1022 889
504 1029 209
888 712 315
607 347 1112
196 91 1092
6 80 1145
888 758 678
1082 80 823
454 653 1157
1145 730 303
414 697 1145
678 1046 347
418 264 598
347 414 6
209 888 531
97 723 1046
91 869 890
347 98 126
1089 888 504
217 222 712
80 511 474
1145 979 1092
565 653 454
44 819 209
1128 748 888
186 819 742
697 261 295
1046 1006 723
1112 983 418
347 81 264
712 363 821
143 1082 843
1089 819 433
821 668 504
1006 1112 819
653 295 333
869 654 544
1089 723 888
1145 97 80
1145 315 140
979 758 414
140 761 57
91 326 1112
1092 475 613
196 531 347
653 1082 209
1046 261 1089
888 168 336
1046 264 401
44 414 348
675 454 613
304 1145 323
712 593 140
80 323 747
414 889 347
347 626 255
761 747 1022
1102 91 196
748 1089 670
544 264 81
15 454 888
551 929 261
168 890 819
222 653 255
1157 264 168
348 323 44
613 675 475
384 697 761
697 326 670
347 983 76
504 293 747
1092 697 970
882 869 605
889 888 859
293 504 143
1082 80 140
1006 521 126
843 866 1046
81 255 80
725 866 819
758 91 748
196 549 80
475 821 352
747 819 758
697 2 653
889 1006 292
1157 202 80
613 875 186
964 348 724
531 1046 336
292 929 209
747 1046 323
929 264 475
724 202 1006
418 532 613
1006 687 613
821 186 384
653 168 595
303 821 1029
544 531 474
1089 697 1082
1089 303 843
414 888 653
875 76 889
1006 882 1112
891 819 6
347 137 819
91 323 983
80 551 293
80 527 888
347 293 2
884 401 748
761 821 58
869 1082 454
1145 260 1092
727 475 511
748 1046 1082
889 979 96
1112 865 76
575 697 613
544 591 1157
91 208 196
593 293 1112
668 821 889
725 758 209
1145 140 730
544 1006 261
1112 1082 333
475 97 531
76 823 1029
723 186 97
821 725 866
1112 888 326
888 328 531
511 888 613
504 6 761
414 347 1006
544 196 475
168 1157 531
1112 1022 143
697 303 1128
1112 819 323
768 979 1145
1089 1029 312
326 748 137
98 1128 326
613 591 511
888 347 889
725 888 1006
49 209 504
57 1006 1046
1112 91 264
303 531 1112
889 209 261
414 1082 6
347 49 761
1092 347 866
697 1022 1029
1046 347 544
363 168 475
823 712 303
80 44 1177
1157 866 504
264 347 384
890 866 712
613 2 653
748 418 882
605 1145 292
1046 347 697
414 697 869
519 168 1046
1145 311 882
80 475 678
1112 295 1082
1006 819 889
1102 414 531
866 496 454
1006 76 843
264 140 115
613 126 1082
575 475 1046
1145 1089 66
531 209 758
888 549 196
823 80 418
137 866 126
697 347 888
697 59 347
819 44 1157
434 475 6
591 98 869
1157 1029 549
823 748 1006
519 889 869
613 531 222
454 1102 347
613 1082 712
293 347 80
1128 1145 697
605 295 454
748 575 295
1029 304 882
202 347 768
544 347 870
209 565 333
1046 49 866
678 889 1029
983 821 866
761 843 780
607 725 758
348 97 80
1089 76 890
821 168 245
1089 228 44
613 810 209
140 1092 768
475 1029 1082
888 823 326
1046 979 80
168 761 196
595 712 821
348 2 80
723 964 747
140 1006 970
613 115 678
758 143 6
445 843 1128
1092 1006 768
866 44 768
433 970 819
519 888 613
821 712 186
823 333 303
348 712 414
884 1006 888
613 970 348
315 888 1082
91 119 653
77 91 843
712 140 414
140 80 1092
882 697 91
613 888 217
1112 1082 336
819 33 625
1029 821 209
768 168 1092
613 527 821
882 292 869
613 475 196
1102 196 653
724 727 434
888 859 761
819 551 261
347 196 91
1022 670 888
882 819 551
869 1082 126
712 496 333
724 889 140
115 414 6
80 865 454
1112 654 1029
264 1082 810
140 653 261
544 819 6
202 821 1022
697 1145 890
347 1145 758
1006 196 403
653 678 747
1082 264 889
1029 697 209
821 303 613
653 890 712
1157 323 964
295 504 531
347 1006 292
208 929 819
758 888 544
347 1092 1006
475 80 140
1112 607 1102
295 889 888
384 613 888
119 697 91
433 261 91
1092 1112 1082
882 613 697
98 80 76
866 255 697
315 889 347
1006 869 591
1092 859 531
336 727 888
613 292 209
260 866 91
810 1089 1082
323 1112 140
298 418 347
888 504 326
761 697 964
304 758 1145
333 888 434
196 504 348
6 91 474
1112 475 140
121 264 209
91 531 347
80 593 6
979 821 1145
882 724 1112
983 511 747
970 80 964
819 866 224
889 1112 819
295 888 748
419 1145 869
544 531 819
1145 747 697
419 334 209
869 414 292
445 196 888
315 474 531
697 970 613
347 311 323
843 888 605
1157 475 761
196 660 91
615 819 712
261 137 544
454 615 91
1082 196 504
531 196 1046
1006 1157 607
326 1112 869
414 168 964
1006 810 882
315 2 869
261 454 2
261 653 2
1102 363 519
929 126 730
821 81 91
255 761 80
866 168 758
670 821 544
115 607 843
1145 889 326
326 347 76
261 819 865
888 186 326
44 475 347
511 295 401
255 6 1082
979 724 347
1102 137 819
264 418 888
222 964 869
1022 697 889
295 414 401
333 1157 202
336 653 168
6 209 613
384 140 76
889 298 1006
80 1145 979
1082 761 419
303 414 697
653 80 1082
889 723 1006
196 50 504
869 1157 697
819 80 347
475 653 468
126 1092 1029
2 819 970
209 44 475
889 1112 607
347 1029 323
1145 511 607
1145 454 1112
91 819 1082
303 315 98
504 551 1029
511 1046 143
137 697 542
869 511 613
303 245 761
964 819 2
613 50 843
1022 137 595
964 336 727
747 697 1082
261 140 1006
1145 2 889
76 778 1112
414 866 76
419 1157 653
531 323 1046
401 264 433
414 747 202
347 810 44
255 670 697
347 683 1046
843 1082 605
654 613 712
859 97 712
866 888 725
261 1112 2
414 1102 819
725 821 261
697 1006 1157
504 414 475
303 869 196
209 454 670
475 889 683
1082 889 821
819 433 1157
347 843 181
298 821 1029
625 697 295
454 730 866
363 882 888
544 1112 454
2 531 1145
348 511 712
761 140 1145
591 475 347
418 970 1092
303 670 475
1128 209 414
889 888 196
605 678 882
474 1046 748
888 80 1006
748 2 615
137 725 168
1046 866 57
418 1102 80
866 598 819
504 1046 323
209 1128 196
511 1022 730
511 76 889
224 889 1145
725 168 504
544 333 1112
1046 882 401
80 761 245
44 780 697
761 137 261
209 474 414
866 819 593
209 888 418
1029 475 882
80 843 348
605 519 1006
531 1145 1089
1089 304 1157
1092 697 97
615 196 1046
475 821 1082
1029 323 697
843 168 869
76 1092 1089
1082 712 414
454 261 929
678 869 1089
890 888 363
80 1177 91
475 1006 57
336 869 697
143 983 6
653 654 91
687 1092 888
748 97 1145
336 888 98
761 511 1112
255 1029 678
414 1112 866
475 866 384
475 98 414
888 964 336
496 264 1006
866 888 724
1145 697 889
1092 168 511
97 1046 6
591 821 44
653 80 196
1089 697 1177
1046 347 76
607 869 1089
607 888 80
1128 748 615
866 607 748
1082 168 544
328 1102 454
347 843 593
57 1046 613
1006 891 869
414 97 1006
810 44 1157
1092 613 260
260 889 888
80 140 761
2 869 823
843 347 870
209 303 1029
869 890 168
761 748 255
304 866 80
888 434 748
76 889 511
6 613 115
888 697 6
1082 475 347
1022 521 126
401 264 653
697 140 295
1022 1029 1089
866 1112 1006
670 888 748
983 1006 6
549 889 295
303 730 292
519 363 712
474 196 168
255 1082 261
326 544 454
80 303 126
678 80 747
1022 511 819
678 209 121
866 1082 607
58 2 261
384 748 1006
869 819 117
823 137 761
613 1046 687
1145 76 748
209 1029 126
575 6 326
418 531 761
1029 76 1022
454 882 531
859 504 1029
511 653 869
298 821 44
882 1029 347
819 414 97
261 245 454
80 748 468
819 91 1006
6 748 761
882 888 328
264 810 1157
1145 730 260
866 347 260
303 819 607
869 1089 970
712 821 91
866 882 748
1177 137 1006
186 888 1176
80 143 1145
303 678 747
126 224 80
869 198 882
748 168 303
454 1006 91
869 1157 323
445 196 1006
1082 98 748
475 748 531
264 810 245
1112 1089 304
168 245 1046
1102 970 697
1092 475 866
882 198 761
474 76 544
607 869 1006
519 712 565
843 1029 575
261 870 866
347 531 819
168 1157 323
323 761 91
414 869 80
1102 504 866
326 748 758
1145 866 264
347 98 780
888 196 348
964 475 869
670 888 91
1092 979 414
80 1157 418
882 137 454
816 1029 712
137 761 882
869 889 983
668 653 91
196 1145 889
454 1102 401
6 613 821
1112 347 724
888 1022 209
607 888 890
347 937 454
768 697 418
803 347 888
76 222 1092
504 884 1006
209 260 929
859 57 1089
888 468 1022
888 613 348
1145 724 730
821 33 613
747 697 6
888 363 866
414 724 98
531 98 126
186 2 1112
80 1029 264
255 678 80
126 1029 866
315 303 869
295 888 819
91 819 208
347 869 605
202 551 260
866 983 143
843 334 1006
531 97 869
475 613 653
697 245 1022
347 91 209
1112 196 761
198 209 888
748 1082 605
186 821 1112
819 653 222
1112 1145 323
748 1046 613
581 888 613
859 137 1092
1157 347 304
544 888 697
888 115 607
414 964 748
1046 486 196
712 890 929
1022 819 1089
742 76 347
209 255 544
575 418 326
475 843 58
979 326 889
264 521 810
653 1089 196
76 468 80
264 730 1089
186 209 970
348 1082 819
869 1157 1082
303 433 882
414 724 140
140 76 468
720 347 454
865 823 76
605 80 888
1046 44 264
1112 143 326
168 882 1145
549 418 1112
336 91 209
889 869 323
697 1112 1029
1089 697 607
196 202 865
1157 1145 821
1112 869 315
80 983 143
929 882 292
186 209 261
76 1112 565
819 1046 890
866 76 748
504 531 970
761 1082 6
1022 929 888
264 613 209
401 454 929
758 890 143
670 303 519
1089 1029 57
869 80 758
869 372 888
1145 758 875
1006 724 544
1128 336 1082
91 544 758
2 1029 76
6 882 418
823 748 295
758 261 549
890 607 889
97 869 49
653 888 222
264 598 347
1029 1177 1089
336 1092 80
697 542 202
418 712 196
454 261 865
347 983 511
475 1022 104
678 80 347
1046 683 347
196 209 527
519 888 1092
98 511 866
228 57 1089
843 323 869
1089 1029 678
49 670 1006
531 143 1046
475 384 761
697 889 140
1089 1102 504
137 209 264
531 1046 1089
551 653 80
1046 347 401
209 1112 454
401 295 653
1029 198 712
333 44 888
80 91 819
866 843 712
209 890 98
1092 519 97
979 882 758
511 1022 869
80 758 143
1112 255 80
475 725 678
889 1082 768
196 531 295
264 888 384
888 866 889
979 889 303
869 44 323
859 1006 869
1029 454 222
44 261 264
613 50 888
810 303 1046
115 697 607
347 683 1128
137 544 196
326 1128 1082
866 143 80
49 1089 80
748 6 137
140 1082 295
255 819 613
209 137 261
81 91 866
186 454 595
140 747 57
595 1006 866
326 363 1128
511 1089 653
888 761 607
697 496 780
869 303 970
1145 882 593
889 1145 414
80 615 1006
544 888 137
1089 475 1022
80 888 607
819 605 869
91 1082 1092
418 196 1082
91 137 1102
209 1082 418
454 761 1022
544 761 414
866 1102 264
454 261 59
724 979 303
