start to construct graph
graph construct over
58300
epochs start
batch start
#iterations: 0
currently lose_sum: 402.02590495347977
time_elpased: 1.753
batch start
#iterations: 1
currently lose_sum: 394.4383575320244
time_elpased: 1.546
batch start
#iterations: 2
currently lose_sum: 388.3812485933304
time_elpased: 1.969
batch start
#iterations: 3
currently lose_sum: 383.8486136198044
time_elpased: 2.236
batch start
#iterations: 4
currently lose_sum: 376.10774660110474
time_elpased: 2.05
batch start
#iterations: 5
currently lose_sum: 370.9975929260254
time_elpased: 1.591
batch start
#iterations: 6
currently lose_sum: 360.8259707689285
time_elpased: 1.9
batch start
#iterations: 7
currently lose_sum: 348.9725669324398
time_elpased: 2.265
batch start
#iterations: 8
currently lose_sum: 339.94703260064125
time_elpased: 2.09
batch start
#iterations: 9
currently lose_sum: 337.25213196873665
time_elpased: 1.591
start validation test
0.735618556701
0.747670807453
0.702553413236
0.724410294987
0.735264467964
validation finish
batch start
#iterations: 10
currently lose_sum: 327.06910252571106
time_elpased: 1.877
batch start
#iterations: 11
currently lose_sum: 317.96265521645546
time_elpased: 2.279
batch start
#iterations: 12
currently lose_sum: 311.46475753188133
time_elpased: 2.046
batch start
#iterations: 13
currently lose_sum: 302.82950407266617
time_elpased: 1.606
batch start
#iterations: 14
currently lose_sum: 301.7291753590107
time_elpased: 1.816
batch start
#iterations: 15
currently lose_sum: 296.53972032666206
time_elpased: 2.203
batch start
#iterations: 16
currently lose_sum: 292.6406859755516
time_elpased: 2.201
batch start
#iterations: 17
currently lose_sum: 288.29422429203987
time_elpased: 1.556
batch start
#iterations: 18
currently lose_sum: 284.84594547748566
time_elpased: 1.662
batch start
#iterations: 19
currently lose_sum: 281.8195923566818
time_elpased: 2.276
start validation test
0.78087628866
0.798014722284
0.745700885878
0.770971391628
0.780499601532
validation finish
batch start
#iterations: 20
currently lose_sum: 279.2979493737221
time_elpased: 2.214
batch start
#iterations: 21
currently lose_sum: 282.3603834807873
time_elpased: 1.613
batch start
#iterations: 22
currently lose_sum: 279.6746332645416
time_elpased: 1.805
batch start
#iterations: 23
currently lose_sum: 275.2649257183075
time_elpased: 2.227
batch start
#iterations: 24
currently lose_sum: 275.85159891843796
time_elpased: 2.185
batch start
#iterations: 25
currently lose_sum: 269.36696764826775
time_elpased: 1.575
batch start
#iterations: 26
currently lose_sum: 272.8228608369827
time_elpased: 1.565
batch start
#iterations: 27
currently lose_sum: 267.5357376039028
time_elpased: 2.273
batch start
#iterations: 28
currently lose_sum: 267.8202445805073
time_elpased: 2.272
batch start
#iterations: 29
currently lose_sum: 265.8589859902859
time_elpased: 1.666
start validation test
0.778865979381
0.742126882702
0.847316310578
0.791240875912
0.779599001796
validation finish
batch start
#iterations: 30
currently lose_sum: 265.63965478539467
time_elpased: 1.575
batch start
#iterations: 31
currently lose_sum: 264.8700227737427
time_elpased: 2.201
batch start
#iterations: 32
currently lose_sum: 260.9749766886234
time_elpased: 2.283
batch start
#iterations: 33
currently lose_sum: 263.29557344317436
time_elpased: 1.702
batch start
#iterations: 34
currently lose_sum: 263.4639535844326
time_elpased: 1.549
batch start
#iterations: 35
currently lose_sum: 260.95541021227837
time_elpased: 1.998
batch start
#iterations: 36
currently lose_sum: 260.3954457640648
time_elpased: 2.188
batch start
#iterations: 37
currently lose_sum: 254.82631447911263
time_elpased: 2.008
batch start
#iterations: 38
currently lose_sum: 263.77025151252747
time_elpased: 1.615
batch start
#iterations: 39
currently lose_sum: 258.33096823096275
time_elpased: 1.883
start validation test
0.801597938144
0.796002472697
0.805211047421
0.800580280814
0.801636630289
validation finish
batch start
#iterations: 40
currently lose_sum: 257.1022638678551
time_elpased: 2.264
batch start
#iterations: 41
currently lose_sum: 261.56933403015137
time_elpased: 1.963
batch start
#iterations: 42
currently lose_sum: 256.8520453572273
time_elpased: 1.596
batch start
#iterations: 43
currently lose_sum: 258.33541986346245
time_elpased: 1.856
batch start
#iterations: 44
currently lose_sum: 257.56021121144295
time_elpased: 2.274
batch start
#iterations: 45
currently lose_sum: 256.11131432652473
time_elpased: 2.03
batch start
#iterations: 46
currently lose_sum: 257.3210560679436
time_elpased: 1.589
batch start
#iterations: 47
currently lose_sum: 252.27194526791573
time_elpased: 1.88
batch start
#iterations: 48
currently lose_sum: 252.59437158703804
time_elpased: 2.213
batch start
#iterations: 49
currently lose_sum: 253.60026568174362
time_elpased: 2.055
start validation test
0.797216494845
0.774299835255
0.832725377801
0.80245053731
0.797596753153
validation finish
batch start
#iterations: 50
currently lose_sum: 254.18661814928055
time_elpased: 1.59
batch start
#iterations: 51
currently lose_sum: 250.28279316425323
time_elpased: 1.694
batch start
#iterations: 52
currently lose_sum: 247.45224231481552
time_elpased: 2.139
batch start
#iterations: 53
currently lose_sum: 249.83812427520752
time_elpased: 2.211
batch start
#iterations: 54
currently lose_sum: 249.82207208871841
time_elpased: 1.608
batch start
#iterations: 55
currently lose_sum: 251.8195993900299
time_elpased: 1.579
batch start
#iterations: 56
currently lose_sum: 251.13220956921577
time_elpased: 2.175
batch start
#iterations: 57
currently lose_sum: 252.25941869616508
time_elpased: 2.213
batch start
#iterations: 58
currently lose_sum: 254.17515537142754
time_elpased: 1.829
batch start
#iterations: 59
currently lose_sum: 249.71679019927979
time_elpased: 1.597
start validation test
0.806907216495
0.822258953168
0.77769671704
0.799357257633
0.806594406455
validation finish
batch start
#iterations: 60
currently lose_sum: 246.68177011609077
time_elpased: 1.936
batch start
#iterations: 61
currently lose_sum: 251.28752610087395
time_elpased: 2.204
batch start
#iterations: 62
currently lose_sum: 245.9027761220932
time_elpased: 2.005
batch start
#iterations: 63
currently lose_sum: 248.64563646912575
time_elpased: 1.591
batch start
#iterations: 64
currently lose_sum: 249.91382679343224
time_elpased: 1.772
batch start
#iterations: 65
currently lose_sum: 250.70651519298553
time_elpased: 2.299
batch start
#iterations: 66
currently lose_sum: 245.05040675401688
time_elpased: 2.107
batch start
#iterations: 67
currently lose_sum: 246.74869239330292
time_elpased: 1.601
batch start
#iterations: 68
currently lose_sum: 247.6871763765812
time_elpased: 1.679
batch start
#iterations: 69
currently lose_sum: 246.31426694989204
time_elpased: 2.24
start validation test
0.809020618557
0.838272455778
0.760604481501
0.797552046336
0.808502138762
validation finish
batch start
#iterations: 70
currently lose_sum: 245.49399027228355
time_elpased: 2.137
batch start
#iterations: 71
currently lose_sum: 245.74983394145966
time_elpased: 1.585
batch start
#iterations: 72
currently lose_sum: 249.29794803261757
time_elpased: 1.608
batch start
#iterations: 73
currently lose_sum: 245.90293592214584
time_elpased: 2.23
batch start
#iterations: 74
currently lose_sum: 249.2782365977764
time_elpased: 2.272
batch start
#iterations: 75
currently lose_sum: 242.0718286037445
time_elpased: 1.682
batch start
#iterations: 76
currently lose_sum: 244.27829095721245
time_elpased: 1.588
batch start
#iterations: 77
currently lose_sum: 245.87231570482254
time_elpased: 2.098
batch start
#iterations: 78
currently lose_sum: 241.7410517334938
time_elpased: 2.173
batch start
#iterations: 79
currently lose_sum: 244.32078409194946
time_elpased: 1.905
start validation test
0.815927835052
0.838123035474
0.778113600834
0.807004269578
0.815522889147
validation finish
batch start
#iterations: 80
currently lose_sum: 245.2725260257721
time_elpased: 1.615
batch start
#iterations: 81
currently lose_sum: 242.73743817210197
time_elpased: 2.123
batch start
#iterations: 82
currently lose_sum: 243.85951381921768
time_elpased: 2.216
batch start
#iterations: 83
currently lose_sum: 242.82167467474937
time_elpased: 1.843
batch start
#iterations: 84
currently lose_sum: 245.26963782310486
time_elpased: 1.619
batch start
#iterations: 85
currently lose_sum: 248.62723284959793
time_elpased: 2.082
batch start
#iterations: 86
currently lose_sum: 246.11862128973007
time_elpased: 2.149
batch start
#iterations: 87
currently lose_sum: 245.5439984202385
time_elpased: 1.819
batch start
#iterations: 88
currently lose_sum: 242.18741291761398
time_elpased: 1.59
batch start
#iterations: 89
currently lose_sum: 244.36803311109543
time_elpased: 1.874
start validation test
0.795463917526
0.911872346655
0.64919228765
0.758431754535
0.793897520673
validation finish
batch start
#iterations: 90
currently lose_sum: 242.84089049696922
time_elpased: 2.264
batch start
#iterations: 91
currently lose_sum: 243.47466495633125
time_elpased: 1.873
batch start
#iterations: 92
currently lose_sum: 244.1815660893917
time_elpased: 1.574
batch start
#iterations: 93
currently lose_sum: 239.28010949492455
time_elpased: 1.864
batch start
#iterations: 94
currently lose_sum: 244.20034930109978
time_elpased: 2.225
batch start
#iterations: 95
currently lose_sum: 243.18006265163422
time_elpased: 2.074
batch start
#iterations: 96
currently lose_sum: 244.22206503152847
time_elpased: 1.588
batch start
#iterations: 97
currently lose_sum: 241.27538654208183
time_elpased: 1.712
batch start
#iterations: 98
currently lose_sum: 243.25501662492752
time_elpased: 2.139
batch start
#iterations: 99
currently lose_sum: 242.48744729161263
time_elpased: 2.222
start validation test
0.813865979381
0.837392873252
0.773944762897
0.804419650111
0.813438470179
validation finish
batch start
#iterations: 100
currently lose_sum: 240.93564508855343
time_elpased: 1.619
batch start
#iterations: 101
currently lose_sum: 241.6520284563303
time_elpased: 1.67
batch start
#iterations: 102
currently lose_sum: 241.4619264304638
time_elpased: 2.261
batch start
#iterations: 103
currently lose_sum: 245.33787488937378
time_elpased: 2.127
batch start
#iterations: 104
currently lose_sum: 241.2957171201706
time_elpased: 1.646
batch start
#iterations: 105
currently lose_sum: 241.17356872558594
time_elpased: 1.569
batch start
#iterations: 106
currently lose_sum: 246.66597673296928
time_elpased: 1.894
batch start
#iterations: 107
currently lose_sum: 241.30102747678757
time_elpased: 2.18
batch start
#iterations: 108
currently lose_sum: 244.67814752459526
time_elpased: 2.038
batch start
#iterations: 109
currently lose_sum: 243.76034691929817
time_elpased: 1.574
start validation test
0.807886597938
0.797747107773
0.819280875456
0.808370610314
0.808008617228
validation finish
batch start
#iterations: 110
currently lose_sum: 240.52111372351646
time_elpased: 1.872
batch start
#iterations: 111
currently lose_sum: 241.18285483121872
time_elpased: 2.198
batch start
#iterations: 112
currently lose_sum: 240.45083418488503
time_elpased: 2.017
batch start
#iterations: 113
currently lose_sum: 239.6792310476303
time_elpased: 1.577
batch start
#iterations: 114
currently lose_sum: 240.87424129247665
time_elpased: 1.733
batch start
#iterations: 115
currently lose_sum: 243.6594899892807
time_elpased: 2.259
batch start
#iterations: 116
currently lose_sum: 239.5286023914814
time_elpased: 2.167
batch start
#iterations: 117
currently lose_sum: 243.43556007742882
time_elpased: 1.578
batch start
#iterations: 118
currently lose_sum: 237.43795436620712
time_elpased: 1.599
batch start
#iterations: 119
currently lose_sum: 237.9044760465622
time_elpased: 2.217
start validation test
0.80912371134
0.840420614745
0.757998957791
0.797084771768
0.808576225453
validation finish
batch start
#iterations: 120
currently lose_sum: 240.24254003167152
time_elpased: 2.172
batch start
#iterations: 121
currently lose_sum: 240.58304423093796
time_elpased: 1.588
batch start
#iterations: 122
currently lose_sum: 238.30645939707756
time_elpased: 1.664
batch start
#iterations: 123
currently lose_sum: 238.49715615808964
time_elpased: 2.174
batch start
#iterations: 124
currently lose_sum: 239.83516982197762
time_elpased: 2.111
batch start
#iterations: 125
currently lose_sum: 241.051188737154
time_elpased: 1.671
batch start
#iterations: 126
currently lose_sum: 240.1151301264763
time_elpased: 1.593
batch start
#iterations: 127
currently lose_sum: 239.0832657814026
time_elpased: 2.091
batch start
#iterations: 128
currently lose_sum: 239.08654710650444
time_elpased: 2.195
batch start
#iterations: 129
currently lose_sum: 239.5810070335865
time_elpased: 1.81
start validation test
0.798659793814
0.763014331946
0.860031266285
0.80862322391
0.799317009991
validation finish
batch start
#iterations: 130
currently lose_sum: 241.59806379675865
time_elpased: 1.624
batch start
#iterations: 131
currently lose_sum: 241.08922669291496
time_elpased: 2.214
batch start
#iterations: 132
currently lose_sum: 237.22459137439728
time_elpased: 2.145
batch start
#iterations: 133
currently lose_sum: 239.14190152287483
time_elpased: 1.742
batch start
#iterations: 134
currently lose_sum: 241.80197797715664
time_elpased: 1.587
batch start
#iterations: 135
currently lose_sum: 239.95080235600471
time_elpased: 2.08
batch start
#iterations: 136
currently lose_sum: 239.06347143650055
time_elpased: 2.176
batch start
#iterations: 137
currently lose_sum: 237.66154843568802
time_elpased: 1.912
batch start
#iterations: 138
currently lose_sum: 243.4099399149418
time_elpased: 1.586
batch start
#iterations: 139
currently lose_sum: 238.63358834385872
time_elpased: 1.999
start validation test
0.811907216495
0.802195568205
0.822511724857
0.812226624813
0.812020778288
validation finish
batch start
#iterations: 140
currently lose_sum: 238.46769589185715
time_elpased: 2.229
batch start
#iterations: 141
currently lose_sum: 239.27941423654556
time_elpased: 1.879
batch start
#iterations: 142
currently lose_sum: 238.32929322123528
time_elpased: 1.566
batch start
#iterations: 143
currently lose_sum: 240.2795628607273
time_elpased: 1.69
batch start
#iterations: 144
currently lose_sum: 236.54949897527695
time_elpased: 2.222
batch start
#iterations: 145
currently lose_sum: 237.44105869531631
time_elpased: 2.118
batch start
#iterations: 146
currently lose_sum: 240.4675681591034
time_elpased: 1.597
batch start
#iterations: 147
currently lose_sum: 238.70115840435028
time_elpased: 1.624
batch start
#iterations: 148
currently lose_sum: 237.2100694179535
time_elpased: 2.166
batch start
#iterations: 149
currently lose_sum: 236.61950801312923
time_elpased: 2.136
start validation test
0.81881443299
0.85103926097
0.768108389786
0.807450013695
0.818271430997
validation finish
batch start
#iterations: 150
currently lose_sum: 237.11627978086472
time_elpased: 1.61
batch start
#iterations: 151
currently lose_sum: 237.89596858620644
time_elpased: 1.586
batch start
#iterations: 152
currently lose_sum: 237.72492399811745
time_elpased: 1.881
batch start
#iterations: 153
currently lose_sum: 238.05935069918633
time_elpased: 2.215
batch start
#iterations: 154
currently lose_sum: 239.33689683675766
time_elpased: 1.958
batch start
#iterations: 155
currently lose_sum: 238.5538794696331
time_elpased: 1.584
batch start
#iterations: 156
currently lose_sum: 237.19422098994255
time_elpased: 1.644
batch start
#iterations: 157
currently lose_sum: 236.88772827386856
time_elpased: 2.132
batch start
#iterations: 158
currently lose_sum: 237.8795493543148
time_elpased: 2.182
batch start
#iterations: 159
currently lose_sum: 236.4052376449108
time_elpased: 1.67
start validation test
0.801391752577
0.76397572637
0.865971860344
0.811782521616
0.802083329458
validation finish
batch start
#iterations: 160
currently lose_sum: 237.23663479089737
time_elpased: 1.642
batch start
#iterations: 161
currently lose_sum: 238.12756416201591
time_elpased: 1.993
batch start
#iterations: 162
currently lose_sum: 237.6695033311844
time_elpased: 2.127
batch start
#iterations: 163
currently lose_sum: 236.37615564465523
time_elpased: 1.756
batch start
#iterations: 164
currently lose_sum: 239.72635185718536
time_elpased: 1.605
batch start
#iterations: 165
currently lose_sum: 239.3088008761406
time_elpased: 2.02
batch start
#iterations: 166
currently lose_sum: 238.28285717964172
time_elpased: 2.175
batch start
#iterations: 167
currently lose_sum: 237.68927343189716
time_elpased: 1.875
batch start
#iterations: 168
currently lose_sum: 238.33092632889748
time_elpased: 1.595
batch start
#iterations: 169
currently lose_sum: 236.21320760250092
time_elpased: 2.015
start validation test
0.816237113402
0.825383121088
0.797081813445
0.810985631727
0.816031982704
validation finish
batch start
#iterations: 170
currently lose_sum: 237.32028998434544
time_elpased: 2.101
batch start
#iterations: 171
currently lose_sum: 237.62167409062386
time_elpased: 1.937
batch start
#iterations: 172
currently lose_sum: 237.25280666351318
time_elpased: 1.626
batch start
#iterations: 173
currently lose_sum: 234.70657740533352
time_elpased: 1.684
batch start
#iterations: 174
currently lose_sum: 234.78552186489105
time_elpased: 2.106
batch start
#iterations: 175
currently lose_sum: 238.57180646061897
time_elpased: 2.2
batch start
#iterations: 176
currently lose_sum: 234.53232815861702
time_elpased: 1.653
batch start
#iterations: 177
currently lose_sum: 235.6181644797325
time_elpased: 1.555
batch start
#iterations: 178
currently lose_sum: 234.95625218749046
time_elpased: 1.559
batch start
#iterations: 179
currently lose_sum: 237.09543402493
time_elpased: 2.229
start validation test
0.799072164948
0.908387096774
0.66034392913
0.764755582378
0.797586548961
validation finish
batch start
#iterations: 180
currently lose_sum: 239.50353701412678
time_elpased: 2.221
batch start
#iterations: 181
currently lose_sum: 237.76565310359
time_elpased: 1.576
batch start
#iterations: 182
currently lose_sum: 237.00182193517685
time_elpased: 1.569
batch start
#iterations: 183
currently lose_sum: 238.29466906189919
time_elpased: 1.903
batch start
#iterations: 184
currently lose_sum: 234.8485914170742
time_elpased: 2.136
batch start
#iterations: 185
currently lose_sum: 233.67843306064606
time_elpased: 2.05
batch start
#iterations: 186
currently lose_sum: 235.4561921954155
time_elpased: 1.62
batch start
#iterations: 187
currently lose_sum: 236.41203404963017
time_elpased: 1.785
batch start
#iterations: 188
currently lose_sum: 234.35017290711403
time_elpased: 2.102
batch start
#iterations: 189
currently lose_sum: 236.63578560948372
time_elpased: 2.013
start validation test
0.81324742268
0.800462869793
0.829077644607
0.814519019096
0.81341694571
validation finish
batch start
#iterations: 190
currently lose_sum: 235.6063171327114
time_elpased: 1.582
batch start
#iterations: 191
currently lose_sum: 234.30862161517143
time_elpased: 1.704
batch start
#iterations: 192
currently lose_sum: 235.8722623437643
time_elpased: 2.074
batch start
#iterations: 193
currently lose_sum: 233.55836388468742
time_elpased: 2.092
batch start
#iterations: 194
currently lose_sum: 239.44713705778122
time_elpased: 1.619
batch start
#iterations: 195
currently lose_sum: 238.50391691923141
time_elpased: 1.574
batch start
#iterations: 196
currently lose_sum: 237.18101327121258
time_elpased: 2.171
batch start
#iterations: 197
currently lose_sum: 236.98608061671257
time_elpased: 2.298
batch start
#iterations: 198
currently lose_sum: 238.397559851408
time_elpased: 1.685
batch start
#iterations: 199
currently lose_sum: 237.9158548116684
time_elpased: 1.568
start validation test
0.813402061856
0.795821368452
0.837623762376
0.816187671372
0.813661447736
validation finish
batch start
#iterations: 200
currently lose_sum: 234.98912611603737
time_elpased: 2.081
batch start
#iterations: 201
currently lose_sum: 234.26240499317646
time_elpased: 2.108
batch start
#iterations: 202
currently lose_sum: 235.0945425927639
time_elpased: 1.625
batch start
#iterations: 203
currently lose_sum: 236.73126596212387
time_elpased: 1.544
batch start
#iterations: 204
currently lose_sum: 240.11407592892647
time_elpased: 2.073
batch start
#iterations: 205
currently lose_sum: 234.32232627272606
time_elpased: 2.142
batch start
#iterations: 206
currently lose_sum: 235.96950644254684
time_elpased: 1.743
batch start
#iterations: 207
currently lose_sum: 232.16692392528057
time_elpased: 1.563
batch start
#iterations: 208
currently lose_sum: 235.30754294991493
time_elpased: 2.173
batch start
#iterations: 209
currently lose_sum: 232.27159902453423
time_elpased: 2.113
start validation test
0.812216494845
0.850777934936
0.752266805628
0.798495492007
0.811574504293
validation finish
batch start
#iterations: 210
currently lose_sum: 234.20329828560352
time_elpased: 1.647
batch start
#iterations: 211
currently lose_sum: 235.3742942661047
time_elpased: 1.644
batch start
#iterations: 212
currently lose_sum: 234.47306275367737
time_elpased: 2.182
batch start
#iterations: 213
currently lose_sum: 235.74624612927437
time_elpased: 2.208
batch start
#iterations: 214
currently lose_sum: 235.41451227664948
time_elpased: 1.641
batch start
#iterations: 215
currently lose_sum: 236.20862433314323
time_elpased: 1.737
batch start
#iterations: 216
currently lose_sum: 235.36932650208473
time_elpased: 2.243
batch start
#iterations: 217
currently lose_sum: 233.51038506627083
time_elpased: 2.174
batch start
#iterations: 218
currently lose_sum: 234.44774383306503
time_elpased: 1.559
batch start
#iterations: 219
currently lose_sum: 236.3383403867483
time_elpased: 1.697
start validation test
0.818298969072
0.826695371367
0.800416883794
0.813343923749
0.818107473003
validation finish
batch start
#iterations: 220
currently lose_sum: 235.53580662608147
time_elpased: 2.126
batch start
#iterations: 221
currently lose_sum: 234.22306728363037
time_elpased: 2.055
batch start
#iterations: 222
currently lose_sum: 235.57732164859772
time_elpased: 1.619
batch start
#iterations: 223
currently lose_sum: 235.11540937423706
time_elpased: 1.675
batch start
#iterations: 224
currently lose_sum: 234.61547988653183
time_elpased: 2.117
batch start
#iterations: 225
currently lose_sum: 236.2884715050459
time_elpased: 2.183
batch start
#iterations: 226
currently lose_sum: 235.4453762769699
time_elpased: 1.597
batch start
#iterations: 227
currently lose_sum: 233.69120609760284
time_elpased: 1.58
batch start
#iterations: 228
currently lose_sum: 234.91101214289665
time_elpased: 2.222
batch start
#iterations: 229
currently lose_sum: 234.6936554312706
time_elpased: 2.156
start validation test
0.812010309278
0.790316282702
0.843772798332
0.816170169867
0.812350448121
validation finish
batch start
#iterations: 230
currently lose_sum: 234.39634276926517
time_elpased: 1.598
batch start
#iterations: 231
currently lose_sum: 235.1888426244259
time_elpased: 1.753
batch start
#iterations: 232
currently lose_sum: 234.47907923161983
time_elpased: 2.06
batch start
#iterations: 233
currently lose_sum: 234.86361667513847
time_elpased: 2.08
batch start
#iterations: 234
currently lose_sum: 236.34628683328629
time_elpased: 1.547
batch start
#iterations: 235
currently lose_sum: 235.68806466460228
time_elpased: 1.697
batch start
#iterations: 236
currently lose_sum: 236.68474453687668
time_elpased: 2.113
batch start
#iterations: 237
currently lose_sum: 235.5715925693512
time_elpased: 2.144
batch start
#iterations: 238
currently lose_sum: 236.03796856105328
time_elpased: 1.585
batch start
#iterations: 239
currently lose_sum: 233.56986857950687
time_elpased: 1.631
start validation test
0.820567010309
0.822877059569
0.811985409067
0.817394953575
0.820475111469
validation finish
batch start
#iterations: 240
currently lose_sum: 236.05503642559052
time_elpased: 2.096
batch start
#iterations: 241
currently lose_sum: 233.89290894567966
time_elpased: 2.193
batch start
#iterations: 242
currently lose_sum: 234.28090396523476
time_elpased: 1.564
batch start
#iterations: 243
currently lose_sum: 232.43660774827003
time_elpased: 1.655
batch start
#iterations: 244
currently lose_sum: 234.96417465806007
time_elpased: 2.137
batch start
#iterations: 245
currently lose_sum: 236.90019890666008
time_elpased: 2.185
batch start
#iterations: 246
currently lose_sum: 234.80803614854813
time_elpased: 1.584
batch start
#iterations: 247
currently lose_sum: 234.2804822176695
time_elpased: 1.613
batch start
#iterations: 248
currently lose_sum: 233.41080057621002
time_elpased: 2.201
batch start
#iterations: 249
currently lose_sum: 235.74722543358803
time_elpased: 2.218
start validation test
0.812216494845
0.79011503217
0.844710786868
0.816501284441
0.812564470436
validation finish
batch start
#iterations: 250
currently lose_sum: 234.63432052731514
time_elpased: 1.589
batch start
#iterations: 251
currently lose_sum: 235.253991112113
time_elpased: 1.681
batch start
#iterations: 252
currently lose_sum: 236.24508890509605
time_elpased: 2.127
batch start
#iterations: 253
currently lose_sum: 232.00892139971256
time_elpased: 2.205
batch start
#iterations: 254
currently lose_sum: 234.14745712280273
time_elpased: 1.583
batch start
#iterations: 255
currently lose_sum: 234.74866254627705
time_elpased: 1.66
batch start
#iterations: 256
currently lose_sum: 230.6588687300682
time_elpased: 2.172
batch start
#iterations: 257
currently lose_sum: 231.84502393007278
time_elpased: 2.169
batch start
#iterations: 258
currently lose_sum: 232.72128492593765
time_elpased: 1.639
batch start
#iterations: 259
currently lose_sum: 233.42760607600212
time_elpased: 1.585
start validation test
0.815670103093
0.813326392504
0.814174048984
0.81375
0.815654082116
validation finish
batch start
#iterations: 260
currently lose_sum: 235.11302664875984
time_elpased: 2.071
batch start
#iterations: 261
currently lose_sum: 234.82596415281296
time_elpased: 2.148
batch start
#iterations: 262
currently lose_sum: 234.6338027715683
time_elpased: 1.616
batch start
#iterations: 263
currently lose_sum: 233.85367172956467
time_elpased: 1.644
batch start
#iterations: 264
currently lose_sum: 233.98253425955772
time_elpased: 2.253
batch start
#iterations: 265
currently lose_sum: 230.34633934497833
time_elpased: 2.154
batch start
#iterations: 266
currently lose_sum: 235.52499863505363
time_elpased: 1.659
batch start
#iterations: 267
currently lose_sum: 230.66669431328773
time_elpased: 1.569
batch start
#iterations: 268
currently lose_sum: 235.69258549809456
time_elpased: 2.201
batch start
#iterations: 269
currently lose_sum: 231.9242699444294
time_elpased: 2.027
start validation test
0.818144329897
0.823228556207
0.805211047421
0.814120126449
0.818005829677
validation finish
batch start
#iterations: 270
currently lose_sum: 233.53786394000053
time_elpased: 1.674
batch start
#iterations: 271
currently lose_sum: 234.65956917405128
time_elpased: 1.62
batch start
#iterations: 272
currently lose_sum: 235.3106264770031
time_elpased: 2.228
batch start
#iterations: 273
currently lose_sum: 233.38433155417442
time_elpased: 2.161
batch start
#iterations: 274
currently lose_sum: 233.65669003129005
time_elpased: 1.712
batch start
#iterations: 275
currently lose_sum: 231.8068002909422
time_elpased: 1.581
batch start
#iterations: 276
currently lose_sum: 234.2332265675068
time_elpased: 2.118
batch start
#iterations: 277
currently lose_sum: 233.7587867975235
time_elpased: 2.094
batch start
#iterations: 278
currently lose_sum: 236.4585183262825
time_elpased: 1.892
batch start
#iterations: 279
currently lose_sum: 234.49249187111855
time_elpased: 1.612
start validation test
0.809536082474
0.780952380952
0.854611776967
0.816123413785
0.810018790064
validation finish
batch start
#iterations: 280
currently lose_sum: 235.15923143923283
time_elpased: 2.283
batch start
#iterations: 281
currently lose_sum: 234.96204069256783
time_elpased: 2.279
batch start
#iterations: 282
currently lose_sum: 231.50737607479095
time_elpased: 1.577
batch start
#iterations: 283
currently lose_sum: 232.03949290513992
time_elpased: 1.674
batch start
#iterations: 284
currently lose_sum: 232.90222653746605
time_elpased: 2.183
batch start
#iterations: 285
currently lose_sum: 232.33477559685707
time_elpased: 2.089
batch start
#iterations: 286
currently lose_sum: 233.02752502262592
time_elpased: 1.676
batch start
#iterations: 287
currently lose_sum: 232.0056747943163
time_elpased: 1.699
batch start
#iterations: 288
currently lose_sum: 233.79915508627892
time_elpased: 2.201
batch start
#iterations: 289
currently lose_sum: 234.88778713345528
time_elpased: 2.212
start validation test
0.818969072165
0.815803135708
0.818863991662
0.817330698013
0.818967946877
validation finish
batch start
#iterations: 290
currently lose_sum: 232.42990225553513
time_elpased: 1.63
batch start
#iterations: 291
currently lose_sum: 236.04497176408768
time_elpased: 1.775
batch start
#iterations: 292
currently lose_sum: 234.22671431303024
time_elpased: 2.114
batch start
#iterations: 293
currently lose_sum: 231.77939228713512
time_elpased: 2.262
batch start
#iterations: 294
currently lose_sum: 232.6671523451805
time_elpased: 1.635
batch start
#iterations: 295
currently lose_sum: 235.63175630569458
time_elpased: 1.752
batch start
#iterations: 296
currently lose_sum: 232.8574274778366
time_elpased: 2.207
batch start
#iterations: 297
currently lose_sum: 230.48744145035744
time_elpased: 2.183
batch start
#iterations: 298
currently lose_sum: 229.07233868539333
time_elpased: 1.625
batch start
#iterations: 299
currently lose_sum: 233.0466253310442
time_elpased: 1.622
start validation test
0.820927835052
0.841002785515
0.786659718603
0.812924071082
0.820560863891
validation finish
batch start
#iterations: 300
currently lose_sum: 232.19563587009907
time_elpased: 2.082
batch start
#iterations: 301
currently lose_sum: 236.01472327113152
time_elpased: 2.197
batch start
#iterations: 302
currently lose_sum: 231.73755745589733
time_elpased: 1.844
batch start
#iterations: 303
currently lose_sum: 232.22358921170235
time_elpased: 1.593
batch start
#iterations: 304
currently lose_sum: 235.03615629673004
time_elpased: 1.979
batch start
#iterations: 305
currently lose_sum: 234.62879410386086
time_elpased: 2.26
batch start
#iterations: 306
currently lose_sum: 232.87895146012306
time_elpased: 2.05
batch start
#iterations: 307
currently lose_sum: 232.17070731520653
time_elpased: 1.578
batch start
#iterations: 308
currently lose_sum: 234.5084710419178
time_elpased: 1.787
batch start
#iterations: 309
currently lose_sum: 232.20119786262512
time_elpased: 2.236
start validation test
0.820051546392
0.833333333333
0.795205836373
0.813823262759
0.819785478105
validation finish
batch start
#iterations: 310
currently lose_sum: 233.34851640462875
time_elpased: 2.007
batch start
#iterations: 311
currently lose_sum: 231.58496569097042
time_elpased: 1.589
batch start
#iterations: 312
currently lose_sum: 232.7355517745018
time_elpased: 1.775
batch start
#iterations: 313
currently lose_sum: 234.31188789010048
time_elpased: 2.185
batch start
#iterations: 314
currently lose_sum: 235.35457596182823
time_elpased: 2.134
batch start
#iterations: 315
currently lose_sum: 233.18534168601036
time_elpased: 1.585
batch start
#iterations: 316
currently lose_sum: 232.5711392313242
time_elpased: 1.627
batch start
#iterations: 317
currently lose_sum: 234.3468972146511
time_elpased: 2.201
batch start
#iterations: 318
currently lose_sum: 232.4917726367712
time_elpased: 2.296
batch start
#iterations: 319
currently lose_sum: 228.4157683700323
time_elpased: 1.634
start validation test
0.818144329897
0.820903416905
0.808754559666
0.814783704326
0.818043776519
validation finish
batch start
#iterations: 320
currently lose_sum: 232.17794427275658
time_elpased: 1.714
batch start
#iterations: 321
currently lose_sum: 234.4747667312622
time_elpased: 2.255
batch start
#iterations: 322
currently lose_sum: 231.61167514324188
time_elpased: 2.169
batch start
#iterations: 323
currently lose_sum: 232.67414221167564
time_elpased: 1.58
batch start
#iterations: 324
currently lose_sum: 230.14470395445824
time_elpased: 1.584
batch start
#iterations: 325
currently lose_sum: 234.40254117548466
time_elpased: 2.242
batch start
#iterations: 326
currently lose_sum: 233.8080090880394
time_elpased: 2.221
batch start
#iterations: 327
currently lose_sum: 232.32659649848938
time_elpased: 1.691
batch start
#iterations: 328
currently lose_sum: 231.45250453054905
time_elpased: 1.601
batch start
#iterations: 329
currently lose_sum: 231.17843513190746
time_elpased: 2.145
start validation test
0.817680412371
0.874783469438
0.736842105263
0.799909486904
0.816814729327
validation finish
batch start
#iterations: 330
currently lose_sum: 233.69937932491302
time_elpased: 2.234
batch start
#iterations: 331
currently lose_sum: 234.90872436761856
time_elpased: 1.65
batch start
#iterations: 332
currently lose_sum: 231.5293908715248
time_elpased: 1.624
batch start
#iterations: 333
currently lose_sum: 234.60271929204464
time_elpased: 2.194
batch start
#iterations: 334
currently lose_sum: 231.85822142660618
time_elpased: 2.175
batch start
#iterations: 335
currently lose_sum: 232.20786184072495
time_elpased: 1.847
batch start
#iterations: 336
currently lose_sum: 230.4422643482685
time_elpased: 1.59
batch start
#iterations: 337
currently lose_sum: 233.26062905788422
time_elpased: 2.063
batch start
#iterations: 338
currently lose_sum: 231.0702771395445
time_elpased: 2.259
batch start
#iterations: 339
currently lose_sum: 233.20446161925793
time_elpased: 1.818
start validation test
0.819329896907
0.843059936909
0.779885356957
0.810243083753
0.818907492349
validation finish
batch start
#iterations: 340
currently lose_sum: 228.4652454853058
time_elpased: 1.636
batch start
#iterations: 341
currently lose_sum: 229.26387330889702
time_elpased: 2.177
batch start
#iterations: 342
currently lose_sum: 231.337259426713
time_elpased: 2.213
batch start
#iterations: 343
currently lose_sum: 231.83831438422203
time_elpased: 1.773
batch start
#iterations: 344
currently lose_sum: 232.59957885742188
time_elpased: 1.592
batch start
#iterations: 345
currently lose_sum: 233.91301549971104
time_elpased: 2.041
batch start
#iterations: 346
currently lose_sum: 232.627663731575
time_elpased: 2.216
batch start
#iterations: 347
currently lose_sum: 232.43089511990547
time_elpased: 1.951
batch start
#iterations: 348
currently lose_sum: 233.78021043539047
time_elpased: 1.611
batch start
#iterations: 349
currently lose_sum: 231.87792609632015
time_elpased: 1.889
start validation test
0.819536082474
0.834614539864
0.792079207921
0.812790759852
0.819242051691
validation finish
batch start
#iterations: 350
currently lose_sum: 230.8489843159914
time_elpased: 2.119
batch start
#iterations: 351
currently lose_sum: 231.37095460295677
time_elpased: 1.915
batch start
#iterations: 352
currently lose_sum: 231.35009610652924
time_elpased: 1.617
batch start
#iterations: 353
currently lose_sum: 230.94675931334496
time_elpased: 1.888
batch start
#iterations: 354
currently lose_sum: 232.63807865977287
time_elpased: 2.137
batch start
#iterations: 355
currently lose_sum: 233.35125267505646
time_elpased: 1.946
batch start
#iterations: 356
currently lose_sum: 230.6301595568657
time_elpased: 1.566
batch start
#iterations: 357
currently lose_sum: 231.9741240888834
time_elpased: 1.579
batch start
#iterations: 358
currently lose_sum: 229.6928655207157
time_elpased: 1.797
batch start
#iterations: 359
currently lose_sum: 229.50837072730064
time_elpased: 2.285
start validation test
0.818969072165
0.814757321743
0.820531526837
0.81763422993
0.818985804214
validation finish
batch start
#iterations: 360
currently lose_sum: 231.81554582715034
time_elpased: 1.985
batch start
#iterations: 361
currently lose_sum: 231.73252134025097
time_elpased: 1.615
batch start
#iterations: 362
currently lose_sum: 232.96883210539818
time_elpased: 1.925
batch start
#iterations: 363
currently lose_sum: 234.85839726030827
time_elpased: 2.237
batch start
#iterations: 364
currently lose_sum: 233.22335396707058
time_elpased: 2.045
batch start
#iterations: 365
currently lose_sum: 231.8649375885725
time_elpased: 1.592
batch start
#iterations: 366
currently lose_sum: 232.80215549468994
time_elpased: 1.583
batch start
#iterations: 367
currently lose_sum: 230.78963294625282
time_elpased: 1.905
batch start
#iterations: 368
currently lose_sum: 231.43232235312462
time_elpased: 2.147
batch start
#iterations: 369
currently lose_sum: 231.48597624897957
time_elpased: 1.997
start validation test
0.813350515464
0.797925393976
0.833767587285
0.81545283115
0.813569158252
validation finish
batch start
#iterations: 370
currently lose_sum: 229.0094729810953
time_elpased: 1.624
batch start
#iterations: 371
currently lose_sum: 233.8856111317873
time_elpased: 1.73
batch start
#iterations: 372
currently lose_sum: 231.88563016057014
time_elpased: 2.23
batch start
#iterations: 373
currently lose_sum: 231.21118593215942
time_elpased: 2.178
batch start
#iterations: 374
currently lose_sum: 229.61698096990585
time_elpased: 1.614
batch start
#iterations: 375
currently lose_sum: 232.6586393415928
time_elpased: 1.611
batch start
#iterations: 376
currently lose_sum: 233.0200390815735
time_elpased: 1.984
batch start
#iterations: 377
currently lose_sum: 230.2679943740368
time_elpased: 2.179
batch start
#iterations: 378
currently lose_sum: 232.12363690137863
time_elpased: 1.909
batch start
#iterations: 379
currently lose_sum: 230.63551677763462
time_elpased: 1.59
start validation test
0.819742268041
0.827990533563
0.802188639917
0.814885395162
0.819554289362
validation finish
batch start
#iterations: 380
currently lose_sum: 231.81681329011917
time_elpased: 1.884
batch start
#iterations: 381
currently lose_sum: 233.38797467947006
time_elpased: 2.203
batch start
#iterations: 382
currently lose_sum: 231.0315508544445
time_elpased: 2.061
batch start
#iterations: 383
currently lose_sum: 229.64564256370068
time_elpased: 1.597
batch start
#iterations: 384
currently lose_sum: 232.45840860903263
time_elpased: 1.814
batch start
#iterations: 385
currently lose_sum: 232.07118339836597
time_elpased: 2.226
batch start
#iterations: 386
currently lose_sum: 231.93398544192314
time_elpased: 2.197
batch start
#iterations: 387
currently lose_sum: 234.65475288033485
time_elpased: 1.587
batch start
#iterations: 388
currently lose_sum: 231.45545145869255
time_elpased: 1.609
batch start
#iterations: 389
currently lose_sum: 232.36837646365166
time_elpased: 1.906
start validation test
0.820309278351
0.820817141057
0.814486711829
0.817639673572
0.820246925522
validation finish
batch start
#iterations: 390
currently lose_sum: 229.959826618433
time_elpased: 2.274
batch start
#iterations: 391
currently lose_sum: 231.61443448066711
time_elpased: 1.817
batch start
#iterations: 392
currently lose_sum: 230.5247049331665
time_elpased: 1.621
batch start
#iterations: 393
currently lose_sum: 230.81413185596466
time_elpased: 1.905
batch start
#iterations: 394
currently lose_sum: 229.69039146602154
time_elpased: 2.106
batch start
#iterations: 395
currently lose_sum: 232.1295464038849
time_elpased: 2.112
batch start
#iterations: 396
currently lose_sum: 232.67606568336487
time_elpased: 1.596
batch start
#iterations: 397
currently lose_sum: 230.83161947131157
time_elpased: 1.714
batch start
#iterations: 398
currently lose_sum: 229.32689653337002
time_elpased: 2.139
batch start
#iterations: 399
currently lose_sum: 232.1467580497265
time_elpased: 2.178
start validation test
0.818917525773
0.814868502796
0.820218863992
0.817534929621
0.818931461573
validation finish
batch start
#iterations: 400
currently lose_sum: 233.5305916070938
time_elpased: 1.592
batch start
#iterations: 401
currently lose_sum: 232.21325540542603
time_elpased: 1.589
batch start
#iterations: 402
currently lose_sum: 234.33363130688667
time_elpased: 2.186
batch start
#iterations: 403
currently lose_sum: 228.93622568249702
time_elpased: 2.246
batch start
#iterations: 404
currently lose_sum: 232.4546970874071
time_elpased: 1.727
batch start
#iterations: 405
currently lose_sum: 230.4296429157257
time_elpased: 1.711
batch start
#iterations: 406
currently lose_sum: 230.76042149960995
time_elpased: 2.155
batch start
#iterations: 407
currently lose_sum: 229.58226251602173
time_elpased: 2.219
batch start
#iterations: 408
currently lose_sum: 232.2596460878849
time_elpased: 1.636
batch start
#iterations: 409
currently lose_sum: 229.44228388369083
time_elpased: 1.613
start validation test
0.819484536082
0.830745847356
0.797498697238
0.813782835265
0.819249093647
validation finish
batch start
#iterations: 410
currently lose_sum: 230.6367848366499
time_elpased: 2.179
batch start
#iterations: 411
currently lose_sum: 230.39722026884556
time_elpased: 2.205
batch start
#iterations: 412
currently lose_sum: 230.72234551608562
time_elpased: 1.875
batch start
#iterations: 413
currently lose_sum: 229.44167003035545
time_elpased: 1.627
batch start
#iterations: 414
currently lose_sum: 233.00927299261093
time_elpased: 2.068
batch start
#iterations: 415
currently lose_sum: 232.28402385115623
time_elpased: 2.129
batch start
#iterations: 416
currently lose_sum: 231.06197971105576
time_elpased: 1.925
batch start
#iterations: 417
currently lose_sum: 232.02810868620872
time_elpased: 1.621
batch start
#iterations: 418
currently lose_sum: 232.12986102700233
time_elpased: 1.848
batch start
#iterations: 419
currently lose_sum: 232.69260516762733
time_elpased: 2.223
start validation test
0.818969072165
0.813912684488
0.821886399166
0.817880107861
0.819000313301
validation finish
batch start
#iterations: 420
currently lose_sum: 231.73147615790367
time_elpased: 1.936
batch start
#iterations: 421
currently lose_sum: 231.1068425476551
time_elpased: 1.59
batch start
#iterations: 422
currently lose_sum: 230.9910462796688
time_elpased: 1.871
batch start
#iterations: 423
currently lose_sum: 230.72092421352863
time_elpased: 2.257
batch start
#iterations: 424
currently lose_sum: 232.19887700676918
time_elpased: 2.015
batch start
#iterations: 425
currently lose_sum: 230.85029140114784
time_elpased: 1.588
batch start
#iterations: 426
currently lose_sum: 230.17825564742088
time_elpased: 1.602
batch start
#iterations: 427
currently lose_sum: 230.86972583830357
time_elpased: 2.049
batch start
#iterations: 428
currently lose_sum: 231.23624651134014
time_elpased: 2.14
batch start
#iterations: 429
currently lose_sum: 230.37037026882172
time_elpased: 1.824
start validation test
0.819690721649
0.830962979047
0.797707139135
0.81399553334
0.819455303377
validation finish
batch start
#iterations: 430
currently lose_sum: 227.95573994517326
time_elpased: 1.585
batch start
#iterations: 431
currently lose_sum: 231.34418708086014
time_elpased: 1.601
batch start
#iterations: 432
currently lose_sum: 230.1116916835308
time_elpased: 2.164
batch start
#iterations: 433
currently lose_sum: 229.28545394539833
time_elpased: 2.296
batch start
#iterations: 434
currently lose_sum: 231.82662227749825
time_elpased: 1.782
batch start
#iterations: 435
currently lose_sum: 228.97654983401299
time_elpased: 1.598
batch start
#iterations: 436
currently lose_sum: 231.92202678322792
time_elpased: 1.977
batch start
#iterations: 437
currently lose_sum: 230.8652109503746
time_elpased: 2.165
batch start
#iterations: 438
currently lose_sum: 230.98016074299812
time_elpased: 1.925
batch start
#iterations: 439
currently lose_sum: 230.20265212655067
time_elpased: 1.604
start validation test
0.815154639175
0.799640969383
0.835643564356
0.817245948425
0.815374051429
validation finish
batch start
#iterations: 440
currently lose_sum: 229.8915945738554
time_elpased: 1.887
batch start
#iterations: 441
currently lose_sum: 230.2425242960453
time_elpased: 2.215
batch start
#iterations: 442
currently lose_sum: 229.20649468898773
time_elpased: 2.005
batch start
#iterations: 443
currently lose_sum: 228.2060521543026
time_elpased: 1.624
batch start
#iterations: 444
currently lose_sum: 229.78070138394833
time_elpased: 1.632
batch start
#iterations: 445
currently lose_sum: 230.81093072891235
time_elpased: 1.922
batch start
#iterations: 446
currently lose_sum: 232.12140867114067
time_elpased: 2.177
batch start
#iterations: 447
currently lose_sum: 230.132595166564
time_elpased: 2.116
batch start
#iterations: 448
currently lose_sum: 230.98458275198936
time_elpased: 1.59
batch start
#iterations: 449
currently lose_sum: 229.23743137717247
time_elpased: 1.669
start validation test
0.803505154639
0.767508557683
0.864616988015
0.813173887473
0.804159590387
validation finish
batch start
#iterations: 450
currently lose_sum: 230.83977127075195
time_elpased: 2.174
batch start
#iterations: 451
currently lose_sum: 229.95828934013844
time_elpased: 2.057
batch start
#iterations: 452
currently lose_sum: 229.34069114923477
time_elpased: 1.582
batch start
#iterations: 453
currently lose_sum: 230.1300228536129
time_elpased: 1.572
batch start
#iterations: 454
currently lose_sum: 231.069739818573
time_elpased: 1.7
batch start
#iterations: 455
currently lose_sum: 229.01029887795448
time_elpased: 2.089
batch start
#iterations: 456
currently lose_sum: 230.48756349086761
time_elpased: 2.251
batch start
#iterations: 457
currently lose_sum: 230.9499757885933
time_elpased: 1.653
batch start
#iterations: 458
currently lose_sum: 231.39958250522614
time_elpased: 1.628
batch start
#iterations: 459
currently lose_sum: 231.30808424949646
time_elpased: 2.044
start validation test
0.821030927835
0.828522373645
0.804689942678
0.816432272391
0.820855935133
validation finish
batch start
#iterations: 460
currently lose_sum: 233.33913388848305
time_elpased: 2.105
batch start
#iterations: 461
currently lose_sum: 231.2111540734768
time_elpased: 1.83
batch start
#iterations: 462
currently lose_sum: 229.45542223751545
time_elpased: 1.579
batch start
#iterations: 463
currently lose_sum: 231.39812725782394
time_elpased: 1.587
batch start
#iterations: 464
currently lose_sum: 229.89384442567825
time_elpased: 1.994
batch start
#iterations: 465
currently lose_sum: 230.90501330792904
time_elpased: 2.082
batch start
#iterations: 466
currently lose_sum: 228.97204603254795
time_elpased: 1.913
batch start
#iterations: 467
currently lose_sum: 230.80883064866066
time_elpased: 1.58
batch start
#iterations: 468
currently lose_sum: 229.79481990635395
time_elpased: 1.622
batch start
#iterations: 469
currently lose_sum: 230.06655703485012
time_elpased: 1.973
start validation test
0.820051546392
0.831955623233
0.797186034393
0.814199797754
0.819806683693
validation finish
batch start
#iterations: 470
currently lose_sum: 233.47357799112797
time_elpased: 2.128
batch start
#iterations: 471
currently lose_sum: 229.0278238505125
time_elpased: 1.787
batch start
#iterations: 472
currently lose_sum: 232.43862509727478
time_elpased: 1.563
batch start
#iterations: 473
currently lose_sum: 227.14471770823002
time_elpased: 1.575
batch start
#iterations: 474
currently lose_sum: 228.79086834192276
time_elpased: 2.081
batch start
#iterations: 475
currently lose_sum: 230.71327671408653
time_elpased: 2.074
batch start
#iterations: 476
currently lose_sum: 229.3808465898037
time_elpased: 1.869
batch start
#iterations: 477
currently lose_sum: 229.29354913532734
time_elpased: 1.59
batch start
#iterations: 478
currently lose_sum: 230.7367134988308
time_elpased: 1.609
batch start
#iterations: 479
currently lose_sum: 229.77857074141502
time_elpased: 2.157
start validation test
0.820257731959
0.836566012784
0.791141219385
0.813219776099
0.819945928407
validation finish
batch start
#iterations: 480
currently lose_sum: 226.80267107486725
time_elpased: 2.07
batch start
#iterations: 481
currently lose_sum: 232.0977986752987
time_elpased: 1.793
batch start
#iterations: 482
currently lose_sum: 230.73033618927002
time_elpased: 1.575
batch start
#iterations: 483
currently lose_sum: 230.09261909127235
time_elpased: 1.6
batch start
#iterations: 484
currently lose_sum: 232.4193205833435
time_elpased: 2.039
batch start
#iterations: 485
currently lose_sum: 232.1436699181795
time_elpased: 2.163
batch start
#iterations: 486
currently lose_sum: 228.21053928136826
time_elpased: 1.861
batch start
#iterations: 487
currently lose_sum: 230.00970724225044
time_elpased: 1.575
batch start
#iterations: 488
currently lose_sum: 228.6626956909895
time_elpased: 1.617
batch start
#iterations: 489
currently lose_sum: 228.78188812732697
time_elpased: 2.005
start validation test
0.81706185567
0.80327046549
0.834497133924
0.818586106425
0.817248566962
validation finish
batch start
#iterations: 490
currently lose_sum: 230.51901663839817
time_elpased: 2.18
batch start
#iterations: 491
currently lose_sum: 231.04777558147907
time_elpased: 1.671
batch start
#iterations: 492
currently lose_sum: 231.43661707639694
time_elpased: 1.588
batch start
#iterations: 493
currently lose_sum: 227.96062202751637
time_elpased: 1.597
batch start
#iterations: 494
currently lose_sum: 230.1234703809023
time_elpased: 2.271
batch start
#iterations: 495
currently lose_sum: 228.14584554731846
time_elpased: 2.186
batch start
#iterations: 496
currently lose_sum: 232.40638709068298
time_elpased: 1.83
batch start
#iterations: 497
currently lose_sum: 227.7874807268381
time_elpased: 1.644
batch start
#iterations: 498
currently lose_sum: 230.34844785928726
time_elpased: 1.698
batch start
#iterations: 499
currently lose_sum: 228.39405590295792
time_elpased: 2.176
start validation test
0.816958762887
0.805006055713
0.831266284523
0.817925447367
0.817111979589
validation finish
batch start
#iterations: 500
currently lose_sum: 229.10759721696377
time_elpased: 2.073
batch start
#iterations: 501
currently lose_sum: 228.65105152130127
time_elpased: 1.652
batch start
#iterations: 502
currently lose_sum: 229.85141004621983
time_elpased: 1.591
batch start
#iterations: 503
currently lose_sum: 228.43995070457458
time_elpased: 1.85
batch start
#iterations: 504
currently lose_sum: 228.86445939540863
time_elpased: 2.136
batch start
#iterations: 505
currently lose_sum: 229.3578776717186
time_elpased: 2.066
batch start
#iterations: 506
currently lose_sum: 228.28637957572937
time_elpased: 1.588
batch start
#iterations: 507
currently lose_sum: 232.27024665474892
time_elpased: 1.595
batch start
#iterations: 508
currently lose_sum: 232.62105955183506
time_elpased: 1.72
batch start
#iterations: 509
currently lose_sum: 232.13965545594692
time_elpased: 2.215
start validation test
0.815567010309
0.799323450403
0.837311099531
0.817876412501
0.815799863891
validation finish
batch start
#iterations: 510
currently lose_sum: 230.4554507434368
time_elpased: 2.03
batch start
#iterations: 511
currently lose_sum: 230.27623434364796
time_elpased: 1.564
batch start
#iterations: 512
currently lose_sum: 228.4021842777729
time_elpased: 1.568
batch start
#iterations: 513
currently lose_sum: 230.01498010754585
time_elpased: 1.97
batch start
#iterations: 514
currently lose_sum: 229.14396001398563
time_elpased: 2.089
batch start
#iterations: 515
currently lose_sum: 229.77596373856068
time_elpased: 1.988
batch start
#iterations: 516
currently lose_sum: 231.71683245897293
time_elpased: 1.603
batch start
#iterations: 517
currently lose_sum: 227.68570524454117
time_elpased: 1.75
batch start
#iterations: 518
currently lose_sum: 230.79353445768356
time_elpased: 2.192
batch start
#iterations: 519
currently lose_sum: 231.5285737067461
time_elpased: 2.193
start validation test
0.818298969072
0.811857788738
0.823449713392
0.817612666218
0.818354127476
validation finish
batch start
#iterations: 520
currently lose_sum: 230.4302245080471
time_elpased: 1.603
batch start
#iterations: 521
currently lose_sum: 229.30621421337128
time_elpased: 1.586
batch start
#iterations: 522
currently lose_sum: 230.92887811362743
time_elpased: 1.844
batch start
#iterations: 523
currently lose_sum: 230.9300264120102
time_elpased: 2.179
batch start
#iterations: 524
currently lose_sum: 231.56767836213112
time_elpased: 2.132
batch start
#iterations: 525
currently lose_sum: 229.21146221458912
time_elpased: 1.581
batch start
#iterations: 526
currently lose_sum: 228.5071116387844
time_elpased: 1.595
batch start
#iterations: 527
currently lose_sum: 229.74000364542007
time_elpased: 1.967
batch start
#iterations: 528
currently lose_sum: 230.5893169939518
time_elpased: 2.248
batch start
#iterations: 529
currently lose_sum: 228.10628147423267
time_elpased: 2.013
start validation test
0.818195876289
0.811755034936
0.823345492444
0.817509184043
0.818251022612
validation finish
batch start
#iterations: 530
currently lose_sum: 229.08223628997803
time_elpased: 1.588
batch start
#iterations: 531
currently lose_sum: 229.5864890664816
time_elpased: 1.696
batch start
#iterations: 532
currently lose_sum: 231.9186685681343
time_elpased: 2.13
batch start
#iterations: 533
currently lose_sum: 230.0864612609148
time_elpased: 2.238
batch start
#iterations: 534
currently lose_sum: 231.1763167232275
time_elpased: 1.749
batch start
#iterations: 535
currently lose_sum: 231.10116404294968
time_elpased: 1.59
batch start
#iterations: 536
currently lose_sum: 230.69852912425995
time_elpased: 1.671
batch start
#iterations: 537
currently lose_sum: 229.10506708920002
time_elpased: 2.119
batch start
#iterations: 538
currently lose_sum: 231.21901108324528
time_elpased: 2.054
batch start
#iterations: 539
currently lose_sum: 228.80696764588356
time_elpased: 1.72
start validation test
0.820670103093
0.827900493245
0.804689942678
0.816130225675
0.820498974399
validation finish
batch start
#iterations: 540
currently lose_sum: 229.45531105995178
time_elpased: 1.575
batch start
#iterations: 541
currently lose_sum: 230.47055041790009
time_elpased: 1.665
batch start
#iterations: 542
currently lose_sum: 229.8361580967903
time_elpased: 2.05
batch start
#iterations: 543
currently lose_sum: 231.24997681379318
time_elpased: 2.135
batch start
#iterations: 544
currently lose_sum: 230.56096002459526
time_elpased: 1.713
batch start
#iterations: 545
currently lose_sum: 229.21275667846203
time_elpased: 1.585
batch start
#iterations: 546
currently lose_sum: 229.1641050875187
time_elpased: 1.656
batch start
#iterations: 547
currently lose_sum: 228.5731729120016
time_elpased: 2.095
batch start
#iterations: 548
currently lose_sum: 228.62710691988468
time_elpased: 2.172
batch start
#iterations: 549
currently lose_sum: 228.15941220521927
time_elpased: 1.742
start validation test
0.817268041237
0.8025
0.836373110995
0.819086501659
0.817472634029
validation finish
batch start
#iterations: 550
currently lose_sum: 228.6450918018818
time_elpased: 1.646
batch start
#iterations: 551
currently lose_sum: 228.437214076519
time_elpased: 1.997
batch start
#iterations: 552
currently lose_sum: 230.90795661509037
time_elpased: 2.008
batch start
#iterations: 553
currently lose_sum: 229.48064750432968
time_elpased: 1.993
batch start
#iterations: 554
currently lose_sum: 230.63249304890633
time_elpased: 1.574
batch start
#iterations: 555
currently lose_sum: 228.23116847872734
time_elpased: 1.602
batch start
#iterations: 556
currently lose_sum: 230.0817760080099
time_elpased: 1.951
batch start
#iterations: 557
currently lose_sum: 232.03702974319458
time_elpased: 2.161
batch start
#iterations: 558
currently lose_sum: 229.19023863971233
time_elpased: 1.797
batch start
#iterations: 559
currently lose_sum: 229.62226176261902
time_elpased: 1.583
start validation test
0.81881443299
0.814830157415
0.820010422095
0.817412082489
0.818827240624
validation finish
batch start
#iterations: 560
currently lose_sum: 229.17104472219944
time_elpased: 1.64
batch start
#iterations: 561
currently lose_sum: 228.85242822766304
time_elpased: 2.257
batch start
#iterations: 562
currently lose_sum: 230.30504904687405
time_elpased: 2.039
batch start
#iterations: 563
currently lose_sum: 230.7222631573677
time_elpased: 1.664
batch start
#iterations: 564
currently lose_sum: 229.99526691436768
time_elpased: 1.573
batch start
#iterations: 565
currently lose_sum: 231.83857411146164
time_elpased: 1.649
batch start
#iterations: 566
currently lose_sum: 230.13981020450592
time_elpased: 2.168
batch start
#iterations: 567
currently lose_sum: 228.92970007658005
time_elpased: 2.166
batch start
#iterations: 568
currently lose_sum: 226.53862772881985
time_elpased: 1.656
batch start
#iterations: 569
currently lose_sum: 230.07028982043266
time_elpased: 1.59
start validation test
0.82
0.82287588615
0.810526315789
0.816654415625
0.819898548002
validation finish
batch start
#iterations: 570
currently lose_sum: 228.1688388735056
time_elpased: 1.94
batch start
#iterations: 571
currently lose_sum: 230.09859324991703
time_elpased: 2.081
batch start
#iterations: 572
currently lose_sum: 229.61857244372368
time_elpased: 2.017
batch start
#iterations: 573
currently lose_sum: 229.46806278824806
time_elpased: 1.569
batch start
#iterations: 574
currently lose_sum: 229.2695730626583
time_elpased: 1.598
batch start
#iterations: 575
currently lose_sum: 227.9294447749853
time_elpased: 1.968
batch start
#iterations: 576
currently lose_sum: 230.96781808137894
time_elpased: 2.078
batch start
#iterations: 577
currently lose_sum: 228.6411609351635
time_elpased: 1.9
batch start
#iterations: 578
currently lose_sum: 230.01691383123398
time_elpased: 1.564
batch start
#iterations: 579
currently lose_sum: 227.1873199045658
time_elpased: 1.589
start validation test
0.819020618557
0.810725229826
0.827201667535
0.818880577766
0.819108227954
validation finish
batch start
#iterations: 580
currently lose_sum: 230.27919228374958
time_elpased: 2.181
batch start
#iterations: 581
currently lose_sum: 229.76723097264767
time_elpased: 2.097
batch start
#iterations: 582
currently lose_sum: 230.03909382224083
time_elpased: 1.728
batch start
#iterations: 583
currently lose_sum: 226.92283433675766
time_elpased: 1.595
batch start
#iterations: 584
currently lose_sum: 230.28767336905003
time_elpased: 1.606
batch start
#iterations: 585
currently lose_sum: 229.41633424162865
time_elpased: 2.116
batch start
#iterations: 586
currently lose_sum: 227.56410166621208
time_elpased: 2.088
batch start
#iterations: 587
currently lose_sum: 228.91945084929466
time_elpased: 1.783
batch start
#iterations: 588
currently lose_sum: 227.2132210433483
time_elpased: 1.567
batch start
#iterations: 589
currently lose_sum: 228.2319701910019
time_elpased: 1.583
start validation test
0.820618556701
0.824472036506
0.809692548202
0.817015459039
0.820501552021
validation finish
batch start
#iterations: 590
currently lose_sum: 229.82368002831936
time_elpased: 2.114
batch start
#iterations: 591
currently lose_sum: 229.85571268200874
time_elpased: 2.089
batch start
#iterations: 592
currently lose_sum: 228.11140650510788
time_elpased: 1.648
batch start
#iterations: 593
currently lose_sum: 228.8805240392685
time_elpased: 1.573
batch start
#iterations: 594
currently lose_sum: 228.69693112373352
time_elpased: 1.662
batch start
#iterations: 595
currently lose_sum: 230.34943291544914
time_elpased: 2.32
batch start
#iterations: 596
currently lose_sum: 230.92131520807743
time_elpased: 2.182
batch start
#iterations: 597
currently lose_sum: 228.1542912274599
time_elpased: 1.62
batch start
#iterations: 598
currently lose_sum: 229.75375640392303
time_elpased: 1.579
batch start
#iterations: 599
currently lose_sum: 231.45949180424213
time_elpased: 1.722
start validation test
0.819020618557
0.817073170732
0.816988014591
0.817030590442
0.818998851763
validation finish
batch start
#iterations: 600
currently lose_sum: 226.35158832371235
time_elpased: 2.121
batch start
#iterations: 601
currently lose_sum: 228.95364028215408
time_elpased: 2.085
batch start
#iterations: 602
currently lose_sum: 227.4180633276701
time_elpased: 1.581
batch start
#iterations: 603
currently lose_sum: 232.22364692389965
time_elpased: 1.578
batch start
#iterations: 604
currently lose_sum: 229.88549330830574
time_elpased: 1.898
batch start
#iterations: 605
currently lose_sum: 227.5917450338602
time_elpased: 2.297
batch start
#iterations: 606
currently lose_sum: 227.99764597415924
time_elpased: 1.952
batch start
#iterations: 607
currently lose_sum: 228.29787148535252
time_elpased: 1.577
batch start
#iterations: 608
currently lose_sum: 228.72903108596802
time_elpased: 1.586
batch start
#iterations: 609
currently lose_sum: 231.90540087223053
time_elpased: 1.951
start validation test
0.821288659794
0.836629312239
0.793642522147
0.814569182222
0.820992602226
validation finish
batch start
#iterations: 610
currently lose_sum: 231.2794909775257
time_elpased: 2.14
batch start
#iterations: 611
currently lose_sum: 228.5148038417101
time_elpased: 1.842
batch start
#iterations: 612
currently lose_sum: 226.08559940755367
time_elpased: 1.577
batch start
#iterations: 613
currently lose_sum: 230.92908443510532
time_elpased: 1.606
batch start
#iterations: 614
currently lose_sum: 228.80513775348663
time_elpased: 2.201
batch start
#iterations: 615
currently lose_sum: 230.0341001302004
time_elpased: 2.043
batch start
#iterations: 616
currently lose_sum: 227.80409683287144
time_elpased: 1.704
batch start
#iterations: 617
currently lose_sum: 229.04601810872555
time_elpased: 1.59
batch start
#iterations: 618
currently lose_sum: 226.18510530889034
time_elpased: 1.686
batch start
#iterations: 619
currently lose_sum: 230.09438471496105
time_elpased: 2.165
start validation test
0.812268041237
0.787779174321
0.84919228765
0.817333734577
0.812663456421
validation finish
batch start
#iterations: 620
currently lose_sum: 231.49690464138985
time_elpased: 2.048
batch start
#iterations: 621
currently lose_sum: 230.524868786335
time_elpased: 1.583
batch start
#iterations: 622
currently lose_sum: 231.61753177642822
time_elpased: 1.61
batch start
#iterations: 623
currently lose_sum: 228.32937502861023
time_elpased: 1.877
batch start
#iterations: 624
currently lose_sum: 230.96292327344418
time_elpased: 2.144
batch start
#iterations: 625
currently lose_sum: 229.28401318192482
time_elpased: 2.067
batch start
#iterations: 626
currently lose_sum: 229.72113460302353
time_elpased: 1.588
batch start
#iterations: 627
currently lose_sum: 228.92835786938667
time_elpased: 1.589
batch start
#iterations: 628
currently lose_sum: 228.64903157949448
time_elpased: 1.874
batch start
#iterations: 629
currently lose_sum: 231.21891270577908
time_elpased: 2.066
start validation test
0.820618556701
0.823442293452
0.811255862428
0.817303653927
0.820518293274
validation finish
batch start
#iterations: 630
currently lose_sum: 230.9230023175478
time_elpased: 1.831
batch start
#iterations: 631
currently lose_sum: 230.87641488015652
time_elpased: 1.595
batch start
#iterations: 632
currently lose_sum: 228.37000912427902
time_elpased: 1.611
batch start
#iterations: 633
currently lose_sum: 230.00320211052895
time_elpased: 2.141
batch start
#iterations: 634
currently lose_sum: 229.29902337491512
time_elpased: 2.063
batch start
#iterations: 635
currently lose_sum: 227.91777946054935
time_elpased: 1.796
batch start
#iterations: 636
currently lose_sum: 229.18114434182644
time_elpased: 1.602
batch start
#iterations: 637
currently lose_sum: 228.8029554784298
time_elpased: 1.635
batch start
#iterations: 638
currently lose_sum: 227.6490692794323
time_elpased: 2.014
batch start
#iterations: 639
currently lose_sum: 225.60405583679676
time_elpased: 2.102
start validation test
0.820412371134
0.822412155745
0.812298071912
0.817323825503
0.820325476548
validation finish
batch start
#iterations: 640
currently lose_sum: 228.2050841152668
time_elpased: 1.653
batch start
#iterations: 641
currently lose_sum: 231.11957181990147
time_elpased: 1.663
batch start
#iterations: 642
currently lose_sum: 231.6687176823616
time_elpased: 1.834
batch start
#iterations: 643
currently lose_sum: 229.16829952597618
time_elpased: 2.13
batch start
#iterations: 644
currently lose_sum: 230.47710894048214
time_elpased: 2.06
batch start
#iterations: 645
currently lose_sum: 228.16019250452518
time_elpased: 1.579
batch start
#iterations: 646
currently lose_sum: 229.45107567310333
time_elpased: 1.608
batch start
#iterations: 647
currently lose_sum: 229.41888058185577
time_elpased: 2.118
batch start
#iterations: 648
currently lose_sum: 229.23366937041283
time_elpased: 2.134
batch start
#iterations: 649
currently lose_sum: 226.85270337760448
time_elpased: 1.84
start validation test
0.821340206186
0.829906340833
0.803439291298
0.816458377462
0.821148508474
validation finish
batch start
#iterations: 650
currently lose_sum: 231.02990217506886
time_elpased: 1.581
batch start
#iterations: 651
currently lose_sum: 229.5997580140829
time_elpased: 1.679
batch start
#iterations: 652
currently lose_sum: 229.33077584207058
time_elpased: 2.205
batch start
#iterations: 653
currently lose_sum: 231.71238999068737
time_elpased: 2.019
batch start
#iterations: 654
currently lose_sum: 230.12778878211975
time_elpased: 1.654
batch start
#iterations: 655
currently lose_sum: 231.41505387425423
time_elpased: 1.582
batch start
#iterations: 656
currently lose_sum: 230.24300952255726
time_elpased: 1.678
batch start
#iterations: 657
currently lose_sum: 228.11812457442284
time_elpased: 2.06
batch start
#iterations: 658
currently lose_sum: 229.22390067577362
time_elpased: 2.175
batch start
#iterations: 659
currently lose_sum: 230.6687607318163
time_elpased: 1.74
start validation test
0.817731958763
0.81049502921
0.824179260031
0.817279867714
0.817801001765
validation finish
batch start
#iterations: 660
currently lose_sum: 228.86185197532177
time_elpased: 1.671
batch start
#iterations: 661
currently lose_sum: 227.62934815883636
time_elpased: 2.008
batch start
#iterations: 662
currently lose_sum: 229.8581002354622
time_elpased: 2.173
batch start
#iterations: 663
currently lose_sum: 231.8128411769867
time_elpased: 1.979
batch start
#iterations: 664
currently lose_sum: 230.66220466792583
time_elpased: 1.583
batch start
#iterations: 665
currently lose_sum: 229.08112961053848
time_elpased: 1.615
batch start
#iterations: 666
currently lose_sum: 230.66212360560894
time_elpased: 2.133
batch start
#iterations: 667
currently lose_sum: 230.94725090265274
time_elpased: 2.235
batch start
#iterations: 668
currently lose_sum: 229.0298154950142
time_elpased: 1.9
batch start
#iterations: 669
currently lose_sum: 228.88026003539562
time_elpased: 1.632
start validation test
0.815412371134
0.800279608548
0.835226680563
0.817379774593
0.815624559047
validation finish
batch start
#iterations: 670
currently lose_sum: 230.5539758503437
time_elpased: 1.766
batch start
#iterations: 671
currently lose_sum: 230.04296225309372
time_elpased: 2.022
batch start
#iterations: 672
currently lose_sum: 229.12524092197418
time_elpased: 2.164
batch start
#iterations: 673
currently lose_sum: 227.74884527921677
time_elpased: 1.658
batch start
#iterations: 674
currently lose_sum: 228.753558665514
time_elpased: 1.587
batch start
#iterations: 675
currently lose_sum: 226.25137551128864
time_elpased: 1.718
batch start
#iterations: 676
currently lose_sum: 229.29011210799217
time_elpased: 2.145
batch start
#iterations: 677
currently lose_sum: 228.8431198000908
time_elpased: 2.219
batch start
#iterations: 678
currently lose_sum: 229.76789778470993
time_elpased: 1.606
batch start
#iterations: 679
currently lose_sum: 230.04708053171635
time_elpased: 1.61
start validation test
0.81824742268
0.813643410853
0.820427305888
0.817021276596
0.818270766662
validation finish
batch start
#iterations: 680
currently lose_sum: 231.77265559136868
time_elpased: 1.969
batch start
#iterations: 681
currently lose_sum: 229.7410529255867
time_elpased: 2.347
batch start
#iterations: 682
currently lose_sum: 227.81274396181107
time_elpased: 1.856
batch start
#iterations: 683
currently lose_sum: 229.08216425776482
time_elpased: 1.595
batch start
#iterations: 684
currently lose_sum: 229.04593761265278
time_elpased: 1.62
batch start
#iterations: 685
currently lose_sum: 228.51708802580833
time_elpased: 2.117
batch start
#iterations: 686
currently lose_sum: 229.85528847575188
time_elpased: 2.223
batch start
#iterations: 687
currently lose_sum: 229.46448887884617
time_elpased: 1.734
batch start
#iterations: 688
currently lose_sum: 230.26467099785805
time_elpased: 1.583
batch start
#iterations: 689
currently lose_sum: 227.67707985639572
time_elpased: 1.617
start validation test
0.817989690722
0.812512883941
0.821573736321
0.817018189356
0.818028071628
validation finish
batch start
#iterations: 690
currently lose_sum: 226.66861741244793
time_elpased: 2.192
batch start
#iterations: 691
currently lose_sum: 230.388373285532
time_elpased: 2.092
batch start
#iterations: 692
currently lose_sum: 229.48701763153076
time_elpased: 1.743
batch start
#iterations: 693
currently lose_sum: 227.93071742355824
time_elpased: 1.649
batch start
#iterations: 694
currently lose_sum: 229.83530244231224
time_elpased: 1.818
batch start
#iterations: 695
currently lose_sum: 230.67662635445595
time_elpased: 2.277
batch start
#iterations: 696
currently lose_sum: 226.43282562494278
time_elpased: 2.265
batch start
#iterations: 697
currently lose_sum: 231.7039943933487
time_elpased: 1.597
batch start
#iterations: 698
currently lose_sum: 230.09476898610592
time_elpased: 1.586
batch start
#iterations: 699
currently lose_sum: 226.89165124297142
time_elpased: 1.807
start validation test
0.81824742268
0.809484956655
0.827201667535
0.81824742268
0.818343312095
validation finish
batch start
#iterations: 700
currently lose_sum: 227.91135615110397
time_elpased: 2.194
batch start
#iterations: 701
currently lose_sum: 227.4891989082098
time_elpased: 1.981
batch start
#iterations: 702
currently lose_sum: 229.5183165371418
time_elpased: 1.662
batch start
#iterations: 703
currently lose_sum: 229.9135036766529
time_elpased: 1.705
batch start
#iterations: 704
currently lose_sum: 227.86164750158787
time_elpased: 2.239
batch start
#iterations: 705
currently lose_sum: 227.88239350914955
time_elpased: 2.259
batch start
#iterations: 706
currently lose_sum: 229.33715215325356
time_elpased: 1.768
batch start
#iterations: 707
currently lose_sum: 227.188512891531
time_elpased: 1.633
batch start
#iterations: 708
currently lose_sum: 228.5637379437685
time_elpased: 1.809
batch start
#iterations: 709
currently lose_sum: 227.1300361007452
time_elpased: 2.162
start validation test
0.820515463918
0.816506161334
0.821782178218
0.819135674216
0.820529028936
validation finish
batch start
#iterations: 710
currently lose_sum: 231.44617241621017
time_elpased: 2.039
batch start
#iterations: 711
currently lose_sum: 228.45249225199223
time_elpased: 1.604
batch start
#iterations: 712
currently lose_sum: 228.5249435454607
time_elpased: 1.606
batch start
#iterations: 713
currently lose_sum: 229.84636445343494
time_elpased: 1.897
batch start
#iterations: 714
currently lose_sum: 229.76161862909794
time_elpased: 2.095
batch start
#iterations: 715
currently lose_sum: 228.89627061784267
time_elpased: 1.972
batch start
#iterations: 716
currently lose_sum: 228.2389861345291
time_elpased: 1.591
batch start
#iterations: 717
currently lose_sum: 228.4116877913475
time_elpased: 1.607
batch start
#iterations: 718
currently lose_sum: 227.22655364871025
time_elpased: 2.173
batch start
#iterations: 719
currently lose_sum: 228.7726068198681
time_elpased: 2.26
start validation test
0.817886597938
0.809475188891
0.826263678999
0.817783279179
0.817976306608
validation finish
batch start
#iterations: 720
currently lose_sum: 230.004080042243
time_elpased: 1.714
batch start
#iterations: 721
currently lose_sum: 227.66050916910172
time_elpased: 1.612
batch start
#iterations: 722
currently lose_sum: 228.40036465227604
time_elpased: 1.794
batch start
#iterations: 723
currently lose_sum: 232.4389557093382
time_elpased: 2.104
batch start
#iterations: 724
currently lose_sum: 228.25719094276428
time_elpased: 2.21
batch start
#iterations: 725
currently lose_sum: 230.46090212464333
time_elpased: 1.592
batch start
#iterations: 726
currently lose_sum: 230.6531119197607
time_elpased: 1.623
batch start
#iterations: 727
currently lose_sum: 230.95523089170456
time_elpased: 1.9
batch start
#iterations: 728
currently lose_sum: 229.8851577937603
time_elpased: 2.156
batch start
#iterations: 729
currently lose_sum: 229.06240397691727
time_elpased: 1.882
start validation test
0.820463917526
0.821548821549
0.81375716519
0.817634431122
0.820392096109
validation finish
batch start
#iterations: 730
currently lose_sum: 229.4667767137289
time_elpased: 1.604
batch start
#iterations: 731
currently lose_sum: 227.86584341526031
time_elpased: 1.612
batch start
#iterations: 732
currently lose_sum: 228.7978271394968
time_elpased: 2.332
batch start
#iterations: 733
currently lose_sum: 228.4056148827076
time_elpased: 2.23
batch start
#iterations: 734
currently lose_sum: 228.49668623507023
time_elpased: 1.646
batch start
#iterations: 735
currently lose_sum: 228.58496817946434
time_elpased: 1.6
batch start
#iterations: 736
currently lose_sum: 230.716354906559
time_elpased: 1.791
batch start
#iterations: 737
currently lose_sum: 227.67510044574738
time_elpased: 2.305
batch start
#iterations: 738
currently lose_sum: 226.71812070906162
time_elpased: 2.106
batch start
#iterations: 739
currently lose_sum: 228.00530828535557
time_elpased: 1.584
start validation test
0.81793814433
0.812429145625
0.821573736321
0.81697585242
0.817977077238
validation finish
batch start
#iterations: 740
currently lose_sum: 226.91330261528492
time_elpased: 1.615
batch start
#iterations: 741
currently lose_sum: 229.75800973176956
time_elpased: 2.124
batch start
#iterations: 742
currently lose_sum: 230.26432275772095
time_elpased: 2.326
batch start
#iterations: 743
currently lose_sum: 229.0213909894228
time_elpased: 1.762
batch start
#iterations: 744
currently lose_sum: 229.06016220152378
time_elpased: 1.604
batch start
#iterations: 745
currently lose_sum: 230.20057505369186
time_elpased: 1.712
batch start
#iterations: 746
currently lose_sum: 228.9754680097103
time_elpased: 2.219
batch start
#iterations: 747
currently lose_sum: 229.23834750056267
time_elpased: 2.078
batch start
#iterations: 748
currently lose_sum: 232.1345116198063
time_elpased: 1.647
batch start
#iterations: 749
currently lose_sum: 227.85163006186485
time_elpased: 1.601
start validation test
0.820773195876
0.820314136126
0.816466909849
0.818386001567
0.820727080626
validation finish
batch start
#iterations: 750
currently lose_sum: 227.10805946588516
time_elpased: 1.917
batch start
#iterations: 751
currently lose_sum: 230.60030122101307
time_elpased: 2.086
batch start
#iterations: 752
currently lose_sum: 227.89543971419334
time_elpased: 2.043
batch start
#iterations: 753
currently lose_sum: 229.90434803068638
time_elpased: 1.674
batch start
#iterations: 754
currently lose_sum: 226.71370553970337
time_elpased: 1.71
batch start
#iterations: 755
currently lose_sum: 229.21790048480034
time_elpased: 2.106
batch start
#iterations: 756
currently lose_sum: 231.52767312526703
time_elpased: 2.044
batch start
#iterations: 757
currently lose_sum: 230.67032086849213
time_elpased: 1.724
batch start
#iterations: 758
currently lose_sum: 227.8130204975605
time_elpased: 1.594
batch start
#iterations: 759
currently lose_sum: 228.81554721295834
time_elpased: 1.754
start validation test
0.819793814433
0.815258968262
0.821886399166
0.818559269255
0.81981622355
validation finish
batch start
#iterations: 760
currently lose_sum: 229.00794273614883
time_elpased: 2.045
batch start
#iterations: 761
currently lose_sum: 229.3677136003971
time_elpased: 2.028
batch start
#iterations: 762
currently lose_sum: 226.87129171192646
time_elpased: 1.586
batch start
#iterations: 763
currently lose_sum: 229.4558394253254
time_elpased: 1.632
batch start
#iterations: 764
currently lose_sum: 226.44160324335098
time_elpased: 1.985
batch start
#iterations: 765
currently lose_sum: 228.7693955898285
time_elpased: 2.142
batch start
#iterations: 766
currently lose_sum: 229.4579576998949
time_elpased: 2.074
batch start
#iterations: 767
currently lose_sum: 228.78190723061562
time_elpased: 1.689
batch start
#iterations: 768
currently lose_sum: 226.7071174532175
time_elpased: 1.706
batch start
#iterations: 769
currently lose_sum: 227.77675342559814
time_elpased: 2.148
start validation test
0.819484536082
0.819239232946
0.814799374674
0.817013272024
0.819434363523
validation finish
batch start
#iterations: 770
currently lose_sum: 229.5552071481943
time_elpased: 2.185
batch start
#iterations: 771
currently lose_sum: 228.07053135335445
time_elpased: 1.614
batch start
#iterations: 772
currently lose_sum: 231.3838408589363
time_elpased: 1.622
batch start
#iterations: 773
currently lose_sum: 229.67283010482788
time_elpased: 1.98
batch start
#iterations: 774
currently lose_sum: 227.81902347505093
time_elpased: 2.312
batch start
#iterations: 775
currently lose_sum: 228.82781234383583
time_elpased: 1.957
batch start
#iterations: 776
currently lose_sum: 227.98196384310722
time_elpased: 1.612
batch start
#iterations: 777
currently lose_sum: 228.53497233986855
time_elpased: 1.632
batch start
#iterations: 778
currently lose_sum: 228.15412291884422
time_elpased: 1.965
batch start
#iterations: 779
currently lose_sum: 227.40645852684975
time_elpased: 2.112
start validation test
0.817525773196
0.806644383673
0.830015633142
0.818163139511
0.817659524883
validation finish
batch start
#iterations: 780
currently lose_sum: 231.7271938174963
time_elpased: 1.717
batch start
#iterations: 781
currently lose_sum: 229.80298732221127
time_elpased: 1.605
batch start
#iterations: 782
currently lose_sum: 230.6353963315487
time_elpased: 1.696
batch start
#iterations: 783
currently lose_sum: 225.67724525928497
time_elpased: 2.113
batch start
#iterations: 784
currently lose_sum: 227.63939744234085
time_elpased: 2.254
batch start
#iterations: 785
currently lose_sum: 228.7505905032158
time_elpased: 1.618
batch start
#iterations: 786
currently lose_sum: 229.5644986629486
time_elpased: 1.606
batch start
#iterations: 787
currently lose_sum: 229.43469834327698
time_elpased: 1.859
batch start
#iterations: 788
currently lose_sum: 228.84107148647308
time_elpased: 2.269
batch start
#iterations: 789
currently lose_sum: 229.3718921840191
time_elpased: 2.14
start validation test
0.819845360825
0.816127694859
0.820635747785
0.818375513174
0.819853824938
validation finish
batch start
#iterations: 790
currently lose_sum: 230.03133833408356
time_elpased: 1.665
batch start
#iterations: 791
currently lose_sum: 227.42255774140358
time_elpased: 1.735
batch start
#iterations: 792
currently lose_sum: 227.4553168118
time_elpased: 2.273
batch start
#iterations: 793
currently lose_sum: 230.68740114569664
time_elpased: 2.241
batch start
#iterations: 794
currently lose_sum: 231.03744141757488
time_elpased: 1.657
batch start
#iterations: 795
currently lose_sum: 227.01044134795666
time_elpased: 1.601
batch start
#iterations: 796
currently lose_sum: 229.1864129304886
time_elpased: 1.784
batch start
#iterations: 797
currently lose_sum: 226.52133540809155
time_elpased: 2.169
batch start
#iterations: 798
currently lose_sum: 228.34035024046898
time_elpased: 2.19
batch start
#iterations: 799
currently lose_sum: 228.30898003280163
time_elpased: 1.643
start validation test
0.817886597938
0.810108450992
0.825221469515
0.817595126233
0.817965145772
validation finish
acc: 0.816
pre: 0.812
rec: 0.824
F1: 0.818
auc: 0.816
