start to construct graph
graph construct over
58300
epochs start
batch start
#iterations: 0
currently lose_sum: 401.68839198350906
time_elpased: 1.501
batch start
#iterations: 1
currently lose_sum: 395.14140355587006
time_elpased: 1.394
batch start
#iterations: 2
currently lose_sum: 385.93957102298737
time_elpased: 1.391
batch start
#iterations: 3
currently lose_sum: 372.4204366803169
time_elpased: 1.384
batch start
#iterations: 4
currently lose_sum: 362.25329154729843
time_elpased: 1.412
batch start
#iterations: 5
currently lose_sum: 351.48176369071007
time_elpased: 1.407
batch start
#iterations: 6
currently lose_sum: 344.48066356778145
time_elpased: 1.419
batch start
#iterations: 7
currently lose_sum: 338.17800509929657
time_elpased: 1.377
batch start
#iterations: 8
currently lose_sum: 329.7358817458153
time_elpased: 1.397
batch start
#iterations: 9
currently lose_sum: 326.1460014283657
time_elpased: 1.404
start validation test
0.725257731959
0.709747221403
0.752058363731
0.730290456432
0.725544735155
validation finish
batch start
#iterations: 10
currently lose_sum: 318.67577064037323
time_elpased: 1.388
batch start
#iterations: 11
currently lose_sum: 316.51875749230385
time_elpased: 1.405
batch start
#iterations: 12
currently lose_sum: 310.81879222393036
time_elpased: 1.415
batch start
#iterations: 13
currently lose_sum: 309.2823306918144
time_elpased: 1.393
batch start
#iterations: 14
currently lose_sum: 301.77846682071686
time_elpased: 1.4
batch start
#iterations: 15
currently lose_sum: 297.5467622578144
time_elpased: 1.403
batch start
#iterations: 16
currently lose_sum: 296.7584034502506
time_elpased: 1.397
batch start
#iterations: 17
currently lose_sum: 293.99182665348053
time_elpased: 1.376
batch start
#iterations: 18
currently lose_sum: 292.605076700449
time_elpased: 1.394
batch start
#iterations: 19
currently lose_sum: 289.0060963332653
time_elpased: 1.394
start validation test
0.77793814433
0.807634120796
0.72329338197
0.763140532219
0.777352963295
validation finish
batch start
#iterations: 20
currently lose_sum: 286.23082810640335
time_elpased: 1.415
batch start
#iterations: 21
currently lose_sum: 285.43175888061523
time_elpased: 1.412
batch start
#iterations: 22
currently lose_sum: 284.5295372605324
time_elpased: 1.408
batch start
#iterations: 23
currently lose_sum: 284.1813497841358
time_elpased: 1.404
batch start
#iterations: 24
currently lose_sum: 278.9912523329258
time_elpased: 1.618
batch start
#iterations: 25
currently lose_sum: 280.8186495900154
time_elpased: 1.456
batch start
#iterations: 26
currently lose_sum: 276.0301032960415
time_elpased: 1.419
batch start
#iterations: 27
currently lose_sum: 274.23211696743965
time_elpased: 1.399
batch start
#iterations: 28
currently lose_sum: 271.81300073862076
time_elpased: 1.411
batch start
#iterations: 29
currently lose_sum: 271.55139937996864
time_elpased: 1.408
start validation test
0.777680412371
0.760043324143
0.804481500782
0.781631309807
0.777967420457
validation finish
batch start
#iterations: 30
currently lose_sum: 270.64732760190964
time_elpased: 1.396
batch start
#iterations: 31
currently lose_sum: 269.95911571383476
time_elpased: 1.424
batch start
#iterations: 32
currently lose_sum: 268.53767839074135
time_elpased: 1.434
batch start
#iterations: 33
currently lose_sum: 268.6744351387024
time_elpased: 1.409
batch start
#iterations: 34
currently lose_sum: 267.2410590350628
time_elpased: 1.396
batch start
#iterations: 35
currently lose_sum: 264.37458926439285
time_elpased: 1.409
batch start
#iterations: 36
currently lose_sum: 265.02813148498535
time_elpased: 1.394
batch start
#iterations: 37
currently lose_sum: 259.4895608127117
time_elpased: 1.395
batch start
#iterations: 38
currently lose_sum: 262.27866554260254
time_elpased: 1.463
batch start
#iterations: 39
currently lose_sum: 261.475696593523
time_elpased: 1.397
start validation test
0.793402061856
0.803410448572
0.770922355393
0.786831188171
0.79316133068
validation finish
batch start
#iterations: 40
currently lose_sum: 258.327030390501
time_elpased: 1.423
batch start
#iterations: 41
currently lose_sum: 263.63835898041725
time_elpased: 1.446
batch start
#iterations: 42
currently lose_sum: 255.82517057657242
time_elpased: 1.406
batch start
#iterations: 43
currently lose_sum: 255.14072728157043
time_elpased: 1.422
batch start
#iterations: 44
currently lose_sum: 259.6378557384014
time_elpased: 1.397
batch start
#iterations: 45
currently lose_sum: 255.34398835897446
time_elpased: 1.42
batch start
#iterations: 46
currently lose_sum: 252.11759775877
time_elpased: 1.432
batch start
#iterations: 47
currently lose_sum: 256.8959501683712
time_elpased: 1.407
batch start
#iterations: 48
currently lose_sum: 256.7379184663296
time_elpased: 1.411
batch start
#iterations: 49
currently lose_sum: 251.3654027879238
time_elpased: 1.395
start validation test
0.796907216495
0.797913813086
0.789265242314
0.793565964581
0.796825379953
validation finish
batch start
#iterations: 50
currently lose_sum: 250.0816205739975
time_elpased: 1.636
batch start
#iterations: 51
currently lose_sum: 253.86274540424347
time_elpased: 1.423
batch start
#iterations: 52
currently lose_sum: 251.80695620179176
time_elpased: 1.405
batch start
#iterations: 53
currently lose_sum: 250.29496243596077
time_elpased: 1.393
batch start
#iterations: 54
currently lose_sum: 247.14754340052605
time_elpased: 1.407
batch start
#iterations: 55
currently lose_sum: 251.27366760373116
time_elpased: 1.41
batch start
#iterations: 56
currently lose_sum: 251.33683103322983
time_elpased: 1.59
batch start
#iterations: 57
currently lose_sum: 249.2491380572319
time_elpased: 1.44
batch start
#iterations: 58
currently lose_sum: 248.42069685459137
time_elpased: 1.393
batch start
#iterations: 59
currently lose_sum: 247.27834904193878
time_elpased: 1.405
start validation test
0.802268041237
0.797622739018
0.804273058885
0.800934094447
0.802289512614
validation finish
batch start
#iterations: 60
currently lose_sum: 245.56547725200653
time_elpased: 1.455
batch start
#iterations: 61
currently lose_sum: 249.44237414002419
time_elpased: 1.433
batch start
#iterations: 62
currently lose_sum: 248.90384486317635
time_elpased: 1.438
batch start
#iterations: 63
currently lose_sum: 245.3822836279869
time_elpased: 1.393
batch start
#iterations: 64
currently lose_sum: 243.14025124907494
time_elpased: 1.395
batch start
#iterations: 65
currently lose_sum: 244.37588387727737
time_elpased: 1.591
batch start
#iterations: 66
currently lose_sum: 242.57098571956158
time_elpased: 1.573
batch start
#iterations: 67
currently lose_sum: 246.54571714997292
time_elpased: 1.458
batch start
#iterations: 68
currently lose_sum: 243.69616892933846
time_elpased: 1.404
batch start
#iterations: 69
currently lose_sum: 244.6879185438156
time_elpased: 1.415
start validation test
0.809690721649
0.848177421258
0.749348619072
0.79570606463
0.809044528812
validation finish
batch start
#iterations: 70
currently lose_sum: 244.47823080420494
time_elpased: 1.591
batch start
#iterations: 71
currently lose_sum: 241.53386676311493
time_elpased: 1.478
batch start
#iterations: 72
currently lose_sum: 241.39609307050705
time_elpased: 1.401
batch start
#iterations: 73
currently lose_sum: 238.8714137673378
time_elpased: 1.395
batch start
#iterations: 74
currently lose_sum: 239.3939779996872
time_elpased: 1.409
batch start
#iterations: 75
currently lose_sum: 240.15258756279945
time_elpased: 1.548
batch start
#iterations: 76
currently lose_sum: 238.80200330913067
time_elpased: 1.39
batch start
#iterations: 77
currently lose_sum: 240.48783600330353
time_elpased: 1.398
batch start
#iterations: 78
currently lose_sum: 240.68182523548603
time_elpased: 1.391
batch start
#iterations: 79
currently lose_sum: 239.09714345633984
time_elpased: 1.398
start validation test
0.809896907216
0.84180071751
0.758103178739
0.797762667252
0.809342257396
validation finish
batch start
#iterations: 80
currently lose_sum: 239.7463168501854
time_elpased: 1.407
batch start
#iterations: 81
currently lose_sum: 237.70305201411247
time_elpased: 1.384
batch start
#iterations: 82
currently lose_sum: 239.15467257797718
time_elpased: 1.408
batch start
#iterations: 83
currently lose_sum: 240.5378291606903
time_elpased: 1.388
batch start
#iterations: 84
currently lose_sum: 240.30395594239235
time_elpased: 1.408
batch start
#iterations: 85
currently lose_sum: 236.61184030771255
time_elpased: 1.527
batch start
#iterations: 86
currently lose_sum: 239.50371964275837
time_elpased: 1.389
batch start
#iterations: 87
currently lose_sum: 236.9946769475937
time_elpased: 1.394
batch start
#iterations: 88
currently lose_sum: 236.98614621162415
time_elpased: 1.558
batch start
#iterations: 89
currently lose_sum: 234.67744074761868
time_elpased: 1.497
start validation test
0.808092783505
0.805007271972
0.807608129234
0.806305603246
0.808087593429
validation finish
batch start
#iterations: 90
currently lose_sum: 236.4885735809803
time_elpased: 1.402
batch start
#iterations: 91
currently lose_sum: 237.14040863513947
time_elpased: 1.4
batch start
#iterations: 92
currently lose_sum: 236.0763321518898
time_elpased: 1.38
batch start
#iterations: 93
currently lose_sum: 234.1435907781124
time_elpased: 1.397
batch start
#iterations: 94
currently lose_sum: 238.9150725901127
time_elpased: 1.386
batch start
#iterations: 95
currently lose_sum: 235.92355701327324
time_elpased: 1.396
batch start
#iterations: 96
currently lose_sum: 234.37318594753742
time_elpased: 1.406
batch start
#iterations: 97
currently lose_sum: 234.22298154234886
time_elpased: 1.413
batch start
#iterations: 98
currently lose_sum: 233.5320963561535
time_elpased: 1.408
batch start
#iterations: 99
currently lose_sum: 234.75910064578056
time_elpased: 1.492
start validation test
0.815257731959
0.821066125414
0.801042209484
0.810930576071
0.815105500459
validation finish
batch start
#iterations: 100
currently lose_sum: 235.90439355373383
time_elpased: 1.594
batch start
#iterations: 101
currently lose_sum: 235.38648962974548
time_elpased: 1.401
batch start
#iterations: 102
currently lose_sum: 234.00476852059364
time_elpased: 1.403
batch start
#iterations: 103
currently lose_sum: 233.00001960992813
time_elpased: 1.415
batch start
#iterations: 104
currently lose_sum: 234.24651914834976
time_elpased: 1.463
batch start
#iterations: 105
currently lose_sum: 234.8040028065443
time_elpased: 1.414
batch start
#iterations: 106
currently lose_sum: 234.87814718484879
time_elpased: 1.389
batch start
#iterations: 107
currently lose_sum: 233.5022258758545
time_elpased: 1.383
batch start
#iterations: 108
currently lose_sum: 234.11491937935352
time_elpased: 1.407
batch start
#iterations: 109
currently lose_sum: 231.85230968892574
time_elpased: 1.422
start validation test
0.816597938144
0.842894467795
0.773319437207
0.806609414067
0.81613447638
validation finish
batch start
#iterations: 110
currently lose_sum: 233.20091480016708
time_elpased: 1.586
batch start
#iterations: 111
currently lose_sum: 236.0990396142006
time_elpased: 1.583
batch start
#iterations: 112
currently lose_sum: 233.29694485664368
time_elpased: 1.571
batch start
#iterations: 113
currently lose_sum: 233.31851272284985
time_elpased: 1.692
batch start
#iterations: 114
currently lose_sum: 233.87926015257835
time_elpased: 1.51
batch start
#iterations: 115
currently lose_sum: 235.22152480483055
time_elpased: 1.672
batch start
#iterations: 116
currently lose_sum: 233.53530958294868
time_elpased: 1.682
batch start
#iterations: 117
currently lose_sum: 229.89093798398972
time_elpased: 1.558
batch start
#iterations: 118
currently lose_sum: 232.39134907722473
time_elpased: 1.684
batch start
#iterations: 119
currently lose_sum: 232.31891828775406
time_elpased: 1.527
start validation test
0.816443298969
0.862271853987
0.748410630537
0.801316743849
0.815714749231
validation finish
batch start
#iterations: 120
currently lose_sum: 234.3595451414585
time_elpased: 1.55
batch start
#iterations: 121
currently lose_sum: 231.0250423103571
time_elpased: 2.315
batch start
#iterations: 122
currently lose_sum: 233.14364424347878
time_elpased: 2.098
batch start
#iterations: 123
currently lose_sum: 231.95777666568756
time_elpased: 1.538
batch start
#iterations: 124
currently lose_sum: 230.20020665228367
time_elpased: 1.608
batch start
#iterations: 125
currently lose_sum: 231.3574055582285
time_elpased: 1.406
batch start
#iterations: 126
currently lose_sum: 229.6362066268921
time_elpased: 1.409
batch start
#iterations: 127
currently lose_sum: 229.5455057322979
time_elpased: 1.419
batch start
#iterations: 128
currently lose_sum: 229.39576187729836
time_elpased: 1.412
batch start
#iterations: 129
currently lose_sum: 231.84091882407665
time_elpased: 1.434
start validation test
0.816391752577
0.818902632414
0.807295466389
0.813057625695
0.816294342067
validation finish
batch start
#iterations: 130
currently lose_sum: 228.2820839434862
time_elpased: 1.436
batch start
#iterations: 131
currently lose_sum: 231.18299087882042
time_elpased: 1.447
batch start
#iterations: 132
currently lose_sum: 230.79080799221992
time_elpased: 1.41
batch start
#iterations: 133
currently lose_sum: 231.75655564665794
time_elpased: 1.39
batch start
#iterations: 134
currently lose_sum: 229.21527262032032
time_elpased: 1.4
batch start
#iterations: 135
currently lose_sum: 228.77706007659435
time_elpased: 1.395
batch start
#iterations: 136
currently lose_sum: 227.5825698375702
time_elpased: 1.432
batch start
#iterations: 137
currently lose_sum: 228.09076945483685
time_elpased: 1.429
batch start
#iterations: 138
currently lose_sum: 228.93290761113167
time_elpased: 1.402
batch start
#iterations: 139
currently lose_sum: 228.90421453118324
time_elpased: 1.414
start validation test
0.816546391753
0.838492597577
0.779155810318
0.807735940792
0.81614598267
validation finish
batch start
#iterations: 140
currently lose_sum: 228.3657304495573
time_elpased: 1.621
batch start
#iterations: 141
currently lose_sum: 228.94356995821
time_elpased: 1.586
batch start
#iterations: 142
currently lose_sum: 227.90996038913727
time_elpased: 1.488
batch start
#iterations: 143
currently lose_sum: 226.9868448972702
time_elpased: 1.456
batch start
#iterations: 144
currently lose_sum: 228.53005465865135
time_elpased: 1.415
batch start
#iterations: 145
currently lose_sum: 228.7231049388647
time_elpased: 1.398
batch start
#iterations: 146
currently lose_sum: 228.70844788849354
time_elpased: 1.406
batch start
#iterations: 147
currently lose_sum: 227.01793611049652
time_elpased: 1.396
batch start
#iterations: 148
currently lose_sum: 228.13511902093887
time_elpased: 1.398
batch start
#iterations: 149
currently lose_sum: 227.57966385781765
time_elpased: 1.402
start validation test
0.821288659794
0.854383529956
0.769880145909
0.809933665917
0.820738135168
validation finish
batch start
#iterations: 150
currently lose_sum: 227.1145444959402
time_elpased: 1.412
batch start
#iterations: 151
currently lose_sum: 227.23443138599396
time_elpased: 1.41
batch start
#iterations: 152
currently lose_sum: 226.6563045233488
time_elpased: 1.43
batch start
#iterations: 153
currently lose_sum: 227.98833791911602
time_elpased: 1.437
batch start
#iterations: 154
currently lose_sum: 226.29579657316208
time_elpased: 1.474
batch start
#iterations: 155
currently lose_sum: 225.39695489406586
time_elpased: 1.391
batch start
#iterations: 156
currently lose_sum: 225.33325470983982
time_elpased: 1.399
batch start
#iterations: 157
currently lose_sum: 224.50516989827156
time_elpased: 1.42
batch start
#iterations: 158
currently lose_sum: 226.3699408620596
time_elpased: 1.408
batch start
#iterations: 159
currently lose_sum: 225.96345737576485
time_elpased: 1.422
start validation test
0.807886597938
0.815551731555
0.790307451798
0.802731170275
0.807698345991
validation finish
batch start
#iterations: 160
currently lose_sum: 226.5641831755638
time_elpased: 1.446
batch start
#iterations: 161
currently lose_sum: 223.99378757178783
time_elpased: 1.399
batch start
#iterations: 162
currently lose_sum: 224.63230019807816
time_elpased: 1.41
batch start
#iterations: 163
currently lose_sum: 224.02272194623947
time_elpased: 1.411
batch start
#iterations: 164
currently lose_sum: 222.10183691978455
time_elpased: 1.379
batch start
#iterations: 165
currently lose_sum: 222.63667206466198
time_elpased: 1.424
batch start
#iterations: 166
currently lose_sum: 221.5589541196823
time_elpased: 1.413
batch start
#iterations: 167
currently lose_sum: 222.9435991048813
time_elpased: 1.405
batch start
#iterations: 168
currently lose_sum: 223.49263466894627
time_elpased: 1.423
batch start
#iterations: 169
currently lose_sum: 225.43486776947975
time_elpased: 1.427
start validation test
0.823865979381
0.841401414677
0.79343408025
0.816714048168
0.82354008959
validation finish
batch start
#iterations: 170
currently lose_sum: 223.3454438149929
time_elpased: 1.467
batch start
#iterations: 171
currently lose_sum: 224.51881258189678
time_elpased: 1.606
batch start
#iterations: 172
currently lose_sum: 223.22870814800262
time_elpased: 1.59
batch start
#iterations: 173
currently lose_sum: 224.59458415210247
time_elpased: 1.404
batch start
#iterations: 174
currently lose_sum: 224.73264218866825
time_elpased: 1.61
batch start
#iterations: 175
currently lose_sum: 225.79123240709305
time_elpased: 1.435
batch start
#iterations: 176
currently lose_sum: 220.42319540679455
time_elpased: 1.418
batch start
#iterations: 177
currently lose_sum: 225.51608741283417
time_elpased: 1.413
batch start
#iterations: 178
currently lose_sum: 223.96152904629707
time_elpased: 1.405
batch start
#iterations: 179
currently lose_sum: 223.52050076425076
time_elpased: 1.406
start validation test
0.822164948454
0.861343055392
0.763314226159
0.809371201238
0.821534726542
validation finish
batch start
#iterations: 180
currently lose_sum: 223.47637383639812
time_elpased: 1.593
batch start
#iterations: 181
currently lose_sum: 221.36564874649048
time_elpased: 1.45
batch start
#iterations: 182
currently lose_sum: 224.21740804612637
time_elpased: 1.42
batch start
#iterations: 183
currently lose_sum: 221.19394999742508
time_elpased: 1.402
batch start
#iterations: 184
currently lose_sum: 222.02830684185028
time_elpased: 1.416
batch start
#iterations: 185
currently lose_sum: 223.52626879513264
time_elpased: 1.441
batch start
#iterations: 186
currently lose_sum: 221.53125450015068
time_elpased: 1.409
batch start
#iterations: 187
currently lose_sum: 221.9965997338295
time_elpased: 1.413
batch start
#iterations: 188
currently lose_sum: 222.0005473345518
time_elpased: 1.417
batch start
#iterations: 189
currently lose_sum: 220.1072380542755
time_elpased: 1.41
start validation test
0.825154639175
0.846962747511
0.789056800417
0.81698500054
0.824768073844
validation finish
batch start
#iterations: 190
currently lose_sum: 222.4384866952896
time_elpased: 1.425
batch start
#iterations: 191
currently lose_sum: 224.34809732437134
time_elpased: 1.391
batch start
#iterations: 192
currently lose_sum: 223.46488988399506
time_elpased: 1.416
batch start
#iterations: 193
currently lose_sum: 220.8979127407074
time_elpased: 1.397
batch start
#iterations: 194
currently lose_sum: 224.011025801301
time_elpased: 1.395
batch start
#iterations: 195
currently lose_sum: 219.2135543525219
time_elpased: 1.402
batch start
#iterations: 196
currently lose_sum: 220.2238005399704
time_elpased: 1.392
batch start
#iterations: 197
currently lose_sum: 222.59289473295212
time_elpased: 1.433
batch start
#iterations: 198
currently lose_sum: 220.47611543536186
time_elpased: 1.412
batch start
#iterations: 199
currently lose_sum: 221.7643766105175
time_elpased: 1.418
start validation test
0.82087628866
0.828255739112
0.804689942678
0.816302796426
0.820702951961
validation finish
batch start
#iterations: 200
currently lose_sum: 220.94030375778675
time_elpased: 1.438
batch start
#iterations: 201
currently lose_sum: 223.19234523177147
time_elpased: 1.403
batch start
#iterations: 202
currently lose_sum: 222.59080761671066
time_elpased: 1.439
batch start
#iterations: 203
currently lose_sum: 220.70346361398697
time_elpased: 1.418
batch start
#iterations: 204
currently lose_sum: 219.95030462741852
time_elpased: 1.411
batch start
#iterations: 205
currently lose_sum: 221.3432197123766
time_elpased: 1.418
batch start
#iterations: 206
currently lose_sum: 222.63148027658463
time_elpased: 1.406
batch start
#iterations: 207
currently lose_sum: 221.79550927877426
time_elpased: 1.497
batch start
#iterations: 208
currently lose_sum: 221.35620519518852
time_elpased: 1.405
batch start
#iterations: 209
currently lose_sum: 221.158885627985
time_elpased: 1.422
start validation test
0.823556701031
0.862121567707
0.765711307973
0.811061434012
0.822937245011
validation finish
batch start
#iterations: 210
currently lose_sum: 222.5305483341217
time_elpased: 1.641
batch start
#iterations: 211
currently lose_sum: 222.36643478274345
time_elpased: 1.517
batch start
#iterations: 212
currently lose_sum: 220.05437177419662
time_elpased: 1.436
batch start
#iterations: 213
currently lose_sum: 219.42644527554512
time_elpased: 1.432
batch start
#iterations: 214
currently lose_sum: 220.5611727386713
time_elpased: 1.423
batch start
#iterations: 215
currently lose_sum: 219.84143505990505
time_elpased: 1.434
batch start
#iterations: 216
currently lose_sum: 219.74412028491497
time_elpased: 1.41
batch start
#iterations: 217
currently lose_sum: 220.31694316864014
time_elpased: 1.413
batch start
#iterations: 218
currently lose_sum: 221.7982129305601
time_elpased: 1.4
batch start
#iterations: 219
currently lose_sum: 220.88632640242577
time_elpased: 1.4
start validation test
0.823917525773
0.854259832588
0.776446065659
0.813496396593
0.823409162355
validation finish
batch start
#iterations: 220
currently lose_sum: 218.25749361515045
time_elpased: 1.426
batch start
#iterations: 221
currently lose_sum: 222.09283630549908
time_elpased: 1.382
batch start
#iterations: 222
currently lose_sum: 219.95505098998547
time_elpased: 1.398
batch start
#iterations: 223
currently lose_sum: 221.6592680811882
time_elpased: 1.437
batch start
#iterations: 224
currently lose_sum: 221.7788550555706
time_elpased: 1.405
batch start
#iterations: 225
currently lose_sum: 219.85663840174675
time_elpased: 1.395
batch start
#iterations: 226
currently lose_sum: 222.19430768489838
time_elpased: 1.469
batch start
#iterations: 227
currently lose_sum: 219.71467424929142
time_elpased: 1.398
batch start
#iterations: 228
currently lose_sum: 221.17006361484528
time_elpased: 1.422
batch start
#iterations: 229
currently lose_sum: 222.70539090037346
time_elpased: 1.42
start validation test
0.823041237113
0.847585740072
0.783011985409
0.814020261119
0.822612570981
validation finish
batch start
#iterations: 230
currently lose_sum: 220.78979213535786
time_elpased: 1.423
batch start
#iterations: 231
currently lose_sum: 218.5039029866457
time_elpased: 1.415
batch start
#iterations: 232
currently lose_sum: 221.04982921481133
time_elpased: 1.406
batch start
#iterations: 233
currently lose_sum: 219.70598556101322
time_elpased: 1.435
batch start
#iterations: 234
currently lose_sum: 220.3288999646902
time_elpased: 1.434
batch start
#iterations: 235
currently lose_sum: 219.99132369458675
time_elpased: 1.439
batch start
#iterations: 236
currently lose_sum: 220.19989210367203
time_elpased: 1.398
batch start
#iterations: 237
currently lose_sum: 220.61382798850536
time_elpased: 1.409
batch start
#iterations: 238
currently lose_sum: 221.50024130940437
time_elpased: 1.417
batch start
#iterations: 239
currently lose_sum: 220.35386253893375
time_elpased: 1.457
start validation test
0.822731958763
0.850569476082
0.778322042731
0.812843537415
0.822256380876
validation finish
batch start
#iterations: 240
currently lose_sum: 217.08514791727066
time_elpased: 1.443
batch start
#iterations: 241
currently lose_sum: 218.14961823821068
time_elpased: 1.41
batch start
#iterations: 242
currently lose_sum: 220.71423482894897
time_elpased: 1.408
batch start
#iterations: 243
currently lose_sum: 221.24297504127026
time_elpased: 1.452
batch start
#iterations: 244
currently lose_sum: 217.75343514978886
time_elpased: 1.401
batch start
#iterations: 245
currently lose_sum: 218.2095234543085
time_elpased: 1.421
batch start
#iterations: 246
currently lose_sum: 217.6911166459322
time_elpased: 1.388
batch start
#iterations: 247
currently lose_sum: 222.03511311113834
time_elpased: 1.425
batch start
#iterations: 248
currently lose_sum: 219.0119744837284
time_elpased: 1.461
batch start
#iterations: 249
currently lose_sum: 221.102097094059
time_elpased: 1.413
start validation test
0.824639175258
0.846791354015
0.788014590933
0.816346361477
0.824246969102
validation finish
batch start
#iterations: 250
currently lose_sum: 221.45786871016026
time_elpased: 1.564
batch start
#iterations: 251
currently lose_sum: 220.54980072379112
time_elpased: 1.442
batch start
#iterations: 252
currently lose_sum: 220.0256863385439
time_elpased: 1.452
batch start
#iterations: 253
currently lose_sum: 219.6148245036602
time_elpased: 1.409
batch start
#iterations: 254
currently lose_sum: 222.15167893469334
time_elpased: 1.396
batch start
#iterations: 255
currently lose_sum: 220.5033699721098
time_elpased: 1.417
batch start
#iterations: 256
currently lose_sum: 219.05068308115005
time_elpased: 1.404
batch start
#iterations: 257
currently lose_sum: 222.26732099056244
time_elpased: 1.397
batch start
#iterations: 258
currently lose_sum: 218.7294964492321
time_elpased: 1.398
batch start
#iterations: 259
currently lose_sum: 220.57928976416588
time_elpased: 1.431
start validation test
0.824329896907
0.835411471322
0.803022407504
0.818896800935
0.824101718795
validation finish
batch start
#iterations: 260
currently lose_sum: 219.46864442527294
time_elpased: 1.386
batch start
#iterations: 261
currently lose_sum: 218.1442345827818
time_elpased: 1.53
batch start
#iterations: 262
currently lose_sum: 220.00447697937489
time_elpased: 1.559
batch start
#iterations: 263
currently lose_sum: 221.11395312845707
time_elpased: 1.63
batch start
#iterations: 264
currently lose_sum: 217.6931021362543
time_elpased: 1.561
batch start
#iterations: 265
currently lose_sum: 220.0734289586544
time_elpased: 1.607
batch start
#iterations: 266
currently lose_sum: 219.08979639410973
time_elpased: 1.622
batch start
#iterations: 267
currently lose_sum: 221.23328903317451
time_elpased: 1.5
batch start
#iterations: 268
currently lose_sum: 220.45688965916634
time_elpased: 1.569
batch start
#iterations: 269
currently lose_sum: 218.483809158206
time_elpased: 1.514
start validation test
0.819587628866
0.844778821134
0.778217821782
0.810133449062
0.819144606965
validation finish
batch start
#iterations: 270
currently lose_sum: 219.74196469783783
time_elpased: 1.492
batch start
#iterations: 271
currently lose_sum: 222.30542075634003
time_elpased: 1.576
batch start
#iterations: 272
currently lose_sum: 219.07574823498726
time_elpased: 1.523
batch start
#iterations: 273
currently lose_sum: 220.9674430191517
time_elpased: 2.218
batch start
#iterations: 274
currently lose_sum: 219.75148336589336
time_elpased: 1.552
batch start
#iterations: 275
currently lose_sum: 220.25250247120857
time_elpased: 1.577
batch start
#iterations: 276
currently lose_sum: 219.09803415834904
time_elpased: 1.498
batch start
#iterations: 277
currently lose_sum: 218.9638395756483
time_elpased: 1.444
batch start
#iterations: 278
currently lose_sum: 218.54476276040077
time_elpased: 1.413
batch start
#iterations: 279
currently lose_sum: 221.1492229551077
time_elpased: 1.426
start validation test
0.823144329897
0.845128779395
0.786555497655
0.814790823212
0.822752506604
validation finish
batch start
#iterations: 280
currently lose_sum: 220.28570038080215
time_elpased: 1.439
batch start
#iterations: 281
currently lose_sum: 221.33034533262253
time_elpased: 1.416
batch start
#iterations: 282
currently lose_sum: 217.75679601728916
time_elpased: 1.477
batch start
#iterations: 283
currently lose_sum: 218.84943978488445
time_elpased: 1.527
batch start
#iterations: 284
currently lose_sum: 218.45484340190887
time_elpased: 1.582
batch start
#iterations: 285
currently lose_sum: 219.70621375739574
time_elpased: 1.45
batch start
#iterations: 286
currently lose_sum: 220.65878918766975
time_elpased: 1.43
batch start
#iterations: 287
currently lose_sum: 219.64597918093204
time_elpased: 1.606
batch start
#iterations: 288
currently lose_sum: 217.6038556843996
time_elpased: 1.408
batch start
#iterations: 289
currently lose_sum: 217.83911457657814
time_elpased: 1.438
start validation test
0.822010309278
0.837992515959
0.793538301199
0.81515978802
0.821705407611
validation finish
batch start
#iterations: 290
currently lose_sum: 218.1517549753189
time_elpased: 1.46
batch start
#iterations: 291
currently lose_sum: 218.5429416745901
time_elpased: 1.424
batch start
#iterations: 292
currently lose_sum: 220.37429352104664
time_elpased: 1.406
batch start
#iterations: 293
currently lose_sum: 216.44172567129135
time_elpased: 1.423
batch start
#iterations: 294
currently lose_sum: 219.09763938188553
time_elpased: 1.47
batch start
#iterations: 295
currently lose_sum: 220.1689352542162
time_elpased: 1.548
batch start
#iterations: 296
currently lose_sum: 218.1358424425125
time_elpased: 1.41
batch start
#iterations: 297
currently lose_sum: 217.6202630996704
time_elpased: 1.408
batch start
#iterations: 298
currently lose_sum: 217.36698524653912
time_elpased: 1.394
batch start
#iterations: 299
currently lose_sum: 218.04409454762936
time_elpased: 1.397
start validation test
0.824226804124
0.846809465067
0.786972381449
0.815795159896
0.823827853141
validation finish
batch start
#iterations: 300
currently lose_sum: 220.12867352366447
time_elpased: 1.649
batch start
#iterations: 301
currently lose_sum: 218.38888330757618
time_elpased: 1.604
batch start
#iterations: 302
currently lose_sum: 219.5874418914318
time_elpased: 1.498
batch start
#iterations: 303
currently lose_sum: 218.50221356749535
time_elpased: 1.422
batch start
#iterations: 304
currently lose_sum: 216.9714064747095
time_elpased: 1.415
batch start
#iterations: 305
currently lose_sum: 219.58534361422062
time_elpased: 1.381
batch start
#iterations: 306
currently lose_sum: 217.4319996535778
time_elpased: 1.398
batch start
#iterations: 307
currently lose_sum: 219.49159203469753
time_elpased: 1.378
batch start
#iterations: 308
currently lose_sum: 217.70276202261448
time_elpased: 1.413
batch start
#iterations: 309
currently lose_sum: 219.65479619801044
time_elpased: 1.407
start validation test
0.824432989691
0.8497795863
0.783533090151
0.81531287279
0.823994999946
validation finish
batch start
#iterations: 310
currently lose_sum: 219.44550544023514
time_elpased: 1.591
batch start
#iterations: 311
currently lose_sum: 217.83889931440353
time_elpased: 1.647
batch start
#iterations: 312
currently lose_sum: 217.60566551983356
time_elpased: 1.668
batch start
#iterations: 313
currently lose_sum: 219.41151832044125
time_elpased: 1.495
batch start
#iterations: 314
currently lose_sum: 219.27987363934517
time_elpased: 1.401
batch start
#iterations: 315
currently lose_sum: 217.0350221246481
time_elpased: 1.411
batch start
#iterations: 316
currently lose_sum: 216.18159395456314
time_elpased: 1.424
batch start
#iterations: 317
currently lose_sum: 218.67996153235435
time_elpased: 1.412
batch start
#iterations: 318
currently lose_sum: 215.04157622158527
time_elpased: 1.406
batch start
#iterations: 319
currently lose_sum: 217.59658616781235
time_elpased: 1.459
start validation test
0.824072164948
0.847147349506
0.786138613861
0.815503540732
0.823665941301
validation finish
batch start
#iterations: 320
currently lose_sum: 218.4763476997614
time_elpased: 1.422
batch start
#iterations: 321
currently lose_sum: 219.11438855528831
time_elpased: 1.405
batch start
#iterations: 322
currently lose_sum: 217.49374367296696
time_elpased: 1.397
batch start
#iterations: 323
currently lose_sum: 217.41262166202068
time_elpased: 1.404
batch start
#iterations: 324
currently lose_sum: 217.88209722936153
time_elpased: 1.39
batch start
#iterations: 325
currently lose_sum: 220.4030792415142
time_elpased: 1.442
batch start
#iterations: 326
currently lose_sum: 216.5010588467121
time_elpased: 1.426
batch start
#iterations: 327
currently lose_sum: 218.55308452248573
time_elpased: 1.382
batch start
#iterations: 328
currently lose_sum: 217.67686060070992
time_elpased: 1.446
batch start
#iterations: 329
currently lose_sum: 218.88322082161903
time_elpased: 1.431
start validation test
0.824793814433
0.841189427313
0.79603960396
0.817991967871
0.82448589071
validation finish
batch start
#iterations: 330
currently lose_sum: 217.13315710425377
time_elpased: 1.454
batch start
#iterations: 331
currently lose_sum: 221.3004028648138
time_elpased: 1.394
batch start
#iterations: 332
currently lose_sum: 218.28922912478447
time_elpased: 1.403
batch start
#iterations: 333
currently lose_sum: 217.57819268107414
time_elpased: 1.418
batch start
#iterations: 334
currently lose_sum: 217.6586473584175
time_elpased: 1.406
batch start
#iterations: 335
currently lose_sum: 218.61547458171844
time_elpased: 1.41
batch start
#iterations: 336
currently lose_sum: 217.4326754361391
time_elpased: 1.417
batch start
#iterations: 337
currently lose_sum: 217.10502010583878
time_elpased: 1.418
batch start
#iterations: 338
currently lose_sum: 217.99497957527637
time_elpased: 1.403
batch start
#iterations: 339
currently lose_sum: 220.33602052927017
time_elpased: 1.42
start validation test
0.824072164948
0.843139431616
0.791558103179
0.816534967478
0.823723977648
validation finish
batch start
#iterations: 340
currently lose_sum: 219.88617189228535
time_elpased: 1.438
batch start
#iterations: 341
currently lose_sum: 219.1976653188467
time_elpased: 1.39
batch start
#iterations: 342
currently lose_sum: 219.97707307338715
time_elpased: 1.387
batch start
#iterations: 343
currently lose_sum: 217.50226497650146
time_elpased: 1.406
batch start
#iterations: 344
currently lose_sum: 217.77200075984
time_elpased: 1.391
batch start
#iterations: 345
currently lose_sum: 219.63687260448933
time_elpased: 1.401
batch start
#iterations: 346
currently lose_sum: 217.3847432434559
time_elpased: 1.408
batch start
#iterations: 347
currently lose_sum: 214.04877170920372
time_elpased: 1.399
batch start
#iterations: 348
currently lose_sum: 218.26946127414703
time_elpased: 1.458
batch start
#iterations: 349
currently lose_sum: 218.76995749771595
time_elpased: 1.399
start validation test
0.823298969072
0.831167436366
0.80656591975
0.818681899926
0.823119777825
validation finish
batch start
#iterations: 350
currently lose_sum: 216.59572565555573
time_elpased: 1.403
batch start
#iterations: 351
currently lose_sum: 217.58714951574802
time_elpased: 1.389
batch start
#iterations: 352
currently lose_sum: 215.36681701242924
time_elpased: 1.407
batch start
#iterations: 353
currently lose_sum: 218.33905158936977
time_elpased: 1.399
batch start
#iterations: 354
currently lose_sum: 215.44323863089085
time_elpased: 1.412
batch start
#iterations: 355
currently lose_sum: 218.48398105800152
time_elpased: 1.423
batch start
#iterations: 356
currently lose_sum: 215.06946897506714
time_elpased: 1.432
batch start
#iterations: 357
currently lose_sum: 218.06378400325775
time_elpased: 1.394
batch start
#iterations: 358
currently lose_sum: 215.9757415652275
time_elpased: 1.438
batch start
#iterations: 359
currently lose_sum: 217.66172410547733
time_elpased: 1.382
start validation test
0.823917525773
0.858369098712
0.771235018239
0.812472551603
0.823353358176
validation finish
batch start
#iterations: 360
currently lose_sum: 219.27301137149334
time_elpased: 1.404
batch start
#iterations: 361
currently lose_sum: 216.86210583150387
time_elpased: 1.412
batch start
#iterations: 362
currently lose_sum: 215.00371508300304
time_elpased: 1.432
batch start
#iterations: 363
currently lose_sum: 217.67004470527172
time_elpased: 1.426
batch start
#iterations: 364
currently lose_sum: 215.02961254119873
time_elpased: 1.388
batch start
#iterations: 365
currently lose_sum: 217.11573231220245
time_elpased: 1.415
batch start
#iterations: 366
currently lose_sum: 217.9000588208437
time_elpased: 1.442
batch start
#iterations: 367
currently lose_sum: 218.38140434026718
time_elpased: 1.437
batch start
#iterations: 368
currently lose_sum: 219.0022477209568
time_elpased: 1.433
batch start
#iterations: 369
currently lose_sum: 216.3961886614561
time_elpased: 1.441
start validation test
0.825309278351
0.847324826505
0.788952579468
0.817097522802
0.824919940933
validation finish
batch start
#iterations: 370
currently lose_sum: 215.66647458076477
time_elpased: 1.456
batch start
#iterations: 371
currently lose_sum: 214.68247228860855
time_elpased: 1.394
batch start
#iterations: 372
currently lose_sum: 219.39812353253365
time_elpased: 1.404
batch start
#iterations: 373
currently lose_sum: 217.71969124674797
time_elpased: 1.422
batch start
#iterations: 374
currently lose_sum: 219.38543918728828
time_elpased: 1.45
batch start
#iterations: 375
currently lose_sum: 217.49613861739635
time_elpased: 1.401
batch start
#iterations: 376
currently lose_sum: 217.87298423051834
time_elpased: 1.389
batch start
#iterations: 377
currently lose_sum: 216.72068463265896
time_elpased: 1.445
batch start
#iterations: 378
currently lose_sum: 217.06199637055397
time_elpased: 1.407
batch start
#iterations: 379
currently lose_sum: 218.056400090456
time_elpased: 1.407
start validation test
0.822268041237
0.826239252733
0.811255862428
0.818679007152
0.822150113774
validation finish
batch start
#iterations: 380
currently lose_sum: 218.11553737521172
time_elpased: 1.419
batch start
#iterations: 381
currently lose_sum: 217.59946849942207
time_elpased: 1.421
batch start
#iterations: 382
currently lose_sum: 214.69047830998898
time_elpased: 1.388
batch start
#iterations: 383
currently lose_sum: 216.97329352796078
time_elpased: 1.397
batch start
#iterations: 384
currently lose_sum: 215.70617081224918
time_elpased: 1.39
batch start
#iterations: 385
currently lose_sum: 216.7220441699028
time_elpased: 1.4
batch start
#iterations: 386
currently lose_sum: 217.6340626180172
time_elpased: 1.404
batch start
#iterations: 387
currently lose_sum: 217.5638875067234
time_elpased: 1.458
batch start
#iterations: 388
currently lose_sum: 216.4933084845543
time_elpased: 1.47
batch start
#iterations: 389
currently lose_sum: 217.20769195258617
time_elpased: 1.503
start validation test
0.823711340206
0.841499834089
0.792912975508
0.816484224082
0.823381526
validation finish
batch start
#iterations: 390
currently lose_sum: 215.73881955444813
time_elpased: 1.52
batch start
#iterations: 391
currently lose_sum: 216.65184471011162
time_elpased: 1.458
batch start
#iterations: 392
currently lose_sum: 216.15713898837566
time_elpased: 1.405
batch start
#iterations: 393
currently lose_sum: 219.4670633971691
time_elpased: 1.384
batch start
#iterations: 394
currently lose_sum: 215.57103657722473
time_elpased: 1.538
batch start
#iterations: 395
currently lose_sum: 215.16645516455173
time_elpased: 1.487
batch start
#iterations: 396
currently lose_sum: 215.38014854490757
time_elpased: 1.423
batch start
#iterations: 397
currently lose_sum: 215.48399662971497
time_elpased: 1.398
batch start
#iterations: 398
currently lose_sum: 216.88592144846916
time_elpased: 1.393
batch start
#iterations: 399
currently lose_sum: 216.11041978001595
time_elpased: 1.519
start validation test
0.826597938144
0.850568245752
0.787806149036
0.817985066551
0.826182523779
validation finish
batch start
#iterations: 400
currently lose_sum: 214.57293352484703
time_elpased: 1.61
batch start
#iterations: 401
currently lose_sum: 217.5222518146038
time_elpased: 1.433
batch start
#iterations: 402
currently lose_sum: 216.73463602364063
time_elpased: 1.393
batch start
#iterations: 403
currently lose_sum: 214.01925088465214
time_elpased: 1.402
batch start
#iterations: 404
currently lose_sum: 215.51520179212093
time_elpased: 1.43
batch start
#iterations: 405
currently lose_sum: 217.2484180778265
time_elpased: 1.421
batch start
#iterations: 406
currently lose_sum: 216.58735360205173
time_elpased: 1.454
batch start
#iterations: 407
currently lose_sum: 218.03934155404568
time_elpased: 1.413
batch start
#iterations: 408
currently lose_sum: 215.91919896006584
time_elpased: 1.424
batch start
#iterations: 409
currently lose_sum: 217.88065987825394
time_elpased: 1.411
start validation test
0.825412371134
0.848685688609
0.787389265242
0.81688922528
0.82500518846
validation finish
batch start
#iterations: 410
currently lose_sum: 214.79664407670498
time_elpased: 1.409
batch start
#iterations: 411
currently lose_sum: 217.42050462961197
time_elpased: 1.397
batch start
#iterations: 412
currently lose_sum: 217.66565315425396
time_elpased: 1.467
batch start
#iterations: 413
currently lose_sum: 219.14004465937614
time_elpased: 1.62
batch start
#iterations: 414
currently lose_sum: 218.7679324299097
time_elpased: 1.63
batch start
#iterations: 415
currently lose_sum: 217.37622506916523
time_elpased: 1.566
batch start
#iterations: 416
currently lose_sum: 216.91849128901958
time_elpased: 1.639
batch start
#iterations: 417
currently lose_sum: 217.88588267564774
time_elpased: 1.553
batch start
#iterations: 418
currently lose_sum: 216.77804626524448
time_elpased: 1.628
batch start
#iterations: 419
currently lose_sum: 215.73775081336498
time_elpased: 1.519
start validation test
0.823195876289
0.843530591775
0.78884835852
0.81527358897
0.822828054834
validation finish
batch start
#iterations: 420
currently lose_sum: 216.8194616138935
time_elpased: 1.612
batch start
#iterations: 421
currently lose_sum: 215.4770667552948
time_elpased: 1.58
batch start
#iterations: 422
currently lose_sum: 215.71554055809975
time_elpased: 1.738
batch start
#iterations: 423
currently lose_sum: 215.30359219014645
time_elpased: 1.541
batch start
#iterations: 424
currently lose_sum: 216.17050351202488
time_elpased: 1.658
batch start
#iterations: 425
currently lose_sum: 217.2269994467497
time_elpased: 1.526
batch start
#iterations: 426
currently lose_sum: 217.9600229114294
time_elpased: 2.075
batch start
#iterations: 427
currently lose_sum: 215.38261538743973
time_elpased: 1.978
batch start
#iterations: 428
currently lose_sum: 218.5757246762514
time_elpased: 1.6
batch start
#iterations: 429
currently lose_sum: 216.0024933964014
time_elpased: 1.538
start validation test
0.825309278351
0.843708462561
0.793850964044
0.818020727058
0.824972396861
validation finish
batch start
#iterations: 430
currently lose_sum: 217.70205883681774
time_elpased: 1.623
batch start
#iterations: 431
currently lose_sum: 217.3903712630272
time_elpased: 1.506
batch start
#iterations: 432
currently lose_sum: 218.23005923628807
time_elpased: 1.43
batch start
#iterations: 433
currently lose_sum: 216.86477021872997
time_elpased: 1.445
batch start
#iterations: 434
currently lose_sum: 216.44244158267975
time_elpased: 1.449
batch start
#iterations: 435
currently lose_sum: 217.88653615117073
time_elpased: 1.625
batch start
#iterations: 436
currently lose_sum: 217.91913425922394
time_elpased: 1.537
batch start
#iterations: 437
currently lose_sum: 216.88818560540676
time_elpased: 1.522
batch start
#iterations: 438
currently lose_sum: 214.5898702442646
time_elpased: 1.51
batch start
#iterations: 439
currently lose_sum: 217.19333346188068
time_elpased: 1.467
start validation test
0.82618556701
0.849410443571
0.788327253778
0.81772972973
0.825780149072
validation finish
batch start
#iterations: 440
currently lose_sum: 214.73024982213974
time_elpased: 1.543
batch start
#iterations: 441
currently lose_sum: 216.91727025806904
time_elpased: 1.519
batch start
#iterations: 442
currently lose_sum: 218.32794705033302
time_elpased: 1.627
batch start
#iterations: 443
currently lose_sum: 216.56037443876266
time_elpased: 1.563
batch start
#iterations: 444
currently lose_sum: 215.193655282259
time_elpased: 1.572
batch start
#iterations: 445
currently lose_sum: 218.1014388948679
time_elpased: 1.478
batch start
#iterations: 446
currently lose_sum: 216.23693716526031
time_elpased: 1.544
batch start
#iterations: 447
currently lose_sum: 215.57747276127338
time_elpased: 1.45
batch start
#iterations: 448
currently lose_sum: 218.51943802833557
time_elpased: 1.439
batch start
#iterations: 449
currently lose_sum: 216.34806650877
time_elpased: 1.445
start validation test
0.826494845361
0.850298054212
0.787910369984
0.817916260954
0.826081651081
validation finish
batch start
#iterations: 450
currently lose_sum: 217.37728065252304
time_elpased: 1.471
batch start
#iterations: 451
currently lose_sum: 213.2712450772524
time_elpased: 1.439
batch start
#iterations: 452
currently lose_sum: 216.095497995615
time_elpased: 1.673
batch start
#iterations: 453
currently lose_sum: 215.86977753043175
time_elpased: 1.494
batch start
#iterations: 454
currently lose_sum: 215.32083198428154
time_elpased: 1.469
batch start
#iterations: 455
currently lose_sum: 215.25055468082428
time_elpased: 1.425
batch start
#iterations: 456
currently lose_sum: 217.07036705315113
time_elpased: 1.452
batch start
#iterations: 457
currently lose_sum: 217.1887830644846
time_elpased: 1.434
batch start
#iterations: 458
currently lose_sum: 216.30260798335075
time_elpased: 1.45
batch start
#iterations: 459
currently lose_sum: 216.5125790834427
time_elpased: 1.428
start validation test
0.826030927835
0.850778254004
0.786138613861
0.817182167813
0.825603728144
validation finish
batch start
#iterations: 460
currently lose_sum: 215.74231941998005
time_elpased: 1.45
batch start
#iterations: 461
currently lose_sum: 216.12788216769695
time_elpased: 1.452
batch start
#iterations: 462
currently lose_sum: 216.9428310394287
time_elpased: 1.44
batch start
#iterations: 463
currently lose_sum: 216.05134005844593
time_elpased: 1.427
batch start
#iterations: 464
currently lose_sum: 215.72297187149525
time_elpased: 1.469
batch start
#iterations: 465
currently lose_sum: 216.31040236353874
time_elpased: 1.478
batch start
#iterations: 466
currently lose_sum: 216.43414324522018
time_elpased: 1.448
batch start
#iterations: 467
currently lose_sum: 213.1304839849472
time_elpased: 1.44
batch start
#iterations: 468
currently lose_sum: 218.2624550163746
time_elpased: 1.433
batch start
#iterations: 469
currently lose_sum: 216.1760818809271
time_elpased: 1.448
start validation test
0.825360824742
0.849611355188
0.786034392913
0.816587267215
0.824939684983
validation finish
batch start
#iterations: 470
currently lose_sum: 213.95631781220436
time_elpased: 1.437
batch start
#iterations: 471
currently lose_sum: 215.35787734389305
time_elpased: 1.435
batch start
#iterations: 472
currently lose_sum: 217.17206273972988
time_elpased: 1.447
batch start
#iterations: 473
currently lose_sum: 214.4968716353178
time_elpased: 1.444
batch start
#iterations: 474
currently lose_sum: 215.81619149446487
time_elpased: 1.433
batch start
#iterations: 475
currently lose_sum: 213.82786767184734
time_elpased: 1.457
batch start
#iterations: 476
currently lose_sum: 217.77665470540524
time_elpased: 1.446
batch start
#iterations: 477
currently lose_sum: 216.14089353382587
time_elpased: 1.446
batch start
#iterations: 478
currently lose_sum: 217.834382802248
time_elpased: 1.466
batch start
#iterations: 479
currently lose_sum: 216.71049636602402
time_elpased: 1.428
start validation test
0.825567010309
0.845324140999
0.792287649818
0.817947062621
0.825210627561
validation finish
batch start
#iterations: 480
currently lose_sum: 215.0917268395424
time_elpased: 1.438
batch start
#iterations: 481
currently lose_sum: 217.79549676179886
time_elpased: 1.426
batch start
#iterations: 482
currently lose_sum: 217.74280832707882
time_elpased: 1.451
batch start
#iterations: 483
currently lose_sum: 215.99841631948948
time_elpased: 1.474
batch start
#iterations: 484
currently lose_sum: 215.16321668028831
time_elpased: 1.447
batch start
#iterations: 485
currently lose_sum: 216.1325470507145
time_elpased: 1.487
batch start
#iterations: 486
currently lose_sum: 217.64014768600464
time_elpased: 1.438
batch start
#iterations: 487
currently lose_sum: 214.43178099393845
time_elpased: 1.438
batch start
#iterations: 488
currently lose_sum: 218.61144515872002
time_elpased: 1.446
batch start
#iterations: 489
currently lose_sum: 216.44944532215595
time_elpased: 1.455
start validation test
0.824381443299
0.844007115855
0.791141219385
0.816719565334
0.824025479657
validation finish
batch start
#iterations: 490
currently lose_sum: 216.40476194024086
time_elpased: 1.535
batch start
#iterations: 491
currently lose_sum: 217.71588419377804
time_elpased: 1.491
batch start
#iterations: 492
currently lose_sum: 213.92859774827957
time_elpased: 1.527
batch start
#iterations: 493
currently lose_sum: 215.25290466845036
time_elpased: 1.556
batch start
#iterations: 494
currently lose_sum: 215.53865368664265
time_elpased: 1.541
batch start
#iterations: 495
currently lose_sum: 215.8907478749752
time_elpased: 1.526
batch start
#iterations: 496
currently lose_sum: 214.1545691639185
time_elpased: 1.522
batch start
#iterations: 497
currently lose_sum: 216.1922936886549
time_elpased: 1.542
batch start
#iterations: 498
currently lose_sum: 217.32141815125942
time_elpased: 1.453
batch start
#iterations: 499
currently lose_sum: 215.42651264369488
time_elpased: 1.447
start validation test
0.824690721649
0.849785407725
0.784158415842
0.815653964985
0.8242566684
validation finish
batch start
#iterations: 500
currently lose_sum: 216.25983645021915
time_elpased: 1.422
batch start
#iterations: 501
currently lose_sum: 214.53262071311474
time_elpased: 1.439
batch start
#iterations: 502
currently lose_sum: 215.80895997583866
time_elpased: 1.433
batch start
#iterations: 503
currently lose_sum: 214.88277588784695
time_elpased: 1.424
batch start
#iterations: 504
currently lose_sum: 214.48959678411484
time_elpased: 1.455
batch start
#iterations: 505
currently lose_sum: 216.89222833514214
time_elpased: 1.424
batch start
#iterations: 506
currently lose_sum: 214.63613614439964
time_elpased: 1.451
batch start
#iterations: 507
currently lose_sum: 217.8288305401802
time_elpased: 1.439
batch start
#iterations: 508
currently lose_sum: 215.72417169809341
time_elpased: 1.442
batch start
#iterations: 509
currently lose_sum: 213.36984753608704
time_elpased: 1.431
start validation test
0.824896907216
0.852559726962
0.781031787389
0.815229806908
0.824427163455
validation finish
batch start
#iterations: 510
currently lose_sum: 214.97877822816372
time_elpased: 1.424
batch start
#iterations: 511
currently lose_sum: 215.45529682934284
time_elpased: 1.436
batch start
#iterations: 512
currently lose_sum: 214.13312442600727
time_elpased: 1.425
batch start
#iterations: 513
currently lose_sum: 216.1688848286867
time_elpased: 1.445
batch start
#iterations: 514
currently lose_sum: 214.59550069272518
time_elpased: 1.448
batch start
#iterations: 515
currently lose_sum: 215.5893501341343
time_elpased: 1.449
batch start
#iterations: 516
currently lose_sum: 215.2705985158682
time_elpased: 1.451
batch start
#iterations: 517
currently lose_sum: 215.10103523731232
time_elpased: 1.439
batch start
#iterations: 518
currently lose_sum: 215.4811987876892
time_elpased: 1.483
batch start
#iterations: 519
currently lose_sum: 217.6639201939106
time_elpased: 1.439
start validation test
0.822268041237
0.831089087579
0.804064616988
0.817353533213
0.822073104007
validation finish
batch start
#iterations: 520
currently lose_sum: 216.01407279074192
time_elpased: 1.438
batch start
#iterations: 521
currently lose_sum: 214.6155275553465
time_elpased: 1.419
batch start
#iterations: 522
currently lose_sum: 216.2393533140421
time_elpased: 1.439
batch start
#iterations: 523
currently lose_sum: 216.97360399365425
time_elpased: 1.439
batch start
#iterations: 524
currently lose_sum: 214.5229848176241
time_elpased: 1.443
batch start
#iterations: 525
currently lose_sum: 214.40725772082806
time_elpased: 1.436
batch start
#iterations: 526
currently lose_sum: 217.41305561363697
time_elpased: 1.427
batch start
#iterations: 527
currently lose_sum: 216.04960024356842
time_elpased: 1.44
batch start
#iterations: 528
currently lose_sum: 215.7721362709999
time_elpased: 1.449
batch start
#iterations: 529
currently lose_sum: 216.3437778055668
time_elpased: 1.43
start validation test
0.824896907216
0.854009595613
0.779155810318
0.81486729522
0.82440707395
validation finish
batch start
#iterations: 530
currently lose_sum: 216.68505495786667
time_elpased: 1.579
batch start
#iterations: 531
currently lose_sum: 215.35693088173866
time_elpased: 1.528
batch start
#iterations: 532
currently lose_sum: 214.45520323514938
time_elpased: 1.579
batch start
#iterations: 533
currently lose_sum: 216.27322348952293
time_elpased: 1.636
batch start
#iterations: 534
currently lose_sum: 215.84493684768677
time_elpased: 1.477
batch start
#iterations: 535
currently lose_sum: 215.86549219489098
time_elpased: 1.473
batch start
#iterations: 536
currently lose_sum: 216.04308523237705
time_elpased: 1.427
batch start
#iterations: 537
currently lose_sum: 214.13985161483288
time_elpased: 1.45
batch start
#iterations: 538
currently lose_sum: 214.68447993695736
time_elpased: 1.434
batch start
#iterations: 539
currently lose_sum: 216.98839882016182
time_elpased: 1.425
start validation test
0.825463917526
0.850197405527
0.785513288171
0.816576381365
0.825036093346
validation finish
batch start
#iterations: 540
currently lose_sum: 214.92995478212833
time_elpased: 1.45
batch start
#iterations: 541
currently lose_sum: 214.8729896247387
time_elpased: 1.431
batch start
#iterations: 542
currently lose_sum: 217.79550844430923
time_elpased: 1.437
batch start
#iterations: 543
currently lose_sum: 217.86543403565884
time_elpased: 1.436
batch start
#iterations: 544
currently lose_sum: 214.3523572087288
time_elpased: 1.421
batch start
#iterations: 545
currently lose_sum: 217.33939519524574
time_elpased: 1.43
batch start
#iterations: 546
currently lose_sum: 212.70570765435696
time_elpased: 1.441
batch start
#iterations: 547
currently lose_sum: 217.06791925430298
time_elpased: 1.471
batch start
#iterations: 548
currently lose_sum: 214.30865088105202
time_elpased: 1.431
batch start
#iterations: 549
currently lose_sum: 215.51959304511547
time_elpased: 1.443
start validation test
0.825618556701
0.846110987297
0.791349661282
0.817814637299
0.825251577199
validation finish
batch start
#iterations: 550
currently lose_sum: 214.6439655572176
time_elpased: 1.419
batch start
#iterations: 551
currently lose_sum: 217.07312509417534
time_elpased: 1.415
batch start
#iterations: 552
currently lose_sum: 214.96158257126808
time_elpased: 1.442
batch start
#iterations: 553
currently lose_sum: 217.22878763079643
time_elpased: 1.426
batch start
#iterations: 554
currently lose_sum: 217.44025267660618
time_elpased: 1.424
batch start
#iterations: 555
currently lose_sum: 216.4311023503542
time_elpased: 1.44
batch start
#iterations: 556
currently lose_sum: 215.07985983788967
time_elpased: 1.419
batch start
#iterations: 557
currently lose_sum: 215.8011094480753
time_elpased: 1.447
batch start
#iterations: 558
currently lose_sum: 215.4797314852476
time_elpased: 1.42
batch start
#iterations: 559
currently lose_sum: 213.92032121121883
time_elpased: 1.412
start validation test
0.824793814433
0.856583793738
0.775612298072
0.814089591424
0.824267138327
validation finish
batch start
#iterations: 560
currently lose_sum: 216.22687278687954
time_elpased: 1.458
batch start
#iterations: 561
currently lose_sum: 211.71121038496494
time_elpased: 1.446
batch start
#iterations: 562
currently lose_sum: 214.27511610090733
time_elpased: 1.426
batch start
#iterations: 563
currently lose_sum: 216.30460080504417
time_elpased: 1.428
batch start
#iterations: 564
currently lose_sum: 214.49963350594044
time_elpased: 1.429
batch start
#iterations: 565
currently lose_sum: 216.63574188947678
time_elpased: 1.437
batch start
#iterations: 566
currently lose_sum: 214.96480925381184
time_elpased: 1.419
batch start
#iterations: 567
currently lose_sum: 216.02594316005707
time_elpased: 1.465
batch start
#iterations: 568
currently lose_sum: 215.17482222616673
time_elpased: 1.426
batch start
#iterations: 569
currently lose_sum: 214.14902186393738
time_elpased: 1.442
start validation test
0.824381443299
0.842939481268
0.792600312663
0.816995219423
0.824041104827
validation finish
batch start
#iterations: 570
currently lose_sum: 213.9554475992918
time_elpased: 1.655
batch start
#iterations: 571
currently lose_sum: 214.80776542425156
time_elpased: 1.501
batch start
#iterations: 572
currently lose_sum: 217.69365039467812
time_elpased: 1.46
batch start
#iterations: 573
currently lose_sum: 216.48410907387733
time_elpased: 1.427
batch start
#iterations: 574
currently lose_sum: 214.5544435083866
time_elpased: 1.453
batch start
#iterations: 575
currently lose_sum: 214.9182047843933
time_elpased: 1.427
batch start
#iterations: 576
currently lose_sum: 212.58896604180336
time_elpased: 1.429
batch start
#iterations: 577
currently lose_sum: 216.8210467994213
time_elpased: 1.419
batch start
#iterations: 578
currently lose_sum: 215.7823739796877
time_elpased: 1.452
batch start
#iterations: 579
currently lose_sum: 216.92568430304527
time_elpased: 1.449
start validation test
0.823711340206
0.851932064288
0.778947368421
0.813806620209
0.823231970799
validation finish
batch start
#iterations: 580
currently lose_sum: 214.90374018251896
time_elpased: 1.678
batch start
#iterations: 581
currently lose_sum: 216.46946921944618
time_elpased: 1.59
batch start
#iterations: 582
currently lose_sum: 215.4191202223301
time_elpased: 1.567
batch start
#iterations: 583
currently lose_sum: 214.32618430256844
time_elpased: 1.637
batch start
#iterations: 584
currently lose_sum: 217.16911897063255
time_elpased: 1.567
batch start
#iterations: 585
currently lose_sum: 214.9233479499817
time_elpased: 1.668
batch start
#iterations: 586
currently lose_sum: 215.57926079630852
time_elpased: 1.573
batch start
#iterations: 587
currently lose_sum: 216.81550845503807
time_elpased: 1.87
batch start
#iterations: 588
currently lose_sum: 218.07287299633026
time_elpased: 1.693
batch start
#iterations: 589
currently lose_sum: 215.79301138222218
time_elpased: 1.712
start validation test
0.825567010309
0.858395845355
0.775195414278
0.814676889376
0.825027589852
validation finish
batch start
#iterations: 590
currently lose_sum: 214.37575539946556
time_elpased: 1.539
batch start
#iterations: 591
currently lose_sum: 215.62996603548527
time_elpased: 1.68
batch start
#iterations: 592
currently lose_sum: 216.16008625924587
time_elpased: 1.527
batch start
#iterations: 593
currently lose_sum: 214.1999120414257
time_elpased: 2.371
batch start
#iterations: 594
currently lose_sum: 215.38561260700226
time_elpased: 2.013
batch start
#iterations: 595
currently lose_sum: 215.90337531268597
time_elpased: 1.607
batch start
#iterations: 596
currently lose_sum: 214.96204946935177
time_elpased: 1.548
batch start
#iterations: 597
currently lose_sum: 212.46230356395245
time_elpased: 1.466
batch start
#iterations: 598
currently lose_sum: 214.6897037178278
time_elpased: 1.47
batch start
#iterations: 599
currently lose_sum: 213.21491840481758
time_elpased: 1.424
start validation test
0.825773195876
0.851885403692
0.784054194893
0.816563551503
0.82532643452
validation finish
batch start
#iterations: 600
currently lose_sum: 216.2198958992958
time_elpased: 1.507
batch start
#iterations: 601
currently lose_sum: 216.263557523489
time_elpased: 1.447
batch start
#iterations: 602
currently lose_sum: 217.75838755071163
time_elpased: 1.459
batch start
#iterations: 603
currently lose_sum: 216.93646425008774
time_elpased: 1.437
batch start
#iterations: 604
currently lose_sum: 215.77895702421665
time_elpased: 1.445
batch start
#iterations: 605
currently lose_sum: 214.01161478459835
time_elpased: 1.466
batch start
#iterations: 606
currently lose_sum: 216.53764380514622
time_elpased: 1.466
batch start
#iterations: 607
currently lose_sum: 212.9375517964363
time_elpased: 1.443
batch start
#iterations: 608
currently lose_sum: 213.46508748829365
time_elpased: 1.435
batch start
#iterations: 609
currently lose_sum: 212.96679316461086
time_elpased: 1.443
start validation test
0.824948453608
0.844350627708
0.792079207921
0.817380081738
0.824596462706
validation finish
batch start
#iterations: 610
currently lose_sum: 216.3176209628582
time_elpased: 1.44
batch start
#iterations: 611
currently lose_sum: 215.03766617178917
time_elpased: 1.44
batch start
#iterations: 612
currently lose_sum: 216.6005960404873
time_elpased: 1.458
batch start
#iterations: 613
currently lose_sum: 216.9959755539894
time_elpased: 1.427
batch start
#iterations: 614
currently lose_sum: 214.34968103468418
time_elpased: 1.434
batch start
#iterations: 615
currently lose_sum: 216.8121863603592
time_elpased: 1.452
batch start
#iterations: 616
currently lose_sum: 213.8572851717472
time_elpased: 1.44
batch start
#iterations: 617
currently lose_sum: 212.8370905071497
time_elpased: 1.439
batch start
#iterations: 618
currently lose_sum: 215.48660534620285
time_elpased: 1.459
batch start
#iterations: 619
currently lose_sum: 215.36003267765045
time_elpased: 1.436
start validation test
0.825824742268
0.854389965792
0.780927566441
0.816008712224
0.825343946402
validation finish
batch start
#iterations: 620
currently lose_sum: 217.1857202500105
time_elpased: 1.446
batch start
#iterations: 621
currently lose_sum: 217.18642023205757
time_elpased: 1.448
batch start
#iterations: 622
currently lose_sum: 216.24663090705872
time_elpased: 1.459
batch start
#iterations: 623
currently lose_sum: 216.02047741413116
time_elpased: 1.422
batch start
#iterations: 624
currently lose_sum: 216.49251395463943
time_elpased: 1.426
batch start
#iterations: 625
currently lose_sum: 215.20148900151253
time_elpased: 1.48
batch start
#iterations: 626
currently lose_sum: 214.75816605985165
time_elpased: 1.482
batch start
#iterations: 627
currently lose_sum: 213.96487686038017
time_elpased: 1.45
batch start
#iterations: 628
currently lose_sum: 214.01015356183052
time_elpased: 1.444
batch start
#iterations: 629
currently lose_sum: 213.4758723974228
time_elpased: 1.424
start validation test
0.826082474227
0.851826716435
0.78488796248
0.816988500759
0.825641329532
validation finish
batch start
#iterations: 630
currently lose_sum: 216.13495248556137
time_elpased: 1.593
batch start
#iterations: 631
currently lose_sum: 214.1013289988041
time_elpased: 1.462
batch start
#iterations: 632
currently lose_sum: 215.05331940948963
time_elpased: 1.431
batch start
#iterations: 633
currently lose_sum: 213.5957359522581
time_elpased: 1.443
batch start
#iterations: 634
currently lose_sum: 213.73912674188614
time_elpased: 1.454
batch start
#iterations: 635
currently lose_sum: 215.51647202670574
time_elpased: 1.446
batch start
#iterations: 636
currently lose_sum: 216.46153283119202
time_elpased: 1.42
batch start
#iterations: 637
currently lose_sum: 216.84233689308167
time_elpased: 1.45
batch start
#iterations: 638
currently lose_sum: 214.3079104423523
time_elpased: 1.453
batch start
#iterations: 639
currently lose_sum: 213.55318714678288
time_elpased: 1.46
start validation test
0.825051546392
0.845767815323
0.790411672746
0.817153323995
0.82468059415
validation finish
batch start
#iterations: 640
currently lose_sum: 213.18874643743038
time_elpased: 1.423
batch start
#iterations: 641
currently lose_sum: 212.5341857969761
time_elpased: 1.428
batch start
#iterations: 642
currently lose_sum: 216.05730557441711
time_elpased: 1.443
batch start
#iterations: 643
currently lose_sum: 214.64020916819572
time_elpased: 1.452
batch start
#iterations: 644
currently lose_sum: 214.32118074595928
time_elpased: 1.435
batch start
#iterations: 645
currently lose_sum: 215.72189447283745
time_elpased: 1.458
batch start
#iterations: 646
currently lose_sum: 214.53570598363876
time_elpased: 1.455
batch start
#iterations: 647
currently lose_sum: 215.10901693999767
time_elpased: 1.433
batch start
#iterations: 648
currently lose_sum: 215.91820698976517
time_elpased: 1.449
batch start
#iterations: 649
currently lose_sum: 214.10265509784222
time_elpased: 1.439
start validation test
0.825773195876
0.848413499271
0.788639916623
0.817435454251
0.825375542197
validation finish
batch start
#iterations: 650
currently lose_sum: 217.77139720320702
time_elpased: 1.443
batch start
#iterations: 651
currently lose_sum: 215.55648830533028
time_elpased: 1.446
batch start
#iterations: 652
currently lose_sum: 213.67028446495533
time_elpased: 1.452
batch start
#iterations: 653
currently lose_sum: 214.59001930058002
time_elpased: 1.458
batch start
#iterations: 654
currently lose_sum: 215.737748041749
time_elpased: 1.453
batch start
#iterations: 655
currently lose_sum: 213.04486446082592
time_elpased: 1.445
batch start
#iterations: 656
currently lose_sum: 215.27868829667568
time_elpased: 1.47
batch start
#iterations: 657
currently lose_sum: 215.3565196096897
time_elpased: 1.447
batch start
#iterations: 658
currently lose_sum: 216.81119787693024
time_elpased: 1.434
batch start
#iterations: 659
currently lose_sum: 215.8477367758751
time_elpased: 1.441
start validation test
0.825927835052
0.848855475763
0.788431474726
0.817528502729
0.825526293202
validation finish
batch start
#iterations: 660
currently lose_sum: 214.25896257162094
time_elpased: 1.439
batch start
#iterations: 661
currently lose_sum: 214.51826599240303
time_elpased: 1.45
batch start
#iterations: 662
currently lose_sum: 214.01470910012722
time_elpased: 1.516
batch start
#iterations: 663
currently lose_sum: 215.01850706338882
time_elpased: 1.565
batch start
#iterations: 664
currently lose_sum: 216.67270570993423
time_elpased: 1.435
batch start
#iterations: 665
currently lose_sum: 215.65667797625065
time_elpased: 1.437
batch start
#iterations: 666
currently lose_sum: 214.70313857495785
time_elpased: 1.462
batch start
#iterations: 667
currently lose_sum: 214.65549284219742
time_elpased: 1.429
batch start
#iterations: 668
currently lose_sum: 215.2713551670313
time_elpased: 1.438
batch start
#iterations: 669
currently lose_sum: 215.80687004327774
time_elpased: 1.482
start validation test
0.825670103093
0.853694637368
0.781448671183
0.815975623028
0.825196543649
validation finish
batch start
#iterations: 670
currently lose_sum: 213.35447607934475
time_elpased: 1.447
batch start
#iterations: 671
currently lose_sum: 214.6136155128479
time_elpased: 1.468
batch start
#iterations: 672
currently lose_sum: 213.25305938720703
time_elpased: 1.451
batch start
#iterations: 673
currently lose_sum: 214.362519338727
time_elpased: 1.427
batch start
#iterations: 674
currently lose_sum: 215.17248137295246
time_elpased: 1.441
batch start
#iterations: 675
currently lose_sum: 213.35479332506657
time_elpased: 1.445
batch start
#iterations: 676
currently lose_sum: 218.01165202260017
time_elpased: 1.439
batch start
#iterations: 677
currently lose_sum: 215.4720402956009
time_elpased: 1.421
batch start
#iterations: 678
currently lose_sum: 215.75255420804024
time_elpased: 1.444
batch start
#iterations: 679
currently lose_sum: 215.24578380584717
time_elpased: 1.442
start validation test
0.825103092784
0.846557890031
0.789473684211
0.817019899693
0.824721543788
validation finish
batch start
#iterations: 680
currently lose_sum: 215.06492410600185
time_elpased: 1.444
batch start
#iterations: 681
currently lose_sum: 214.64034128189087
time_elpased: 1.495
batch start
#iterations: 682
currently lose_sum: 215.52236284315586
time_elpased: 1.437
batch start
#iterations: 683
currently lose_sum: 213.68504485487938
time_elpased: 1.438
batch start
#iterations: 684
currently lose_sum: 212.35800866782665
time_elpased: 1.42
batch start
#iterations: 685
currently lose_sum: 215.62809589505196
time_elpased: 1.464
batch start
#iterations: 686
currently lose_sum: 211.78290724754333
time_elpased: 1.441
batch start
#iterations: 687
currently lose_sum: 214.97854094207287
time_elpased: 1.465
batch start
#iterations: 688
currently lose_sum: 215.07323448359966
time_elpased: 1.626
batch start
#iterations: 689
currently lose_sum: 215.2922046482563
time_elpased: 1.562
start validation test
0.82618556701
0.84956746433
0.788118811881
0.817690311419
0.825777916904
validation finish
batch start
#iterations: 690
currently lose_sum: 213.40112841129303
time_elpased: 1.438
batch start
#iterations: 691
currently lose_sum: 213.42398370802402
time_elpased: 1.443
batch start
#iterations: 692
currently lose_sum: 215.07584704458714
time_elpased: 1.441
batch start
#iterations: 693
currently lose_sum: 213.74927094578743
time_elpased: 1.443
batch start
#iterations: 694
currently lose_sum: 215.1646068394184
time_elpased: 1.42
batch start
#iterations: 695
currently lose_sum: 215.9949705004692
time_elpased: 1.457
batch start
#iterations: 696
currently lose_sum: 215.30601996183395
time_elpased: 1.475
batch start
#iterations: 697
currently lose_sum: 214.35409638285637
time_elpased: 1.435
batch start
#iterations: 698
currently lose_sum: 213.95594722032547
time_elpased: 1.438
batch start
#iterations: 699
currently lose_sum: 212.59727211296558
time_elpased: 1.426
start validation test
0.826082474227
0.851588108963
0.785200625326
0.817048042512
0.825644677783
validation finish
batch start
#iterations: 700
currently lose_sum: 214.5186698436737
time_elpased: 1.425
batch start
#iterations: 701
currently lose_sum: 214.94501595199108
time_elpased: 1.44
batch start
#iterations: 702
currently lose_sum: 215.46192082762718
time_elpased: 1.43
batch start
#iterations: 703
currently lose_sum: 212.52282792329788
time_elpased: 1.43
batch start
#iterations: 704
currently lose_sum: 211.1159304380417
time_elpased: 1.569
batch start
#iterations: 705
currently lose_sum: 215.24499289691448
time_elpased: 1.659
batch start
#iterations: 706
currently lose_sum: 214.69537903368473
time_elpased: 1.451
batch start
#iterations: 707
currently lose_sum: 215.19274377822876
time_elpased: 1.449
batch start
#iterations: 708
currently lose_sum: 215.0185721963644
time_elpased: 1.441
batch start
#iterations: 709
currently lose_sum: 214.95049288868904
time_elpased: 1.467
start validation test
0.825309278351
0.846162427488
0.790515893695
0.817393178512
0.824936682186
validation finish
batch start
#iterations: 710
currently lose_sum: 214.67327536642551
time_elpased: 1.63
batch start
#iterations: 711
currently lose_sum: 215.25237779319286
time_elpased: 1.594
batch start
#iterations: 712
currently lose_sum: 213.5535189807415
time_elpased: 1.58
batch start
#iterations: 713
currently lose_sum: 215.12481786310673
time_elpased: 1.605
batch start
#iterations: 714
currently lose_sum: 214.54036335647106
time_elpased: 1.429
batch start
#iterations: 715
currently lose_sum: 210.9545305520296
time_elpased: 1.456
batch start
#iterations: 716
currently lose_sum: 215.33779440820217
time_elpased: 1.426
batch start
#iterations: 717
currently lose_sum: 214.7151660323143
time_elpased: 1.485
batch start
#iterations: 718
currently lose_sum: 215.90459370613098
time_elpased: 1.455
batch start
#iterations: 719
currently lose_sum: 215.86176742613316
time_elpased: 1.61
start validation test
0.825051546392
0.851809826393
0.782386659719
0.815623641895
0.824594655713
validation finish
batch start
#iterations: 720
currently lose_sum: 216.13759551942348
time_elpased: 1.753
batch start
#iterations: 721
currently lose_sum: 214.45750476419926
time_elpased: 1.502
batch start
#iterations: 722
currently lose_sum: 213.43869318068027
time_elpased: 1.465
batch start
#iterations: 723
currently lose_sum: 212.87287566065788
time_elpased: 1.567
batch start
#iterations: 724
currently lose_sum: 213.73211105167866
time_elpased: 1.446
batch start
#iterations: 725
currently lose_sum: 214.1222706437111
time_elpased: 1.458
batch start
#iterations: 726
currently lose_sum: 216.20926527678967
time_elpased: 1.433
batch start
#iterations: 727
currently lose_sum: 216.74759478867054
time_elpased: 1.453
batch start
#iterations: 728
currently lose_sum: 215.48943555355072
time_elpased: 1.427
batch start
#iterations: 729
currently lose_sum: 214.84053318202496
time_elpased: 1.471
start validation test
0.825515463918
0.851323828921
0.784158415842
0.816361959529
0.82507257865
validation finish
batch start
#iterations: 730
currently lose_sum: 217.55618186295033
time_elpased: 1.457
batch start
#iterations: 731
currently lose_sum: 213.9366041570902
time_elpased: 1.443
batch start
#iterations: 732
currently lose_sum: 215.6721938252449
time_elpased: 1.44
batch start
#iterations: 733
currently lose_sum: 215.44435891509056
time_elpased: 1.415
batch start
#iterations: 734
currently lose_sum: 215.09922790527344
time_elpased: 1.455
batch start
#iterations: 735
currently lose_sum: 213.94365771114826
time_elpased: 1.434
batch start
#iterations: 736
currently lose_sum: 214.18687610328197
time_elpased: 1.457
batch start
#iterations: 737
currently lose_sum: 215.09625053405762
time_elpased: 1.45
batch start
#iterations: 738
currently lose_sum: 213.72613307833672
time_elpased: 1.421
batch start
#iterations: 739
currently lose_sum: 214.3263387233019
time_elpased: 1.431
start validation test
0.825103092784
0.846635367762
0.789369463262
0.817000161804
0.824720427704
validation finish
batch start
#iterations: 740
currently lose_sum: 212.734664991498
time_elpased: 1.425
batch start
#iterations: 741
currently lose_sum: 214.67325474321842
time_elpased: 1.434
batch start
#iterations: 742
currently lose_sum: 212.88529124855995
time_elpased: 1.424
batch start
#iterations: 743
currently lose_sum: 214.7447111159563
time_elpased: 1.45
batch start
#iterations: 744
currently lose_sum: 216.87769947946072
time_elpased: 1.432
batch start
#iterations: 745
currently lose_sum: 213.75902231037617
time_elpased: 1.437
batch start
#iterations: 746
currently lose_sum: 216.36285911500454
time_elpased: 1.436
batch start
#iterations: 747
currently lose_sum: 214.7327342927456
time_elpased: 1.422
batch start
#iterations: 748
currently lose_sum: 212.82177318632603
time_elpased: 1.518
batch start
#iterations: 749
currently lose_sum: 216.33093293011189
time_elpased: 1.59
start validation test
0.826030927835
0.850778254004
0.786138613861
0.817182167813
0.825603728144
validation finish
batch start
#iterations: 750
currently lose_sum: 214.73057508468628
time_elpased: 1.607
batch start
#iterations: 751
currently lose_sum: 213.99462428689003
time_elpased: 1.585
batch start
#iterations: 752
currently lose_sum: 215.1194896697998
time_elpased: 1.728
batch start
#iterations: 753
currently lose_sum: 213.56060464680195
time_elpased: 1.569
batch start
#iterations: 754
currently lose_sum: 215.05257600545883
time_elpased: 1.589
batch start
#iterations: 755
currently lose_sum: 213.2915356606245
time_elpased: 1.519
batch start
#iterations: 756
currently lose_sum: 214.3760635405779
time_elpased: 1.602
batch start
#iterations: 757
currently lose_sum: 215.53587985038757
time_elpased: 1.533
batch start
#iterations: 758
currently lose_sum: 213.34998305141926
time_elpased: 1.602
batch start
#iterations: 759
currently lose_sum: 215.1886836886406
time_elpased: 1.522
start validation test
0.825567010309
0.850468344431
0.785409067223
0.816644993498
0.825136966044
validation finish
batch start
#iterations: 760
currently lose_sum: 216.96007105708122
time_elpased: 1.547
batch start
#iterations: 761
currently lose_sum: 213.48167164623737
time_elpased: 1.524
batch start
#iterations: 762
currently lose_sum: 216.11133210361004
time_elpased: 2.333
batch start
#iterations: 763
currently lose_sum: 214.05319964885712
time_elpased: 1.687
batch start
#iterations: 764
currently lose_sum: 214.1594227105379
time_elpased: 1.551
batch start
#iterations: 765
currently lose_sum: 214.9291821271181
time_elpased: 1.567
batch start
#iterations: 766
currently lose_sum: 214.87876312434673
time_elpased: 1.509
batch start
#iterations: 767
currently lose_sum: 214.14295810461044
time_elpased: 1.561
batch start
#iterations: 768
currently lose_sum: 217.59550486505032
time_elpased: 1.574
batch start
#iterations: 769
currently lose_sum: 214.386200517416
time_elpased: 1.479
start validation test
0.825824742268
0.849213483146
0.787701928088
0.817301973506
0.825416491836
validation finish
batch start
#iterations: 770
currently lose_sum: 215.2413437962532
time_elpased: 1.532
batch start
#iterations: 771
currently lose_sum: 216.11453026533127
time_elpased: 1.57
batch start
#iterations: 772
currently lose_sum: 213.75887095928192
time_elpased: 1.5
batch start
#iterations: 773
currently lose_sum: 213.33686946332455
time_elpased: 1.553
batch start
#iterations: 774
currently lose_sum: 216.40038990974426
time_elpased: 1.587
batch start
#iterations: 775
currently lose_sum: 213.31386360526085
time_elpased: 1.528
batch start
#iterations: 776
currently lose_sum: 214.33436769247055
time_elpased: 1.47
batch start
#iterations: 777
currently lose_sum: 214.35362102091312
time_elpased: 1.639
batch start
#iterations: 778
currently lose_sum: 213.5394819676876
time_elpased: 1.548
batch start
#iterations: 779
currently lose_sum: 216.56656131148338
time_elpased: 1.535
start validation test
0.826855670103
0.846829810901
0.79343408025
0.819262846381
0.826497764245
validation finish
batch start
#iterations: 780
currently lose_sum: 213.61838914453983
time_elpased: 1.557
batch start
#iterations: 781
currently lose_sum: 212.81604938209057
time_elpased: 1.547
batch start
#iterations: 782
currently lose_sum: 215.5986189097166
time_elpased: 1.456
batch start
#iterations: 783
currently lose_sum: 212.9988657683134
time_elpased: 1.47
batch start
#iterations: 784
currently lose_sum: 216.61108925938606
time_elpased: 1.476
batch start
#iterations: 785
currently lose_sum: 215.76907788217068
time_elpased: 1.483
batch start
#iterations: 786
currently lose_sum: 216.00001573562622
time_elpased: 1.457
batch start
#iterations: 787
currently lose_sum: 214.7777929008007
time_elpased: 1.434
batch start
#iterations: 788
currently lose_sum: 215.8593519628048
time_elpased: 1.517
batch start
#iterations: 789
currently lose_sum: 215.66324184834957
time_elpased: 1.592
start validation test
0.826391752577
0.851054233848
0.786659718603
0.817590987868
0.825966269297
validation finish
batch start
#iterations: 790
currently lose_sum: 212.65560033917427
time_elpased: 1.47
batch start
#iterations: 791
currently lose_sum: 214.17021171748638
time_elpased: 1.44
batch start
#iterations: 792
currently lose_sum: 217.2278674095869
time_elpased: 1.438
batch start
#iterations: 793
currently lose_sum: 215.33824357390404
time_elpased: 1.466
batch start
#iterations: 794
currently lose_sum: 214.38954564929008
time_elpased: 1.447
batch start
#iterations: 795
currently lose_sum: 214.26317530870438
time_elpased: 1.448
batch start
#iterations: 796
currently lose_sum: 215.14296251535416
time_elpased: 1.455
batch start
#iterations: 797
currently lose_sum: 215.2783651649952
time_elpased: 1.455
batch start
#iterations: 798
currently lose_sum: 214.16953426599503
time_elpased: 1.457
batch start
#iterations: 799
currently lose_sum: 215.0598053187132
time_elpased: 1.473
start validation test
0.826855670103
0.850889038938
0.788014590933
0.818245765922
0.826439727899
validation finish
acc: 0.820
pre: 0.841
rec: 0.792
F1: 0.816
auc: 0.821
