0.0000	329	1.0000	548
1.0000	156	0.0000	342
1.0000	128	0.0000	764
0.0027	74	0.9973	928
1.0000	120	0.0000	223
0.7611	168	0.0000	236	0.0000	412	0.2387	721	0.0000	750	0.0003	764	0.0000	787
0.0000	180	0.0008	327	0.9992	731
0.1152	214	0.8812	564	0.0036	750
1.0000	156	0.0000	545	0.0000	651	0.0000	689
1.0000	156	0.0000	175	0.0000	228	0.0000	688
0.0014	506	0.0004	534	0.9982	1161
0.0000	412	0.0000	506	1.0000	641
0.1033	80	0.8967	666
0.0000	168	0.0000	366	1.0000	368
0.8519	83	0.0000	112	0.1481	124	0.0000	172	0.0000	287	0.0000	737
0.2120	125	0.0256	228	0.7623	643
0.5867	39	0.4133	1143
0.0000	54	0.0899	329	0.0077	412	0.9025	487
0.0000	310	0.0000	467	0.0000	628	1.0000	645	0.0000	978
0.0000	487	0.0000	736	0.0000	750	0.0000	846	1.0000	922
0.2147	172	0.0099	477	0.7754	750
1.0000	268	0.0000	477
0.0000	17	0.0000	71	1.0000	368	0.0000	454	0.0000	538	0.0000	659	0.0000	1162
0.0000	506	1.0000	1033
0.0613	172	0.0970	412	0.8417	666
0.0000	4	0.0001	327	0.0000	407	0.0000	576	0.9999	816	0.0000	928
0.0000	80	1.0000	83	0.0000	114	0.0000	268	0.0000	404	0.0000	407	0.0000	454	0.0000	471	0.0000	477	0.0000	688
0.5000	72	0.0000	129	0.0000	266	0.0000	283	0.0000	404	0.0000	603	0.5000	816
0.0000	4	0.0000	37	0.0000	40	0.0004	454	0.0000	576	0.9996	641	0.0000	682
0.0000	9	0.0000	66	0.0008	213	0.0000	266	0.0000	361	0.9992	529	0.0000	641	0.0000	707	0.0000	789	0.0000	966
0.0000	26	1.0000	156	0.0000	158	0.0000	284
0.0000	40	0.9999	404	0.0001	750
0.0000	175	0.0000	329	0.0000	439	0.4705	641	0.5294	850	0.0000	982
0.0000	80	0.0001	232	0.0000	379	0.0000	741	0.0000	933	0.9999	1116
0.0000	178	0.0000	471	0.0000	628	1.0000	685
0.9993	167	0.0007	846
0.0003	227	0.9997	463
0.9926	180	0.0015	347	0.0059	576
0.0000	197	1.0000	840
1.0000	46	0.0000	48
0.0357	172	0.0564	412	0.9079	531
0.0000	4	0.0000	54	0.9999	329	0.0001	407
0.0000	112	1.0000	156	0.0000	214	0.0000	750
0.0000	175	1.0000	268	0.0000	412	0.0000	506
0.0000	46	0.0000	112	1.0000	156	0.0000	171	0.0000	175	0.0000	204	0.0000	228	0.0000	271	0.0000	506	0.0000	579	0.0000	641
0.1951	17	0.8049	404
0.0000	72	0.0000	128	0.9999	156	0.0000	224	0.0000	284	0.0000	298	0.0000	305	0.0000	327	0.0000	367	0.0000	424	0.0000	456	0.0000	651	0.0001	1175
0.0000	40	0.0001	161	0.0000	168	0.0000	258	0.0000	268	0.9999	284	0.0000	412	0.0000	480	0.0000	526	0.0000	639	0.0000	641	0.0000	700	0.0000	779	0.0000	1046
0.0000	750	1.0000	966
0.0092	168	0.9908	255	0.0000	454	0.0000	703	0.0000	750
0.0011	39	0.9987	471	0.0002	688
1.0000	156	0.0000	327	0.0000	651	0.0000	736
0.0165	279	0.9835	422
0.9387	412	0.0613	688
0.3606	80	0.6394	236
1.0000	156	0.0000	172	0.0000	529	0.0000	764
0.0000	268	0.0000	274	1.0000	284	0.0000	404	0.0000	412	0.0000	443
0.0000	412	1.0000	443	0.0000	666
0.0000	76	0.0000	214	0.0000	412	0.0000	617	1.0000	816
0.9972	153	0.0028	351	0.0000	815
1.0000	156	0.0000	293	0.0000	327	0.0000	471	0.0000	529	0.0000	641	0.0000	703	0.0000	731
0.0000	32	0.0000	39	0.0000	48	0.0000	125	0.0000	228	0.9986	268	0.0000	369	0.0000	399	0.0000	412	0.0014	443	0.0000	454	0.0000	666	0.0000	722	0.0000	863
0.2009	136	0.0002	487	0.0004	669	0.7984	1111
0.0000	74	0.0000	214	0.0005	247	0.0000	404	0.0000	412	0.9995	689	0.0000	741	0.0000	846
0.3045	412	0.6955	750
0.0030	120	0.0000	283	0.0000	404	0.0000	407	0.9970	689
0.1063	153	0.8937	170
1.0000	168	0.0000	412	0.0000	666	0.0000	779
0.9954	667	0.0046	750
0.0000	112	0.0000	506	1.0000	641	0.0000	666
0.9995	883	0.0005	1047
0.7817	412	0.2183	856
0.0000	39	0.0000	214	0.9335	232	0.0000	266	0.0233	443	0.0432	946
0.0000	227	1.0000	357
0.9999	357	0.0000	477	0.0001	750
0.0000	112	1.0000	268	0.0000	764
0.9989	38	0.0000	112	0.0000	151	0.0000	214	0.0000	268	0.0000	271	0.0000	283	0.0000	407	0.0000	412	0.0000	458	0.0010	495	0.0001	579	0.0000	594	0.0000	596	0.0000	641
0.0000	112	0.0000	136	1.0000	156	0.0000	268	0.0000	353	0.0000	511	0.0000	669	0.0000	689	0.0000	749	0.0000	841
0.9855	175	0.0006	391	0.0084	412	0.0056	506	0.0000	846
0.0000	72	0.8515	83	0.1480	124	0.0004	685	0.0000	899	0.0000	1155
0.0000	115	0.0000	214	0.0000	232	1.0000	360	0.0000	487	0.0000	608
0.0000	39	1.0000	168	0.0000	412	0.0000	506	0.0000	666	0.0000	883
1.0000	106	0.0000	238	0.0000	319	0.0000	503	0.0000	704	0.0000	828
0.0012	325	0.9988	750
0.0089	94	0.0006	112	0.1209	175	0.0010	412	0.6616	454	0.0149	480	0.0007	506	0.0390	707	0.1523	892
0.0000	171	0.4768	258	0.5232	345	0.0000	412
0.9135	266	0.0865	750
0.0000	103	0.0000	495	1.0000	685	0.0000	688	0.0000	742	0.0000	785	0.0000	816
1.0000	72	0.0000	293
1.0000	357	0.0000	506
0.0000	214	0.0000	594	1.0000	641	0.0000	750
0.0034	95	0.9966	503
0.0000	37	0.0000	220	0.0000	310	1.0000	368	0.0000	391	0.0000	400	0.0000	443	0.0000	900	0.0000	1127
0.0000	112	0.9990	641	0.0010	764
1.0000	412	0.0000	682
0.0065	175	0.9934	404	0.0001	412
0.0000	268	0.0000	343	0.0000	485	0.0000	501	0.0000	555	1.0000	685	0.0000	840
0.9991	454	0.0000	576	0.0009	628
0.0001	161	0.0000	471	0.9999	743
0.0000	40	0.0001	175	0.0000	180	0.0000	254	0.0000	391	0.9989	641	0.0010	764
1.0000	175	0.0000	228
0.0000	353	0.0000	412	1.0000	513	0.0000	534	0.0000	557	0.0000	641	0.0000	736	0.0000	788	0.0000	846	0.0000	854	0.0000	869
0.0000	343	0.0000	404	0.0000	768	0.0000	856	1.0000	913
0.0000	116	1.0000	153	0.0000	768
0.0000	136	1.0000	156	0.0000	669	0.0000	731
1.0000	268	0.0000	487	0.0000	764
0.9999	268	0.0000	404	0.0000	467	0.0000	487	0.0000	785	0.0000	920
0.9996	51	0.0000	172	0.0000	175	0.0000	641	0.0004	817	0.0000	846	0.0000	863	0.0000	1057
0.2168	172	0.7832	750
0.0000	597	1.0000	802
1.0000	38	0.0000	603
0.0000	5	0.0000	70	0.0000	169	0.0000	172	0.0000	252	0.0000	293	0.0000	327	0.0000	369	0.0000	407	0.0000	454	0.0000	639	0.0001	689	0.0000	785	0.9999	802
1.0000	42	0.0000	329
0.0000	329	1.0000	731
0.0000	103	0.0003	353	0.9997	503
0.0114	350	0.9719	576	0.0167	682
0.0000	54	1.0000	620
0.9834	576	0.0166	726
0.9443	204	0.0557	485
0.0271	686	0.9459	863	0.0271	1057
0.1033	412	0.8967	666	0.0000	846
0.0405	128	0.9594	161	0.0000	232	0.0000	305	0.0000	731
0.0000	214	0.0000	216	0.0000	227	0.0000	454	0.0000	487	1.0000	509	0.0000	641	0.0000	688
0.0000	628	0.0005	667	0.0000	750	0.9995	966	0.0000	1176
0.0000	439	0.9990	641	0.0010	764
0.0000	764	1.0000	768
0.0000	70	0.0000	125	0.0000	137	0.0000	156	0.0000	175	0.0000	412	0.0000	477	0.0000	487	0.0000	513	0.0000	560	0.0000	579	0.0000	628	0.0000	651	0.0000	736	0.0000	846	1.0000	911	0.0000	971
0.9095	175	0.0905	329
0.0000	72	1.0000	156	0.0000	252	0.0000	266	0.0000	268	0.0000	454	0.0000	534	0.0000	641
0.0000	48	1.0000	268	0.0000	686	0.0000	863
0.0000	175	1.0000	268	0.0000	404
0.0000	136	0.9999	156	0.0000	669	0.0001	1175
0.0234	112	0.8922	266	0.0845	750
0.0000	529	0.0000	576	0.0000	763	1.0000	921
1.0000	268	0.0000	402	0.0000	750
0.0000	112	0.0000	118	1.0000	641	0.0000	750
0.9477	454	0.0523	710	0.0000	889
0.0000	172	0.0001	214	0.9999	443	0.0000	666	0.0000	849
0.9999	631	0.0001	666
0.0000	329	1.0000	987
0.0000	292	0.0000	404	1.0000	579	0.0000	920
0.0000	175	1.0000	327	0.0000	407
0.0001	487	0.9989	641	0.0010	764
0.0000	477	1.0000	764
0.0000	254	0.0000	266	0.0000	694	0.0000	714	1.0000	973
0.0000	137	1.0000	471
0.0000	204	1.0000	913
0.0000	171	0.0000	271	0.0003	471	0.9997	641
0.0006	40	0.0082	172	0.9431	214	0.0227	254	0.0003	371	0.0129	412	0.0122	1005
0.9989	721	0.0011	764
0.0105	750	0.9895	785
0.0000	129	0.0000	175	0.5426	232	0.4573	327	0.0000	471
0.0000	139	0.9884	432	0.0116	545
0.0000	503	1.0000	880
0.0000	112	0.0000	439	1.0000	641	0.0000	750
0.0075	214	0.0000	534	0.9922	574	0.0002	750
0.0000	72	0.0000	143	1.0000	156	0.0000	158	0.0000	243	0.0000	258	0.0000	412	0.0000	443	0.0000	454	0.0000	531	0.0000	598	0.0000	641	0.0000	701	0.0000	777	0.0000	1046
0.0000	3	1.0000	412
1.0000	46	0.0000	214	0.0000	750
0.0000	175	0.0000	236	0.0000	268	0.0000	327	1.0000	331	0.0000	395	0.0000	412	0.0000	641	0.0000	739	0.0000	755
0.0000	742	0.0000	802	1.0000	913
1.0000	156	0.0000	293	0.0000	362
0.1151	292	0.8849	750
1.0000	156	0.0000	468	0.0000	654	0.0000	731	0.0000	768	0.0000	846	0.0000	1144
1.0000	128	0.0000	967
0.0326	714	0.9674	750
0.3015	4	0.3160	350	0.3826	723
0.0000	329	0.0000	513	0.0000	620	0.0000	736	1.0000	911
0.0013	40	0.9987	869
0.0000	214	0.0000	439	0.0000	750	1.0000	911
0.9999	603	0.0001	750	0.0000	863
0.0451	214	0.0000	688	0.9549	764
0.0000	32	1.0000	128	0.0000	394
0.0000	112	0.0000	137	0.0000	175	0.0000	224	0.0000	287	0.0000	331	0.0001	360	0.0000	439	0.0000	454	0.0000	473	0.9999	509	0.0000	685
1.0000	128	0.0000	357	0.0000	471
0.9935	404	0.0065	487	0.0000	576
0.0462	37	0.9538	471
1.0000	83	0.0000	232	0.0000	1077
0.0000	14	0.0000	29	0.0000	247	0.0000	266	0.0000	368	0.0000	538	0.0000	742	0.0000	770	1.0000	921	0.0000	946	0.0000	1162
1.0000	368	0.0000	732
0.0000	186	1.0000	268	0.0000	503
0.5012	402	0.0005	412	0.4984	926
0.0000	326	0.0000	335	0.0000	609	0.0000	654	1.0000	862
0.0002	54	0.9998	412
0.0004	506	0.9996	764
0.9528	433	0.0463	641	0.0009	920
0.0000	27	0.0002	70	0.5741	597	0.4257	920
0.0000	80	0.0000	112	0.9983	268	0.0000	477	0.0000	506	0.0000	596	0.0017	641	0.0000	741	0.0000	933
0.0078	439	0.9913	454	0.0009	628
1.0000	156	0.0000	503
0.0000	480	0.9990	641	0.0010	764
0.0451	214	0.0001	534	0.9548	764
0.0000	283	0.0000	369	1.0000	674
0.0687	75	0.0429	142	0.8884	466
0.8691	70	0.1309	750
0.9507	620	0.0493	750
0.9960	175	0.0000	220	0.0000	789	0.0039	805	0.0001	849
0.0000	103	1.0000	258	0.0000	311	0.0000	847
0.0000	481	0.0002	548	0.9998	865
0.3137	172	0.1902	366	0.4961	412	0.0000	448	0.0000	580	0.0000	590
0.0004	112	0.4137	454	0.5859	775
0.0000	42	0.0000	54	0.0000	61	0.0000	74	0.0000	125	0.0000	128	0.0000	137	0.9999	156	0.0000	165	0.0001	170	0.0000	175	0.0000	224	0.0000	228	0.0000	232	0.0000	247	0.0000	277	0.0000	289	0.0000	293	0.0000	305	0.0000	399	0.0000	407	0.0000	456	0.0000	499	0.0000	545	0.0000	555	0.0000	625	0.0000	628	0.0000	651	0.0000	685	0.0000	789
0.0000	228	0.9998	404	0.0000	506	0.0001	750
0.0134	76	0.8843	214	0.0276	750	0.0736	787	0.0010	883
0.0000	57	0.0000	103	0.9837	258	0.0000	266	0.0000	319	0.0000	503	0.0000	620	0.0000	652	0.0000	669	0.0163	702	0.0000	704	0.0000	828
0.0136	137	0.9864	467
0.0000	204	0.0000	362	1.0000	545
1.0000	161	0.0000	175	0.0000	268	0.0000	292	0.0000	327	0.0000	506	0.0000	741
1.0000	156	0.0000	1144
0.9968	255	0.0000	291	0.0032	641
0.0000	95	0.0018	120	0.0000	175	0.0001	268	0.0000	305	0.0001	358	0.0000	369	0.0000	407	0.1299	555	0.0000	639	0.6175	689	0.0256	755	0.2250	768	0.0000	866
0.0000	54	0.0000	311	0.0000	348	0.0000	847	1.0000	974	0.0000	975
0.0000	412	1.0000	1021	0.0000	1049
0.0000	51	1.0000	156	0.0000	355	0.0000	749
0.9998	156	0.0000	327	0.0002	360	0.0000	424	0.0000	427	0.0000	651
0.9979	412	0.0021	576
0.0000	29	0.0492	107	0.0000	143	0.0000	180	0.0000	239	0.0000	412	0.0000	443	0.0000	535	0.0000	641	0.0000	742	0.0000	768	0.0000	946	0.0000	1005	0.9508	1115	0.0000	1164
0.0000	175	0.0000	366	0.0000	412	0.0000	443	0.0000	596	0.0000	628	0.0000	641	0.0000	667	1.0000	911	0.0000	1059
0.0000	487	1.0000	529	0.0000	641
0.3637	404	0.0000	407	0.0000	467	0.0000	751	0.6363	920
0.9997	168	0.0003	764
0.0000	65	1.0000	253
1.0000	785	0.0000	863
0.0000	112	0.0000	214	1.0000	268
0.0000	214	0.0000	391	0.0000	477	0.9999	641	0.0000	710	0.0000	750	0.0000	849
0.7454	168	0.2546	641	0.0000	666
0.0000	694	1.0000	731
0.0000	39	0.0000	76	1.0000	641
0.0003	72	0.9997	161	0.0000	168	0.0000	254	0.0000	412	0.0000	641
0.0000	51	1.0000	156	0.0000	268	0.0000	404	0.0000	454	0.0000	471	0.0000	625	0.0000	651
0.0000	172	0.9990	641	0.0010	764
0.0000	228	1.0000	920
1.0000	153	0.0000	449	0.0000	471	0.0000	856	0.0000	888	0.0000	952
0.0000	39	0.0000	46	0.0000	57	0.0000	80	0.0000	106	0.0000	112	0.0000	168	0.0000	175	0.0000	178	0.0000	180	0.0000	214	0.0000	220	0.0000	223	0.0000	245	0.0000	308	0.0000	353	0.0000	371	0.0000	395	0.0000	402	0.0000	412	0.0000	443	0.0000	480	0.0000	529	0.0000	579	0.0000	641	0.0000	654	1.0000	685	0.0000	688	0.0000	710	0.0000	736	0.0000	750	0.0000	772	0.0000	777	0.0000	841	0.0000	869	0.0000	993
0.0000	40	0.0000	76	0.0000	112	0.7454	168	0.0000	266	0.0000	506	0.2546	641	0.0000	707	0.0000	741	0.0000	750
0.0000	70	1.0000	156	0.0000	168	0.0000	327	0.0000	651	0.0000	741	0.0000	750
0.0000	477	0.0000	506	0.9990	641	0.0010	764
0.0000	669	1.0000	674	0.0000	928
1.0000	232	0.0000	1162
0.0708	175	0.9292	764
0.0000	268	0.0000	412	0.0000	439	1.0000	911
0.0004	454	0.9996	641	0.0000	707
0.0000	1	0.0000	26	0.0000	29	0.0000	54	0.0000	412	0.0000	477	0.0000	512	1.0000	719	0.0000	805
0.2942	454	0.7058	764
0.0000	412	0.0000	439	0.0000	641	0.0000	666	1.0000	911
1.0000	120	0.0000	847
0.0057	293	0.9943	308	0.0000	750
0.0006	61	0.9994	112	0.0001	578
1.0000	555	0.0000	564
0.0000	4	0.8111	412	0.1888	712
0.9648	597	0.0352	764
0.0000	70	0.0000	404	1.0000	579
0.0000	5	0.0000	72	0.0000	84	0.0000	165	0.9996	545	0.0000	600	0.0004	802
0.0000	29	1.0000	597
0.0000	214	0.0000	506	0.0000	641	0.0000	764	1.0000	1157
0.0000	74	0.0000	112	0.0000	118	0.0000	214	1.0000	224	0.0000	412	0.0000	641
0.0039	237	0.9961	750
0.0000	180	0.0002	216	0.9998	327	0.0000	688	0.0000	750
0.0001	175	0.0000	576	0.9999	641
0.5017	80	0.3172	172	0.1811	180
0.0000	688	0.0000	750	1.0000	911
0.0000	271	1.0000	433
0.0000	137	1.0000	139	0.0000	165
0.0060	83	0.0000	112	0.9940	156	0.0000	415	0.0000	641	0.0000	789
0.0000	9	1.0000	83	0.0000	368	0.0000	515	0.0000	538	0.0000	1162
0.9919	402	0.0081	666
0.9789	597	0.0211	775
0.4996	43	0.0000	495	0.0007	614	0.4996	963
0.0000	268	1.0000	922
0.0000	204	0.0000	214	0.0001	232	0.0000	454	0.9999	816	0.0000	1123
0.0361	266	0.9639	454	0.0000	889	0.0000	1172
0.0000	137	0.9995	266	0.0004	335	0.0000	418	0.0000	510	0.0002	889
0.0000	29	1.0000	153	0.0000	343
0.0000	214	1.0000	268	0.0000	404
0.0000	412	1.0000	641
0.0000	261	0.0001	674	0.9999	689	0.0000	736	0.0000	854
1.0000	168	0.0000	266	0.0000	750
0.0000	247	1.0000	545	0.0000	576	0.0000	654	0.0000	858
0.0151	368	0.9849	685
0.0000	46	1.0000	83	0.0000	224	0.0000	305	0.0000	424	0.0000	529	0.0000	641	0.0000	731
0.9386	412	0.0001	659	0.0613	688
0.0000	271	0.0515	488	0.9485	538	0.0000	793	0.0000	854
1.0000	268	0.0000	762
0.0000	40	1.0000	156	0.0000	158	0.0000	168	0.0000	175	0.0000	329	0.0000	412	0.0000	641	0.0000	779
0.0000	40	0.0000	172	1.0000	641	0.0000	666
1.0000	526	0.0000	1039
0.0043	628	0.9957	693
0.0000	1	0.0000	228	1.0000	306
0.0405	128	0.0000	136	0.9595	161	0.0000	669
0.0000	37	1.0000	721	0.0000	750
0.0000	39	0.6605	51	0.3395	284	0.0000	305	0.0000	327	0.0000	579	0.0000	648	0.0000	768
0.9999	343	0.0000	485	0.0001	816
1.0000	156	0.0000	343	0.0000	407	0.0000	984
0.0000	506	1.0000	641	0.0000	970
1.0000	368	0.0000	471	0.0000	538	0.0000	836	0.0000	856	0.0000	953	0.0000	1162
0.9835	42	0.0000	137	0.0165	139	0.0000	267
0.0004	454	0.0003	471	0.9993	641
0.9908	247	0.0092	490
0.0134	80	0.9798	214	0.0000	394	0.0068	1046
1.0000	83	0.0000	268	0.0000	361
0.9984	641	0.0000	707	0.0010	764	0.0006	775
0.0000	112	1.0000	252	0.0000	487	0.0000	884
0.3874	172	0.6126	412
1.0000	168	0.0000	1145
0.0000	48	1.0000	560
0.0000	412	1.0000	721
0.5739	37	0.4261	70
0.0000	56	0.0000	69	0.0000	74	0.0000	80	0.9995	107	0.0000	180	0.0000	255	0.0005	284	0.0000	407	0.0000	443	0.0000	454	0.0000	477	0.0000	579	0.0000	641	0.0000	668	0.0000	788	0.0000	892
0.0000	439	0.0000	750	1.0000	911
0.2771	366	0.7229	412
0.0004	172	0.0000	407	0.9996	764
0.0000	40	0.0000	143	0.7454	168	0.0000	412	0.0000	439	0.2545	641	0.0000	779	0.0000	1005
0.0000	487	0.0000	666	1.0000	922
0.0000	175	1.0000	579	0.0000	1047
0.0512	485	0.7209	798	0.2279	856
0.0001	214	0.0000	412	0.9999	443
1.0000	689	0.0000	736	0.0000	854
0.9997	255	0.0000	313	0.0000	454	0.0000	459	0.0000	788	0.0000	789	0.0003	862	0.0000	1176
0.9999	156	0.0000	284	0.0000	286	0.0000	471	0.0001	604	0.0000	731
1.0000	268	0.0000	659	0.0000	764
0.0000	4	0.0000	32	0.0000	129	1.0000	156	0.0000	163	0.0000	204	0.0000	223	0.0000	283	0.0000	404	0.0000	625	0.0000	685	0.0000	689	0.0000	920
0.0000	477	0.9998	579	0.0002	641
0.9981	268	0.0019	850
0.0000	46	0.0000	84	0.0000	116	0.0000	128	0.0000	172	0.0000	247	0.0000	305	0.0000	362	0.3755	545	0.0002	625	0.6242	685	0.0001	802
0.0000	412	0.0004	454	0.0000	477	0.9996	641	0.0000	736	0.0000	788
0.0000	369	0.0000	412	0.0000	639	0.0000	641	1.0000	689	0.0000	899
0.9351	214	0.0225	254	0.0128	412	0.0004	477	0.0292	750
0.0082	704	0.9918	789
0.0000	142	1.0000	156	0.0000	258	0.0000	310	0.0000	487	0.0000	592	0.0000	609	0.0000	702	0.0000	863	0.0000	886	0.0000	1057
0.0000	506	0.9990	641	0.0010	764	0.0000	788
0.0000	29	0.0000	32	0.0000	220	0.9713	327	0.0000	412	0.0287	443	0.0000	454	0.0000	583
0.0000	214	0.9980	255	0.0000	666	0.0000	787	0.0020	966
0.0000	44	0.0000	70	1.0000	156	0.0000	166	0.0000	214	0.0000	255	0.0000	353	0.0000	369	0.0000	403	0.0000	412	0.0000	477	0.0000	487	0.0000	545	0.0000	579	0.0000	639	0.0000	651	0.0000	689	0.0000	721	0.0000	927
1.0000	641	0.0000	750	0.0000	869
0.0000	168	0.0000	214	1.0000	360	0.0000	463	0.0000	667	0.0000	703	0.0000	788
0.0000	65	0.2895	1129	0.7105	1176
0.0003	300	0.9997	764
0.0060	83	0.0000	95	0.0000	103	0.0000	125	0.9940	156	0.0000	182	0.0000	228	0.0000	293	0.0000	361	0.0000	404	0.0000	480	0.0000	560	0.0000	591	0.0000	597	0.0000	750	0.0000	782
0.0000	76	0.0000	214	0.0064	379	0.0000	506	0.9936	641	0.0000	750
0.0000	1101	1.0000	1116
0.0000	175	0.0000	223	0.0000	271	0.0000	339	0.9908	689	0.0092	731
0.0000	437	0.0002	485	0.9998	724
0.0000	327	0.0000	526	0.0000	594	1.0000	625	0.0000	835
1.0000	124	0.0000	270	0.0000	433
0.0001	290	0.9999	777
0.9999	118	0.0001	228
0.1100	96	0.0000	171	0.8900	309
0.0000	116	1.0000	268	0.0000	412
0.0000	40	0.0000	172	0.0000	214	0.0000	412	1.0000	641
0.0028	487	0.9972	597
1.0000	37	0.0000	550
0.9723	175	0.0277	736	0.0000	846
0.0000	125	0.0000	129	0.0000	137	1.0000	156	0.0000	161	0.0000	228	0.0000	268	0.0000	287	0.0000	293	0.0000	404	0.0000	570	0.0000	597	0.0000	609	0.0000	651	0.0000	731	0.0000	802	0.0000	862
0.8877	297	0.1123	428
1.0000	368	0.0000	412	0.0000	750
1.0000	128	0.0000	172	0.0000	641
0.0000	172	0.0005	214	0.0002	266	0.9993	862
0.8994	37	0.1006	750
1.0000	368	0.0000	538	0.0000	628	0.0000	1162
0.0000	52	1.0000	124	0.0000	271	0.0000	361	0.0000	368	0.0000	458	0.0000	946
0.0000	54	0.0000	137	0.0000	161	0.0000	228	0.0000	239	0.0000	252	0.0000	305	0.0000	311	0.0000	326	0.0000	329	0.0001	331	0.0000	332	0.0000	443	0.0000	518	0.0000	528	0.0000	579	0.0003	625	0.9997	685	0.0000	686	0.0000	722	0.0000	723	0.0000	731	0.0000	736	0.0000	828	0.0000	849	0.0000	863	0.0000	971
0.9990	641	0.0010	764
0.0000	80	0.0000	112	1.0000	156	0.0000	293	0.0000	680	0.0000	775
0.0013	128	0.0000	247	0.0000	404	0.9987	625	0.0000	750
0.9999	172	0.0001	590	0.0001	682
0.0000	4	0.0000	112	0.0000	407	0.0000	466	0.9999	641	0.0001	892
0.9417	555	0.0583	742
0.0000	175	0.0005	232	0.0000	266	0.0000	407	0.0000	487	0.9995	529
0.0000	412	1.0000	641	0.0000	1039
0.9991	402	0.0009	412
0.0000	293	0.0000	412	1.0000	685
0.0002	9	0.0243	474	0.9755	534
0.6978	310	0.0094	874	0.2928	978
1.0000	128	0.0000	1101
0.0075	72	0.9917	128	0.0000	172	0.0000	175	0.0000	214	0.0000	232	0.0000	266	0.0000	271	0.0000	292	0.0000	404	0.0001	579	0.0007	742
0.0000	594	1.0000	764
0.0000	4	0.0000	40	0.0000	70	0.0000	412	0.0893	641	0.9107	642	0.0000	654	0.0000	666	0.0000	788
0.3682	37	0.6318	869
0.0000	232	1.0000	768	0.0000	793
1.0000	83	0.0000	391	0.0000	688
0.0000	4	0.0000	103	0.9968	255	0.0000	311	0.0000	412	0.0000	415	0.0000	454	0.0032	641	0.0000	969	0.0000	975
0.0000	214	0.0000	268	0.0000	439	1.0000	911
0.0000	32	0.0005	161	0.0000	169	0.0000	271	0.0000	339	0.9858	368	0.0000	369	0.0000	404	0.0000	529	0.0000	631	0.0000	639	0.0000	689	0.0000	775	0.0137	802	0.0000	869
0.0004	112	0.0000	477	0.9996	764
0.0000	39	0.0000	129	0.0000	175	0.0163	268	0.0007	327	0.9830	731
0.1738	39	0.8262	750
0.0376	364	0.9624	412
0.4040	260	0.1598	474	0.4362	887
1.0000	368	0.0000	528	0.0000	603
0.2656	457	0.7344	764
1.0000	42	0.0000	204
0.9956	214	0.0035	333	0.0009	541
1.0000	293	0.0000	883	0.0000	1176
0.0000	214	0.0000	412	0.0000	439	0.0000	641	1.0000	911
1.0000	456	0.0000	546	0.0000	1176
0.0000	404	0.0000	750	1.0000	768	0.0000	920
0.0000	4	0.2985	172	0.0000	350	0.0185	364	0.1810	366	0.4721	412	0.0296	485	0.0004	528
0.0013	266	0.9987	404	0.0000	576
0.7454	168	0.0000	236	0.0000	412	0.2546	641	0.0000	883
0.0938	48	0.9062	884
0.0001	283	0.9999	736
1.0000	255	0.0000	528
0.2710	326	0.0734	332	0.0507	350	0.1574	677	0.3530	717	0.0945	893
0.0046	83	0.0000	232	0.0000	402	0.0000	404	0.0000	412	0.0000	443	0.0000	454	0.0000	477	0.9954	509	0.0000	788	0.0000	920
0.0000	221	0.9995	247	0.0005	721
0.0000	46	0.0000	65	0.0000	74	0.0000	103	0.0000	112	0.0008	124	0.0000	125	0.0000	129	0.0000	137	0.0000	165	0.0001	170	0.0000	228	0.0000	232	0.0000	238	0.0000	247	0.0000	270	0.0000	305	0.0000	326	0.0000	329	0.0000	407	0.0000	454	0.0000	487	0.0000	491	0.9991	509	0.0000	529	0.0000	545	0.0000	563	0.0000	625	0.0000	654	0.0000	685	0.0000	723	0.0000	742	0.0000	743	0.0000	749	0.0000	789	0.0000	826	0.0000	846	0.0000	920
1.0000	156	0.0000	232	0.0000	641	0.0000	651	0.0000	890
0.0000	137	0.0000	491	1.0000	548
1.0000	156	0.0000	224	0.0000	247	0.0000	293	0.0000	305	0.0000	456	0.0000	545	0.0000	742
0.1212	767	0.8788	1044
1.0000	156	0.0000	201	0.0000	731
0.0000	39	0.0075	214	0.9925	574
0.0103	46	0.9897	72	0.0000	171	0.0000	197
0.0103	46	0.0000	70	0.9897	816
0.0000	172	0.0000	254	0.0000	412	1.0000	641
0.0000	214	1.0000	268	0.0000	750
0.0000	65	0.0000	169	1.0000	689
0.0000	112	0.6271	268	0.0000	366	0.0000	395	0.0000	412	0.0000	471	0.0000	528	0.0000	688	0.3729	896	0.0000	920
0.0000	70	0.0001	175	0.0003	454	0.0001	487	0.9996	946
0.0000	228	1.0000	404
0.0000	132	1.0000	360
0.0000	70	0.0000	444	1.0000	545	0.0000	768
1.0000	46	0.0000	53	0.0000	243
0.9997	168	0.0003	526	0.0000	750
1.0000	496	0.0000	982
1.0000	156	0.0000	266	0.0000	345	0.0000	471	0.0000	614	0.0000	721	0.0000	840	0.0000	890
1.0000	579	0.0000	757
0.0013	102	0.9987	343	0.0000	736	0.0000	785
0.0000	65	0.0000	471	0.0000	582	1.0000	743	0.0000	854
0.9865	168	0.0000	172	0.0000	439	0.0001	454	0.0000	762	0.0000	767	0.0134	958
0.0002	471	0.9998	850
0.0000	103	0.0000	412	1.0000	572
0.0000	268	1.0000	284	0.0000	404
0.0031	95	0.9969	404
0.9999	428	0.0000	477	0.0000	628	0.0001	750
0.0000	228	1.0000	487
0.0000	40	1.0000	641	0.0000	750
0.0000	74	1.0000	641
0.0000	137	0.0048	548	0.9952	685
0.0000	172	0.9968	255	0.0000	391	0.0000	412	0.0032	641	0.0000	846
0.0000	97	0.0000	204	0.0001	232	0.9999	816
0.0000	214	0.0000	266	0.0000	411	0.0000	412	0.9999	641	0.0000	777	0.0000	846	0.0000	847
0.0000	172	0.9984	268	0.0000	688	0.0016	721	0.0000	764	0.0000	836	0.0000	1156
0.0000	137	0.0008	309	0.9992	548
1.0000	168	0.0000	412	0.0000	703	0.0000	787
0.0056	326	0.9395	609	0.0015	686	0.0533	863
0.0000	142	0.0000	424	0.0000	592	1.0000	612	0.0000	1127
0.0000	175	0.0000	391	0.0000	641	0.0000	666	1.0000	1144
1.0000	139	0.0000	579
0.0085	72	0.0000	116	0.0000	473	0.9915	538
0.9997	168	0.0000	714	0.0003	764
0.0000	197	0.0000	204	0.0000	219	0.0000	221	0.0000	266	0.0000	357	0.0000	485	0.0000	823	1.0000	913
0.0000	531	1.0000	641	0.0000	750
1.0000	156	0.0000	158	0.0000	343	0.0000	351	0.0000	731	0.0000	859
0.0000	129	0.0000	283	1.0000	327	0.0000	395
0.9995	83	0.0000	175	0.0005	685
0.0000	247	1.0000	743	0.0000	846	0.0000	866	0.0000	973
0.0000	228	0.2977	404	0.7023	597
1.0000	83	0.0000	166	0.0000	268	0.0000	287	0.0000	731
0.0000	293	0.0000	305	1.0000	555
1.0000	46	0.0000	137	0.0000	651	0.0000	653	0.0000	858
0.0000	112	0.0000	125	0.3086	128	0.0000	129	0.0000	204	0.0000	228	0.0000	232	0.6852	277	0.0000	424	0.0062	768	0.0000	863
0.3822	214	0.6167	487	0.0011	534
0.1696	125	0.0131	291	0.8174	863
0.0000	5	0.0000	40	1.0000	268
0.0000	73	0.9999	83	0.0001	284	0.0000	412	0.0000	487	0.0000	666	0.0000	742
0.0007	762	0.9993	764
1.0000	168	0.0000	412	0.0000	703	0.0000	750
0.8686	463	0.1314	750
1.0000	156	0.0000	158	0.0000	223	0.0000	294	0.0000	412	0.0000	428	0.0000	454	0.0000	477	0.0000	639	0.0000	641	0.0000	689
0.0146	228	0.9854	576
0.0000	394	1.0000	604
0.0031	506	0.9969	785	0.0000	789
1.0000	83	0.0000	597
0.0000	266	1.0000	545
0.9981	42	0.0019	343
0.0000	97	0.0000	112	0.0000	118	0.0000	168	0.0000	172	0.0000	204	0.0000	214	1.0000	284	0.0000	366	0.0000	412	0.0000	471	0.0000	688	0.0000	805
0.0000	350	0.0000	404	1.0000	529
1.0000	368	0.0000	439	0.0000	538	0.0000	1162
0.0000	39	0.1510	293	0.8490	641	0.0000	750
0.0085	214	0.9913	216	0.0000	688	0.0003	750
0.0000	46	0.0000	112	0.0000	175	0.0000	232	0.0000	412	0.0000	439	0.0000	480	0.0000	506	0.0000	641	1.0000	911	0.0000	966
0.0000	576	0.0000	628	0.0000	775	1.0000	1163	0.0000	1176
0.9838	227	0.0162	651
1.0000	156	0.0000	327	0.0000	412	0.0000	641	0.0000	651
0.0000	233	0.0000	485	1.0000	932
0.7140	171	0.2057	485	0.0803	888
1.0000	404	0.0000	467
1.0000	268	0.0000	422	0.0000	750
0.0000	309	0.0000	485	1.0000	913
0.0000	9	0.0000	29	1.0000	258	0.0000	528
0.0000	444	1.0000	545	0.0000	768
0.0042	40	0.7883	666	0.2075	750
1.0000	247	0.0000	724
0.0000	247	0.0000	442	1.0000	545	0.0000	654	0.0000	858
0.0004	172	0.0015	750	0.9981	764
1.0000	156	0.0000	239	0.0000	313	0.0000	750	0.0000	854
1.0000	72	0.0000	95	0.0000	503	0.0000	789
0.0000	112	0.9987	443	0.0000	666	0.0013	764
0.0000	58	1.0000	890
0.0002	216	0.9998	327	0.0000	688	0.0000	710
0.0000	70	0.0000	172	0.0000	180	0.0000	412	0.0002	443	0.0000	454	0.0000	707	0.9998	748
1.0000	368	0.0000	789
0.0000	750	1.0000	784	0.0000	1172
0.9999	443	0.0000	467	0.0001	487	0.0000	506
0.9837	258	0.0163	702
0.0000	76	1.0000	168	0.0000	750	0.0000	787
0.0000	4	1.0000	412
0.0000	61	1.0000	454	0.0000	868
0.0000	172	0.0001	175	0.0000	259	0.0000	286	0.0000	329	0.0000	412	0.0000	600	0.9993	641	0.0000	653	0.0000	736	0.0006	775	0.0000	846
0.0000	128	0.0000	228	0.0000	268	1.0000	284	0.0000	404	0.0000	424	0.0000	477	0.0000	651
0.0048	439	0.9952	926
0.0000	112	0.0001	175	0.9999	641	0.0000	750
0.0259	42	0.9741	545
0.0000	463	0.9990	641	0.0010	764
0.0000	157	0.9999	247	0.0000	259	0.0001	293	0.0000	314	0.0000	858
0.0000	129	1.0000	268
1.0000	72	0.0000	254	0.0000	412	0.0000	809
1.0000	51	0.0000	57	0.0000	220	0.0000	266	0.0000	391	0.0000	412	0.0000	443	0.0000	598
0.0000	39	0.9990	641	0.0010	764
0.0000	412	0.0000	428	0.0000	439	0.0000	641	0.0000	764	1.0000	911
0.0000	287	1.0000	351	0.0000	555	0.0000	836
0.0000	750	1.0000	784
1.0000	153	0.0000	197	0.0000	485	0.0000	866
1.0000	156	0.0000	158	0.0000	467
0.0002	118	0.9998	764
1.0000	247	0.0000	357	0.0000	449	0.0000	471
0.0000	4	0.0000	407	0.0000	412	1.0000	548	0.0000	654
1.0000	175	0.0000	789
0.0050	168	0.9950	268	0.0000	764
1.0000	56	0.0000	158
1.0000	156	0.0000	175	0.0000	576	0.0000	654	0.0000	763
0.0005	161	0.0000	172	0.0000	255	0.9995	368	0.0000	412	0.0000	454	0.0000	477	0.0000	487	0.0000	506
0.0098	477	0.2249	506	0.7653	750
0.9995	72	0.0000	204	0.0005	674	0.0000	854
0.0000	266	0.0000	339	0.0000	563	1.0000	585	0.0000	641	0.0000	775
0.0152	232	0.9848	247	0.0000	266	0.0000	471
0.0315	142	0.6518	466	0.1138	729	0.2029	746
0.9655	116	0.0345	175
0.0000	268	0.0000	404	1.0000	545
0.9916	175	0.0084	412
0.0000	14	0.0000	70	0.0000	129	1.0000	156	0.0000	175	0.0000	214	0.0000	391	0.0000	439	0.0000	454	0.0000	471	0.0000	480	0.0000	487	0.0000	506	0.0000	545	0.0000	651	0.0000	703	0.0000	737	0.0000	750	0.0000	971
0.9759	37	0.0241	808	0.0000	1047
0.9393	293	0.0607	404
0.0000	65	0.0000	165	0.0000	175	0.0000	232	0.0000	247	0.0000	252	0.0000	270	0.0000	284	0.0000	305	0.0000	329	0.0012	330	0.0000	454	0.9988	530	0.0000	555	0.0000	688	0.0000	712	0.0000	750	0.0000	768	0.0000	849	0.0000	863	0.0000	875
0.9847	233	0.0153	485
0.8661	768	0.1339	1144
0.0000	268	1.0000	284	0.0000	412	0.0000	485	0.0000	836
0.0000	46	1.0000	284	0.0000	856
0.0000	40	1.0000	168
1.0000	731	0.0000	750
0.0001	216	0.0000	526	0.9524	639	0.0000	688	0.0475	936
0.0000	46	0.2873	288	0.7127	309	0.0000	485	0.0000	749
0.0000	750	1.0000	768
1.0000	268	0.0000	889
1.0000	327	0.0000	412	0.0000	471
0.9967	136	0.0011	487	0.0022	669
0.0000	136	1.0000	156	0.0000	529	0.0000	669	0.0000	768
0.0000	40	0.0000	172	0.0000	412	1.0000	641
0.1949	741	0.8051	750
0.0071	404	0.9639	473	0.0166	597	0.0001	669	0.0123	920
0.1018	412	0.8837	666	0.0067	688	0.0078	714
0.0000	39	0.9997	168	0.0000	703	0.0003	764
0.0000	412	0.4394	443	0.5606	641
0.9208	404	0.0792	764
0.0000	243	0.9999	255	0.0000	454	0.0000	534	0.0000	785	0.0000	788	0.0000	883	0.0001	1049	0.0000	1101	0.0000	1143	0.0000	1171
1.0000	232	0.0000	407
0.2652	180	0.7348	412	0.0000	458
1.0000	255	0.0000	361	0.0000	528	0.0000	603	0.0000	1172	0.0000	1178
0.0000	9	0.0000	29	0.0000	32	0.0000	180	0.0000	220	0.0000	293	0.0009	308	0.0008	327	0.0000	350	0.0000	402	0.0000	407	0.0000	454	0.0000	463	0.0000	682	0.0000	707	0.9983	731	0.0000	741
0.0000	4	0.9999	412	0.0000	448
0.0000	271	0.0000	503	1.0000	731
0.0000	37	0.0000	271	0.0000	327	0.0000	369	0.0000	463	0.0000	555	0.0000	710	1.0000	802
0.0000	46	0.0000	103	0.0000	125	0.0000	129	0.0000	228	0.0000	232	0.0000	238	0.0000	247	0.0010	270	0.0000	326	0.0000	407	0.9990	685	0.0000	723	0.0000	742	0.0000	789	0.0000	846	0.0000	920
1.0000	17	0.0000	29	0.0000	425
1.0000	168	0.0000	366
0.0000	172	0.0000	292	0.9964	404	0.0000	682	0.0036	876
0.0000	39	1.0000	232	0.0000	688
0.0000	172	0.0000	412	1.0000	641
1.0000	268	0.0000	666	0.0000	764
0.8968	94	0.1032	412
0.0000	172	0.0000	214	0.0000	458	0.0000	534	0.3660	555	0.0000	641	0.6340	768	0.0000	1088
0.0000	412	1.0000	641	0.0000	666
0.0000	40	0.0000	72	0.0000	112	0.0000	243	0.0000	247	0.9863	368	0.0000	412	0.0000	485	0.0000	641	0.0000	777	0.0137	802
1.0000	247	0.0000	750
0.1195	293	0.8805	784
0.0030	120	0.0000	477	0.9970	689
1.0000	351	0.0000	840	0.0000	952
0.0000	46	0.0000	115	0.0000	125	1.0000	156	0.0000	165	0.0000	168	0.0000	214	0.0000	216	0.0000	228	0.0000	300	0.0000	305	0.0000	366	0.0000	472	0.0000	579	0.0000	617	0.0000	688	0.0000	741	0.0000	862
0.0032	118	0.9880	214	0.0082	628	0.0007	836	0.0000	1172
0.0000	80	0.0000	125	1.0000	156	0.0000	175	0.0000	228	0.0000	279	0.0000	350	0.0000	391	0.0000	407	0.0000	499	0.0000	546	0.0000	651	0.0000	680	0.0000	688
0.0002	674	0.9998	768	0.0000	854
0.0000	70	0.0000	156	0.0000	228	0.0000	513	0.0000	527	0.0000	736	0.0000	846	1.0000	911	0.0000	1034
1.0000	153	0.0000	471	0.0000	485
0.0000	172	0.0000	214	0.9999	641	0.0000	707	0.0000	750
1.0000	124	0.0000	139	0.0000	548
0.0007	402	0.0000	412	0.0000	666	0.9993	721
0.0000	80	1.0000	128	0.0000	424	0.0000	471	0.0000	526
0.0033	371	0.6875	439	0.3093	750
1.0000	368	0.0000	628
0.0000	412	0.0000	439	1.0000	529
1.0000	327	0.0000	534
0.0000	39	1.0000	232	0.0000	463	0.0000	764	0.0000	787	0.0000	889
0.6200	207	0.3800	750
1.0000	513	0.0000	620	0.0000	736	0.0000	807
0.9999	278	0.0001	793
0.1277	90	0.0345	142	0.7133	466	0.1246	729
0.0000	214	1.0000	247	0.0000	1049
0.9998	46	0.0000	165	0.0000	175	0.0000	283	0.0000	395	0.0002	749
1.0000	156	0.0000	175	0.0000	254	0.0000	531	0.0000	639	0.0000	689
0.0000	112	0.9986	268	0.0000	439	0.0014	443
0.0001	303	0.0007	466	0.0001	729	0.9990	869
0.0000	136	0.0000	669	1.0000	731
0.9993	116	0.0007	750
0.0195	65	0.1480	283	0.0385	846	0.7940	863
0.0000	394	0.0007	424	0.0000	609	0.9993	862
0.0810	412	0.7031	666	0.2159	777
0.9959	32	0.0016	172	0.0025	412
1.0000	95	0.0000	261
0.0170	172	0.0269	412	0.9562	710
0.0000	39	1.0000	268	0.0000	788
0.6239	412	0.3761	628
1.0000	156	0.0000	764
0.0000	76	1.0000	168	0.0000	846
0.0000	641	1.0000	731	0.0000	789
1.0000	268	0.0000	688	0.0000	764
0.0000	40	0.0000	391	0.0000	506	0.9990	641	0.0010	764
0.0756	171	0.9026	221	0.0218	485
1.0000	641	0.0000	688	0.0000	714
0.0009	129	0.9989	404	0.0001	703	0.0001	750
0.9996	343	0.0000	742	0.0004	815
0.0000	66	0.0000	628	1.0000	641	0.0000	750
0.4371	236	0.5629	750
0.0000	412	1.0000	443
1.0000	46	0.0000	412
0.1882	22	0.0000	37	0.0000	76	0.8118	144	0.0000	214	0.0000	221	0.0000	764
0.2729	412	0.7271	777
1.0000	175	0.0000	654
0.0009	39	0.0001	485	0.9990	564
0.9997	83	0.0003	545	0.0000	1034
0.0000	112	0.0000	130	0.0000	214	0.0000	228	0.0000	412	0.0000	443	0.0000	454	0.0000	463	0.0000	477	0.0593	509	0.9407	1159	0.0000	1168
0.0000	56	1.0000	156	0.0000	789
1.0000	268	0.0000	534
0.0000	166	1.0000	768
1.0000	443	0.0000	777
1.0000	72	0.0000	749
1.0000	214	0.0000	594
0.0000	128	1.0000	153
0.0000	29	0.9999	693	0.0001	982
0.0000	311	1.0000	620
1.0000	284	0.0000	731
0.0000	29	1.0000	72
0.1915	112	0.8085	777
0.0239	61	0.0376	347	0.9386	868
0.0000	495	1.0000	802
1.0000	936	0.0000	1056
0.0000	654	1.0000	763
0.0000	227	1.0000	363
1.0000	128	0.0000	866
0.0151	291	0.0150	722	0.0227	723	0.9472	863
0.5187	310	0.4813	886
1.0000	153	0.0000	485
0.1307	4	0.7322	326	0.1370	350
1.0000	156	0.0000	545
0.0186	137	0.9814	889
0.0000	118	1.0000	641
0.4578	310	0.1921	978	0.3502	1127
0.9128	72	0.0000	204	0.0000	485	0.0872	742
0.0000	244	1.0000	284
0.0000	283	1.0000	660
1.0000	545	0.0000	651
0.9702	132	0.0298	689
0.0078	404	0.9922	946
0.0011	236	0.9989	764
0.0000	669	1.0000	816	0.0000	1111
1.0000	641	0.0000	863
1.0000	170	0.0000	232	0.0000	305
0.0000	227	1.0000	308
0.0000	350	0.0000	358	0.0000	576	0.0000	677	1.0000	865
0.0067	293	0.9929	327	0.0004	362
0.9999	168	0.0001	669	0.0000	928
0.1883	303	0.0548	400	0.7569	606
1.0000	168	0.0000	703
1.0000	14	0.0000	928
0.0562	326	0.0152	332	0.0152	518	0.8982	576	0.0152	686
1.0000	156	0.0000	624
0.0000	128	0.0000	153	0.0000	204	0.0000	287	0.0000	485	0.0000	856	0.0000	866	1.0000	913
1.0000	443	0.0000	736
0.0001	542	0.9999	601
0.0000	228	1.0000	545
0.0000	369	1.0000	689
0.3548	487	0.6452	785
0.9953	102	0.0047	731
1.0000	232	0.0000	305
0.0004	564	0.9995	641	0.0002	724
0.0006	129	0.9412	383	0.0574	526	0.0007	1028
0.0000	201	1.0000	351
0.0675	322	0.0623	510	0.8703	767
1.0000	309	0.0000	485	0.0000	856
0.0109	97	0.9891	171
0.0000	61	0.0000	347	1.0000	443
0.3889	171	0.1120	485	0.4991	856
0.0000	454	1.0000	509
1.0000	327	0.0000	439
0.8910	750	0.1090	856
0.0163	268	0.9837	731
0.0000	750	1.0000	890
1.0000	168	0.0000	779
1.0000	232	0.0000	487
0.0000	454	1.0000	545
0.6021	72	0.3979	244
1.0000	343	0.0000	736
1.0000	351	0.0000	555
0.0030	343	0.9970	351	0.0000	840
0.0000	305	1.0000	604
1.0000	51	0.0000	624
0.1719	70	0.8281	214
0.6924	310	0.0171	861	0.2905	978
0.1505	29	0.2206	58	0.2002	314	0.4288	413
1.0000	327	0.0000	407
0.0666	322	0.8594	767	0.0740	881
1.0000	156	0.0000	343
0.1510	293	0.8490	641
0.9931	214	0.0069	1046
0.0745	142	0.9255	606
0.0239	228	0.0228	723	0.9533	863
1.0000	116	0.0000	485
0.0000	136	1.0000	343
0.6556	100	0.3239	566	0.0205	726
0.0001	65	0.9999	928
0.2065	291	0.7935	677
0.0026	97	0.2381	171	0.0686	485	0.3056	856	0.3850	866
1.0000	443	0.0000	868
0.0009	232	0.9991	731
0.1662	125	0.0201	228	0.0127	722	0.8010	863
0.0000	171	1.0000	351
0.0103	46	0.9897	816
0.1981	244	0.8019	768
0.8143	54	0.1857	442
0.9995	544	0.0005	1148
0.0002	112	0.9998	116
0.9837	258	0.0000	477	0.0163	702
0.0179	142	0.0553	303	0.0161	400	0.9106	592
0.0000	433	1.0000	768
0.1640	178	0.0000	369	0.8360	639
0.0000	172	1.0000	890
0.4539	195	0.5461	881
1.0000	83	0.0000	890
0.1281	171	0.7075	197	0.1644	856
1.0000	156	0.0000	816
0.1927	325	0.8073	879
0.9518	335	0.0442	418	0.0040	510
1.0000	83	0.0000	118
0.9998	685	0.0002	802
0.0000	72	1.0000	170
0.0000	471	1.0000	645
0.0000	404	1.0000	685
0.6078	259	0.3322	325	0.0600	767
1.0000	315	0.0000	382
0.5035	448	0.4965	590
0.7281	112	0.2719	118
0.6366	172	0.3634	180
0.0000	512	1.0000	936
0.0115	171	0.9885	1080
0.0000	223	0.0000	283	1.0000	689
0.9978	201	0.0022	503
0.9911	227	0.0089	1087
0.1455	820	0.8545	1094
0.5000	175	0.5000	487
0.0000	116	1.0000	768
1.0000	284	0.0000	757
1.0000	284	0.0000	816
0.3122	314	0.3439	510	0.3439	518
0.9910	609	0.0090	629
0.5000	686	0.5000	858
0.0043	749	0.9957	890
0.8718	407	0.1282	1077
0.0000	54	1.0000	443
0.0000	651	1.0000	890
0.0000	29	1.0000	840
0.0115	128	0.9885	343	0.0000	856
0.0098	48	0.9763	576	0.0138	723
0.0318	142	0.0981	303	0.0690	310	0.6574	466	0.1148	729	0.0289	978
1.0000	153	0.0000	555
0.0456	4	0.9544	747
1.0000	156	0.0000	731	0.0000	847
1.0000	153	0.0000	520	0.0000	840
0.6820	165	0.3180	305
0.8787	653	0.1213	686
1.0000	153	0.0000	197
0.5481	886	0.4519	1127
0.9924	259	0.0076	322
0.0000	14	1.0000	811	0.0000	884
1.0000	178	0.0000	928
1.0000	641	0.0000	856
0.1640	178	0.0000	283	0.0000	369	0.8360	639
0.0000	529	1.0000	625
1.0000	156	0.0000	529
0.9150	703	0.0850	883
0.0000	439	0.0000	688	1.0000	911
0.3728	48	0.6272	1087
1.0000	432	0.0000	689
0.0000	266	1.0000	731
0.0000	56	1.0000	253
1.0000	168	0.0000	477	0.0000	883
0.0000	74	1.0000	731
1.0000	156	0.0000	232	0.0000	305
0.0000	97	1.0000	802
0.4944	580	0.5056	969
0.0006	129	0.0000	172	0.9994	383
0.0002	51	0.9998	83
1.0000	343	0.0000	866
0.1321	201	0.8679	232
0.2246	51	0.7754	685
0.0000	72	1.0000	685
0.9992	471	0.0008	866
1.0000	641	0.0000	688
1.0000	343	0.0000	856
0.0000	369	0.9875	639	0.0125	641
0.0000	61	1.0000	443	0.0000	868
1.0000	731	0.0000	757
0.0000	76	1.0000	168	0.0000	883
0.0000	153	0.0000	171	1.0000	913
0.0000	463	1.0000	529
0.0259	185	0.9741	520
0.0172	142	0.0532	303	0.0374	310	0.8764	592	0.0157	978
0.0019	311	0.9981	508
0.9681	402	0.0319	869
1.0000	543	0.0000	856
0.0000	72	1.0000	802
0.0065	39	0.9935	214
1.0000	268	0.0000	283
0.0000	231	1.0000	268
0.0088	576	0.9912	725
0.1022	303	0.6847	466	0.2131	746
1.0000	520	0.0000	1081
0.0527	413	0.9473	863
0.9852	271	0.0008	283	0.0140	369
0.0000	129	1.0000	473
0.1461	142	0.3171	310	0.2943	886	0.2426	1127
0.0000	395	1.0000	503
1.0000	232	0.0000	624
0.9976	487	0.0024	928
0.0000	231	1.0000	742
0.0000	112	0.0000	220	1.0000	443
1.0000	585	0.0000	854
0.0002	129	0.5998	225	0.3769	383	0.0230	526
0.7192	485	0.2808	888
0.0000	404	1.0000	529
1.0000	360	0.0000	866
0.3979	244	0.6021	816
0.4758	314	0.5242	518
0.9026	46	0.0974	268
1.0000	487	0.0000	854
0.9128	72	0.0872	742
0.7623	236	0.2377	741
0.0157	291	0.9843	863
0.7869	326	0.2131	518
0.5303	54	0.4697	809
1.0000	153	0.0000	374
0.4758	314	0.5242	686
0.9989	214	0.0011	714
1.0000	454	0.0000	863
1.0000	72	0.0000	116
0.2640	303	0.1855	310	0.5505	746
0.0393	133	0.0393	332	0.8181	407	0.0316	571	0.0446	599	0.0269	810
0.0000	116	0.9972	153	0.0028	351	0.0000	815
0.0001	207	0.9974	294	0.0025	422
0.0000	503	1.0000	811
0.9960	287	0.0040	880
1.0000	153	0.0000	485	0.0000	888
1.0000	368	0.0000	506	0.0000	641
0.0092	4	0.2901	407	0.6866	654	0.0142	682
1.0000	156	0.0000	204
0.0000	171	1.0000	641
0.0152	232	0.9848	247
0.0000	343	1.0000	685
0.0000	309	1.0000	913
1.0000	83	0.0000	802
1.0000	244	0.0000	283
0.0000	407	1.0000	731
0.8850	61	0.1150	578
0.0000	96	0.0000	309	1.0000	913
1.0000	443	0.0000	477
0.0130	4	0.0199	448	0.9671	654
0.0741	310	0.7062	466	0.2198	746
1.0000	153	0.0000	197	0.0000	1088
0.9946	471	0.0054	750
1.0000	95	0.0000	407
0.7635	178	0.2365	201
0.6708	39	0.3292	118
0.0000	175	0.0000	487	1.0000	579
1.0000	153	0.0000	520
0.0030	487	0.9970	753
0.0000	99	1.0000	268
0.0995	168	0.9005	327
1.0000	513	0.0000	736
0.0000	439	1.0000	911
0.1928	90	0.1608	303	0.6464	606
0.0988	303	0.0694	310	0.6620	466	0.1698	900
0.0004	175	0.9996	293
0.3436	260	0.6564	466
1.0000	139	0.0000	576
0.0000	232	1.0000	604
1.0000	153	0.0000	840
0.0000	153	0.0000	197	1.0000	913
0.2605	407	0.7395	576
1.0000	168	0.0000	787
0.9990	724	0.0010	856
0.3756	545	0.6244	685
0.0000	487	1.0000	529
1.0000	284	0.0000	866
0.2120	17	0.7880	673
1.0000	124	0.0000	395
0.7873	422	0.2127	610
0.0000	76	1.0000	168	0.0000	787
0.1046	579	0.8954	731
1.0000	368	0.0000	533
0.0000	208	0.0000	347	1.0000	443	0.0000	550
0.9860	271	0.0140	369
0.0134	79	0.9866	530
0.9996	327	0.0004	404
0.0000	129	1.0000	731
0.0126	142	0.0388	303	0.0273	310	0.0113	400	0.2600	466	0.6386	592	0.0114	978
0.9995	463	0.0005	849
1.0000	128	0.0000	836
0.9997	120	0.0003	936
0.0008	4	0.9992	586
0.0001	72	0.9999	343
0.9998	112	0.0001	220	0.0001	1101
1.0000	443	0.0000	928
1.0000	768	0.0000	866
1.0000	46	0.0000	97
0.3122	856	0.6878	1088
0.0103	503	0.9897	641
0.0020	768	0.9980	1104
0.1018	214	0.8982	454
0.1799	102	0.0000	116	0.8201	520	0.0000	1081
0.0000	232	0.0000	305	1.0000	545
0.0000	158	1.0000	545
0.9987	214	0.0004	477	0.0009	688
1.0000	51	0.0000	228
0.9999	438	0.0001	850
0.5447	590	0.4553	711
0.5986	310	0.1502	417	0.2512	978
0.5542	332	0.4458	571
1.0000	83	0.0000	351
0.0000	347	0.9995	443	0.0005	454
1.0000	351	0.0000	768
1.0000	201	0.0000	669	0.0000	928
0.0000	72	1.0000	156
0.0013	322	0.2730	335	0.0127	418	0.7131	609
1.0000	268	0.0000	487
0.3122	686	0.3122	858	0.3756	881
0.0359	61	0.9641	760
1.0000	327	0.0000	366
1.0000	309	0.0000	856
0.2626	112	0.7374	236
0.0060	4	0.5371	576	0.4477	654	0.0092	682
0.0469	125	0.0057	228	0.9474	467
0.0000	168	0.0000	172	1.0000	368
0.0000	70	0.0000	172	0.0000	175	0.0000	309	0.0000	371	0.0000	381	1.0000	545	0.0000	726	0.0000	836	0.0000	1088
0.0000	46	1.0000	343
0.0000	350	1.0000	763
0.0000	641	1.0000	679
0.9094	175	0.0905	329	0.0000	350	0.0000	528	0.0000	580	0.0000	809
0.1663	443	0.8337	936
0.9958	335	0.0042	510
1.0000	201	0.0000	688
0.0009	402	0.9991	443
0.1375	314	0.5594	326	0.1515	332	0.1515	518
0.0000	1	1.0000	438
0.0059	4	0.0328	326	0.5243	576	0.4370	654
0.0000	271	1.0000	503
0.9999	72	0.0001	232	0.0000	856
0.3826	214	0.6174	487
0.9797	579	0.0000	609	0.0000	653	0.0000	654	0.0203	774	0.0000	858
0.5200	322	0.4800	874
1.0000	83	0.0000	443
0.0000	471	1.0000	768
0.0000	61	0.0000	208	1.0000	443
0.0000	40	0.0000	391	0.0000	412	0.0000	506	1.0000	641	0.0000	750
0.0630	263	0.0572	314	0.8799	767
0.0000	97	1.0000	816
1.0000	351	0.0000	471
0.5006	303	0.3518	310	0.1476	978
1.0000	432	0.0000	749
0.9805	576	0.0195	1047
0.1590	48	0.2674	453	0.5736	677
0.0000	175	1.0000	731
0.9943	175	0.0057	506
1.0000	38	0.0000	485
1.0000	156	0.0000	612
0.9614	129	0.0386	172
0.7478	112	0.2522	534
0.0000	171	1.0000	913
0.1474	326	0.8304	407	0.0222	722
0.0000	351	1.0000	913
1.0000	555	0.0000	624	0.0000	822
1.0000	694	0.0000	881
0.7613	168	0.2387	721
0.5382	180	0.4618	788
0.9972	424	0.0028	856
1.0000	293	0.0000	350
1.0000	201	0.0000	271
0.0000	114	1.0000	685
0.9911	227	0.0089	686
0.9062	112	0.0938	688
0.0000	232	0.0000	305	1.0000	555
1.0000	132	0.0000	880
1.0000	156	0.0000	305	0.0000	555
0.9132	407	0.0429	580	0.0439	590
0.0000	201	1.0000	284
0.0132	4	0.9868	654
0.7944	125	0.0961	228	0.1096	858
0.0092	168	0.0000	172	0.0000	254	0.9876	255	0.0000	371	0.0000	506	0.0000	531	0.0031	641	0.0000	714	0.0000	779
1.0000	168	0.0000	477
1.0000	51	0.0000	742
0.7789	153	0.0000	343	0.2211	685
0.1533	171	0.8467	197
0.3822	65	0.6178	847
0.0000	76	1.0000	168	0.0000	236
0.0000	292	1.0000	946
1.0000	287	0.0000	866
1.0000	96	0.0000	485
1.0000	731	0.0000	846
0.0000	112	1.0000	201
0.0000	228	1.0000	784
0.0001	220	0.9999	788
1.0000	156	0.0000	625	0.0000	651
0.1291	886	0.7645	1093	0.1064	1127
0.9999	693	0.0001	879
1.0000	178	0.0000	369
0.0000	175	1.0000	545
0.0947	477	0.9053	856
0.0993	283	0.9007	576
0.0004	49	0.0000	114	0.0000	302	0.9996	864
1.0000	156	0.0000	171
0.9835	42	0.0000	137	0.0165	139
1.0000	72	0.0000	866
0.0000	355	1.0000	443
0.0040	550	0.9960	760
0.4041	48	0.5959	228
0.0195	580	0.9805	654
0.0000	204	1.0000	604
0.0000	394	1.0000	693
0.0000	0	1.0000	641
0.0345	742	0.9655	768	0.0000	856
0.9514	259	0.0486	653
0.0955	326	0.9045	863
0.0000	576	1.0000	763
0.1930	29	0.2569	314	0.5501	413
0.9117	407	0.0444	448	0.0438	590
0.1113	303	0.0782	310	0.0324	400	0.7454	466	0.0328	978
0.0222	266	0.9778	402
0.0000	72	1.0000	156	0.0000	158
1.0000	83	0.0000	293
0.0000	311	1.0000	974	0.0000	975
0.0000	137	1.0000	156
1.0000	661	0.0000	892
1.0000	156	0.0000	1069
0.0107	4	0.9595	576	0.0136	711	0.0162	969
0.0001	350	0.9999	533
0.0000	61	1.0000	731
0.0000	204	1.0000	802
1.0000	201	0.0000	971
0.0373	503	0.0005	669	0.9622	1111
0.0278	332	0.9722	863
0.0000	287	1.0000	685
0.9830	178	0.0000	669	0.0170	1111
0.0000	74	1.0000	156
0.0000	412	0.9997	641	0.0003	667
0.0000	29	1.0000	351
0.9942	46	0.0058	232
0.4904	70	0.5096	129
0.0000	369	0.2297	639	0.7703	674	0.0000	854
0.1518	90	0.8482	466
1.0000	153	0.0000	343	0.0000	614
0.0208	207	0.9789	422	0.0003	832
0.0000	357	1.0000	742
0.0000	266	1.0000	443
0.2170	48	0.7830	677
0.3981	208	0.6019	1091
0.8787	653	0.1213	858
0.0357	400	0.8210	466	0.1434	729
0.0000	350	1.0000	890
1.0000	72	0.0000	856
0.0004	454	0.9996	641
0.0002	129	0.6139	225	0.3858	383
0.0116	350	0.9884	576
0.0182	236	0.9818	779
0.0000	70	1.0000	890
0.0027	550	0.9973	868
0.0028	97	0.2557	171	0.3281	856	0.4134	866
0.6608	326	0.1790	518	0.1602	696
0.0000	749	1.0000	768
0.0241	332	0.0167	350	0.1160	717	0.8432	863
1.0000	83	0.0000	936
0.0000	247	1.0000	604
0.8224	54	0.1776	317
0.0000	677	1.0000	842
1.0000	178	0.0000	512
0.0462	156	0.0000	158	0.0000	502	0.0000	536	0.0000	545	0.0000	548	0.0000	685	0.0000	863	0.0000	865	0.9538	1159
1.0000	639	0.0000	854
0.0012	322	0.2623	335	0.0122	418	0.6854	609	0.0389	863
0.0000	61	0.0000	347	0.0000	443	1.0000	1159
0.4078	39	0.5367	172	0.0555	688
1.0000	156	0.0000	313	0.0000	346
1.0000	153	0.0000	866
0.5001	326	0.1354	332	0.0936	350	0.1354	518	0.1354	663
0.0000	197	1.0000	555
0.2487	4	0.3825	448	0.3689	580
0.9194	856	0.0806	888
0.0000	129	1.0000	890
0.1111	90	0.0927	303	0.0651	310	0.6210	466	0.1084	729	0.0016	861
1.0000	59	0.0000	641
0.0000	97	1.0000	284
0.0000	669	1.0000	731	0.0000	1111
1.0000	454	0.0000	477
0.0000	283	1.0000	674	0.0000	854
0.9801	170	0.0000	305	0.0199	545
0.0000	487	1.0000	936
0.9997	168	0.0000	236	0.0003	764
0.0103	48	0.3603	407	0.0096	722	0.0145	723	0.6053	863
0.9508	576	0.0492	1077
1.0000	454	0.0000	659
0.0000	283	1.0000	689	0.0000	854
1.0000	503	0.0000	928
0.0000	66	0.0000	506	1.0000	641
1.0000	170	0.0000	768
0.9993	128	0.0007	742	0.0000	856
0.0000	129	0.9994	473	0.0006	526
1.0000	51	0.0000	471
0.3389	448	0.3269	580	0.3342	590
0.4757	90	0.1284	142	0.2788	310	0.1170	978
0.3088	477	0.6912	688
0.0005	231	0.9995	424
0.9921	471	0.0079	736
0.0000	244	1.0000	802
0.5242	195	0.4758	314
0.0000	156	0.0000	513	0.0000	736	1.0000	911
0.0153	291	0.0274	686	0.9573	863
1.0000	802	0.0000	866
0.0000	214	0.0000	750	1.0000	768
1.0000	170	0.0000	287
0.2758	9	0.1881	29	0.5361	413
1.0000	284	0.0000	495
1.0000	641	0.0000	722
0.9126	407	0.0445	448	0.0429	580
0.0000	197	1.0000	604
1.0000	368	0.0000	890
0.0344	4	0.1927	326	0.0529	448	0.7199	747
0.0895	97	0.9105	888
0.0000	231	1.0000	890
0.9035	102	0.0965	555
0.9938	114	0.0062	268
0.0000	214	1.0000	545
0.0028	443	0.9972	890
0.4962	590	0.5038	682
0.9958	132	0.0042	816
0.0000	142	1.0000	258	0.0000	400	0.0000	592
0.0307	428	0.9693	443
0.1241	268	0.8759	579
1.0000	642	0.0000	777
0.0173	142	0.0376	310	0.8813	592	0.0349	886	0.0288	1127
0.0000	327	1.0000	768
1.0000	156	0.0000	287	0.0000	305
0.8649	136	0.0019	669	0.1332	673
0.0000	407	1.0000	503
0.0001	168	0.9999	731
1.0000	128	0.0000	231
0.0086	112	0.9914	214
0.9961	72	0.0039	247
1.0000	153	0.0000	856
0.0000	99	1.0000	864
0.1100	96	0.8900	309
0.0002	305	0.9998	856
0.0006	293	0.9994	890
0.0000	80	0.0007	402	0.9993	641
0.0000	573	1.0000	840
1.0000	268	0.0000	503
0.5798	394	0.4202	677
0.0000	37	0.0000	40	0.0001	214	0.0000	243	0.0000	391	0.0000	412	0.9999	443
0.9574	287	0.0426	742	0.0000	856
0.5890	227	0.4110	325
1.0000	170	0.0000	612
0.0000	65	1.0000	156	0.0000	286	0.0000	289	0.0000	305	0.0000	395	0.0000	503	0.0000	516	0.0000	594
0.0256	417	0.9744	466
1.0000	351	0.0000	840
1.0000	343	0.0000	757
0.9999	156	0.0000	305	0.0001	604
0.9996	132	0.0004	739
0.3439	195	0.3122	314	0.3439	858
0.0000	578	1.0000	641
0.1299	303	0.8701	466
1.0000	46	0.0000	856
1.0000	156	0.0000	847
0.0000	112	0.0000	487	1.0000	674	0.0000	854
0.0004	129	0.9996	225
0.9129	467	0.0871	767
0.9949	487	0.0051	628
0.0242	428	0.9758	641
1.0000	102	0.0000	767
0.9863	787	0.0137	883
0.4758	314	0.5242	874
1.0000	156	0.0000	224
0.0000	266	1.0000	268
0.9999	116	0.0001	866
1.0000	168	0.0000	197
1.0000	38	0.0000	197
0.0000	169	1.0000	689	0.0000	854
0.9986	520	0.0014	742
0.8046	90	0.1954	400
0.0000	29	1.0000	116
0.9943	487	0.0057	506
0.9875	789	0.0125	847
0.9968	255	0.0032	641
0.4999	43	0.0001	244	0.4999	963
0.0000	327	1.0000	368
0.9282	157	0.0718	259
0.0000	0	0.0000	506	1.0000	641
0.0000	292	1.0000	597
0.9198	407	0.0432	580	0.0370	711
0.0234	723	0.9766	863
0.0708	487	0.9292	764
0.0000	142	0.9837	258	0.0000	400	0.0000	592	0.0163	702
0.9232	214	0.0768	787
1.0000	327	0.0000	688
0.5000	3	0.5000	726
0.0165	48	0.0155	291	0.9681	863
1.0000	974	0.0000	975
0.0000	439	1.0000	641
1.0000	454	0.0000	1101
0.0040	322	0.8674	335	0.1286	863
0.0001	175	0.0000	506	0.9999	641
0.3122	314	0.3439	686	0.3439	858
1.0000	156	0.0000	305	0.0000	529
0.0000	487	1.0000	890
1.0000	343	0.0000	471
0.0160	48	0.0270	686	0.0150	722	0.9421	863
0.0006	129	0.9994	383
1.0000	132	0.0000	485
0.8938	214	0.1062	666
0.9998	201	0.0002	526
1.0000	83	0.0000	454
0.7966	820	0.2034	1158
0.0000	268	1.0000	368
0.1296	284	0.8704	685
0.0000	56	1.0000	368
1.0000	168	0.0000	856
0.0000	350	1.0000	984
0.4876	39	0.5124	808
1.0000	153	0.0000	641
0.0296	4	0.9329	407	0.0375	711
0.0613	220	0.9387	347
1.0000	156	0.0000	175
0.0000	266	1.0000	641
0.0031	118	0.9667	214	0.0302	750
0.0546	228	0.8704	767	0.0749	881
0.0000	477	1.0000	509
0.0278	510	0.9722	863
0.0163	142	0.0354	310	0.8285	592	0.1050	746	0.0148	978
1.0000	360	0.0000	880
0.4242	347	0.5758	407
0.0000	40	0.0000	412	1.0000	579
0.0000	639	1.0000	689
0.0000	520	1.0000	685
1.0000	46	0.0000	888
0.0005	369	0.9995	666
0.0000	641	1.0000	1074
1.0000	343	0.0000	412
0.0000	303	1.0000	673
0.0007	70	0.9993	399
0.0000	204	0.1984	284	0.0000	314	0.8016	545	0.0000	667	0.0000	669	0.0000	767
0.0255	112	0.9744	266	0.0001	576
0.3959	383	0.0000	391	0.6041	428
1.0000	128	0.0000	443	0.0000	564	0.0000	890
0.0000	227	1.0000	277	0.0000	362	0.0000	785
0.0015	412	0.9985	454	0.0000	1101
0.0000	129	1.0000	545	0.0000	750
0.1206	477	0.8794	534
1.0000	268	0.0000	303	0.0000	366
0.0000	444	1.0000	513	0.0000	572	0.0000	639	0.0000	641	0.0000	789
0.0000	93	0.9990	641	0.0010	764
0.0001	216	0.9999	702
0.0000	112	0.0000	172	0.0000	503	1.0000	816
0.0000	37	0.0000	485	1.0000	529	0.0000	576	0.0000	668
0.0000	310	0.0000	342	0.0000	485	0.0000	764	1.0000	864
1.0000	51	0.0000	268	0.0000	350
0.0007	651	0.9993	1162
1.0000	156	0.0000	214	0.0000	310	0.0000	350	0.0000	528	0.0000	641	0.0000	697
0.9905	303	0.0095	448
0.0000	118	1.0000	139	0.0000	639
0.9982	284	0.0000	332	0.0000	480	0.0018	625	0.0000	764	0.0000	768
0.0000	4	0.6301	161	0.0914	274	0.0000	294	0.2785	309	0.0000	454	0.0000	480	0.0000	506	0.0000	750	0.0000	1111
0.1545	175	0.0000	228	0.0000	263	0.8454	454	0.0000	847	0.0000	854	0.0001	1091
1.0000	156	0.0000	343	0.0000	487	0.0000	531	0.0000	677	0.0000	746	0.0000	784
1.0000	83	0.0000	112	0.0000	175	0.0000	266	0.0000	371	0.0000	404	0.0000	477	0.0000	495	0.0000	866	0.0000	1091
0.0000	54	0.0000	407	1.0000	685	0.0000	689
0.0000	157	0.8532	652	0.1467	764
0.0000	395	0.0000	400	0.0000	487	0.0000	641	0.0000	703	1.0000	816
0.0000	96	0.0000	293	1.0000	509	0.0000	688	0.0000	750	0.0000	866
1.0000	83	0.0000	506	0.0000	688	0.0000	775
0.9843	90	0.0157	137
1.0000	153	0.0000	350
1.0000	132	0.0000	369	0.0000	487
0.9810	175	0.0190	750
0.0000	9	1.0000	480
0.0000	175	1.0000	509	0.0000	874
0.0000	40	0.0000	329	1.0000	639	0.0000	666
1.0000	42	0.0000	412	0.0000	579	0.0000	686
1.0000	72	0.0000	130	0.0000	474	0.0000	609
0.0000	168	0.3411	170	0.0000	214	0.0017	284	0.6572	360	0.0000	366	0.0000	412	0.0000	764	0.0000	862	0.0000	863	0.0000	1111
0.0000	110	1.0000	412
0.0000	40	0.0000	74	0.0000	171	0.0000	178	0.0000	214	0.0000	232	0.0000	327	0.0000	357	0.0000	443	1.0000	604	0.0000	784	0.0000	967	0.0000	1151
0.0000	14	0.0000	37	0.0000	96	0.0000	136	1.0000	156	0.0000	204	0.0000	314	0.0000	471	0.0000	529	0.0000	666	0.0000	750	0.0000	764	0.0000	789	0.0000	889
0.0761	204	0.9239	491
0.0000	266	0.9830	368	0.0000	404	0.0000	503	0.0170	625
0.0000	518	0.0000	874	1.0000	911
0.0000	4	0.9410	412	0.0000	442	0.0590	485
0.6425	172	0.3575	866
0.0000	59	1.0000	351
0.9731	40	0.0269	863
0.0000	544	0.4705	641	0.0000	750	0.5295	850
0.0000	214	0.0000	293	0.0000	305	0.0000	326	0.9994	343	0.0006	689
0.0002	305	0.9910	856	0.0089	886
0.0000	175	0.2348	244	0.7624	287	0.0000	293	0.0028	579
0.0001	653	0.9998	750	0.0001	809
0.0000	112	0.0000	129	1.0000	156	0.0000	219	0.0000	268	0.0000	368	0.0000	534	0.0000	928
0.0000	5	0.0000	102	0.0000	175	0.0000	185	0.0000	237	0.0000	305	0.0000	311	1.0000	368	0.0000	407	0.0000	424	0.0000	641	0.0000	747	0.0000	764	0.0000	890
1.0000	247	0.0000	271	0.0000	856	0.0000	874
0.0000	46	0.0000	48	0.0000	51	0.0000	292	0.0000	402	0.0000	412	0.0000	651	1.0000	911
0.0000	326	1.0000	555
1.0000	156	0.0000	175	0.0000	314	0.0000	545	0.0000	779
0.0000	750	1.0000	913
1.0000	284	0.0000	356	0.0000	978	0.0000	1104
1.0000	351	0.0000	617
0.0000	90	0.0000	228	1.0000	232	0.0000	243
1.0000	168	0.0000	350
0.0949	116	0.9051	920
0.0000	248	1.0000	327	0.0000	369	0.0000	402	0.0000	573	0.0000	787
0.9974	39	0.0026	863
0.0028	247	0.9972	456	0.0000	779
0.0000	112	1.0000	124	0.0000	762
0.0000	32	0.0000	39	0.0000	214	0.0000	220	0.0000	327	0.0000	357	0.0000	412	0.0000	474	0.0000	608	0.0000	628	0.0000	653	0.0000	721	0.0000	772	1.0000	864	0.0000	890
0.0000	48	0.0000	142	0.9999	156	0.0000	214	0.0000	247	0.0000	305	0.0000	545	0.0000	597	0.0000	651	0.0001	1175
0.0000	46	0.0000	103	1.0000	210	0.0000	603	0.0000	689
0.9218	59	0.0782	258	0.0000	266	0.0000	404	0.0000	641	0.0000	677
0.0004	139	0.0000	197	0.9996	545	0.0000	749	0.0000	849	0.0000	1111
0.0000	0	0.0007	364	0.0000	686	0.0000	809	0.0000	863	0.9993	1069
0.0000	137	0.0000	178	0.9998	343	0.0000	438	0.0002	768	0.0000	838
1.0000	268	0.0000	369
0.0004	268	0.0000	298	0.0000	402	0.0000	454	0.0431	529	0.0330	742	0.9235	768	0.0000	862	0.0000	863
0.0000	347	0.0000	412	1.0000	555	0.0000	874
1.0000	351	0.0000	1144
0.0000	112	1.0000	156	0.0000	197	0.0000	255	0.0000	284	0.0000	454	0.0000	723
1.0000	44	0.0000	1088
1.0000	70	0.0000	550
0.0000	143	0.0000	327	0.0000	487	1.0000	625
0.9999	641	0.0001	669
0.0979	46	0.0000	223	0.0000	311	0.0000	460	0.0000	471	0.0000	477	0.0000	576	0.0000	666	0.9021	739
1.0000	168	0.0000	491	0.0000	777
0.0000	444	1.0000	689
0.0001	125	0.0000	158	0.9999	750
0.0000	46	0.9994	224	0.0000	332	0.0000	466	0.0000	471	0.0000	600	0.0006	689
1.0000	46	0.0000	454	0.0000	789
1.0000	155	0.0000	425	0.0000	736
0.0001	255	0.0000	283	0.0000	391	0.0000	402	0.0000	603	0.9999	815	0.0000	956
1.0000	768	0.0000	771
0.0000	40	1.0000	42	0.0000	130	0.0000	350	0.0000	391	0.0000	404	0.0000	412	0.0000	463	0.0000	477	0.0000	628	0.0000	651
0.0000	412	0.0000	574	0.0000	651	1.0000	802	0.0000	928
0.0000	197	1.0000	327	0.0000	407
0.0000	116	0.0000	171	0.0000	412	1.0000	639
0.0000	42	1.0000	156	0.0000	967
1.0000	156	0.0000	266	0.0000	688	0.0000	856	0.0000	890	0.0000	1077
0.0000	168	0.0000	287	0.1234	343	0.0000	471	0.0000	600	0.0000	619	0.8766	802	0.0000	874
1.0000	232	0.0000	412
0.0000	310	1.0000	920
0.0000	407	1.0000	641
0.0000	4	0.0000	118	0.0000	287	0.0000	326	1.0000	330	0.0000	439	0.0000	454	0.0000	512	0.0000	518	0.0000	620	0.0000	703	0.0000	742	0.0000	920	0.0000	966
0.0048	400	0.9952	712
1.0000	402	0.0000	854
0.0053	112	0.9945	175	0.0002	243
0.0462	294	0.0000	412	0.9538	721
0.7635	412	0.2365	788
0.9218	197	0.0782	1162
1.0000	545	0.0000	764
0.0000	259	0.0000	669	1.0000	890
0.0000	37	0.0000	72	1.0000	802
0.0000	175	0.0000	443	0.0000	529	0.0000	680	1.0000	1159
1.0000	51	0.0000	165	0.0000	172	0.0000	555	0.0000	564	0.0000	639	0.0000	641	0.0000	846
0.0000	40	0.7827	116	0.0000	477	0.0005	750	0.2168	775
0.9756	266	0.0244	628	0.0000	653
1.0000	247	0.0000	978
0.0000	76	0.0000	175	0.0000	216	0.0000	227	0.0000	294	0.0000	443	0.0000	454	0.1238	456	0.0000	471	0.0000	487	0.0109	529	0.1351	555	0.0000	641	0.0000	688	0.6426	689	0.0000	710	0.0875	816
0.0000	846	1.0000	911
0.0000	128	0.0000	383	0.0000	485	1.0000	513	0.0000	573	0.0000	721	0.0000	755	0.0000	1005
0.0000	166	0.0000	477	1.0000	689	0.0000	850
0.0000	175	1.0000	604	0.0000	883
0.0000	198	0.0000	204	0.0000	750	1.0000	768
0.0000	137	1.0000	232	0.0000	305
0.0000	453	1.0000	755	0.0000	846	0.0000	1111
0.0000	61	1.0000	128	0.0000	289
0.0000	156	0.0000	764	0.0000	863	1.0000	911
0.0000	175	0.0000	220	1.0000	368
0.0000	112	1.0000	284	0.0000	415	0.0000	477	0.0000	641
0.0000	305	1.0000	343
1.0000	268	0.0000	335
1.0000	33	0.0000	485	0.0000	764	0.0000	863
0.9923	233	0.0072	477	0.0005	1127
0.0000	172	0.0000	391	1.0000	963
0.9322	94	0.0678	172
0.9999	84	0.0000	233	0.0001	641	0.0000	775	0.0000	1028
0.9999	366	0.0001	668
1.0000	268	0.0000	863
0.0000	305	0.0026	443	0.0809	598	0.9166	890
0.0000	172	0.0000	208	0.0735	224	0.0000	412	0.9265	427	0.0000	688	0.0000	928
0.5400	511	0.4600	518
1.0000	639	0.0000	1057
0.0000	37	0.0000	188	0.0000	214	1.0000	343	0.0000	407
0.9953	102	0.0047	731	0.0000	750
0.0000	466	1.0000	913
0.0002	351	0.0000	529	0.9998	604	0.0000	788
1.0000	641	0.0000	651	0.0000	750	0.0000	971
0.0000	39	1.0000	51	0.0000	112	0.0000	114	0.0000	214	0.0000	268	0.0000	287	0.0000	322	0.0000	412	0.0000	529	0.0000	546	0.0000	555	0.0000	612	0.0000	641	0.0000	764
0.0000	688	1.0000	689
1.0000	114	0.0000	454	0.0000	666
1.0000	128	0.0000	214	0.0000	407	0.0000	639	0.0000	641	0.0000	651	0.0000	667	0.0000	772	0.0000	874	0.0000	967
0.0354	641	0.0000	788	0.9646	840
0.0000	439	0.0000	454	1.0000	689
0.0000	369	1.0000	471
0.0000	48	0.0000	129	0.0215	156	0.0000	327	0.9785	330	0.0000	404	0.0000	1104
0.0086	58	0.9914	369
0.9978	37	0.0022	40
1.0000	297	0.0000	407	0.0000	750
0.0000	305	0.0006	308	0.0000	350	0.0000	669	0.9994	742
0.4339	317	0.5661	507
1.0000	83	0.0000	128	0.0000	404	0.0000	822
1.0000	224	0.0000	314	0.0000	1156
0.9785	303	0.0124	305	0.0091	580
0.0000	29	0.0000	366	1.0000	702
0.0000	37	0.0000	39	0.0000	175	0.0000	214	0.0000	268	0.0000	271	0.0000	287	1.0000	351	0.0000	412	0.0000	454	0.0000	590	0.0000	750
0.0000	99	0.0000	259	1.0000	920
0.0346	70	0.0023	412	0.9631	471
0.9692	232	0.0308	641
0.0000	4	1.0000	266	0.0000	305
0.0000	46	0.0000	90	0.0000	116	0.0000	258	0.0000	283	0.0000	422	0.0000	433	0.0000	439	0.0000	503	0.0000	590	1.0000	604
1.0000	168	0.0000	303
0.0000	74	1.0000	742	0.0000	868
0.0000	29	0.9999	412	0.0001	651
0.9999	343	0.0000	347	0.0001	555	0.0000	597	0.0000	772
1.0000	404	0.0000	789
0.0000	402	1.0000	1175
1.0000	51	0.0000	172	0.0000	329
0.0001	161	0.9999	284	0.0000	506	0.0000	631
0.0097	49	0.9903	156	0.0000	214	0.0000	266	0.0000	268	0.0000	466	0.0000	639	0.0000	641	0.0000	883
0.0000	76	1.0000	802	0.0000	847
1.0000	156	0.0000	645
0.0000	0	0.0012	310	0.9988	750
1.0000	51	0.0000	175	0.0000	686
0.0000	76	1.0000	168	0.0000	332
0.0007	424	0.0000	576	0.9993	862
0.9857	90	0.0143	651
0.0005	256	0.9995	1143
0.0000	42	0.0000	95	1.0000	124	0.0000	487	0.0000	731
0.1585	37	0.0000	228	0.0000	863	0.8415	1164
0.0000	227	1.0000	685	0.0000	1143
0.0060	83	0.9940	156	0.0000	169	0.0000	512	0.0000	641	0.0000	787
0.0000	72	0.0000	197	1.0000	911
0.0000	4	0.0000	14	0.0000	39	0.0000	48	0.0000	53	0.0060	83	0.0000	102	0.0000	106	0.0000	112	0.0000	153	0.9940	156	0.0000	214	0.0000	283	0.0000	314	0.0000	369	0.0000	412	0.0000	428	0.0000	433	0.0000	545	0.0000	641	0.0000	659	0.0000	666	0.0000	710	0.0000	750	0.0000	763	0.0000	768	0.0000	788	0.0000	862	0.0000	889	0.0000	1034
0.0000	74	0.0999	129	0.7472	175	0.1529	266
0.0000	4	0.0000	37	0.0000	112	1.0000	156	0.0000	255
0.0000	40	0.0000	153	0.0000	268	0.0000	309	0.0000	329	0.0000	653	0.0000	666	0.0000	672	0.0000	750	0.0000	787	0.0000	936	1.0000	1159
0.0075	443	0.9925	953
0.0008	208	0.0000	528	0.9991	620
0.0000	14	1.0000	258	0.0000	310	0.0000	666	0.0000	764	0.0000	920	0.0000	1034
1.0000	422	0.0000	863
0.0000	112	0.0059	216	0.9941	721
0.0000	61	0.0000	136	1.0000	156	0.0000	161	0.0000	165	0.0000	195	0.0000	214	0.0000	329	0.0000	368	0.0000	466	0.0000	529	0.0000	653	0.0000	846	0.0000	899
0.0000	214	0.0000	369	1.0000	545	0.0000	669	0.0000	866	0.0000	978
0.0000	29	0.0000	477	1.0000	689
0.0000	666	0.0000	747	1.0000	768	0.0000	1047
1.0000	156	0.0000	258	0.0000	404	0.0000	412	0.0000	474	0.0000	1176
1.0000	247	0.0000	762
0.0000	37	0.0000	39	0.0000	70	0.0112	128	0.0000	136	0.9888	224	0.0000	255	0.0000	326	0.0000	404	0.0000	454	0.0000	557	0.0000	641	0.0000	747	0.0000	889	0.0000	890
0.0000	39	1.0000	83	0.0000	168	0.0000	245	0.0000	471	0.0000	510	0.0000	541	0.0000	764	0.0000	816	0.0000	836
1.0000	343	0.0000	750	0.0000	856
0.0163	268	0.0000	506	0.0000	669	0.9837	731	0.0000	978
0.9998	710	0.0002	927
0.0000	175	1.0000	178
0.0000	881	1.0000	913
0.2721	72	0.0000	103	0.7279	768
0.0000	82	1.0000	153	0.0000	175	0.0000	407	0.0000	487	0.0000	746	0.0000	1087
1.0000	102	0.0000	654	0.0000	928
0.0000	137	1.0000	526
0.0035	641	0.0000	785	0.9965	890
0.0000	122	1.0000	156	0.0000	404	0.0000	477	0.0000	487	0.0000	641
1.0000	83	0.0000	305	0.0000	310	0.0000	361	0.0000	736	0.0000	768	0.0000	863	0.0000	978
0.0000	65	0.0000	641	1.0000	921
0.0496	861	0.9504	863
0.0001	54	0.0000	195	0.0003	407	0.8295	750	0.1692	805	0.0009	886
0.0000	4	0.0000	9	0.0000	44	0.0000	50	0.0000	61	0.0000	142	0.0000	156	0.0000	168	0.0000	172	0.0000	216	0.0000	244	0.0000	322	0.0000	326	0.0000	351	0.0000	355	0.0000	407	0.0000	412	0.0000	424	0.0000	454	0.0000	466	0.0000	487	0.0000	573	0.0000	604	0.0000	641	0.0000	651	0.0000	669	0.0000	685	0.0000	689	0.0000	710	0.0000	722	0.0000	768	0.0000	835	0.0000	846	0.0000	876	1.0000	911	0.0000	1176
0.0000	118	0.0000	175	0.0152	232	0.9848	247	0.0000	369	0.0000	477	0.0000	487	0.0000	669	0.0000	686	0.0000	883
1.0000	42	0.0000	142	0.0000	171	0.0000	332	0.0000	579	0.0000	591	0.0000	628
0.0646	142	0.1402	310	0.0394	407	0.7558	887
0.0000	112	1.0000	639	0.0000	856
0.9998	383	0.0002	444
0.0000	58	1.0000	178
0.0000	171	0.0000	172	0.0775	560	0.9225	768
0.0000	305	0.0000	474	1.0000	548
0.0000	51	0.0000	236	0.0000	343	0.0000	466	0.0000	651	0.0000	764	0.0000	775	0.0000	787	1.0000	922
1.0000	555	0.0000	764
0.0000	172	0.0000	237	0.0000	243	1.0000	816	0.0000	1047
1.0000	124	0.0000	846
1.0000	156	0.0000	171	0.0000	545
0.0000	503	0.0000	506	1.0000	529
0.0018	227	0.9982	750
0.0001	247	0.0000	784	0.9999	973
1.0000	266	0.0000	305
0.0000	72	1.0000	153	0.0000	731
1.0000	83	0.0000	137	0.0000	168	0.0000	268	0.0000	335	0.0000	520	0.0000	673
0.0000	214	1.0000	731
0.0000	175	1.0000	302	0.0000	328	0.0000	660	0.0000	682
0.0000	168	0.0000	172	0.0000	412	0.0000	580	0.0000	641	1.0000	685	0.0000	787
1.0000	258	0.0000	326
0.0000	180	0.0000	485	1.0000	604	0.0000	651	0.0000	775
0.0000	151	0.0000	308	1.0000	685
0.0000	136	0.0000	682	1.0000	911
0.0000	112	0.0000	391	1.0000	641
0.9922	669	0.0078	1176
1.0000	284	0.0000	560	0.0000	789
1.0000	83	0.0000	136	0.0000	335	0.0000	630	0.0000	763	0.0000	863
0.0000	75	0.0000	293	1.0000	351	0.0000	369	0.0000	750	0.0000	888
1.0000	27	0.0000	220
0.0000	228	1.0000	674
1.0000	156	0.0000	407	0.0000	641	0.0000	674
0.6448	129	0.3552	666
0.0000	61	0.0000	65	0.0000	322	1.0000	685	0.0000	689	0.0000	856
1.0000	153	0.0000	641	0.0000	750	0.0000	863
0.0000	197	0.0000	254	0.0000	361	0.0000	395	0.0000	510	1.0000	685
0.0451	214	0.0000	466	0.9549	764
0.0000	142	1.0000	529	0.0000	750
0.4512	703	0.5488	762
1.0000	42	0.0000	175	0.0000	485	0.0000	641	0.0000	816
1.0000	368	0.0000	651	0.0000	721
0.0000	271	1.0000	343	0.0000	477	0.0000	764	0.0000	893
0.0000	214	1.0000	784
0.0000	70	0.0000	129	0.0000	471	0.0000	487	1.0000	811	0.0000	812	0.0000	978	0.0000	1069
0.0000	606	0.0000	741	1.0000	913
0.0000	115	0.0000	142	0.0000	372	0.0000	412	1.0000	641
0.0000	29	1.0000	37
0.0000	40	0.0000	137	1.0000	156	0.0000	228	0.0000	404	0.0000	424	0.0000	471	0.0000	685	0.0000	750
1.0000	72	0.0000	294	0.0000	861	0.0000	874
1.0000	268	0.0000	528
0.0160	103	0.9840	886
1.0000	545	0.0000	590	0.0000	747
0.0000	283	0.0000	311	0.0000	471	1.0000	1144
1.0000	268	0.0000	573	0.0000	651
0.0000	32	0.0000	90	0.0000	165	0.0000	172	0.0000	255	0.0000	688	0.0000	710	1.0000	911
0.0000	268	1.0000	351	0.0000	641
0.1459	214	0.0000	228	0.8419	471	0.0121	787
0.0017	7	0.9529	466	0.0454	630
0.0000	112	0.0016	128	0.0000	254	0.0000	428	0.0000	750	0.0000	764	0.9984	802
1.0000	343	0.0000	641	0.0000	723	0.0000	750
0.3477	592	0.3717	835	0.2807	836
0.0001	243	0.9999	785
1.0000	232	0.0000	518	0.0000	580	0.0000	846
1.0000	270	0.0000	785	0.0000	890
0.8554	136	0.1445	362	0.0000	653	0.0000	750
0.0000	0	0.0000	175	1.0000	351	0.0000	688
0.0000	175	1.0000	232
1.0000	83	0.0000	466
0.0002	192	0.9998	293
1.0000	284	0.0000	884
0.0000	137	1.0000	454
0.0000	76	0.9997	83	0.0000	103	0.0000	142	0.0000	185	0.0000	207	0.0000	220	0.0000	232	0.0000	266	0.0000	412	0.0000	443	0.0000	526	0.0003	545	0.0000	579	0.0000	651	0.0000	731	0.0000	840
0.0000	677	1.0000	936	0.0000	1037
1.0000	327	0.0000	1176
0.0000	487	0.0000	534	1.0000	890
0.0000	136	0.0000	214	0.0000	412	0.0000	651	0.0000	746	0.0000	768	0.0000	788	1.0000	911
1.0000	555	0.0000	651	0.0000	721
1.0000	156	0.0000	400	0.0000	869
0.0000	228	1.0000	641	0.0000	666
0.0000	54	0.0000	171	1.0000	731
1.0000	156	0.0000	746	0.0000	750
0.0000	287	1.0000	368	0.0000	501	0.0000	503	0.0000	534	0.0000	609	0.0000	787	0.0000	856
0.3599	171	0.0070	369	0.0483	477	0.0001	599	0.0030	654	0.5819	866
0.9865	37	0.0000	747	0.0135	856
1.0000	107	0.0000	165	0.0000	175	0.0000	216	0.0000	259	0.0000	266	0.0000	305	0.0000	364	0.0000	463	0.0000	477	0.0000	641	0.0000	669	0.0000	750
1.0000	288	0.0000	350	0.0000	840
0.0000	849	1.0000	963
0.0000	29	0.0000	39	0.0000	40	0.9992	232	0.0000	291	0.0000	305	0.0000	412	0.0008	428	0.0000	477	0.0000	550	0.0000	559	0.0000	722
1.0000	168	0.0000	518	0.0000	789	0.0000	883	0.0000	1005	0.0000	1046
0.0000	4	0.0000	29	1.0000	51	0.0000	259	0.0000	383	0.0000	404
0.9988	529	0.0012	639	0.0000	677	0.0000	686	0.0000	920
0.0000	214	1.0000	850
0.0000	4	0.0000	383	0.9473	548	0.0000	555	0.0527	625	0.0000	641	0.0000	750	0.0000	847	0.0000	866	0.0000	1081	0.0000	1116
0.0000	214	0.0000	353	0.0000	642	1.0000	922
0.9999	139	0.0000	232	0.0000	412	0.0000	418	0.0000	529	0.0000	630	0.0001	689	0.0000	731
0.0000	112	0.0000	175	0.0000	424	0.0000	529	1.0000	545
0.0000	94	0.0000	122	0.0000	165	0.0000	197	0.0000	198	0.0000	266	0.0000	268	0.1984	284	0.0000	291	0.0000	350	0.0000	361	0.0000	485	0.0000	499	0.0000	529	0.0000	531	0.8016	545	0.0000	654	0.0000	750	0.0000	768
0.9987	204	0.0001	651	0.0012	863
0.0000	82	0.0000	118	0.1063	153	0.8937	170	0.0000	197	0.0000	345	0.0000	688
1.0000	46	0.0000	293	0.0000	832
1.0000	288	0.0000	463
0.0000	46	0.0000	112	0.0000	172	0.0000	245	0.0000	266	0.0019	343	0.9981	368	0.0000	369	0.0000	641	0.0000	666	0.0000	667	0.0000	677	0.0000	712	0.0000	731	0.0000	750	0.0000	815
0.0000	137	0.0000	303	0.4394	443	0.0000	633	0.5606	641	0.0000	723
1.0000	156	0.0000	284
0.0000	51	0.0000	467	1.0000	530	0.0000	594	0.0000	641	0.0000	721
1.0000	764	0.0000	879	0.0000	884
1.0000	156	0.0000	165	0.0000	471	0.0000	685	0.0000	764
0.9858	214	0.0007	231	0.0135	412
0.9012	487	0.0988	491
0.0000	90	1.0000	579
0.0000	40	0.0000	112	1.0000	768
1.0000	224	0.0000	412	0.0000	887
0.0000	178	0.0000	327	1.0000	421	0.0000	573	0.0000	768
0.0000	487	1.0000	513
0.0000	37	1.0000	327
0.0000	407	0.9965	454	0.0035	750
0.0000	84	0.9999	156	0.0000	175	0.0000	197	0.0000	198	0.0000	227	0.0000	231	0.0000	271	0.0000	538	0.0001	604	0.0000	619	0.0000	629	0.0000	641	0.0000	667	0.0000	685	0.0000	840	0.0000	874
0.9999	180	0.0001	311
0.0000	300	1.0000	749	0.0000	750
1.0000	128	0.0000	172	0.0000	677
0.0000	40	1.0000	641	0.0000	750	0.0000	927
0.9738	40	0.0262	142
0.0130	37	0.0000	576	0.0000	594	0.9870	764
0.0000	61	1.0000	156	0.0000	268	0.0000	327	0.0000	383	0.0000	802	0.0000	881
0.0000	51	0.0000	156	0.0000	166	0.0000	168	0.0000	172	0.0000	228	0.0000	243	0.0000	244	0.0000	275	0.0000	325	0.0000	350	0.0000	394	0.0000	407	0.0000	424	0.0000	437	0.0000	439	0.0000	487	0.0000	580	0.0000	641	0.0000	668	0.0000	677	0.0000	750	0.0000	788	0.0000	822	0.0000	847	1.0000	911	0.0000	1162
0.9999	404	0.0001	412
0.0000	197	0.0000	399	0.0000	422	1.0000	579	0.0000	666	0.0000	741
0.0000	268	0.0000	287	1.0000	368	0.0000	729	0.0000	1123
0.0000	90	0.0000	357	1.0000	689
0.0000	39	0.0075	156	0.0000	228	0.0000	287	0.9925	378	0.0000	736
0.9998	266	0.0002	789
0.0000	268	1.0000	302	0.0000	506	0.0000	591	0.0000	742	0.0000	1176
0.9987	443	0.0013	660	0.0000	978
1.0000	178	0.0000	424
0.9838	641	0.0000	696	0.0162	984
0.1276	39	0.2657	412	0.6067	750
0.0000	303	0.0002	445	0.9998	775
1.0000	443	0.0000	506
0.0000	136	0.0000	161	0.0000	168	0.0000	255	0.0000	258	0.0000	283	1.0000	360	0.0000	407	0.0000	417	0.0000	491	0.0000	641	0.0000	750
0.0000	305	1.0000	641
0.0000	76	0.0000	148	0.0000	158	0.0000	268	0.0000	428	1.0000	513	0.0000	781	0.0000	846	0.0000	854
1.0000	368	0.0000	805
0.0000	266	1.0000	287	0.0000	477
0.9996	327	0.0000	369	0.0004	404
0.0000	46	1.0000	83	0.0000	116	0.0000	171	0.0000	175	0.0000	232	0.0000	366	0.0000	702	0.0000	892	0.0000	926
0.0000	39	1.0000	255	0.0000	471	0.0000	750
0.0000	125	0.0000	132	0.0000	142	0.0000	227	0.0000	284	0.0000	296	0.0000	305	0.0000	357	0.0000	467	0.0000	471	0.0000	555	0.0000	856	0.0000	863	1.0000	913	0.0000	971
1.0000	185	0.0000	471	0.0000	714
0.0000	37	0.0000	214	0.0000	228	0.0000	245	1.0000	545	0.0000	689
1.0000	128	0.0000	978
1.0000	72	0.0000	422
0.0000	243	1.0000	268	0.0000	889
0.0000	168	1.0000	284	0.0000	407
0.0000	137	1.0000	443
0.9998	76	0.0002	653
0.7074	72	0.0000	303	0.2926	1144
0.0396	54	0.9490	227	0.0114	305
1.0000	247	0.0000	319	0.0000	412	0.0000	576	0.0000	789
0.0000	74	0.0000	750	1.0000	768
0.9403	129	0.0000	137	0.0597	412	0.0000	437
0.0000	5	0.0000	395	0.0000	412	0.0000	471	0.0000	659	0.0240	731	0.0339	739	0.9422	768
0.0000	4	1.0000	72	0.0000	764
0.9942	214	0.0000	350	0.0000	630	0.0000	651	0.0058	1173
1.0000	731	0.0000	858
1.0000	232	0.0000	466
1.0000	153	0.0000	973
0.0000	147	0.9673	170	0.0000	439	0.0327	685	0.0000	689	0.0000	741
0.0000	57	0.0000	112	1.0000	156	0.0000	268	0.0000	303	0.0000	305	0.0000	339	0.0000	485	0.0000	726	0.0000	750	0.0000	768
1.0000	168	0.0000	651	0.0000	725
0.0000	39	0.0000	51	0.0000	54	0.0000	72	0.0060	83	0.0000	137	0.9939	156	0.0000	201	0.0000	228	0.0000	259	0.0000	294	0.0000	310	0.0000	311	0.0000	383	0.0000	404	0.0000	428	0.0000	439	0.0000	443	0.0000	471	0.0000	477	0.0000	503	0.0000	506	0.0000	546	0.0000	558	0.0000	595	0.0000	628	0.0000	641	0.0000	686	0.0000	746	0.0000	762	0.0000	764	0.0000	768	0.0000	840	0.0000	846	0.0001	865	0.0000	890	0.0000	971	0.0000	980
0.0000	293	0.0000	428	0.0000	506	0.0000	539	1.0000	742
1.0000	161	0.0000	707	0.0000	775
0.0000	137	0.0000	259	0.0115	404	0.0690	631	0.9195	721	0.0000	723	0.0000	883	0.0000	928
0.0000	518	1.0000	641
0.0000	394	0.0000	722	1.0000	945
0.8332	477	0.0534	751	0.1134	789
0.0001	305	0.0001	314	0.0861	477	0.9136	788
0.0000	122	1.0000	284	0.0000	369
0.0000	29	0.0000	221	1.0000	802	0.0000	928
0.0768	329	0.0000	467	0.9231	693
0.0000	48	0.0000	350	1.0000	358
0.0000	39	0.0085	72	0.0000	180	0.0000	232	0.0000	471	0.9915	538	0.0000	580	0.0000	639	0.0000	863	0.0000	920
0.0000	142	0.0000	161	0.9128	545	0.0000	641	0.0872	743
0.0000	597	1.0000	689
0.0000	407	1.0000	509
1.0000	156	0.0000	171	0.0000	197	0.0000	750
1.0000	156	0.0000	639	0.0000	856
1.0000	51	0.0000	357	0.0000	571
0.9878	171	0.0122	310
0.0000	40	0.0000	48	0.0984	102	0.9016	128	0.0000	166	0.0000	283	0.0000	439	0.0000	651
0.9999	238	0.0001	417
1.0000	297	0.0000	310	0.0000	659	0.0000	884
0.0000	46	1.0000	156	0.0000	197	0.0000	254	0.0000	413
0.0000	310	0.0000	407	0.0000	660	1.0000	742	0.0000	750	0.0000	863	0.0000	1156
1.0000	72	0.0000	506
0.0002	207	0.9980	404	0.0018	1156
0.9999	224	0.0000	454	0.0001	555
0.0000	527	1.0000	685
1.0000	161	0.0000	178	0.0000	477	0.0000	764
0.0991	402	0.9009	574
0.0000	600	1.0000	689	0.0000	741
1.0000	538	0.0000	726
0.0000	303	0.0000	760	1.0000	864
0.0000	39	0.0000	208	0.9994	503	0.0000	600	0.0005	666	0.0000	725
1.0000	156	0.0000	477	0.0000	628	0.0000	849
0.0000	214	0.0000	463	0.0000	682	1.0000	685	0.0000	747	0.0000	846	0.0000	849	0.0000	883
0.0000	95	0.0000	175	0.6620	287	0.0000	305	0.0000	639	0.0295	742	0.3085	816
0.0000	506	1.0000	645	0.0000	750
0.0000	171	0.0000	456	0.0000	485	1.0000	625
0.0000	74	0.8734	129	0.0000	228	0.1266	750
1.0000	79	0.0000	197	0.0000	259	0.0000	350	0.0000	750
0.9916	232	0.0000	564	0.0000	688	0.0000	707	0.0084	826
1.0000	224	0.0000	750
0.0000	48	0.1984	284	0.0000	412	0.8016	545
0.0001	175	0.0000	326	0.9999	641
1.0000	170	0.0000	172	0.0000	214	0.0000	402	0.0000	413	0.0000	506	0.0000	592	0.0000	750	0.0000	787
0.0000	669	0.0000	703	1.0000	742
0.0000	171	0.0000	243	0.0000	439	1.0000	545	0.0000	555	0.0000	731
0.0000	175	0.0000	407	0.0000	654	1.0000	763
1.0000	83	0.0000	579	0.0000	629
0.0000	137	0.0000	168	0.0000	369	0.0000	407	1.0000	911
0.0046	175	0.0000	369	0.9954	984
0.0240	271	0.0002	310	0.0000	350	0.7037	666	0.2721	736
1.0000	545	0.0000	764	0.0000	1127
0.0000	350	1.0000	368	0.0000	721	0.0000	863	0.0000	984
0.0000	112	0.2129	120	0.0001	168	0.0000	197	0.0821	345	0.0000	412	0.0000	443	0.7049	611	0.0000	750	0.0000	789	0.0000	1047
1.0000	284	0.0000	433	0.0000	579
1.0000	156	0.0000	175	0.0000	303
0.0000	686	1.0000	731	0.0000	750
0.0000	129	0.0000	356	0.0000	501	0.0000	506	0.0000	574	1.0000	585	0.0000	641
0.0004	433	0.9996	742
0.0000	118	0.0000	279	1.0000	284	0.0000	326
1.0000	102	0.0000	319
0.0000	44	0.0000	74	0.0000	116	0.0000	125	0.0000	161	0.0000	214	0.0000	583	1.0000	685	0.0000	750	0.0000	854	0.0000	1127
1.0000	471	0.0000	723
0.9997	444	0.0003	654
0.0000	40	1.0000	694	0.0000	1101
1.0000	545	0.0000	654
1.0000	529	0.0000	651
1.0000	287	0.0000	749
0.0000	0	0.0000	74	0.0000	142	0.0000	197	0.9999	224	0.0000	291	0.0000	412	0.0000	477	0.0000	503	0.0000	688	0.0000	731	0.0001	816	0.0000	928
0.9768	37	0.0230	39	0.0002	303
0.0001	129	0.9961	293	0.0023	454	0.0015	471
0.0000	641	1.0000	689	0.0000	723	0.0000	750
0.0911	232	0.9089	255	0.0000	550	0.0000	751
0.0000	40	0.0000	172	0.0000	214	0.0000	326	0.0000	327	1.0000	351	0.0000	412	0.0000	454	0.0000	750	0.0000	789	0.0000	1172
0.0000	65	1.0000	156	0.0000	305	0.0000	499	0.0000	689
0.0000	70	1.0000	850
1.0000	72	0.0000	116	0.0000	310	0.0000	651	0.0000	920
0.0000	326	1.0000	513	0.0000	779
0.0122	383	0.0007	526	0.9870	784
0.0000	686	1.0000	1104
0.0000	311	0.0000	630	1.0000	899
0.0000	332	1.0000	368	0.0000	487
0.0000	195	0.0000	256	0.0146	603	0.9854	721
0.0000	56	1.0000	309	0.0000	750
0.0000	310	0.0007	402	0.9993	641
0.0000	456	1.0000	864
1.0000	443	0.0000	583	0.0000	628	0.0000	750	0.0000	971
0.0072	487	0.9926	503	0.0001	750
0.0000	268	0.9830	368	0.0000	412	0.0170	625	0.0000	863
0.0000	576	0.0000	723	0.0000	788	1.0000	963
0.0000	4	1.0000	46	0.0000	118	0.0000	225
1.0000	743	0.0000	749
0.0000	130	1.0000	153	0.0000	448	0.0000	859
0.0000	283	0.0000	407	0.0000	412	0.0000	442	0.0000	528	1.0000	597	0.0000	686	0.0000	856
0.0000	57	1.0000	178
0.0010	213	0.0000	412	0.9990	742
1.0000	520	0.0000	576	0.0000	666	0.0000	749
0.0245	243	0.9755	412
1.0000	156	0.0000	223	0.0000	512	0.0000	714
0.0000	400	1.0000	685
1.0000	404	0.0000	651	0.0000	688
0.0000	29	0.0000	39	0.0000	112	0.0000	171	0.9881	244	0.0000	322	0.0000	506	0.0000	518	0.0119	579	0.0000	651	0.0000	838	0.0000	946
0.9999	44	0.0000	70	0.0000	310	0.0000	412	0.0001	454	0.0000	576	0.0000	785	0.0000	849
0.0000	412	1.0000	495
0.0000	153	1.0000	156	0.0000	412	0.0000	463
0.0000	129	1.0000	689
0.0000	214	1.0000	258	0.0000	597
0.0000	112	0.9998	168	0.0000	305	0.0002	402	0.0000	412	0.0000	978
1.0000	153	0.0000	263
0.0000	102	1.0000	432	0.0000	555	0.0000	861
1.0000	51	0.0000	128	0.0000	158	0.0000	180	0.0000	503	0.0000	606	0.0000	651	0.0000	746
0.0000	4	1.0000	802	0.0000	971
1.0000	83	0.0000	252	0.0000	268	0.0000	303	0.0000	381	0.0000	597
1.0000	351	0.0000	576	0.0000	721	0.0000	889
1.0000	96	0.0000	168
0.0000	412	0.9845	614	0.0000	641	0.0155	731
0.0000	182	0.0000	471	1.0000	754
0.0001	133	0.9999	271
1.0000	284	0.0000	369	0.0000	407	0.0000	487
1.0000	156	0.0000	454	0.0000	555	0.0000	666	0.0000	688
0.0001	526	0.9999	1105
0.0000	263	0.0267	485	0.9733	750
1.0000	170	0.0000	924
1.0000	156	0.0000	580	0.0000	651	0.0000	881	0.0000	1111
0.0000	172	0.0000	268	0.0000	287	1.0000	545	0.0000	680	0.0000	702	0.0000	747	0.0000	768	0.0000	888
1.0000	156	0.0000	214	0.0000	688
1.0000	83	0.0000	412	0.0000	487	0.0000	822
0.0000	4	0.0000	70	1.0000	153	0.0000	326	0.0000	342	0.0000	443
0.0000	197	0.0000	364	0.0000	412	1.0000	702
0.0000	142	1.0000	153	0.0000	369	0.0000	487
0.8087	576	0.1913	767
1.0000	51	0.0000	412	0.0000	457
0.0000	677	1.0000	750
0.0000	40	0.0014	72	0.0000	112	0.3439	132	0.0000	268	0.6544	274	0.0000	310	0.0000	391	0.0000	412	0.0000	485	0.0002	495	0.0000	541	0.0000	624	0.0000	654	0.0000	674	0.0000	750	0.0000	764	0.0000	767	0.0000	992
0.9994	175	0.0000	369	0.0005	592
0.0001	175	0.9999	641
0.0000	29	0.0000	40	0.0000	80	0.0000	142	0.0000	223	0.0000	227	0.0000	232	0.0000	266	0.0000	268	0.7314	378	0.0000	422	0.0000	454	0.0000	471	0.0000	493	0.0000	495	0.0000	545	0.0000	641	0.0000	736	0.1248	864	0.0000	890	0.1439	1074
0.9892	428	0.0108	471
1.0000	266	0.0000	407
0.5576	139	0.0000	487	0.0000	641	0.0000	785	0.4424	802
0.0001	175	0.0000	477	0.9999	641
1.0000	685	0.0000	750
0.2448	767	0.7552	939
0.0000	172	0.0030	343	0.9970	351	0.0000	731	0.0000	742
0.0000	76	0.0000	485	0.0000	750	1.0000	840	0.0000	1101
1.0000	244	0.0000	810
1.0000	545	0.0000	764
0.0000	728	0.1949	741	0.8051	750
0.0007	116	0.9993	168	0.0000	550
0.0004	70	0.0000	159	0.0000	361	0.9996	428	0.0000	703
0.0000	220	0.6872	402	0.1743	539	0.1385	785
0.0000	487	1.0000	768
1.0000	156	0.0000	224	0.0000	232	0.0000	611	0.0000	1116
0.0000	57	1.0000	83	0.0000	576	0.0000	785
0.0000	473	1.0000	530	0.0000	666	0.0000	768
0.0000	609	1.0000	641	0.0000	858
0.9977	171	0.0023	747
0.0000	1	0.0000	129	0.0000	168	0.0000	268	0.0000	278	1.0000	368	0.0000	391	0.0000	467	0.0000	641	0.0000	750	0.0000	789
0.3168	477	0.6832	592
0.0000	326	1.0000	743	0.0000	768
0.0000	70	0.0000	153	1.0000	156	0.0000	404	0.0000	447	0.0000	448
0.0000	29	0.0000	125	0.0000	132	0.0000	161	0.9673	170	0.0000	247	0.0000	326	0.0000	335	0.0000	353	0.0000	391	0.0000	628	0.0000	639	0.0000	668	0.0327	685	0.0000	702	0.0000	736	0.0000	840
0.0000	266	1.0000	268	0.0000	526
0.9931	129	0.0016	243	0.0053	883
0.0000	180	0.0000	247	0.0000	303	1.0000	330	0.0000	674	0.0000	750	0.0000	978	0.0000	1101
0.0000	39	0.0000	40	0.0000	42	0.0000	128	0.0000	129	0.0000	153	0.0000	155	1.0000	156	0.0000	171	0.0000	214	0.0000	293	0.0000	463	0.0000	480	0.0000	641	0.0000	688	0.0000	723	0.0000	920
0.0002	32	0.0000	736	0.9998	946
1.0000	42	0.0000	978
1.0000	83	0.0000	305	0.0000	477	0.0000	579	0.0000	609
0.0000	40	0.0000	197	1.0000	641
0.0000	54	0.0015	172	0.9985	471
1.0000	156	0.0000	750	0.0000	846
1.0000	689	0.0000	750
0.9937	50	0.0000	143	0.0000	413	0.0000	641	0.0000	688	0.0000	731	0.0000	742	0.0063	1170
0.0000	168	1.0000	252	0.0000	412
0.0000	61	0.0000	168	0.0000	214	0.0000	232	1.0000	351	0.0000	407	0.0000	477	0.0000	639	0.0000	736	0.0000	777	0.0000	846
0.0001	165	0.9999	499
0.0000	58	1.0000	94
0.0008	29	0.9714	477	0.0277	528
0.1961	266	0.8037	424	0.0002	466
0.0033	72	0.0000	129	0.0000	247	0.9668	277	0.0000	283	0.0000	369	0.0000	407	0.0058	501	0.0000	534	0.0000	564	0.0000	597	0.0000	633	0.0000	651	0.0000	674	0.0241	689	0.0000	777	0.0000	856	0.0000	1101
0.0000	287	0.0000	357	1.0000	625	0.0000	674	0.0000	890
0.0000	158	0.0000	298	0.0000	327	0.0000	412	0.0000	439	0.0000	466	0.0000	519	1.0000	604	0.0000	688	0.0000	750	0.0000	777	0.0000	856	0.0000	863	0.0000	886
0.0464	412	0.6717	480	0.2819	787
0.0000	172	0.0000	293	0.0000	313	1.0000	360	0.0000	404	0.0000	477	0.0000	506	0.0000	641	0.0000	746
0.0000	172	0.0000	723	1.0000	840
0.9174	46	0.0000	175	0.0000	412	0.0000	477	0.0826	918
0.9996	357	0.0003	666	0.0001	777
0.0000	99	0.0000	216	1.0000	268	0.0000	688
0.0502	172	0.0794	412	0.0000	550	0.6890	666	0.1813	750
0.0000	280	1.0000	685	0.0000	959
0.0855	485	0.9145	506
0.8889	232	0.1111	936	0.0000	1028
1.0000	168	0.0000	580
0.0000	263	0.0000	412	0.0167	529	0.0000	641	0.9833	689	0.0000	863
0.9644	750	0.0356	883
0.1148	271	0.0000	590	0.8850	750	0.0002	767
0.0000	39	1.0000	639
0.3179	72	0.6821	287	0.0000	546	0.0000	620
0.0000	480	1.0000	579	0.0000	688
0.0000	70	0.0000	412	0.0000	750	0.0000	764	0.0000	828	1.0000	840
0.0000	75	1.0000	368	0.0000	580	0.0000	651	0.0000	808	0.0000	1045
0.0000	480	1.0000	545	0.0000	789	0.0000	863
0.0000	54	0.0000	259	1.0000	268	0.0000	1127
0.0000	402	0.9970	731	0.0030	953
0.0000	499	1.0000	721
0.0000	188	0.0000	197	0.0001	487	0.9999	641
1.0000	268	0.0000	342	0.0000	448	0.0000	518
0.9999	70	0.0001	978	0.0000	1026
0.0000	322	1.0000	639	0.0000	764
0.0006	356	0.9994	592
0.0000	46	0.0000	480	1.0000	802
0.0000	266	0.0000	686	1.0000	768
1.0000	545	0.0000	620
0.0000	369	1.0000	731
1.0000	153	0.0000	266	0.0000	424
1.0000	214	0.0000	326	0.0000	653
0.2110	368	0.0000	576	0.7890	743
0.0000	214	1.0000	232	0.0000	243	0.0000	412	0.0000	528
1.0000	132	0.0000	412	0.0000	746
0.0000	214	0.2029	641	0.7971	936
0.9636	327	0.0000	576	0.0364	641	0.0000	1077
1.0000	153	0.0000	314	0.0000	660
0.0000	112	0.0000	291	0.0000	677	1.0000	721
1.0000	132	0.0000	136
1.0000	42	0.0000	287
0.0001	142	0.9999	480
0.0000	46	0.0000	48	0.9496	51	0.0000	161	0.0504	368	0.0000	467	0.0000	849
0.9627	247	0.0373	639
0.0000	4	1.0000	284
0.0005	129	0.9994	357	0.0000	412
0.8660	171	0.1162	477	0.0178	729
0.0000	172	0.0000	204	0.9862	247	0.0000	283	0.0128	327	0.0000	448	0.0000	503	0.0000	506	0.0000	574	0.0005	641	0.0000	707	0.0004	721
0.0000	72	0.0000	168	1.0000	548
0.9833	864	0.0167	913
0.0327	197	0.9673	710
0.9835	207	0.0165	485
0.0000	227	1.0000	604
0.0022	259	0.9978	750
0.7752	372	0.2248	846
0.0017	395	0.9853	628	0.0130	746
0.9798	471	0.0202	666
0.6863	753	0.3137	899
0.0000	332	1.0000	719
0.0000	651	1.0000	731
1.0000	247	0.0000	300	0.0000	487
1.0000	258	0.0000	594
0.9995	485	0.0005	711
0.0000	180	1.0000	625
0.0000	641	1.0000	1144
0.9999	172	0.0001	305
0.9978	201	0.0000	259	0.0022	503	0.0000	893
0.5951	305	0.4049	314
0.0000	327	1.0000	545
1.0000	156	0.0000	332	0.0000	863
1.0000	666	0.0000	1077
1.0000	545	0.0000	750
1.0000	120	0.0000	180
0.0115	128	0.0000	303	0.9885	343
0.0000	197	0.0000	311	1.0000	443	0.0000	703
1.0000	156	0.0000	892
1.0000	128	0.0000	137
1.0000	319	0.0000	467
0.9902	669	0.0098	750
1.0000	72	0.0000	991
0.9977	477	0.0023	651
1.0000	255	0.0000	407	0.0000	842
1.0000	284	0.0000	862
0.0000	590	0.0004	604	0.9996	922
0.9948	108	0.0052	332
0.0000	221	0.0000	417	0.0000	651	1.0000	674	0.0000	703
0.0000	228	0.0000	412	1.0000	648
1.0000	153	0.0000	422	0.0000	556
0.0000	310	0.0000	555	1.0000	872
0.0000	506	1.0000	641
0.9994	449	0.0006	777
1.0000	83	0.0000	268	0.0000	335	0.0000	609	0.0000	641
1.0000	72	0.0000	620
0.0053	112	0.0000	305	0.0000	350	0.0032	366	0.9908	487	0.0000	653	0.0006	714	0.0000	1158
0.9968	129	0.0032	231
1.0000	287	0.0000	669
0.5985	80	0.4015	506
0.0000	116	1.0000	224
0.0000	171	1.0000	327
1.0000	46	0.0000	326
1.0000	128	0.0000	236
0.0028	158	0.1677	325	0.8294	868
0.0000	133	1.0000	529	0.0000	651	0.0000	861
0.0000	854	1.0000	911
0.0010	350	0.9975	371	0.0015	969
0.0000	677	0.9999	721	0.0001	785
0.0000	350	1.0000	639
0.0000	350	1.0000	641	0.0000	750
0.0025	74	0.0168	467	0.9807	788
0.9943	474	0.0057	723
1.0000	201	0.0000	750
1.0000	46	0.0000	741
1.0000	487	0.0000	659
0.0000	412	1.0000	946
0.0000	305	1.0000	454
1.0000	247	0.0000	519
0.0078	314	0.9922	369
0.9999	116	0.0001	118
0.0000	663	1.0000	750
1.0000	175	0.0000	395
0.0000	58	1.0000	641	0.0000	788
1.0000	72	0.0000	168
1.0000	247	0.0000	863
1.0000	232	0.0000	557
0.1545	175	0.0001	231	0.8454	454
0.0439	76	0.9561	266	0.0000	571	0.0000	846
1.0000	51	0.0000	777
1.0000	156	0.0000	195	0.0000	641
0.0000	256	1.0000	785
0.9909	214	0.0091	506
0.0732	61	0.9268	729
1.0000	641	0.0000	1127
1.0000	247	0.0000	576	0.0000	684
0.0030	175	0.9970	428
0.9314	487	0.0686	666
1.0000	161	0.0000	506	0.0000	741
1.0000	128	0.0000	854
1.0000	360	0.0000	889
0.0000	252	0.0000	399	0.9682	585	0.0318	685	0.0000	862
1.0000	368	0.0000	688
0.0000	32	1.0000	689
0.0855	29	0.1078	65	0.5492	558	0.2576	728
1.0000	156	0.0000	1101
1.0000	368	0.0000	407
0.9997	170	0.0003	351
0.0000	39	1.0000	201
0.1074	326	0.8926	400
0.7448	394	0.2552	448
0.9065	231	0.0709	789	0.0226	863
0.0000	102	1.0000	153	0.0000	404	0.0000	583
1.0000	548	0.0000	835
0.0007	402	0.0004	454	0.9989	641
0.9992	984	0.0008	1028
0.0001	195	0.9999	788
0.0000	142	1.0000	742
1.0000	529	0.0000	580	0.0000	883
0.0000	305	1.0000	785
0.0000	400	1.0000	763
1.0000	156	0.0000	214	0.0000	471
0.0262	723	0.9738	978
0.0000	439	1.0000	890
1.0000	83	0.0000	169
0.0000	39	1.0000	403
0.0000	592	1.0000	840
0.3538	266	0.6462	620	0.0000	677
0.9997	114	0.0003	232
0.0000	171	1.0000	201
0.0000	512	1.0000	603
0.0011	118	0.9989	785
1.0000	153	0.0000	849
0.0000	305	1.0000	666
0.0000	310	0.0000	404	1.0000	913
0.3207	283	0.6793	747
0.0000	314	1.0000	443
0.0000	580	1.0000	932
0.9992	243	0.0008	291
0.0000	428	1.0000	555
0.0001	137	0.9999	506
0.0000	310	1.0000	579
0.0000	128	1.0000	156	0.0000	477
0.0000	172	1.0000	258
0.0000	4	1.0000	471
0.0000	314	1.0000	327
0.0000	442	1.0000	742
1.0000	268	0.0000	296
0.0000	350	1.0000	802
0.0000	4	1.0000	168
0.0000	283	0.0000	394	1.0000	707
0.0000	4	0.9602	266	0.0398	412
0.0000	4	0.0000	29	0.0000	153	0.0000	271	0.0000	659	1.0000	913
0.0000	493	1.0000	1159
1.0000	156	0.0000	291
1.0000	170	0.0000	477	0.0000	645
0.0000	165	0.0000	305	1.0000	471
0.0000	305	1.0000	443
0.0000	293	1.0000	495
1.0000	114	0.0000	669
0.0000	394	1.0000	446
0.0144	204	0.9856	214
0.0000	137	0.0000	325	1.0000	768
0.0000	394	1.0000	612
1.0000	247	0.0000	606
0.0000	116	0.0000	142	1.0000	731	0.0000	750
0.0000	686	1.0000	750
0.9819	70	0.0181	856
1.0000	911	0.0000	927
1.0000	153	0.0000	168	0.0000	610
0.0033	314	0.9967	982
0.0001	597	0.9999	674
1.0000	161	0.0000	1005
1.0000	72	0.0000	506
0.9903	39	0.0016	407	0.0082	789
1.0000	268	0.0000	863
0.0000	65	0.9989	597	0.0011	610
1.0000	156	0.0000	335
0.9938	866	0.0062	1039
1.0000	719	0.0000	764	0.0000	1127
0.0000	40	1.0000	128
0.5000	518	0.5000	874
1.0000	46	0.0000	703
0.9977	40	0.0023	394
0.9069	61	0.0931	686
0.0012	228	0.9988	466
0.9958	218	0.0042	513
1.0000	132	0.0000	579
0.9760	412	0.0001	651	0.0239	888
1.0000	247	0.0000	457	0.0000	466
0.0000	172	1.0000	338
0.3637	404	0.0000	580	0.6363	920
0.0872	128	0.9128	309	0.0000	641
0.0000	550	1.0000	768
1.0000	816	0.0000	978
0.0000	129	0.0000	172	0.0000	506	0.0000	544	1.0000	731
0.3870	112	0.6130	412
0.9999	666	0.0001	863
0.0000	74	1.0000	840
0.0412	404	0.9588	1111
0.9994	175	0.0006	1037
0.0000	592	1.0000	784
0.0162	351	0.9838	545
0.0000	40	1.0000	509
0.7664	412	0.0196	466	0.2140	856
0.0000	688	1.0000	936
0.0010	112	0.9990	454
0.0000	271	1.0000	817	0.0000	836
1.0000	564	0.0000	609
0.0000	651	0.0000	652	1.0000	674	0.0000	736
0.0000	329	1.0000	495
0.0000	227	1.0000	731
0.0008	305	0.9992	485
1.0000	214	0.0000	407
0.0000	158	0.1018	214	0.8982	454
1.0000	156	0.0000	674
0.0000	103	0.0000	220	0.9998	666	0.0001	863
0.0000	228	1.0000	840
0.3416	296	0.6584	764
0.0000	412	1.0000	689
1.0000	343	0.0000	597
0.0000	227	1.0000	530
1.0000	421	0.0000	729
1.0000	404	0.0000	506
0.0257	266	0.9743	775
1.0000	287	0.0000	327
0.0000	171	1.0000	721
0.3870	112	0.6130	412
0.0000	332	1.0000	641
0.9951	214	0.0049	546
0.9999	112	0.0001	550
0.0001	775	0.9999	936
1.0000	232	0.0000	266
0.0000	204	1.0000	864
0.0000	228	0.0005	454	0.9995	523
0.0000	487	0.0000	506	1.0000	529	0.0000	641	0.0000	788	0.0000	846
1.0000	585	0.0000	750	0.0000	928	0.0000	1037
0.0000	221	0.0000	485	1.0000	802
0.9803	641	0.0197	920
0.0000	168	1.0000	368
0.0001	175	0.0000	227	0.9999	443
0.0023	116	0.9977	721	0.0000	883
1.0000	268	0.0000	347	0.0000	485	0.0000	750
1.0000	168	0.0000	682
1.0000	284	0.0000	404
0.4304	499	0.5696	750
1.0000	268	0.0000	597
0.3532	190	0.6468	236
0.5501	259	0.4499	369
0.0000	268	1.0000	685
1.0000	49	0.0000	743
0.9708	243	0.0292	407
0.0000	72	1.0000	170	0.0000	343
0.0000	580	1.0000	936
0.0000	682	0.9996	953	0.0004	1049
0.0000	309	1.0000	685	0.0000	750
1.0000	284	0.0000	412	0.0000	879
0.2320	54	0.7680	347
0.0164	142	0.9836	1037
0.9583	51	0.0417	302
1.0000	83	0.0000	518
0.0002	551	0.9570	750	0.0427	1162
0.0000	40	1.0000	529
1.0000	156	0.0000	548
1.0000	170	0.0000	863
1.0000	614	0.0000	978
0.0407	142	0.9593	477
0.0000	726	1.0000	750
0.0070	195	0.5206	310	0.4724	594
0.0000	99	0.0000	653	0.0000	686	1.0000	864
0.0000	651	1.0000	702
1.0000	368	0.0000	936
1.0000	138	0.0000	172
1.0000	83	0.0000	407
1.0000	122	0.0000	750
0.0003	417	0.0067	606	0.9930	750
1.0000	764	0.0000	863
1.0000	247	0.0000	651
1.0000	454	0.0000	846
0.0000	54	1.0000	685
0.0000	576	1.0000	685
0.1633	407	0.8367	889
0.3582	291	0.6418	858
1.0000	153	0.0000	228
1.0000	412	0.0000	686
1.0000	49	0.0000	454	0.0000	666
1.0000	168	0.0000	271
0.9315	286	0.0685	856
0.0000	471	0.0000	477	1.0000	579	0.0000	866
0.0001	293	0.9999	645
0.0000	39	1.0000	685
1.0000	641	0.0000	747
1.0000	555	0.0000	788
0.0000	214	0.0000	366	0.0000	443	1.0000	530	0.0000	685	0.0000	729	0.0000	1067
0.9962	293	0.0038	402
0.0000	175	1.0000	1116
1.0000	404	0.0000	1068
1.0000	329	0.0000	653
0.0000	1	1.0000	343
1.0000	268	0.0000	407	0.0000	499
0.3661	142	0.6339	576
0.0000	477	1.0000	555
0.0000	137	1.0000	175
0.0000	466	1.0000	625
1.0000	161	0.0000	628
1.0000	270	0.0000	750
1.0000	338	0.0000	750
0.0000	214	0.0000	471	0.0000	597	1.0000	685
0.0000	405	1.0000	641	0.0000	1101
0.0000	339	1.0000	685
1.0000	132	0.0000	214	0.0000	682
1.0000	351	0.0000	437
1.0000	412	0.0000	723
0.9995	247	0.0005	641
0.8706	454	0.0000	651	0.1294	779
1.0000	156	0.0000	753
1.0000	530	0.0000	674
0.0224	136	0.9776	168	0.0000	407
1.0000	14	0.0000	412
0.0024	65	0.3911	259	0.6065	746
0.9865	214	0.0135	412
1.0000	170	0.0000	310	0.0000	731	0.0000	863
1.0000	124	0.0000	310
0.0000	9	0.0000	266	1.0000	742
0.0000	594	1.0000	641
0.7745	204	0.2255	788
1.0000	284	0.0000	487
1.0000	156	0.0000	454
0.0000	412	1.0000	545	0.0000	726	0.0000	750
0.0001	116	0.9999	232	0.0000	236
0.0000	137	0.9164	168	0.0836	1111
0.0000	103	0.0000	165	0.0000	197	0.9630	232	0.0000	407	0.0000	448	0.0000	471	0.0000	688	0.0370	749	0.0000	869
0.9973	506	0.0027	654
1.0000	169	0.0000	750
0.0000	48	1.0000	156
0.9737	116	0.0216	214	0.0045	463	0.0002	628	0.0001	828	0.0000	846
0.9997	617	0.0003	949
1.0000	168	0.0000	576
0.9970	175	0.0030	866
0.3885	266	0.6115	707
0.0000	76	0.0000	412	1.0000	604	0.0000	694
0.0000	630	1.0000	742
0.0000	303	0.0000	506	0.9990	641	0.0010	764
1.0000	308	0.0000	682
0.0000	39	1.0000	156	0.0000	454
0.9856	175	0.0144	499
0.0000	227	0.0000	291	1.0000	404	0.0000	466	0.0000	474	0.0000	580
0.0000	266	1.0000	721
0.9968	37	0.0032	688
1.0000	244	0.0000	266
0.0000	329	0.0000	412	1.0000	742
0.0000	27	0.0000	72	1.0000	156	0.0000	467	0.0000	609	0.0000	866
0.0000	70	1.0000	102	0.0000	238
1.0000	51	0.0000	526
0.9713	129	0.0287	805
1.0000	168	0.0000	355	0.0000	518
1.0000	156	0.0000	260
0.0331	292	0.9669	666
0.9961	168	0.0039	362	0.0000	528
0.0000	208	1.0000	936
0.0015	42	0.9985	513
0.9843	225	0.0157	454
0.0000	443	1.0000	1175
0.9999	172	0.0001	578
1.0000	102	0.0000	412
0.0000	471	1.0000	685
0.0154	266	0.0000	729	0.9846	764
0.0000	518	1.0000	841
0.0052	404	0.4506	641	0.5442	749
0.0083	228	0.9917	303
1.0000	49	0.0000	518
0.4051	137	0.5949	394
0.0000	407	1.0000	737
0.0000	74	1.0000	258
1.0000	293	0.0000	928
0.0000	582	1.0000	685
0.0000	169	1.0000	538
0.0004	564	0.9996	641
1.0000	287	0.0000	361	0.0000	762
0.0000	165	1.0000	641
0.0000	291	0.0000	326	1.0000	383
1.0000	37	0.0000	61	0.0000	847
1.0000	51	0.0000	609
1.0000	555	0.0000	641
0.0003	4	0.0553	303	0.9444	688
0.0000	74	0.0001	168	0.0000	228	0.0000	400	0.0000	439	0.0000	576	0.0000	688	0.0000	711	0.9999	742	0.0000	750
1.0000	205	0.0000	722
0.9954	168	0.0046	603
0.0092	4	0.1961	767	0.7947	1127
1.0000	42	0.0000	594
0.0890	153	0.9110	1175
1.0000	102	0.0000	356	0.0000	1088
1.0000	168	0.0000	228
0.0000	305	1.0000	802
0.0000	223	1.0000	404
0.0000	335	1.0000	1144
0.9999	70	0.0001	1127
1.0000	555	0.0000	750
0.0000	129	1.0000	604
1.0000	641	0.0000	750	0.0000	822
0.1390	40	0.0023	407	0.8587	928
1.0000	768	0.0000	828
1.0000	156	0.0000	466
0.5545	350	0.4455	722
0.0000	417	1.0000	620
0.0012	332	0.9988	477
0.0000	80	1.0000	114	0.0000	402	0.0000	448
0.2106	97	0.7894	237
0.0000	667	0.0000	669	1.0000	731
1.0000	247	0.0000	969
1.0000	287	0.0000	764
0.0000	361	1.0000	641
0.0000	292	1.0000	545
1.0000	214	0.0000	405
0.0000	528	1.0000	685
0.0007	74	0.9994	197
1.0000	170	0.0000	580
0.0000	188	0.0000	487	1.0000	742
0.0000	40	1.0000	343
0.0001	42	0.9999	107
0.0000	412	1.0000	679
0.0024	44	0.0000	70	0.9976	247
0.0000	171	0.0000	395	1.0000	555
0.0000	137	0.0000	223	1.0000	245	0.0000	580	0.0000	722
1.0000	351	0.0000	506
0.0000	112	0.9999	168	0.0001	669
1.0000	214	0.0000	651
1.0000	46	0.0000	143	0.0000	471
1.0000	555	0.0000	869
0.0000	72	1.0000	368
0.9223	40	0.0777	889
0.0000	268	1.0000	360	0.0000	412	0.0000	854
1.0000	245	0.0000	444
1.0000	156	0.0000	555
0.0000	180	1.0000	529
0.0000	171	1.0000	731
0.0000	112	1.0000	268	0.0000	854
1.0000	170	0.0000	412
0.9512	939	0.0488	1101
0.0000	158	1.0000	214	0.0000	677
0.0000	366	1.0000	921
0.0179	329	0.9821	454	0.0001	1082
1.0000	161	0.0000	506
1.0000	645	0.0000	677
1.0000	685	0.0000	689
0.0000	467	0.0000	526	0.0000	741	1.0000	890
1.0000	96	0.0000	325
0.0000	357	1.0000	555	0.0000	669
0.0000	477	1.0000	685	0.0000	731
0.0000	443	1.0000	685
1.0000	37	0.0000	717
0.0170	129	0.9830	775
0.9993	204	0.0007	407
0.9751	369	0.0249	394
0.0000	97	0.0000	305	1.0000	404
0.0000	291	1.0000	666
1.0000	555	0.0000	1033
1.0000	59	0.0000	580
0.0000	129	0.0000	402	1.0000	579
0.0027	407	0.9973	856
1.0000	689	0.0000	892
1.0000	529	0.0000	927
0.9999	346	0.0001	466
0.9540	84	0.0042	232	0.0418	255	0.0000	736
1.0000	156	0.0000	305	0.0000	688
0.6807	467	0.3193	886
0.4451	171	0.0001	228	0.0800	364	0.4749	970
1.0000	428	0.0000	506
0.0002	400	0.9998	439
0.0033	320	0.9967	628
1.0000	731	0.0000	741
0.9995	171	0.0005	394
0.0000	46	1.0000	139	0.0000	424	0.0000	529	0.0000	561	0.0000	576	0.0000	597	0.0000	764	0.0000	836	0.0000	874
1.0000	42	0.0000	666
0.0000	75	0.0000	99	0.0000	332	0.0000	448	1.0000	641
1.0000	156	0.0000	579	0.0000	630	0.0000	731
0.0000	400	0.0006	412	0.9994	660
0.0000	29	0.0000	722	1.0000	768
0.0097	70	0.9903	764
1.0000	116	0.0000	259	0.0000	395	0.0000	474	0.0000	884
0.0000	412	1.0000	655
1.0000	247	0.0000	371	0.0000	750
0.9998	750	0.0002	767
0.8478	369	0.1522	407
0.0000	133	0.0000	214	1.0000	268	0.0000	314	0.0000	369	0.0000	439
1.0000	153	0.0000	538
1.0000	277	0.0000	412
0.0000	171	1.0000	185	0.0000	266
0.0459	311	0.9541	407
0.9859	266	0.0000	305	0.0141	828
0.0000	9	1.0000	156	0.0000	172
0.0001	283	0.9999	583
0.1253	603	0.8747	862	0.0000	1127
0.0000	103	1.0000	153	0.0000	383	0.0000	443	0.0000	767
1.0000	495	0.0000	892
1.0000	742	0.0000	978
1.0000	178	0.0000	197	0.0000	750
0.4451	287	0.5549	768
0.0000	283	1.0000	368	0.0000	639
0.0000	303	1.0000	555
0.0000	9	0.0000	158	1.0000	742
0.0000	158	1.0000	284	0.0000	762
0.0000	168	1.0000	948
1.0000	49	0.0000	228	0.0000	750
0.0000	48	0.9432	129	0.0361	628	0.0207	828
1.0000	156	0.0000	685
0.0000	412	1.0000	816
1.0000	368	0.0000	956
0.0866	283	0.9134	886
1.0000	46	0.0000	454
0.0000	48	0.0000	271	1.0000	597	0.0000	659
0.9999	404	0.0000	506	0.0000	866
0.0000	172	1.0000	433
0.0000	703	0.0000	842	1.0000	1104
1.0000	574	0.0000	1057
0.0000	171	1.0000	768	0.0000	787
0.0000	407	1.0000	526
0.0000	477	1.0000	538
0.7916	666	0.0000	677	0.2083	750
1.0000	124	0.0000	641
0.0000	268	1.0000	545
0.0192	363	0.8700	831	0.1108	920	0.0000	971
0.0000	220	1.0000	669
0.4293	125	0.5707	854
0.0558	137	0.9442	142
0.0000	171	1.0000	753
1.0000	579	0.0000	651
0.9999	366	0.0001	682
0.0000	118	1.0000	768
1.0000	156	0.0000	674
0.9998	175	0.0000	311	0.0002	609	0.0000	651
1.0000	293	0.0000	883
1.0000	351	0.0000	651
0.0000	314	1.0000	641
0.0000	46	1.0000	156	0.0000	361	0.0000	485	0.0000	742
1.0000	802	0.0000	889
0.0000	172	0.0000	345	1.0000	351
0.0000	232	0.0000	555	1.0000	911
1.0000	432	0.0000	477
1.0000	156	0.0000	856
1.0000	120	0.0000	310
0.0045	332	0.9955	746
1.0000	244	0.0000	454
0.9999	749	0.0001	892
0.0000	325	1.0000	360
0.6851	61	0.3149	256
0.0000	319	1.0000	529
1.0000	42	0.0000	72
0.0000	54	1.0000	232	0.0000	489
0.0558	402	0.9442	404
0.9484	197	0.0516	688
0.1155	40	0.8845	866
0.0000	114	0.0000	310	0.0000	350	0.0000	366	1.0000	493	0.0000	529	0.0000	767
0.0037	214	0.9173	404	0.0789	764
1.0000	368	0.0000	856
0.0000	129	1.0000	530
0.0000	116	0.0000	182	0.0000	291	0.0000	433	0.0000	685	0.0000	731	0.0000	802	0.0000	888	1.0000	913
0.0000	283	1.0000	529
0.0008	125	0.9992	1143
1.0000	153	0.0000	361
0.0000	61	0.0000	788	1.0000	802
1.0000	247	0.0000	350
1.0000	46	0.0000	254	0.0000	920
0.9999	37	0.0001	100
0.0000	669	1.0000	689
0.0094	1	0.9906	303
0.0000	37	1.0000	161
0.0000	228	0.9999	252	0.0000	534	0.0001	936
0.5431	137	0.4569	846
0.0000	220	1.0000	545
0.9999	39	0.0001	158
0.0000	112	1.0000	742
0.3436	45	0.6564	46
0.6863	536	0.3137	866
0.0001	14	0.9999	674
0.0019	326	0.9981	391
1.0000	327	0.0000	557
1.0000	128	0.0000	136
0.0054	789	0.9946	1129
0.9986	466	0.0014	949
0.0001	653	0.9996	736	0.0003	978
1.0000	156	0.0000	863
0.0000	156	1.0000	911
0.0000	65	1.0000	1080
1.0000	120	0.0000	1111
1.0000	360	0.0000	580
1.0000	327	0.0000	767
0.0000	42	1.0000	156	0.0000	861
1.0000	351	0.0000	466
0.9756	836	0.0244	863
1.0000	156	0.0000	391	0.0000	779
1.0000	178	0.0000	448
0.0000	54	0.0000	471	1.0000	689
1.0000	155	0.0000	447
0.0000	439	1.0000	587
0.0000	40	0.0000	65	0.0000	326	1.0000	584	0.0000	746
1.0000	302	0.0000	641
0.0000	263	1.0000	850
0.7411	165	0.2589	1068
0.0000	314	1.0000	443	0.0000	762
0.0060	83	0.9940	156
0.0000	293	1.0000	343
