0.466
0.318
0.543
0.593
0.655
0.523
0.510
0.368
0.320
0.529
0.835
0.913
0.505
0.606
0.625
0.409
0.453
0.460
0.539
0.523
0.478
0.339
0.669
0.320
0.380
0.532
0.539
0.430
0.505
0.454
0.607
0.364
0.594
0.852
0.368
0.536
0.422
0.544
0.399
0.588
0.501
0.455
0.536
0.634
0.543
0.625
0.478
0.458
0.523
0.421
0.523
0.551
0.555
0.523
0.452
0.514
0.520
0.643
0.433
0.349
0.643
0.538
0.509
0.543
0.454
0.433
0.665
0.555
0.820
0.588
0.625
0.705
0.466
0.381
0.625
0.669
0.588
0.588
0.430
0.543
0.420
0.636
0.314
0.371
0.523
0.548
0.689
0.625
0.416
0.523
0.543
0.536
0.320
0.625
0.378
0.522
0.395
0.541
0.531
0.540
0.224
0.368
0.320
0.399
0.525
0.349
0.588
0.543
0.516
0.764
0.351
0.438
0.306
0.373
0.370
0.375
0.565
0.321
0.669
0.502
0.453
0.368
0.606
0.543
0.523
0.523
0.469
0.534
0.368
0.643
0.533
0.610
0.582
0.475
0.339
0.458
0.494
0.551
0.543
0.315
0.543
0.370
0.380
0.543
0.643
0.478
0.255
0.643
0.456
0.668
0.552
0.902
0.800
0.543
0.541
0.543
0.561
0.454
0.543
0.555
0.632
0.552
0.543
0.555
0.384
0.669
0.625
0.523
0.543
0.541
0.669
0.513
0.523
0.521
0.369
0.625
0.543
0.463
0.502
0.539
0.642
0.495
0.643
0.655
0.364
0.420
0.358
0.543
0.523
0.532
0.536
0.380
0.543
0.606
0.494
0.513
0.515
0.543
0.644
0.655
0.632
0.430
0.543
0.455
0.433
0.543
0.649
0.481
0.543
0.289
0.543
0.530
0.560
0.543
0.788
0.534
0.533
0.543
0.502
0.482
0.669
0.408
0.655
0.534
0.555
0.597
0.503
0.454
0.573
0.450
0.534
0.426
0.643
0.426
0.625
0.593
0.543
0.543
0.538
0.543
0.669
0.384
0.542
0.549
0.642
0.606
0.665
0.538
0.494
0.523
0.375
0.543
0.543
0.540
0.513
0.543
0.669
0.543
0.539
0.536
0.469
0.525
0.543
0.659
0.533
0.565
0.523
0.553
0.536
0.532
0.663
0.523
0.339
0.667
0.551
0.655
0.416
0.522
0.543
0.480
0.343
0.265
0.544
0.380
0.543
0.577
0.562
0.509
0.523
0.607
0.573
0.523
0.543
0.654
0.855
0.655
0.457
0.502
0.643
0.543
0.537
0.632
0.543
0.509
0.669
0.395
0.533
0.864
0.625
0.606
0.540
0.543
0.425
0.789
0.543
0.426
0.524
0.515
0.533
0.544
0.537
0.543
0.454
0.665
0.666
0.534
0.478
0.541
0.381
0.356
0.625
0.420
0.544
0.523
0.433
0.910
0.460
0.641
0.536
0.643
0.523
0.543
0.526
0.455
0.555
0.539
0.605
0.588
0.543
0.705
0.543
0.669
0.551
0.513
0.363
0.669
0.494
0.533
0.543
0.556
0.363
0.470
0.543
0.543
0.669
0.523
0.532
0.539
0.543
0.454
0.643
0.502
0.669
0.543
0.610
0.562
0.543
0.539
0.459
0.502
0.523
0.410
0.665
0.857
0.439
0.466
0.536
0.543
0.588
0.510
0.607
0.543
0.281
0.565
0.543
0.562
0.539
0.668
0.543
0.531
0.454
0.705
0.285
0.387
0.455
0.625
0.627
0.454
0.543
0.454
0.376
0.502
0.740
0.543
0.306
0.298
0.669
0.561
0.343
0.564
0.512
0.870
0.478
0.665
0.533
0.452
0.343
0.665
0.452
0.438
0.654
0.623
0.540
0.349
0.510
0.523
0.516
0.449
0.654
0.515
0.625
0.502
0.625
0.588
0.657
0.588
0.494
0.562
0.534
0.655
0.411
0.588
0.537
0.411
0.555
0.538
0.669
0.523
0.494
0.513
0.531
0.454
0.534
0.512
0.553
0.532
0.543
0.655
0.543
0.523
0.615
0.523
0.368
0.364
0.523
0.473
0.426
0.543
0.588
0.515
0.871
0.588
0.502
0.305
0.449
0.449
0.607
0.515
0.411
0.502
0.617
0.523
0.426
0.557
0.588
0.617
0.523
0.523
0.543
0.547
0.543
0.320
0.643
0.560
0.625
0.539
0.669
0.523
0.522
0.562
0.537
0.617
0.669
0.643
0.607
0.625
0.642
0.523
0.532
0.543
0.300
0.625
0.655
0.643
0.904
0.543
0.543
0.606
0.543
0.395
0.540
0.655
0.519
0.543
0.539
0.669
0.543
0.543
0.643
0.386
0.515
0.627
0.669
0.337
0.454
0.523
0.669
0.455
0.588
0.488
0.523
0.532
0.636
0.541
0.543
0.543
0.529
0.523
0.549
0.539
0.231
0.632
0.911
0.523
0.555
0.536
0.671
0.448
0.665
0.433
0.543
0.346
0.538
0.544
0.636
0.433
0.575
0.456
0.541
0.625
0.537
0.606
0.523
0.609
0.555
0.625
0.348
0.411
0.669
0.558
0.534
0.543
0.554
0.523
0.552
0.470
0.540
0.669
0.469
0.543
0.533
0.636
0.543
0.563
0.543
0.543
0.501
0.541
0.563
0.400
0.539
0.597
0.555
0.370
0.525
0.543
0.569
0.347
0.524
0.502
0.541
0.473
0.469
0.433
0.347
0.533
0.375
0.395
0.625
0.607
0.480
0.470
0.574
0.370
0.710
0.665
0.481
0.515
0.665
0.532
0.521
0.420
0.591
0.660
0.544
0.357
0.555
0.668
0.540
0.719
0.339
0.543
0.543
0.395
0.502
0.454
0.543
0.297
0.666
0.532
0.541
0.804
0.543
0.518
0.716
0.368
0.774
0.669
0.494
0.541
0.602
0.448
0.668
0.588
0.457
0.430
0.543
0.339
0.669
0.624
0.497
0.502
0.454
0.666
0.643
0.852
0.514
0.718
0.588
0.539
0.368
0.348
0.368
0.534
0.617
0.665
0.865
0.420
0.523
0.538
0.670
0.543
0.534
0.887
0.463
0.669
0.543
0.669
0.552
0.588
0.541
0.457
0.868
0.343
0.665
0.543
0.384
0.911
0.478
0.543
0.515
0.455
0.588
0.519
0.864
0.719
0.804
0.513
0.669
0.773
0.854
0.437
0.887
0.538
0.585
0.497
0.481
0.664
0.654
0.530
0.540
0.540
0.865
0.602
0.411
0.459
0.502
0.804
0.641
0.588
0.602
0.588
0.522
0.539
0.831
0.669
0.457
0.430
0.368
0.533
0.540
0.669
0.368
0.709
0.527
0.536
0.525
0.457
0.420
0.881
0.543
0.409
0.320
0.543
0.543
0.368
0.814
0.720
0.458
0.536
0.543
0.526
0.526
0.825
0.586
0.423
0.669
0.665
0.585
0.459
0.438
0.431
0.665
0.543
0.540
0.475
0.457
0.448
0.620
0.669
0.642
0.642
0.281
0.536
0.625
0.502
0.224
0.439
0.497
0.857
0.343
0.478
0.718
0.669
0.502
0.525
0.859
0.556
0.532
0.543
0.543
0.587
0.497
0.448
0.525
0.543
0.343
0.595
0.461
0.679
0.625
0.543
0.711
0.543
0.469
0.543
0.536
0.652
0.759
0.532
0.844
0.719
0.588
0.540
0.376
0.536
0.680
0.540
0.532
0.540
0.357
0.654
0.668
0.639
0.463
0.540
0.449
0.701
0.665
0.346
0.591
0.430
0.540
0.869
0.669
0.804
0.538
0.380
0.411
0.448
0.525
0.519
0.525
0.666
0.481
0.588
0.536
0.510
0.632
0.665
0.469
0.535
0.343
0.368
0.320
0.457
0.665
0.694
0.669
0.539
0.513
0.843
0.854
0.912
0.543
0.459
0.528
0.771
0.412
0.907
0.457
0.483
0.588
0.457
0.470
0.897
0.536
0.667
0.497
0.478
0.448
0.669
0.903
0.635
0.540
0.625
0.430
0.527
0.704
0.530
0.588
0.532
0.862
0.481
0.489
0.665
0.895
0.383
0.466
0.659
0.588
0.705
0.552
0.335
0.529
0.201
0.515
0.502
0.905
0.473
0.643
0.652
0.539
0.669
0.669
0.451
0.554
0.532
0.258
0.665
0.643
0.414
0.606
0.363
0.669
0.323
0.455
0.411
0.499
0.585
0.551
0.669
0.870
0.442
0.522
0.526
0.636
0.540
0.530
0.872
0.420
0.459
0.535
0.283
0.543
0.420
0.720
0.514
0.752
0.448
0.465
0.845
0.481
0.519
0.462
0.915
0.639
0.713
0.910
0.910
0.665
0.606
0.665
0.588
0.668
0.861
0.666
0.663
0.496
0.286
0.522
0.862
0.669
0.836
0.502
0.427
0.903
0.641
0.457
0.439
0.539
0.502
0.448
0.454
0.551
0.588
0.429
0.525
0.728
0.665
0.606
0.460
0.606
0.897
0.625
0.665
0.454
0.627
0.865
0.384
0.460
0.785
0.517
0.469
0.501
0.769
0.705
0.543
0.481
0.525
0.588
0.475
0.654
0.532
0.497
0.478
0.588
0.543
0.515
0.364
0.454
0.689
0.665
0.682
0.438
0.525
0.538
0.532
0.804
0.669
0.494
0.459
0.531
0.299
0.457
0.522
0.509
0.665
0.527
0.544
0.687
0.457
0.607
0.794
0.541
0.668
0.426
0.454
0.448
0.335
0.539
0.625
0.588
0.588
0.540
0.379
0.588
0.581
0.533
0.454
0.911
0.852
0.643
0.430
0.454
0.543
0.669
0.861
0.522
0.594
0.430
0.693
0.232
0.441
0.457
0.543
0.525
0.430
0.602
0.453
0.502
0.517
0.796
0.914
0.543
0.478
0.643
0.914
0.720
0.854
0.665
0.454
0.524
0.543
0.605
0.536
0.635
0.411
0.588
0.525
0.541
0.669
0.510
0.657
0.525
0.814
0.327
0.911
0.836
0.558
0.827
0.904
0.567
0.466
0.676
0.475
0.411
0.519
0.706
0.517
0.881
0.514
0.494
0.543
0.540
0.868
0.669
0.669
0.543
0.514
0.620
0.681
0.459
0.669
0.578
0.603
0.863
0.859
0.417
0.588
0.420
0.540
0.643
0.665
0.540
0.582
0.420
0.596
0.867
0.824
0.459
0.531
0.698
0.846
0.654
0.497
0.433
0.716
0.625
0.804
0.479
0.559
0.543
0.836
0.625
0.577
0.861
0.538
0.343
0.570
0.540
0.417
0.539
0.681
0.543
0.625
0.287
0.442
0.643
0.339
0.386
0.502
0.448
0.532
0.669
0.325
0.454
0.540
0.817
0.862
0.585
0.430
0.544
0.543
0.525
0.522
0.912
0.720
0.532
0.497
0.514
0.522
0.525
0.459
0.856
0.494
0.543
0.370
0.619
0.551
0.455
0.587
0.478
0.543
0.437
0.287
0.411
0.402
0.869
0.669
0.457
0.517
0.504
0.588
0.532
0.536
0.368
0.570
0.502
0.872
0.543
0.588
0.669
0.543
0.514
0.669
0.544
0.548
0.669
0.543
0.478
0.323
0.425
0.527
0.669
0.433
0.339
0.253
0.542
0.606
0.543
0.543
0.669
0.411
0.349
0.430
0.567
0.543
0.478
0.653
0.536
0.224
0.368
0.543
0.523
0.427
0.523
0.320
0.543
0.540
0.588
0.532
0.669
0.438
0.541
0.603
0.454
0.436
0.494
0.514
0.122
0.669
0.426
0.543
0.532
0.364
0.543
0.618
0.574
0.581
0.439
0.523
0.433
0.555
0.540
0.669
0.543
0.448
0.654
0.544
0.457
0.231
0.669
0.669
0.706
0.606
0.497
0.285
0.523
0.588
0.352
0.543
0.665
0.565
0.534
0.792
0.368
0.543
0.409
0.357
0.446
0.540
0.322
0.411
0.536
0.543
0.357
0.863
0.502
0.896
0.523
0.459
0.671
0.720
0.597
0.426
0.543
0.543
0.370
0.539
0.430
0.406
0.397
0.636
0.306
0.258
0.523
0.357
0.543
0.543
0.510
0.525
0.541
0.374
0.369
0.546
0.606
0.533
0.399
0.504
0.420
0.420
0.300
0.532
0.475
0.502
0.506
0.409
0.353
0.551
0.339
0.502
0.423
0.581
0.552
0.681
0.478
0.538
0.422
0.487
0.554
0.643
0.541
0.502
0.534
0.804
0.455
0.454
0.531
0.460
0.361
0.536
0.669
0.540
0.523
0.606
0.478
0.523
0.523
0.339
0.653
0.573
0.541
0.488
0.513
0.550
0.543
0.543
0.543
0.364
0.454
0.494
0.489
0.320
0.543
0.532
0.523
0.502
0.556
0.478
0.543
0.348
0.541
0.419
0.458
0.543
0.497
0.543
0.555
0.371
0.543
0.588
0.420
0.539
0.420
0.499
0.411
0.534
0.536
0.524
0.457
0.457
0.253
0.361
0.643
0.454
0.523
0.318
0.431
0.523
0.478
0.455
0.548
0.510
0.551
0.543
0.540
0.665
0.478
0.523
0.460
0.558
0.523
0.463
0.540
0.349
0.494
0.536
0.463
0.806
0.300
0.543
0.335
0.533
0.536
0.456
0.459
0.478
0.475
0.532
0.457
0.543
0.542
0.655
0.263
0.526
0.512
0.522
0.539
0.320
0.423
0.267
0.258
0.541
0.552
0.411
0.551
0.543
0.491
0.543
0.519
0.502
0.588
0.409
0.320
0.617
0.643
0.417
0.494
0.529
0.606
0.643
0.587
0.538
0.281
0.335
0.533
0.598
0.460
0.543
0.504
0.532
0.497
0.387
0.339
0.454
0.564
0.395
0.430
0.368
0.643
0.414
0.551
0.430
0.606
0.426
0.690
0.544
0.521
0.667
0.543
0.536
0.438
0.535
0.420
0.420
0.543
0.543
0.217
0.201
0.452
0.586
0.543
0.595
0.504
0.587
0.343
0.651
0.544
0.543
0.513
0.458
0.523
0.436
0.579
0.669
0.426
0.231
0.588
0.494
0.588
0.643
0.523
0.320
0.462
0.616
0.519
0.513
0.510
0.318
0.628
0.499
0.395
0.516
0.541
0.619
0.373
0.543
0.543
0.588
0.494
0.439
0.543
0.502
0.481
0.343
0.454
0.824
0.581
0.542
0.324
0.320
0.301
0.430
0.300
0.508
0.318
0.523
0.448
0.409
0.669
0.540
0.543
0.580
0.320
0.395
0.231
0.577
0.503
0.475
0.409
0.502
0.544
0.387
0.625
0.538
0.433
0.339
0.502
0.448
0.588
0.454
0.539
0.669
0.588
0.375
0.628
0.224
0.320
0.533
0.459
0.369
0.497
0.538
0.551
0.510
0.668
0.543
0.533
0.523
0.700
0.457
0.468
0.463
0.525
0.411
0.669
0.475
0.434
0.403
0.604
0.563
0.562
0.348
0.543
0.370
0.320
0.502
0.501
0.522
0.446
0.343
0.606
0.520
0.669
0.439
0.553
0.463
0.514
0.361
0.532
0.607
0.581
0.625
0.430
0.685
0.430
0.457
0.669
0.497
0.454
0.543
0.478
0.543
0.368
0.588
0.459
0.532
0.457
0.551
0.324
0.543
0.448
0.421
0.543
0.454
0.540
0.669
0.617
0.523
0.556
0.409
0.541
0.541
0.523
0.454
0.346
0.425
0.665
0.514
0.502
0.525
0.443
0.459
0.335
0.565
0.544
0.536
0.302
0.554
0.532
0.544
0.380
0.655
0.665
0.339
0.551
0.383
0.502
0.343
0.459
0.565
0.502
0.672
0.536
0.588
0.513
0.665
0.554
0.515
0.423
0.642
0.543
0.665
0.478
0.344
0.665
0.459
0.437
0.544
0.543
0.497
0.655
0.288
0.173
0.438
0.427
0.420
0.523
0.378
0.604
0.454
0.364
0.348
0.543
0.539
0.543
0.320
0.747
0.475
0.419
0.279
0.532
0.546
0.588
0.510
0.543
0.478
0.543
0.598
0.525
0.524
0.543
0.625
0.543
0.502
0.343
0.423
0.761
0.423
0.543
0.364
0.454
0.212
0.502
0.364
0.605
0.318
0.540
0.532
0.368
0.848
0.430
0.537
0.534
0.543
0.540
0.471
0.502
0.543
0.504
0.543
0.423
0.523
0.463
0.569
0.459
0.320
0.539
0.562
0.632
0.491
0.507
0.538
0.357
0.648
0.475
0.543
0.525
0.408
0.523
0.606
0.341
0.502
0.531
0.543
0.588
0.318
0.669
0.540
0.551
0.454
0.448
0.459
0.430
0.588
0.665
0.588
0.523
0.522
0.692
0.466
0.555
0.588
0.315
0.588
0.315
0.502
0.628
0.588
0.540
0.543
0.605
0.448
0.318
0.535
0.395
0.523
0.665
0.533
0.430
0.544
0.322
0.364
0.324
0.368
0.643
0.469
0.543
0.547
0.665
0.320
0.402
0.374
0.543
0.631
0.490
0.781
0.343
0.523
0.556
0.659
0.426
0.467
0.682
0.678
0.588
0.543
0.852
0.307
0.497
0.411
0.618
0.397
0.539
0.625
0.457
0.463
0.502
0.531
0.374
0.556
0.659
0.454
0.543
0.591
0.543
0.384
0.551
0.543
0.383
0.522
0.439
0.588
0.454
0.625
0.561
0.740
0.320
0.522
0.543
0.529
0.541
0.315
0.540
0.588
0.870
0.287
0.469
0.669
0.320
0.724
0.519
0.467
0.519
0.706
0.523
0.339
0.470
0.119
0.457
0.487
0.475
0.543
0.537
0.566
0.459
0.561
0.522
0.409
0.543
0.532
0.588
0.481
0.287
0.555
0.539
0.581
0.544
0.564
0.526
0.584
0.632
0.588
0.536
0.555
0.648
0.416
0.606
0.496
0.371
0.669
0.541
0.468
0.676
0.430
0.522
0.442
0.532
0.554
0.632
0.669
0.559
0.258
0.395
0.448
0.532
0.457
0.551
0.411
0.515
0.368
0.457
0.423
0.523
0.511
0.441
0.665
0.449
0.478
0.530
0.364
0.459
0.324
0.507
0.551
0.705
0.496
0.417
0.605
0.643
0.430
0.669
0.536
0.585
0.502
0.475
0.643
0.370
0.320
0.339
0.454
0.588
0.395
0.381
0.318
0.588
0.536
0.585
0.555
0.523
0.525
0.502
0.522
0.539
0.380
0.438
0.325
0.519
0.551
0.360
0.348
0.173
0.453
0.665
0.502
0.502
0.523
0.444
0.554
0.423
0.543
0.591
0.669
0.329
0.430
0.543
0.552
0.454
0.513
0.499
0.339
0.438
0.339
0.543
0.494
0.554
0.399
0.497
0.543
0.225
0.543
0.364
0.669
0.460
0.541
0.460
0.130
0.448
0.588
0.439
0.457
0.562
0.543
0.540
0.532
0.577
0.430
0.549
0.523
0.665
0.601
0.315
0.454
0.502
0.224
0.478
0.588
0.606
0.543
0.665
0.426
0.463
0.679
0.408
0.348
0.643
0.669
0.409
0.523
0.380
0.502
0.510
0.497
0.499
0.398
0.532
0.364
0.294
0.349
0.684
0.502
0.541
0.544
0.550
0.469
0.543
0.536
0.564
0.535
0.543
0.340
0.523
0.307
0.463
0.439
0.540
0.414
0.562
0.395
0.381
0.481
0.454
0.554
0.320
0.320
0.394
0.253
0.376
0.543
0.523
0.555
0.552
0.627
0.643
0.475
0.606
0.343
0.420
0.720
0.554
0.512
0.669
0.320
0.426
0.442
0.519
0.543
0.554
0.533
0.439
0.417
0.669
0.596
0.370
0.457
0.502
0.502
0.552
0.575
0.349
0.600
0.665
0.306
0.543
0.625
0.500
0.458
0.502
0.548
0.364
0.578
0.371
0.606
0.543
0.430
0.449
0.339
0.586
0.532
0.523
0.669
0.364
0.850
0.519
0.343
0.502
0.532
0.459
0.543
0.565
0.459
0.348
0.348
0.438
0.265
0.430
0.370
0.629
0.516
0.423
0.876
0.530
0.534
0.491
0.339
0.320
0.224
0.638
0.532
0.524
0.348
0.522
0.659
0.454
0.588
0.523
0.399
0.468
0.585
0.553
0.547
0.543
0.480
0.380
0.551
0.543
0.343
0.543
0.523
0.430
0.540
0.543
0.429
0.543
0.349
0.322
0.382
0.159
0.539
0.540
0.448
0.391
0.543
0.368
0.417
0.438
0.585
0.407
0.545
0.522
0.255
0.530
0.537
0.433
0.173
0.395
0.565
0.664
0.426
0.353
0.625
0.470
0.554
0.588
0.360
0.225
0.915
0.253
0.625
0.526
0.551
0.348
0.669
0.370
0.224
0.454
0.420
0.442
0.491
0.300
0.370
0.519
0.543
0.459
0.398
0.513
0.541
0.530
0.459
0.669
0.848
0.541
0.421
0.469
0.659
0.430
0.523
0.536
0.554
0.541
0.497
0.445
0.224
0.619
0.555
0.562
0.730
0.343
0.470
0.284
0.543
0.348
0.426
0.589
0.320
0.555
0.466
0.376
0.364
0.642
0.786
0.307
0.588
0.543
0.541
0.668
0.625
0.543
0.510
0.391
0.689
0.669
0.476
0.585
0.435
0.380
0.426
0.625
0.637
0.519
0.540
0.368
0.543
0.438
0.588
0.457
0.627
0.533
0.454
0.384
0.466
0.497
0.543
0.541
0.596
0.510
0.388
0.532
0.255
0.532
0.428
0.253
0.532
0.448
0.339
0.551
0.572
0.348
0.525
0.515
0.368
0.543
0.543
0.605
0.454
0.510
0.539
0.423
0.430
0.384
0.671
0.368
0.628
0.665
0.409
0.457
0.519
0.395
0.528
0.447
0.494
0.448
0.239
0.643
0.430
0.532
0.543
0.343
0.523
0.433
0.481
0.643
0.562
0.597
0.345
0.685
0.554
0.630
0.555
0.668
0.224
0.541
0.666
0.419
0.606
0.232
0.543
0.590
0.421
0.541
0.300
0.627
0.596
0.669
0.533
0.539
0.423
0.463
0.585
0.526
0.520
0.513
0.254
0.699
0.519
0.670
0.494
0.520
0.444
0.520
0.479
0.558
0.593
0.357
0.482
0.558
0.405
0.608
0.387
0.491
0.643
0.377
0.686
0.645
0.631
0.619
0.520
0.643
0.605
0.511
0.558
0.402
0.568
0.652
0.625
0.885
0.452
0.558
0.614
0.700
0.394
0.558
0.526
0.631
0.472
0.494
0.632
0.509
0.328
0.544
0.565
0.481
0.600
0.557
0.699
0.698
0.487
0.604
0.524
0.479
0.686
0.936
0.699
0.350
0.554
0.522
0.558
0.558
0.435
0.338
0.427
0.610
0.520
0.453
0.471
0.686
0.687
0.481
0.466
0.618
0.558
0.304
0.389
0.532
0.602
0.604
0.559
0.430
0.435
0.592
0.317
0.802
0.699
0.606
0.624
0.356
0.558
0.693
0.405
0.556
0.606
0.543
0.382
0.692
0.405
0.558
0.334
0.558
0.558
0.558
0.606
0.395
0.325
0.323
0.557
0.480
0.454
0.558
0.682
0.592
0.605
0.636
0.598
0.459
0.499
0.601
0.245
0.699
0.704
0.474
0.450
0.637
0.558
0.558
0.511
0.349
0.558
0.610
0.589
0.631
0.523
0.695
0.608
0.331
0.406
0.553
0.692
0.513
0.174
0.632
0.647
0.693
0.558
0.436
0.699
0.632
0.699
0.660
0.547
0.697
0.369
0.631
0.501
0.179
0.494
0.622
0.445
0.420
0.622
0.622
0.699
0.263
0.613
0.632
0.544
0.604
0.501
0.567
0.558
0.337
0.523
0.563
0.597
0.237
0.470
0.697
0.424
0.559
0.470
0.349
0.547
0.416
0.556
0.558
0.617
0.382
0.624
0.482
0.623
0.558
0.495
0.350
0.605
0.586
0.653
0.244
0.632
0.509
0.524
0.624
0.522
0.274
0.631
0.441
0.543
0.548
0.537
0.696
0.427
0.530
0.236
0.450
0.555
0.444
0.863
0.444
0.588
0.699
0.655
0.470
0.445
0.558
0.700
0.497
0.470
0.677
0.699
0.470
0.335
0.638
0.606
0.592
0.692
0.631
0.505
0.663
0.275
0.602
0.615
0.557
0.616
0.562
0.516
0.556
0.632
0.699
0.525
0.529
0.622
0.377
0.392
0.602
0.390
0.579
0.501
0.349
0.628
0.700
0.699
0.529
0.604
0.350
0.556
0.547
0.322
0.494
0.414
0.699
0.528
0.482
0.337
0.437
0.540
0.558
0.674
0.479
0.610
0.631
0.390
0.555
0.619
0.337
0.440
0.767
0.453
0.630
0.338
0.401
0.520
0.765
0.494
0.567
0.549
0.644
0.509
0.319
0.520
0.358
0.558
0.341
0.520
0.543
0.669
0.623
0.444
0.269
0.612
0.516
0.607
0.602
0.461
0.463
0.478
0.698
0.624
0.212
0.856
0.633
0.606
0.628
0.517
0.350
0.558
0.629
0.683
0.619
0.699
0.373
0.609
0.618
0.695
0.699
0.485
0.457
0.555
0.437
0.259
0.699
0.689
0.208
0.459
0.605
0.625
0.358
0.698
0.333
0.637
0.647
0.304
0.470
0.453
0.603
0.436
0.470
0.516
0.518
0.511
0.438
0.398
0.520
0.558
0.246
0.469
0.567
0.470
0.356
0.427
0.432
0.445
0.400
0.615
0.486
0.643
0.640
0.558
0.406
0.445
0.318
0.519
0.241
0.510
0.342
0.520
0.559
0.520
0.246
0.796
0.349
0.634
0.583
0.482
0.623
0.697
0.697
0.589
0.618
0.688
0.558
0.557
0.509
0.458
0.472
0.522
0.345
0.448
0.260
0.341
0.624
0.453
0.558
0.558
0.619
0.696
0.558
0.558
0.494
0.383
0.544
0.611
0.697
0.618
0.650
0.505
0.520
0.651
0.558
0.399
0.575
0.474
0.699
0.596
0.567
0.521
0.392
0.500
0.437
0.418
0.327
0.687
0.529
0.819
0.479
0.302
0.444
0.484
0.524
0.632
0.140
0.655
0.603
0.352
0.633
0.502
0.379
0.624
0.558
0.559
0.480
0.942
0.627
0.500
0.520
0.501
0.444
0.520
0.534
0.520
0.715
0.558
0.557
0.495
0.513
0.696
0.697
0.591
0.349
0.582
0.356
0.495
0.699
0.379
0.773
0.230
0.650
0.693
0.549
0.405
0.349
0.558
0.436
0.699
0.698
0.558
0.558
0.520
0.478
0.435
0.594
0.339
0.381
0.558
0.555
0.338
0.291
0.688
0.527
0.650
0.395
0.521
0.655
0.690
0.425
0.523
0.355
0.644
0.663
0.528
0.505
0.303
0.362
0.322
0.414
0.470
0.580
0.650
0.393
0.558
0.693
0.635
0.558
0.501
0.349
0.329
0.308
0.482
0.386
0.529
0.584
0.534
0.607
0.631
0.949
0.633
0.242
0.558
0.396
0.331
0.604
0.407
0.240
0.557
0.643
0.482
0.521
0.320
0.445
0.558
0.558
0.370
0.520
0.591
0.555
0.614
0.617
0.520
0.156
0.699
0.624
0.522
0.612
0.503
0.558
0.390
0.665
0.495
0.678
0.559
0.339
0.577
0.357
0.520
0.559
0.479
0.383
0.653
0.520
0.437
0.468
0.482
0.413
0.482
0.509
0.567
0.544
0.520
0.688
0.341
0.558
0.320
0.464
0.407
0.387
0.520
0.336
0.524
0.558
0.416
0.523
0.453
0.427
0.614
0.482
0.619
0.337
0.480
0.514
0.337
0.624
0.663
0.621
0.586
0.543
0.695
0.558
0.132
0.385
0.636
0.360
0.624
0.528
0.295
0.528
0.602
0.378
0.516
0.556
0.564
0.865
0.700
0.664
0.390
0.619
0.334
0.558
0.482
0.757
0.532
0.623
0.621
0.603
0.602
0.829
0.420
0.535
0.886
0.427
0.343
0.830
0.480
0.786
0.466
0.454
0.640
0.558
0.529
0.409
0.646
0.732
0.705
0.699
0.578
0.635
0.481
0.834
0.656
0.567
0.507
0.407
0.742
0.485
0.880
0.610
0.473
0.877
0.683
0.567
0.644
0.828
0.600
0.415
0.644
0.611
0.700
0.402
0.390
0.453
0.522
0.580
0.841
0.606
0.618
0.558
0.473
0.644
0.444
0.437
0.286
0.864
0.619
0.497
0.950
0.349
0.492
0.618
0.415
0.537
0.473
0.548
0.596
0.558
0.625
0.649
0.385
0.340
0.580
0.877
0.818
0.587
0.215
0.882
0.420
0.240
0.405
0.671
0.605
0.671
0.615
0.416
0.586
0.548
0.579
0.487
0.344
0.763
0.308
0.548
0.511
0.516
0.381
0.365
0.826
0.400
0.479
0.838
0.798
0.614
0.679
0.625
0.501
0.479
0.526
0.615
0.615
0.602
0.356
0.646
0.390
0.337
0.802
0.526
0.711
0.935
0.516
0.558
0.558
0.558
0.554
0.601
0.437
0.436
0.535
0.659
0.617
0.354
0.473
0.344
0.698
0.558
0.612
0.558
0.453
0.556
0.861
0.601
0.325
0.769
0.554
0.547
0.532
0.524
0.580
0.616
0.263
0.558
0.236
0.619
0.564
0.822
0.426
0.558
0.470
0.599
0.519
0.783
0.516
0.936
0.882
0.591
0.615
0.463
0.611
0.532
0.505
0.606
0.286
0.694
0.839
0.437
0.558
0.558
0.917
0.773
0.424
0.743
0.614
0.590
0.515
0.590
0.619
0.558
0.357
0.558
0.661
0.475
0.851
0.579
0.644
0.642
0.897
0.681
0.897
0.882
0.567
0.340
0.656
0.516
0.558
0.619
0.458
0.522
0.547
0.690
0.547
0.558
0.599
0.619
0.480
0.555
0.349
0.525
0.481
0.662
0.473
0.548
0.349
0.459
0.627
0.435
0.526
0.925
0.526
0.396
0.487
0.556
0.610
0.240
0.882
0.670
0.520
0.739
0.606
0.429
0.602
0.619
0.450
0.762
0.726
0.349
0.562
0.350
0.644
0.743
0.516
0.685
0.547
0.895
0.241
0.516
0.936
0.589
0.802
0.516
0.614
0.558
0.583
0.642
0.304
0.399
0.556
0.644
0.263
0.450
0.437
0.482
0.567
0.487
0.532
0.699
0.753
0.802
0.512
0.254
0.819
0.367
0.666
0.633
0.601
0.461
0.436
0.135
0.487
0.644
0.516
0.591
0.535
0.468
0.255
0.410
0.784
0.226
0.629
0.558
0.606
0.650
0.610
0.849
0.534
0.562
0.701
0.336
0.638
0.289
0.531
0.657
0.851
0.811
0.388
0.558
0.614
0.699
0.407
0.482
0.568
0.522
0.489
0.349
0.388
0.621
0.263
0.700
0.443
0.156
0.619
0.841
0.652
0.529
0.642
0.553
0.547
0.357
0.396
0.480
0.688
0.607
0.549
0.531
0.395
0.891
0.742
0.614
0.403
0.522
0.471
0.867
0.393
0.341
0.748
0.700
0.416
0.482
0.254
0.558
0.619
0.954
0.522
0.368
0.675
0.676
0.358
0.558
0.453
0.952
0.209
0.602
0.516
0.614
0.390
0.614
0.605
0.690
0.470
0.476
0.553
0.516
0.742
0.632
0.519
0.515
0.482
0.229
0.516
0.739
0.875
0.580
0.547
0.444
0.480
0.606
0.882
0.618
0.780
0.687
0.349
0.341
0.591
0.583
0.558
0.606
0.617
0.567
0.624
0.344
0.558
0.405
0.376
0.614
0.289
0.637
0.825
0.349
0.386
0.404
0.605
0.609
0.678
0.669
0.558
0.666
0.586
0.701
0.697
0.523
0.340
0.692
0.534
0.558
0.613
0.849
0.631
0.335
0.406
0.418
0.452
0.936
0.480
0.496
0.528
0.378
0.219
0.385
0.453
0.295
0.541
0.666
0.923
0.395
0.453
0.649
0.392
0.644
0.401
0.444
0.402
0.788
0.346
0.802
0.400
0.602
0.541
0.633
0.428
0.258
0.549
0.260
0.624
0.395
0.437
0.467
0.404
0.369
0.614
0.487
0.656
0.493
0.628
0.739
0.950
0.434
0.558
0.263
0.644
0.337
0.547
0.350
0.444
0.501
0.404
0.604
0.529
0.419
0.516
0.746
0.671
0.217
0.603
0.558
0.392
0.504
0.453
0.928
0.556
0.594
0.516
0.865
0.558
0.516
0.289
0.621
0.286
0.308
0.586
0.586
0.567
0.500
0.240
0.524
0.572
0.558
0.529
0.687
0.807
0.602
0.905
0.614
0.585
0.609
0.565
0.608
0.420
0.775
0.609
0.548
0.405
0.453
0.238
0.386
0.556
0.558
0.614
0.548
0.415
0.602
0.595
0.312
0.819
0.286
0.342
0.602
0.565
0.516
0.558
0.520
0.609
0.645
0.834
0.094
0.403
0.878
0.453
0.405
0.094
0.453
0.743
0.794
0.367
0.618
0.657
0.338
0.558
0.764
0.604
0.574
0.404
0.558
0.567
0.558
0.585
0.481
0.480
0.867
0.369
0.326
0.558
0.444
0.534
0.558
0.451
0.444
0.453
0.286
0.671
0.195
0.402
0.480
0.642
0.331
0.490
0.486
0.591
0.479
0.473
0.627
0.236
0.401
0.358
0.602
0.432
0.440
0.524
0.524
0.415
0.547
0.263
0.558
0.286
0.665
0.263
0.401
0.556
0.143
0.357
0.480
0.504
0.548
0.343
0.618
0.390
0.558
0.602
0.558
0.336
0.614
0.487
0.345
0.479
0.520
0.558
0.410
0.530
0.396
0.369
0.632
0.444
0.341
0.602
0.408
0.420
0.314
0.486
0.630
0.452
0.547
0.699
0.392
0.217
0.588
0.350
0.434
0.314
0.482
0.264
0.416
0.482
0.618
0.240
0.603
0.426
0.450
0.619
0.545
0.567
0.527
0.697
0.605
0.338
0.582
0.493
0.516
0.602
0.455
0.338
0.385
0.401
0.523
0.407
0.453
0.547
0.405
0.345
0.338
0.387
0.547
0.624
0.721
0.619
0.491
0.637
0.503
0.229
0.331
0.618
0.576
0.504
0.700
0.618
0.314
0.541
0.226
0.395
0.286
0.602
0.357
0.614
0.263
0.520
0.129
0.558
0.553
0.338
0.318
0.400
0.677
0.559
0.465
0.478
0.482
0.410
0.428
0.555
0.409
0.443
0.666
0.558
0.501
0.240
0.547
0.180
0.486
0.452
0.547
0.504
0.350
0.619
0.558
0.236
0.520
0.602
0.304
0.083
0.494
0.505
0.351
0.536
0.532
0.506
0.302
0.557
0.262
0.444
0.447
0.400
0.184
0.226
0.547
0.558
0.494
0.349
0.601
0.520
0.471
0.520
0.407
0.550
0.669
0.482
0.334
0.405
0.177
0.422
0.477
0.559
0.390
0.521
0.698
0.567
0.503
0.510
0.427
0.408
0.604
0.625
0.475
0.548
0.482
0.487
0.487
0.390
0.580
0.440
0.614
0.482
0.558
0.700
0.555
0.547
0.471
0.882
0.545
0.229
0.525
0.516
0.482
0.685
0.371
0.390
0.482
0.574
0.423
0.614
0.491
0.420
0.341
0.512
0.602
0.213
0.341
0.383
0.487
0.333
0.558
0.443
0.558
0.558
0.525
0.349
0.579
0.625
0.642
0.460
0.453
0.547
0.444
0.580
0.341
0.337
0.128
0.594
0.556
0.265
0.558
0.482
0.453
0.558
0.419
0.642
0.529
0.504
0.418
0.520
0.548
0.507
0.429
0.350
0.341
0.509
0.503
0.264
0.520
0.338
0.520
0.547
0.479
0.713
0.426
0.558
0.480
0.369
0.386
0.547
0.606
0.444
0.528
0.236
0.614
0.514
0.393
0.302
0.558
0.612
0.558
0.580
0.095
0.521
0.567
0.469
0.494
0.558
0.482
0.368
0.349
0.277
0.289
0.556
0.621
0.558
0.574
0.558
0.236
0.424
0.482
0.668
0.482
0.620
0.433
0.529
0.617
0.199
0.558
0.482
0.524
0.684
0.595
0.498
0.572
0.695
0.532
0.632
0.602
0.487
0.520
0.311
0.630
0.440
0.480
0.293
0.440
0.317
0.604
0.236
0.618
0.429
0.420
0.534
0.482
0.399
0.236
0.567
0.361
0.567
0.470
0.516
0.389
0.572
0.349
0.532
0.567
0.558
0.624
0.524
0.506
0.118
0.624
0.409
0.676
0.279
0.655
0.325
0.528
0.559
0.444
0.646
0.473
0.553
0.420
0.301
0.646
0.333
0.700
0.482
0.395
0.347
0.416
0.264
0.480
0.213
0.654
0.632
0.487
0.470
0.446
0.369
0.341
0.444
0.520
0.522
0.461
0.517
0.482
0.259
0.655
0.433
0.619
0.562
0.420
0.558
0.230
0.558
0.338
0.184
0.802
0.330
0.357
0.574
0.558
0.358
0.631
0.338
0.617
0.521
0.310
0.558
0.263
0.139
0.454
0.558
0.558
0.352
0.416
0.351
0.575
0.558
0.390
0.567
0.394
0.547
0.525
0.240
0.453
0.526
0.699
0.263
0.445
0.349
0.470
0.478
0.477
0.699
0.473
0.547
0.361
0.354
0.618
0.558
0.617
0.252
0.453
0.865
0.516
0.536
0.597
0.550
0.507
0.558
0.373
0.481
0.414
0.390
0.536
0.606
0.580
0.266
0.236
0.325
0.304
0.558
0.619
0.300
0.496
0.480
0.493
0.631
0.624
0.264
0.422
0.308
0.445
0.522
0.742
0.133
0.490
0.274
0.516
0.516
0.558
0.524
0.364
0.517
0.377
0.556
0.558
0.482
0.520
0.696
0.520
0.521
0.625
0.312
0.487
0.502
0.355
0.520
0.614
0.558
0.589
0.485
0.640
0.325
0.494
0.405
0.558
0.619
0.440
0.401
0.516
0.349
0.517
0.482
0.558
0.345
0.619
0.522
0.616
0.662
0.525
0.516
0.524
0.687
0.525
0.558
0.624
0.382
0.460
0.585
0.479
0.642
0.396
0.369
0.547
0.708
0.516
0.547
0.620
0.520
0.112
0.558
0.474
0.700
0.456
0.341
0.659
0.213
0.547
0.487
0.558
0.586
0.693
0.482
0.341
0.480
0.487
0.520
0.453
0.349
0.354
0.586
0.405
0.594
0.242
0.083
0.555
0.699
0.558
0.487
0.558
0.345
0.614
0.482
0.529
0.482
0.343
0.482
0.558
0.471
0.558
0.386
0.335
0.398
0.558
0.412
0.520
0.529
0.520
0.532
0.574
0.495
0.559
0.608
0.868
0.386
0.532
0.112
0.516
0.482
0.617
0.558
0.802
0.349
0.558
0.216
0.586
0.530
0.530
0.629
0.322
0.520
0.558
0.369
0.322
0.557
0.397
0.482
0.444
0.490
0.601
0.445
0.480
0.369
0.632
0.356
0.520
0.472
0.605
0.492
0.690
0.652
0.548
0.207
0.600
0.401
0.114
0.337
0.358
0.404
0.548
0.535
0.218
0.340
0.195
0.352
0.702
0.357
0.524
0.619
0.841
0.558
0.358
0.338
0.574
0.415
0.471
0.556
0.605
0.419
0.634
0.558
0.502
0.369
0.558
0.520
0.503
0.263
0.457
0.356
0.619
0.377
0.440
0.540
0.592
0.558
0.390
0.624
0.349
0.522
0.369
0.487
0.498
0.425
0.534
0.646
0.503
0.405
0.341
0.520
0.480
0.697
0.479
0.402
0.530
0.322
0.228
0.480
0.453
0.420
0.398
0.883
0.444
0.669
0.482
0.386
0.597
0.524
0.484
0.646
0.405
0.502
0.669
0.545
0.558
0.700
0.655
0.492
0.445
0.369
0.586
0.349
0.629
0.623
0.239
0.486
0.261
0.336
0.372
0.217
0.456
0.416
0.289
0.470
0.530
0.516
0.453
0.484
0.404
0.309
0.619
0.676
0.263
0.415
0.405
0.474
0.218
0.558
0.619
0.486
0.471
0.547
0.591
0.390
0.395
0.386
0.529
0.646
0.378
0.700
0.440
0.352
0.237
0.590
0.440
0.529
0.435
0.641
0.567
0.286
0.289
0.360
0.400
0.558
0.547
0.547
0.586
0.508
0.369
0.293
0.597
0.420
0.558
0.370
0.501
0.206
0.373
0.699
0.578
0.327
0.648
0.445
0.337
0.553
0.195
0.236
0.628
0.369
0.518
0.532
0.491
0.558
0.625
0.516
0.532
0.230
0.314
0.335
0.413
0.574
0.618
0.437
0.606
0.444
0.580
0.526
0.453
0.401
0.536
0.653
0.487
0.558
0.263
0.547
0.522
0.556
0.558
0.625
0.487
0.229
0.480
0.558
0.470
0.558
0.472
0.451
0.239
0.729
0.579
0.632
0.490
0.488
0.700
0.494
0.516
0.617
0.614
0.625
0.602
0.396
0.350
0.586
0.213
0.558
0.499
0.501
0.700
0.637
0.759
0.626
0.480
0.240
0.516
0.494
0.646
0.630
0.802
0.606
0.077
0.700
0.350
0.489
0.532
0.700
0.239
0.614
0.217
0.705
0.510
0.261
0.700
0.269
0.516
0.482
0.334
0.606
0.415
0.487
0.432
0.338
0.359
0.482
0.285
0.558
0.278
0.471
0.548
0.144
0.470
0.699
0.558
0.386
0.280
0.356
0.532
0.453
0.532
0.322
0.612
0.669
0.606
0.440
0.419
0.558
0.094
0.699
0.482
0.199
0.386
0.618
0.700
0.694
0.349
0.453
0.407
0.341
0.218
0.244
0.520
0.350
0.369
0.263
0.520
0.280
0.480
0.414
0.567
0.334
0.558
0.580
0.567
0.156
0.524
0.646
0.604
0.487
0.700
0.557
0.393
0.357
0.558
0.520
0.341
0.356
0.262
0.487
0.390
0.547
0.346
0.738
0.485
0.395
0.237
0.521
0.558
0.558
0.520
0.563
0.561
0.207
0.558
0.314
0.278
0.345
0.513
0.350
0.474
0.699
0.558
0.457
0.206
0.700
0.322
0.647
0.350
0.341
0.417
0.406
0.350
0.669
0.388
0.525
0.885
0.547
0.139
0.606
0.434
0.624
0.558
0.240
0.482
0.619
0.333
0.349
0.312
0.370
0.349
0.700
0.183
0.633
0.196
0.589
0.498
0.856
0.534
0.358
0.601
0.601
0.264
0.145
0.592
0.520
0.401
0.303
0.520
0.350
0.286
0.655
0.266
0.606
0.484
0.263
0.616
0.349
0.255
0.341
0.669
0.619
0.558
0.539
0.473
0.693
0.195
0.241
0.619
0.248
0.341
0.326
0.453
0.529
0.605
0.308
0.480
0.440
0.693
0.647
0.502
0.697
0.369
0.674
0.632
0.322
0.655
0.563
0.524
0.599
0.532
0.511
0.524
0.420
0.498
0.547
0.336
0.512
0.346
0.700
0.532
0.485
0.646
0.559
0.426
0.529
0.310
0.337
0.697
0.254
0.482
0.427
0.586
0.528
0.243
0.071
0.312
0.263
0.447
0.586
0.554
0.494
0.749
0.390
0.606
0.428
0.453
0.236
0.595
0.322
0.488
0.423
0.539
0.621
0.179
0.548
0.480
0.558
0.597
0.480
0.494
0.614
0.574
0.565
0.502
0.179
0.337
0.399
0.516
0.341
0.634
0.586
0.549
0.094
0.482
0.414
0.532
0.238
0.624
0.687
0.444
0.362
0.525
0.503
0.529
0.513
0.341
0.207
0.410
0.272
0.529
0.301
0.209
0.575
0.400
0.416
0.482
0.405
0.402
0.516
0.337
0.494
0.363
0.393
0.634
0.513
0.415
0.236
0.271
0.480
0.597
0.350
0.439
0.341
0.488
0.342
0.325
0.338
0.558
0.624
0.595
0.349
0.394
0.500
0.866
0.356
0.349
0.541
0.364
0.558
0.529
0.405
0.620
0.666
0.675
0.341
0.237
0.311
0.321
0.390
0.237
0.547
0.395
0.338
0.558
0.479
0.602
0.478
0.471
0.349
0.240
0.499
0.619
0.395
0.532
0.520
0.571
0.568
0.336
0.401
0.431
0.588
0.471
0.550
0.476
0.659
0.478
0.561
0.588
0.588
0.407
0.679
0.563
0.537
0.507
0.585
0.454
0.445
0.488
0.518
0.494
0.620
0.537
0.641
0.555
0.466
0.520
0.466
0.679
0.519
0.588
0.634
0.656
0.583
0.455
0.744
0.429
0.550
0.270
0.307
0.203
0.700
0.588
0.620
0.588
0.615
0.588
0.509
0.647
0.625
0.398
0.588
0.505
0.489
0.474
0.588
0.509
0.664
0.466
0.559
0.588
0.620
0.561
0.627
0.516
0.627
0.488
0.672
0.596
0.679
0.499
0.519
0.351
0.422
0.422
0.620
0.414
0.588
0.419
0.507
0.510
0.672
0.568
0.515
0.474
0.509
0.403
0.455
0.466
0.422
0.679
0.619
0.537
0.679
0.520
0.633
0.455
0.459
0.348
0.679
0.419
0.069
0.521
0.559
0.588
0.620
0.620
0.494
0.496
0.576
0.414
0.576
0.447
0.478
0.619
0.894
0.605
0.896
0.495
0.858
0.563
0.293
0.484
0.647
0.679
0.502
0.512
0.445
0.588
0.620
0.620
0.588
0.403
0.469
0.620
0.679
0.465
0.664
0.523
0.405
0.554
0.459
0.679
0.640
0.330
0.398
0.521
0.679
0.599
0.616
0.401
0.392
0.432
0.429
0.679
0.499
0.588
0.520
0.307
0.283
0.521
0.588
0.524
0.588
0.471
0.513
0.745
0.512
0.653
0.512
0.388
0.638
0.471
0.484
0.471
0.633
0.406
0.520
0.469
0.537
0.620
0.536
0.474
0.520
0.640
0.411
0.360
0.620
0.459
0.588
0.679
0.638
0.489
0.857
0.426
0.600
0.419
0.592
0.294
0.439
0.585
0.588
0.634
0.598
0.583
0.432
0.520
0.286
0.588
0.624
0.551
0.260
0.573
0.588
0.588
0.521
0.534
0.512
0.519
0.381
0.672
0.341
0.400
0.620
0.679
0.674
0.478
0.679
0.286
0.588
0.679
0.254
0.559
0.455
0.674
0.588
0.679
0.489
0.338
0.625
0.512
0.679
0.609
0.588
0.512
0.476
0.584
0.414
0.320
0.527
0.456
0.554
0.520
0.450
0.508
0.155
0.515
0.459
0.679
0.496
0.512
0.399
0.326
0.587
0.520
0.563
0.454
0.368
0.518
0.466
0.457
0.393
0.559
0.620
0.679
0.628
0.672
0.520
0.457
0.520
0.489
0.149
0.620
0.588
0.679
0.175
0.766
0.627
0.293
0.616
0.499
0.498
0.588
0.679
0.537
0.444
0.679
0.259
0.608
0.520
0.679
0.379
0.485
0.672
0.513
0.616
0.502
0.560
0.512
0.443
0.640
0.674
0.518
0.554
0.491
0.664
0.628
0.624
0.588
0.620
0.588
0.554
0.620
0.480
0.679
0.628
0.599
0.643
0.588
0.679
0.465
0.624
0.588
0.679
0.510
0.522
0.640
0.587
0.679
0.583
0.626
0.642
0.339
0.430
0.660
0.551
0.444
0.620
0.679
0.449
0.568
0.417
0.588
0.628
0.537
0.471
0.474
0.563
0.537
0.430
0.455
0.679
0.588
0.339
0.430
0.679
0.321
0.519
0.679
0.563
0.455
0.575
0.572
0.471
0.470
0.640
0.697
0.623
0.502
0.520
0.624
0.512
0.537
0.640
0.480
0.487
0.527
0.767
0.537
0.603
0.447
0.609
0.313
0.512
0.321
0.502
0.447
0.634
0.674
0.850
0.374
0.624
0.849
0.485
0.258
0.484
0.588
0.431
0.588
0.609
0.588
0.499
0.464
0.464
0.679
0.620
0.628
0.588
0.483
0.634
0.510
0.520
0.307
0.672
0.412
0.588
0.554
0.497
0.348
0.669
0.634
0.486
0.509
0.634
0.499
0.419
0.679
0.679
0.455
0.624
0.466
0.679
0.620
0.432
0.672
0.628
0.273
0.445
0.326
0.137
0.672
0.521
0.679
0.588
0.459
0.520
0.348
0.505
0.520
0.320
0.307
0.410
0.492
0.829
0.620
0.520
0.640
0.672
0.440
0.588
0.896
0.495
0.400
0.520
0.520
0.447
0.509
0.519
0.537
0.627
0.434
0.512
0.343
0.652
0.588
0.395
0.497
0.634
0.620
0.521
0.592
0.520
0.556
0.258
0.520
0.639
0.588
0.466
0.664
0.601
0.459
0.431
0.537
0.431
0.664
0.583
0.672
0.520
0.459
0.679
0.509
0.508
0.679
0.518
0.679
0.258
0.620
0.466
0.494
0.679
0.512
0.543
0.431
0.559
0.588
0.640
0.258
0.431
0.419
0.620
0.346
0.588
0.536
0.487
0.466
0.513
0.259
0.796
0.220
0.520
0.420
0.588
0.567
0.331
0.476
0.465
0.494
0.509
0.509
0.672
0.478
0.409
0.437
0.502
0.620
0.459
0.575
0.588
0.679
0.460
0.553
0.559
0.672
0.673
0.635
0.624
0.338
0.527
0.624
0.478
0.520
0.478
0.576
0.455
0.531
0.672
0.634
0.338
0.679
0.620
0.420
0.433
0.679
0.537
0.258
0.416
0.627
0.543
0.588
0.608
0.588
0.502
0.512
0.559
0.679
0.430
0.616
0.471
0.489
0.537
0.519
0.459
0.338
0.467
0.069
0.317
0.825
0.258
0.307
0.588
0.620
0.654
0.478
0.215
0.833
0.474
0.585
0.456
0.694
0.578
0.620
0.466
0.588
0.672
0.478
0.620
0.679
0.350
0.679
0.634
0.497
0.679
0.486
0.664
0.307
0.509
0.624
0.419
0.554
0.520
0.516
0.588
0.620
0.502
0.664
0.466
0.610
0.559
0.767
0.605
0.509
0.466
0.616
0.685
0.576
0.276
0.631
0.147
0.471
0.861
0.551
0.559
0.885
0.588
0.628
0.679
0.572
0.454
0.509
0.421
0.520
0.577
0.484
0.639
0.466
0.679
0.480
0.586
0.294
0.458
0.672
0.811
0.672
0.191
0.894
0.588
0.521
0.664
0.410
0.520
0.628
0.407
0.404
0.338
0.679
0.443
0.543
0.808
0.454
0.474
0.664
0.502
0.484
0.459
0.515
0.480
0.601
0.672
0.338
0.520
0.415
0.498
0.543
0.543
0.495
0.494
0.577
0.572
0.713
0.459
0.807
0.588
0.627
0.610
0.834
0.863
0.215
0.498
0.501
0.550
0.911
0.525
0.664
0.478
0.828
0.543
0.464
0.469
0.733
0.732
0.215
0.583
0.855
0.502
0.416
0.601
0.681
0.520
0.439
0.588
0.635
0.889
0.520
0.455
0.480
0.488
0.455
0.859
0.360
0.656
0.450
0.472
0.276
0.473
0.628
0.550
0.652
0.657
0.419
0.502
0.509
0.509
0.772
0.610
0.681
0.600
0.851
0.664
0.601
0.270
0.497
0.896
0.818
0.559
0.866
0.588
0.559
0.633
0.697
0.559
0.530
0.913
0.574
0.414
0.679
0.416
0.339
0.588
0.333
0.512
0.662
0.431
0.478
0.341
0.672
0.478
0.588
0.576
0.681
0.463
0.520
0.498
0.364
0.464
0.455
0.398
0.679
0.498
0.420
0.664
0.478
0.672
0.521
0.519
0.450
0.849
0.492
0.566
0.487
0.576
0.609
0.620
0.620
0.714
0.809
0.453
0.856
0.485
0.558
0.557
0.619
0.338
0.419
0.335
0.664
0.513
0.514
0.555
0.519
0.510
0.415
0.811
0.335
0.419
0.454
0.398
0.863
0.899
0.708
0.559
0.811
0.610
0.459
0.466
0.569
0.848
0.559
0.616
0.574
0.486
0.559
0.537
0.888
0.588
0.679
0.259
0.455
0.521
0.520
0.342
0.478
0.674
0.521
0.664
0.894
0.806
0.559
0.399
0.694
0.446
0.420
0.554
0.559
0.519
0.620
0.481
0.069
0.512
0.791
0.804
0.313
0.855
0.326
0.495
0.559
0.521
0.891
0.672
0.642
0.480
0.519
0.509
0.600
0.430
0.542
0.672
0.486
0.537
0.664
0.485
0.474
0.459
0.478
0.855
0.429
0.471
0.476
0.738
0.498
0.414
0.664
0.502
0.307
0.438
0.679
0.475
0.475
0.444
0.520
0.520
0.610
0.494
0.584
0.705
0.585
0.646
0.520
0.664
0.543
0.550
0.588
0.712
0.620
0.681
0.677
0.459
0.454
0.439
0.896
0.438
0.537
0.520
0.498
0.631
0.566
0.445
0.334
0.895
0.550
0.664
0.878
0.584
0.898
0.619
0.466
0.492
0.555
0.758
0.520
0.502
0.664
0.679
0.815
0.466
0.543
0.645
0.431
0.895
0.863
0.478
0.419
0.414
0.588
0.267
0.454
0.521
0.879
0.521
0.320
0.450
0.659
0.519
0.389
0.313
0.550
0.455
0.652
0.378
0.320
0.576
0.588
0.859
0.509
0.897
0.608
0.625
0.672
0.494
0.537
0.425
0.677
0.672
0.483
0.486
0.360
0.478
0.550
0.431
0.485
0.588
0.558
0.767
0.414
0.520
0.493
0.883
0.440
0.588
0.444
0.466
0.664
0.677
0.711
0.896
0.495
0.767
0.679
0.496
0.907
0.873
0.631
0.722
0.858
0.833
0.559
0.588
0.520
0.260
0.588
0.388
0.588
0.892
0.395
0.478
0.576
0.550
0.560
0.861
0.455
0.416
0.588
0.679
0.543
0.308
0.331
0.472
0.852
0.559
0.500
0.335
0.664
0.903
0.684
0.697
0.847
0.601
0.466
0.679
0.524
0.896
0.224
0.601
0.690
0.523
0.871
0.502
0.848
0.520
0.495
0.734
0.561
0.414
0.521
0.416
0.720
0.518
0.378
0.588
0.559
0.841
0.320
0.644
0.519
0.601
0.811
0.432
0.509
0.478
0.459
0.489
0.481
0.276
0.672
0.864
0.890
0.459
0.628
0.619
0.679
0.480
0.470
0.558
0.494
0.664
0.577
0.168
0.389
0.398
0.576
0.811
0.512
0.860
0.576
0.502
0.480
0.641
0.509
0.679
0.858
0.495
0.537
0.873
0.571
0.601
0.396
0.438
0.520
0.602
0.690
0.575
0.592
0.659
0.562
0.699
0.845
0.502
0.588
0.581
0.619
0.478
0.471
0.609
0.465
0.559
0.440
0.444
0.514
0.601
0.679
0.270
0.620
0.823
0.664
0.480
0.674
0.480
0.588
0.877
0.543
0.498
0.588
0.576
0.772
0.679
0.865
0.307
0.588
0.489
0.562
0.467
0.418
0.675
0.404
0.535
0.811
0.588
0.620
0.215
0.672
0.414
0.628
0.453
0.555
0.215
0.419
0.643
0.624
0.368
0.537
0.674
0.679
0.450
0.861
0.865
0.625
0.583
0.605
0.459
0.681
0.860
0.260
0.679
0.459
0.892
0.679
0.772
0.588
0.601
0.498
0.857
0.463
0.576
0.606
0.550
0.520
0.840
0.537
0.462
0.537
0.672
0.527
0.453
0.559
0.862
0.565
0.588
0.679
0.607
0.804
0.484
0.861
0.829
0.510
0.768
0.554
0.628
0.455
0.307
0.568
0.300
0.498
0.619
0.617
0.518
0.393
0.485
0.471
0.382
0.459
0.520
0.542
0.620
0.069
0.679
0.147
0.466
0.519
0.440
0.494
0.575
0.588
0.711
0.326
0.509
0.341
0.453
0.588
0.520
0.455
0.525
0.466
0.484
0.520
0.589
0.559
0.576
0.420
0.300
0.484
0.416
0.447
0.466
0.500
0.520
0.495
0.588
0.592
0.533
0.512
0.522
0.477
0.543
0.286
0.656
0.498
0.514
0.451
0.515
0.588
0.537
0.258
0.512
0.320
0.588
0.521
0.509
0.543
0.338
0.672
0.250
0.459
0.360
0.320
0.430
0.440
0.588
0.398
0.444
0.520
0.446
0.498
0.620
0.497
0.320
0.543
0.588
0.475
0.413
0.339
0.679
0.394
0.672
0.628
0.515
0.156
0.307
0.354
0.286
0.502
0.447
0.576
0.459
0.416
0.588
0.588
0.566
0.338
0.254
0.679
0.149
0.557
0.563
0.419
0.616
0.512
0.428
0.520
0.601
0.576
0.518
0.494
0.297
0.392
0.258
0.532
0.512
0.069
0.628
0.495
0.502
0.338
0.299
0.471
0.512
0.537
0.509
0.498
0.620
0.465
0.463
0.368
0.410
0.293
0.262
0.620
0.573
0.129
0.715
0.416
0.498
0.404
0.521
0.495
0.679
0.494
0.628
0.437
0.471
0.283
0.628
0.398
0.155
0.632
0.567
0.644
0.335
0.678
0.520
0.155
0.711
0.147
0.543
0.254
0.399
0.348
0.393
0.495
0.672
0.335
0.520
0.498
0.634
0.108
0.494
0.509
0.586
0.576
0.588
0.515
0.494
0.672
0.474
0.589
0.593
0.430
0.378
0.455
0.587
0.512
0.587
0.398
0.588
0.518
0.456
0.605
0.592
0.501
0.615
0.588
0.520
0.628
0.502
0.588
0.258
0.158
0.520
0.498
0.480
0.582
0.414
0.521
0.492
0.559
0.404
0.175
0.602
0.588
0.520
0.469
0.858
0.511
0.512
0.259
0.447
0.768
0.416
0.463
0.414
0.503
0.431
0.518
0.320
0.466
0.430
0.588
0.519
0.515
0.330
0.393
0.559
0.520
0.478
0.277
0.455
0.592
0.495
0.455
0.512
0.679
0.232
0.509
0.520
0.543
0.541
0.489
0.588
0.361
0.455
0.559
0.455
0.638
0.519
0.492
0.447
0.537
0.498
0.431
0.574
0.521
0.679
0.568
0.588
0.466
0.620
0.497
0.520
0.445
0.620
0.512
0.543
0.430
0.876
0.576
0.498
0.538
0.400
0.338
0.232
0.529
0.543
0.338
0.520
0.313
0.509
0.459
0.520
0.276
0.459
0.601
0.512
0.320
0.588
0.679
0.478
0.588
0.537
0.519
0.567
0.560
0.395
0.368
0.338
0.672
0.494
0.519
0.634
0.426
0.518
0.326
0.520
0.518
0.492
0.488
0.307
0.395
0.537
0.673
0.588
0.477
0.640
0.588
0.609
0.436
0.554
0.502
0.155
0.234
0.069
0.459
0.459
0.588
0.548
0.263
0.471
0.679
0.277
0.639
0.588
0.512
0.634
0.554
0.537
0.628
0.259
0.393
0.277
0.664
0.414
0.677
0.496
0.668
0.664
0.510
0.679
0.069
0.537
0.486
0.459
0.520
0.624
0.521
0.337
0.520
0.471
0.466
0.620
0.509
0.664
0.319
0.460
0.656
0.258
0.502
0.275
0.498
0.466
0.610
0.478
0.338
0.559
0.479
0.588
0.672
0.587
0.335
0.286
0.610
0.679
0.555
0.359
0.469
0.509
0.576
0.763
0.272
0.137
0.505
0.628
0.484
0.588
0.588
0.494
0.475
0.464
0.327
0.644
0.588
0.335
0.466
0.634
0.155
0.455
0.286
0.505
0.628
0.135
0.440
0.619
0.588
0.455
0.475
0.488
0.339
0.289
0.278
0.339
0.155
0.518
0.679
0.480
0.335
0.520
0.631
0.520
0.512
0.526
0.513
0.520
0.537
0.289
0.509
0.588
0.478
0.513
0.335
0.509
0.404
0.455
0.398
0.492
0.450
0.520
0.519
0.486
0.155
0.563
0.314
0.628
0.599
0.543
0.588
0.634
0.466
0.069
0.431
0.475
0.216
0.537
0.613
0.454
0.679
0.440
0.664
0.617
0.533
0.368
0.307
0.348
0.559
0.450
0.414
0.335
0.453
0.522
0.588
0.455
0.634
0.345
0.475
0.182
0.588
0.628
0.592
0.672
0.559
0.431
0.494
0.576
0.520
0.543
0.360
0.217
0.504
0.483
0.509
0.588
0.599
0.516
0.480
0.588
0.520
0.588
0.520
0.559
0.147
0.559
0.885
0.494
0.515
0.468
0.419
0.679
0.283
0.498
0.393
0.433
0.679
0.455
0.626
0.543
0.270
0.342
0.520
0.460
0.672
0.499
0.545
0.502
0.588
0.520
0.477
0.679
0.474
0.537
0.738
0.348
0.588
0.479
0.620
0.263
0.149
0.588
0.483
0.447
0.520
0.679
0.398
0.588
0.628
0.348
0.379
0.543
0.601
0.409
0.319
0.390
0.389
0.339
0.495
0.372
0.510
0.270
0.317
0.422
0.620
0.548
0.455
0.416
0.331
0.672
0.626
0.514
0.511
0.416
0.480
0.554
0.270
0.537
0.520
0.620
0.478
0.616
0.679
0.620
0.413
0.416
0.869
0.576
0.502
0.520
0.478
0.559
0.610
0.386
0.338
0.576
0.351
0.467
0.559
0.616
0.576
0.447
0.300
0.496
0.263
0.509
0.422
0.456
0.260
0.431
0.441
0.577
0.439
0.495
0.516
0.673
0.380
0.401
0.413
0.609
0.478
0.258
0.592
0.548
0.339
0.445
0.430
0.550
0.782
0.520
0.588
0.568
0.520
0.476
0.497
0.664
0.588
0.471
0.619
0.233
0.466
0.309
0.624
0.509
0.518
0.586
0.489
0.462
0.559
0.356
0.679
0.434
0.520
0.466
0.418
0.262
0.486
0.473
0.155
0.459
0.307
0.471
0.692
0.519
0.512
0.594
0.616
0.416
0.679
0.484
0.566
0.550
0.307
0.419
0.483
0.459
0.258
0.635
0.215
0.515
0.419
0.679
0.466
0.258
0.338
0.453
0.389
0.494
0.588
0.400
0.608
0.642
0.679
0.258
0.499
0.429
0.286
0.471
0.510
0.512
0.537
0.628
0.676
0.588
0.537
0.480
0.550
0.494
0.657
0.565
0.559
0.431
0.679
0.527
0.485
0.335
0.519
0.400
0.631
0.588
0.502
0.601
0.520
0.318
0.270
0.530
0.437
0.550
0.388
0.400
0.559
0.568
0.521
0.820
0.664
0.395
0.588
0.320
0.404
0.554
0.588
0.592
0.398
0.459
0.335
0.620
0.576
0.672
0.101
0.398
0.521
0.518
0.588
0.480
0.398
0.664
0.182
0.437
0.368
0.609
0.502
0.273
0.258
0.478
0.515
0.415
0.512
0.559
0.593
0.489
0.286
0.466
0.361
0.620
0.450
0.588
0.562
0.609
0.471
0.681
0.307
0.272
0.674
0.880
0.424
0.576
0.521
0.258
0.427
0.381
0.456
0.502
0.466
0.478
0.478
0.568
0.270
0.561
0.419
0.431
0.520
0.484
0.528
0.276
0.459
0.482
0.554
0.489
0.182
0.478
0.548
0.610
0.475
0.588
0.568
0.270
0.572
0.628
0.498
0.477
0.234
0.634
0.662
0.486
0.616
0.478
0.679
0.610
0.414
0.276
0.338
0.440
0.376
0.519
0.513
0.576
0.672
0.537
0.664
0.615
0.620
0.672
0.509
0.552
0.620
0.441
0.823
0.455
0.372
0.599
0.480
0.276
0.455
0.455
0.509
0.605
0.576
0.484
0.520
0.517
0.519
0.588
0.480
0.213
0.317
0.515
0.531
0.440
0.147
0.537
0.321
0.520
0.620
0.518
0.640
0.258
0.459
0.455
0.455
0.679
0.690
0.559
0.520
0.372
0.672
0.482
0.554
0.488
0.455
0.679
0.320
0.477
0.314
0.583
0.634
0.700
0.498
0.620
0.811
0.320
0.419
0.339
0.286
0.232
0.427
0.455
0.679
0.455
0.576
0.543
0.520
0.258
0.424
0.588
0.477
0.670
0.191
0.706
0.609
0.480
0.430
0.335
0.679
0.490
0.509
0.588
0.520
0.338
0.663
0.335
0.405
0.270
0.588
0.222
0.606
0.672
0.419
0.181
0.495
0.335
0.679
0.586
0.588
0.421
0.634
0.616
0.566
0.342
0.335
0.588
0.404
0.494
0.267
0.672
0.588
0.569
0.671
0.276
0.069
0.560
0.108
0.430
0.404
0.455
0.636
0.469
0.446
0.712
0.372
0.658
0.242
0.592
0.313
0.455
0.135
0.679
0.486
0.679
0.463
0.568
0.494
0.320
0.143
0.335
0.244
0.671
0.630
0.447
0.130
0.404
0.672
0.576
0.634
0.445
0.413
0.320
0.495
0.679
0.510
0.502
0.588
0.684
0.605
0.308
0.437
0.605
0.478
0.258
0.486
0.679
0.520
0.610
0.455
0.416
0.480
0.335
0.498
0.560
0.566
0.258
0.320
0.116
0.543
0.672
0.610
0.307
0.320
0.537
0.295
0.510
0.116
0.588
0.519
0.478
0.620
0.480
0.555
0.610
0.469
0.463
0.286
0.488
0.455
0.601
0.360
0.320
0.455
0.455
0.568
0.662
0.492
0.633
0.634
0.568
0.320
0.432
0.554
0.515
0.628
0.519
0.413
0.306
0.588
0.450
0.526
0.499
0.476
0.378
0.478
0.473
0.326
0.447
0.679
0.588
0.421
0.502
0.638
0.215
0.321
0.258
0.515
0.679
0.620
0.559
0.382
0.337
0.865
0.392
0.588
0.340
0.463
0.559
0.182
0.335
0.414
0.495
0.537
0.320
0.335
0.509
0.575
0.372
0.266
0.588
0.466
0.537
0.508
0.307
0.450
0.634
0.399
0.475
0.498
0.502
0.175
0.135
0.557
0.430
0.520
0.417
0.231
0.626
0.559
0.519
0.554
0.262
0.502
0.588
0.419
0.313
0.543
0.679
0.588
0.576
0.543
0.512
0.431
0.588
0.476
0.483
0.342
0.263
0.510
0.654
0.519
0.447
0.338
0.630
0.396
0.526
0.197
0.634
0.537
0.477
0.521
0.519
0.593
0.559
0.576
0.258
0.307
0.568
0.628
0.712
0.286
0.379
0.649
0.520
0.358
0.335
0.259
0.559
0.489
0.358
0.459
0.471
0.632
0.880
0.374
0.588
0.512
0.473
0.476
0.510
0.459
0.588
0.543
0.559
0.588
0.414
0.628
0.354
0.193
0.332
0.277
0.634
0.639
0.664
0.587
0.498
0.620
0.474
0.629
0.517
0.573
0.157
0.491
0.392
0.538
0.536
0.526
0.524
0.453
0.524
0.893
0.353
0.288
0.244
0.499
0.608
0.897
0.528
0.570
0.524
0.330
0.480
0.422
0.619
0.472
0.392
0.619
0.554
0.621
0.447
0.490
0.368
0.564
0.613
0.454
0.335
0.511
0.472
0.474
0.476
0.528
0.416
0.529
0.418
0.517
0.291
0.621
0.500
0.514
0.864
0.534
0.621
0.652
0.472
0.368
0.429
0.751
0.617
0.525
0.553
0.807
0.591
0.475
0.611
0.529
0.524
0.472
0.401
0.563
0.483
0.539
0.517
0.517
0.596
0.528
0.525
0.524
0.526
0.472
0.374
0.475
0.481
0.734
0.585
0.578
0.440
0.567
0.472
0.428
0.496
0.501
0.484
0.444
0.216
0.472
0.454
0.449
0.475
0.566
0.449
0.617
0.543
0.620
0.449
0.524
0.504
0.425
0.443
0.621
0.376
0.475
0.508
0.352
0.565
0.434
0.352
0.475
0.508
0.524
0.492
0.465
0.620
0.457
0.512
0.583
0.621
0.512
0.524
0.621
0.496
0.621
0.463
0.266
0.444
0.482
0.583
0.639
0.495
0.357
0.474
0.503
0.621
0.475
0.362
0.352
0.508
0.398
0.620
0.528
0.952
0.544
0.605
0.402
0.512
0.587
0.619
0.492
0.421
0.324
0.389
0.463
0.576
0.579
0.492
0.489
0.421
0.455
0.585
0.430
0.569
0.488
0.615
0.619
0.475
0.528
0.473
0.561
0.543
0.489
0.504
0.528
0.450
0.422
0.621
0.454
0.621
0.871
0.501
0.494
0.489
0.331
0.583
0.493
0.620
0.442
0.447
0.462
0.621
0.479
0.749
0.566
0.514
0.562
0.524
0.524
0.583
0.496
0.529
0.420
0.490
0.398
0.587
0.620
0.474
0.530
0.271
0.515
0.621
0.536
0.583
0.584
0.361
0.352
0.528
0.453
0.524
0.512
0.354
0.536
0.463
0.734
0.906
0.444
0.885
0.474
0.540
0.485
0.525
0.512
0.422
0.510
0.585
0.409
0.528
0.460
0.485
0.526
0.368
0.642
0.528
0.352
0.620
0.408
0.528
0.529
0.254
0.392
0.246
0.528
0.472
0.525
0.390
0.489
0.615
0.452
0.611
0.566
0.585
0.504
0.515
0.464
0.331
0.472
0.616
0.523
0.519
0.418
0.492
0.441
0.506
0.477
0.465
0.566
0.611
0.625
0.620
0.528
0.443
0.429
0.536
0.507
0.463
0.239
0.620
0.524
0.620
0.390
0.700
0.529
0.557
0.414
0.319
0.619
0.416
0.266
0.390
0.500
0.601
0.508
0.465
0.622
0.514
0.481
0.529
0.350
0.619
0.472
0.482
0.513
0.621
0.621
0.514
0.524
0.474
0.484
0.502
0.243
0.587
0.507
0.548
0.444
0.585
0.508
0.505
0.335
0.525
0.422
0.541
0.492
0.430
0.615
0.526
0.564
0.621
0.427
0.507
0.642
0.361
0.584
0.357
0.493
0.465
0.566
0.554
0.493
0.579
0.390
0.621
0.620
0.443
0.573
0.500
0.422
0.507
0.486
0.441
0.422
0.528
0.528
0.529
0.117
0.846
0.574
0.392
0.506
0.524
0.465
0.512
0.721
0.736
0.463
0.620
0.506
0.456
0.409
0.368
0.621
0.500
0.381
0.368
0.330
0.443
0.474
0.516
0.619
0.454
0.527
0.621
0.475
0.343
0.519
0.536
0.402
0.524
0.527
0.566
0.797
0.445
0.485
0.524
0.564
0.595
0.613
0.622
0.529
0.527
0.529
0.526
0.579
0.620
0.621
0.619
0.391
0.567
0.416
0.611
0.677
0.480
0.430
0.290
0.619
0.621
0.513
0.610
0.472
0.172
0.455
0.536
0.463
0.401
0.562
0.416
0.429
0.401
0.508
0.487
0.528
0.262
0.871
0.475
0.529
0.444
0.474
0.492
0.621
0.474
0.621
0.583
0.484
0.340
0.491
0.548
0.587
0.504
0.652
0.583
0.617
0.610
0.445
0.624
0.511
0.484
0.620
0.515
0.442
0.416
0.500
0.548
0.392
0.524
0.402
0.476
0.451
0.715
0.463
0.472
0.608
0.492
0.421
0.621
0.620
0.475
0.433
0.365
0.352
0.463
0.533
0.620
0.491
0.473
0.538
0.498
0.541
0.422
0.953
0.594
0.583
0.579
0.548
0.472
0.494
0.420
0.349
0.366
0.583
0.514
0.356
0.676
0.414
0.586
0.621
0.524
0.566
0.609
0.541
0.474
0.528
0.548
0.492
0.513
0.477
0.914
0.713
0.462
0.335
0.416
0.361
0.697
0.621
0.350
0.510
0.443
0.290
0.586
0.475
0.508
0.512
0.432
0.524
0.592
0.528
0.617
0.521
0.492
0.429
0.493
0.479
0.423
0.427
0.450
0.555
0.443
0.476
0.346
0.451
0.496
0.728
0.527
0.371
0.474
0.538
0.529
0.529
0.393
0.548
0.507
0.498
0.601
0.154
0.374
0.538
0.621
0.422
0.508
0.051
0.621
0.566
0.475
0.565
0.528
0.502
0.403
0.621
0.642
0.545
0.413
0.507
0.401
0.507
0.620
0.496
0.462
0.620
0.398
0.225
0.405
0.548
0.620
0.611
0.392
0.288
0.534
0.474
0.524
0.432
0.620
0.160
0.335
0.524
0.485
0.890
0.621
0.421
0.120
0.475
0.352
0.474
0.534
0.694
0.621
0.465
0.645
0.608
0.510
0.479
0.923
0.508
0.615
0.515
0.564
0.159
0.504
0.508
0.651
0.462
0.484
0.853
0.736
0.923
0.583
0.736
0.397
0.529
0.508
0.553
0.828
0.499
0.402
0.625
0.608
0.631
0.429
0.622
0.666
0.861
0.480
0.630
0.687
0.553
0.422
0.299
0.529
0.505
0.417
0.625
0.343
0.551
0.495
0.529
0.444
0.237
0.789
0.646
0.504
0.651
0.492
0.529
0.303
0.769
0.514
0.721
0.354
0.330
0.536
0.714
0.659
0.422
0.508
0.583
0.600
0.373
0.666
0.352
0.624
0.514
0.515
0.462
0.720
0.544
0.599
0.621
0.462
0.928
0.524
0.489
0.588
0.349
0.459
0.767
0.485
0.666
0.588
0.237
0.713
0.503
0.566
0.589
0.526
0.427
0.452
0.630
0.427
0.465
0.504
0.621
0.582
0.785
0.621
0.613
0.457
0.715
0.507
0.621
0.806
0.190
0.639
0.953
0.510
0.870
0.393
0.836
0.628
0.598
0.532
0.528
0.802
0.922
0.513
0.462
0.515
0.504
0.734
0.393
0.474
0.478
0.193
0.666
0.402
0.719
0.472
0.475
0.875
0.416
0.529
0.503
0.469
0.528
0.593
0.548
0.566
0.462
0.494
0.449
0.507
0.508
0.303
0.625
0.273
0.615
0.879
0.909
0.623
0.515
0.869
0.457
0.931
0.529
0.566
0.522
0.504
0.330
0.504
0.642
0.721
0.614
0.928
0.864
0.732
0.492
0.642
0.330
0.574
0.826
0.866
0.559
0.480
0.313
0.511
0.524
0.421
0.529
0.548
0.838
0.625
0.734
0.474
0.841
0.953
0.867
0.631
0.544
0.928
0.374
0.860
0.875
0.746
0.529
0.557
0.608
0.910
0.894
0.472
0.583
0.427
0.642
0.548
0.887
0.548
0.472
0.765
0.555
0.472
0.620
0.928
0.528
0.389
0.438
0.621
0.666
0.365
0.529
0.801
0.661
0.462
0.529
0.642
0.666
0.500
0.875
0.496
0.588
0.871
0.617
0.510
0.666
0.529
0.566
0.541
0.710
0.512
0.914
0.545
0.566
0.425
0.514
0.666
0.684
0.528
0.516
0.446
0.817
0.610
0.131
0.451
0.876
0.548
0.800
0.664
0.901
0.528
0.579
0.628
0.183
0.508
0.631
0.952
0.666
0.608
0.781
0.927
0.483
0.421
0.120
0.570
0.588
0.548
0.599
0.588
0.866
0.475
0.524
0.548
0.109
0.907
0.455
0.614
0.409
0.877
0.577
0.796
0.529
0.512
0.512
0.690
0.809
0.475
0.486
0.449
0.529
0.451
0.610
0.480
0.352
0.480
0.386
0.331
0.425
0.554
0.257
0.566
0.885
0.722
0.582
0.621
0.493
0.525
0.472
0.512
0.928
0.579
0.472
0.574
0.536
0.472
0.392
0.528
0.536
0.449
0.875
0.519
0.399
0.529
0.621
0.721
0.886
0.505
0.666
0.909
0.444
0.621
0.462
0.289
0.350
0.802
0.760
0.428
0.851
0.426
0.621
0.912
0.952
0.503
0.631
0.631
0.691
0.508
0.508
0.651
0.465
0.736
0.642
0.896
0.632
0.514
0.642
0.855
0.723
0.900
0.584
0.614
0.474
0.864
0.621
0.500
0.666
0.796
0.206
0.529
0.553
0.928
0.512
0.242
0.699
0.511
0.731
0.451
0.475
0.579
0.504
0.887
0.584
0.673
0.416
0.536
0.621
0.892
0.664
0.613
0.640
0.526
0.579
0.467
0.615
0.844
0.781
0.512
0.587
0.524
0.873
0.621
0.509
0.193
0.343
0.579
0.565
0.352
0.397
0.527
0.346
0.621
0.566
0.786
0.462
0.891
0.352
0.548
0.343
0.216
0.800
0.539
0.621
0.667
0.870
0.480
0.828
0.600
0.478
0.811
0.237
0.504
0.303
0.352
0.554
0.651
0.619
0.508
0.492
0.330
0.462
0.882
0.565
0.493
0.383
0.480
0.529
0.423
0.504
0.432
0.529
0.237
0.462
0.621
0.526
0.609
0.696
0.878
0.613
0.492
0.609
0.497
0.444
0.858
0.431
0.621
0.642
0.548
0.809
0.538
0.493
0.464
0.529
0.528
0.642
0.451
0.548
0.624
0.512
0.529
0.865
0.570
0.702
0.398
0.625
0.157
0.621
0.610
0.479
0.514
0.595
0.348
0.342
0.492
0.909
0.730
0.904
0.476
0.515
0.444
0.586
0.462
0.464
0.721
0.548
0.724
0.504
0.529
0.728
0.444
0.621
0.677
0.395
0.509
0.650
0.858
0.697
0.623
0.619
0.343
0.409
0.529
0.441
0.865
0.529
0.623
0.579
0.601
0.602
0.514
0.536
0.514
0.548
0.479
0.621
0.566
0.391
0.474
0.642
0.629
0.351
0.736
0.894
0.444
0.870
0.529
0.666
0.514
0.928
0.600
0.928
0.350
0.508
0.621
0.866
0.579
0.462
0.392
0.490
0.472
0.566
0.644
0.528
0.529
0.508
0.526
0.871
0.474
0.417
0.489
0.368
0.543
0.623
0.485
0.621
0.501
0.423
0.504
0.500
0.503
0.698
0.516
0.887
0.524
0.713
0.887
0.796
0.914
0.836
0.444
0.422
0.485
0.540
0.401
0.465
0.600
0.462
0.416
0.529
0.666
0.251
0.721
0.535
0.363
0.352
0.894
0.330
0.330
0.629
0.545
0.395
0.566
0.576
0.507
0.423
0.611
0.422
0.621
0.475
0.444
0.504
0.392
0.409
0.385
0.422
0.500
0.463
0.515
0.517
0.620
0.471
0.528
0.529
0.621
0.370
0.428
0.475
0.529
0.330
0.504
0.536
0.237
0.574
0.523
0.352
0.343
0.475
0.508
0.529
0.524
0.465
0.587
0.508
0.526
0.504
0.475
0.527
0.473
0.343
0.466
0.379
0.516
0.154
0.335
0.476
0.524
0.395
0.554
0.625
0.536
0.516
0.421
0.482
0.462
0.422
0.421
0.528
0.343
0.475
0.349
0.621
0.415
0.331
0.608
0.508
0.409
0.449
0.480
0.517
0.343
0.524
0.517
0.374
0.538
0.369
0.511
0.120
0.576
0.534
0.444
0.533
0.462
0.330
0.496
0.480
0.432
0.504
0.187
0.583
0.528
0.474
0.126
0.303
0.319
0.526
0.308
0.538
0.382
0.621
0.432
0.514
0.610
0.585
0.335
0.524
0.167
0.425
0.374
0.428
0.566
0.493
0.513
0.475
0.528
0.304
0.375
0.510
0.508
0.422
0.051
0.528
0.514
0.298
0.584
0.583
0.441
0.621
0.538
0.492
0.529
0.557
0.428
0.512
0.619
0.465
0.426
0.528
0.390
0.515
0.462
0.584
0.370
0.333
0.336
0.508
0.508
0.444
0.343
0.555
0.897
0.528
0.512
0.462
0.422
0.444
0.508
0.395
0.504
0.529
0.467
0.564
0.480
0.566
0.610
0.272
0.120
0.529
0.478
0.576
0.524
0.383
0.444
0.463
0.514
0.147
0.352
0.422
0.234
0.529
0.619
0.238
0.558
0.494
0.524
0.398
0.609
0.437
0.472
0.472
0.429
0.351
0.312
0.311
0.330
0.425
0.617
0.427
0.428
0.369
0.474
0.444
0.462
0.468
0.471
0.514
0.510
0.515
0.133
0.546
0.512
0.157
0.621
0.422
0.500
0.529
0.264
0.462
0.557
0.500
0.504
0.474
0.192
0.537
0.432
0.480
0.402
0.389
0.472
0.095
0.471
0.510
0.405
0.621
0.486
0.449
0.257
0.546
0.524
0.330
0.537
0.567
0.617
0.391
0.508
0.492
0.448
0.352
0.417
0.462
0.578
0.504
0.500
0.512
0.515
0.339
0.621
0.451
0.595
0.330
0.528
0.159
0.621
0.428
0.680
0.528
0.352
0.409
0.472
0.492
0.472
0.528
0.494
0.460
0.395
0.529
0.480
0.350
0.258
0.529
0.509
0.474
0.613
0.528
0.554
0.621
0.475
0.504
0.428
0.548
0.524
0.387
0.519
0.421
0.368
0.611
0.596
0.195
0.609
0.447
0.524
0.478
0.331
0.304
0.493
0.574
0.426
0.556
0.489
0.351
0.566
0.504
0.510
0.291
0.421
0.472
0.543
0.500
0.581
0.510
0.514
0.407
0.514
0.427
0.508
0.398
0.376
0.792
0.529
0.403
0.515
0.682
0.632
0.516
0.512
0.402
0.586
0.423
0.451
0.678
0.428
0.465
0.504
0.511
0.492
0.474
0.510
0.126
0.475
0.500
0.500
0.584
0.564
0.603
0.543
0.471
0.475
0.462
0.428
0.466
0.391
0.524
0.620
0.444
0.518
0.462
0.515
0.523
0.524
0.508
0.528
0.393
0.462
0.521
0.508
0.500
0.428
0.469
0.624
0.514
0.468
0.512
0.474
0.529
0.512
0.621
0.110
0.514
0.508
0.129
0.529
0.465
0.610
0.525
0.527
0.465
0.510
0.350
0.514
0.621
0.477
0.288
0.208
0.577
0.428
0.082
0.509
0.552
0.509
0.343
0.156
0.352
0.529
0.512
0.524
0.497
0.238
0.528
0.534
0.371
0.480
0.475
0.524
0.389
0.398
0.449
0.546
0.442
0.489
0.513
0.193
0.524
0.444
0.343
0.491
0.519
0.504
0.508
0.120
0.294
0.287
0.732
0.373
0.508
0.375
0.398
0.190
0.366
0.593
0.513
0.398
0.462
0.345
0.501
0.392
0.534
0.495
0.524
0.465
0.427
0.524
0.422
0.508
0.120
0.508
0.475
0.500
0.621
0.527
0.584
0.126
0.620
0.462
0.512
0.425
0.529
0.485
0.475
0.504
0.448
0.382
0.517
0.587
0.429
0.489
0.465
0.362
0.553
0.582
0.642
0.340
0.639
0.527
0.409
0.426
0.507
0.128
0.455
0.524
0.489
0.508
0.350
0.406
0.642
0.475
0.237
0.515
0.565
0.508
0.435
0.143
0.134
0.472
0.122
0.429
0.928
0.343
0.529
0.526
0.625
0.216
0.621
0.492
0.396
0.392
0.508
0.504
0.480
0.496
0.428
0.481
0.566
0.640
0.475
0.397
0.397
0.051
0.288
0.465
0.448
0.426
0.461
0.621
0.392
0.371
0.515
0.077
0.565
0.267
0.374
0.504
0.474
0.475
0.485
0.524
0.596
0.193
0.448
0.462
0.424
0.361
0.621
0.484
0.529
0.109
0.524
0.529
0.526
0.897
0.445
0.525
0.492
0.080
0.398
0.421
0.546
0.361
0.485
0.528
0.508
0.335
0.296
0.382
0.512
0.352
0.368
0.154
0.473
0.641
0.517
0.524
0.395
0.429
0.459
0.354
0.245
0.508
0.414
0.095
0.388
0.524
0.529
0.536
0.529
0.600
0.411
0.144
0.374
0.439
0.621
0.511
0.350
0.082
0.514
0.368
0.529
0.474
0.516
0.583
0.524
0.621
0.460
0.432
0.159
0.432
0.368
0.190
0.612
0.353
0.586
0.375
0.529
0.524
0.449
0.330
0.583
0.620
0.541
0.417
0.462
0.444
0.465
0.515
0.460
0.352
0.389
0.500
0.512
0.433
0.330
0.465
0.560
0.529
0.528
0.566
0.465
0.364
0.480
0.190
0.492
0.513
0.369
0.529
0.281
0.444
0.516
0.352
0.548
0.401
0.426
0.389
0.528
0.584
0.493
0.126
0.536
0.350
0.244
0.621
0.422
0.272
0.258
0.639
0.427
0.257
0.631
0.593
0.529
0.095
0.352
0.615
0.579
0.475
0.515
0.462
0.117
0.413
0.736
0.492
0.474
0.154
0.352
0.463
0.398
0.555
0.339
0.585
0.514
0.529
0.455
0.529
0.126
0.362
0.515
0.351
0.584
0.529
0.625
0.231
0.572
0.503
0.565
0.257
0.610
0.529
0.294
0.529
0.351
0.463
0.445
0.471
0.343
0.319
0.409
0.475
0.731
0.493
0.343
0.357
0.514
0.465
0.508
0.598
0.587
0.465
0.144
0.563
0.734
0.330
0.642
0.472
0.492
0.375
0.479
0.493
0.606
0.389
0.472
0.524
0.289
0.529
0.642
0.548
0.479
0.515
0.625
0.120
0.510
0.529
0.606
0.500
0.189
0.524
0.543
0.189
0.480
0.431
0.621
0.463
0.368
0.504
0.462
0.566
0.422
0.480
0.109
0.465
0.524
0.583
0.495
0.613
0.342
0.054
0.621
0.081
0.885
0.422
0.579
0.392
0.606
0.650
0.450
0.501
0.444
0.522
0.196
0.448
0.358
0.534
0.370
0.620
0.461
0.529
0.508
0.625
0.625
0.496
0.493
0.421
0.463
0.512
0.606
0.528
0.610
0.395
0.721
0.491
0.600
0.474
0.584
0.337
0.533
0.610
0.529
0.528
0.537
0.382
0.514
0.343
0.529
0.524
0.510
0.254
0.564
0.415
0.480
0.500
0.472
0.498
0.472
0.472
0.492
0.513
0.460
0.512
0.707
0.352
0.630
0.465
0.472
0.444
0.573
0.272
0.600
0.560
0.560
0.343
0.512
0.392
0.529
0.534
0.081
0.621
0.675
0.485
0.455
0.736
0.621
0.120
0.524
0.529
0.335
0.587
0.579
0.621
0.500
0.475
0.475
0.492
0.392
0.480
0.430
0.421
0.237
0.524
0.510
0.621
0.574
0.879
0.672
0.405
0.383
0.464
0.540
0.502
0.409
0.732
0.462
0.474
0.797
0.874
0.330
0.120
0.475
0.516
0.448
0.508
0.301
0.529
0.611
0.528
0.485
0.428
0.583
0.257
0.375
0.733
0.330
0.511
0.529
0.399
0.421
0.610
0.529
0.524
0.343
0.109
0.463
0.398
0.276
0.350
0.528
0.499
0.370
0.519
0.366
0.418
0.529
0.398
0.441
0.575
0.330
0.462
0.361
0.340
0.459
0.475
0.291
0.584
0.599
0.231
0.351
0.621
0.518
0.524
0.512
0.474
0.466
0.549
0.352
0.492
0.564
0.510
0.525
0.355
0.445
0.404
0.524
0.465
0.610
0.463
0.396
0.464
0.504
0.402
0.352
0.529
0.519
0.462
0.584
0.504
0.721
0.398
0.503
0.252
0.741
0.370
0.444
0.462
0.395
0.351
0.109
0.625
0.272
0.573
0.376
0.347
0.508
0.342
0.472
0.245
0.529
0.593
0.374
0.472
0.427
0.471
0.535
0.352
0.257
0.493
0.155
0.464
0.615
0.371
0.343
0.189
0.370
0.425
0.422
0.340
0.510
0.109
0.157
0.589
0.335
0.614
0.504
0.612
0.422
0.512
0.504
0.099
0.529
0.295
0.398
0.524
0.613
0.303
0.157
0.610
0.465
0.625
0.451
0.449
0.343
0.377
0.576
0.463
0.529
0.508
0.343
0.422
0.610
0.734
0.530
0.552
0.587
0.428
0.600
0.417
0.566
0.422
0.524
0.485
0.422
0.352
0.343
0.191
0.588
0.367
0.526
0.554
0.585
0.512
0.358
0.531
0.566
0.144
0.444
0.529
0.352
0.734
0.309
0.286
0.352
0.536
0.428
0.343
0.463
0.448
0.623
0.542
0.621
0.463
0.501
0.303
0.548
0.709
0.537
0.352
0.510
0.359
0.504
0.391
0.528
0.577
0.889
0.528
0.536
0.625
0.257
0.463
0.391
0.587
0.416
0.376
0.875
0.621
0.384
0.422
0.475
0.621
0.621
0.621
0.420
0.306
0.585
0.469
0.338
0.621
0.496
0.368
0.552
0.448
0.399
0.512
0.657
0.428
0.272
0.445
0.425
0.343
0.259
0.529
0.257
0.610
0.260
0.508
0.528
0.352
0.536
0.237
0.495
0.503
0.642
0.557
0.311
0.262
0.080
0.313
0.500
0.471
0.548
0.621
0.398
0.524
0.514
0.736
0.474
0.542
0.463
0.350
0.500
0.463
0.610
0.380
0.429
0.239
0.568
0.357
0.109
0.545
0.529
0.492
0.438
0.190
0.621
0.352
0.409
0.409
0.392
0.621
0.605
0.361
0.843
0.529
0.492
0.523
0.555
0.237
0.157
0.338
0.419
0.126
0.445
0.469
0.953
0.440
0.373
0.529
0.529
0.613
0.504
0.121
0.257
0.373
0.077
0.157
0.506
0.478
0.477
0.522
0.486
0.610
0.538
0.522
0.862
0.450
0.510
0.240
0.470
0.499
0.391
0.477
0.450
0.573
0.496
0.522
0.491
0.391
0.478
0.519
0.700
0.935
0.391
0.491
0.514
0.438
0.548
0.474
0.610
0.538
0.610
0.477
0.543
0.414
0.536
0.531
0.331
0.495
0.375
0.435
0.499
0.603
0.518
0.292
0.412
0.610
0.522
0.524
0.493
0.538
0.434
0.413
0.433
0.479
0.506
0.538
0.413
0.610
0.610
0.521
0.856
0.392
0.438
0.560
0.518
0.610
0.466
0.447
0.517
0.059
0.516
0.581
0.355
0.391
0.325
0.413
0.399
0.492
0.603
0.499
0.603
0.535
0.478
0.524
0.473
0.538
0.522
0.532
0.295
0.612
0.610
0.538
0.522
0.512
0.479
0.333
0.646
0.228
0.560
0.610
0.462
0.323
0.504
0.486
0.431
0.548
0.542
0.502
0.519
0.607
0.610
0.460
0.264
0.350
0.509
0.593
0.524
0.610
0.548
0.509
0.463
0.603
0.496
0.381
0.477
0.572
0.525
0.401
0.610
0.374
0.607
0.548
0.555
0.491
0.610
0.610
0.512
0.559
0.374
0.495
0.610
0.451
0.422
0.533
0.559
0.312
0.645
0.493
0.538
0.610
0.509
0.375
0.368
0.610
0.284
0.495
0.555
0.493
0.518
0.538
0.464
0.619
0.535
0.471
0.493
0.433
0.492
0.493
0.506
0.337
0.424
0.470
0.652
0.610
0.538
0.528
0.371
0.524
0.537
0.630
0.538
0.614
0.538
0.398
0.560
0.610
0.538
0.521
0.492
0.516
0.433
0.610
0.496
0.380
0.518
0.530
0.572
0.449
0.491
0.861
0.522
0.427
0.643
0.494
0.365
0.538
0.397
0.737
0.344
0.499
0.610
0.369
0.499
0.525
0.861
0.522
0.606
0.767
0.464
0.610
0.610
0.529
0.572
0.379
0.510
0.381
0.381
0.477
0.518
0.520
0.610
0.394
0.496
0.518
0.381
0.510
0.279
0.534
0.505
0.522
0.652
0.342
0.535
0.474
0.252
0.764
0.522
0.455
0.493
0.613
0.481
0.398
0.334
0.245
0.511
0.415
0.609
0.455
0.613
0.516
0.392
0.478
0.610
0.516
0.537
0.544
0.451
0.130
0.652
0.503
0.481
0.535
0.516
0.535
0.499
0.492
0.469
0.547
0.477
0.326
0.369
0.603
0.558
0.390
0.862
0.521
0.516
0.272
0.509
0.509
0.425
0.491
0.538
0.478
0.486
0.537
0.491
0.474
0.493
0.495
0.848
0.610
0.538
0.426
0.514
0.603
0.610
0.516
0.499
0.528
0.499
0.538
0.469
0.375
0.629
0.524
0.478
0.492
0.509
0.610
0.394
0.610
0.496
0.305
0.338
0.610
0.395
0.455
0.538
0.499
0.334
0.378
0.522
0.344
0.250
0.305
0.470
0.522
0.462
0.402
0.486
0.512
0.509
0.380
0.512
0.522
0.610
0.435
0.495
0.479
0.470
0.390
0.455
0.523
0.472
0.537
0.519
0.398
0.548
0.392
0.522
0.288
0.568
0.453
0.594
0.462
0.519
0.543
0.436
0.610
0.364
0.319
0.610
0.610
0.850
0.860
0.469
0.444
0.613
0.518
0.490
0.516
0.369
0.492
0.402
0.422
0.402
0.641
0.610
0.455
0.412
0.396
0.610
0.454
0.457
0.516
0.381
0.553
0.477
0.538
0.603
0.442
0.560
0.610
0.492
0.548
0.496
0.524
0.538
0.538
0.495
0.610
0.538
0.305
0.630
0.499
0.624
0.481
0.464
0.610
0.499
0.671
0.518
0.634
0.610
0.610
0.568
0.462
0.610
0.560
0.519
0.538
0.106
0.512
0.538
0.544
0.848
0.495
0.610
0.493
0.662
0.603
0.538
0.522
0.496
0.665
0.444
0.662
0.463
0.603
0.511
0.500
0.509
0.548
0.538
0.346
0.538
0.284
0.504
0.464
0.485
0.512
0.538
0.420
0.543
0.494
0.561
0.289
0.552
0.524
0.644
0.496
0.509
0.610
0.486
0.610
0.260
0.479
0.610
0.260
0.516
0.287
0.480
0.469
0.610
0.522
0.413
0.133
0.463
0.367
0.918
0.610
0.510
0.522
0.338
0.530
0.610
0.610
0.450
0.548
0.450
0.444
0.610
0.495
0.548
0.624
0.435
0.603
0.402
0.519
0.538
0.538
0.548
0.133
0.538
0.244
0.394
0.367
0.318
0.391
0.610
0.610
0.422
0.429
0.470
0.474
0.520
0.582
0.519
0.522
0.559
0.560
0.220
0.524
0.522
0.499
0.610
0.478
0.564
0.512
0.478
0.537
0.539
0.524
0.522
0.522
0.516
0.543
0.522
0.538
0.179
0.610
0.538
0.610
0.524
0.464
0.610
0.631
0.486
0.478
0.509
0.512
0.344
0.610
0.647
0.502
0.466
0.630
0.458
0.538
0.484
0.260
0.706
0.144
0.470
0.369
0.511
0.260
0.533
0.541
0.612
0.860
0.603
0.573
0.560
0.560
0.509
0.389
0.518
0.430
0.538
0.465
0.521
0.512
0.610
0.433
0.451
0.522
0.795
0.610
0.244
0.603
0.398
0.288
0.630
0.543
0.538
0.543
0.548
0.152
0.512
0.522
0.494
0.449
0.499
0.538
0.610
0.442
0.443
0.703
0.370
0.435
0.525
0.908
0.462
0.402
0.496
0.543
0.594
0.496
0.548
0.464
0.538
0.381
0.504
0.610
0.540
0.631
0.337
0.517
0.657
0.613
0.305
0.562
0.530
0.610
0.591
0.536
0.389
0.537
0.351
0.413
0.560
0.796
0.571
0.455
0.399
0.644
0.522
0.782
0.606
0.402
0.464
0.610
0.375
0.630
0.505
0.862
0.935
0.644
0.410
0.536
0.786
0.637
0.594
0.594
0.422
0.247
0.832
0.538
0.542
0.442
0.315
0.305
0.305
0.861
0.935
0.568
0.559
0.450
0.644
0.542
0.538
0.846
0.703
0.318
0.680
0.594
0.434
0.403
0.569
0.644
0.795
0.679
0.496
0.559
0.402
0.512
0.585
0.466
0.556
0.462
0.610
0.466
0.516
0.512
0.444
0.462
0.680
0.912
0.607
0.433
0.464
0.637
0.573
0.408
0.770
0.797
0.499
0.538
0.443
0.648
0.496
0.350
0.538
0.607
0.579
0.888
0.662
0.610
0.391
0.429
0.288
0.637
0.462
0.630
0.613
0.573
0.610
0.569
0.442
0.827
0.455
0.413
0.665
0.433
0.493
0.305
0.525
0.244
0.578
0.490
0.389
0.708
0.538
0.768
0.610
0.516
0.715
0.543
0.511
0.466
0.473
0.394
0.525
0.379
0.305
0.548
0.518
0.610
0.495
0.560
0.569
0.538
0.521
0.399
0.624
0.554
0.489
0.578
0.504
0.593
0.522
0.391
0.560
0.603
0.493
0.525
0.603
0.450
0.138
0.935
0.505
0.562
0.459
0.487
0.461
0.370
0.518
0.610
0.548
0.560
0.602
0.935
0.525
0.630
0.538
0.630
0.397
0.723
0.607
0.594
0.560
0.548
0.352
0.568
0.686
0.642
0.603
0.910
0.713
0.512
0.473
0.580
0.603
0.645
0.518
0.559
0.606
0.846
0.485
0.367
0.915
0.560
0.395
0.932
0.496
0.478
0.518
0.843
0.549
0.604
0.504
0.571
0.538
0.447
0.247
0.475
0.862
0.630
0.450
0.861
0.538
0.499
0.610
0.106
0.846
0.569
0.680
0.552
0.630
0.613
0.391
0.843
0.464
0.495
0.518
0.610
0.466
0.350
0.907
0.496
0.370
0.634
0.559
0.610
0.574
0.548
0.286
0.514
0.483
0.499
0.935
0.478
0.603
0.369
0.630
0.573
0.492
0.613
0.496
0.680
0.559
0.613
0.391
0.460
0.496
0.536
0.721
0.442
0.589
0.538
0.479
0.548
0.538
0.610
0.537
0.559
0.481
0.441
0.594
0.499
0.510
0.581
0.630
0.391
0.435
0.536
0.603
0.560
0.569
0.499
0.453
0.516
0.613
0.548
0.630
0.512
0.435
0.516
0.499
0.516
0.630
0.774
0.538
0.603
0.320
0.402
0.473
0.474
0.610
0.683
0.442
0.566
0.641
0.509
0.561
0.644
0.464
0.331
0.800
0.548
0.594
0.512
0.594
0.518
0.844
0.538
0.442
0.610
0.509
0.518
0.512
0.542
0.442
0.639
0.429
0.553
0.516
0.801
0.486
0.579
0.594
0.489
0.466
0.375
0.512
0.630
0.603
0.573
0.464
0.623
0.512
0.516
0.390
0.561
0.414
0.478
0.559
0.610
0.443
0.548
0.437
0.610
0.897
0.450
0.613
0.534
0.819
0.610
0.878
0.495
0.499
0.594
0.513
0.391
0.918
0.559
0.464
0.286
0.516
0.724
0.464
0.779
0.538
0.638
0.603
0.630
0.607
0.603
0.512
0.462
0.782
0.422
0.823
0.661
0.455
0.482
0.509
0.538
0.548
0.544
0.434
0.862
0.610
0.488
0.375
0.538
0.827
0.522
0.610
0.846
0.512
0.560
0.538
0.603
0.564
0.512
0.369
0.550
0.460
0.560
0.473
0.560
0.464
0.493
0.518
0.453
0.538
0.570
0.538
0.767
0.751
0.861
0.573
0.496
0.613
0.561
0.505
0.860
0.559
0.305
0.850
0.435
0.562
0.560
0.509
0.443
0.935
0.326
0.755
0.858
0.935
0.594
0.762
0.552
0.911
0.610
0.861
0.399
0.538
0.846
0.496
0.496
0.543
0.447
0.478
0.486
0.518
0.611
0.331
0.472
0.499
0.446
0.496
0.518
0.763
0.610
0.538
0.326
0.509
0.512
0.935
0.569
0.502
0.512
0.448
0.495
0.379
0.486
0.510
0.617
0.634
0.525
0.538
0.455
0.642
0.610
0.567
0.630
0.433
0.375
0.219
0.503
0.539
0.433
0.466
0.538
0.509
0.394
0.603
0.935
0.452
0.512
0.538
0.749
0.538
0.561
0.850
0.848
0.548
0.323
0.486
0.613
0.516
0.381
0.509
0.560
0.391
0.630
0.587
0.610
0.489
0.518
0.469
0.913
0.935
0.512
0.516
0.449
0.464
0.594
0.766
0.496
0.397
0.559
0.548
0.486
0.610
0.607
0.538
0.608
0.680
0.389
0.480
0.935
0.423
0.133
0.514
0.496
0.450
0.391
0.523
0.730
0.616
0.394
0.518
0.610
0.381
0.264
0.554
0.538
0.703
0.543
0.662
0.511
0.391
0.915
0.511
0.429
0.861
0.613
0.548
0.518
0.539
0.753
0.391
0.527
0.538
0.522
0.610
0.610
0.369
0.618
0.769
0.375
0.331
0.538
0.591
0.305
0.613
0.630
0.847
0.862
0.538
0.603
0.648
0.326
0.536
0.610
0.603
0.496
0.935
0.473
0.478
0.859
0.630
0.680
0.493
0.455
0.247
0.538
0.391
0.463
0.516
0.548
0.367
0.496
0.630
0.594
0.425
0.391
0.512
0.609
0.610
0.470
0.433
0.620
0.346
0.538
0.237
0.494
0.516
0.342
0.284
0.375
0.466
0.537
0.569
0.522
0.448
0.133
0.499
0.350
0.175
0.320
0.496
0.137
0.305
0.402
0.331
0.518
0.478
0.415
0.512
0.537
0.402
0.559
0.508
0.538
0.496
0.339
0.367
0.610
0.247
0.509
0.430
0.565
0.433
0.392
0.464
0.538
0.328
0.603
0.286
0.493
0.538
0.325
0.408
0.130
0.364
0.375
0.478
0.607
0.522
0.402
0.325
0.501
0.535
0.423
0.325
0.538
0.499
0.369
0.603
0.260
0.501
0.610
0.393
0.050
0.512
0.512
0.209
0.512
0.524
0.465
0.512
0.496
0.496
0.547
0.594
0.536
0.610
0.613
0.398
0.419
0.434
0.477
0.612
0.167
0.630
0.389
0.467
0.464
0.358
0.442
0.581
0.410
0.433
0.512
0.375
0.935
0.342
0.559
0.594
0.472
0.412
0.446
0.522
0.224
0.514
0.433
0.538
0.538
0.451
0.455
0.214
0.441
0.492
0.331
0.610
0.381
0.449
0.512
0.538
0.392
0.288
0.506
0.630
0.464
0.478
0.548
0.610
0.450
0.444
0.492
0.560
0.399
0.477
0.630
0.548
0.470
0.462
0.322
0.181
0.390
0.512
0.509
0.538
0.548
0.162
0.464
0.317
0.512
0.396
0.535
0.327
0.561
0.447
0.478
0.474
0.486
0.450
0.567
0.536
0.610
0.610
0.426
0.607
0.476
0.464
0.560
0.610
0.496
0.518
0.537
0.433
0.524
0.603
0.375
0.485
0.496
0.481
0.402
0.493
0.547
0.462
0.308
0.434
0.543
0.450
0.321
0.507
0.543
0.462
0.560
0.534
0.473
0.402
0.584
0.935
0.399
0.394
0.610
0.512
0.486
0.478
0.311
0.470
0.200
0.533
0.512
0.538
0.411
0.475
0.168
0.507
0.237
0.559
0.496
0.610
0.467
0.504
0.474
0.425
0.463
0.308
0.560
0.548
0.391
0.451
0.474
0.496
0.525
0.442
0.389
0.429
0.662
0.661
0.510
0.398
0.499
0.568
0.543
0.568
0.548
0.398
0.391
0.543
0.451
0.416
0.475
0.369
0.422
0.496
0.540
0.462
0.603
0.610
0.260
0.524
0.473
0.518
0.481
0.522
0.253
0.535
0.606
0.430
0.512
0.442
0.402
0.464
0.496
0.442
0.609
0.539
0.486
0.607
0.454
0.509
0.379
0.489
0.613
0.402
0.354
0.250
0.433
0.538
0.350
0.612
0.515
0.533
0.408
0.607
0.346
0.372
0.567
0.464
0.442
0.486
0.630
0.551
0.559
0.391
0.327
0.232
0.573
0.559
0.274
0.398
0.478
0.680
0.512
0.459
0.613
0.402
0.524
0.486
0.447
0.480
0.223
0.518
0.464
0.481
0.433
0.516
0.450
0.492
0.398
0.512
0.564
0.561
0.559
0.464
0.472
0.462
0.559
0.391
0.492
0.342
0.449
0.479
0.610
0.573
0.464
0.331
0.851
0.442
0.450
0.512
0.522
0.610
0.484
0.489
0.512
0.367
0.538
0.680
0.433
0.573
0.543
0.309
0.481
0.342
0.435
0.391
0.499
0.509
0.538
0.512
0.560
0.512
0.538
0.607
0.362
0.560
0.297
0.273
0.543
0.610
0.548
0.459
0.470
0.391
0.444
0.512
0.433
0.567
0.516
0.610
0.312
0.119
0.484
0.499
0.522
0.201
0.252
0.505
0.391
0.493
0.610
0.606
0.240
0.660
0.403
0.630
0.533
0.559
0.543
0.342
0.245
0.603
0.538
0.473
0.516
0.677
0.538
0.498
0.512
0.481
0.466
0.610
0.425
0.408
0.534
0.369
0.594
0.518
0.538
0.223
0.391
0.130
0.627
0.254
0.479
0.185
0.538
0.398
0.499
0.496
0.238
0.630
0.479
0.548
0.469
0.337
0.543
0.538
0.520
0.338
0.522
0.538
0.610
0.482
0.512
0.554
0.252
0.474
0.512
0.610
0.375
0.464
0.346
0.510
0.244
0.321
0.630
0.630
0.548
0.603
0.522
0.561
0.567
0.559
0.232
0.403
0.474
0.318
0.548
0.442
0.534
0.559
0.561
0.451
0.493
0.516
0.342
0.516
0.247
0.464
0.223
0.433
0.512
0.491
0.496
0.260
0.496
0.400
0.425
0.288
0.364
0.519
0.818
0.607
0.502
0.467
0.610
0.538
0.067
0.497
0.560
0.516
0.331
0.630
0.516
0.468
0.447
0.342
0.413
0.391
0.478
0.630
0.406
0.331
0.538
0.627
0.391
0.364
0.538
0.391
0.518
0.543
0.607
0.481
0.610
0.422
0.568
0.512
0.518
0.538
0.388
0.391
0.499
0.305
0.496
0.286
0.447
0.613
0.425
0.392
0.630
0.183
0.397
0.542
0.320
0.501
0.680
0.286
0.536
0.402
0.703
0.286
0.522
0.510
0.397
0.494
0.345
0.610
0.391
0.475
0.449
0.451
0.311
0.441
0.489
0.613
0.515
0.548
0.442
0.305
0.662
0.522
0.548
0.331
0.578
0.662
0.538
0.391
0.442
0.371
0.610
0.394
0.478
0.245
0.369
0.493
0.478
0.367
0.496
0.819
0.550
0.495
0.445
0.481
0.462
0.473
0.489
0.610
0.795
0.492
0.559
0.496
0.604
0.375
0.516
0.284
0.548
0.560
0.455
0.464
0.518
0.538
0.464
0.415
0.496
0.344
0.305
0.594
0.512
0.501
0.586
0.538
0.630
0.538
0.573
0.397
0.518
0.522
0.423
0.516
0.603
0.442
0.392
0.331
0.509
0.442
0.464
0.247
0.415
0.449
0.442
0.559
0.247
0.320
0.444
0.392
0.402
0.459
0.559
0.610
0.354
0.463
0.591
0.486
0.572
0.450
0.470
0.579
0.369
0.538
0.492
0.486
0.367
0.331
0.445
0.538
0.478
0.543
0.522
0.560
0.516
0.398
0.256
0.389
0.466
0.442
0.477
0.522
0.331
0.480
0.326
0.455
0.603
0.227
0.200
0.594
0.512
0.447
0.538
0.444
0.518
0.449
0.467
0.560
0.481
0.375
0.512
0.516
0.725
0.256
0.496
0.491
0.554
0.538
0.523
0.433
0.422
0.538
0.613
0.615
0.909
0.512
0.464
0.509
0.496
0.435
0.447
0.381
0.408
0.538
0.494
0.453
0.484
0.335
0.544
0.561
0.399
0.219
0.385
0.525
0.559
0.200
0.478
0.447
0.362
0.610
0.630
0.610
0.249
0.331
0.537
0.492
0.489
0.451
0.514
0.613
0.546
0.284
0.496
0.391
0.481
0.630
0.522
0.644
0.518
0.499
0.286
0.478
0.311
0.252
0.141
0.398
0.543
0.450
0.512
0.610
0.632
0.496
0.484
0.244
0.408
0.152
0.244
0.207
0.591
0.522
0.509
0.402
0.519
0.512
0.442
0.478
0.548
0.219
0.410
0.610
0.210
0.438
0.613
0.597
0.578
0.392
0.391
0.512
0.050
0.499
0.489
0.678
0.450
0.485
0.610
0.495
0.491
0.524
0.612
0.470
0.496
0.524
0.477
0.462
0.451
0.450
0.485
0.331
0.219
0.509
0.391
0.106
0.481
0.573
0.415
0.464
0.408
0.363
0.478
0.397
0.410
0.464
0.522
0.162
0.435
0.474
0.519
0.509
0.509
0.369
0.493
0.466
0.451
0.284
0.451
0.538
0.478
0.538
0.591
0.538
0.426
0.642
0.464
0.493
0.496
0.496
0.680
0.573
0.437
0.200
0.512
0.430
0.279
0.477
0.603
0.413
0.288
0.662
0.400
0.559
0.628
0.472
0.466
0.502
0.518
0.492
0.392
0.610
0.434
0.613
0.336
0.610
0.516
0.496
0.485
0.237
0.391
0.462
0.350
0.559
0.397
0.450
0.525
0.680
0.453
0.493
0.419
0.662
0.449
0.510
0.305
0.493
0.391
0.479
0.445
0.483
0.469
0.464
0.495
0.289
0.478
0.603
0.394
0.444
0.499
0.522
0.620
0.485
0.106
0.279
0.538
0.512
0.561
0.467
0.485
0.478
0.625
0.364
0.533
0.633
0.350
0.286
0.398
0.326
0.521
0.399
0.585
0.610
0.522
0.474
0.344
0.607
0.286
0.499
0.413
0.400
0.478
0.375
0.486
0.548
0.610
0.523
0.287
0.278
0.494
0.389
0.392
0.613
0.732
0.594
0.560
0.538
0.475
0.492
0.441
0.559
0.862
0.162
0.394
0.553
0.459
0.478
0.538
0.367
0.548
0.538
0.512
0.512
0.543
0.521
0.399
0.477
0.616
0.376
0.413
0.475
0.464
0.411
0.492
0.496
0.610
0.576
0.516
0.607
0.477
0.429
0.603
0.478
0.499
0.442
0.305
0.610
0.312
0.350
0.538
0.398
0.470
0.478
0.433
0.538
0.742
0.573
0.130
0.493
0.573
0.370
0.548
0.450
0.462
0.394
0.548
0.610
0.330
0.433
0.244
0.566
0.518
0.527
0.610
0.441
0.477
0.512
0.367
0.450
0.450
0.308
0.402
0.464
0.680
0.548
0.548
0.435
0.538
0.538
0.481
0.572
0.548
0.480
0.375
0.496
0.224
0.508
0.425
0.548
0.824
0.467
0.499
0.458
0.375
0.538
0.512
0.331
0.610
0.536
0.464
0.369
0.496
0.539
0.247
0.464
0.630
0.521
0.219
0.534
0.553
0.375
0.610
0.496
0.450
0.397
0.575
0.367
0.496
0.512
0.531
0.320
0.464
0.495
0.478
0.641
0.522
0.560
0.548
0.331
0.549
0.496
0.499
0.560
0.495
0.539
0.455
0.510
0.538
0.478
0.530
0.495
0.518
0.573
0.391
0.657
0.374
0.602
0.491
0.435
0.481
0.448
0.557
0.496
0.516
0.426
0.408
0.433
0.331
0.652
0.470
0.462
0.369
0.512
0.442
0.610
0.480
0.376
0.492
0.499
0.435
0.518
0.394
0.241
0.133
0.537
0.543
0.560
0.505
0.449
0.538
0.630
0.337
0.345
0.512
0.362
0.590
0.499
0.630
0.408
0.257
0.538
0.415
0.130
0.496
0.451
0.244
0.489
0.492
0.433
0.492
0.512
0.474
0.393
0.512
0.415
0.659
0.473
0.662
0.451
0.449
0.610
0.481
0.261
0.703
0.630
0.462
0.603
0.450
0.350
0.162
0.488
0.594
0.543
0.610
0.444
0.473
0.478
0.522
0.489
0.559
0.518
0.610
0.138
0.451
0.614
0.555
0.151
0.429
0.548
0.442
0.439
0.408
0.522
0.447
