start to construct computing graph
graph construct over
3803
epochs start
#iterations: 0
currently lose_sum: 0.6999508738517761
time_elpased: 2.624
#iterations: 1
currently lose_sum: 0.6880007982254028
time_elpased: 2.512
#iterations: 2
currently lose_sum: 0.6969839334487915
time_elpased: 2.533
#iterations: 3
currently lose_sum: 0.6896388530731201
time_elpased: 2.531
#iterations: 4
currently lose_sum: 0.6828787922859192
time_elpased: 2.551
#iterations: 5
currently lose_sum: 0.6912293434143066
time_elpased: 2.555
#iterations: 6
currently lose_sum: 0.6871950030326843
time_elpased: 2.507
#iterations: 7
currently lose_sum: 0.6892436146736145
time_elpased: 2.521
#iterations: 8
currently lose_sum: 0.6795574426651001
time_elpased: 2.532
#iterations: 9
currently lose_sum: 0.6861381530761719
time_elpased: 2.544
#iterations: 10
currently lose_sum: 0.6878223419189453
time_elpased: 2.494
#iterations: 11
currently lose_sum: 0.6942866444587708
time_elpased: 2.495
#iterations: 12
currently lose_sum: 0.6915479898452759
time_elpased: 2.574
#iterations: 13
currently lose_sum: 0.6736937165260315
time_elpased: 2.483
#iterations: 14
currently lose_sum: 0.6904035210609436
time_elpased: 2.524
#iterations: 15
currently lose_sum: 0.6908547878265381
time_elpased: 2.53
#iterations: 16
currently lose_sum: 0.6999974846839905
time_elpased: 2.499
#iterations: 17
currently lose_sum: 0.6724626421928406
time_elpased: 3.021
#iterations: 18
currently lose_sum: 0.7125120759010315
time_elpased: 2.567
#iterations: 19
currently lose_sum: 0.6943632364273071
time_elpased: 2.574
start validation test
0.5336
0.582113821138
0.282557221784
0.380446333688
0.53706125485
17.300
#iterations: 20
currently lose_sum: 0.6802293658256531
time_elpased: 1.88
#iterations: 21
currently lose_sum: 0.6837101578712463
time_elpased: 1.86
#iterations: 22
currently lose_sum: 0.6841890215873718
time_elpased: 2.043
#iterations: 23
currently lose_sum: 0.6761795282363892
time_elpased: 1.879
#iterations: 24
currently lose_sum: 0.684308648109436
time_elpased: 1.852
#iterations: 25
currently lose_sum: 0.6776897311210632
time_elpased: 1.901
#iterations: 26
currently lose_sum: 0.6787381172180176
time_elpased: 1.924
#iterations: 27
currently lose_sum: 0.6788463592529297
time_elpased: 1.887
#iterations: 28
currently lose_sum: 0.6730861067771912
time_elpased: 1.93
#iterations: 29
currently lose_sum: 0.6860891580581665
time_elpased: 1.838
#iterations: 30
currently lose_sum: 0.695322573184967
time_elpased: 1.935
#iterations: 31
currently lose_sum: 0.6886976361274719
time_elpased: 1.867
#iterations: 32
currently lose_sum: 0.6709679961204529
time_elpased: 1.894
#iterations: 33
currently lose_sum: 0.6867105960845947
time_elpased: 1.889
#iterations: 34
currently lose_sum: 0.6853765845298767
time_elpased: 1.871
#iterations: 35
currently lose_sum: 0.6664140224456787
time_elpased: 2.017
#iterations: 36
currently lose_sum: 0.6815124750137329
time_elpased: 1.884
#iterations: 37
currently lose_sum: 0.6775587201118469
time_elpased: 1.978
#iterations: 38
currently lose_sum: 0.7026411294937134
time_elpased: 2.092
#iterations: 39
currently lose_sum: 0.6840879917144775
time_elpased: 1.896
start validation test
0.5792
0.568777991043
0.701657458564
0.628268551237
0.577511616549
16.823
#iterations: 40
currently lose_sum: 0.6562740206718445
time_elpased: 2.077
#iterations: 41
currently lose_sum: 0.6560887098312378
time_elpased: 1.911
#iterations: 42
currently lose_sum: 0.6637132167816162
time_elpased: 1.875
#iterations: 43
currently lose_sum: 0.6580970883369446
time_elpased: 2.25
#iterations: 44
currently lose_sum: 0.6574047803878784
time_elpased: 2.211
#iterations: 45
currently lose_sum: 0.6790107488632202
time_elpased: 1.891
#iterations: 46
currently lose_sum: 0.6574843525886536
time_elpased: 1.889
#iterations: 47
currently lose_sum: 0.6974915862083435
time_elpased: 2.013
#iterations: 48
currently lose_sum: 0.665580153465271
time_elpased: 1.901
#iterations: 49
currently lose_sum: 0.64304518699646
time_elpased: 1.969
#iterations: 50
currently lose_sum: 0.6595331430435181
time_elpased: 1.908
#iterations: 51
currently lose_sum: 0.6345876455307007
time_elpased: 1.918
#iterations: 52
currently lose_sum: 0.6642587184906006
time_elpased: 2.072
#iterations: 53
currently lose_sum: 0.6569265723228455
time_elpased: 1.893
#iterations: 54
currently lose_sum: 0.6368902325630188
time_elpased: 1.989
#iterations: 55
currently lose_sum: 0.6394839286804199
time_elpased: 1.904
#iterations: 56
currently lose_sum: 0.6672179698944092
time_elpased: 1.918
#iterations: 57
currently lose_sum: 0.5954816341400146
time_elpased: 1.924
#iterations: 58
currently lose_sum: 0.6587367057800293
time_elpased: 1.899
#iterations: 59
currently lose_sum: 0.6508671641349792
time_elpased: 1.888
start validation test
0.5976
0.593147751606
0.655880031571
0.622938530735
0.596796463474
16.344
#iterations: 60
currently lose_sum: 0.6525014638900757
time_elpased: 2.003
#iterations: 61
currently lose_sum: 0.6804766058921814
time_elpased: 1.873
#iterations: 62
currently lose_sum: 0.679786205291748
time_elpased: 1.883
#iterations: 63
currently lose_sum: 0.6445699334144592
time_elpased: 1.991
#iterations: 64
currently lose_sum: 0.6595977544784546
time_elpased: 1.889
#iterations: 65
currently lose_sum: 0.6620355248451233
time_elpased: 1.934
#iterations: 66
currently lose_sum: 0.6661404967308044
time_elpased: 1.869
#iterations: 67
currently lose_sum: 0.5797151327133179
time_elpased: 1.877
#iterations: 68
currently lose_sum: 0.6582089066505432
time_elpased: 2.029
#iterations: 69
currently lose_sum: 0.6116619110107422
time_elpased: 1.898
#iterations: 70
currently lose_sum: 0.6365998983383179
time_elpased: 1.91
#iterations: 71
currently lose_sum: 0.6752377152442932
time_elpased: 1.904
#iterations: 72
currently lose_sum: 0.64033043384552
time_elpased: 1.882
#iterations: 73
currently lose_sum: 0.6394922137260437
time_elpased: 1.899
#iterations: 74
currently lose_sum: 0.6499752998352051
time_elpased: 1.88
#iterations: 75
currently lose_sum: 0.6808937788009644
time_elpased: 2.029
#iterations: 76
currently lose_sum: 0.6521615386009216
time_elpased: 1.918
#iterations: 77
currently lose_sum: 0.5679402947425842
time_elpased: 1.871
#iterations: 78
currently lose_sum: 0.6488189101219177
time_elpased: 1.901
#iterations: 79
currently lose_sum: 0.5971483588218689
time_elpased: 2.247
start validation test
0.608
0.737190082645
0.352012628256
0.476495726496
0.611529428483
16.469
#iterations: 80
currently lose_sum: 0.6233232021331787
time_elpased: 1.949
#iterations: 81
currently lose_sum: 0.5763853192329407
time_elpased: 2.275
#iterations: 82
currently lose_sum: 0.6128042936325073
time_elpased: 1.895
#iterations: 83
currently lose_sum: 0.651865541934967
time_elpased: 1.932
#iterations: 84
currently lose_sum: 0.5967045426368713
time_elpased: 1.912
#iterations: 85
currently lose_sum: 0.6505701541900635
time_elpased: 2.005
#iterations: 86
currently lose_sum: 0.6416895985603333
time_elpased: 1.88
#iterations: 87
currently lose_sum: 0.5887649655342102
time_elpased: 1.884
#iterations: 88
currently lose_sum: 0.5896418690681458
time_elpased: 1.927
#iterations: 89
currently lose_sum: 0.6049832701683044
time_elpased: 1.869
#iterations: 90
currently lose_sum: 0.6380979418754578
time_elpased: 1.874
#iterations: 91
currently lose_sum: 0.6505822539329529
time_elpased: 1.858
#iterations: 92
currently lose_sum: 0.611168622970581
time_elpased: 1.886
#iterations: 93
currently lose_sum: 0.6069077849388123
time_elpased: 1.861
#iterations: 94
currently lose_sum: 0.6175282001495361
time_elpased: 2.421
#iterations: 95
currently lose_sum: 0.6061419248580933
time_elpased: 1.867
#iterations: 96
currently lose_sum: 0.6187223196029663
time_elpased: 1.973
#iterations: 97
currently lose_sum: 0.6120094656944275
time_elpased: 1.873
#iterations: 98
currently lose_sum: 0.6106622815132141
time_elpased: 1.902
#iterations: 99
currently lose_sum: 0.6100232601165771
time_elpased: 1.891
start validation test
0.6524
0.642142857143
0.70955011839
0.674165729284
0.651612042163
15.421
#iterations: 100
currently lose_sum: 0.5816958546638489
time_elpased: 1.904
#iterations: 101
currently lose_sum: 0.5455531477928162
time_elpased: 1.868
#iterations: 102
currently lose_sum: 0.6088542342185974
time_elpased: 1.917
#iterations: 103
currently lose_sum: 0.5878068804740906
time_elpased: 1.891
#iterations: 104
currently lose_sum: 0.5696132183074951
time_elpased: 1.908
#iterations: 105
currently lose_sum: 0.6005843877792358
time_elpased: 1.921
#iterations: 106
currently lose_sum: 0.6631270051002502
time_elpased: 1.9
#iterations: 107
currently lose_sum: 0.625531017780304
time_elpased: 1.872
#iterations: 108
currently lose_sum: 0.6356534361839294
time_elpased: 1.928
#iterations: 109
currently lose_sum: 0.6376645565032959
time_elpased: 1.999
#iterations: 110
currently lose_sum: 0.6084566712379456
time_elpased: 1.852
#iterations: 111
currently lose_sum: 0.5679952502250671
time_elpased: 1.887
#iterations: 112
currently lose_sum: 0.5842269659042358
time_elpased: 2.113
#iterations: 113
currently lose_sum: 0.5801126956939697
time_elpased: 2.007
#iterations: 114
currently lose_sum: 0.6165643334388733
time_elpased: 2.043
#iterations: 115
currently lose_sum: 0.5829284191131592
time_elpased: 1.865
#iterations: 116
currently lose_sum: 0.610623836517334
time_elpased: 2.194
#iterations: 117
currently lose_sum: 0.5576891899108887
time_elpased: 2.424
#iterations: 118
currently lose_sum: 0.5760487914085388
time_elpased: 1.888
#iterations: 119
currently lose_sum: 0.5835428237915039
time_elpased: 2.366
start validation test
0.6652
0.689929328622
0.616416732439
0.651104626928
0.665872599796
15.117
#iterations: 120
currently lose_sum: 0.6208235025405884
time_elpased: 1.871
#iterations: 121
currently lose_sum: 0.5811852812767029
time_elpased: 1.952
#iterations: 122
currently lose_sum: 0.5562717914581299
time_elpased: 1.905
#iterations: 123
currently lose_sum: 0.5731022357940674
time_elpased: 2.06
#iterations: 124
currently lose_sum: 0.6174864172935486
time_elpased: 1.868
#iterations: 125
currently lose_sum: 0.5605007410049438
time_elpased: 1.867
#iterations: 126
currently lose_sum: 0.5737223625183105
time_elpased: 1.881
#iterations: 127
currently lose_sum: 0.5508512258529663
time_elpased: 1.891
#iterations: 128
currently lose_sum: 0.6005153059959412
time_elpased: 1.96
#iterations: 129
currently lose_sum: 0.6593964099884033
time_elpased: 1.866
#iterations: 130
currently lose_sum: 0.5443556308746338
time_elpased: 1.91
#iterations: 131
currently lose_sum: 0.6239392161369324
time_elpased: 1.9
#iterations: 132
currently lose_sum: 0.5984845161437988
time_elpased: 1.876
#iterations: 133
currently lose_sum: 0.6366111040115356
time_elpased: 1.998
#iterations: 134
currently lose_sum: 0.6265674829483032
time_elpased: 1.913
#iterations: 135
currently lose_sum: 0.5907303690910339
time_elpased: 1.973
#iterations: 136
currently lose_sum: 0.5616655945777893
time_elpased: 1.866
#iterations: 137
currently lose_sum: 0.5610712170600891
time_elpased: 1.915
#iterations: 138
currently lose_sum: 0.6596574187278748
time_elpased: 1.95
#iterations: 139
currently lose_sum: 0.5663163661956787
time_elpased: 1.885
start validation test
0.6708
0.743956043956
0.534333070245
0.621956821314
0.672681539177
15.172
#iterations: 140
currently lose_sum: 0.5959683656692505
time_elpased: 1.894
#iterations: 141
currently lose_sum: 0.6469742655754089
time_elpased: 1.992
#iterations: 142
currently lose_sum: 0.6524122357368469
time_elpased: 1.867
#iterations: 143
currently lose_sum: 0.6038705110549927
time_elpased: 1.895
#iterations: 144
currently lose_sum: 0.6955377459526062
time_elpased: 1.926
#iterations: 145
currently lose_sum: 0.5579122304916382
time_elpased: 1.874
#iterations: 146
currently lose_sum: 0.5626577138900757
time_elpased: 1.946
#iterations: 147
currently lose_sum: 0.584340512752533
time_elpased: 1.924
#iterations: 148
currently lose_sum: 0.5229000449180603
time_elpased: 1.932
#iterations: 149
currently lose_sum: 0.6322603821754456
time_elpased: 1.92
#iterations: 150
currently lose_sum: 0.6661496162414551
time_elpased: 2.214
#iterations: 151
currently lose_sum: 0.5691128969192505
time_elpased: 1.947
#iterations: 152
currently lose_sum: 0.5750437378883362
time_elpased: 1.86
#iterations: 153
currently lose_sum: 0.5944048762321472
time_elpased: 2.005
#iterations: 154
currently lose_sum: 0.5251492857933044
time_elpased: 1.953
#iterations: 155
currently lose_sum: 0.5605528354644775
time_elpased: 1.902
#iterations: 156
currently lose_sum: 0.559634268283844
time_elpased: 1.885
#iterations: 157
currently lose_sum: 0.5535557270050049
time_elpased: 1.856
#iterations: 158
currently lose_sum: 0.5547915101051331
time_elpased: 1.934
#iterations: 159
currently lose_sum: 0.5831701159477234
time_elpased: 1.893
start validation test
0.674
0.640897755611
0.81136543015
0.716126785092
0.672106072739
15.048
#iterations: 160
currently lose_sum: 0.5071505308151245
time_elpased: 1.925
#iterations: 161
currently lose_sum: 0.6008821129798889
time_elpased: 2.298
#iterations: 162
currently lose_sum: 0.6356094479560852
time_elpased: 1.988
#iterations: 163
currently lose_sum: 0.6231142282485962
time_elpased: 1.972
#iterations: 164
currently lose_sum: 0.49505722522735596
time_elpased: 1.917
#iterations: 165
currently lose_sum: 0.6136769652366638
time_elpased: 2.106
#iterations: 166
currently lose_sum: 0.5294743776321411
time_elpased: 1.963
#iterations: 167
currently lose_sum: 0.6168286800384521
time_elpased: 1.929
#iterations: 168
currently lose_sum: 0.584545910358429
time_elpased: 1.915
#iterations: 169
currently lose_sum: 0.5729705095291138
time_elpased: 2.205
#iterations: 170
currently lose_sum: 0.6339805722236633
time_elpased: 1.879
#iterations: 171
currently lose_sum: 0.5369774103164673
time_elpased: 2.138
#iterations: 172
currently lose_sum: 0.5039352774620056
time_elpased: 1.925
#iterations: 173
currently lose_sum: 0.4791310429573059
time_elpased: 1.942
#iterations: 174
currently lose_sum: 0.6117923855781555
time_elpased: 1.906
#iterations: 175
currently lose_sum: 0.6217328310012817
time_elpased: 1.846
#iterations: 176
currently lose_sum: 0.5398267507553101
time_elpased: 1.907
#iterations: 177
currently lose_sum: 0.6747753620147705
time_elpased: 1.908
#iterations: 178
currently lose_sum: 0.5086228847503662
time_elpased: 1.913
#iterations: 179
currently lose_sum: 0.5382180213928223
time_elpased: 1.941
start validation test
0.6776
0.642724458204
0.819258089976
0.720333102012
0.675646887648
14.777
#iterations: 180
currently lose_sum: 0.623537540435791
time_elpased: 1.883
#iterations: 181
currently lose_sum: 0.5763064026832581
time_elpased: 1.843
#iterations: 182
currently lose_sum: 0.5558623671531677
time_elpased: 2.494
#iterations: 183
currently lose_sum: 0.6104533672332764
time_elpased: 1.985
#iterations: 184
currently lose_sum: 0.5946260690689087
time_elpased: 1.967
#iterations: 185
currently lose_sum: 0.6061674356460571
time_elpased: 1.901
#iterations: 186
currently lose_sum: 0.5956583619117737
time_elpased: 2.013
#iterations: 187
currently lose_sum: 0.6782066226005554
time_elpased: 1.87
#iterations: 188
currently lose_sum: 0.5283219218254089
time_elpased: 1.877
#iterations: 189
currently lose_sum: 0.5714160203933716
time_elpased: 1.857
#iterations: 190
currently lose_sum: 0.553834855556488
time_elpased: 1.891
#iterations: 191
currently lose_sum: 0.567291796207428
time_elpased: 1.863
#iterations: 192
currently lose_sum: 0.5309962034225464
time_elpased: 1.978
#iterations: 193
currently lose_sum: 0.628238320350647
time_elpased: 1.945
#iterations: 194
currently lose_sum: 0.6134546995162964
time_elpased: 1.985
#iterations: 195
currently lose_sum: 0.5408966541290283
time_elpased: 1.883
#iterations: 196
currently lose_sum: 0.5824991464614868
time_elpased: 2.049
#iterations: 197
currently lose_sum: 0.5577324628829956
time_elpased: 1.815
#iterations: 198
currently lose_sum: 0.6050021648406982
time_elpased: 1.902
#iterations: 199
currently lose_sum: 0.48218536376953125
time_elpased: 1.887
start validation test
0.7012
0.695195195195
0.730860299921
0.712581762216
0.700791058314
14.272
#iterations: 200
currently lose_sum: 0.5901440978050232
time_elpased: 1.924
#iterations: 201
currently lose_sum: 0.5912766456604004
time_elpased: 2.035
#iterations: 202
currently lose_sum: 0.548458993434906
time_elpased: 1.909
#iterations: 203
currently lose_sum: 0.5328924655914307
time_elpased: 1.916
#iterations: 204
currently lose_sum: 0.5564035177230835
time_elpased: 1.887
#iterations: 205
currently lose_sum: 0.5467788577079773
time_elpased: 1.897
#iterations: 206
currently lose_sum: 0.5410096049308777
time_elpased: 1.87
#iterations: 207
currently lose_sum: 0.5259325504302979
time_elpased: 1.874
#iterations: 208
currently lose_sum: 0.5673850178718567
time_elpased: 2.261
#iterations: 209
currently lose_sum: 0.6352865099906921
time_elpased: 1.988
#iterations: 210
currently lose_sum: 0.534153163433075
time_elpased: 1.882
#iterations: 211
currently lose_sum: 0.5938028693199158
time_elpased: 1.904
#iterations: 212
currently lose_sum: 0.5080496072769165
time_elpased: 1.879
#iterations: 213
currently lose_sum: 0.538206160068512
time_elpased: 1.889
#iterations: 214
currently lose_sum: 0.4846910834312439
time_elpased: 1.92
#iterations: 215
currently lose_sum: 0.5496715307235718
time_elpased: 1.85
#iterations: 216
currently lose_sum: 0.5020939111709595
time_elpased: 1.904
#iterations: 217
currently lose_sum: 0.6387030482292175
time_elpased: 1.884
#iterations: 218
currently lose_sum: 0.6067270040512085
time_elpased: 1.914
#iterations: 219
currently lose_sum: 0.5933175683021545
time_elpased: 2.068
start validation test
0.6864
0.771043771044
0.542225730071
0.636700648749
0.688387804208
14.851
#iterations: 220
currently lose_sum: 0.6238471865653992
time_elpased: 2.036
#iterations: 221
currently lose_sum: 0.5835643410682678
time_elpased: 1.841
#iterations: 222
currently lose_sum: 0.5034042596817017
time_elpased: 1.907
#iterations: 223
currently lose_sum: 0.5746186971664429
time_elpased: 1.88
#iterations: 224
currently lose_sum: 0.48353102803230286
time_elpased: 1.867
#iterations: 225
currently lose_sum: 0.553317129611969
time_elpased: 1.875
#iterations: 226
currently lose_sum: 0.5409044623374939
time_elpased: 1.88
#iterations: 227
currently lose_sum: 0.5270593762397766
time_elpased: 1.889
#iterations: 228
currently lose_sum: 0.5359993577003479
time_elpased: 1.947
#iterations: 229
currently lose_sum: 0.518176257610321
time_elpased: 1.878
#iterations: 230
currently lose_sum: 0.5158035755157471
time_elpased: 1.856
#iterations: 231
currently lose_sum: 0.6153896450996399
time_elpased: 1.903
#iterations: 232
currently lose_sum: 0.5032547116279602
time_elpased: 2.019
#iterations: 233
currently lose_sum: 0.5510998368263245
time_elpased: 1.929
#iterations: 234
currently lose_sum: 0.5361368656158447
time_elpased: 1.878
#iterations: 235
currently lose_sum: 0.5030476450920105
time_elpased: 2.166
#iterations: 236
currently lose_sum: 0.6135118007659912
time_elpased: 1.846
#iterations: 237
currently lose_sum: 0.4870927035808563
time_elpased: 1.901
#iterations: 238
currently lose_sum: 0.4810136556625366
time_elpased: 1.901
#iterations: 239
currently lose_sum: 0.5822423696517944
time_elpased: 2.028
start validation test
0.6948
0.769230769231
0.568271507498
0.653654108034
0.696544512873
14.511
#iterations: 240
currently lose_sum: 0.47448283433914185
time_elpased: 1.904
#iterations: 241
currently lose_sum: 0.5590062141418457
time_elpased: 1.905
#iterations: 242
currently lose_sum: 0.48589178919792175
time_elpased: 1.895
#iterations: 243
currently lose_sum: 0.7067298889160156
time_elpased: 1.887
#iterations: 244
currently lose_sum: 0.5135927796363831
time_elpased: 1.866
#iterations: 245
currently lose_sum: 0.5154967308044434
time_elpased: 1.969
#iterations: 246
currently lose_sum: 0.5294167399406433
time_elpased: 1.908
#iterations: 247
currently lose_sum: 0.48849624395370483
time_elpased: 1.881
#iterations: 248
currently lose_sum: 0.5451219081878662
time_elpased: 1.864
#iterations: 249
currently lose_sum: 0.5678951740264893
time_elpased: 1.907
#iterations: 250
currently lose_sum: 0.521895170211792
time_elpased: 1.894
#iterations: 251
currently lose_sum: 0.5974501967430115
time_elpased: 1.889
#iterations: 252
currently lose_sum: 0.45044276118278503
time_elpased: 1.908
#iterations: 253
currently lose_sum: 0.6022853851318359
time_elpased: 1.899
#iterations: 254
currently lose_sum: 0.48484912514686584
time_elpased: 2.11
#iterations: 255
currently lose_sum: 0.6537228226661682
time_elpased: 2.033
#iterations: 256
currently lose_sum: 0.54011470079422
time_elpased: 1.897
#iterations: 257
currently lose_sum: 0.5188961625099182
time_elpased: 1.954
#iterations: 258
currently lose_sum: 0.5127635598182678
time_elpased: 1.867
#iterations: 259
currently lose_sum: 0.5379871129989624
time_elpased: 1.873
start validation test
0.7036
0.69423929099
0.741910023678
0.717283479588
0.70307180016
14.077
#iterations: 260
currently lose_sum: 0.5628215670585632
time_elpased: 1.849
#iterations: 261
currently lose_sum: 0.4952962398529053
time_elpased: 2.256
#iterations: 262
currently lose_sum: 0.5519335269927979
time_elpased: 1.862
#iterations: 263
currently lose_sum: 0.4988257586956024
time_elpased: 1.867
#iterations: 264
currently lose_sum: 0.5115267038345337
time_elpased: 1.893
#iterations: 265
currently lose_sum: 0.5567172765731812
time_elpased: 1.894
#iterations: 266
currently lose_sum: 0.5274477601051331
time_elpased: 2.153
#iterations: 267
currently lose_sum: 0.614663302898407
time_elpased: 1.877
#iterations: 268
currently lose_sum: 0.5178194046020508
time_elpased: 1.919
#iterations: 269
currently lose_sum: 0.503960371017456
time_elpased: 1.915
#iterations: 270
currently lose_sum: 0.539405345916748
time_elpased: 1.884
#iterations: 271
currently lose_sum: 0.5067863464355469
time_elpased: 1.916
#iterations: 272
currently lose_sum: 0.6034022569656372
time_elpased: 1.858
#iterations: 273
currently lose_sum: 0.6215829253196716
time_elpased: 1.927
#iterations: 274
currently lose_sum: 0.5420869588851929
time_elpased: 1.918
#iterations: 275
currently lose_sum: 0.5848286151885986
time_elpased: 1.954
#iterations: 276
currently lose_sum: 0.5377609133720398
time_elpased: 1.915
#iterations: 277
currently lose_sum: 0.5059840083122253
time_elpased: 1.879
#iterations: 278
currently lose_sum: 0.5245214700698853
time_elpased: 2.032
#iterations: 279
currently lose_sum: 0.5203589797019958
time_elpased: 1.87
start validation test
0.7012
0.773109243697
0.58089976322
0.663361874718
0.702858640734
14.354
#iterations: 280
currently lose_sum: 0.5364131927490234
time_elpased: 1.896
#iterations: 281
currently lose_sum: 0.5845131874084473
time_elpased: 1.959
#iterations: 282
currently lose_sum: 0.4904647767543793
time_elpased: 2.397
#iterations: 283
currently lose_sum: 0.5821815729141235
time_elpased: 1.951
#iterations: 284
currently lose_sum: 0.5083174705505371
time_elpased: 1.882
#iterations: 285
currently lose_sum: 0.5278674960136414
time_elpased: 1.887
#iterations: 286
currently lose_sum: 0.46784478425979614
time_elpased: 1.871
#iterations: 287
currently lose_sum: 0.5082557797431946
time_elpased: 1.932
#iterations: 288
currently lose_sum: 0.5657782554626465
time_elpased: 2.412
#iterations: 289
currently lose_sum: 0.6293556094169617
time_elpased: 1.89
#iterations: 290
currently lose_sum: 0.4644903540611267
time_elpased: 1.847
#iterations: 291
currently lose_sum: 0.4847213327884674
time_elpased: 1.895
#iterations: 292
currently lose_sum: 0.5029646158218384
time_elpased: 1.905
#iterations: 293
currently lose_sum: 0.5455384254455566
time_elpased: 1.887
#iterations: 294
currently lose_sum: 0.5435411930084229
time_elpased: 1.891
#iterations: 295
currently lose_sum: 0.5218408703804016
time_elpased: 1.882
#iterations: 296
currently lose_sum: 0.4471615254878998
time_elpased: 1.882
#iterations: 297
currently lose_sum: 0.47728097438812256
time_elpased: 1.894
#iterations: 298
currently lose_sum: 0.4675788879394531
time_elpased: 1.855
#iterations: 299
currently lose_sum: 0.5058203935623169
time_elpased: 1.882
start validation test
0.714
0.705970149254
0.746645619574
0.725738396624
0.713549898189
13.841
#iterations: 300
currently lose_sum: 0.5164477825164795
time_elpased: 1.909
#iterations: 301
currently lose_sum: 0.5819482803344727
time_elpased: 2.085
#iterations: 302
currently lose_sum: 0.530366063117981
time_elpased: 1.882
#iterations: 303
currently lose_sum: 0.581810712814331
time_elpased: 1.926
#iterations: 304
currently lose_sum: 0.498740553855896
time_elpased: 1.881
#iterations: 305
currently lose_sum: 0.6293636560440063
time_elpased: 1.878
#iterations: 306
currently lose_sum: 0.39005720615386963
time_elpased: 1.888
#iterations: 307
currently lose_sum: 0.4800056219100952
time_elpased: 1.872
#iterations: 308
currently lose_sum: 0.5901195406913757
time_elpased: 1.91
#iterations: 309
currently lose_sum: 0.6312539577484131
time_elpased: 1.888
#iterations: 310
currently lose_sum: 0.5340868234634399
time_elpased: 2.247
#iterations: 311
currently lose_sum: 0.52658611536026
time_elpased: 1.844
#iterations: 312
currently lose_sum: 0.5191410779953003
time_elpased: 2.072
#iterations: 313
currently lose_sum: 0.6177671551704407
time_elpased: 1.875
#iterations: 314
currently lose_sum: 0.527770459651947
time_elpased: 2.095
#iterations: 315
currently lose_sum: 0.5673982501029968
time_elpased: 2.085
#iterations: 316
currently lose_sum: 0.5696786046028137
time_elpased: 1.958
#iterations: 317
currently lose_sum: 0.5648491382598877
time_elpased: 2.047
#iterations: 318
currently lose_sum: 0.4911627471446991
time_elpased: 1.899
#iterations: 319
currently lose_sum: 0.4722740054130554
time_elpased: 1.872
start validation test
0.696
0.664931685101
0.806629834254
0.728958630528
0.694474690039
14.304
#iterations: 320
currently lose_sum: 0.43344253301620483
time_elpased: 2.496
#iterations: 321
currently lose_sum: 0.5692163705825806
time_elpased: 1.878
#iterations: 322
currently lose_sum: 0.7002546191215515
time_elpased: 1.959
#iterations: 323
currently lose_sum: 0.5265078544616699
time_elpased: 2.004
#iterations: 324
currently lose_sum: 0.501966655254364
time_elpased: 1.84
#iterations: 325
currently lose_sum: 0.48449310660362244
time_elpased: 1.949
#iterations: 326
currently lose_sum: 0.5579572319984436
time_elpased: 1.91
#iterations: 327
currently lose_sum: 0.4315866529941559
time_elpased: 1.912
#iterations: 328
currently lose_sum: 0.5039619207382202
time_elpased: 2.174
#iterations: 329
currently lose_sum: 0.5504211187362671
time_elpased: 2.292
#iterations: 330
currently lose_sum: 0.5408583879470825
time_elpased: 1.874
#iterations: 331
currently lose_sum: 0.4918099641799927
time_elpased: 1.924
#iterations: 332
currently lose_sum: 0.4913230240345001
time_elpased: 1.896
#iterations: 333
currently lose_sum: 0.5573942065238953
time_elpased: 1.958
#iterations: 334
currently lose_sum: 0.5238746404647827
time_elpased: 1.918
#iterations: 335
currently lose_sum: 0.5253278613090515
time_elpased: 1.903
#iterations: 336
currently lose_sum: 0.46993979811668396
time_elpased: 1.906
#iterations: 337
currently lose_sum: 0.4525264501571655
time_elpased: 2.019
#iterations: 338
currently lose_sum: 0.5099900960922241
time_elpased: 1.903
#iterations: 339
currently lose_sum: 0.4027941823005676
time_elpased: 1.951
start validation test
0.7172
0.724719101124
0.71270718232
0.718662952646
0.717261944769
13.787
#iterations: 340
currently lose_sum: 0.625882625579834
time_elpased: 1.858
#iterations: 341
currently lose_sum: 0.5381187200546265
time_elpased: 1.961
#iterations: 342
currently lose_sum: 0.6303215622901917
time_elpased: 1.864
#iterations: 343
currently lose_sum: 0.5247247219085693
time_elpased: 1.956
#iterations: 344
currently lose_sum: 0.5197937488555908
time_elpased: 1.879
#iterations: 345
currently lose_sum: 0.5173640847206116
time_elpased: 1.861
#iterations: 346
currently lose_sum: 0.4567531645298004
time_elpased: 2.047
#iterations: 347
currently lose_sum: 0.48653775453567505
time_elpased: 2.123
#iterations: 348
currently lose_sum: 0.47845035791397095
time_elpased: 1.885
#iterations: 349
currently lose_sum: 0.4917101263999939
time_elpased: 1.95
#iterations: 350
currently lose_sum: 0.5317686200141907
time_elpased: 1.848
#iterations: 351
currently lose_sum: 0.5113054513931274
time_elpased: 1.88
#iterations: 352
currently lose_sum: 0.5260788798332214
time_elpased: 1.868
#iterations: 353
currently lose_sum: 0.4943414628505707
time_elpased: 1.948
#iterations: 354
currently lose_sum: 0.5416517853736877
time_elpased: 1.94
#iterations: 355
currently lose_sum: 0.4978463649749756
time_elpased: 1.916
#iterations: 356
currently lose_sum: 0.46562784910202026
time_elpased: 1.898
#iterations: 357
currently lose_sum: 0.5301831960678101
time_elpased: 1.895
#iterations: 358
currently lose_sum: 0.51198410987854
time_elpased: 2.024
#iterations: 359
currently lose_sum: 0.4901062250137329
time_elpased: 1.849
start validation test
0.7084
0.685006877579
0.786108918706
0.732083792723
0.707328587496
13.959
#iterations: 360
currently lose_sum: 0.4456349313259125
time_elpased: 1.908
#iterations: 361
currently lose_sum: 0.46880555152893066
time_elpased: 2.163
#iterations: 362
currently lose_sum: 0.47728288173675537
time_elpased: 1.876
#iterations: 363
currently lose_sum: 0.4929152727127075
time_elpased: 1.866
#iterations: 364
currently lose_sum: 0.5736429691314697
time_elpased: 1.88
#iterations: 365
currently lose_sum: 0.570199191570282
time_elpased: 1.901
#iterations: 366
currently lose_sum: 0.47512635588645935
time_elpased: 1.902
#iterations: 367
currently lose_sum: 0.6393959522247314
time_elpased: 1.894
#iterations: 368
currently lose_sum: 0.46906086802482605
time_elpased: 1.873
#iterations: 369
currently lose_sum: 0.44185614585876465
time_elpased: 1.931
#iterations: 370
currently lose_sum: 0.46275585889816284
time_elpased: 2.166
#iterations: 371
currently lose_sum: 0.4180818200111389
time_elpased: 1.873
#iterations: 372
currently lose_sum: 0.5012179613113403
time_elpased: 1.925
#iterations: 373
currently lose_sum: 0.5075331926345825
time_elpased: 1.849
#iterations: 374
currently lose_sum: 0.5580379962921143
time_elpased: 1.995
#iterations: 375
currently lose_sum: 0.6056336760520935
time_elpased: 1.915
#iterations: 376
currently lose_sum: 0.6536898016929626
time_elpased: 1.909
#iterations: 377
currently lose_sum: 0.46394386887550354
time_elpased: 1.87
#iterations: 378
currently lose_sum: 0.5301070213317871
time_elpased: 1.872
#iterations: 379
currently lose_sum: 0.5337674617767334
time_elpased: 2.215
start validation test
0.6928
0.787773933103
0.53906866614
0.640112464855
0.694919572324
14.475
#iterations: 380
currently lose_sum: 0.467107892036438
time_elpased: 1.855
#iterations: 381
currently lose_sum: 0.49707722663879395
time_elpased: 1.838
#iterations: 382
currently lose_sum: 0.49307793378829956
time_elpased: 1.874
#iterations: 383
currently lose_sum: 0.6308280229568481
time_elpased: 1.905
#iterations: 384
currently lose_sum: 0.4610019624233246
time_elpased: 1.948
#iterations: 385
currently lose_sum: 0.5362139344215393
time_elpased: 1.904
#iterations: 386
currently lose_sum: 0.48982444405555725
time_elpased: 1.878
#iterations: 387
currently lose_sum: 0.45604145526885986
time_elpased: 2.002
#iterations: 388
currently lose_sum: 0.5021499395370483
time_elpased: 1.851
#iterations: 389
currently lose_sum: 0.5391252040863037
time_elpased: 2.431
#iterations: 390
currently lose_sum: 0.48199689388275146
time_elpased: 1.893
#iterations: 391
currently lose_sum: 0.6299107670783997
time_elpased: 1.886
#iterations: 392
currently lose_sum: 0.47698724269866943
time_elpased: 2.266
#iterations: 393
currently lose_sum: 0.4964999258518219
time_elpased: 2.135
#iterations: 394
currently lose_sum: 0.4945797026157379
time_elpased: 1.965
#iterations: 395
currently lose_sum: 0.4709632992744446
time_elpased: 1.859
#iterations: 396
currently lose_sum: 0.4887700378894806
time_elpased: 1.82
#iterations: 397
currently lose_sum: 0.5593915581703186
time_elpased: 1.923
#iterations: 398
currently lose_sum: 0.5710886120796204
time_elpased: 1.872
#iterations: 399
currently lose_sum: 0.558703601360321
time_elpased: 1.897
start validation test
0.6748
0.815277777778
0.463299131807
0.59084046301
0.677716070364
15.379
#iterations: 400
currently lose_sum: 0.5573174357414246
time_elpased: 1.975
#iterations: 401
currently lose_sum: 0.4964243173599243
time_elpased: 1.907
#iterations: 402
currently lose_sum: 0.49343353509902954
time_elpased: 1.877
#iterations: 403
currently lose_sum: 0.5782443284988403
time_elpased: 1.875
#iterations: 404
currently lose_sum: 0.46428245306015015
time_elpased: 2.138
#iterations: 405
currently lose_sum: 0.4591101408004761
time_elpased: 1.891
#iterations: 406
currently lose_sum: 0.5464817881584167
time_elpased: 1.879
#iterations: 407
currently lose_sum: 0.39898887276649475
time_elpased: 1.868
#iterations: 408
currently lose_sum: 0.5061587691307068
time_elpased: 1.899
#iterations: 409
currently lose_sum: 0.4196552634239197
time_elpased: 1.979
#iterations: 410
currently lose_sum: 0.4832379221916199
time_elpased: 1.899
#iterations: 411
currently lose_sum: 0.47606727480888367
time_elpased: 1.836
#iterations: 412
currently lose_sum: 0.48898056149482727
time_elpased: 1.999
#iterations: 413
currently lose_sum: 0.5117684602737427
time_elpased: 1.87
#iterations: 414
currently lose_sum: 0.594790518283844
time_elpased: 1.882
#iterations: 415
currently lose_sum: 0.5285959839820862
time_elpased: 1.907
#iterations: 416
currently lose_sum: 0.4651361107826233
time_elpased: 1.9
#iterations: 417
currently lose_sum: 0.5660583972930908
time_elpased: 1.874
#iterations: 418
currently lose_sum: 0.38782286643981934
time_elpased: 1.848
#iterations: 419
currently lose_sum: 0.5501244068145752
time_elpased: 1.863
start validation test
0.7012
0.804449648712
0.542225730071
0.647807637907
0.703391859358
14.412
#iterations: 420
currently lose_sum: 0.524681806564331
time_elpased: 1.881
#iterations: 421
currently lose_sum: 0.43598124384880066
time_elpased: 1.927
#iterations: 422
currently lose_sum: 0.5316804647445679
time_elpased: 1.879
#iterations: 423
currently lose_sum: 0.4669918119907379
time_elpased: 1.91
#iterations: 424
currently lose_sum: 0.4452335834503174
time_elpased: 1.891
#iterations: 425
currently lose_sum: 0.581345796585083
time_elpased: 1.958
#iterations: 426
currently lose_sum: 0.6115295886993408
time_elpased: 1.907
#iterations: 427
currently lose_sum: 0.4929583668708801
time_elpased: 2.582
#iterations: 428
currently lose_sum: 0.60148686170578
time_elpased: 1.861
#iterations: 429
currently lose_sum: 0.4962362051010132
time_elpased: 2.027
#iterations: 430
currently lose_sum: 0.44090285897254944
time_elpased: 1.872
#iterations: 431
currently lose_sum: 0.5420553684234619
time_elpased: 1.872
#iterations: 432
currently lose_sum: 0.5401573777198792
time_elpased: 1.921
#iterations: 433
currently lose_sum: 0.4845322370529175
time_elpased: 2.218
#iterations: 434
currently lose_sum: 0.5277131199836731
time_elpased: 1.909
#iterations: 435
currently lose_sum: 0.482167512178421
time_elpased: 1.875
#iterations: 436
currently lose_sum: 0.43945977091789246
time_elpased: 1.897
#iterations: 437
currently lose_sum: 0.525351345539093
time_elpased: 1.921
#iterations: 438
currently lose_sum: 0.43466871976852417
time_elpased: 1.916
#iterations: 439
currently lose_sum: 0.5014433860778809
time_elpased: 2.235
start validation test
0.704
0.794413407821
0.561168113654
0.657724329325
0.705969296081
14.596
#iterations: 440
currently lose_sum: 0.4608691930770874
time_elpased: 2.008
#iterations: 441
currently lose_sum: 0.4675005376338959
time_elpased: 1.851
#iterations: 442
currently lose_sum: 0.5228960514068604
time_elpased: 1.871
#iterations: 443
currently lose_sum: 0.5167198181152344
time_elpased: 1.868
#iterations: 444
currently lose_sum: 0.45219650864601135
time_elpased: 1.833
#iterations: 445
currently lose_sum: 0.5182752013206482
time_elpased: 1.886
#iterations: 446
currently lose_sum: 0.5782015323638916
time_elpased: 2.312
#iterations: 447
currently lose_sum: 0.44834959506988525
time_elpased: 1.972
#iterations: 448
currently lose_sum: 0.43454718589782715
time_elpased: 1.912
#iterations: 449
currently lose_sum: 0.4526786506175995
time_elpased: 1.913
#iterations: 450
currently lose_sum: 0.5751248002052307
time_elpased: 1.896
#iterations: 451
currently lose_sum: 0.46150147914886475
time_elpased: 1.875
#iterations: 452
currently lose_sum: 0.4829450249671936
time_elpased: 1.878
#iterations: 453
currently lose_sum: 0.48846375942230225
time_elpased: 1.897
#iterations: 454
currently lose_sum: 0.5063567161560059
time_elpased: 1.864
#iterations: 455
currently lose_sum: 0.4814804792404175
time_elpased: 2.011
#iterations: 456
currently lose_sum: 0.5827516913414001
time_elpased: 1.931
#iterations: 457
currently lose_sum: 0.4793069064617157
time_elpased: 1.835
#iterations: 458
currently lose_sum: 0.5721822381019592
time_elpased: 1.901
#iterations: 459
currently lose_sum: 0.5783531665802002
time_elpased: 1.879
start validation test
0.7088
0.787620064034
0.582478295185
0.669691470054
0.710541661786
14.273
#iterations: 460
currently lose_sum: 0.4921724200248718
time_elpased: 1.89
#iterations: 461
currently lose_sum: 0.553692102432251
time_elpased: 1.914
#iterations: 462
currently lose_sum: 0.49365586042404175
time_elpased: 1.874
#iterations: 463
currently lose_sum: 0.5030385851860046
time_elpased: 1.88
#iterations: 464
currently lose_sum: 0.45729804039001465
time_elpased: 1.854
#iterations: 465
currently lose_sum: 0.48770567774772644
time_elpased: 2.154
#iterations: 466
currently lose_sum: 0.5256077647209167
time_elpased: 1.888
#iterations: 467
currently lose_sum: 0.4381087124347687
time_elpased: 1.861
#iterations: 468
currently lose_sum: 0.6038037538528442
time_elpased: 1.873
#iterations: 469
currently lose_sum: 0.5418643355369568
time_elpased: 1.961
#iterations: 470
currently lose_sum: 0.4259386360645294
time_elpased: 1.865
#iterations: 471
currently lose_sum: 0.5216701626777649
time_elpased: 1.881
#iterations: 472
currently lose_sum: 0.4411344826221466
time_elpased: 1.89
#iterations: 473
currently lose_sum: 0.49867764115333557
time_elpased: 1.838
#iterations: 474
currently lose_sum: 0.43754103779792786
time_elpased: 1.861
#iterations: 475
currently lose_sum: 0.4586498737335205
time_elpased: 1.883
#iterations: 476
currently lose_sum: 0.5409310460090637
time_elpased: 1.864
#iterations: 477
currently lose_sum: 0.45944127440452576
time_elpased: 1.866
#iterations: 478
currently lose_sum: 0.4580630362033844
time_elpased: 1.891
#iterations: 479
currently lose_sum: 0.5092797875404358
time_elpased: 1.901
start validation test
0.7048
0.804372842348
0.551696921863
0.654494382022
0.706910910242
14.522
#iterations: 480
currently lose_sum: 0.44899290800094604
time_elpased: 1.88
#iterations: 481
currently lose_sum: 0.453306645154953
time_elpased: 1.992
#iterations: 482
currently lose_sum: 0.6801929473876953
time_elpased: 1.994
#iterations: 483
currently lose_sum: 0.48909661173820496
time_elpased: 1.901
#iterations: 484
currently lose_sum: 0.5078862905502319
time_elpased: 1.932
#iterations: 485
currently lose_sum: 0.46387287974357605
time_elpased: 1.871
#iterations: 486
currently lose_sum: 0.5153864026069641
time_elpased: 1.887
#iterations: 487
currently lose_sum: 0.4364505112171173
time_elpased: 1.869
#iterations: 488
currently lose_sum: 0.5236987471580505
time_elpased: 2.048
#iterations: 489
currently lose_sum: 0.4707902669906616
time_elpased: 1.908
#iterations: 490
currently lose_sum: 0.45516663789749146
time_elpased: 2.093
#iterations: 491
currently lose_sum: 0.5240998268127441
time_elpased: 1.94
#iterations: 492
currently lose_sum: 0.4882333278656006
time_elpased: 1.92
#iterations: 493
currently lose_sum: 0.4666082262992859
time_elpased: 2.124
#iterations: 494
currently lose_sum: 0.45597508549690247
time_elpased: 2.015
#iterations: 495
currently lose_sum: 0.49086907505989075
time_elpased: 1.841
#iterations: 496
currently lose_sum: 0.4141150712966919
time_elpased: 2.484
#iterations: 497
currently lose_sum: 0.4746250808238983
time_elpased: 1.909
#iterations: 498
currently lose_sum: 0.5135283470153809
time_elpased: 1.903
#iterations: 499
currently lose_sum: 0.5027351975440979
time_elpased: 1.893
start validation test
0.6804
0.8046875
0.487766377269
0.607371007371
0.683055938026
15.087
#iterations: 500
currently lose_sum: 0.46624383330345154
time_elpased: 1.848
#iterations: 501
currently lose_sum: 0.44098201394081116
time_elpased: 1.888
#iterations: 502
currently lose_sum: 0.4761194586753845
time_elpased: 1.866
#iterations: 503
currently lose_sum: 0.5076477527618408
time_elpased: 1.966
#iterations: 504
currently lose_sum: 0.49930059909820557
time_elpased: 2.311
#iterations: 505
currently lose_sum: 0.4709226191043854
time_elpased: 1.974
#iterations: 506
currently lose_sum: 0.4948858618736267
time_elpased: 2.219
#iterations: 507
currently lose_sum: 0.429116815328598
time_elpased: 1.908
#iterations: 508
currently lose_sum: 0.493912011384964
time_elpased: 1.982
#iterations: 509
currently lose_sum: 0.429055392742157
time_elpased: 1.854
#iterations: 510
currently lose_sum: 0.46300822496414185
time_elpased: 1.931
#iterations: 511
currently lose_sum: 0.5269843935966492
time_elpased: 1.873
#iterations: 512
currently lose_sum: 0.4533643424510956
time_elpased: 1.885
#iterations: 513
currently lose_sum: 0.5045438408851624
time_elpased: 1.881
#iterations: 514
currently lose_sum: 0.4755462408065796
time_elpased: 1.932
#iterations: 515
currently lose_sum: 0.5748423933982849
time_elpased: 1.855
#iterations: 516
currently lose_sum: 0.4254135191440582
time_elpased: 1.906
#iterations: 517
currently lose_sum: 0.3758622705936432
time_elpased: 1.899
#iterations: 518
currently lose_sum: 0.5117632150650024
time_elpased: 1.855
#iterations: 519
currently lose_sum: 0.49441733956336975
time_elpased: 1.883
start validation test
0.6848
0.824966078697
0.479873717443
0.606786427146
0.687625423198
15.363
#iterations: 520
currently lose_sum: 0.5228782892227173
time_elpased: 1.891
#iterations: 521
currently lose_sum: 0.3836164176464081
time_elpased: 1.915
#iterations: 522
currently lose_sum: 0.42546677589416504
time_elpased: 1.957
#iterations: 523
currently lose_sum: 0.49398261308670044
time_elpased: 1.935
#iterations: 524
currently lose_sum: 0.43522366881370544
time_elpased: 1.914
#iterations: 525
currently lose_sum: 0.4973447918891907
time_elpased: 2.299
#iterations: 526
currently lose_sum: 0.42302677035331726
time_elpased: 1.861
#iterations: 527
currently lose_sum: 0.4734879732131958
time_elpased: 1.887
#iterations: 528
currently lose_sum: 0.5861060619354248
time_elpased: 1.875
#iterations: 529
currently lose_sum: 0.39580729603767395
time_elpased: 1.902
#iterations: 530
currently lose_sum: 0.4251052141189575
time_elpased: 1.879
#iterations: 531
currently lose_sum: 0.3994296193122864
time_elpased: 1.85
#iterations: 532
currently lose_sum: 0.4380738139152527
time_elpased: 1.91
#iterations: 533
currently lose_sum: 0.4041256606578827
time_elpased: 1.998
#iterations: 534
currently lose_sum: 0.4771682322025299
time_elpased: 2.262
#iterations: 535
currently lose_sum: 0.5576488971710205
time_elpased: 1.913
#iterations: 536
currently lose_sum: 0.5776184797286987
time_elpased: 1.884
#iterations: 537
currently lose_sum: 0.5092517733573914
time_elpased: 1.887
#iterations: 538
currently lose_sum: 0.4294441342353821
time_elpased: 1.922
#iterations: 539
currently lose_sum: 0.46908292174339294
time_elpased: 1.877
start validation test
0.7216
0.699790062981
0.789265982636
0.741839762611
0.720667054578
13.690
#iterations: 540
currently lose_sum: 0.42628157138824463
time_elpased: 1.923
#iterations: 541
currently lose_sum: 0.3757376968860626
time_elpased: 1.863
#iterations: 542
currently lose_sum: 0.33138367533683777
time_elpased: 1.893
#iterations: 543
currently lose_sum: 0.47347205877304077
time_elpased: 1.88
#iterations: 544
currently lose_sum: 0.4542669653892517
time_elpased: 2.171
#iterations: 545
currently lose_sum: 0.41157519817352295
time_elpased: 1.918
#iterations: 546
currently lose_sum: 0.4732326567173004
time_elpased: 1.896
#iterations: 547
currently lose_sum: 0.3985179662704468
time_elpased: 2.134
#iterations: 548
currently lose_sum: 0.4269833266735077
time_elpased: 2.196
#iterations: 549
currently lose_sum: 0.5345532894134521
time_elpased: 1.941
#iterations: 550
currently lose_sum: 0.4578315019607544
time_elpased: 1.871
#iterations: 551
currently lose_sum: 0.4479885995388031
time_elpased: 1.99
#iterations: 552
currently lose_sum: 0.46579864621162415
time_elpased: 1.893
#iterations: 553
currently lose_sum: 0.4679858684539795
time_elpased: 1.924
#iterations: 554
currently lose_sum: 0.46695616841316223
time_elpased: 1.877
#iterations: 555
currently lose_sum: 0.4780021011829376
time_elpased: 2.459
#iterations: 556
currently lose_sum: 0.5199370980262756
time_elpased: 1.886
#iterations: 557
currently lose_sum: 0.49274131655693054
time_elpased: 1.905
#iterations: 558
currently lose_sum: 0.39137253165245056
time_elpased: 1.904
#iterations: 559
currently lose_sum: 0.46877941489219666
time_elpased: 1.971
start validation test
0.7144
0.682991396426
0.814522494081
0.742980561555
0.713019560098
14.177
#iterations: 560
currently lose_sum: 0.4938053488731384
time_elpased: 1.874
#iterations: 561
currently lose_sum: 0.433162122964859
time_elpased: 1.926
#iterations: 562
currently lose_sum: 0.558349072933197
time_elpased: 1.912
#iterations: 563
currently lose_sum: 0.4450301229953766
time_elpased: 1.864
#iterations: 564
currently lose_sum: 0.44035354256629944
time_elpased: 2.017
#iterations: 565
currently lose_sum: 0.4470031261444092
time_elpased: 1.874
#iterations: 566
currently lose_sum: 0.5813190340995789
time_elpased: 1.884
#iterations: 567
currently lose_sum: 0.3526981770992279
time_elpased: 2.145
#iterations: 568
currently lose_sum: 0.5087310671806335
time_elpased: 1.86
#iterations: 569
currently lose_sum: 0.5000985264778137
time_elpased: 1.931
#iterations: 570
currently lose_sum: 0.4194982945919037
time_elpased: 1.897
#iterations: 571
currently lose_sum: 0.4272648096084595
time_elpased: 1.864
#iterations: 572
currently lose_sum: 0.586970329284668
time_elpased: 1.901
#iterations: 573
currently lose_sum: 0.5082277059555054
time_elpased: 1.882
#iterations: 574
currently lose_sum: 0.4049665927886963
time_elpased: 1.919
#iterations: 575
currently lose_sum: 0.4774085283279419
time_elpased: 1.916
#iterations: 576
currently lose_sum: 0.5347537994384766
time_elpased: 1.866
#iterations: 577
currently lose_sum: 0.4932507276535034
time_elpased: 1.9
#iterations: 578
currently lose_sum: 0.48382019996643066
time_elpased: 2.011
#iterations: 579
currently lose_sum: 0.5193135142326355
time_elpased: 1.888
start validation test
0.7168
0.786079836233
0.606156274665
0.68449197861
0.718325501485
14.166
#iterations: 580
currently lose_sum: 0.5226870179176331
time_elpased: 1.869
#iterations: 581
currently lose_sum: 0.5972409248352051
time_elpased: 1.887
#iterations: 582
currently lose_sum: 0.4730222225189209
time_elpased: 1.991
#iterations: 583
currently lose_sum: 0.4666810631752014
time_elpased: 1.893
#iterations: 584
currently lose_sum: 0.5042006373405457
time_elpased: 1.969
#iterations: 585
currently lose_sum: 0.5366135239601135
time_elpased: 1.873
#iterations: 586
currently lose_sum: 0.5792865753173828
time_elpased: 2.05
#iterations: 587
currently lose_sum: 0.6054369211196899
time_elpased: 1.916
#iterations: 588
currently lose_sum: 0.4781031906604767
time_elpased: 1.984
#iterations: 589
currently lose_sum: 0.48534199595451355
time_elpased: 1.967
#iterations: 590
currently lose_sum: 0.491807222366333
time_elpased: 1.894
#iterations: 591
currently lose_sum: 0.3844667375087738
time_elpased: 1.889
#iterations: 592
currently lose_sum: 0.47432270646095276
time_elpased: 2.216
#iterations: 593
currently lose_sum: 0.43316689133644104
time_elpased: 1.836
#iterations: 594
currently lose_sum: 0.4278601408004761
time_elpased: 2.076
#iterations: 595
currently lose_sum: 0.6335004568099976
time_elpased: 1.868
#iterations: 596
currently lose_sum: 0.4679431915283203
time_elpased: 1.843
#iterations: 597
currently lose_sum: 0.4978104531764984
time_elpased: 1.983
#iterations: 598
currently lose_sum: 0.5699911713600159
time_elpased: 1.9
#iterations: 599
currently lose_sum: 0.4246680438518524
time_elpased: 1.884
start validation test
0.7112
0.80790960452
0.564325177585
0.664498141264
0.713225038103
14.272
acc: 0.715
pre: 0.687
rec: 0.805
F1: 0.741
auc: 0.713
