start to construct computing graph
graph construct over
3802
epochs start
#iterations: 0
currently lose_sum: 0.6882489919662476
time_elpased: 2.636
#iterations: 1
currently lose_sum: 0.6961871981620789
time_elpased: 2.536
#iterations: 2
currently lose_sum: 0.6880007982254028
time_elpased: 2.619
#iterations: 3
currently lose_sum: 0.6978246569633484
time_elpased: 2.57
#iterations: 4
currently lose_sum: 0.6849027276039124
time_elpased: 2.631
#iterations: 5
currently lose_sum: 0.6848253011703491
time_elpased: 2.643
#iterations: 6
currently lose_sum: 0.6868129968643188
time_elpased: 2.58
#iterations: 7
currently lose_sum: 0.682295560836792
time_elpased: 2.628
#iterations: 8
currently lose_sum: 0.6887620687484741
time_elpased: 2.599
#iterations: 9
currently lose_sum: 0.693707287311554
time_elpased: 2.566
#iterations: 10
currently lose_sum: 0.7049710154533386
time_elpased: 2.542
#iterations: 11
currently lose_sum: 0.6897501945495605
time_elpased: 2.559
#iterations: 12
currently lose_sum: 0.6808863282203674
time_elpased: 2.611
#iterations: 13
currently lose_sum: 0.692047655582428
time_elpased: 2.603
#iterations: 14
currently lose_sum: 0.6862952709197998
time_elpased: 2.71
#iterations: 15
currently lose_sum: 0.6805669665336609
time_elpased: 2.653
#iterations: 16
currently lose_sum: 0.689510703086853
time_elpased: 2.58
#iterations: 17
currently lose_sum: 0.6874708533287048
time_elpased: 2.551
#iterations: 18
currently lose_sum: 0.6750109195709229
time_elpased: 2.592
#iterations: 19
currently lose_sum: 0.6889653205871582
time_elpased: 2.674
start validation test
0.5612
0.560940841055
0.620662460568
0.58929239985
0.560331230284
17.113
#iterations: 20
currently lose_sum: 0.6887468695640564
time_elpased: 2.186
#iterations: 21
currently lose_sum: 0.6946180462837219
time_elpased: 1.899
#iterations: 22
currently lose_sum: 0.6738446950912476
time_elpased: 1.926
#iterations: 23
currently lose_sum: 0.6958705186843872
time_elpased: 1.88
#iterations: 24
currently lose_sum: 0.6850431561470032
time_elpased: 1.913
#iterations: 25
currently lose_sum: 0.7070626616477966
time_elpased: 1.936
#iterations: 26
currently lose_sum: 0.6794057488441467
time_elpased: 1.932
#iterations: 27
currently lose_sum: 0.7130993604660034
time_elpased: 1.902
#iterations: 28
currently lose_sum: 0.6935372948646545
time_elpased: 1.843
#iterations: 29
currently lose_sum: 0.6810224056243896
time_elpased: 1.894
#iterations: 30
currently lose_sum: 0.6719236969947815
time_elpased: 1.908
#iterations: 31
currently lose_sum: 0.6679357886314392
time_elpased: 1.938
#iterations: 32
currently lose_sum: 0.6705494523048401
time_elpased: 1.864
#iterations: 33
currently lose_sum: 0.663126528263092
time_elpased: 2.009
#iterations: 34
currently lose_sum: 0.6848955750465393
time_elpased: 1.895
#iterations: 35
currently lose_sum: 0.6652126908302307
time_elpased: 1.879
#iterations: 36
currently lose_sum: 0.6727004051208496
time_elpased: 1.868
#iterations: 37
currently lose_sum: 0.6875439286231995
time_elpased: 1.958
#iterations: 38
currently lose_sum: 0.6478821039199829
time_elpased: 1.977
#iterations: 39
currently lose_sum: 0.6509364247322083
time_elpased: 1.92
start validation test
0.5804
0.648575305292
0.376971608833
0.47680798005
0.583372168053
16.889
#iterations: 40
currently lose_sum: 0.6444231271743774
time_elpased: 1.906
#iterations: 41
currently lose_sum: 0.7003741264343262
time_elpased: 1.874
#iterations: 42
currently lose_sum: 0.6538671255111694
time_elpased: 2.053
#iterations: 43
currently lose_sum: 0.6479838490486145
time_elpased: 1.873
#iterations: 44
currently lose_sum: 0.6559044122695923
time_elpased: 1.89
#iterations: 45
currently lose_sum: 0.6640891432762146
time_elpased: 1.94
#iterations: 46
currently lose_sum: 0.6652786135673523
time_elpased: 1.86
#iterations: 47
currently lose_sum: 0.6586306691169739
time_elpased: 1.926
#iterations: 48
currently lose_sum: 0.6501823663711548
time_elpased: 1.976
#iterations: 49
currently lose_sum: 0.6516740322113037
time_elpased: 1.927
#iterations: 50
currently lose_sum: 0.6443741321563721
time_elpased: 1.917
#iterations: 51
currently lose_sum: 0.6551936268806458
time_elpased: 1.913
#iterations: 52
currently lose_sum: 0.624705970287323
time_elpased: 1.882
#iterations: 53
currently lose_sum: 0.6464536190032959
time_elpased: 1.883
#iterations: 54
currently lose_sum: 0.615950345993042
time_elpased: 1.88
#iterations: 55
currently lose_sum: 0.6485708355903625
time_elpased: 2.053
#iterations: 56
currently lose_sum: 0.6501492261886597
time_elpased: 1.894
#iterations: 57
currently lose_sum: 0.6638213396072388
time_elpased: 1.894
#iterations: 58
currently lose_sum: 0.5922161340713501
time_elpased: 1.872
#iterations: 59
currently lose_sum: 0.6462841033935547
time_elpased: 1.842
start validation test
0.6092
0.63560111836
0.53785488959
0.582656984195
0.61024237986
16.312
#iterations: 60
currently lose_sum: 0.6063669323921204
time_elpased: 1.894
#iterations: 61
currently lose_sum: 0.6624591946601868
time_elpased: 1.954
#iterations: 62
currently lose_sum: 0.6205757260322571
time_elpased: 1.894
#iterations: 63
currently lose_sum: 0.5976041555404663
time_elpased: 1.871
#iterations: 64
currently lose_sum: 0.6333980560302734
time_elpased: 1.871
#iterations: 65
currently lose_sum: 0.6303937435150146
time_elpased: 1.906
#iterations: 66
currently lose_sum: 0.6745553612709045
time_elpased: 1.917
#iterations: 67
currently lose_sum: 0.6812147498130798
time_elpased: 1.909
#iterations: 68
currently lose_sum: 0.6677995920181274
time_elpased: 1.912
#iterations: 69
currently lose_sum: 0.6508378386497498
time_elpased: 1.955
#iterations: 70
currently lose_sum: 0.6342950463294983
time_elpased: 1.873
#iterations: 71
currently lose_sum: 0.6212078332901001
time_elpased: 1.902
#iterations: 72
currently lose_sum: 0.6096132397651672
time_elpased: 1.869
#iterations: 73
currently lose_sum: 0.7054241299629211
time_elpased: 1.891
#iterations: 74
currently lose_sum: 0.6585941910743713
time_elpased: 1.894
#iterations: 75
currently lose_sum: 0.6434513926506042
time_elpased: 1.954
#iterations: 76
currently lose_sum: 0.6407561302185059
time_elpased: 1.876
#iterations: 77
currently lose_sum: 0.6734232306480408
time_elpased: 1.867
#iterations: 78
currently lose_sum: 0.5735527873039246
time_elpased: 1.894
#iterations: 79
currently lose_sum: 0.6320852041244507
time_elpased: 1.953
start validation test
0.6204
0.589355742297
0.829652996845
0.689158205044
0.617342732189
16.225
#iterations: 80
currently lose_sum: 0.5903895497322083
time_elpased: 1.873
#iterations: 81
currently lose_sum: 0.6114271283149719
time_elpased: 1.926
#iterations: 82
currently lose_sum: 0.6309077739715576
time_elpased: 1.936
#iterations: 83
currently lose_sum: 0.6565553545951843
time_elpased: 1.974
#iterations: 84
currently lose_sum: 0.6344543099403381
time_elpased: 1.87
#iterations: 85
currently lose_sum: 0.6023991107940674
time_elpased: 1.883
#iterations: 86
currently lose_sum: 0.5836012363433838
time_elpased: 1.902
#iterations: 87
currently lose_sum: 0.6181586384773254
time_elpased: 1.962
#iterations: 88
currently lose_sum: 0.6311388611793518
time_elpased: 1.878
#iterations: 89
currently lose_sum: 0.6035321950912476
time_elpased: 1.936
#iterations: 90
currently lose_sum: 0.5891449451446533
time_elpased: 1.901
#iterations: 91
currently lose_sum: 0.5967546701431274
time_elpased: 1.89
#iterations: 92
currently lose_sum: 0.6064596772193909
time_elpased: 1.947
#iterations: 93
currently lose_sum: 0.6602891683578491
time_elpased: 1.939
#iterations: 94
currently lose_sum: 0.6955627202987671
time_elpased: 1.929
#iterations: 95
currently lose_sum: 0.6268532276153564
time_elpased: 1.966
#iterations: 96
currently lose_sum: 0.5873463153839111
time_elpased: 1.906
#iterations: 97
currently lose_sum: 0.6016371846199036
time_elpased: 1.949
#iterations: 98
currently lose_sum: 0.6903296113014221
time_elpased: 1.903
#iterations: 99
currently lose_sum: 0.6540457010269165
time_elpased: 1.847
start validation test
0.6484
0.693532338308
0.549684542587
0.613286405631
0.649842271293
15.796
#iterations: 100
currently lose_sum: 0.640208899974823
time_elpased: 1.95
#iterations: 101
currently lose_sum: 0.6484161615371704
time_elpased: 1.935
#iterations: 102
currently lose_sum: 0.7353866696357727
time_elpased: 1.886
#iterations: 103
currently lose_sum: 0.5856996774673462
time_elpased: 1.91
#iterations: 104
currently lose_sum: 0.6330749988555908
time_elpased: 1.9
#iterations: 105
currently lose_sum: 0.5617120265960693
time_elpased: 1.916
#iterations: 106
currently lose_sum: 0.6318147778511047
time_elpased: 1.872
#iterations: 107
currently lose_sum: 0.6166688203811646
time_elpased: 1.943
#iterations: 108
currently lose_sum: 0.6147966980934143
time_elpased: 1.955
#iterations: 109
currently lose_sum: 0.6282854676246643
time_elpased: 1.864
#iterations: 110
currently lose_sum: 0.6242386698722839
time_elpased: 1.929
#iterations: 111
currently lose_sum: 0.5665191411972046
time_elpased: 1.886
#iterations: 112
currently lose_sum: 0.5888429284095764
time_elpased: 1.874
#iterations: 113
currently lose_sum: 0.5819203853607178
time_elpased: 1.891
#iterations: 114
currently lose_sum: 0.6223405599594116
time_elpased: 1.915
#iterations: 115
currently lose_sum: 0.6586729288101196
time_elpased: 1.926
#iterations: 116
currently lose_sum: 0.6294523477554321
time_elpased: 1.846
#iterations: 117
currently lose_sum: 0.6247846484184265
time_elpased: 1.859
#iterations: 118
currently lose_sum: 0.6826116442680359
time_elpased: 1.991
#iterations: 119
currently lose_sum: 0.576576828956604
time_elpased: 1.886
start validation test
0.672
0.66091954023
0.725552050473
0.691729323308
0.671217583678
15.165
#iterations: 120
currently lose_sum: 0.5940044522285461
time_elpased: 2.033
#iterations: 121
currently lose_sum: 0.615043044090271
time_elpased: 1.863
#iterations: 122
currently lose_sum: 0.61251300573349
time_elpased: 1.899
#iterations: 123
currently lose_sum: 0.6181196570396423
time_elpased: 1.916
#iterations: 124
currently lose_sum: 0.5913917422294617
time_elpased: 1.911
#iterations: 125
currently lose_sum: 0.5747880339622498
time_elpased: 1.875
#iterations: 126
currently lose_sum: 0.5678108334541321
time_elpased: 1.909
#iterations: 127
currently lose_sum: 0.6704951524734497
time_elpased: 1.868
#iterations: 128
currently lose_sum: 0.5592453479766846
time_elpased: 1.887
#iterations: 129
currently lose_sum: 0.5962650179862976
time_elpased: 1.957
#iterations: 130
currently lose_sum: 0.6057573556900024
time_elpased: 1.85
#iterations: 131
currently lose_sum: 0.5884745717048645
time_elpased: 1.911
#iterations: 132
currently lose_sum: 0.6511375308036804
time_elpased: 1.868
#iterations: 133
currently lose_sum: 0.5915544629096985
time_elpased: 1.939
#iterations: 134
currently lose_sum: 0.5687054991722107
time_elpased: 1.939
#iterations: 135
currently lose_sum: 0.6191375255584717
time_elpased: 1.894
#iterations: 136
currently lose_sum: 0.560055673122406
time_elpased: 1.925
#iterations: 137
currently lose_sum: 0.5544387102127075
time_elpased: 1.888
#iterations: 138
currently lose_sum: 0.6043353080749512
time_elpased: 1.865
#iterations: 139
currently lose_sum: 0.5608291625976562
time_elpased: 1.92
start validation test
0.6736
0.719844357977
0.583596214511
0.644599303136
0.674914990372
15.132
#iterations: 140
currently lose_sum: 0.6201843023300171
time_elpased: 1.884
#iterations: 141
currently lose_sum: 0.6154119372367859
time_elpased: 1.88
#iterations: 142
currently lose_sum: 0.5557358264923096
time_elpased: 1.896
#iterations: 143
currently lose_sum: 0.5537512898445129
time_elpased: 1.858
#iterations: 144
currently lose_sum: 0.6943153142929077
time_elpased: 1.917
#iterations: 145
currently lose_sum: 0.5796900391578674
time_elpased: 1.907
#iterations: 146
currently lose_sum: 0.5891419053077698
time_elpased: 1.898
#iterations: 147
currently lose_sum: 0.6090916991233826
time_elpased: 1.874
#iterations: 148
currently lose_sum: 0.5347424149513245
time_elpased: 1.864
#iterations: 149
currently lose_sum: 0.5895888209342957
time_elpased: 1.896
#iterations: 150
currently lose_sum: 0.545235276222229
time_elpased: 1.89
#iterations: 151
currently lose_sum: 0.6283648610115051
time_elpased: 1.931
#iterations: 152
currently lose_sum: 0.627388596534729
time_elpased: 1.925
#iterations: 153
currently lose_sum: 0.6061158180236816
time_elpased: 1.877
#iterations: 154
currently lose_sum: 0.6269718408584595
time_elpased: 1.878
#iterations: 155
currently lose_sum: 0.5600576996803284
time_elpased: 1.875
#iterations: 156
currently lose_sum: 0.5698283314704895
time_elpased: 1.866
#iterations: 157
currently lose_sum: 0.5692352056503296
time_elpased: 1.862
#iterations: 158
currently lose_sum: 0.6655129790306091
time_elpased: 1.939
#iterations: 159
currently lose_sum: 0.601788341999054
time_elpased: 1.991
start validation test
0.688
0.735521235521
0.60094637224
0.661458333333
0.689271887419
14.866
#iterations: 160
currently lose_sum: 0.5110152363777161
time_elpased: 1.886
#iterations: 161
currently lose_sum: 0.5511252284049988
time_elpased: 1.976
#iterations: 162
currently lose_sum: 0.5694141983985901
time_elpased: 1.925
#iterations: 163
currently lose_sum: 0.545723021030426
time_elpased: 1.935
#iterations: 164
currently lose_sum: 0.6152101159095764
time_elpased: 1.864
#iterations: 165
currently lose_sum: 0.6262633800506592
time_elpased: 1.892
#iterations: 166
currently lose_sum: 0.6035812497138977
time_elpased: 1.923
#iterations: 167
currently lose_sum: 0.6043322086334229
time_elpased: 1.905
#iterations: 168
currently lose_sum: 0.6274152398109436
time_elpased: 1.912
#iterations: 169
currently lose_sum: 0.5929213166236877
time_elpased: 1.894
#iterations: 170
currently lose_sum: 0.517128050327301
time_elpased: 1.924
#iterations: 171
currently lose_sum: 0.5842829346656799
time_elpased: 1.967
#iterations: 172
currently lose_sum: 0.5740736126899719
time_elpased: 1.934
#iterations: 173
currently lose_sum: 0.6481654644012451
time_elpased: 1.871
#iterations: 174
currently lose_sum: 0.4435468316078186
time_elpased: 1.854
#iterations: 175
currently lose_sum: 0.5790250301361084
time_elpased: 1.955
#iterations: 176
currently lose_sum: 0.6256397366523743
time_elpased: 1.874
#iterations: 177
currently lose_sum: 0.5602900981903076
time_elpased: 1.912
#iterations: 178
currently lose_sum: 0.5478124022483826
time_elpased: 1.888
#iterations: 179
currently lose_sum: 0.5635767579078674
time_elpased: 1.901
start validation test
0.6836
0.742131979695
0.576498422713
0.64891256103
0.685164795772
14.891
#iterations: 180
currently lose_sum: 0.5118309855461121
time_elpased: 1.921
#iterations: 181
currently lose_sum: 0.5564231276512146
time_elpased: 1.904
#iterations: 182
currently lose_sum: 0.5270541310310364
time_elpased: 2.036
#iterations: 183
currently lose_sum: 0.5645760893821716
time_elpased: 1.914
#iterations: 184
currently lose_sum: 0.5758209228515625
time_elpased: 1.857
#iterations: 185
currently lose_sum: 0.5202187299728394
time_elpased: 1.877
#iterations: 186
currently lose_sum: 0.5831517577171326
time_elpased: 1.89
#iterations: 187
currently lose_sum: 0.5426726341247559
time_elpased: 1.96
#iterations: 188
currently lose_sum: 0.5729311108589172
time_elpased: 1.872
#iterations: 189
currently lose_sum: 0.6247301697731018
time_elpased: 1.9
#iterations: 190
currently lose_sum: 0.638206422328949
time_elpased: 1.913
#iterations: 191
currently lose_sum: 0.5673336386680603
time_elpased: 1.951
#iterations: 192
currently lose_sum: 0.5623262524604797
time_elpased: 2.068
#iterations: 193
currently lose_sum: 0.530476987361908
time_elpased: 1.895
#iterations: 194
currently lose_sum: 0.5204329490661621
time_elpased: 1.919
#iterations: 195
currently lose_sum: 0.5033977627754211
time_elpased: 1.895
#iterations: 196
currently lose_sum: 0.5644142627716064
time_elpased: 1.864
#iterations: 197
currently lose_sum: 0.596038818359375
time_elpased: 1.913
#iterations: 198
currently lose_sum: 0.6531054973602295
time_elpased: 1.957
#iterations: 199
currently lose_sum: 0.5005265474319458
time_elpased: 1.92
start validation test
0.6936
0.759297520661
0.579652996845
0.657423971377
0.695264810111
14.701
#iterations: 200
currently lose_sum: 0.589621901512146
time_elpased: 1.956
#iterations: 201
currently lose_sum: 0.5558944344520569
time_elpased: 1.87
#iterations: 202
currently lose_sum: 0.5198599696159363
time_elpased: 1.884
#iterations: 203
currently lose_sum: 0.6377125978469849
time_elpased: 1.875
#iterations: 204
currently lose_sum: 0.5760431885719299
time_elpased: 1.92
#iterations: 205
currently lose_sum: 0.5639692544937134
time_elpased: 1.832
#iterations: 206
currently lose_sum: 0.4844689965248108
time_elpased: 1.88
#iterations: 207
currently lose_sum: 0.5702627301216125
time_elpased: 1.89
#iterations: 208
currently lose_sum: 0.5855081081390381
time_elpased: 1.901
#iterations: 209
currently lose_sum: 0.5945402383804321
time_elpased: 1.86
#iterations: 210
currently lose_sum: 0.5470861196517944
time_elpased: 1.914
#iterations: 211
currently lose_sum: 0.6738347411155701
time_elpased: 2.014
#iterations: 212
currently lose_sum: 0.5277957320213318
time_elpased: 1.892
#iterations: 213
currently lose_sum: 0.4990047514438629
time_elpased: 1.88
#iterations: 214
currently lose_sum: 0.6158788204193115
time_elpased: 1.892
#iterations: 215
currently lose_sum: 0.5273886322975159
time_elpased: 1.902
#iterations: 216
currently lose_sum: 0.5303542017936707
time_elpased: 1.88
#iterations: 217
currently lose_sum: 0.46936526894569397
time_elpased: 1.88
#iterations: 218
currently lose_sum: 0.5551213622093201
time_elpased: 1.883
#iterations: 219
currently lose_sum: 0.5399161577224731
time_elpased: 1.873
start validation test
0.7064
0.740974729242
0.647476340694
0.691077441077
0.70726089762
14.292
#iterations: 220
currently lose_sum: 0.47677934169769287
time_elpased: 1.888
#iterations: 221
currently lose_sum: 0.5687426328659058
time_elpased: 1.897
#iterations: 222
currently lose_sum: 0.4916495382785797
time_elpased: 1.948
#iterations: 223
currently lose_sum: 0.5340014100074768
time_elpased: 1.916
#iterations: 224
currently lose_sum: 0.6526504755020142
time_elpased: 1.986
#iterations: 225
currently lose_sum: 0.5292900204658508
time_elpased: 1.879
#iterations: 226
currently lose_sum: 0.5703771114349365
time_elpased: 1.859
#iterations: 227
currently lose_sum: 0.568453311920166
time_elpased: 1.921
#iterations: 228
currently lose_sum: 0.5044698119163513
time_elpased: 1.907
#iterations: 229
currently lose_sum: 0.6658400893211365
time_elpased: 1.924
#iterations: 230
currently lose_sum: 0.5841717720031738
time_elpased: 1.914
#iterations: 231
currently lose_sum: 0.5472473502159119
time_elpased: 1.909
#iterations: 232
currently lose_sum: 0.5228656530380249
time_elpased: 1.88
#iterations: 233
currently lose_sum: 0.5649276971817017
time_elpased: 1.906
#iterations: 234
currently lose_sum: 0.6036230325698853
time_elpased: 1.87
#iterations: 235
currently lose_sum: 0.6483588218688965
time_elpased: 1.89
#iterations: 236
currently lose_sum: 0.5803927183151245
time_elpased: 1.887
#iterations: 237
currently lose_sum: 0.5028613209724426
time_elpased: 1.883
#iterations: 238
currently lose_sum: 0.4909868538379669
time_elpased: 1.883
#iterations: 239
currently lose_sum: 0.5318447351455688
time_elpased: 1.886
start validation test
0.6728
0.756849315068
0.522870662461
0.618470149254
0.674990526035
14.819
#iterations: 240
currently lose_sum: 0.5200651288032532
time_elpased: 1.901
#iterations: 241
currently lose_sum: 0.5091382265090942
time_elpased: 1.855
#iterations: 242
currently lose_sum: 0.5933051705360413
time_elpased: 1.933
#iterations: 243
currently lose_sum: 0.7022819519042969
time_elpased: 2.001
#iterations: 244
currently lose_sum: 0.580264687538147
time_elpased: 2.038
#iterations: 245
currently lose_sum: 0.4612944722175598
time_elpased: 1.913
#iterations: 246
currently lose_sum: 0.5186095237731934
time_elpased: 1.868
#iterations: 247
currently lose_sum: 0.4818796217441559
time_elpased: 1.903
#iterations: 248
currently lose_sum: 0.5481698513031006
time_elpased: 1.885
#iterations: 249
currently lose_sum: 0.5655103921890259
time_elpased: 1.994
#iterations: 250
currently lose_sum: 0.5912683010101318
time_elpased: 1.881
#iterations: 251
currently lose_sum: 0.5127625465393066
time_elpased: 1.897
#iterations: 252
currently lose_sum: 0.5466501712799072
time_elpased: 1.911
#iterations: 253
currently lose_sum: 0.5037060379981995
time_elpased: 1.927
#iterations: 254
currently lose_sum: 0.5513648986816406
time_elpased: 1.89
#iterations: 255
currently lose_sum: 0.5747905373573303
time_elpased: 1.904
#iterations: 256
currently lose_sum: 0.5601956844329834
time_elpased: 1.873
#iterations: 257
currently lose_sum: 0.6515926122665405
time_elpased: 1.97
#iterations: 258
currently lose_sum: 0.5602503418922424
time_elpased: 1.973
#iterations: 259
currently lose_sum: 0.5631290078163147
time_elpased: 1.902
start validation test
0.6948
0.666666666667
0.796529968454
0.725835429393
0.693313685526
14.408
#iterations: 260
currently lose_sum: 0.49194687604904175
time_elpased: 1.98
#iterations: 261
currently lose_sum: 0.5178829431533813
time_elpased: 1.942
#iterations: 262
currently lose_sum: 0.4965641498565674
time_elpased: 1.885
#iterations: 263
currently lose_sum: 0.587909460067749
time_elpased: 1.899
#iterations: 264
currently lose_sum: 0.5134206414222717
time_elpased: 1.878
#iterations: 265
currently lose_sum: 0.533341646194458
time_elpased: 1.895
#iterations: 266
currently lose_sum: 0.5649186372756958
time_elpased: 1.879
#iterations: 267
currently lose_sum: 0.6078512072563171
time_elpased: 1.899
#iterations: 268
currently lose_sum: 0.5008057951927185
time_elpased: 1.896
#iterations: 269
currently lose_sum: 0.7178428769111633
time_elpased: 1.909
#iterations: 270
currently lose_sum: 0.7873030304908752
time_elpased: 1.951
#iterations: 271
currently lose_sum: 0.6078623533248901
time_elpased: 1.897
#iterations: 272
currently lose_sum: 0.5965261459350586
time_elpased: 1.884
#iterations: 273
currently lose_sum: 0.5122259259223938
time_elpased: 1.898
#iterations: 274
currently lose_sum: 0.6895925998687744
time_elpased: 1.883
#iterations: 275
currently lose_sum: 0.5164649486541748
time_elpased: 1.945
#iterations: 276
currently lose_sum: 0.5377244353294373
time_elpased: 1.902
#iterations: 277
currently lose_sum: 0.6330254673957825
time_elpased: 1.859
#iterations: 278
currently lose_sum: 0.5237317681312561
time_elpased: 1.948
#iterations: 279
currently lose_sum: 0.4890991151332855
time_elpased: 1.909
start validation test
0.7016
0.684582743989
0.763406940063
0.721849366145
0.700696976525
14.177
#iterations: 280
currently lose_sum: 0.5685907006263733
time_elpased: 1.902
#iterations: 281
currently lose_sum: 0.5026522278785706
time_elpased: 1.901
#iterations: 282
currently lose_sum: 0.5104537010192871
time_elpased: 1.887
#iterations: 283
currently lose_sum: 0.5292088389396667
time_elpased: 1.888
#iterations: 284
currently lose_sum: 0.5368067026138306
time_elpased: 1.909
#iterations: 285
currently lose_sum: 0.5683059692382812
time_elpased: 2.01
#iterations: 286
currently lose_sum: 0.6698488593101501
time_elpased: 1.893
#iterations: 287
currently lose_sum: 0.5646235942840576
time_elpased: 2.024
#iterations: 288
currently lose_sum: 0.47361624240875244
time_elpased: 1.887
#iterations: 289
currently lose_sum: 0.557859480381012
time_elpased: 1.891
#iterations: 290
currently lose_sum: 0.5375975966453552
time_elpased: 1.939
#iterations: 291
currently lose_sum: 0.4822325110435486
time_elpased: 1.921
#iterations: 292
currently lose_sum: 0.49779731035232544
time_elpased: 1.943
#iterations: 293
currently lose_sum: 0.5231187343597412
time_elpased: 1.924
#iterations: 294
currently lose_sum: 0.5737735629081726
time_elpased: 1.877
#iterations: 295
currently lose_sum: 0.5394273996353149
time_elpased: 1.889
#iterations: 296
currently lose_sum: 0.5147662162780762
time_elpased: 1.921
#iterations: 297
currently lose_sum: 0.5051040649414062
time_elpased: 1.893
#iterations: 298
currently lose_sum: 0.5539771914482117
time_elpased: 1.895
#iterations: 299
currently lose_sum: 0.6468478441238403
time_elpased: 1.961
start validation test
0.6952
0.663015463918
0.811514195584
0.729787234043
0.693500604285
14.597
#iterations: 300
currently lose_sum: 0.4827093780040741
time_elpased: 1.928
#iterations: 301
currently lose_sum: 0.4916970133781433
time_elpased: 1.883
#iterations: 302
currently lose_sum: 0.5447018146514893
time_elpased: 1.927
#iterations: 303
currently lose_sum: 0.5127221941947937
time_elpased: 1.895
#iterations: 304
currently lose_sum: 0.5668582320213318
time_elpased: 1.943
#iterations: 305
currently lose_sum: 0.5145723223686218
time_elpased: 1.912
#iterations: 306
currently lose_sum: 0.554405689239502
time_elpased: 1.877
#iterations: 307
currently lose_sum: 0.5637683868408203
time_elpased: 1.895
#iterations: 308
currently lose_sum: 0.5244734883308411
time_elpased: 1.96
#iterations: 309
currently lose_sum: 0.519959568977356
time_elpased: 1.868
#iterations: 310
currently lose_sum: 0.5341765880584717
time_elpased: 1.939
#iterations: 311
currently lose_sum: 0.6047437787055969
time_elpased: 1.9
#iterations: 312
currently lose_sum: 0.6867039203643799
time_elpased: 1.943
#iterations: 313
currently lose_sum: 0.4739300012588501
time_elpased: 1.941
#iterations: 314
currently lose_sum: 0.4429120719432831
time_elpased: 1.911
#iterations: 315
currently lose_sum: 0.4979143440723419
time_elpased: 1.949
#iterations: 316
currently lose_sum: 0.4704635739326477
time_elpased: 1.962
#iterations: 317
currently lose_sum: 0.5405488014221191
time_elpased: 1.901
#iterations: 318
currently lose_sum: 0.5860815644264221
time_elpased: 1.865
#iterations: 319
currently lose_sum: 0.5204183459281921
time_elpased: 1.886
start validation test
0.7016
0.749045801527
0.619085173502
0.677892918826
0.702805573764
14.226
#iterations: 320
currently lose_sum: 0.4926379323005676
time_elpased: 1.977
#iterations: 321
currently lose_sum: 0.5548571944236755
time_elpased: 1.866
#iterations: 322
currently lose_sum: 0.5250310301780701
time_elpased: 1.908
#iterations: 323
currently lose_sum: 0.5233632922172546
time_elpased: 1.951
#iterations: 324
currently lose_sum: 0.5702718496322632
time_elpased: 1.925
#iterations: 325
currently lose_sum: 0.4425569176673889
time_elpased: 1.907
#iterations: 326
currently lose_sum: 0.506885290145874
time_elpased: 1.946
#iterations: 327
currently lose_sum: 0.46906930208206177
time_elpased: 1.929
#iterations: 328
currently lose_sum: 0.5167765617370605
time_elpased: 1.877
#iterations: 329
currently lose_sum: 0.5192381143569946
time_elpased: 1.922
#iterations: 330
currently lose_sum: 0.5519258379936218
time_elpased: 1.889
#iterations: 331
currently lose_sum: 0.5695458650588989
time_elpased: 1.933
#iterations: 332
currently lose_sum: 0.5208978056907654
time_elpased: 1.88
#iterations: 333
currently lose_sum: 0.518173098564148
time_elpased: 1.872
#iterations: 334
currently lose_sum: 0.5408484935760498
time_elpased: 1.956
#iterations: 335
currently lose_sum: 0.4367208778858185
time_elpased: 1.893
#iterations: 336
currently lose_sum: 0.4734208583831787
time_elpased: 1.889
#iterations: 337
currently lose_sum: 0.4944797158241272
time_elpased: 1.902
#iterations: 338
currently lose_sum: 0.5899239182472229
time_elpased: 1.913
#iterations: 339
currently lose_sum: 0.46873724460601807
time_elpased: 1.851
start validation test
0.7136
0.689821182944
0.791009463722
0.73695811903
0.712469017575
13.920
#iterations: 340
currently lose_sum: 0.5628320574760437
time_elpased: 1.873
#iterations: 341
currently lose_sum: 0.48741382360458374
time_elpased: 1.918
#iterations: 342
currently lose_sum: 0.5127915143966675
time_elpased: 1.93
#iterations: 343
currently lose_sum: 0.46600815653800964
time_elpased: 1.916
#iterations: 344
currently lose_sum: 0.44747334718704224
time_elpased: 1.926
#iterations: 345
currently lose_sum: 0.5751954317092896
time_elpased: 1.89
#iterations: 346
currently lose_sum: 0.46454909443855286
time_elpased: 1.863
#iterations: 347
currently lose_sum: 0.5476445555686951
time_elpased: 1.958
#iterations: 348
currently lose_sum: 0.5730751752853394
time_elpased: 1.897
#iterations: 349
currently lose_sum: 0.5212380886077881
time_elpased: 1.963
#iterations: 350
currently lose_sum: 0.4493456184864044
time_elpased: 1.907
#iterations: 351
currently lose_sum: 0.5663741230964661
time_elpased: 1.895
#iterations: 352
currently lose_sum: 0.5131140351295471
time_elpased: 1.871
#iterations: 353
currently lose_sum: 0.4908868372440338
time_elpased: 1.872
#iterations: 354
currently lose_sum: 0.4714394509792328
time_elpased: 1.873
#iterations: 355
currently lose_sum: 0.4507670998573303
time_elpased: 1.942
#iterations: 356
currently lose_sum: 0.48071709275245667
time_elpased: 1.928
#iterations: 357
currently lose_sum: 0.5166606307029724
time_elpased: 1.882
#iterations: 358
currently lose_sum: 0.5375223755836487
time_elpased: 1.878
#iterations: 359
currently lose_sum: 0.4874984622001648
time_elpased: 1.879
start validation test
0.7128
0.745974955277
0.657728706625
0.699077954736
0.713604613053
14.063
#iterations: 360
currently lose_sum: 0.5257538557052612
time_elpased: 1.836
#iterations: 361
currently lose_sum: 0.5285001397132874
time_elpased: 1.961
#iterations: 362
currently lose_sum: 0.5786760449409485
time_elpased: 1.901
#iterations: 363
currently lose_sum: 0.48225441575050354
time_elpased: 1.944
#iterations: 364
currently lose_sum: 0.5888099074363708
time_elpased: 1.892
#iterations: 365
currently lose_sum: 0.5109964609146118
time_elpased: 1.875
#iterations: 366
currently lose_sum: 0.5970453023910522
time_elpased: 1.854
#iterations: 367
currently lose_sum: 0.46645650267601013
time_elpased: 1.93
#iterations: 368
currently lose_sum: 0.6443255543708801
time_elpased: 1.913
#iterations: 369
currently lose_sum: 0.48256343603134155
time_elpased: 1.941
#iterations: 370
currently lose_sum: 0.5407666563987732
time_elpased: 1.956
#iterations: 371
currently lose_sum: 0.5314226746559143
time_elpased: 1.929
#iterations: 372
currently lose_sum: 0.4303230345249176
time_elpased: 1.854
#iterations: 373
currently lose_sum: 0.5471662878990173
time_elpased: 1.912
#iterations: 374
currently lose_sum: 0.5260686278343201
time_elpased: 1.931
#iterations: 375
currently lose_sum: 0.46441224217414856
time_elpased: 1.907
#iterations: 376
currently lose_sum: 0.5201894640922546
time_elpased: 1.948
#iterations: 377
currently lose_sum: 0.5194345712661743
time_elpased: 1.897
#iterations: 378
currently lose_sum: 0.5081259608268738
time_elpased: 1.946
#iterations: 379
currently lose_sum: 0.4744459390640259
time_elpased: 1.988
start validation test
0.7084
0.683959044369
0.790220820189
0.733260153677
0.707204565939
14.073
#iterations: 380
currently lose_sum: 0.48822057247161865
time_elpased: 1.907
#iterations: 381
currently lose_sum: 0.527738630771637
time_elpased: 1.905
#iterations: 382
currently lose_sum: 0.6556842923164368
time_elpased: 1.878
#iterations: 383
currently lose_sum: 0.449110746383667
time_elpased: 1.903
#iterations: 384
currently lose_sum: 0.5007522702217102
time_elpased: 1.852
#iterations: 385
currently lose_sum: 0.5499542355537415
time_elpased: 1.866
#iterations: 386
currently lose_sum: 0.469908207654953
time_elpased: 1.91
#iterations: 387
currently lose_sum: 0.5039036870002747
time_elpased: 1.911
#iterations: 388
currently lose_sum: 0.4251351058483124
time_elpased: 1.941
#iterations: 389
currently lose_sum: 0.5126951336860657
time_elpased: 1.864
#iterations: 390
currently lose_sum: 0.5039776563644409
time_elpased: 1.872
#iterations: 391
currently lose_sum: 0.582422137260437
time_elpased: 1.919
#iterations: 392
currently lose_sum: 0.462467759847641
time_elpased: 1.912
#iterations: 393
currently lose_sum: 0.5223421454429626
time_elpased: 1.938
#iterations: 394
currently lose_sum: 0.46562492847442627
time_elpased: 1.902
#iterations: 395
currently lose_sum: 0.5289344787597656
time_elpased: 1.844
#iterations: 396
currently lose_sum: 0.4809064567089081
time_elpased: 1.889
#iterations: 397
currently lose_sum: 0.5031607747077942
time_elpased: 1.954
#iterations: 398
currently lose_sum: 0.5327032208442688
time_elpased: 1.976
#iterations: 399
currently lose_sum: 0.522315502166748
time_elpased: 1.851
start validation test
0.71
0.739207048458
0.66167192429
0.698293799417
0.710706092015
14.012
#iterations: 400
currently lose_sum: 0.5660331845283508
time_elpased: 1.861
#iterations: 401
currently lose_sum: 0.5335261821746826
time_elpased: 1.861
#iterations: 402
currently lose_sum: 0.4838634431362152
time_elpased: 1.954
#iterations: 403
currently lose_sum: 0.5332325100898743
time_elpased: 1.922
#iterations: 404
currently lose_sum: 0.5199768543243408
time_elpased: 1.883
#iterations: 405
currently lose_sum: 0.4824671149253845
time_elpased: 1.907
#iterations: 406
currently lose_sum: 0.4630892276763916
time_elpased: 1.899
#iterations: 407
currently lose_sum: 0.49076783657073975
time_elpased: 1.889
#iterations: 408
currently lose_sum: 0.4900241792201996
time_elpased: 1.941
#iterations: 409
currently lose_sum: 0.49133872985839844
time_elpased: 1.865
#iterations: 410
currently lose_sum: 0.4939688444137573
time_elpased: 1.899
#iterations: 411
currently lose_sum: 0.5218685269355774
time_elpased: 1.917
#iterations: 412
currently lose_sum: 0.523812472820282
time_elpased: 1.875
#iterations: 413
currently lose_sum: 0.4926590621471405
time_elpased: 1.852
#iterations: 414
currently lose_sum: 0.49466636776924133
time_elpased: 1.942
#iterations: 415
currently lose_sum: 0.5393358469009399
time_elpased: 1.914
#iterations: 416
currently lose_sum: 0.5010635256767273
time_elpased: 1.914
#iterations: 417
currently lose_sum: 0.5119091272354126
time_elpased: 1.927
#iterations: 418
currently lose_sum: 0.5485244393348694
time_elpased: 1.894
#iterations: 419
currently lose_sum: 0.5122215747833252
time_elpased: 1.901
start validation test
0.7108
0.675919948354
0.82570977918
0.743343982961
0.709121123356
14.141
#iterations: 420
currently lose_sum: 0.5589600205421448
time_elpased: 1.879
#iterations: 421
currently lose_sum: 0.5533155202865601
time_elpased: 1.889
#iterations: 422
currently lose_sum: 0.45548155903816223
time_elpased: 1.836
#iterations: 423
currently lose_sum: 0.5199516415596008
time_elpased: 1.948
#iterations: 424
currently lose_sum: 0.499795138835907
time_elpased: 1.976
#iterations: 425
currently lose_sum: 0.4411137104034424
time_elpased: 1.882
#iterations: 426
currently lose_sum: 0.6087063550949097
time_elpased: 1.905
#iterations: 427
currently lose_sum: 0.5052040219306946
time_elpased: 1.933
#iterations: 428
currently lose_sum: 0.5469856262207031
time_elpased: 1.937
#iterations: 429
currently lose_sum: 0.5919000506401062
time_elpased: 1.933
#iterations: 430
currently lose_sum: 0.47853147983551025
time_elpased: 1.913
#iterations: 431
currently lose_sum: 0.5637282133102417
time_elpased: 1.881
#iterations: 432
currently lose_sum: 0.5367175936698914
time_elpased: 2.047
#iterations: 433
currently lose_sum: 0.4761897325515747
time_elpased: 1.946
#iterations: 434
currently lose_sum: 0.535991907119751
time_elpased: 1.876
#iterations: 435
currently lose_sum: 0.3960449993610382
time_elpased: 1.894
#iterations: 436
currently lose_sum: 0.601185142993927
time_elpased: 1.91
#iterations: 437
currently lose_sum: 0.5267488956451416
time_elpased: 1.935
#iterations: 438
currently lose_sum: 0.4962644875049591
time_elpased: 1.915
#iterations: 439
currently lose_sum: 0.44221702218055725
time_elpased: 1.862
start validation test
0.6992
0.755952380952
0.60094637224
0.669595782074
0.700635523782
14.154
#iterations: 440
currently lose_sum: 0.4281872808933258
time_elpased: 1.909
#iterations: 441
currently lose_sum: 0.4697614908218384
time_elpased: 1.96
#iterations: 442
currently lose_sum: 0.48910072445869446
time_elpased: 1.976
#iterations: 443
currently lose_sum: 0.45721396803855896
time_elpased: 1.915
#iterations: 444
currently lose_sum: 0.530761182308197
time_elpased: 1.92
#iterations: 445
currently lose_sum: 0.3927146792411804
time_elpased: 1.865
#iterations: 446
currently lose_sum: 0.49307867884635925
time_elpased: 1.967
#iterations: 447
currently lose_sum: 0.5240947008132935
time_elpased: 1.921
#iterations: 448
currently lose_sum: 0.4622523784637451
time_elpased: 1.905
#iterations: 449
currently lose_sum: 0.4675547778606415
time_elpased: 1.875
#iterations: 450
currently lose_sum: 0.6296303868293762
time_elpased: 1.861
#iterations: 451
currently lose_sum: 0.5678560137748718
time_elpased: 1.891
#iterations: 452
currently lose_sum: 0.4604871869087219
time_elpased: 1.879
#iterations: 453
currently lose_sum: 0.46690213680267334
time_elpased: 1.919
#iterations: 454
currently lose_sum: 0.5392215251922607
time_elpased: 1.97
#iterations: 455
currently lose_sum: 0.5604569911956787
time_elpased: 1.902
#iterations: 456
currently lose_sum: 0.5039107799530029
time_elpased: 1.856
#iterations: 457
currently lose_sum: 0.46758177876472473
time_elpased: 1.913
#iterations: 458
currently lose_sum: 0.5266486406326294
time_elpased: 1.914
#iterations: 459
currently lose_sum: 0.4750012159347534
time_elpased: 1.904
start validation test
0.7212
0.709464416728
0.76261829653
0.735081717978
0.720594862551
13.722
#iterations: 460
currently lose_sum: 0.49702784419059753
time_elpased: 1.875
#iterations: 461
currently lose_sum: 0.5084002614021301
time_elpased: 1.98
#iterations: 462
currently lose_sum: 0.4556802809238434
time_elpased: 1.904
#iterations: 463
currently lose_sum: 0.44442683458328247
time_elpased: 1.885
#iterations: 464
currently lose_sum: 0.464161217212677
time_elpased: 1.867
#iterations: 465
currently lose_sum: 0.45796477794647217
time_elpased: 1.906
#iterations: 466
currently lose_sum: 0.49274563789367676
time_elpased: 1.989
#iterations: 467
currently lose_sum: 0.45736634731292725
time_elpased: 1.908
#iterations: 468
currently lose_sum: 0.44462528824806213
time_elpased: 1.863
#iterations: 469
currently lose_sum: 0.44391533732414246
time_elpased: 2.005
#iterations: 470
currently lose_sum: 0.45037972927093506
time_elpased: 1.887
#iterations: 471
currently lose_sum: 0.4757445454597473
time_elpased: 1.914
#iterations: 472
currently lose_sum: 0.5346271395683289
time_elpased: 2.049
#iterations: 473
currently lose_sum: 0.4955557882785797
time_elpased: 1.913
#iterations: 474
currently lose_sum: 0.6220641732215881
time_elpased: 1.905
#iterations: 475
currently lose_sum: 0.5020167827606201
time_elpased: 1.901
#iterations: 476
currently lose_sum: 0.4761979281902313
time_elpased: 1.889
#iterations: 477
currently lose_sum: 0.563242495059967
time_elpased: 2.15
#iterations: 478
currently lose_sum: 0.5395469069480896
time_elpased: 1.909
#iterations: 479
currently lose_sum: 0.4710724651813507
time_elpased: 1.903
start validation test
0.7124
0.673844205193
0.839116719243
0.747453459782
0.710548619362
14.121
#iterations: 480
currently lose_sum: 0.5795528292655945
time_elpased: 1.884
#iterations: 481
currently lose_sum: 0.4570951759815216
time_elpased: 1.886
#iterations: 482
currently lose_sum: 0.5298111438751221
time_elpased: 1.894
#iterations: 483
currently lose_sum: 0.4348863959312439
time_elpased: 1.915
#iterations: 484
currently lose_sum: 0.4441436529159546
time_elpased: 1.886
#iterations: 485
currently lose_sum: 0.5601980686187744
time_elpased: 1.951
#iterations: 486
currently lose_sum: 0.5010278820991516
time_elpased: 1.904
#iterations: 487
currently lose_sum: 0.49313613772392273
time_elpased: 1.882
#iterations: 488
currently lose_sum: 0.515943169593811
time_elpased: 1.827
#iterations: 489
currently lose_sum: 0.4667293429374695
time_elpased: 1.898
#iterations: 490
currently lose_sum: 0.6045644283294678
time_elpased: 2.018
#iterations: 491
currently lose_sum: 0.5636242628097534
time_elpased: 1.953
#iterations: 492
currently lose_sum: 0.49161773920059204
time_elpased: 1.885
#iterations: 493
currently lose_sum: 0.49285656213760376
time_elpased: 1.91
#iterations: 494
currently lose_sum: 0.4062976837158203
time_elpased: 1.893
#iterations: 495
currently lose_sum: 0.5256481766700745
time_elpased: 1.922
#iterations: 496
currently lose_sum: 0.4495338499546051
time_elpased: 1.896
#iterations: 497
currently lose_sum: 0.5012971758842468
time_elpased: 1.907
#iterations: 498
currently lose_sum: 0.5894985198974609
time_elpased: 1.854
#iterations: 499
currently lose_sum: 0.407747358083725
time_elpased: 1.862
start validation test
0.6232
0.877314814815
0.298895899054
0.445882352941
0.627938209267
18.699
#iterations: 500
currently lose_sum: 0.4410402774810791
time_elpased: 1.901
#iterations: 501
currently lose_sum: 0.5080354809761047
time_elpased: 1.847
#iterations: 502
currently lose_sum: 0.42585867643356323
time_elpased: 1.875
#iterations: 503
currently lose_sum: 0.5463801622390747
time_elpased: 1.917
#iterations: 504
currently lose_sum: 0.6025246977806091
time_elpased: 1.958
#iterations: 505
currently lose_sum: 0.488800972700119
time_elpased: 1.891
#iterations: 506
currently lose_sum: 0.4252226948738098
time_elpased: 1.933
#iterations: 507
currently lose_sum: 0.4242182970046997
time_elpased: 1.922
#iterations: 508
currently lose_sum: 0.35820117592811584
time_elpased: 1.864
#iterations: 509
currently lose_sum: 0.4811187982559204
time_elpased: 1.965
#iterations: 510
currently lose_sum: 0.546043336391449
time_elpased: 1.888
#iterations: 511
currently lose_sum: 0.5406888723373413
time_elpased: 1.917
#iterations: 512
currently lose_sum: 0.5274460315704346
time_elpased: 1.871
#iterations: 513
currently lose_sum: 0.4613761901855469
time_elpased: 1.884
#iterations: 514
currently lose_sum: 0.4973830282688141
time_elpased: 1.882
#iterations: 515
currently lose_sum: 0.42426830530166626
time_elpased: 1.867
#iterations: 516
currently lose_sum: 0.6266096830368042
time_elpased: 1.957
#iterations: 517
currently lose_sum: 0.5001356601715088
time_elpased: 1.939
#iterations: 518
currently lose_sum: 0.49649688601493835
time_elpased: 1.888
#iterations: 519
currently lose_sum: 0.5109128355979919
time_elpased: 1.892
start validation test
0.7264
0.730283911672
0.730283911672
0.730283911672
0.726343254537
13.598
#iterations: 520
currently lose_sum: 0.488750696182251
time_elpased: 1.983
#iterations: 521
currently lose_sum: 0.4641633927822113
time_elpased: 1.894
#iterations: 522
currently lose_sum: 0.39878547191619873
time_elpased: 1.92
#iterations: 523
currently lose_sum: 0.4360806941986084
time_elpased: 1.913
#iterations: 524
currently lose_sum: 0.5212053656578064
time_elpased: 1.955
#iterations: 525
currently lose_sum: 0.4198664128780365
time_elpased: 1.939
#iterations: 526
currently lose_sum: 0.5096172094345093
time_elpased: 1.881
#iterations: 527
currently lose_sum: 0.44848495721817017
time_elpased: 1.931
#iterations: 528
currently lose_sum: 0.5593130588531494
time_elpased: 1.887
#iterations: 529
currently lose_sum: 0.514777660369873
time_elpased: 1.87
#iterations: 530
currently lose_sum: 0.49146729707717896
time_elpased: 1.878
#iterations: 531
currently lose_sum: 0.4475041925907135
time_elpased: 1.917
#iterations: 532
currently lose_sum: 0.40947821736335754
time_elpased: 1.973
#iterations: 533
currently lose_sum: 0.4194685220718384
time_elpased: 1.854
#iterations: 534
currently lose_sum: 0.46266883611679077
time_elpased: 1.965
#iterations: 535
currently lose_sum: 0.47227928042411804
time_elpased: 2.002
#iterations: 536
currently lose_sum: 0.5785703063011169
time_elpased: 1.905
#iterations: 537
currently lose_sum: 0.6060358881950378
time_elpased: 1.924
#iterations: 538
currently lose_sum: 0.4309007227420807
time_elpased: 1.923
#iterations: 539
currently lose_sum: 0.45512762665748596
time_elpased: 1.893
start validation test
0.6916
0.802679658952
0.519716088328
0.630923887027
0.694111290917
14.841
#iterations: 540
currently lose_sum: 0.5276044607162476
time_elpased: 1.903
#iterations: 541
currently lose_sum: 0.5279309749603271
time_elpased: 1.977
#iterations: 542
currently lose_sum: 0.5459172129631042
time_elpased: 1.917
#iterations: 543
currently lose_sum: 0.48033607006073
time_elpased: 1.883
#iterations: 544
currently lose_sum: 0.48698797821998596
time_elpased: 1.865
#iterations: 545
currently lose_sum: 0.4823072552680969
time_elpased: 1.889
#iterations: 546
currently lose_sum: 0.47185444831848145
time_elpased: 1.876
#iterations: 547
currently lose_sum: 0.5637009739875793
time_elpased: 1.99
#iterations: 548
currently lose_sum: 0.5580793619155884
time_elpased: 1.879
#iterations: 549
currently lose_sum: 0.4162970781326294
time_elpased: 1.865
#iterations: 550
currently lose_sum: 0.4377051889896393
time_elpased: 1.941
#iterations: 551
currently lose_sum: 0.4806239604949951
time_elpased: 1.874
#iterations: 552
currently lose_sum: 0.4137442111968994
time_elpased: 1.904
#iterations: 553
currently lose_sum: 0.473671555519104
time_elpased: 1.883
#iterations: 554
currently lose_sum: 0.5256408452987671
time_elpased: 1.878
#iterations: 555
currently lose_sum: 0.5993439555168152
time_elpased: 1.869
#iterations: 556
currently lose_sum: 0.563401460647583
time_elpased: 1.946
#iterations: 557
currently lose_sum: 0.4844147861003876
time_elpased: 1.909
#iterations: 558
currently lose_sum: 0.4938899278640747
time_elpased: 1.912
#iterations: 559
currently lose_sum: 0.5509765148162842
time_elpased: 1.919
start validation test
0.72
0.723974763407
0.723974763407
0.723974763407
0.719941927158
13.719
#iterations: 560
currently lose_sum: 0.4486108422279358
time_elpased: 1.891
#iterations: 561
currently lose_sum: 0.5102614760398865
time_elpased: 1.879
#iterations: 562
currently lose_sum: 0.4694981276988983
time_elpased: 1.906
#iterations: 563
currently lose_sum: 0.42204397916793823
time_elpased: 1.941
#iterations: 564
currently lose_sum: 0.48002463579177856
time_elpased: 1.932
#iterations: 565
currently lose_sum: 0.44692862033843994
time_elpased: 1.923
#iterations: 566
currently lose_sum: 0.5759254693984985
time_elpased: 1.873
#iterations: 567
currently lose_sum: 0.5437657237052917
time_elpased: 1.898
#iterations: 568
currently lose_sum: 0.4534689784049988
time_elpased: 1.865
#iterations: 569
currently lose_sum: 0.40219077467918396
time_elpased: 1.848
#iterations: 570
currently lose_sum: 0.49360913038253784
time_elpased: 1.935
#iterations: 571
currently lose_sum: 0.47664299607276917
time_elpased: 1.886
#iterations: 572
currently lose_sum: 0.5818740725517273
time_elpased: 1.939
#iterations: 573
currently lose_sum: 0.573486328125
time_elpased: 1.959
#iterations: 574
currently lose_sum: 0.487135112285614
time_elpased: 1.859
#iterations: 575
currently lose_sum: 0.45677292346954346
time_elpased: 2.05
#iterations: 576
currently lose_sum: 0.4802401661872864
time_elpased: 1.939
#iterations: 577
currently lose_sum: 0.4940929412841797
time_elpased: 1.932
#iterations: 578
currently lose_sum: 0.4060703217983246
time_elpased: 2.01
#iterations: 579
currently lose_sum: 0.4857701361179352
time_elpased: 1.875
start validation test
0.708
0.769
0.606466876972
0.678130511464
0.709483438486
14.028
#iterations: 580
currently lose_sum: 0.4647892117500305
time_elpased: 1.957
#iterations: 581
currently lose_sum: 0.5379910469055176
time_elpased: 1.96
#iterations: 582
currently lose_sum: 0.4924699366092682
time_elpased: 1.92
#iterations: 583
currently lose_sum: 0.4693363904953003
time_elpased: 1.963
#iterations: 584
currently lose_sum: 0.7670057415962219
time_elpased: 1.886
#iterations: 585
currently lose_sum: 0.6196084022521973
time_elpased: 1.895
#iterations: 586
currently lose_sum: 0.4816586971282959
time_elpased: 1.863
#iterations: 587
currently lose_sum: 0.487796813249588
time_elpased: 1.882
#iterations: 588
currently lose_sum: 0.443093478679657
time_elpased: 2.018
#iterations: 589
currently lose_sum: 0.5752231478691101
time_elpased: 1.916
#iterations: 590
currently lose_sum: 0.48953139781951904
time_elpased: 1.904
#iterations: 591
currently lose_sum: 0.4558127522468567
time_elpased: 1.937
#iterations: 592
currently lose_sum: 0.47335800528526306
time_elpased: 2.086
#iterations: 593
currently lose_sum: 0.43712347745895386
time_elpased: 2.005
#iterations: 594
currently lose_sum: 0.43150490522384644
time_elpased: 1.853
#iterations: 595
currently lose_sum: 0.5488454103469849
time_elpased: 1.905
#iterations: 596
currently lose_sum: 0.4981588125228882
time_elpased: 1.908
#iterations: 597
currently lose_sum: 0.4341268539428711
time_elpased: 1.911
#iterations: 598
currently lose_sum: 0.57325279712677
time_elpased: 2.002
#iterations: 599
currently lose_sum: 0.43903565406799316
time_elpased: 1.891
start validation test
0.7156
0.755739210285
0.64905362776
0.698345354264
0.716572268426
14.009
acc: 0.695
pre: 0.698
rec: 0.703
F1: 0.700
auc: 0.695
