start to construct computing graph
graph construct over
3802
epochs start
#iterations: 0
currently lose_sum: 0.6938978433609009
time_elpased: 4.412
#iterations: 1
currently lose_sum: 0.6919655799865723
time_elpased: 4.367
#iterations: 2
currently lose_sum: 0.6914425492286682
time_elpased: 4.374
#iterations: 3
currently lose_sum: 0.6943845152854919
time_elpased: 4.328
#iterations: 4
currently lose_sum: 0.6891496181488037
time_elpased: 4.406
#iterations: 5
currently lose_sum: 0.6851130723953247
time_elpased: 4.403
#iterations: 6
currently lose_sum: 0.692972719669342
time_elpased: 4.372
#iterations: 7
currently lose_sum: 0.6802198886871338
time_elpased: 4.36
#iterations: 8
currently lose_sum: 0.686680018901825
time_elpased: 4.409
#iterations: 9
currently lose_sum: 0.6979379057884216
time_elpased: 4.544
#iterations: 10
currently lose_sum: 0.7005239725112915
time_elpased: 4.312
#iterations: 11
currently lose_sum: 0.6931833624839783
time_elpased: 4.418
#iterations: 12
currently lose_sum: 0.6829400062561035
time_elpased: 4.441
#iterations: 13
currently lose_sum: 0.6886280179023743
time_elpased: 4.406
#iterations: 14
currently lose_sum: 0.6910140514373779
time_elpased: 4.317
#iterations: 15
currently lose_sum: 0.6830765008926392
time_elpased: 4.418
#iterations: 16
currently lose_sum: 0.6882218718528748
time_elpased: 4.324
#iterations: 17
currently lose_sum: 0.6892504692077637
time_elpased: 4.301
#iterations: 18
currently lose_sum: 0.6699153780937195
time_elpased: 4.342
#iterations: 19
currently lose_sum: 0.6885932087898254
time_elpased: 4.399
start validation test
0.5412
0.529100529101
0.867507886435
0.657305049298
0.536432514646
17.147
#iterations: 20
currently lose_sum: 0.6923629641532898
time_elpased: 3.944
#iterations: 21
currently lose_sum: 0.688456118106842
time_elpased: 3.706
#iterations: 22
currently lose_sum: 0.6727674603462219
time_elpased: 3.615
#iterations: 23
currently lose_sum: 0.6985659003257751
time_elpased: 3.699
#iterations: 24
currently lose_sum: 0.687954306602478
time_elpased: 3.687
#iterations: 25
currently lose_sum: 0.7088727355003357
time_elpased: 3.721
#iterations: 26
currently lose_sum: 0.6698135137557983
time_elpased: 3.733
#iterations: 27
currently lose_sum: 0.7032694816589355
time_elpased: 3.63
#iterations: 28
currently lose_sum: 0.6911269426345825
time_elpased: 3.631
#iterations: 29
currently lose_sum: 0.6770814657211304
time_elpased: 3.663
#iterations: 30
currently lose_sum: 0.6560604572296143
time_elpased: 3.699
#iterations: 31
currently lose_sum: 0.681009829044342
time_elpased: 3.632
#iterations: 32
currently lose_sum: 0.65880286693573
time_elpased: 3.67
#iterations: 33
currently lose_sum: 0.6805896162986755
time_elpased: 3.754
#iterations: 34
currently lose_sum: 0.7504082322120667
time_elpased: 3.616
#iterations: 35
currently lose_sum: 0.6680226922035217
time_elpased: 3.632
#iterations: 36
currently lose_sum: 0.6712505221366882
time_elpased: 3.686
#iterations: 37
currently lose_sum: 0.6056228280067444
time_elpased: 3.612
#iterations: 38
currently lose_sum: 0.6603367328643799
time_elpased: 3.666
#iterations: 39
currently lose_sum: 0.6568286418914795
time_elpased: 3.649
start validation test
0.5768
0.681660899654
0.31072555205
0.426868905742
0.58068745135
16.838
#iterations: 40
currently lose_sum: 0.6127789616584778
time_elpased: 3.676
#iterations: 41
currently lose_sum: 0.6919574737548828
time_elpased: 3.675
#iterations: 42
currently lose_sum: 0.6494792699813843
time_elpased: 3.802
#iterations: 43
currently lose_sum: 0.612457275390625
time_elpased: 3.656
#iterations: 44
currently lose_sum: 0.6676313877105713
time_elpased: 3.683
#iterations: 45
currently lose_sum: 0.6461460590362549
time_elpased: 3.725
#iterations: 46
currently lose_sum: 0.6531148552894592
time_elpased: 3.648
#iterations: 47
currently lose_sum: 0.7033030986785889
time_elpased: 3.683
#iterations: 48
currently lose_sum: 0.665820837020874
time_elpased: 3.705
#iterations: 49
currently lose_sum: 0.6766774654388428
time_elpased: 3.666
#iterations: 50
currently lose_sum: 0.6398164629936218
time_elpased: 3.7
#iterations: 51
currently lose_sum: 0.6676390767097473
time_elpased: 3.649
#iterations: 52
currently lose_sum: 0.6193611025810242
time_elpased: 3.614
#iterations: 53
currently lose_sum: 0.6705793738365173
time_elpased: 3.717
#iterations: 54
currently lose_sum: 0.624424934387207
time_elpased: 3.651
#iterations: 55
currently lose_sum: 0.6526263356208801
time_elpased: 3.817
#iterations: 56
currently lose_sum: 0.654945969581604
time_elpased: 3.639
#iterations: 57
currently lose_sum: 0.6494672894477844
time_elpased: 3.653
#iterations: 58
currently lose_sum: 0.5703040361404419
time_elpased: 3.661
#iterations: 59
currently lose_sum: 0.6456042528152466
time_elpased: 3.601
start validation test
0.6064
0.623263888889
0.566246056782
0.593388429752
0.606986664755
16.352
#iterations: 60
currently lose_sum: 0.6298816800117493
time_elpased: 3.646
#iterations: 61
currently lose_sum: 0.6048466563224792
time_elpased: 3.649
#iterations: 62
currently lose_sum: 0.6513330936431885
time_elpased: 3.604
#iterations: 63
currently lose_sum: 0.6102101802825928
time_elpased: 3.655
#iterations: 64
currently lose_sum: 0.6344061493873596
time_elpased: 3.617
#iterations: 65
currently lose_sum: 0.6223354339599609
time_elpased: 3.629
#iterations: 66
currently lose_sum: 0.6885665059089661
time_elpased: 3.646
#iterations: 67
currently lose_sum: 0.6574379205703735
time_elpased: 3.625
#iterations: 68
currently lose_sum: 0.6530392169952393
time_elpased: 3.653
#iterations: 69
currently lose_sum: 0.6527259349822998
time_elpased: 3.617
#iterations: 70
currently lose_sum: 0.6323850154876709
time_elpased: 3.634
#iterations: 71
currently lose_sum: 0.6420698761940002
time_elpased: 3.643
#iterations: 72
currently lose_sum: 0.6015674471855164
time_elpased: 3.613
#iterations: 73
currently lose_sum: 0.6912931203842163
time_elpased: 3.637
#iterations: 74
currently lose_sum: 0.6710165143013
time_elpased: 3.655
#iterations: 75
currently lose_sum: 0.7272840738296509
time_elpased: 3.709
#iterations: 76
currently lose_sum: 0.6537802219390869
time_elpased: 3.681
#iterations: 77
currently lose_sum: 0.658153772354126
time_elpased: 3.669
#iterations: 78
currently lose_sum: 0.6186681389808655
time_elpased: 3.645
#iterations: 79
currently lose_sum: 0.634453296661377
time_elpased: 3.718
start validation test
0.632
0.606227106227
0.783123028391
0.683413626979
0.629792033676
16.031
#iterations: 80
currently lose_sum: 0.5599808692932129
time_elpased: 3.635
#iterations: 81
currently lose_sum: 0.6399816274642944
time_elpased: 3.636
#iterations: 82
currently lose_sum: 0.6172017455101013
time_elpased: 3.678
#iterations: 83
currently lose_sum: 0.6241661310195923
time_elpased: 3.722
#iterations: 84
currently lose_sum: 0.6426469683647156
time_elpased: 3.711
#iterations: 85
currently lose_sum: 0.6424328684806824
time_elpased: 3.692
#iterations: 86
currently lose_sum: 0.6171176433563232
time_elpased: 3.656
#iterations: 87
currently lose_sum: 0.6114328503608704
time_elpased: 3.717
#iterations: 88
currently lose_sum: 0.6211731433868408
time_elpased: 3.615
#iterations: 89
currently lose_sum: 0.6415119171142578
time_elpased: 3.699
#iterations: 90
currently lose_sum: 0.6319597363471985
time_elpased: 3.643
#iterations: 91
currently lose_sum: 0.6127111315727234
time_elpased: 3.655
#iterations: 92
currently lose_sum: 0.6407272815704346
time_elpased: 3.648
#iterations: 93
currently lose_sum: 0.6905053853988647
time_elpased: 3.612
#iterations: 94
currently lose_sum: 0.6623049378395081
time_elpased: 3.666
#iterations: 95
currently lose_sum: 0.6453793048858643
time_elpased: 3.7
#iterations: 96
currently lose_sum: 0.5841566324234009
time_elpased: 3.691
#iterations: 97
currently lose_sum: 0.6074647307395935
time_elpased: 3.707
#iterations: 98
currently lose_sum: 0.7015206813812256
time_elpased: 3.676
#iterations: 99
currently lose_sum: 0.6238067150115967
time_elpased: 3.623
start validation test
0.622
0.593949970913
0.805205047319
0.683629059257
0.61932330288
16.634
#iterations: 100
currently lose_sum: 0.6569128632545471
time_elpased: 3.728
#iterations: 101
currently lose_sum: 0.6336734294891357
time_elpased: 3.678
#iterations: 102
currently lose_sum: 0.6450174450874329
time_elpased: 3.604
#iterations: 103
currently lose_sum: 0.6095998883247375
time_elpased: 3.714
#iterations: 104
currently lose_sum: 0.6289821863174438
time_elpased: 3.678
#iterations: 105
currently lose_sum: 0.5441009998321533
time_elpased: 3.631
#iterations: 106
currently lose_sum: 0.6141858696937561
time_elpased: 3.633
#iterations: 107
currently lose_sum: 0.6085295081138611
time_elpased: 3.689
#iterations: 108
currently lose_sum: 0.634684145450592
time_elpased: 3.685
#iterations: 109
currently lose_sum: 0.600899338722229
time_elpased: 3.652
#iterations: 110
currently lose_sum: 0.6329675912857056
time_elpased: 3.68
#iterations: 111
currently lose_sum: 0.6349602341651917
time_elpased: 3.672
#iterations: 112
currently lose_sum: 0.5848712921142578
time_elpased: 3.692
#iterations: 113
currently lose_sum: 0.5463188290596008
time_elpased: 3.68
#iterations: 114
currently lose_sum: 0.6875171065330505
time_elpased: 3.651
#iterations: 115
currently lose_sum: 0.6859402656555176
time_elpased: 3.659
#iterations: 116
currently lose_sum: 0.6334896683692932
time_elpased: 3.634
#iterations: 117
currently lose_sum: 0.6242684721946716
time_elpased: 3.687
#iterations: 118
currently lose_sum: 0.6034612059593201
time_elpased: 3.747
#iterations: 119
currently lose_sum: 0.5535193085670471
time_elpased: 3.722
start validation test
0.6492
0.617558628984
0.809936908517
0.700784715114
0.646851571142
15.564
#iterations: 120
currently lose_sum: 0.5675914883613586
time_elpased: 3.754
#iterations: 121
currently lose_sum: 0.6034534573554993
time_elpased: 3.665
#iterations: 122
currently lose_sum: 0.6058825850486755
time_elpased: 3.676
#iterations: 123
currently lose_sum: 0.5911540985107422
time_elpased: 3.636
#iterations: 124
currently lose_sum: 0.5891075730323792
time_elpased: 3.628
#iterations: 125
currently lose_sum: 0.5260813236236572
time_elpased: 3.66
#iterations: 126
currently lose_sum: 0.5916979312896729
time_elpased: 3.726
#iterations: 127
currently lose_sum: 0.6200144290924072
time_elpased: 3.607
#iterations: 128
currently lose_sum: 0.5891772508621216
time_elpased: 3.664
#iterations: 129
currently lose_sum: 0.6360282897949219
time_elpased: 3.73
#iterations: 130
currently lose_sum: 0.6031395196914673
time_elpased: 3.642
#iterations: 131
currently lose_sum: 0.6014243364334106
time_elpased: 3.62
#iterations: 132
currently lose_sum: 0.5855745077133179
time_elpased: 3.597
#iterations: 133
currently lose_sum: 0.5778525471687317
time_elpased: 3.655
#iterations: 134
currently lose_sum: 0.683259129524231
time_elpased: 3.666
#iterations: 135
currently lose_sum: 0.5663606524467468
time_elpased: 3.606
#iterations: 136
currently lose_sum: 0.6269160509109497
time_elpased: 3.669
#iterations: 137
currently lose_sum: 0.5557277202606201
time_elpased: 3.671
#iterations: 138
currently lose_sum: 0.5843212008476257
time_elpased: 3.647
#iterations: 139
currently lose_sum: 0.555020809173584
time_elpased: 3.618
start validation test
0.6732
0.66118656183
0.729495268139
0.693663292088
0.672377504199
14.997
#iterations: 140
currently lose_sum: 0.5614082217216492
time_elpased: 3.617
#iterations: 141
currently lose_sum: 0.6038143634796143
time_elpased: 3.642
#iterations: 142
currently lose_sum: 0.5399391055107117
time_elpased: 3.625
#iterations: 143
currently lose_sum: 0.5687395334243774
time_elpased: 3.667
#iterations: 144
currently lose_sum: 0.6158284544944763
time_elpased: 3.632
#iterations: 145
currently lose_sum: 0.5729535818099976
time_elpased: 3.64
#iterations: 146
currently lose_sum: 0.5854650735855103
time_elpased: 3.641
#iterations: 147
currently lose_sum: 0.6015699505805969
time_elpased: 3.649
#iterations: 148
currently lose_sum: 0.5057237148284912
time_elpased: 3.683
#iterations: 149
currently lose_sum: 0.6376678347587585
time_elpased: 3.631
#iterations: 150
currently lose_sum: 0.5483787059783936
time_elpased: 3.667
#iterations: 151
currently lose_sum: 0.602388322353363
time_elpased: 3.687
#iterations: 152
currently lose_sum: 0.5981321334838867
time_elpased: 3.644
#iterations: 153
currently lose_sum: 0.5704292058944702
time_elpased: 3.624
#iterations: 154
currently lose_sum: 0.6557855010032654
time_elpased: 3.691
#iterations: 155
currently lose_sum: 0.5732686519622803
time_elpased: 3.641
#iterations: 156
currently lose_sum: 0.5835141539573669
time_elpased: 3.648
#iterations: 157
currently lose_sum: 0.584252655506134
time_elpased: 3.709
#iterations: 158
currently lose_sum: 0.6421205401420593
time_elpased: 3.657
#iterations: 159
currently lose_sum: 0.6335499286651611
time_elpased: 3.693
start validation test
0.6484
0.797856049005
0.410883280757
0.542425819885
0.651870211807
15.808
#iterations: 160
currently lose_sum: 0.5262181758880615
time_elpased: 3.71
#iterations: 161
currently lose_sum: 0.561744749546051
time_elpased: 3.698
#iterations: 162
currently lose_sum: 0.5821519494056702
time_elpased: 3.694
#iterations: 163
currently lose_sum: 0.6339226961135864
time_elpased: 3.61
#iterations: 164
currently lose_sum: 0.5932292342185974
time_elpased: 3.637
#iterations: 165
currently lose_sum: 0.5414071679115295
time_elpased: 3.646
#iterations: 166
currently lose_sum: 0.6197522878646851
time_elpased: 3.69
#iterations: 167
currently lose_sum: 0.6267809867858887
time_elpased: 3.665
#iterations: 168
currently lose_sum: 0.5477238893508911
time_elpased: 3.669
#iterations: 169
currently lose_sum: 0.5888234376907349
time_elpased: 3.731
#iterations: 170
currently lose_sum: 0.5250040292739868
time_elpased: 3.678
#iterations: 171
currently lose_sum: 0.6039708852767944
time_elpased: 3.704
#iterations: 172
currently lose_sum: 0.56371009349823
time_elpased: 3.66
#iterations: 173
currently lose_sum: 0.6302077174186707
time_elpased: 3.644
#iterations: 174
currently lose_sum: 0.4279991090297699
time_elpased: 3.645
#iterations: 175
currently lose_sum: 0.5750607252120972
time_elpased: 3.666
#iterations: 176
currently lose_sum: 0.5895996689796448
time_elpased: 3.677
#iterations: 177
currently lose_sum: 0.5421319603919983
time_elpased: 3.672
#iterations: 178
currently lose_sum: 0.45996803045272827
time_elpased: 3.639
#iterations: 179
currently lose_sum: 0.5605642795562744
time_elpased: 3.697
start validation test
0.6884
0.703241895262
0.667192429022
0.684743019021
0.688709850875
14.544
#iterations: 180
currently lose_sum: 0.6030018329620361
time_elpased: 3.638
#iterations: 181
currently lose_sum: 0.5421510338783264
time_elpased: 3.674
#iterations: 182
currently lose_sum: 0.5210824012756348
time_elpased: 3.754
#iterations: 183
currently lose_sum: 0.5945388674736023
time_elpased: 3.68
#iterations: 184
currently lose_sum: 0.5578023791313171
time_elpased: 3.607
#iterations: 185
currently lose_sum: 0.49563026428222656
time_elpased: 3.632
#iterations: 186
currently lose_sum: 0.5957239270210266
time_elpased: 3.64
#iterations: 187
currently lose_sum: 0.5416715145111084
time_elpased: 3.733
#iterations: 188
currently lose_sum: 0.5171256065368652
time_elpased: 3.69
#iterations: 189
currently lose_sum: 0.6361807584762573
time_elpased: 3.649
#iterations: 190
currently lose_sum: 0.5870193243026733
time_elpased: 3.667
#iterations: 191
currently lose_sum: 0.5916263461112976
time_elpased: 3.664
#iterations: 192
currently lose_sum: 0.5541802048683167
time_elpased: 3.782
#iterations: 193
currently lose_sum: 0.5457780957221985
time_elpased: 3.632
#iterations: 194
currently lose_sum: 0.5570493936538696
time_elpased: 3.763
#iterations: 195
currently lose_sum: 0.5066417455673218
time_elpased: 3.642
#iterations: 196
currently lose_sum: 0.6122788190841675
time_elpased: 3.66
#iterations: 197
currently lose_sum: 0.6523735523223877
time_elpased: 3.679
#iterations: 198
currently lose_sum: 0.6027939319610596
time_elpased: 3.737
#iterations: 199
currently lose_sum: 0.5331851840019226
time_elpased: 3.702
start validation test
0.6984
0.712396694215
0.679810725552
0.695722356739
0.698671596542
14.423
#iterations: 200
currently lose_sum: 0.612863302230835
time_elpased: 3.658
#iterations: 201
currently lose_sum: 0.5869382619857788
time_elpased: 3.706
#iterations: 202
currently lose_sum: 0.5197769999504089
time_elpased: 3.618
#iterations: 203
currently lose_sum: 0.5570937991142273
time_elpased: 3.624
#iterations: 204
currently lose_sum: 0.5677579045295715
time_elpased: 3.675
#iterations: 205
currently lose_sum: 0.5875231027603149
time_elpased: 3.698
#iterations: 206
currently lose_sum: 0.555813729763031
time_elpased: 3.64
#iterations: 207
currently lose_sum: 0.5146309733390808
time_elpased: 3.66
#iterations: 208
currently lose_sum: 0.6382352113723755
time_elpased: 3.641
#iterations: 209
currently lose_sum: 0.548738956451416
time_elpased: 3.723
#iterations: 210
currently lose_sum: 0.5085603594779968
time_elpased: 3.717
#iterations: 211
currently lose_sum: 0.5896676182746887
time_elpased: 3.77
#iterations: 212
currently lose_sum: 0.5169472694396973
time_elpased: 3.602
#iterations: 213
currently lose_sum: 0.5002694129943848
time_elpased: 3.643
#iterations: 214
currently lose_sum: 0.5261287093162537
time_elpased: 3.665
#iterations: 215
currently lose_sum: 0.5474714636802673
time_elpased: 3.653
#iterations: 216
currently lose_sum: 0.45736458897590637
time_elpased: 3.668
#iterations: 217
currently lose_sum: 0.43600618839263916
time_elpased: 3.671
#iterations: 218
currently lose_sum: 0.6669480204582214
time_elpased: 3.662
#iterations: 219
currently lose_sum: 0.561151921749115
time_elpased: 3.686
start validation test
0.6992
0.686147186147
0.75
0.716654107008
0.698457792208
14.180
#iterations: 220
currently lose_sum: 0.4686994254589081
time_elpased: 3.581
#iterations: 221
currently lose_sum: 0.5682768225669861
time_elpased: 3.66
#iterations: 222
currently lose_sum: 0.52399742603302
time_elpased: 3.721
#iterations: 223
currently lose_sum: 0.5383189916610718
time_elpased: 3.625
#iterations: 224
currently lose_sum: 0.6096547842025757
time_elpased: 3.708
#iterations: 225
currently lose_sum: 0.5246020555496216
time_elpased: 3.628
#iterations: 226
currently lose_sum: 0.51659095287323
time_elpased: 3.689
#iterations: 227
currently lose_sum: 0.4922772943973541
time_elpased: 3.662
#iterations: 228
currently lose_sum: 0.5231533646583557
time_elpased: 3.625
#iterations: 229
currently lose_sum: 0.6222175359725952
time_elpased: 3.653
#iterations: 230
currently lose_sum: 0.5920531749725342
time_elpased: 3.691
#iterations: 231
currently lose_sum: 0.5125730633735657
time_elpased: 3.713
#iterations: 232
currently lose_sum: 0.5417354702949524
time_elpased: 3.652
#iterations: 233
currently lose_sum: 0.5042056441307068
time_elpased: 3.599
#iterations: 234
currently lose_sum: 0.6050828099250793
time_elpased: 3.682
#iterations: 235
currently lose_sum: 0.5607585310935974
time_elpased: 3.679
#iterations: 236
currently lose_sum: 0.5446579456329346
time_elpased: 3.684
#iterations: 237
currently lose_sum: 0.4752253592014313
time_elpased: 3.638
#iterations: 238
currently lose_sum: 0.47117432951927185
time_elpased: 3.652
#iterations: 239
currently lose_sum: 0.5447657704353333
time_elpased: 3.605
start validation test
0.7052
0.704073789393
0.722397476341
0.713117944726
0.70494873817
14.244
#iterations: 240
currently lose_sum: 0.5214874744415283
time_elpased: 3.685
#iterations: 241
currently lose_sum: 0.533057689666748
time_elpased: 3.696
#iterations: 242
currently lose_sum: 0.6128125190734863
time_elpased: 3.695
#iterations: 243
currently lose_sum: 0.5891773700714111
time_elpased: 3.755
#iterations: 244
currently lose_sum: 0.6165916919708252
time_elpased: 3.747
#iterations: 245
currently lose_sum: 0.48291411995887756
time_elpased: 3.656
#iterations: 246
currently lose_sum: 0.49660271406173706
time_elpased: 3.678
#iterations: 247
currently lose_sum: 0.4545188248157501
time_elpased: 3.671
#iterations: 248
currently lose_sum: 0.5501895546913147
time_elpased: 3.647
#iterations: 249
currently lose_sum: 0.5817393660545349
time_elpased: 3.652
#iterations: 250
currently lose_sum: 0.5625190734863281
time_elpased: 3.684
#iterations: 251
currently lose_sum: 0.49256691336631775
time_elpased: 3.674
#iterations: 252
currently lose_sum: 0.5277668237686157
time_elpased: 3.628
#iterations: 253
currently lose_sum: 0.4671988785266876
time_elpased: 3.627
#iterations: 254
currently lose_sum: 0.589067280292511
time_elpased: 3.687
#iterations: 255
currently lose_sum: 0.5472509860992432
time_elpased: 3.607
#iterations: 256
currently lose_sum: 0.590363085269928
time_elpased: 3.648
#iterations: 257
currently lose_sum: 0.7644432187080383
time_elpased: 3.698
#iterations: 258
currently lose_sum: 0.5722882151603699
time_elpased: 3.695
#iterations: 259
currently lose_sum: 0.5675103664398193
time_elpased: 3.675
start validation test
0.7016
0.680998613037
0.774447949527
0.724723247232
0.700535663075
14.106
#iterations: 260
currently lose_sum: 0.4727286100387573
time_elpased: 3.716
#iterations: 261
currently lose_sum: 0.5060186982154846
time_elpased: 3.66
#iterations: 262
currently lose_sum: 0.4726680517196655
time_elpased: 3.641
#iterations: 263
currently lose_sum: 0.5105049014091492
time_elpased: 3.609
#iterations: 264
currently lose_sum: 0.478302001953125
time_elpased: 3.626
#iterations: 265
currently lose_sum: 0.5304506421089172
time_elpased: 3.742
#iterations: 266
currently lose_sum: 0.5731397271156311
time_elpased: 3.709
#iterations: 267
currently lose_sum: 0.5804433822631836
time_elpased: 3.675
#iterations: 268
currently lose_sum: 0.5673012137413025
time_elpased: 3.599
#iterations: 269
currently lose_sum: 0.7968874573707581
time_elpased: 3.731
#iterations: 270
currently lose_sum: 0.6869258880615234
time_elpased: 3.671
#iterations: 271
currently lose_sum: 0.6329450607299805
time_elpased: 3.669
#iterations: 272
currently lose_sum: 0.6349613666534424
time_elpased: 3.612
#iterations: 273
currently lose_sum: 0.5815300345420837
time_elpased: 3.68
#iterations: 274
currently lose_sum: 0.5942054986953735
time_elpased: 3.61
#iterations: 275
currently lose_sum: 0.4764976501464844
time_elpased: 3.709
#iterations: 276
currently lose_sum: 0.5415931940078735
time_elpased: 3.685
#iterations: 277
currently lose_sum: 0.530119001865387
time_elpased: 3.651
#iterations: 278
currently lose_sum: 0.49387770891189575
time_elpased: 3.584
#iterations: 279
currently lose_sum: 0.4852232038974762
time_elpased: 3.634
start validation test
0.7048
0.721202003339
0.681388012618
0.700729927007
0.705142058257
14.042
#iterations: 280
currently lose_sum: 0.5261180400848389
time_elpased: 3.681
#iterations: 281
currently lose_sum: 0.46957945823669434
time_elpased: 3.673
#iterations: 282
currently lose_sum: 0.4714963138103485
time_elpased: 3.6
#iterations: 283
currently lose_sum: 0.5552616715431213
time_elpased: 3.637
#iterations: 284
currently lose_sum: 0.5404366850852966
time_elpased: 3.664
#iterations: 285
currently lose_sum: 0.5382432341575623
time_elpased: 3.777
#iterations: 286
currently lose_sum: 0.5410476922988892
time_elpased: 3.748
#iterations: 287
currently lose_sum: 0.5271891951560974
time_elpased: 3.801
#iterations: 288
currently lose_sum: 0.5588343143463135
time_elpased: 3.737
#iterations: 289
currently lose_sum: 0.5517272353172302
time_elpased: 3.667
#iterations: 290
currently lose_sum: 0.5196640491485596
time_elpased: 3.609
#iterations: 291
currently lose_sum: 0.49067991971969604
time_elpased: 3.665
#iterations: 292
currently lose_sum: 0.4667576551437378
time_elpased: 3.721
#iterations: 293
currently lose_sum: 0.48927733302116394
time_elpased: 3.697
#iterations: 294
currently lose_sum: 0.5046923756599426
time_elpased: 3.626
#iterations: 295
currently lose_sum: 0.5578892230987549
time_elpased: 3.612
#iterations: 296
currently lose_sum: 0.5352233648300171
time_elpased: 3.73
#iterations: 297
currently lose_sum: 0.5368612408638
time_elpased: 3.696
#iterations: 298
currently lose_sum: 0.5379806756973267
time_elpased: 3.623
#iterations: 299
currently lose_sum: 0.517906129360199
time_elpased: 3.756
start validation test
0.7032
0.672120418848
0.809936908517
0.734620886981
0.701640532181
14.104
#iterations: 300
currently lose_sum: 0.48328113555908203
time_elpased: 3.662
#iterations: 301
currently lose_sum: 0.4934830367565155
time_elpased: 3.657
#iterations: 302
currently lose_sum: 0.4904134273529053
time_elpased: 3.649
#iterations: 303
currently lose_sum: 0.483032763004303
time_elpased: 3.627
#iterations: 304
currently lose_sum: 0.5319121479988098
time_elpased: 3.69
#iterations: 305
currently lose_sum: 0.5302326083183289
time_elpased: 3.695
#iterations: 306
currently lose_sum: 0.4861690104007721
time_elpased: 3.666
#iterations: 307
currently lose_sum: 0.5303669571876526
time_elpased: 3.711
#iterations: 308
currently lose_sum: 0.4401454031467438
time_elpased: 3.676
#iterations: 309
currently lose_sum: 0.5247759819030762
time_elpased: 3.689
#iterations: 310
currently lose_sum: 0.5139296650886536
time_elpased: 3.681
#iterations: 311
currently lose_sum: 0.5601037740707397
time_elpased: 3.667
#iterations: 312
currently lose_sum: 0.5426090955734253
time_elpased: 3.691
#iterations: 313
currently lose_sum: 0.4427773356437683
time_elpased: 3.674
#iterations: 314
currently lose_sum: 0.4144936800003052
time_elpased: 3.659
#iterations: 315
currently lose_sum: 0.5160893797874451
time_elpased: 3.697
#iterations: 316
currently lose_sum: 0.4624372720718384
time_elpased: 3.684
#iterations: 317
currently lose_sum: 0.5454617738723755
time_elpased: 3.665
#iterations: 318
currently lose_sum: 0.5698910355567932
time_elpased: 3.618
#iterations: 319
currently lose_sum: 0.5197041630744934
time_elpased: 3.707
start validation test
0.7128
0.705223880597
0.745268138801
0.724693251534
0.712325627842
13.723
#iterations: 320
currently lose_sum: 0.45939910411834717
time_elpased: 3.739
#iterations: 321
currently lose_sum: 0.501380205154419
time_elpased: 3.66
#iterations: 322
currently lose_sum: 0.4808388948440552
time_elpased: 3.681
#iterations: 323
currently lose_sum: 0.5270773768424988
time_elpased: 3.788
#iterations: 324
currently lose_sum: 0.48602890968322754
time_elpased: 3.66
#iterations: 325
currently lose_sum: 0.4720657467842102
time_elpased: 3.65
#iterations: 326
currently lose_sum: 0.48474425077438354
time_elpased: 3.641
#iterations: 327
currently lose_sum: 0.43500804901123047
time_elpased: 3.708
#iterations: 328
currently lose_sum: 0.5694049000740051
time_elpased: 3.674
#iterations: 329
currently lose_sum: 0.5530754327774048
time_elpased: 3.718
#iterations: 330
currently lose_sum: 0.6058667898178101
time_elpased: 3.676
#iterations: 331
currently lose_sum: 0.5274311304092407
time_elpased: 3.649
#iterations: 332
currently lose_sum: 0.5790436863899231
time_elpased: 3.587
#iterations: 333
currently lose_sum: 0.5074406266212463
time_elpased: 3.731
#iterations: 334
currently lose_sum: 0.5078835487365723
time_elpased: 3.72
#iterations: 335
currently lose_sum: 0.45671820640563965
time_elpased: 3.648
#iterations: 336
currently lose_sum: 0.4490222930908203
time_elpased: 3.636
#iterations: 337
currently lose_sum: 0.5038037896156311
time_elpased: 3.615
#iterations: 338
currently lose_sum: 0.5112093687057495
time_elpased: 3.675
#iterations: 339
currently lose_sum: 0.46556663513183594
time_elpased: 3.683
start validation test
0.7252
0.720242608036
0.749211356467
0.734441437959
0.724849184727
13.513
#iterations: 340
currently lose_sum: 0.5803675651550293
time_elpased: 3.645
#iterations: 341
currently lose_sum: 0.4531097412109375
time_elpased: 3.672
#iterations: 342
currently lose_sum: 0.627724289894104
time_elpased: 3.648
#iterations: 343
currently lose_sum: 0.4808633327484131
time_elpased: 3.721
#iterations: 344
currently lose_sum: 0.45007553696632385
time_elpased: 3.62
#iterations: 345
currently lose_sum: 0.4726317524909973
time_elpased: 3.69
#iterations: 346
currently lose_sum: 0.5323461294174194
time_elpased: 3.675
#iterations: 347
currently lose_sum: 0.5438405275344849
time_elpased: 3.685
#iterations: 348
currently lose_sum: 0.6267856359481812
time_elpased: 3.645
#iterations: 349
currently lose_sum: 0.5345888733863831
time_elpased: 3.656
#iterations: 350
currently lose_sum: 0.43696823716163635
time_elpased: 3.672
#iterations: 351
currently lose_sum: 0.48419487476348877
time_elpased: 3.665
#iterations: 352
currently lose_sum: 0.5962278842926025
time_elpased: 3.67
#iterations: 353
currently lose_sum: 0.5083574056625366
time_elpased: 3.676
#iterations: 354
currently lose_sum: 0.43532878160476685
time_elpased: 3.632
#iterations: 355
currently lose_sum: 0.42365431785583496
time_elpased: 3.656
#iterations: 356
currently lose_sum: 0.5439850091934204
time_elpased: 3.633
#iterations: 357
currently lose_sum: 0.500019371509552
time_elpased: 3.637
#iterations: 358
currently lose_sum: 0.4950161874294281
time_elpased: 3.66
#iterations: 359
currently lose_sum: 0.476705938577652
time_elpased: 3.621
start validation test
0.7176
0.779324055666
0.618296529968
0.689533861038
0.719050862387
13.990
#iterations: 360
currently lose_sum: 0.4453663229942322
time_elpased: 3.618
#iterations: 361
currently lose_sum: 0.5076562166213989
time_elpased: 3.718
#iterations: 362
currently lose_sum: 0.5040367841720581
time_elpased: 3.623
#iterations: 363
currently lose_sum: 0.48570770025253296
time_elpased: 3.712
#iterations: 364
currently lose_sum: 0.5841805934906006
time_elpased: 3.63
#iterations: 365
currently lose_sum: 0.5110491514205933
time_elpased: 3.691
#iterations: 366
currently lose_sum: 0.43950557708740234
time_elpased: 3.643
#iterations: 367
currently lose_sum: 0.45395028591156006
time_elpased: 3.633
#iterations: 368
currently lose_sum: 0.5611111521720886
time_elpased: 3.597
#iterations: 369
currently lose_sum: 0.4681915044784546
time_elpased: 3.673
#iterations: 370
currently lose_sum: 0.4858945906162262
time_elpased: 3.738
#iterations: 371
currently lose_sum: 0.48917335271835327
time_elpased: 3.699
#iterations: 372
currently lose_sum: 0.45865967869758606
time_elpased: 3.575
#iterations: 373
currently lose_sum: 0.560677707195282
time_elpased: 3.625
#iterations: 374
currently lose_sum: 0.5322350859642029
time_elpased: 3.67
#iterations: 375
currently lose_sum: 0.4658816158771515
time_elpased: 3.708
#iterations: 376
currently lose_sum: 0.49067115783691406
time_elpased: 3.676
#iterations: 377
currently lose_sum: 0.5533573627471924
time_elpased: 3.686
#iterations: 378
currently lose_sum: 0.4922224283218384
time_elpased: 3.663
#iterations: 379
currently lose_sum: 0.47796493768692017
time_elpased: 3.635
start validation test
0.724
0.773156899811
0.645110410095
0.703353396389
0.725152607645
13.750
#iterations: 380
currently lose_sum: 0.5188884735107422
time_elpased: 3.696
#iterations: 381
currently lose_sum: 0.5527125597000122
time_elpased: 3.653
#iterations: 382
currently lose_sum: 0.5976548194885254
time_elpased: 3.706
#iterations: 383
currently lose_sum: 0.4497983455657959
time_elpased: 3.649
#iterations: 384
currently lose_sum: 0.40032103657722473
time_elpased: 3.677
#iterations: 385
currently lose_sum: 0.493137925863266
time_elpased: 3.695
#iterations: 386
currently lose_sum: 0.39620649814605713
time_elpased: 3.702
#iterations: 387
currently lose_sum: 0.46015700697898865
time_elpased: 3.715
#iterations: 388
currently lose_sum: 0.38418498635292053
time_elpased: 3.737
#iterations: 389
currently lose_sum: 0.4741649627685547
time_elpased: 3.638
#iterations: 390
currently lose_sum: 0.46609023213386536
time_elpased: 3.64
#iterations: 391
currently lose_sum: 0.5948959589004517
time_elpased: 3.688
#iterations: 392
currently lose_sum: 0.43243011832237244
time_elpased: 3.634
#iterations: 393
currently lose_sum: 0.48817771673202515
time_elpased: 3.669
#iterations: 394
currently lose_sum: 0.4275450110435486
time_elpased: 3.719
#iterations: 395
currently lose_sum: 0.5243637561798096
time_elpased: 3.663
#iterations: 396
currently lose_sum: 0.4931562840938568
time_elpased: 3.634
#iterations: 397
currently lose_sum: 0.48262274265289307
time_elpased: 3.676
#iterations: 398
currently lose_sum: 0.4950963854789734
time_elpased: 3.731
#iterations: 399
currently lose_sum: 0.42791107296943665
time_elpased: 3.674
start validation test
0.716
0.681640625
0.82570977918
0.746790299572
0.714397097382
14.474
#iterations: 400
currently lose_sum: 0.5150881409645081
time_elpased: 3.659
#iterations: 401
currently lose_sum: 0.6010242700576782
time_elpased: 3.676
#iterations: 402
currently lose_sum: 0.5837846994400024
time_elpased: 3.701
#iterations: 403
currently lose_sum: 0.4927995204925537
time_elpased: 3.708
#iterations: 404
currently lose_sum: 0.5159692168235779
time_elpased: 3.712
#iterations: 405
currently lose_sum: 0.48883575201034546
time_elpased: 3.643
#iterations: 406
currently lose_sum: 0.3982018232345581
time_elpased: 3.605
#iterations: 407
currently lose_sum: 0.4492439925670624
time_elpased: 3.634
#iterations: 408
currently lose_sum: 0.4247187674045563
time_elpased: 3.668
#iterations: 409
currently lose_sum: 0.47771376371383667
time_elpased: 3.662
#iterations: 410
currently lose_sum: 0.6000789403915405
time_elpased: 3.593
#iterations: 411
currently lose_sum: 0.49247023463249207
time_elpased: 3.664
#iterations: 412
currently lose_sum: 0.47943219542503357
time_elpased: 3.642
#iterations: 413
currently lose_sum: 0.4126950204372406
time_elpased: 3.64
#iterations: 414
currently lose_sum: 0.4668176770210266
time_elpased: 3.714
#iterations: 415
currently lose_sum: 0.45776498317718506
time_elpased: 3.629
#iterations: 416
currently lose_sum: 0.5363250970840454
time_elpased: 3.685
#iterations: 417
currently lose_sum: 0.4705508351325989
time_elpased: 3.656
#iterations: 418
currently lose_sum: 0.5655834674835205
time_elpased: 3.648
#iterations: 419
currently lose_sum: 0.5187146067619324
time_elpased: 3.711
start validation test
0.7368
0.726261127596
0.772082018927
0.748470948012
0.736284515957
13.310
#iterations: 420
currently lose_sum: 0.4978652596473694
time_elpased: 3.634
#iterations: 421
currently lose_sum: 0.46227172017097473
time_elpased: 3.657
#iterations: 422
currently lose_sum: 0.4151676595211029
time_elpased: 3.656
#iterations: 423
currently lose_sum: 0.45844611525535583
time_elpased: 3.72
#iterations: 424
currently lose_sum: 0.46975448727607727
time_elpased: 3.698
#iterations: 425
currently lose_sum: 0.4403110444545746
time_elpased: 3.655
#iterations: 426
currently lose_sum: 0.6055659651756287
time_elpased: 3.65
#iterations: 427
currently lose_sum: 0.4560360312461853
time_elpased: 3.676
#iterations: 428
currently lose_sum: 0.4692768156528473
time_elpased: 3.697
#iterations: 429
currently lose_sum: 0.5547927021980286
time_elpased: 3.647
#iterations: 430
currently lose_sum: 0.5220481753349304
time_elpased: 3.703
#iterations: 431
currently lose_sum: 0.5648687481880188
time_elpased: 3.6
#iterations: 432
currently lose_sum: 0.4950215220451355
time_elpased: 3.807
#iterations: 433
currently lose_sum: 0.513160765171051
time_elpased: 3.622
#iterations: 434
currently lose_sum: 0.49595317244529724
time_elpased: 3.598
#iterations: 435
currently lose_sum: 0.5474327802658081
time_elpased: 3.722
#iterations: 436
currently lose_sum: 0.5227426886558533
time_elpased: 3.689
#iterations: 437
currently lose_sum: 0.5481969118118286
time_elpased: 3.721
#iterations: 438
currently lose_sum: 0.5024445056915283
time_elpased: 3.67
#iterations: 439
currently lose_sum: 0.42146068811416626
time_elpased: 3.69
start validation test
0.732
0.740353697749
0.726340694006
0.733280254777
0.732082684665
13.395
#iterations: 440
currently lose_sum: 0.3860666751861572
time_elpased: 3.614
#iterations: 441
currently lose_sum: 0.4355891942977905
time_elpased: 3.69
#iterations: 442
currently lose_sum: 0.4070115387439728
time_elpased: 3.661
#iterations: 443
currently lose_sum: 0.4752159118652344
time_elpased: 3.681
#iterations: 444
currently lose_sum: 0.5066286325454712
time_elpased: 3.661
#iterations: 445
currently lose_sum: 0.40382808446884155
time_elpased: 3.657
#iterations: 446
currently lose_sum: 0.49623042345046997
time_elpased: 3.729
#iterations: 447
currently lose_sum: 0.43017342686653137
time_elpased: 3.695
#iterations: 448
currently lose_sum: 0.4923408627510071
time_elpased: 3.649
#iterations: 449
currently lose_sum: 0.4077366590499878
time_elpased: 3.684
#iterations: 450
currently lose_sum: 0.542664647102356
time_elpased: 3.653
#iterations: 451
currently lose_sum: 0.5294668674468994
time_elpased: 3.656
#iterations: 452
currently lose_sum: 0.4271298348903656
time_elpased: 3.686
#iterations: 453
currently lose_sum: 0.358409583568573
time_elpased: 3.656
#iterations: 454
currently lose_sum: 0.4722950756549835
time_elpased: 3.7
#iterations: 455
currently lose_sum: 0.4668256640434265
time_elpased: 3.66
#iterations: 456
currently lose_sum: 0.4809647500514984
time_elpased: 3.669
#iterations: 457
currently lose_sum: 0.5602591633796692
time_elpased: 3.654
#iterations: 458
currently lose_sum: 0.5264877080917358
time_elpased: 3.72
#iterations: 459
currently lose_sum: 0.42806991934776306
time_elpased: 3.634
start validation test
0.7312
0.710451977401
0.793375394322
0.749627421759
0.730291593265
13.500
#iterations: 460
currently lose_sum: 0.4776202142238617
time_elpased: 3.599
#iterations: 461
currently lose_sum: 0.4713228642940521
time_elpased: 3.66
#iterations: 462
currently lose_sum: 0.5029374957084656
time_elpased: 3.596
#iterations: 463
currently lose_sum: 0.5350753664970398
time_elpased: 3.601
#iterations: 464
currently lose_sum: 0.4594554007053375
time_elpased: 3.635
#iterations: 465
currently lose_sum: 0.4256211817264557
time_elpased: 3.642
#iterations: 466
currently lose_sum: 0.5746868252754211
time_elpased: 3.735
#iterations: 467
currently lose_sum: 0.4248746931552887
time_elpased: 3.661
#iterations: 468
currently lose_sum: 0.40990927815437317
time_elpased: 3.71
#iterations: 469
currently lose_sum: 0.3857277035713196
time_elpased: 3.803
#iterations: 470
currently lose_sum: 0.40542128682136536
time_elpased: 3.687
#iterations: 471
currently lose_sum: 0.757763683795929
time_elpased: 3.649
#iterations: 472
currently lose_sum: 0.47239676117897034
time_elpased: 3.699
#iterations: 473
currently lose_sum: 0.4532395303249359
time_elpased: 3.663
#iterations: 474
currently lose_sum: 0.5332674384117126
time_elpased: 3.657
#iterations: 475
currently lose_sum: 0.4383760690689087
time_elpased: 3.64
#iterations: 476
currently lose_sum: 0.4833358824253082
time_elpased: 3.697
#iterations: 477
currently lose_sum: 0.46720775961875916
time_elpased: 3.877
#iterations: 478
currently lose_sum: 0.5033757090568542
time_elpased: 3.643
#iterations: 479
currently lose_sum: 0.45973658561706543
time_elpased: 3.646
start validation test
0.632
0.900921658986
0.308359621451
0.459459459459
0.636728512024
19.372
#iterations: 480
currently lose_sum: 0.5505384206771851
time_elpased: 3.699
#iterations: 481
currently lose_sum: 0.36879006028175354
time_elpased: 3.655
#iterations: 482
currently lose_sum: 0.6132676601409912
time_elpased: 3.569
#iterations: 483
currently lose_sum: 0.38856956362724304
time_elpased: 3.768
#iterations: 484
currently lose_sum: 0.4018023610115051
time_elpased: 3.67
#iterations: 485
currently lose_sum: 0.5788958072662354
time_elpased: 3.739
#iterations: 486
currently lose_sum: 0.4475107192993164
time_elpased: 3.735
#iterations: 487
currently lose_sum: 0.40384799242019653
time_elpased: 3.729
#iterations: 488
currently lose_sum: 0.42209166288375854
time_elpased: 3.659
#iterations: 489
currently lose_sum: 0.6024782657623291
time_elpased: 3.614
#iterations: 490
currently lose_sum: 0.6019428372383118
time_elpased: 3.778
#iterations: 491
currently lose_sum: 0.47099554538726807
time_elpased: 3.695
#iterations: 492
currently lose_sum: 0.4922215938568115
time_elpased: 3.618
#iterations: 493
currently lose_sum: 0.4419265389442444
time_elpased: 3.634
#iterations: 494
currently lose_sum: 0.3875340223312378
time_elpased: 3.674
#iterations: 495
currently lose_sum: 0.39823341369628906
time_elpased: 3.643
#iterations: 496
currently lose_sum: 0.4995426833629608
time_elpased: 3.601
#iterations: 497
currently lose_sum: 0.47760146856307983
time_elpased: 3.68
#iterations: 498
currently lose_sum: 0.5225242376327515
time_elpased: 3.609
#iterations: 499
currently lose_sum: 0.41167911887168884
time_elpased: 3.614
start validation test
0.6496
0.890438247012
0.352523659306
0.505084745763
0.653940401082
17.364
#iterations: 500
currently lose_sum: 0.40854689478874207
time_elpased: 3.631
#iterations: 501
currently lose_sum: 0.408486545085907
time_elpased: 3.66
#iterations: 502
currently lose_sum: 0.46462225914001465
time_elpased: 3.67
#iterations: 503
currently lose_sum: 0.5024187564849854
time_elpased: 3.63
#iterations: 504
currently lose_sum: 0.5312780141830444
time_elpased: 3.682
#iterations: 505
currently lose_sum: 0.41787970066070557
time_elpased: 3.671
#iterations: 506
currently lose_sum: 0.4076366722583771
time_elpased: 3.721
#iterations: 507
currently lose_sum: 0.33510032296180725
time_elpased: 3.654
#iterations: 508
currently lose_sum: 0.414474755525589
time_elpased: 3.627
#iterations: 509
currently lose_sum: 0.4207266867160797
time_elpased: 3.709
#iterations: 510
currently lose_sum: 0.6834141612052917
time_elpased: 3.699
#iterations: 511
currently lose_sum: 0.543563723564148
time_elpased: 3.621
#iterations: 512
currently lose_sum: 0.4937868118286133
time_elpased: 3.674
#iterations: 513
currently lose_sum: 0.4103943109512329
time_elpased: 3.618
#iterations: 514
currently lose_sum: 0.5138643383979797
time_elpased: 3.629
#iterations: 515
currently lose_sum: 0.4529634714126587
time_elpased: 3.599
#iterations: 516
currently lose_sum: 0.8030009269714355
time_elpased: 3.662
#iterations: 517
currently lose_sum: 0.45729362964630127
time_elpased: 3.677
#iterations: 518
currently lose_sum: 0.4617248475551605
time_elpased: 3.674
#iterations: 519
currently lose_sum: 0.5321266055107117
time_elpased: 3.671
start validation test
0.7236
0.772942289499
0.644321766562
0.702795698925
0.724758285878
13.562
#iterations: 520
currently lose_sum: 0.39479559659957886
time_elpased: 3.707
#iterations: 521
currently lose_sum: 0.4245727062225342
time_elpased: 3.63
#iterations: 522
currently lose_sum: 0.3430001735687256
time_elpased: 3.724
#iterations: 523
currently lose_sum: 0.511698305606842
time_elpased: 3.695
#iterations: 524
currently lose_sum: 0.5905207991600037
time_elpased: 3.741
#iterations: 525
currently lose_sum: 0.3986591100692749
time_elpased: 3.757
#iterations: 526
currently lose_sum: 0.41166961193084717
time_elpased: 3.679
#iterations: 527
currently lose_sum: 0.44956573843955994
time_elpased: 3.699
#iterations: 528
currently lose_sum: 0.5106073021888733
time_elpased: 3.695
#iterations: 529
currently lose_sum: 0.5219166278839111
time_elpased: 3.714
#iterations: 530
currently lose_sum: 0.4102846086025238
time_elpased: 3.713
#iterations: 531
currently lose_sum: 0.3653128147125244
time_elpased: 3.615
#iterations: 532
currently lose_sum: 0.3897870182991028
time_elpased: 3.759
#iterations: 533
currently lose_sum: 0.33906394243240356
time_elpased: 3.644
#iterations: 534
currently lose_sum: 0.3610060214996338
time_elpased: 3.765
#iterations: 535
currently lose_sum: 0.4391130208969116
time_elpased: 3.772
#iterations: 536
currently lose_sum: 0.3832542896270752
time_elpased: 3.632
#iterations: 537
currently lose_sum: 0.5097753405570984
time_elpased: 3.686
#iterations: 538
currently lose_sum: 0.49465256929397583
time_elpased: 3.73
#iterations: 539
currently lose_sum: 0.4100398123264313
time_elpased: 3.642
start validation test
0.73
0.77530176416
0.658517350158
0.712153518124
0.731044389365
13.532
#iterations: 540
currently lose_sum: 0.5407717823982239
time_elpased: 3.657
#iterations: 541
currently lose_sum: 0.5265047550201416
time_elpased: 3.723
#iterations: 542
currently lose_sum: 0.4168665409088135
time_elpased: 3.651
#iterations: 543
currently lose_sum: 0.5256215333938599
time_elpased: 3.715
#iterations: 544
currently lose_sum: 0.43326687812805176
time_elpased: 3.664
#iterations: 545
currently lose_sum: 0.45069998502731323
time_elpased: 3.691
#iterations: 546
currently lose_sum: 0.4480151832103729
time_elpased: 3.64
#iterations: 547
currently lose_sum: 0.5512756705284119
time_elpased: 3.643
#iterations: 548
currently lose_sum: 0.6036052107810974
time_elpased: 3.695
#iterations: 549
currently lose_sum: 0.38730788230895996
time_elpased: 3.672
#iterations: 550
currently lose_sum: 0.39754652976989746
time_elpased: 3.678
#iterations: 551
currently lose_sum: 0.41932228207588196
time_elpased: 3.667
#iterations: 552
currently lose_sum: 0.38003817200660706
time_elpased: 3.602
#iterations: 553
currently lose_sum: 0.4321005642414093
time_elpased: 3.652
#iterations: 554
currently lose_sum: 0.49915802478790283
time_elpased: 3.619
#iterations: 555
currently lose_sum: 0.6490944027900696
time_elpased: 3.613
#iterations: 556
currently lose_sum: 0.45336708426475525
time_elpased: 3.689
#iterations: 557
currently lose_sum: 0.43416351079940796
time_elpased: 3.687
#iterations: 558
currently lose_sum: 0.5594425797462463
time_elpased: 3.66
#iterations: 559
currently lose_sum: 0.47860366106033325
time_elpased: 3.689
start validation test
0.73
0.704906703525
0.804416403785
0.75138121547
0.728912747347
13.475
#iterations: 560
currently lose_sum: 0.4327392280101776
time_elpased: 3.655
#iterations: 561
currently lose_sum: 0.4275616407394409
time_elpased: 3.659
#iterations: 562
currently lose_sum: 0.4168429970741272
time_elpased: 3.636
#iterations: 563
currently lose_sum: 0.3662267029285431
time_elpased: 3.656
#iterations: 564
currently lose_sum: 0.46315863728523254
time_elpased: 3.708
#iterations: 565
currently lose_sum: 0.4146593511104584
time_elpased: 3.712
#iterations: 566
currently lose_sum: 0.5026124715805054
time_elpased: 3.626
#iterations: 567
currently lose_sum: 0.5177782773971558
time_elpased: 3.619
#iterations: 568
currently lose_sum: 0.4638816714286804
time_elpased: 3.631
#iterations: 569
currently lose_sum: 0.3764868974685669
time_elpased: 3.661
#iterations: 570
currently lose_sum: 0.5436596870422363
time_elpased: 3.684
#iterations: 571
currently lose_sum: 0.46086394786834717
time_elpased: 3.691
#iterations: 572
currently lose_sum: 0.5139625668525696
time_elpased: 3.678
#iterations: 573
currently lose_sum: 0.47447487711906433
time_elpased: 3.675
#iterations: 574
currently lose_sum: 0.4760780334472656
time_elpased: 3.672
#iterations: 575
currently lose_sum: 0.44111114740371704
time_elpased: 3.762
#iterations: 576
currently lose_sum: 0.4293084740638733
time_elpased: 3.719
#iterations: 577
currently lose_sum: 0.36355069279670715
time_elpased: 3.684
#iterations: 578
currently lose_sum: 0.3663738965988159
time_elpased: 3.702
#iterations: 579
currently lose_sum: 0.41412287950515747
time_elpased: 3.648
start validation test
0.7336
0.715616045845
0.78785488959
0.75
0.732807314925
13.312
#iterations: 580
currently lose_sum: 0.4634932577610016
time_elpased: 3.778
#iterations: 581
currently lose_sum: 0.4511440396308899
time_elpased: 3.651
#iterations: 582
currently lose_sum: 0.4601382315158844
time_elpased: 3.685
#iterations: 583
currently lose_sum: 0.46715232729911804
time_elpased: 3.8
#iterations: 584
currently lose_sum: 0.6097349524497986
time_elpased: 3.688
#iterations: 585
currently lose_sum: 0.5805675983428955
time_elpased: 3.678
#iterations: 586
currently lose_sum: 0.4272922873497009
time_elpased: 3.695
#iterations: 587
currently lose_sum: 0.595038890838623
time_elpased: 3.637
#iterations: 588
currently lose_sum: 0.3836030960083008
time_elpased: 3.771
#iterations: 589
currently lose_sum: 0.4518568813800812
time_elpased: 3.635
#iterations: 590
currently lose_sum: 0.45384329557418823
time_elpased: 3.661
#iterations: 591
currently lose_sum: 0.513516902923584
time_elpased: 3.661
#iterations: 592
currently lose_sum: 0.40443238615989685
time_elpased: 3.867
#iterations: 593
currently lose_sum: 0.4531288146972656
time_elpased: 3.689
#iterations: 594
currently lose_sum: 0.4111386835575104
time_elpased: 3.659
#iterations: 595
currently lose_sum: 0.564186155796051
time_elpased: 3.611
#iterations: 596
currently lose_sum: 0.3779137432575226
time_elpased: 3.663
#iterations: 597
currently lose_sum: 0.37258461117744446
time_elpased: 3.687
#iterations: 598
currently lose_sum: 0.4145824909210205
time_elpased: 3.668
#iterations: 599
currently lose_sum: 0.44287773966789246
time_elpased: 3.701
start validation test
0.7356
0.729750189251
0.760252365931
0.744689069139
0.735239819329
13.236
acc: 0.729
pre: 0.728
rec: 0.743
F1: 0.735
auc: 0.729
