start to construct computing graph
graph construct over
3802
epochs start
#iterations: 0
currently lose_sum: 0.693988025188446
time_elpased: 3.249
#iterations: 1
currently lose_sum: 0.6926776170730591
time_elpased: 3.214
#iterations: 2
currently lose_sum: 0.6923692226409912
time_elpased: 3.26
#iterations: 3
currently lose_sum: 0.6956427097320557
time_elpased: 3.162
#iterations: 4
currently lose_sum: 0.6900758147239685
time_elpased: 3.204
#iterations: 5
currently lose_sum: 0.6861078143119812
time_elpased: 3.275
#iterations: 6
currently lose_sum: 0.6936553716659546
time_elpased: 3.203
#iterations: 7
currently lose_sum: 0.6824740767478943
time_elpased: 3.194
#iterations: 8
currently lose_sum: 0.68821120262146
time_elpased: 3.219
#iterations: 9
currently lose_sum: 0.6972907781600952
time_elpased: 3.201
#iterations: 10
currently lose_sum: 0.696351945400238
time_elpased: 3.211
#iterations: 11
currently lose_sum: 0.6918106079101562
time_elpased: 3.227
#iterations: 12
currently lose_sum: 0.6824173927307129
time_elpased: 3.233
#iterations: 13
currently lose_sum: 0.688762366771698
time_elpased: 3.223
#iterations: 14
currently lose_sum: 0.6889528036117554
time_elpased: 3.204
#iterations: 15
currently lose_sum: 0.6665851473808289
time_elpased: 3.292
#iterations: 16
currently lose_sum: 0.6867640614509583
time_elpased: 3.189
#iterations: 17
currently lose_sum: 0.6865200996398926
time_elpased: 3.155
#iterations: 18
currently lose_sum: 0.6733325719833374
time_elpased: 3.199
#iterations: 19
currently lose_sum: 0.6923925280570984
time_elpased: 3.295
start validation test
0.5668
0.584629460201
0.503943217666
0.541296060991
0.56771836208
17.059
#iterations: 20
currently lose_sum: 0.6900613307952881
time_elpased: 2.841
#iterations: 21
currently lose_sum: 0.6929147243499756
time_elpased: 2.54
#iterations: 22
currently lose_sum: 0.675086498260498
time_elpased: 2.477
#iterations: 23
currently lose_sum: 0.7016142010688782
time_elpased: 2.45
#iterations: 24
currently lose_sum: 0.6834041476249695
time_elpased: 2.519
#iterations: 25
currently lose_sum: 0.7154330611228943
time_elpased: 2.527
#iterations: 26
currently lose_sum: 0.6711558699607849
time_elpased: 2.598
#iterations: 27
currently lose_sum: 0.7128451466560364
time_elpased: 2.509
#iterations: 28
currently lose_sum: 0.7013617157936096
time_elpased: 2.44
#iterations: 29
currently lose_sum: 0.6752204298973083
time_elpased: 2.439
#iterations: 30
currently lose_sum: 0.6682774424552917
time_elpased: 2.503
#iterations: 31
currently lose_sum: 0.6668471693992615
time_elpased: 2.568
#iterations: 32
currently lose_sum: 0.65834641456604
time_elpased: 2.439
#iterations: 33
currently lose_sum: 0.6722795367240906
time_elpased: 2.62
#iterations: 34
currently lose_sum: 0.7028550505638123
time_elpased: 2.536
#iterations: 35
currently lose_sum: 0.6772058010101318
time_elpased: 2.446
#iterations: 36
currently lose_sum: 0.6966453790664673
time_elpased: 2.49
#iterations: 37
currently lose_sum: 0.625403642654419
time_elpased: 2.486
#iterations: 38
currently lose_sum: 0.6570816040039062
time_elpased: 2.529
#iterations: 39
currently lose_sum: 0.6465552449226379
time_elpased: 2.533
start validation test
0.5904
0.613805970149
0.518927444795
0.562393162393
0.591444241878
16.587
#iterations: 40
currently lose_sum: 0.6536327600479126
time_elpased: 2.51
#iterations: 41
currently lose_sum: 0.7063980102539062
time_elpased: 2.499
#iterations: 42
currently lose_sum: 0.6438780426979065
time_elpased: 2.644
#iterations: 43
currently lose_sum: 0.6535007953643799
time_elpased: 2.503
#iterations: 44
currently lose_sum: 0.6805863976478577
time_elpased: 2.521
#iterations: 45
currently lose_sum: 0.6554965376853943
time_elpased: 2.598
#iterations: 46
currently lose_sum: 0.6730844974517822
time_elpased: 2.494
#iterations: 47
currently lose_sum: 0.6816749572753906
time_elpased: 2.516
#iterations: 48
currently lose_sum: 0.6533862352371216
time_elpased: 2.529
#iterations: 49
currently lose_sum: 0.6382911801338196
time_elpased: 2.557
#iterations: 50
currently lose_sum: 0.643044114112854
time_elpased: 2.552
#iterations: 51
currently lose_sum: 0.6658591628074646
time_elpased: 2.563
#iterations: 52
currently lose_sum: 0.6373977065086365
time_elpased: 2.473
#iterations: 53
currently lose_sum: 0.6468465924263
time_elpased: 2.507
#iterations: 54
currently lose_sum: 0.6424105167388916
time_elpased: 2.478
#iterations: 55
currently lose_sum: 0.6453295946121216
time_elpased: 2.623
#iterations: 56
currently lose_sum: 0.6485584378242493
time_elpased: 2.473
#iterations: 57
currently lose_sum: 0.6466712951660156
time_elpased: 2.47
#iterations: 58
currently lose_sum: 0.5831139087677002
time_elpased: 2.48
#iterations: 59
currently lose_sum: 0.6514281630516052
time_elpased: 2.527
start validation test
0.5868
0.747368421053
0.279968454259
0.407343660356
0.591282928428
17.160
#iterations: 60
currently lose_sum: 0.6051512360572815
time_elpased: 2.542
#iterations: 61
currently lose_sum: 0.6056672930717468
time_elpased: 2.464
#iterations: 62
currently lose_sum: 0.6638709902763367
time_elpased: 2.493
#iterations: 63
currently lose_sum: 0.5765128135681152
time_elpased: 2.441
#iterations: 64
currently lose_sum: 0.6424888372421265
time_elpased: 2.492
#iterations: 65
currently lose_sum: 0.616422176361084
time_elpased: 2.494
#iterations: 66
currently lose_sum: 0.680158257484436
time_elpased: 2.469
#iterations: 67
currently lose_sum: 0.646004319190979
time_elpased: 2.554
#iterations: 68
currently lose_sum: 0.6864425539970398
time_elpased: 2.503
#iterations: 69
currently lose_sum: 0.6291008591651917
time_elpased: 2.461
#iterations: 70
currently lose_sum: 0.6588257551193237
time_elpased: 2.515
#iterations: 71
currently lose_sum: 0.662213146686554
time_elpased: 2.533
#iterations: 72
currently lose_sum: 0.6088326573371887
time_elpased: 2.472
#iterations: 73
currently lose_sum: 0.6771910190582275
time_elpased: 2.542
#iterations: 74
currently lose_sum: 0.6513140797615051
time_elpased: 2.504
#iterations: 75
currently lose_sum: 0.6365259289741516
time_elpased: 2.544
#iterations: 76
currently lose_sum: 0.6464489102363586
time_elpased: 2.481
#iterations: 77
currently lose_sum: 0.6738076210021973
time_elpased: 2.48
#iterations: 78
currently lose_sum: 0.5867114663124084
time_elpased: 2.494
#iterations: 79
currently lose_sum: 0.6347314715385437
time_elpased: 2.588
start validation test
0.6328
0.605168269231
0.794164037855
0.68690313779
0.630442408538
15.952
#iterations: 80
currently lose_sum: 0.5935680270195007
time_elpased: 2.467
#iterations: 81
currently lose_sum: 0.6207756996154785
time_elpased: 2.505
#iterations: 82
currently lose_sum: 0.5877193808555603
time_elpased: 2.532
#iterations: 83
currently lose_sum: 0.6400975584983826
time_elpased: 2.542
#iterations: 84
currently lose_sum: 0.6333409547805786
time_elpased: 2.497
#iterations: 85
currently lose_sum: 0.589414119720459
time_elpased: 2.47
#iterations: 86
currently lose_sum: 0.5835908651351929
time_elpased: 2.489
#iterations: 87
currently lose_sum: 0.6379396915435791
time_elpased: 2.603
#iterations: 88
currently lose_sum: 0.6179178357124329
time_elpased: 2.509
#iterations: 89
currently lose_sum: 0.732631504535675
time_elpased: 2.534
#iterations: 90
currently lose_sum: 0.604191243648529
time_elpased: 2.509
#iterations: 91
currently lose_sum: 0.5990433096885681
time_elpased: 2.563
#iterations: 92
currently lose_sum: 0.6252830028533936
time_elpased: 2.564
#iterations: 93
currently lose_sum: 0.6617674231529236
time_elpased: 2.509
#iterations: 94
currently lose_sum: 0.6529799103736877
time_elpased: 2.574
#iterations: 95
currently lose_sum: 0.6500005125999451
time_elpased: 2.539
#iterations: 96
currently lose_sum: 0.5769974589347839
time_elpased: 2.542
#iterations: 97
currently lose_sum: 0.6199931502342224
time_elpased: 2.539
#iterations: 98
currently lose_sum: 0.6790981292724609
time_elpased: 2.539
#iterations: 99
currently lose_sum: 0.7421438097953796
time_elpased: 2.52
start validation test
0.6692
0.694273127753
0.621451104101
0.655846858094
0.669897629973
15.348
#iterations: 100
currently lose_sum: 0.6436468362808228
time_elpased: 2.645
#iterations: 101
currently lose_sum: 0.6292117834091187
time_elpased: 2.541
#iterations: 102
currently lose_sum: 0.639356255531311
time_elpased: 2.447
#iterations: 103
currently lose_sum: 0.6068112254142761
time_elpased: 2.457
#iterations: 104
currently lose_sum: 0.6484219431877136
time_elpased: 2.501
#iterations: 105
currently lose_sum: 0.5555229783058167
time_elpased: 2.436
#iterations: 106
currently lose_sum: 0.6069934368133545
time_elpased: 2.476
#iterations: 107
currently lose_sum: 0.5899707674980164
time_elpased: 2.459
#iterations: 108
currently lose_sum: 0.6525034308433533
time_elpased: 2.54
#iterations: 109
currently lose_sum: 0.6011678576469421
time_elpased: 2.447
#iterations: 110
currently lose_sum: 0.621527910232544
time_elpased: 2.541
#iterations: 111
currently lose_sum: 0.5646699666976929
time_elpased: 2.463
#iterations: 112
currently lose_sum: 0.600135862827301
time_elpased: 2.47
#iterations: 113
currently lose_sum: 0.5611032843589783
time_elpased: 2.475
#iterations: 114
currently lose_sum: 0.6455424427986145
time_elpased: 2.518
#iterations: 115
currently lose_sum: 0.6900873780250549
time_elpased: 2.491
#iterations: 116
currently lose_sum: 0.6352331042289734
time_elpased: 2.485
#iterations: 117
currently lose_sum: 0.6373373866081238
time_elpased: 2.473
#iterations: 118
currently lose_sum: 0.6182301640510559
time_elpased: 2.578
#iterations: 119
currently lose_sum: 0.5779979228973389
time_elpased: 2.513
start validation test
0.6288
0.768987341772
0.383280757098
0.511578947368
0.632387131796
16.032
#iterations: 120
currently lose_sum: 0.5756831169128418
time_elpased: 2.584
#iterations: 121
currently lose_sum: 0.6003742814064026
time_elpased: 2.477
#iterations: 122
currently lose_sum: 0.614738404750824
time_elpased: 2.47
#iterations: 123
currently lose_sum: 0.7555482387542725
time_elpased: 2.47
#iterations: 124
currently lose_sum: 0.6119291186332703
time_elpased: 2.476
#iterations: 125
currently lose_sum: 0.5758783221244812
time_elpased: 2.489
#iterations: 126
currently lose_sum: 0.5867425799369812
time_elpased: 2.537
#iterations: 127
currently lose_sum: 0.6355881690979004
time_elpased: 2.435
#iterations: 128
currently lose_sum: 0.5881755352020264
time_elpased: 2.493
#iterations: 129
currently lose_sum: 0.609082818031311
time_elpased: 2.587
#iterations: 130
currently lose_sum: 0.6455102562904358
time_elpased: 2.454
#iterations: 131
currently lose_sum: 0.627682089805603
time_elpased: 2.48
#iterations: 132
currently lose_sum: 0.6191269755363464
time_elpased: 2.493
#iterations: 133
currently lose_sum: 0.5820362567901611
time_elpased: 2.576
#iterations: 134
currently lose_sum: 0.6121301054954529
time_elpased: 2.611
#iterations: 135
currently lose_sum: 0.5836271047592163
time_elpased: 2.491
#iterations: 136
currently lose_sum: 0.5931433439254761
time_elpased: 2.47
#iterations: 137
currently lose_sum: 0.5499105453491211
time_elpased: 2.488
#iterations: 138
currently lose_sum: 0.6484590172767639
time_elpased: 2.484
#iterations: 139
currently lose_sum: 0.5812900066375732
time_elpased: 2.545
start validation test
0.628
0.586400817996
0.904574132492
0.711538461538
0.623959144168
16.748
#iterations: 140
currently lose_sum: 0.5578404068946838
time_elpased: 2.558
#iterations: 141
currently lose_sum: 0.6003978848457336
time_elpased: 2.543
#iterations: 142
currently lose_sum: 0.6437789797782898
time_elpased: 2.48
#iterations: 143
currently lose_sum: 0.5621927380561829
time_elpased: 2.469
#iterations: 144
currently lose_sum: 0.6127066016197205
time_elpased: 2.514
#iterations: 145
currently lose_sum: 0.6016045212745667
time_elpased: 2.499
#iterations: 146
currently lose_sum: 0.5968534350395203
time_elpased: 2.496
#iterations: 147
currently lose_sum: 0.5867325067520142
time_elpased: 2.49
#iterations: 148
currently lose_sum: 0.5083209276199341
time_elpased: 2.51
#iterations: 149
currently lose_sum: 0.6101953387260437
time_elpased: 2.481
#iterations: 150
currently lose_sum: 0.5599372982978821
time_elpased: 2.451
#iterations: 151
currently lose_sum: 0.6220263838768005
time_elpased: 2.513
#iterations: 152
currently lose_sum: 0.5868046283721924
time_elpased: 2.521
#iterations: 153
currently lose_sum: 0.5576586723327637
time_elpased: 2.564
#iterations: 154
currently lose_sum: 0.6223548650741577
time_elpased: 2.485
#iterations: 155
currently lose_sum: 0.5641969442367554
time_elpased: 2.537
#iterations: 156
currently lose_sum: 0.5595027208328247
time_elpased: 2.513
#iterations: 157
currently lose_sum: 0.5562012791633606
time_elpased: 2.466
#iterations: 158
currently lose_sum: 0.6134006977081299
time_elpased: 2.476
#iterations: 159
currently lose_sum: 0.7040606737136841
time_elpased: 2.557
start validation test
0.6208
0.84632034632
0.308359621451
0.452023121387
0.625364875661
16.822
#iterations: 160
currently lose_sum: 0.4809969961643219
time_elpased: 2.544
#iterations: 161
currently lose_sum: 0.5469785332679749
time_elpased: 2.521
#iterations: 162
currently lose_sum: 0.5787276029586792
time_elpased: 2.531
#iterations: 163
currently lose_sum: 0.5655389428138733
time_elpased: 2.487
#iterations: 164
currently lose_sum: 0.5557373762130737
time_elpased: 2.479
#iterations: 165
currently lose_sum: 0.5810295343399048
time_elpased: 2.484
#iterations: 166
currently lose_sum: 0.6260199546813965
time_elpased: 2.56
#iterations: 167
currently lose_sum: 0.7122048735618591
time_elpased: 2.508
#iterations: 168
currently lose_sum: 0.5349929928779602
time_elpased: 2.534
#iterations: 169
currently lose_sum: 0.550804853439331
time_elpased: 2.498
#iterations: 170
currently lose_sum: 0.5599046945571899
time_elpased: 2.53
#iterations: 171
currently lose_sum: 0.5752832889556885
time_elpased: 2.53
#iterations: 172
currently lose_sum: 0.5486370325088501
time_elpased: 2.546
#iterations: 173
currently lose_sum: 0.669529139995575
time_elpased: 2.434
#iterations: 174
currently lose_sum: 0.44335678219795227
time_elpased: 2.522
#iterations: 175
currently lose_sum: 0.6165781021118164
time_elpased: 2.537
#iterations: 176
currently lose_sum: 0.5459070801734924
time_elpased: 2.495
#iterations: 177
currently lose_sum: 0.5519155859947205
time_elpased: 2.458
#iterations: 178
currently lose_sum: 0.4542858898639679
time_elpased: 2.467
#iterations: 179
currently lose_sum: 0.5812482833862305
time_elpased: 2.489
start validation test
0.682
0.795255930087
0.502365930599
0.61575640406
0.684624523741
15.104
#iterations: 180
currently lose_sum: 0.5478453636169434
time_elpased: 2.527
#iterations: 181
currently lose_sum: 0.5562641024589539
time_elpased: 2.505
#iterations: 182
currently lose_sum: 0.5285372734069824
time_elpased: 2.61
#iterations: 183
currently lose_sum: 0.5831124186515808
time_elpased: 2.509
#iterations: 184
currently lose_sum: 0.5727053284645081
time_elpased: 2.514
#iterations: 185
currently lose_sum: 0.5272716283798218
time_elpased: 2.446
#iterations: 186
currently lose_sum: 0.5506250858306885
time_elpased: 2.536
#iterations: 187
currently lose_sum: 0.5331760048866272
time_elpased: 2.53
#iterations: 188
currently lose_sum: 0.5421534776687622
time_elpased: 2.729
#iterations: 189
currently lose_sum: 0.7388241291046143
time_elpased: 2.49
#iterations: 190
currently lose_sum: 0.6212534308433533
time_elpased: 2.505
#iterations: 191
currently lose_sum: 0.5591753125190735
time_elpased: 2.548
#iterations: 192
currently lose_sum: 0.5449381470680237
time_elpased: 2.606
#iterations: 193
currently lose_sum: 0.554361879825592
time_elpased: 2.443
#iterations: 194
currently lose_sum: 0.5288684368133545
time_elpased: 2.551
#iterations: 195
currently lose_sum: 0.5065183043479919
time_elpased: 2.501
#iterations: 196
currently lose_sum: 0.5981048345565796
time_elpased: 2.5
#iterations: 197
currently lose_sum: 0.5846285820007324
time_elpased: 2.426
#iterations: 198
currently lose_sum: 0.581960141658783
time_elpased: 2.556
#iterations: 199
currently lose_sum: 0.48711341619491577
time_elpased: 2.535
start validation test
0.704
0.739130434783
0.643533123028
0.68802698145
0.704883444631
14.320
#iterations: 200
currently lose_sum: 0.6217392086982727
time_elpased: 2.526
#iterations: 201
currently lose_sum: 0.5413962602615356
time_elpased: 2.506
#iterations: 202
currently lose_sum: 0.4967677593231201
time_elpased: 2.486
#iterations: 203
currently lose_sum: 0.5541795492172241
time_elpased: 2.48
#iterations: 204
currently lose_sum: 0.5920955538749695
time_elpased: 2.53
#iterations: 205
currently lose_sum: 0.5497453212738037
time_elpased: 2.479
#iterations: 206
currently lose_sum: 0.4621800184249878
time_elpased: 2.454
#iterations: 207
currently lose_sum: 0.5667354464530945
time_elpased: 2.512
#iterations: 208
currently lose_sum: 0.6559922695159912
time_elpased: 2.531
#iterations: 209
currently lose_sum: 0.5467271208763123
time_elpased: 2.489
#iterations: 210
currently lose_sum: 0.5140995979309082
time_elpased: 2.533
#iterations: 211
currently lose_sum: 0.6189028024673462
time_elpased: 2.733
#iterations: 212
currently lose_sum: 0.5080832839012146
time_elpased: 2.455
#iterations: 213
currently lose_sum: 0.5341961979866028
time_elpased: 2.507
#iterations: 214
currently lose_sum: 0.6040467619895935
time_elpased: 2.5
#iterations: 215
currently lose_sum: 0.5495923757553101
time_elpased: 2.531
#iterations: 216
currently lose_sum: 0.46052834391593933
time_elpased: 2.551
#iterations: 217
currently lose_sum: 0.4378429353237152
time_elpased: 2.504
#iterations: 218
currently lose_sum: 0.5615019202232361
time_elpased: 2.491
#iterations: 219
currently lose_sum: 0.5491080284118652
time_elpased: 2.511
start validation test
0.662
0.836248012719
0.414826498423
0.554559831313
0.665611301159
15.520
#iterations: 220
currently lose_sum: 0.42415115237236023
time_elpased: 2.473
#iterations: 221
currently lose_sum: 0.5281003713607788
time_elpased: 2.523
#iterations: 222
currently lose_sum: 0.6746295094490051
time_elpased: 2.527
#iterations: 223
currently lose_sum: 0.5000383257865906
time_elpased: 2.479
#iterations: 224
currently lose_sum: 0.6839849948883057
time_elpased: 2.628
#iterations: 225
currently lose_sum: 0.544637143611908
time_elpased: 2.521
#iterations: 226
currently lose_sum: 0.508202075958252
time_elpased: 2.474
#iterations: 227
currently lose_sum: 0.5066269040107727
time_elpased: 2.558
#iterations: 228
currently lose_sum: 0.5211966633796692
time_elpased: 2.508
#iterations: 229
currently lose_sum: 0.5791168808937073
time_elpased: 2.504
#iterations: 230
currently lose_sum: 0.5731291174888611
time_elpased: 2.469
#iterations: 231
currently lose_sum: 0.5273396968841553
time_elpased: 2.53
#iterations: 232
currently lose_sum: 0.5974157452583313
time_elpased: 2.447
#iterations: 233
currently lose_sum: 0.5806294083595276
time_elpased: 2.494
#iterations: 234
currently lose_sum: 0.6067757606506348
time_elpased: 2.437
#iterations: 235
currently lose_sum: 0.5231402516365051
time_elpased: 2.476
#iterations: 236
currently lose_sum: 0.533994734287262
time_elpased: 2.572
#iterations: 237
currently lose_sum: 0.5215746164321899
time_elpased: 2.491
#iterations: 238
currently lose_sum: 0.46822357177734375
time_elpased: 2.484
#iterations: 239
currently lose_sum: 0.5282469987869263
time_elpased: 2.501
start validation test
0.6996
0.679389312977
0.772082018927
0.722775932078
0.698541009464
14.421
#iterations: 240
currently lose_sum: 0.49744048714637756
time_elpased: 2.447
#iterations: 241
currently lose_sum: 0.5443924069404602
time_elpased: 2.532
#iterations: 242
currently lose_sum: 0.5913383364677429
time_elpased: 2.544
#iterations: 243
currently lose_sum: 0.7935277819633484
time_elpased: 2.608
#iterations: 244
currently lose_sum: 0.568452000617981
time_elpased: 2.68
#iterations: 245
currently lose_sum: 0.4548153579235077
time_elpased: 2.536
#iterations: 246
currently lose_sum: 0.5774009823799133
time_elpased: 2.47
#iterations: 247
currently lose_sum: 0.45715346932411194
time_elpased: 2.512
#iterations: 248
currently lose_sum: 0.7214072942733765
time_elpased: 2.499
#iterations: 249
currently lose_sum: 0.5090504288673401
time_elpased: 2.565
#iterations: 250
currently lose_sum: 0.5656337141990662
time_elpased: 2.47
#iterations: 251
currently lose_sum: 0.4885861873626709
time_elpased: 2.509
#iterations: 252
currently lose_sum: 0.5306304693222046
time_elpased: 2.507
#iterations: 253
currently lose_sum: 0.5116433501243591
time_elpased: 2.527
#iterations: 254
currently lose_sum: 0.608675479888916
time_elpased: 2.581
#iterations: 255
currently lose_sum: 0.5457918047904968
time_elpased: 2.451
#iterations: 256
currently lose_sum: 0.5608628988265991
time_elpased: 2.55
#iterations: 257
currently lose_sum: 0.7023823261260986
time_elpased: 2.536
#iterations: 258
currently lose_sum: 0.5804433226585388
time_elpased: 2.547
#iterations: 259
currently lose_sum: 0.5567198395729065
time_elpased: 2.456
start validation test
0.6948
0.659709044908
0.822555205047
0.732186732187
0.69293344668
14.201
#iterations: 260
currently lose_sum: 0.5843243598937988
time_elpased: 2.585
#iterations: 261
currently lose_sum: 0.5164889097213745
time_elpased: 2.549
#iterations: 262
currently lose_sum: 0.49417075514793396
time_elpased: 2.506
#iterations: 263
currently lose_sum: 0.5194299221038818
time_elpased: 2.507
#iterations: 264
currently lose_sum: 0.48106205463409424
time_elpased: 2.509
#iterations: 265
currently lose_sum: 0.6047911047935486
time_elpased: 2.535
#iterations: 266
currently lose_sum: 0.5654707551002502
time_elpased: 2.544
#iterations: 267
currently lose_sum: 0.5725063681602478
time_elpased: 2.466
#iterations: 268
currently lose_sum: 0.48978129029273987
time_elpased: 2.533
#iterations: 269
currently lose_sum: 0.9739317297935486
time_elpased: 2.477
#iterations: 270
currently lose_sum: 0.5885828137397766
time_elpased: 2.49
#iterations: 271
currently lose_sum: 0.605299711227417
time_elpased: 2.525
#iterations: 272
currently lose_sum: 0.5556963086128235
time_elpased: 2.522
#iterations: 273
currently lose_sum: 0.5537869334220886
time_elpased: 2.492
#iterations: 274
currently lose_sum: 0.6591467261314392
time_elpased: 2.488
#iterations: 275
currently lose_sum: 0.47816482186317444
time_elpased: 2.535
#iterations: 276
currently lose_sum: 0.5439637303352356
time_elpased: 2.505
#iterations: 277
currently lose_sum: 0.6086786985397339
time_elpased: 2.546
#iterations: 278
currently lose_sum: 0.473317414522171
time_elpased: 2.535
#iterations: 279
currently lose_sum: 0.525942325592041
time_elpased: 2.553
start validation test
0.7012
0.685938615275
0.757886435331
0.720119895092
0.700371789094
13.988
#iterations: 280
currently lose_sum: 0.5565695762634277
time_elpased: 2.454
#iterations: 281
currently lose_sum: 0.48389825224876404
time_elpased: 2.542
#iterations: 282
currently lose_sum: 0.4911087155342102
time_elpased: 2.509
#iterations: 283
currently lose_sum: 0.5302025079727173
time_elpased: 2.555
#iterations: 284
currently lose_sum: 0.5090709328651428
time_elpased: 2.523
#iterations: 285
currently lose_sum: 0.555626630783081
time_elpased: 2.632
#iterations: 286
currently lose_sum: 0.5495471954345703
time_elpased: 2.48
#iterations: 287
currently lose_sum: 0.5161160230636597
time_elpased: 2.631
#iterations: 288
currently lose_sum: 0.5442700982093811
time_elpased: 2.529
#iterations: 289
currently lose_sum: 0.5657117366790771
time_elpased: 2.498
#iterations: 290
currently lose_sum: 0.5521940588951111
time_elpased: 2.475
#iterations: 291
currently lose_sum: 0.4905050992965698
time_elpased: 2.494
#iterations: 292
currently lose_sum: 0.5251215100288391
time_elpased: 2.544
#iterations: 293
currently lose_sum: 0.4670667350292206
time_elpased: 2.547
#iterations: 294
currently lose_sum: 0.5851099491119385
time_elpased: 2.513
#iterations: 295
currently lose_sum: 0.5482149720191956
time_elpased: 2.457
#iterations: 296
currently lose_sum: 0.5014463663101196
time_elpased: 2.49
#iterations: 297
currently lose_sum: 0.539076566696167
time_elpased: 2.567
#iterations: 298
currently lose_sum: 0.5086353421211243
time_elpased: 2.503
#iterations: 299
currently lose_sum: 0.5239701867103577
time_elpased: 2.56
start validation test
0.7196
0.731807031889
0.705835962145
0.718586912886
0.719801097956
13.729
#iterations: 300
currently lose_sum: 0.4935183823108673
time_elpased: 2.533
#iterations: 301
currently lose_sum: 0.5147442817687988
time_elpased: 2.47
#iterations: 302
currently lose_sum: 0.5492393374443054
time_elpased: 2.521
#iterations: 303
currently lose_sum: 0.5193015933036804
time_elpased: 2.543
#iterations: 304
currently lose_sum: 0.6433043479919434
time_elpased: 2.562
#iterations: 305
currently lose_sum: 0.47824999690055847
time_elpased: 2.519
#iterations: 306
currently lose_sum: 0.5799517035484314
time_elpased: 2.555
#iterations: 307
currently lose_sum: 0.5345664024353027
time_elpased: 2.489
#iterations: 308
currently lose_sum: 0.46524468064308167
time_elpased: 2.514
#iterations: 309
currently lose_sum: 0.464681476354599
time_elpased: 2.48
#iterations: 310
currently lose_sum: 0.5655337572097778
time_elpased: 2.593
#iterations: 311
currently lose_sum: 0.602306604385376
time_elpased: 2.505
#iterations: 312
currently lose_sum: 0.5226397514343262
time_elpased: 2.522
#iterations: 313
currently lose_sum: 0.4789820909500122
time_elpased: 2.551
#iterations: 314
currently lose_sum: 0.45321255922317505
time_elpased: 2.484
#iterations: 315
currently lose_sum: 0.5134217143058777
time_elpased: 2.565
#iterations: 316
currently lose_sum: 0.4245185852050781
time_elpased: 2.486
#iterations: 317
currently lose_sum: 0.6181537508964539
time_elpased: 2.522
#iterations: 318
currently lose_sum: 0.5490591526031494
time_elpased: 2.46
#iterations: 319
currently lose_sum: 0.49547141790390015
time_elpased: 2.515
start validation test
0.7028
0.658610271903
0.859621451104
0.745809100239
0.7005087775
14.483
#iterations: 320
currently lose_sum: 0.5274282693862915
time_elpased: 2.566
#iterations: 321
currently lose_sum: 0.524510383605957
time_elpased: 2.509
#iterations: 322
currently lose_sum: 0.5253250598907471
time_elpased: 2.458
#iterations: 323
currently lose_sum: 0.5115787386894226
time_elpased: 2.547
#iterations: 324
currently lose_sum: 0.48127755522727966
time_elpased: 2.587
#iterations: 325
currently lose_sum: 0.4352986812591553
time_elpased: 2.509
#iterations: 326
currently lose_sum: 0.4915246069431305
time_elpased: 2.444
#iterations: 327
currently lose_sum: 0.431257426738739
time_elpased: 2.586
#iterations: 328
currently lose_sum: 0.516796886920929
time_elpased: 2.489
#iterations: 329
currently lose_sum: 0.48970192670822144
time_elpased: 2.569
#iterations: 330
currently lose_sum: 0.4728038012981415
time_elpased: 2.512
#iterations: 331
currently lose_sum: 0.4779721796512604
time_elpased: 2.522
#iterations: 332
currently lose_sum: 0.5023188591003418
time_elpased: 2.481
#iterations: 333
currently lose_sum: 0.5099581480026245
time_elpased: 2.518
#iterations: 334
currently lose_sum: 0.5707008242607117
time_elpased: 2.556
#iterations: 335
currently lose_sum: 0.48395928740501404
time_elpased: 2.538
#iterations: 336
currently lose_sum: 0.4441525936126709
time_elpased: 2.5
#iterations: 337
currently lose_sum: 0.47987282276153564
time_elpased: 2.492
#iterations: 338
currently lose_sum: 0.5532986521720886
time_elpased: 2.452
#iterations: 339
currently lose_sum: 0.48480692505836487
time_elpased: 2.544
start validation test
0.7128
0.777217741935
0.608044164038
0.682300884956
0.714330523577
13.890
#iterations: 340
currently lose_sum: 0.559159517288208
time_elpased: 2.545
#iterations: 341
currently lose_sum: 0.46878311038017273
time_elpased: 2.569
#iterations: 342
currently lose_sum: 0.5261500477790833
time_elpased: 2.478
#iterations: 343
currently lose_sum: 0.5018002390861511
time_elpased: 2.581
#iterations: 344
currently lose_sum: 0.46597039699554443
time_elpased: 2.504
#iterations: 345
currently lose_sum: 0.5144386887550354
time_elpased: 2.486
#iterations: 346
currently lose_sum: 0.4683871567249298
time_elpased: 2.488
#iterations: 347
currently lose_sum: 0.49651169776916504
time_elpased: 2.487
#iterations: 348
currently lose_sum: 0.6809125542640686
time_elpased: 2.473
#iterations: 349
currently lose_sum: 0.5345165729522705
time_elpased: 2.519
#iterations: 350
currently lose_sum: 0.4291592538356781
time_elpased: 2.546
#iterations: 351
currently lose_sum: 0.5445536971092224
time_elpased: 2.5
#iterations: 352
currently lose_sum: 0.4939609467983246
time_elpased: 2.481
#iterations: 353
currently lose_sum: 0.4844858944416046
time_elpased: 2.473
#iterations: 354
currently lose_sum: 0.4275677502155304
time_elpased: 2.499
#iterations: 355
currently lose_sum: 0.47894859313964844
time_elpased: 2.512
#iterations: 356
currently lose_sum: 0.5158544182777405
time_elpased: 2.522
#iterations: 357
currently lose_sum: 0.5217384696006775
time_elpased: 2.519
#iterations: 358
currently lose_sum: 0.5048108100891113
time_elpased: 2.505
#iterations: 359
currently lose_sum: 0.5090552568435669
time_elpased: 2.473
start validation test
0.7212
0.71482317532
0.749211356467
0.731613400077
0.720790743169
13.749
#iterations: 360
currently lose_sum: 0.5244039297103882
time_elpased: 2.467
#iterations: 361
currently lose_sum: 0.548092246055603
time_elpased: 2.586
#iterations: 362
currently lose_sum: 0.49849173426628113
time_elpased: 2.514
#iterations: 363
currently lose_sum: 0.4796178340911865
time_elpased: 2.521
#iterations: 364
currently lose_sum: 0.6143836975097656
time_elpased: 2.443
#iterations: 365
currently lose_sum: 0.46262675523757935
time_elpased: 2.507
#iterations: 366
currently lose_sum: 0.42685601115226746
time_elpased: 2.441
#iterations: 367
currently lose_sum: 0.49152976274490356
time_elpased: 2.521
#iterations: 368
currently lose_sum: 0.6048012375831604
time_elpased: 2.535
#iterations: 369
currently lose_sum: 0.42710331082344055
time_elpased: 2.507
#iterations: 370
currently lose_sum: 0.5155044794082642
time_elpased: 2.524
#iterations: 371
currently lose_sum: 0.49800997972488403
time_elpased: 2.561
#iterations: 372
currently lose_sum: 0.41691944003105164
time_elpased: 2.467
#iterations: 373
currently lose_sum: 0.5970540642738342
time_elpased: 2.533
#iterations: 374
currently lose_sum: 0.49394455552101135
time_elpased: 2.523
#iterations: 375
currently lose_sum: 0.515373170375824
time_elpased: 2.52
#iterations: 376
currently lose_sum: 0.4647858738899231
time_elpased: 2.514
#iterations: 377
currently lose_sum: 0.47178515791893005
time_elpased: 2.514
#iterations: 378
currently lose_sum: 0.43747687339782715
time_elpased: 2.504
#iterations: 379
currently lose_sum: 0.48533013463020325
time_elpased: 2.529
start validation test
0.7
0.812801932367
0.530757097792
0.642175572519
0.70247270474
14.462
#iterations: 380
currently lose_sum: 0.4816800057888031
time_elpased: 2.56
#iterations: 381
currently lose_sum: 0.5029802918434143
time_elpased: 2.489
#iterations: 382
currently lose_sum: 0.4878060817718506
time_elpased: 2.519
#iterations: 383
currently lose_sum: 0.4461187720298767
time_elpased: 2.484
#iterations: 384
currently lose_sum: 0.46084120869636536
time_elpased: 2.448
#iterations: 385
currently lose_sum: 0.5144915580749512
time_elpased: 2.503
#iterations: 386
currently lose_sum: 0.42345869541168213
time_elpased: 2.511
#iterations: 387
currently lose_sum: 0.4601760804653168
time_elpased: 2.548
#iterations: 388
currently lose_sum: 0.425190806388855
time_elpased: 2.561
#iterations: 389
currently lose_sum: 0.6481695771217346
time_elpased: 2.492
#iterations: 390
currently lose_sum: 0.5250217318534851
time_elpased: 2.501
#iterations: 391
currently lose_sum: 0.6076291799545288
time_elpased: 2.57
#iterations: 392
currently lose_sum: 0.43122971057891846
time_elpased: 2.52
#iterations: 393
currently lose_sum: 0.518420398235321
time_elpased: 2.528
#iterations: 394
currently lose_sum: 0.48102515935897827
time_elpased: 2.532
#iterations: 395
currently lose_sum: 0.5126094222068787
time_elpased: 2.506
#iterations: 396
currently lose_sum: 0.5061910152435303
time_elpased: 2.543
#iterations: 397
currently lose_sum: 0.4708195626735687
time_elpased: 2.526
#iterations: 398
currently lose_sum: 0.4818028509616852
time_elpased: 2.586
#iterations: 399
currently lose_sum: 0.4168681204319
time_elpased: 2.444
start validation test
0.7128
0.676508344031
0.831230283912
0.74593064402
0.71106968741
14.258
#iterations: 400
currently lose_sum: 0.5034453868865967
time_elpased: 2.58
#iterations: 401
currently lose_sum: 0.5916345119476318
time_elpased: 2.519
#iterations: 402
currently lose_sum: 0.45658230781555176
time_elpased: 2.504
#iterations: 403
currently lose_sum: 0.5498569011688232
time_elpased: 2.514
#iterations: 404
currently lose_sum: 0.5764250159263611
time_elpased: 2.475
#iterations: 405
currently lose_sum: 0.4585720896720886
time_elpased: 2.485
#iterations: 406
currently lose_sum: 0.4926186800003052
time_elpased: 2.544
#iterations: 407
currently lose_sum: 0.4782472252845764
time_elpased: 2.532
#iterations: 408
currently lose_sum: 0.4198713004589081
time_elpased: 2.557
#iterations: 409
currently lose_sum: 0.4851192235946655
time_elpased: 2.511
#iterations: 410
currently lose_sum: 0.6621005535125732
time_elpased: 2.502
#iterations: 411
currently lose_sum: 0.5268048644065857
time_elpased: 2.477
#iterations: 412
currently lose_sum: 0.48658883571624756
time_elpased: 2.499
#iterations: 413
currently lose_sum: 0.45787712931632996
time_elpased: 2.48
#iterations: 414
currently lose_sum: 0.5141528844833374
time_elpased: 2.515
#iterations: 415
currently lose_sum: 0.5041505694389343
time_elpased: 2.463
#iterations: 416
currently lose_sum: 0.494608074426651
time_elpased: 2.502
#iterations: 417
currently lose_sum: 0.4377337694168091
time_elpased: 2.509
#iterations: 418
currently lose_sum: 0.5515186190605164
time_elpased: 2.464
#iterations: 419
currently lose_sum: 0.523280918598175
time_elpased: 2.467
start validation test
0.7288
0.70260989011
0.806782334385
0.751101321586
0.727660647712
13.393
#iterations: 420
currently lose_sum: 0.5094866752624512
time_elpased: 2.497
#iterations: 421
currently lose_sum: 0.5294011831283569
time_elpased: 2.462
#iterations: 422
currently lose_sum: 0.46246910095214844
time_elpased: 2.535
#iterations: 423
currently lose_sum: 0.4356975555419922
time_elpased: 2.545
#iterations: 424
currently lose_sum: 0.4810413718223572
time_elpased: 2.565
#iterations: 425
currently lose_sum: 0.413713276386261
time_elpased: 2.47
#iterations: 426
currently lose_sum: 0.6031653881072998
time_elpased: 2.515
#iterations: 427
currently lose_sum: 0.4636286795139313
time_elpased: 2.485
#iterations: 428
currently lose_sum: 0.4270085096359253
time_elpased: 2.541
#iterations: 429
currently lose_sum: 0.5318010449409485
time_elpased: 2.489
#iterations: 430
currently lose_sum: 0.5035243034362793
time_elpased: 2.521
#iterations: 431
currently lose_sum: 0.5176969766616821
time_elpased: 2.496
#iterations: 432
currently lose_sum: 0.5413962006568909
time_elpased: 2.652
#iterations: 433
currently lose_sum: 0.4790899157524109
time_elpased: 2.525
#iterations: 434
currently lose_sum: 0.5170692205429077
time_elpased: 2.584
#iterations: 435
currently lose_sum: 0.46098411083221436
time_elpased: 2.513
#iterations: 436
currently lose_sum: 0.5132064819335938
time_elpased: 2.511
#iterations: 437
currently lose_sum: 0.5311593413352966
time_elpased: 2.571
#iterations: 438
currently lose_sum: 0.5144662261009216
time_elpased: 2.565
#iterations: 439
currently lose_sum: 0.4090877175331116
time_elpased: 2.498
start validation test
0.724
0.756660746004
0.671924290221
0.711779448622
0.724760846409
13.418
#iterations: 440
currently lose_sum: 0.4341331720352173
time_elpased: 2.493
#iterations: 441
currently lose_sum: 0.5090410113334656
time_elpased: 2.585
#iterations: 442
currently lose_sum: 0.42212721705436707
time_elpased: 2.538
#iterations: 443
currently lose_sum: 0.46174052357673645
time_elpased: 2.473
#iterations: 444
currently lose_sum: 0.5476068258285522
time_elpased: 2.507
#iterations: 445
currently lose_sum: 0.3739885687828064
time_elpased: 2.511
#iterations: 446
currently lose_sum: 0.4507165253162384
time_elpased: 2.558
#iterations: 447
currently lose_sum: 0.48537665605545044
time_elpased: 2.501
#iterations: 448
currently lose_sum: 0.47244253754615784
time_elpased: 2.491
#iterations: 449
currently lose_sum: 0.41729721426963806
time_elpased: 2.484
#iterations: 450
currently lose_sum: 0.5993010997772217
time_elpased: 2.47
#iterations: 451
currently lose_sum: 0.5476931929588318
time_elpased: 2.505
#iterations: 452
currently lose_sum: 0.40911322832107544
time_elpased: 2.497
#iterations: 453
currently lose_sum: 0.3716702163219452
time_elpased: 2.519
#iterations: 454
currently lose_sum: 0.4547688364982605
time_elpased: 2.521
#iterations: 455
currently lose_sum: 0.4302968680858612
time_elpased: 2.572
#iterations: 456
currently lose_sum: 0.4753893315792084
time_elpased: 2.431
#iterations: 457
currently lose_sum: 0.4117792546749115
time_elpased: 2.534
#iterations: 458
currently lose_sum: 0.5554766654968262
time_elpased: 2.558
#iterations: 459
currently lose_sum: 0.4533790946006775
time_elpased: 2.447
start validation test
0.7296
0.699460916442
0.818611987382
0.754360465116
0.728299500184
13.395
#iterations: 460
currently lose_sum: 0.45547646284103394
time_elpased: 2.47
#iterations: 461
currently lose_sum: 0.49507656693458557
time_elpased: 2.518
#iterations: 462
currently lose_sum: 0.5357226133346558
time_elpased: 2.493
#iterations: 463
currently lose_sum: 0.3886986970901489
time_elpased: 2.488
#iterations: 464
currently lose_sum: 0.5897077322006226
time_elpased: 2.494
#iterations: 465
currently lose_sum: 0.41975173354148865
time_elpased: 2.542
#iterations: 466
currently lose_sum: 0.4721542298793793
time_elpased: 2.56
#iterations: 467
currently lose_sum: 0.5083177089691162
time_elpased: 2.53
#iterations: 468
currently lose_sum: 0.437229186296463
time_elpased: 2.486
#iterations: 469
currently lose_sum: 0.3826574385166168
time_elpased: 2.635
#iterations: 470
currently lose_sum: 0.4206525385379791
time_elpased: 2.516
#iterations: 471
currently lose_sum: 0.6033052802085876
time_elpased: 2.548
#iterations: 472
currently lose_sum: 0.4719398617744446
time_elpased: 2.609
#iterations: 473
currently lose_sum: 0.4217606484889984
time_elpased: 2.508
#iterations: 474
currently lose_sum: 0.4500706195831299
time_elpased: 2.57
#iterations: 475
currently lose_sum: 0.5085813999176025
time_elpased: 2.448
#iterations: 476
currently lose_sum: 0.4364832937717438
time_elpased: 2.522
#iterations: 477
currently lose_sum: 0.509880781173706
time_elpased: 2.76
#iterations: 478
currently lose_sum: 0.5100888013839722
time_elpased: 2.531
#iterations: 479
currently lose_sum: 0.491214781999588
time_elpased: 2.485
start validation test
0.6332
0.901601830664
0.31072555205
0.462170087977
0.637911477324
19.310
#iterations: 480
currently lose_sum: 0.5058514475822449
time_elpased: 2.451
#iterations: 481
currently lose_sum: 0.41140738129615784
time_elpased: 2.484
#iterations: 482
currently lose_sum: 0.5544837713241577
time_elpased: 2.536
#iterations: 483
currently lose_sum: 0.38754722476005554
time_elpased: 2.525
#iterations: 484
currently lose_sum: 0.39704176783561707
time_elpased: 2.501
#iterations: 485
currently lose_sum: 0.5595663189888
time_elpased: 2.558
#iterations: 486
currently lose_sum: 0.4197182059288025
time_elpased: 2.483
#iterations: 487
currently lose_sum: 0.4137718975543976
time_elpased: 2.492
#iterations: 488
currently lose_sum: 0.5990132689476013
time_elpased: 2.508
#iterations: 489
currently lose_sum: 0.4528803527355194
time_elpased: 2.491
#iterations: 490
currently lose_sum: 0.6223036646842957
time_elpased: 2.576
#iterations: 491
currently lose_sum: 0.5069983601570129
time_elpased: 2.526
#iterations: 492
currently lose_sum: 0.49810120463371277
time_elpased: 2.509
#iterations: 493
currently lose_sum: 0.476409912109375
time_elpased: 2.472
#iterations: 494
currently lose_sum: 0.3913005590438843
time_elpased: 2.507
#iterations: 495
currently lose_sum: 0.43187931180000305
time_elpased: 2.463
#iterations: 496
currently lose_sum: 0.557264506816864
time_elpased: 2.493
#iterations: 497
currently lose_sum: 0.45977792143821716
time_elpased: 2.617
#iterations: 498
currently lose_sum: 0.4888240694999695
time_elpased: 2.505
#iterations: 499
currently lose_sum: 0.3467349112033844
time_elpased: 2.529
start validation test
0.7288
0.768670309654
0.665615141956
0.713440405748
0.729723155394
13.330
#iterations: 500
currently lose_sum: 0.4295170307159424
time_elpased: 2.528
#iterations: 501
currently lose_sum: 0.5601521134376526
time_elpased: 2.48
#iterations: 502
currently lose_sum: 0.42840826511383057
time_elpased: 2.484
#iterations: 503
currently lose_sum: 0.501217246055603
time_elpased: 2.478
#iterations: 504
currently lose_sum: 0.48716631531715393
time_elpased: 2.491
#iterations: 505
currently lose_sum: 0.4415808916091919
time_elpased: 2.456
#iterations: 506
currently lose_sum: 0.4130190312862396
time_elpased: 2.491
#iterations: 507
currently lose_sum: 0.3976399302482605
time_elpased: 2.494
#iterations: 508
currently lose_sum: 0.3608730435371399
time_elpased: 2.448
#iterations: 509
currently lose_sum: 0.4111979305744171
time_elpased: 2.518
#iterations: 510
currently lose_sum: 0.4953068494796753
time_elpased: 2.458
#iterations: 511
currently lose_sum: 0.4911039471626282
time_elpased: 2.518
#iterations: 512
currently lose_sum: 0.4570509195327759
time_elpased: 2.481
#iterations: 513
currently lose_sum: 0.36528274416923523
time_elpased: 2.452
#iterations: 514
currently lose_sum: 0.5411036610603333
time_elpased: 2.558
#iterations: 515
currently lose_sum: 0.4290582239627838
time_elpased: 2.477
#iterations: 516
currently lose_sum: 0.7092459201812744
time_elpased: 2.574
#iterations: 517
currently lose_sum: 0.4676201343536377
time_elpased: 2.591
#iterations: 518
currently lose_sum: 0.43750259280204773
time_elpased: 2.515
#iterations: 519
currently lose_sum: 0.49379250407218933
time_elpased: 2.459
start validation test
0.6936
0.846685082873
0.483438485804
0.61546184739
0.696670541604
15.268
#iterations: 520
currently lose_sum: 0.4183973968029022
time_elpased: 2.556
#iterations: 521
currently lose_sum: 0.47710511088371277
time_elpased: 2.489
#iterations: 522
currently lose_sum: 0.4018576145172119
time_elpased: 2.535
#iterations: 523
currently lose_sum: 0.5466526746749878
time_elpased: 2.493
#iterations: 524
currently lose_sum: 0.4892033636569977
time_elpased: 2.618
#iterations: 525
currently lose_sum: 0.4283510446548462
time_elpased: 2.559
#iterations: 526
currently lose_sum: 0.4575548470020294
time_elpased: 2.494
#iterations: 527
currently lose_sum: 0.3983320891857147
time_elpased: 2.548
#iterations: 528
currently lose_sum: 0.46254754066467285
time_elpased: 2.502
#iterations: 529
currently lose_sum: 0.49877747893333435
time_elpased: 2.43
#iterations: 530
currently lose_sum: 0.41518494486808777
time_elpased: 2.457
#iterations: 531
currently lose_sum: 0.3816641569137573
time_elpased: 2.525
#iterations: 532
currently lose_sum: 0.37439900636672974
time_elpased: 2.541
#iterations: 533
currently lose_sum: 0.3637724220752716
time_elpased: 2.409
#iterations: 534
currently lose_sum: 0.32959839701652527
time_elpased: 2.496
#iterations: 535
currently lose_sum: 0.4754299521446228
time_elpased: 2.559
#iterations: 536
currently lose_sum: 0.40826788544654846
time_elpased: 2.508
#iterations: 537
currently lose_sum: 0.5370023846626282
time_elpased: 2.577
#iterations: 538
currently lose_sum: 0.4217177629470825
time_elpased: 2.474
#iterations: 539
currently lose_sum: 0.3965044319629669
time_elpased: 2.482
start validation test
0.7156
0.761994355597
0.63880126183
0.694980694981
0.716722059486
13.506
#iterations: 540
currently lose_sum: 0.5984964966773987
time_elpased: 2.474
#iterations: 541
currently lose_sum: 0.49656417965888977
time_elpased: 2.545
#iterations: 542
currently lose_sum: 0.46574461460113525
time_elpased: 2.488
#iterations: 543
currently lose_sum: 0.5158935785293579
time_elpased: 2.533
#iterations: 544
currently lose_sum: 0.4494825601577759
time_elpased: 2.48
#iterations: 545
currently lose_sum: 0.4800155758857727
time_elpased: 2.473
#iterations: 546
currently lose_sum: 0.5631006360054016
time_elpased: 2.499
#iterations: 547
currently lose_sum: 0.5806753039360046
time_elpased: 2.615
#iterations: 548
currently lose_sum: 0.5433776378631592
time_elpased: 2.541
#iterations: 549
currently lose_sum: 0.3567862808704376
time_elpased: 2.465
#iterations: 550
currently lose_sum: 0.37779608368873596
time_elpased: 2.511
#iterations: 551
currently lose_sum: 0.4293997287750244
time_elpased: 2.473
#iterations: 552
currently lose_sum: 0.4734658896923065
time_elpased: 2.481
#iterations: 553
currently lose_sum: 0.48588645458221436
time_elpased: 2.464
#iterations: 554
currently lose_sum: 0.5157691836357117
time_elpased: 2.532
#iterations: 555
currently lose_sum: 0.5753786563873291
time_elpased: 2.546
#iterations: 556
currently lose_sum: 0.44964703917503357
time_elpased: 2.562
#iterations: 557
currently lose_sum: 0.4830315411090851
time_elpased: 2.495
#iterations: 558
currently lose_sum: 0.4810357689857483
time_elpased: 2.51
#iterations: 559
currently lose_sum: 0.4835641086101532
time_elpased: 2.554
start validation test
0.7324
0.726722180167
0.757097791798
0.741599073001
0.732039155639
13.179
#iterations: 560
currently lose_sum: 0.3836423456668854
time_elpased: 2.512
#iterations: 561
currently lose_sum: 0.4614061117172241
time_elpased: 2.513
#iterations: 562
currently lose_sum: 0.443756103515625
time_elpased: 2.471
#iterations: 563
currently lose_sum: 0.37597450613975525
time_elpased: 2.551
#iterations: 564
currently lose_sum: 0.5086591243743896
time_elpased: 2.569
#iterations: 565
currently lose_sum: 0.4535582661628723
time_elpased: 2.539
#iterations: 566
currently lose_sum: 0.5245611667633057
time_elpased: 2.45
#iterations: 567
currently lose_sum: 0.4557831585407257
time_elpased: 2.465
#iterations: 568
currently lose_sum: 0.4798833131790161
time_elpased: 2.554
#iterations: 569
currently lose_sum: 0.3778453767299652
time_elpased: 2.569
#iterations: 570
currently lose_sum: 0.45155495405197144
time_elpased: 2.553
#iterations: 571
currently lose_sum: 0.42092403769493103
time_elpased: 2.478
#iterations: 572
currently lose_sum: 0.5535348653793335
time_elpased: 2.525
#iterations: 573
currently lose_sum: 0.5059069395065308
time_elpased: 2.491
#iterations: 574
currently lose_sum: 0.5200054049491882
time_elpased: 2.557
#iterations: 575
currently lose_sum: 0.47727394104003906
time_elpased: 2.67
#iterations: 576
currently lose_sum: 0.4050317406654358
time_elpased: 2.458
#iterations: 577
currently lose_sum: 0.35006484389305115
time_elpased: 2.566
#iterations: 578
currently lose_sum: 0.37698623538017273
time_elpased: 2.622
#iterations: 579
currently lose_sum: 0.4449681341648102
time_elpased: 2.517
start validation test
0.7292
0.68809675366
0.852523659306
0.761535752025
0.727398193289
13.729
#iterations: 580
currently lose_sum: 0.4756053686141968
time_elpased: 2.606
#iterations: 581
currently lose_sum: 0.45498713850975037
time_elpased: 2.483
#iterations: 582
currently lose_sum: 0.46184784173965454
time_elpased: 2.509
#iterations: 583
currently lose_sum: 0.4682543873786926
time_elpased: 2.492
#iterations: 584
currently lose_sum: 0.4502551555633545
time_elpased: 2.474
#iterations: 585
currently lose_sum: 0.509209394454956
time_elpased: 2.557
#iterations: 586
currently lose_sum: 0.4506583511829376
time_elpased: 2.465
#iterations: 587
currently lose_sum: 0.5129849314689636
time_elpased: 2.54
#iterations: 588
currently lose_sum: 0.3814622759819031
time_elpased: 2.634
#iterations: 589
currently lose_sum: 0.5209271907806396
time_elpased: 2.56
#iterations: 590
currently lose_sum: 0.5138101577758789
time_elpased: 2.533
#iterations: 591
currently lose_sum: 0.5713526606559753
time_elpased: 2.558
#iterations: 592
currently lose_sum: 0.418313592672348
time_elpased: 2.657
#iterations: 593
currently lose_sum: 0.4368031322956085
time_elpased: 2.469
#iterations: 594
currently lose_sum: 0.3837156593799591
time_elpased: 2.531
#iterations: 595
currently lose_sum: 0.5684770345687866
time_elpased: 2.507
#iterations: 596
currently lose_sum: 0.38818690180778503
time_elpased: 2.584
#iterations: 597
currently lose_sum: 0.4235169291496277
time_elpased: 2.522
#iterations: 598
currently lose_sum: 0.43088680505752563
time_elpased: 2.553
#iterations: 599
currently lose_sum: 0.42838233709335327
time_elpased: 2.496
start validation test
0.7328
0.767857142857
0.678233438486
0.7202680067
0.733597238723
13.203
acc: 0.712
pre: 0.706
rec: 0.743
F1: 0.724
auc: 0.712
