start to construct computing graph
graph construct over
3802
epochs start
#iterations: 0
currently lose_sum: 0.7002931237220764
time_elpased: 4.412
#iterations: 1
currently lose_sum: 0.692787766456604
time_elpased: 4.288
#iterations: 2
currently lose_sum: 0.691267192363739
time_elpased: 4.382
#iterations: 3
currently lose_sum: 0.7122737169265747
time_elpased: 4.296
#iterations: 4
currently lose_sum: 0.6809213161468506
time_elpased: 4.337
#iterations: 5
currently lose_sum: 0.6775420904159546
time_elpased: 4.379
#iterations: 6
currently lose_sum: 0.687265157699585
time_elpased: 4.319
#iterations: 7
currently lose_sum: 0.6774656772613525
time_elpased: 4.392
#iterations: 8
currently lose_sum: 0.6983012557029724
time_elpased: 4.348
#iterations: 9
currently lose_sum: 0.7034792900085449
time_elpased: 4.293
#iterations: 10
currently lose_sum: 0.6990910172462463
time_elpased: 4.291
#iterations: 11
currently lose_sum: 0.6873931288719177
time_elpased: 4.255
#iterations: 12
currently lose_sum: 0.670125424861908
time_elpased: 4.327
#iterations: 13
currently lose_sum: 0.6942657232284546
time_elpased: 4.281
#iterations: 14
currently lose_sum: 0.6871164441108704
time_elpased: 4.31
#iterations: 15
currently lose_sum: 0.6650207042694092
time_elpased: 4.399
#iterations: 16
currently lose_sum: 0.6857621669769287
time_elpased: 4.295
#iterations: 17
currently lose_sum: 0.6816413998603821
time_elpased: 4.362
#iterations: 18
currently lose_sum: 0.6720510125160217
time_elpased: 4.31
#iterations: 19
currently lose_sum: 0.6884113550186157
time_elpased: 4.364
start validation test
0.572
0.611486486486
0.428233438486
0.503710575139
0.574100485477
16.983
#iterations: 20
currently lose_sum: 0.6820152401924133
time_elpased: 3.92
#iterations: 21
currently lose_sum: 0.693646252155304
time_elpased: 3.595
#iterations: 22
currently lose_sum: 0.6667507290840149
time_elpased: 3.571
#iterations: 23
currently lose_sum: 0.6845599412918091
time_elpased: 3.631
#iterations: 24
currently lose_sum: 0.6801509261131287
time_elpased: 3.622
#iterations: 25
currently lose_sum: 0.7078260779380798
time_elpased: 3.699
#iterations: 26
currently lose_sum: 0.6838503479957581
time_elpased: 3.68
#iterations: 27
currently lose_sum: 0.719910740852356
time_elpased: 3.645
#iterations: 28
currently lose_sum: 0.6862838864326477
time_elpased: 3.649
#iterations: 29
currently lose_sum: 0.6670315265655518
time_elpased: 3.59
#iterations: 30
currently lose_sum: 0.6756872534751892
time_elpased: 3.665
#iterations: 31
currently lose_sum: 0.6667124032974243
time_elpased: 3.591
#iterations: 32
currently lose_sum: 0.6648730635643005
time_elpased: 3.551
#iterations: 33
currently lose_sum: 0.6574660539627075
time_elpased: 3.721
#iterations: 34
currently lose_sum: 0.706256628036499
time_elpased: 3.649
#iterations: 35
currently lose_sum: 0.6764621734619141
time_elpased: 3.62
#iterations: 36
currently lose_sum: 0.6743536591529846
time_elpased: 3.577
#iterations: 37
currently lose_sum: 0.6405678391456604
time_elpased: 3.592
#iterations: 38
currently lose_sum: 0.6502885222434998
time_elpased: 3.66
#iterations: 39
currently lose_sum: 0.6440791487693787
time_elpased: 3.656
start validation test
0.596
0.622623574144
0.516561514196
0.564655172414
0.597160627228
16.577
#iterations: 40
currently lose_sum: 0.6403798460960388
time_elpased: 3.576
#iterations: 41
currently lose_sum: 0.7034730315208435
time_elpased: 3.619
#iterations: 42
currently lose_sum: 0.6423792839050293
time_elpased: 3.708
#iterations: 43
currently lose_sum: 0.6412046551704407
time_elpased: 3.59
#iterations: 44
currently lose_sum: 0.6743905544281006
time_elpased: 3.591
#iterations: 45
currently lose_sum: 0.6664812564849854
time_elpased: 3.657
#iterations: 46
currently lose_sum: 0.6598369479179382
time_elpased: 3.655
#iterations: 47
currently lose_sum: 0.6488363742828369
time_elpased: 3.666
#iterations: 48
currently lose_sum: 0.6515562534332275
time_elpased: 3.711
#iterations: 49
currently lose_sum: 0.645962119102478
time_elpased: 3.621
#iterations: 50
currently lose_sum: 0.65929114818573
time_elpased: 3.59
#iterations: 51
currently lose_sum: 0.6544657945632935
time_elpased: 3.643
#iterations: 52
currently lose_sum: 0.6458667516708374
time_elpased: 3.596
#iterations: 53
currently lose_sum: 0.6415801048278809
time_elpased: 3.565
#iterations: 54
currently lose_sum: 0.6312429904937744
time_elpased: 3.665
#iterations: 55
currently lose_sum: 0.6707453727722168
time_elpased: 3.781
#iterations: 56
currently lose_sum: 0.6556666493415833
time_elpased: 3.674
#iterations: 57
currently lose_sum: 0.6527933478355408
time_elpased: 3.586
#iterations: 58
currently lose_sum: 0.5921391248703003
time_elpased: 3.595
#iterations: 59
currently lose_sum: 0.6517742872238159
time_elpased: 3.589
start validation test
0.6172
0.638715432649
0.564668769716
0.599413980745
0.617967501741
16.242
#iterations: 60
currently lose_sum: 0.6242306232452393
time_elpased: 3.626
#iterations: 61
currently lose_sum: 0.6266197562217712
time_elpased: 3.57
#iterations: 62
currently lose_sum: 0.6556690335273743
time_elpased: 3.568
#iterations: 63
currently lose_sum: 0.6137637495994568
time_elpased: 3.581
#iterations: 64
currently lose_sum: 0.626837432384491
time_elpased: 3.609
#iterations: 65
currently lose_sum: 0.6289858818054199
time_elpased: 3.681
#iterations: 66
currently lose_sum: 0.691519021987915
time_elpased: 3.598
#iterations: 67
currently lose_sum: 0.6601632833480835
time_elpased: 3.631
#iterations: 68
currently lose_sum: 0.668033242225647
time_elpased: 3.622
#iterations: 69
currently lose_sum: 0.6392897963523865
time_elpased: 3.614
#iterations: 70
currently lose_sum: 0.6557064652442932
time_elpased: 3.563
#iterations: 71
currently lose_sum: 0.650551438331604
time_elpased: 3.599
#iterations: 72
currently lose_sum: 0.6245760321617126
time_elpased: 3.53
#iterations: 73
currently lose_sum: 0.6912077069282532
time_elpased: 3.595
#iterations: 74
currently lose_sum: 0.6614196300506592
time_elpased: 3.636
#iterations: 75
currently lose_sum: 0.6449247598648071
time_elpased: 3.65
#iterations: 76
currently lose_sum: 0.649283230304718
time_elpased: 3.656
#iterations: 77
currently lose_sum: 0.6667188405990601
time_elpased: 3.617
#iterations: 78
currently lose_sum: 0.5817530155181885
time_elpased: 3.549
#iterations: 79
currently lose_sum: 0.6252768039703369
time_elpased: 3.698
start validation test
0.6292
0.599301106581
0.811514195584
0.689447236181
0.626536318571
15.939
#iterations: 80
currently lose_sum: 0.5936306118965149
time_elpased: 3.599
#iterations: 81
currently lose_sum: 0.6459203362464905
time_elpased: 3.644
#iterations: 82
currently lose_sum: 0.6373398303985596
time_elpased: 3.671
#iterations: 83
currently lose_sum: 0.6488432288169861
time_elpased: 3.636
#iterations: 84
currently lose_sum: 0.625495433807373
time_elpased: 3.611
#iterations: 85
currently lose_sum: 0.602318286895752
time_elpased: 3.593
#iterations: 86
currently lose_sum: 0.5991495251655579
time_elpased: 3.598
#iterations: 87
currently lose_sum: 0.6107043623924255
time_elpased: 3.704
#iterations: 88
currently lose_sum: 0.6176574230194092
time_elpased: 3.536
#iterations: 89
currently lose_sum: 0.6163702011108398
time_elpased: 3.585
#iterations: 90
currently lose_sum: 0.6120222210884094
time_elpased: 3.574
#iterations: 91
currently lose_sum: 0.6227399706840515
time_elpased: 3.671
#iterations: 92
currently lose_sum: 0.630201518535614
time_elpased: 3.637
#iterations: 93
currently lose_sum: 0.669514000415802
time_elpased: 3.625
#iterations: 94
currently lose_sum: 0.6494770050048828
time_elpased: 3.626
#iterations: 95
currently lose_sum: 0.6073209643363953
time_elpased: 3.641
#iterations: 96
currently lose_sum: 0.5919640064239502
time_elpased: 3.61
#iterations: 97
currently lose_sum: 0.6097161769866943
time_elpased: 3.595
#iterations: 98
currently lose_sum: 0.6745712161064148
time_elpased: 3.65
#iterations: 99
currently lose_sum: 0.6268776059150696
time_elpased: 3.635
start validation test
0.6384
0.613892365457
0.773659305994
0.684577808793
0.636423808841
16.213
#iterations: 100
currently lose_sum: 0.650065004825592
time_elpased: 3.657
#iterations: 101
currently lose_sum: 0.6486023664474487
time_elpased: 3.726
#iterations: 102
currently lose_sum: 0.7233824133872986
time_elpased: 3.584
#iterations: 103
currently lose_sum: 0.6990928053855896
time_elpased: 3.635
#iterations: 104
currently lose_sum: 0.6263024806976318
time_elpased: 3.597
#iterations: 105
currently lose_sum: 0.5809489488601685
time_elpased: 3.646
#iterations: 106
currently lose_sum: 0.6477130055427551
time_elpased: 3.578
#iterations: 107
currently lose_sum: 0.6104267835617065
time_elpased: 3.631
#iterations: 108
currently lose_sum: 0.6262507438659668
time_elpased: 3.616
#iterations: 109
currently lose_sum: 0.6057717800140381
time_elpased: 3.644
#iterations: 110
currently lose_sum: 0.6190972328186035
time_elpased: 3.666
#iterations: 111
currently lose_sum: 0.5825493931770325
time_elpased: 3.63
#iterations: 112
currently lose_sum: 0.5956521034240723
time_elpased: 3.589
#iterations: 113
currently lose_sum: 0.5721197128295898
time_elpased: 3.568
#iterations: 114
currently lose_sum: 0.6202362179756165
time_elpased: 3.683
#iterations: 115
currently lose_sum: 0.6523837447166443
time_elpased: 3.584
#iterations: 116
currently lose_sum: 0.6460968255996704
time_elpased: 3.617
#iterations: 117
currently lose_sum: 0.6322411298751831
time_elpased: 3.621
#iterations: 118
currently lose_sum: 0.6547491550445557
time_elpased: 3.659
#iterations: 119
currently lose_sum: 0.5601739287376404
time_elpased: 3.582
start validation test
0.6688
0.683333333333
0.646687697161
0.664505672609
0.66912306936
15.255
#iterations: 120
currently lose_sum: 0.6044309735298157
time_elpased: 3.721
#iterations: 121
currently lose_sum: 0.6278771758079529
time_elpased: 3.595
#iterations: 122
currently lose_sum: 0.6161510944366455
time_elpased: 3.58
#iterations: 123
currently lose_sum: 0.5913190841674805
time_elpased: 3.63
#iterations: 124
currently lose_sum: 0.578640341758728
time_elpased: 3.658
#iterations: 125
currently lose_sum: 0.5741155743598938
time_elpased: 3.576
#iterations: 126
currently lose_sum: 0.5749227404594421
time_elpased: 3.693
#iterations: 127
currently lose_sum: 0.6426699161529541
time_elpased: 3.593
#iterations: 128
currently lose_sum: 0.6256914734840393
time_elpased: 3.65
#iterations: 129
currently lose_sum: 0.5971878170967102
time_elpased: 3.596
#iterations: 130
currently lose_sum: 0.6404897570610046
time_elpased: 3.57
#iterations: 131
currently lose_sum: 0.5967923998832703
time_elpased: 3.56
#iterations: 132
currently lose_sum: 0.6530205011367798
time_elpased: 3.582
#iterations: 133
currently lose_sum: 0.5860007405281067
time_elpased: 3.613
#iterations: 134
currently lose_sum: 0.5910170674324036
time_elpased: 3.631
#iterations: 135
currently lose_sum: 0.6238284111022949
time_elpased: 3.538
#iterations: 136
currently lose_sum: 0.5672913193702698
time_elpased: 3.665
#iterations: 137
currently lose_sum: 0.5685369372367859
time_elpased: 3.613
#iterations: 138
currently lose_sum: 0.6216027736663818
time_elpased: 3.662
#iterations: 139
currently lose_sum: 0.579654335975647
time_elpased: 3.61
start validation test
0.6864
0.691153238547
0.690063091483
0.690607734807
0.686346480806
15.035
#iterations: 140
currently lose_sum: 0.5726681351661682
time_elpased: 3.601
#iterations: 141
currently lose_sum: 0.6154582500457764
time_elpased: 3.671
#iterations: 142
currently lose_sum: 0.5626785755157471
time_elpased: 3.641
#iterations: 143
currently lose_sum: 0.5460090637207031
time_elpased: 3.625
#iterations: 144
currently lose_sum: 0.6379556059837341
time_elpased: 3.596
#iterations: 145
currently lose_sum: 0.5874965786933899
time_elpased: 3.591
#iterations: 146
currently lose_sum: 0.6136490106582642
time_elpased: 3.632
#iterations: 147
currently lose_sum: 0.5940186381340027
time_elpased: 3.577
#iterations: 148
currently lose_sum: 0.5496109127998352
time_elpased: 3.619
#iterations: 149
currently lose_sum: 0.6002797484397888
time_elpased: 3.589
#iterations: 150
currently lose_sum: 0.5619669556617737
time_elpased: 3.619
#iterations: 151
currently lose_sum: 0.5921928286552429
time_elpased: 3.583
#iterations: 152
currently lose_sum: 0.6628520488739014
time_elpased: 3.554
#iterations: 153
currently lose_sum: 0.5642824769020081
time_elpased: 3.621
#iterations: 154
currently lose_sum: 0.6206318736076355
time_elpased: 3.634
#iterations: 155
currently lose_sum: 0.5830649733543396
time_elpased: 3.608
#iterations: 156
currently lose_sum: 0.593390703201294
time_elpased: 3.592
#iterations: 157
currently lose_sum: 0.5424510836601257
time_elpased: 3.615
#iterations: 158
currently lose_sum: 0.6438279151916504
time_elpased: 3.704
#iterations: 159
currently lose_sum: 0.5963887572288513
time_elpased: 3.709
start validation test
0.678
0.751357220413
0.545741324921
0.632252169941
0.679932350772
14.962
#iterations: 160
currently lose_sum: 0.4977797269821167
time_elpased: 3.626
#iterations: 161
currently lose_sum: 0.5379732847213745
time_elpased: 3.633
#iterations: 162
currently lose_sum: 0.5561710596084595
time_elpased: 3.598
#iterations: 163
currently lose_sum: 0.5496436953544617
time_elpased: 3.609
#iterations: 164
currently lose_sum: 0.5977697968482971
time_elpased: 3.635
#iterations: 165
currently lose_sum: 0.5873323678970337
time_elpased: 3.631
#iterations: 166
currently lose_sum: 0.6292099356651306
time_elpased: 3.583
#iterations: 167
currently lose_sum: 0.6152400970458984
time_elpased: 3.615
#iterations: 168
currently lose_sum: 0.6034418344497681
time_elpased: 3.661
#iterations: 169
currently lose_sum: 0.5772820115089417
time_elpased: 3.659
#iterations: 170
currently lose_sum: 0.5492734313011169
time_elpased: 3.6
#iterations: 171
currently lose_sum: 0.5621113777160645
time_elpased: 3.608
#iterations: 172
currently lose_sum: 0.5654542446136475
time_elpased: 3.585
#iterations: 173
currently lose_sum: 0.6154191493988037
time_elpased: 3.574
#iterations: 174
currently lose_sum: 0.4698026776313782
time_elpased: 3.592
#iterations: 175
currently lose_sum: 0.6501080393791199
time_elpased: 3.61
#iterations: 176
currently lose_sum: 0.6336138844490051
time_elpased: 3.696
#iterations: 177
currently lose_sum: 0.572826623916626
time_elpased: 3.569
#iterations: 178
currently lose_sum: 0.524233341217041
time_elpased: 3.682
#iterations: 179
currently lose_sum: 0.5818051099777222
time_elpased: 3.64
start validation test
0.692
0.70889261745
0.666403785489
0.686991869919
0.692373970667
14.632
#iterations: 180
currently lose_sum: 0.5423247814178467
time_elpased: 3.596
#iterations: 181
currently lose_sum: 0.5568761229515076
time_elpased: 3.571
#iterations: 182
currently lose_sum: 0.5341100692749023
time_elpased: 3.732
#iterations: 183
currently lose_sum: 0.6021785140037537
time_elpased: 3.586
#iterations: 184
currently lose_sum: 0.559902012348175
time_elpased: 3.578
#iterations: 185
currently lose_sum: 0.5178967714309692
time_elpased: 3.566
#iterations: 186
currently lose_sum: 0.5653642416000366
time_elpased: 3.572
#iterations: 187
currently lose_sum: 0.552991509437561
time_elpased: 3.755
#iterations: 188
currently lose_sum: 0.5554035305976868
time_elpased: 3.55
#iterations: 189
currently lose_sum: 0.6189107298851013
time_elpased: 3.562
#iterations: 190
currently lose_sum: 0.6242707967758179
time_elpased: 3.617
#iterations: 191
currently lose_sum: 0.5863811373710632
time_elpased: 3.631
#iterations: 192
currently lose_sum: 0.56097012758255
time_elpased: 3.697
#iterations: 193
currently lose_sum: 0.5508912801742554
time_elpased: 3.626
#iterations: 194
currently lose_sum: 0.5265500545501709
time_elpased: 3.621
#iterations: 195
currently lose_sum: 0.5117109417915344
time_elpased: 3.65
#iterations: 196
currently lose_sum: 0.5997402667999268
time_elpased: 3.619
#iterations: 197
currently lose_sum: 0.6062553524971008
time_elpased: 3.628
#iterations: 198
currently lose_sum: 0.5883474946022034
time_elpased: 3.712
#iterations: 199
currently lose_sum: 0.5407267808914185
time_elpased: 3.652
start validation test
0.6668
0.789613848202
0.467665615142
0.587419514611
0.669709430948
15.146
#iterations: 200
currently lose_sum: 0.5993773937225342
time_elpased: 3.595
#iterations: 201
currently lose_sum: 0.5678579211235046
time_elpased: 3.619
#iterations: 202
currently lose_sum: 0.5122882723808289
time_elpased: 3.642
#iterations: 203
currently lose_sum: 0.6167588829994202
time_elpased: 3.583
#iterations: 204
currently lose_sum: 0.5889962911605835
time_elpased: 3.629
#iterations: 205
currently lose_sum: 0.5428448915481567
time_elpased: 3.595
#iterations: 206
currently lose_sum: 0.4894075095653534
time_elpased: 3.612
#iterations: 207
currently lose_sum: 0.5518515110015869
time_elpased: 3.566
#iterations: 208
currently lose_sum: 0.5783087015151978
time_elpased: 3.631
#iterations: 209
currently lose_sum: 0.6040976643562317
time_elpased: 3.675
#iterations: 210
currently lose_sum: 0.5577287077903748
time_elpased: 3.6
#iterations: 211
currently lose_sum: 0.6522846221923828
time_elpased: 3.742
#iterations: 212
currently lose_sum: 0.48119744658470154
time_elpased: 3.667
#iterations: 213
currently lose_sum: 0.5105801224708557
time_elpased: 3.677
#iterations: 214
currently lose_sum: 0.5933164358139038
time_elpased: 3.595
#iterations: 215
currently lose_sum: 0.5546324253082275
time_elpased: 3.621
#iterations: 216
currently lose_sum: 0.5305816531181335
time_elpased: 3.634
#iterations: 217
currently lose_sum: 0.48455700278282166
time_elpased: 3.627
#iterations: 218
currently lose_sum: 0.5516194701194763
time_elpased: 3.565
#iterations: 219
currently lose_sum: 0.5771906971931458
time_elpased: 3.577
start validation test
0.6512
0.842560553633
0.384069400631
0.527627302275
0.655102882134
15.889
#iterations: 220
currently lose_sum: 0.4835752248764038
time_elpased: 3.571
#iterations: 221
currently lose_sum: 0.5435368418693542
time_elpased: 3.622
#iterations: 222
currently lose_sum: 0.5216047167778015
time_elpased: 3.718
#iterations: 223
currently lose_sum: 0.5375917553901672
time_elpased: 3.553
#iterations: 224
currently lose_sum: 0.6069948077201843
time_elpased: 3.727
#iterations: 225
currently lose_sum: 0.5155840516090393
time_elpased: 3.587
#iterations: 226
currently lose_sum: 0.5101132988929749
time_elpased: 3.622
#iterations: 227
currently lose_sum: 0.5325745940208435
time_elpased: 3.643
#iterations: 228
currently lose_sum: 0.5119293928146362
time_elpased: 3.604
#iterations: 229
currently lose_sum: 0.6804120540618896
time_elpased: 3.599
#iterations: 230
currently lose_sum: 0.578451931476593
time_elpased: 3.618
#iterations: 231
currently lose_sum: 0.5427680611610413
time_elpased: 3.623
#iterations: 232
currently lose_sum: 0.5291786789894104
time_elpased: 3.614
#iterations: 233
currently lose_sum: 0.5901910662651062
time_elpased: 3.619
#iterations: 234
currently lose_sum: 0.5782327651977539
time_elpased: 3.616
#iterations: 235
currently lose_sum: 0.6590903997421265
time_elpased: 3.628
#iterations: 236
currently lose_sum: 0.602551281452179
time_elpased: 3.571
#iterations: 237
currently lose_sum: 0.5047207474708557
time_elpased: 3.594
#iterations: 238
currently lose_sum: 0.4936956763267517
time_elpased: 3.625
#iterations: 239
currently lose_sum: 0.5348405241966248
time_elpased: 3.554
start validation test
0.6748
0.80868385346
0.470031545741
0.594513715711
0.677791746897
15.039
#iterations: 240
currently lose_sum: 0.5238962769508362
time_elpased: 3.666
#iterations: 241
currently lose_sum: 0.5143550634384155
time_elpased: 3.653
#iterations: 242
currently lose_sum: 0.5525246262550354
time_elpased: 3.657
#iterations: 243
currently lose_sum: 0.7451789975166321
time_elpased: 3.683
#iterations: 244
currently lose_sum: 0.5831081867218018
time_elpased: 3.732
#iterations: 245
currently lose_sum: 0.4599136412143707
time_elpased: 3.608
#iterations: 246
currently lose_sum: 0.5089255571365356
time_elpased: 3.533
#iterations: 247
currently lose_sum: 0.4801959693431854
time_elpased: 3.648
#iterations: 248
currently lose_sum: 0.525856077671051
time_elpased: 3.642
#iterations: 249
currently lose_sum: 0.5011982917785645
time_elpased: 3.654
#iterations: 250
currently lose_sum: 0.5717334151268005
time_elpased: 3.62
#iterations: 251
currently lose_sum: 0.4906466603279114
time_elpased: 3.593
#iterations: 252
currently lose_sum: 0.5628467798233032
time_elpased: 3.576
#iterations: 253
currently lose_sum: 0.51249098777771
time_elpased: 3.587
#iterations: 254
currently lose_sum: 0.5851259827613831
time_elpased: 4.14
#iterations: 255
currently lose_sum: 0.5526419878005981
time_elpased: 3.911
#iterations: 256
currently lose_sum: 0.5739043354988098
time_elpased: 3.617
#iterations: 257
currently lose_sum: 0.6357113718986511
time_elpased: 3.677
#iterations: 258
currently lose_sum: 0.5618430972099304
time_elpased: 3.713
#iterations: 259
currently lose_sum: 0.5570223331451416
time_elpased: 3.605
start validation test
0.6888
0.651985111663
0.828864353312
0.729861111111
0.686753605228
14.497
#iterations: 260
currently lose_sum: 0.4955580532550812
time_elpased: 3.717
#iterations: 261
currently lose_sum: 0.5104906558990479
time_elpased: 3.625
#iterations: 262
currently lose_sum: 0.5004286766052246
time_elpased: 3.613
#iterations: 263
currently lose_sum: 0.579667866230011
time_elpased: 3.618
#iterations: 264
currently lose_sum: 0.4906608462333679
time_elpased: 3.648
#iterations: 265
currently lose_sum: 0.5584683418273926
time_elpased: 3.564
#iterations: 266
currently lose_sum: 0.5546615123748779
time_elpased: 3.599
#iterations: 267
currently lose_sum: 0.5786426067352295
time_elpased: 3.649
#iterations: 268
currently lose_sum: 0.5216704607009888
time_elpased: 3.63
#iterations: 269
currently lose_sum: 0.6730509996414185
time_elpased: 3.625
#iterations: 270
currently lose_sum: 0.7441633343696594
time_elpased: 3.638
#iterations: 271
currently lose_sum: 0.5909750461578369
time_elpased: 3.614
#iterations: 272
currently lose_sum: 0.5880221724510193
time_elpased: 3.617
#iterations: 273
currently lose_sum: 0.5365610718727112
time_elpased: 3.633
#iterations: 274
currently lose_sum: 0.6121739745140076
time_elpased: 3.592
#iterations: 275
currently lose_sum: 0.5051530599594116
time_elpased: 3.626
#iterations: 276
currently lose_sum: 0.5499205589294434
time_elpased: 3.563
#iterations: 277
currently lose_sum: 0.5518953800201416
time_elpased: 3.623
#iterations: 278
currently lose_sum: 0.4986553192138672
time_elpased: 3.609
#iterations: 279
currently lose_sum: 0.49270379543304443
time_elpased: 3.634
start validation test
0.7036
0.691636363636
0.75
0.71963677639
0.702922077922
14.025
#iterations: 280
currently lose_sum: 0.6263503432273865
time_elpased: 3.582
#iterations: 281
currently lose_sum: 0.4905136525630951
time_elpased: 3.636
#iterations: 282
currently lose_sum: 0.5385789275169373
time_elpased: 3.574
#iterations: 283
currently lose_sum: 0.5085954070091248
time_elpased: 3.6
#iterations: 284
currently lose_sum: 0.5317102074623108
time_elpased: 3.593
#iterations: 285
currently lose_sum: 0.5471376180648804
time_elpased: 3.756
#iterations: 286
currently lose_sum: 0.6212152242660522
time_elpased: 3.605
#iterations: 287
currently lose_sum: 0.531268835067749
time_elpased: 3.771
#iterations: 288
currently lose_sum: 0.47281235456466675
time_elpased: 3.634
#iterations: 289
currently lose_sum: 0.5712353587150574
time_elpased: 3.602
#iterations: 290
currently lose_sum: 0.51772540807724
time_elpased: 3.607
#iterations: 291
currently lose_sum: 0.5017197132110596
time_elpased: 3.602
#iterations: 292
currently lose_sum: 0.5232212543487549
time_elpased: 3.645
#iterations: 293
currently lose_sum: 0.5293461084365845
time_elpased: 3.639
#iterations: 294
currently lose_sum: 0.549428403377533
time_elpased: 3.616
#iterations: 295
currently lose_sum: 0.5680162906646729
time_elpased: 3.581
#iterations: 296
currently lose_sum: 0.5392906665802002
time_elpased: 3.611
#iterations: 297
currently lose_sum: 0.5157525539398193
time_elpased: 3.616
#iterations: 298
currently lose_sum: 0.5411907434463501
time_elpased: 3.641
#iterations: 299
currently lose_sum: 0.6157984733581543
time_elpased: 3.705
start validation test
0.7124
0.701689933872
0.753154574132
0.726511981742
0.711804559794
14.052
#iterations: 300
currently lose_sum: 0.49295753240585327
time_elpased: 3.528
#iterations: 301
currently lose_sum: 0.4964026212692261
time_elpased: 3.622
#iterations: 302
currently lose_sum: 0.510036289691925
time_elpased: 3.622
#iterations: 303
currently lose_sum: 0.5196977257728577
time_elpased: 3.579
#iterations: 304
currently lose_sum: 0.5433690547943115
time_elpased: 3.654
#iterations: 305
currently lose_sum: 0.49177151918411255
time_elpased: 3.582
#iterations: 306
currently lose_sum: 0.5369436144828796
time_elpased: 3.601
#iterations: 307
currently lose_sum: 0.5823377370834351
time_elpased: 3.589
#iterations: 308
currently lose_sum: 0.4879545569419861
time_elpased: 3.708
#iterations: 309
currently lose_sum: 0.5128035545349121
time_elpased: 3.567
#iterations: 310
currently lose_sum: 0.5383894443511963
time_elpased: 3.726
#iterations: 311
currently lose_sum: 0.6170423626899719
time_elpased: 3.593
#iterations: 312
currently lose_sum: 0.5488660931587219
time_elpased: 3.608
#iterations: 313
currently lose_sum: 0.4576685428619385
time_elpased: 3.7
#iterations: 314
currently lose_sum: 0.45171287655830383
time_elpased: 3.604
#iterations: 315
currently lose_sum: 0.5037754774093628
time_elpased: 3.616
#iterations: 316
currently lose_sum: 0.44505587220191956
time_elpased: 3.657
#iterations: 317
currently lose_sum: 0.5987405180931091
time_elpased: 3.585
#iterations: 318
currently lose_sum: 0.5573796629905701
time_elpased: 3.643
#iterations: 319
currently lose_sum: 0.5037713050842285
time_elpased: 3.569
start validation test
0.7156
0.736618521665
0.683753943218
0.709202453988
0.716065283297
13.846
#iterations: 320
currently lose_sum: 0.5065489411354065
time_elpased: 3.685
#iterations: 321
currently lose_sum: 0.49729225039482117
time_elpased: 3.637
#iterations: 322
currently lose_sum: 0.4986935555934906
time_elpased: 3.648
#iterations: 323
currently lose_sum: 0.5248043537139893
time_elpased: 3.627
#iterations: 324
currently lose_sum: 0.5155571699142456
time_elpased: 3.674
#iterations: 325
currently lose_sum: 0.4565419852733612
time_elpased: 3.647
#iterations: 326
currently lose_sum: 0.48857247829437256
time_elpased: 3.587
#iterations: 327
currently lose_sum: 0.45741134881973267
time_elpased: 3.665
#iterations: 328
currently lose_sum: 0.5139451026916504
time_elpased: 3.636
#iterations: 329
currently lose_sum: 0.590729296207428
time_elpased: 3.683
#iterations: 330
currently lose_sum: 0.5182045102119446
time_elpased: 3.621
#iterations: 331
currently lose_sum: 0.5001242160797119
time_elpased: 3.607
#iterations: 332
currently lose_sum: 0.4961460828781128
time_elpased: 3.6
#iterations: 333
currently lose_sum: 0.5251355767250061
time_elpased: 3.569
#iterations: 334
currently lose_sum: 0.532779335975647
time_elpased: 3.678
#iterations: 335
currently lose_sum: 0.46028366684913635
time_elpased: 3.628
#iterations: 336
currently lose_sum: 0.47783172130584717
time_elpased: 3.587
#iterations: 337
currently lose_sum: 0.507895290851593
time_elpased: 3.653
#iterations: 338
currently lose_sum: 0.5960098505020142
time_elpased: 3.585
#iterations: 339
currently lose_sum: 0.4716127812862396
time_elpased: 3.562
start validation test
0.716
0.700143472023
0.769716088328
0.73328324568
0.715215187021
13.670
#iterations: 340
currently lose_sum: 0.5677744150161743
time_elpased: 3.577
#iterations: 341
currently lose_sum: 0.4723549783229828
time_elpased: 3.612
#iterations: 342
currently lose_sum: 0.5117849707603455
time_elpased: 3.608
#iterations: 343
currently lose_sum: 0.48856934905052185
time_elpased: 3.649
#iterations: 344
currently lose_sum: 0.4792848229408264
time_elpased: 3.63
#iterations: 345
currently lose_sum: 0.540236234664917
time_elpased: 3.58
#iterations: 346
currently lose_sum: 0.4673468768596649
time_elpased: 3.652
#iterations: 347
currently lose_sum: 0.5131778120994568
time_elpased: 3.571
#iterations: 348
currently lose_sum: 0.5817543268203735
time_elpased: 3.58
#iterations: 349
currently lose_sum: 0.5516389012336731
time_elpased: 3.572
#iterations: 350
currently lose_sum: 0.4993409216403961
time_elpased: 3.584
#iterations: 351
currently lose_sum: 0.5458358526229858
time_elpased: 3.591
#iterations: 352
currently lose_sum: 0.4933062493801117
time_elpased: 3.576
#iterations: 353
currently lose_sum: 0.48687130212783813
time_elpased: 3.671
#iterations: 354
currently lose_sum: 0.4627200663089752
time_elpased: 3.57
#iterations: 355
currently lose_sum: 0.45924460887908936
time_elpased: 3.582
#iterations: 356
currently lose_sum: 0.4675613343715668
time_elpased: 3.556
#iterations: 357
currently lose_sum: 0.5270612835884094
time_elpased: 3.64
#iterations: 358
currently lose_sum: 0.5388022661209106
time_elpased: 3.623
#iterations: 359
currently lose_sum: 0.5727185606956482
time_elpased: 3.606
start validation test
0.7228
0.725137039937
0.730283911672
0.727701375246
0.722690657135
13.739
#iterations: 360
currently lose_sum: 0.48107898235321045
time_elpased: 3.626
#iterations: 361
currently lose_sum: 0.4768875539302826
time_elpased: 3.678
#iterations: 362
currently lose_sum: 0.5602464079856873
time_elpased: 3.634
#iterations: 363
currently lose_sum: 0.4892929196357727
time_elpased: 3.609
#iterations: 364
currently lose_sum: 0.5716146230697632
time_elpased: 3.561
#iterations: 365
currently lose_sum: 0.5075412392616272
time_elpased: 3.629
#iterations: 366
currently lose_sum: 0.5138707756996155
time_elpased: 3.651
#iterations: 367
currently lose_sum: 0.4810245633125305
time_elpased: 3.604
#iterations: 368
currently lose_sum: 0.5800456404685974
time_elpased: 3.639
#iterations: 369
currently lose_sum: 0.4473656415939331
time_elpased: 3.652
#iterations: 370
currently lose_sum: 0.5745906829833984
time_elpased: 3.684
#iterations: 371
currently lose_sum: 0.5160695910453796
time_elpased: 3.632
#iterations: 372
currently lose_sum: 0.433584988117218
time_elpased: 3.575
#iterations: 373
currently lose_sum: 0.5388901233673096
time_elpased: 3.569
#iterations: 374
currently lose_sum: 0.5094125270843506
time_elpased: 3.677
#iterations: 375
currently lose_sum: 0.47835540771484375
time_elpased: 3.687
#iterations: 376
currently lose_sum: 0.4679392874240875
time_elpased: 3.622
#iterations: 377
currently lose_sum: 0.49046218395233154
time_elpased: 3.591
#iterations: 378
currently lose_sum: 0.43354523181915283
time_elpased: 3.632
#iterations: 379
currently lose_sum: 0.4809868633747101
time_elpased: 3.624
start validation test
0.7148
0.691247415575
0.791009463722
0.737771239426
0.713686550043
13.922
#iterations: 380
currently lose_sum: 0.528329074382782
time_elpased: 3.625
#iterations: 381
currently lose_sum: 0.5212140679359436
time_elpased: 3.595
#iterations: 382
currently lose_sum: 0.48919305205345154
time_elpased: 3.579
#iterations: 383
currently lose_sum: 0.49097901582717896
time_elpased: 3.562
#iterations: 384
currently lose_sum: 0.4926835298538208
time_elpased: 3.626
#iterations: 385
currently lose_sum: 0.5589044690132141
time_elpased: 3.64
#iterations: 386
currently lose_sum: 0.4330482482910156
time_elpased: 3.636
#iterations: 387
currently lose_sum: 0.5103975534439087
time_elpased: 3.651
#iterations: 388
currently lose_sum: 0.40180233120918274
time_elpased: 3.595
#iterations: 389
currently lose_sum: 0.6501856446266174
time_elpased: 3.548
#iterations: 390
currently lose_sum: 0.5646809935569763
time_elpased: 3.61
#iterations: 391
currently lose_sum: 0.6177170872688293
time_elpased: 3.637
#iterations: 392
currently lose_sum: 0.47188645601272583
time_elpased: 3.557
#iterations: 393
currently lose_sum: 0.509859025478363
time_elpased: 3.664
#iterations: 394
currently lose_sum: 0.4497922658920288
time_elpased: 3.657
#iterations: 395
currently lose_sum: 0.4752104878425598
time_elpased: 3.589
#iterations: 396
currently lose_sum: 0.4969700574874878
time_elpased: 3.599
#iterations: 397
currently lose_sum: 0.5211040377616882
time_elpased: 3.634
#iterations: 398
currently lose_sum: 0.4990839660167694
time_elpased: 3.654
#iterations: 399
currently lose_sum: 0.44971299171447754
time_elpased: 3.56
start validation test
0.7196
0.736053288926
0.697160883281
0.716079384366
0.719927844238
13.657
#iterations: 400
currently lose_sum: 0.5241814851760864
time_elpased: 3.581
#iterations: 401
currently lose_sum: 0.517917811870575
time_elpased: 3.562
#iterations: 402
currently lose_sum: 0.47770148515701294
time_elpased: 3.639
#iterations: 403
currently lose_sum: 0.5075535178184509
time_elpased: 3.589
#iterations: 404
currently lose_sum: 0.5343384146690369
time_elpased: 3.648
#iterations: 405
currently lose_sum: 0.5006296634674072
time_elpased: 3.595
#iterations: 406
currently lose_sum: 0.43600815534591675
time_elpased: 3.586
#iterations: 407
currently lose_sum: 0.4464147090911865
time_elpased: 3.63
#iterations: 408
currently lose_sum: 0.498495876789093
time_elpased: 3.615
#iterations: 409
currently lose_sum: 0.5211520195007324
time_elpased: 3.63
#iterations: 410
currently lose_sum: 0.5305737853050232
time_elpased: 3.59
#iterations: 411
currently lose_sum: 0.5276191234588623
time_elpased: 3.698
#iterations: 412
currently lose_sum: 0.48670443892478943
time_elpased: 3.587
#iterations: 413
currently lose_sum: 0.43624347448349
time_elpased: 3.638
#iterations: 414
currently lose_sum: 0.4621974229812622
time_elpased: 3.595
#iterations: 415
currently lose_sum: 0.5257076025009155
time_elpased: 3.619
#iterations: 416
currently lose_sum: 0.49063876271247864
time_elpased: 3.596
#iterations: 417
currently lose_sum: 0.47750136256217957
time_elpased: 3.644
#iterations: 418
currently lose_sum: 0.5444045066833496
time_elpased: 3.589
#iterations: 419
currently lose_sum: 0.5011422038078308
time_elpased: 3.587
start validation test
0.7236
0.690680766689
0.824132492114
0.751528227256
0.722131181122
13.597
#iterations: 420
currently lose_sum: 0.5075014233589172
time_elpased: 3.617
#iterations: 421
currently lose_sum: 0.5479679107666016
time_elpased: 3.638
#iterations: 422
currently lose_sum: 0.4497029185295105
time_elpased: 3.593
#iterations: 423
currently lose_sum: 0.516883134841919
time_elpased: 3.706
#iterations: 424
currently lose_sum: 0.4947243928909302
time_elpased: 3.654
#iterations: 425
currently lose_sum: 0.46122536063194275
time_elpased: 3.595
#iterations: 426
currently lose_sum: 0.6024067997932434
time_elpased: 3.66
#iterations: 427
currently lose_sum: 0.49369674921035767
time_elpased: 3.595
#iterations: 428
currently lose_sum: 0.4784846603870392
time_elpased: 3.588
#iterations: 429
currently lose_sum: 0.52916419506073
time_elpased: 3.559
#iterations: 430
currently lose_sum: 0.47496458888053894
time_elpased: 3.649
#iterations: 431
currently lose_sum: 0.5606166124343872
time_elpased: 3.551
#iterations: 432
currently lose_sum: 0.5013929605484009
time_elpased: 3.747
#iterations: 433
currently lose_sum: 0.5290003418922424
time_elpased: 3.584
#iterations: 434
currently lose_sum: 0.5261930823326111
time_elpased: 3.64
#iterations: 435
currently lose_sum: 0.40676349401474
time_elpased: 3.581
#iterations: 436
currently lose_sum: 0.515541672706604
time_elpased: 3.575
#iterations: 437
currently lose_sum: 0.5149466395378113
time_elpased: 3.709
#iterations: 438
currently lose_sum: 0.4853712022304535
time_elpased: 3.651
#iterations: 439
currently lose_sum: 0.43087029457092285
time_elpased: 3.616
start validation test
0.7116
0.804905239688
0.569400630915
0.666974595843
0.713677588185
13.965
#iterations: 440
currently lose_sum: 0.4487513303756714
time_elpased: 3.591
#iterations: 441
currently lose_sum: 0.4575272500514984
time_elpased: 3.654
#iterations: 442
currently lose_sum: 0.47514283657073975
time_elpased: 3.628
#iterations: 443
currently lose_sum: 0.40854498744010925
time_elpased: 3.606
#iterations: 444
currently lose_sum: 0.4967002868652344
time_elpased: 3.615
#iterations: 445
currently lose_sum: 0.3864860236644745
time_elpased: 3.655
#iterations: 446
currently lose_sum: 0.4593627154827118
time_elpased: 3.679
#iterations: 447
currently lose_sum: 0.4968169331550598
time_elpased: 3.69
#iterations: 448
currently lose_sum: 0.49406757950782776
time_elpased: 3.607
#iterations: 449
currently lose_sum: 0.44894692301750183
time_elpased: 3.581
#iterations: 450
currently lose_sum: 0.5795655250549316
time_elpased: 3.65
#iterations: 451
currently lose_sum: 0.5342767238616943
time_elpased: 3.541
#iterations: 452
currently lose_sum: 0.4292306900024414
time_elpased: 3.599
#iterations: 453
currently lose_sum: 0.42668604850769043
time_elpased: 3.601
#iterations: 454
currently lose_sum: 0.5571234822273254
time_elpased: 3.636
#iterations: 455
currently lose_sum: 0.5032668709754944
time_elpased: 3.646
#iterations: 456
currently lose_sum: 0.47080516815185547
time_elpased: 3.545
#iterations: 457
currently lose_sum: 0.43905436992645264
time_elpased: 3.624
#iterations: 458
currently lose_sum: 0.5089940428733826
time_elpased: 3.578
#iterations: 459
currently lose_sum: 0.4508794844150543
time_elpased: 3.58
start validation test
0.7244
0.691341705221
0.824921135647
0.752247393024
0.722931347044
13.688
#iterations: 460
currently lose_sum: 0.48884469270706177
time_elpased: 3.589
#iterations: 461
currently lose_sum: 0.475952684879303
time_elpased: 3.633
#iterations: 462
currently lose_sum: 0.4878353178501129
time_elpased: 3.605
#iterations: 463
currently lose_sum: 0.44168511033058167
time_elpased: 3.55
#iterations: 464
currently lose_sum: 0.47843918204307556
time_elpased: 3.575
#iterations: 465
currently lose_sum: 0.4525453448295593
time_elpased: 3.608
#iterations: 466
currently lose_sum: 0.4660048186779022
time_elpased: 3.636
#iterations: 467
currently lose_sum: 0.4438883066177368
time_elpased: 3.633
#iterations: 468
currently lose_sum: 0.45104315876960754
time_elpased: 3.637
#iterations: 469
currently lose_sum: 0.4517626464366913
time_elpased: 3.72
#iterations: 470
currently lose_sum: 0.4525071084499359
time_elpased: 3.578
#iterations: 471
currently lose_sum: 0.4821792244911194
time_elpased: 3.642
#iterations: 472
currently lose_sum: 0.5203520059585571
time_elpased: 3.683
#iterations: 473
currently lose_sum: 0.4698486030101776
time_elpased: 3.581
#iterations: 474
currently lose_sum: 0.5414180755615234
time_elpased: 3.556
#iterations: 475
currently lose_sum: 0.452698290348053
time_elpased: 3.609
#iterations: 476
currently lose_sum: 0.48527276515960693
time_elpased: 3.573
#iterations: 477
currently lose_sum: 0.5534213781356812
time_elpased: 3.798
#iterations: 478
currently lose_sum: 0.5631788372993469
time_elpased: 3.605
#iterations: 479
currently lose_sum: 0.4504958987236023
time_elpased: 3.638
start validation test
0.7272
0.695333333333
0.822555205047
0.753612716763
0.725806823303
13.601
#iterations: 480
currently lose_sum: 0.5446940064430237
time_elpased: 3.614
#iterations: 481
currently lose_sum: 0.42297232151031494
time_elpased: 3.605
#iterations: 482
currently lose_sum: 0.5329518914222717
time_elpased: 3.589
#iterations: 483
currently lose_sum: 0.45863449573516846
time_elpased: 3.634
#iterations: 484
currently lose_sum: 0.44522255659103394
time_elpased: 3.596
#iterations: 485
currently lose_sum: 0.5511319637298584
time_elpased: 3.676
#iterations: 486
currently lose_sum: 0.4664463698863983
time_elpased: 3.638
#iterations: 487
currently lose_sum: 0.475302517414093
time_elpased: 3.596
#iterations: 488
currently lose_sum: 0.5016413927078247
time_elpased: 3.603
#iterations: 489
currently lose_sum: 0.4534243643283844
time_elpased: 3.598
#iterations: 490
currently lose_sum: 0.5504453778266907
time_elpased: 3.704
#iterations: 491
currently lose_sum: 0.47296592593193054
time_elpased: 3.672
#iterations: 492
currently lose_sum: 0.5033673644065857
time_elpased: 3.63
#iterations: 493
currently lose_sum: 0.45617735385894775
time_elpased: 3.622
#iterations: 494
currently lose_sum: 0.399954617023468
time_elpased: 3.607
#iterations: 495
currently lose_sum: 0.43774595856666565
time_elpased: 3.626
#iterations: 496
currently lose_sum: 0.4497815668582916
time_elpased: 3.577
#iterations: 497
currently lose_sum: 0.46740448474884033
time_elpased: 3.61
#iterations: 498
currently lose_sum: 0.4988643527030945
time_elpased: 3.572
#iterations: 499
currently lose_sum: 0.4053562879562378
time_elpased: 3.627
start validation test
0.6432
0.903433476395
0.332018927445
0.485582468281
0.647746476709
17.445
#iterations: 500
currently lose_sum: 0.42229586839675903
time_elpased: 3.632
#iterations: 501
currently lose_sum: 0.49215149879455566
time_elpased: 3.565
#iterations: 502
currently lose_sum: 0.4551601707935333
time_elpased: 3.602
#iterations: 503
currently lose_sum: 0.5232404470443726
time_elpased: 3.653
#iterations: 504
currently lose_sum: 0.614213228225708
time_elpased: 3.602
#iterations: 505
currently lose_sum: 0.5160296559333801
time_elpased: 3.633
#iterations: 506
currently lose_sum: 0.42752739787101746
time_elpased: 3.65
#iterations: 507
currently lose_sum: 0.3948158323764801
time_elpased: 3.578
#iterations: 508
currently lose_sum: 0.39251136779785156
time_elpased: 3.541
#iterations: 509
currently lose_sum: 0.4900098145008087
time_elpased: 3.568
#iterations: 510
currently lose_sum: 0.5493196249008179
time_elpased: 3.615
#iterations: 511
currently lose_sum: 0.5119045376777649
time_elpased: 3.583
#iterations: 512
currently lose_sum: 0.4747149646282196
time_elpased: 3.61
#iterations: 513
currently lose_sum: 0.42748889327049255
time_elpased: 3.605
#iterations: 514
currently lose_sum: 0.500985860824585
time_elpased: 3.561
#iterations: 515
currently lose_sum: 0.4047689735889435
time_elpased: 3.557
#iterations: 516
currently lose_sum: 0.6188359260559082
time_elpased: 3.628
#iterations: 517
currently lose_sum: 0.47718581557273865
time_elpased: 3.644
#iterations: 518
currently lose_sum: 0.48255202174186707
time_elpased: 3.6
#iterations: 519
currently lose_sum: 0.5180123448371887
time_elpased: 3.57
start validation test
0.7284
0.753224419604
0.690851735016
0.720691073632
0.728948594781
13.205
#iterations: 520
currently lose_sum: 0.45153847336769104
time_elpased: 3.67
#iterations: 521
currently lose_sum: 0.4508194029331207
time_elpased: 3.575
#iterations: 522
currently lose_sum: 0.3903840184211731
time_elpased: 3.607
#iterations: 523
currently lose_sum: 0.471676230430603
time_elpased: 3.631
#iterations: 524
currently lose_sum: 0.5086162686347961
time_elpased: 3.703
#iterations: 525
currently lose_sum: 0.41553255915641785
time_elpased: 3.596
#iterations: 526
currently lose_sum: 0.4585701823234558
time_elpased: 3.595
#iterations: 527
currently lose_sum: 0.4248413145542145
time_elpased: 3.648
#iterations: 528
currently lose_sum: 0.5147117972373962
time_elpased: 3.607
#iterations: 529
currently lose_sum: 0.492076575756073
time_elpased: 3.616
#iterations: 530
currently lose_sum: 0.4271193742752075
time_elpased: 3.617
#iterations: 531
currently lose_sum: 0.42543449997901917
time_elpased: 3.65
#iterations: 532
currently lose_sum: 0.42130255699157715
time_elpased: 3.727
#iterations: 533
currently lose_sum: 0.38487690687179565
time_elpased: 3.614
#iterations: 534
currently lose_sum: 0.44034844636917114
time_elpased: 3.654
#iterations: 535
currently lose_sum: 0.4525698125362396
time_elpased: 3.693
#iterations: 536
currently lose_sum: 0.474112868309021
time_elpased: 3.589
#iterations: 537
currently lose_sum: 0.5489558577537537
time_elpased: 3.705
#iterations: 538
currently lose_sum: 0.43608635663986206
time_elpased: 3.625
#iterations: 539
currently lose_sum: 0.4390716850757599
time_elpased: 3.564
start validation test
0.7224
0.779727095517
0.630914826498
0.697471665214
0.723736634028
13.496
#iterations: 540
currently lose_sum: 0.5157074928283691
time_elpased: 3.608
#iterations: 541
currently lose_sum: 0.5155675411224365
time_elpased: 3.634
#iterations: 542
currently lose_sum: 0.5631864666938782
time_elpased: 3.613
#iterations: 543
currently lose_sum: 0.4680001735687256
time_elpased: 3.579
#iterations: 544
currently lose_sum: 0.47409263253211975
time_elpased: 3.576
#iterations: 545
currently lose_sum: 0.4502795934677124
time_elpased: 3.634
#iterations: 546
currently lose_sum: 0.4539297819137573
time_elpased: 3.579
#iterations: 547
currently lose_sum: 0.5999104976654053
time_elpased: 3.671
#iterations: 548
currently lose_sum: 0.5529667735099792
time_elpased: 3.681
#iterations: 549
currently lose_sum: 0.391317754983902
time_elpased: 3.561
#iterations: 550
currently lose_sum: 0.4140511453151703
time_elpased: 3.571
#iterations: 551
currently lose_sum: 0.4590573012828827
time_elpased: 3.598
#iterations: 552
currently lose_sum: 0.3632305860519409
time_elpased: 3.576
#iterations: 553
currently lose_sum: 0.4757693409919739
time_elpased: 3.584
#iterations: 554
currently lose_sum: 0.479002445936203
time_elpased: 3.596
#iterations: 555
currently lose_sum: 0.5169540047645569
time_elpased: 3.651
#iterations: 556
currently lose_sum: 0.4707121253013611
time_elpased: 3.607
#iterations: 557
currently lose_sum: 0.47024595737457275
time_elpased: 3.575
#iterations: 558
currently lose_sum: 0.5021427869796753
time_elpased: 3.554
#iterations: 559
currently lose_sum: 0.4920109510421753
time_elpased: 3.657
start validation test
0.7296
0.717967599411
0.768927444795
0.742574257426
0.729025410709
13.266
#iterations: 560
currently lose_sum: 0.3957820236682892
time_elpased: 3.602
#iterations: 561
currently lose_sum: 0.5176138281822205
time_elpased: 3.588
#iterations: 562
currently lose_sum: 0.44652116298675537
time_elpased: 3.589
#iterations: 563
currently lose_sum: 0.4127497971057892
time_elpased: 3.61
#iterations: 564
currently lose_sum: 0.48536092042922974
time_elpased: 3.647
#iterations: 565
currently lose_sum: 0.469868540763855
time_elpased: 3.649
#iterations: 566
currently lose_sum: 0.5068816542625427
time_elpased: 3.627
#iterations: 567
currently lose_sum: 0.4997618794441223
time_elpased: 3.667
#iterations: 568
currently lose_sum: 0.4323596656322479
time_elpased: 3.574
#iterations: 569
currently lose_sum: 0.4036232829093933
time_elpased: 3.603
#iterations: 570
currently lose_sum: 0.4355107843875885
time_elpased: 3.714
#iterations: 571
currently lose_sum: 0.4463208317756653
time_elpased: 3.585
#iterations: 572
currently lose_sum: 0.5733309984207153
time_elpased: 3.629
#iterations: 573
currently lose_sum: 0.566196084022522
time_elpased: 3.668
#iterations: 574
currently lose_sum: 0.5443187952041626
time_elpased: 3.665
#iterations: 575
currently lose_sum: 0.43204331398010254
time_elpased: 3.74
#iterations: 576
currently lose_sum: 0.48842769861221313
time_elpased: 3.565
#iterations: 577
currently lose_sum: 0.4614121913909912
time_elpased: 3.627
#iterations: 578
currently lose_sum: 0.4042660593986511
time_elpased: 3.716
#iterations: 579
currently lose_sum: 0.43567466735839844
time_elpased: 3.558
start validation test
0.7304
0.777052238806
0.656940063091
0.711965811966
0.731473278299
13.329
#iterations: 580
currently lose_sum: 0.4557538628578186
time_elpased: 3.715
#iterations: 581
currently lose_sum: 0.49141043424606323
time_elpased: 3.689
#iterations: 582
currently lose_sum: 0.46230244636535645
time_elpased: 3.653
#iterations: 583
currently lose_sum: 0.4360385835170746
time_elpased: 3.68
#iterations: 584
currently lose_sum: 0.6137076020240784
time_elpased: 3.606
#iterations: 585
currently lose_sum: 0.5256395936012268
time_elpased: 3.688
#iterations: 586
currently lose_sum: 0.43465206027030945
time_elpased: 3.602
#iterations: 587
currently lose_sum: 0.4379916787147522
time_elpased: 3.61
#iterations: 588
currently lose_sum: 0.4211048483848572
time_elpased: 3.781
#iterations: 589
currently lose_sum: 0.49714773893356323
time_elpased: 3.583
#iterations: 590
currently lose_sum: 0.47810664772987366
time_elpased: 3.631
#iterations: 591
currently lose_sum: 0.4474877417087555
time_elpased: 3.611
#iterations: 592
currently lose_sum: 0.4324474334716797
time_elpased: 3.732
#iterations: 593
currently lose_sum: 0.453357994556427
time_elpased: 3.633
#iterations: 594
currently lose_sum: 0.4311284124851227
time_elpased: 3.597
#iterations: 595
currently lose_sum: 0.5470036268234253
time_elpased: 3.615
#iterations: 596
currently lose_sum: 0.4067239463329315
time_elpased: 3.616
#iterations: 597
currently lose_sum: 0.476511150598526
time_elpased: 3.585
#iterations: 598
currently lose_sum: 0.5278398394584656
time_elpased: 3.63
#iterations: 599
currently lose_sum: 0.43619033694267273
time_elpased: 3.582
start validation test
0.7244
0.78978978979
0.622239747634
0.696074106749
0.72589260109
13.545
acc: 0.718
pre: 0.736
rec: 0.691
F1: 0.713
auc: 0.718
