start to construct computing graph
graph construct over
3803
epochs start
#iterations: 0
currently lose_sum: 0.6922662258148193
time_elpased: 2.59
#iterations: 1
currently lose_sum: 0.6891380548477173
time_elpased: 2.544
#iterations: 2
currently lose_sum: 0.6991209387779236
time_elpased: 2.455
#iterations: 3
currently lose_sum: 0.6882956027984619
time_elpased: 2.529
#iterations: 4
currently lose_sum: 0.6880744099617004
time_elpased: 2.484
#iterations: 5
currently lose_sum: 0.6899692416191101
time_elpased: 2.516
#iterations: 6
currently lose_sum: 0.6878483295440674
time_elpased: 2.493
#iterations: 7
currently lose_sum: 0.6911988258361816
time_elpased: 2.518
#iterations: 8
currently lose_sum: 0.6850708723068237
time_elpased: 2.53
#iterations: 9
currently lose_sum: 0.6838036179542542
time_elpased: 2.52
#iterations: 10
currently lose_sum: 0.6913032531738281
time_elpased: 2.478
#iterations: 11
currently lose_sum: 0.6977724432945251
time_elpased: 2.517
#iterations: 12
currently lose_sum: 0.6959275603294373
time_elpased: 2.545
#iterations: 13
currently lose_sum: 0.6767924427986145
time_elpased: 2.488
#iterations: 14
currently lose_sum: 0.6909247040748596
time_elpased: 2.519
#iterations: 15
currently lose_sum: 0.6938952803611755
time_elpased: 2.493
#iterations: 16
currently lose_sum: 0.7091652154922485
time_elpased: 2.509
#iterations: 17
currently lose_sum: 0.6781105995178223
time_elpased: 2.974
#iterations: 18
currently lose_sum: 0.7043108940124512
time_elpased: 2.525
#iterations: 19
currently lose_sum: 0.6915612816810608
time_elpased: 2.553
start validation test
0.5396
0.570731707317
0.369376479874
0.448490656445
0.541946958509
17.253
#iterations: 20
currently lose_sum: 0.6841102838516235
time_elpased: 1.942
#iterations: 21
currently lose_sum: 0.6822826266288757
time_elpased: 1.862
#iterations: 22
currently lose_sum: 0.6864662170410156
time_elpased: 2.038
#iterations: 23
currently lose_sum: 0.6783780455589294
time_elpased: 1.844
#iterations: 24
currently lose_sum: 0.6910350322723389
time_elpased: 1.86
#iterations: 25
currently lose_sum: 0.6815864443778992
time_elpased: 1.911
#iterations: 26
currently lose_sum: 0.6859836578369141
time_elpased: 1.9
#iterations: 27
currently lose_sum: 0.6814103126525879
time_elpased: 1.889
#iterations: 28
currently lose_sum: 0.6822003126144409
time_elpased: 1.823
#iterations: 29
currently lose_sum: 0.6888496279716492
time_elpased: 1.885
#iterations: 30
currently lose_sum: 0.6823030114173889
time_elpased: 1.902
#iterations: 31
currently lose_sum: 0.6822431683540344
time_elpased: 1.872
#iterations: 32
currently lose_sum: 0.6750649809837341
time_elpased: 1.866
#iterations: 33
currently lose_sum: 0.6793425679206848
time_elpased: 1.954
#iterations: 34
currently lose_sum: 0.6851831078529358
time_elpased: 1.863
#iterations: 35
currently lose_sum: 0.6619183421134949
time_elpased: 2.026
#iterations: 36
currently lose_sum: 0.6738384962081909
time_elpased: 1.929
#iterations: 37
currently lose_sum: 0.684996485710144
time_elpased: 1.946
#iterations: 38
currently lose_sum: 0.6846969723701477
time_elpased: 2.122
#iterations: 39
currently lose_sum: 0.686287522315979
time_elpased: 1.887
start validation test
0.578
0.5664160401
0.713496448303
0.631505413902
0.576131841345
16.834
#iterations: 40
currently lose_sum: 0.6780012249946594
time_elpased: 2.047
#iterations: 41
currently lose_sum: 0.6594129204750061
time_elpased: 1.852
#iterations: 42
currently lose_sum: 0.6671379804611206
time_elpased: 1.833
#iterations: 43
currently lose_sum: 0.6603810787200928
time_elpased: 2.288
#iterations: 44
currently lose_sum: 0.6439111232757568
time_elpased: 2.235
#iterations: 45
currently lose_sum: 0.6700518727302551
time_elpased: 1.856
#iterations: 46
currently lose_sum: 0.6672292351722717
time_elpased: 1.884
#iterations: 47
currently lose_sum: 0.6888232231140137
time_elpased: 2.026
#iterations: 48
currently lose_sum: 0.680615246295929
time_elpased: 1.838
#iterations: 49
currently lose_sum: 0.6466361880302429
time_elpased: 1.957
#iterations: 50
currently lose_sum: 0.6588876247406006
time_elpased: 1.862
#iterations: 51
currently lose_sum: 0.6295733451843262
time_elpased: 1.897
#iterations: 52
currently lose_sum: 0.6828727722167969
time_elpased: 1.978
#iterations: 53
currently lose_sum: 0.6512888073921204
time_elpased: 1.859
#iterations: 54
currently lose_sum: 0.6530710458755493
time_elpased: 1.898
#iterations: 55
currently lose_sum: 0.6340890526771545
time_elpased: 1.938
#iterations: 56
currently lose_sum: 0.6738853454589844
time_elpased: 1.863
#iterations: 57
currently lose_sum: 0.6218158602714539
time_elpased: 1.912
#iterations: 58
currently lose_sum: 0.6644341945648193
time_elpased: 1.831
#iterations: 59
currently lose_sum: 0.6640638709068298
time_elpased: 1.889
start validation test
0.5956
0.673913043478
0.391475927388
0.495257114329
0.598414362721
16.561
#iterations: 60
currently lose_sum: 0.6854455471038818
time_elpased: 2.009
#iterations: 61
currently lose_sum: 0.6710765361785889
time_elpased: 1.869
#iterations: 62
currently lose_sum: 0.6822901368141174
time_elpased: 1.885
#iterations: 63
currently lose_sum: 0.6705253720283508
time_elpased: 1.945
#iterations: 64
currently lose_sum: 0.6264901161193848
time_elpased: 1.85
#iterations: 65
currently lose_sum: 0.6617063879966736
time_elpased: 1.863
#iterations: 66
currently lose_sum: 0.6519606113433838
time_elpased: 1.858
#iterations: 67
currently lose_sum: 0.5992892384529114
time_elpased: 1.855
#iterations: 68
currently lose_sum: 0.6459001302719116
time_elpased: 1.895
#iterations: 69
currently lose_sum: 0.6609252691268921
time_elpased: 1.831
#iterations: 70
currently lose_sum: 0.6773626804351807
time_elpased: 1.853
#iterations: 71
currently lose_sum: 0.6606400012969971
time_elpased: 1.885
#iterations: 72
currently lose_sum: 0.6311664581298828
time_elpased: 1.891
#iterations: 73
currently lose_sum: 0.6492961645126343
time_elpased: 1.918
#iterations: 74
currently lose_sum: 0.6619082689285278
time_elpased: 1.832
#iterations: 75
currently lose_sum: 0.6491147875785828
time_elpased: 2.037
#iterations: 76
currently lose_sum: 0.6783784627914429
time_elpased: 1.902
#iterations: 77
currently lose_sum: 0.5861131548881531
time_elpased: 1.889
#iterations: 78
currently lose_sum: 0.6553122997283936
time_elpased: 1.885
#iterations: 79
currently lose_sum: 0.6319741010665894
time_elpased: 2.232
start validation test
0.608
0.661417322835
0.46408839779
0.545454545455
0.609984182674
16.186
#iterations: 80
currently lose_sum: 0.6147844195365906
time_elpased: 1.935
#iterations: 81
currently lose_sum: 0.5835191607475281
time_elpased: 2.248
#iterations: 82
currently lose_sum: 0.5977398157119751
time_elpased: 1.864
#iterations: 83
currently lose_sum: 0.6355768442153931
time_elpased: 1.948
#iterations: 84
currently lose_sum: 0.5926744937896729
time_elpased: 1.876
#iterations: 85
currently lose_sum: 0.6751168966293335
time_elpased: 1.997
#iterations: 86
currently lose_sum: 0.629020094871521
time_elpased: 1.829
#iterations: 87
currently lose_sum: 0.5911170840263367
time_elpased: 1.852
#iterations: 88
currently lose_sum: 0.6214785575866699
time_elpased: 1.867
#iterations: 89
currently lose_sum: 0.6073610782623291
time_elpased: 1.807
#iterations: 90
currently lose_sum: 0.6534030437469482
time_elpased: 1.877
#iterations: 91
currently lose_sum: 0.6273452639579773
time_elpased: 1.874
#iterations: 92
currently lose_sum: 0.6292857527732849
time_elpased: 1.937
#iterations: 93
currently lose_sum: 0.6277816891670227
time_elpased: 1.84
#iterations: 94
currently lose_sum: 0.6146571636199951
time_elpased: 2.373
#iterations: 95
currently lose_sum: 0.6018394231796265
time_elpased: 1.845
#iterations: 96
currently lose_sum: 0.6493915319442749
time_elpased: 1.986
#iterations: 97
currently lose_sum: 0.6425579786300659
time_elpased: 1.893
#iterations: 98
currently lose_sum: 0.6018465757369995
time_elpased: 1.868
#iterations: 99
currently lose_sum: 0.6060693860054016
time_elpased: 1.818
start validation test
0.6008
0.744990892532
0.322809786898
0.450440528634
0.604632792881
16.503
#iterations: 100
currently lose_sum: 0.6048558354377747
time_elpased: 1.886
#iterations: 101
currently lose_sum: 0.5441656708717346
time_elpased: 1.851
#iterations: 102
currently lose_sum: 0.6882421970367432
time_elpased: 1.844
#iterations: 103
currently lose_sum: 0.6221106052398682
time_elpased: 1.831
#iterations: 104
currently lose_sum: 0.6071498394012451
time_elpased: 1.902
#iterations: 105
currently lose_sum: 0.5876356363296509
time_elpased: 1.952
#iterations: 106
currently lose_sum: 0.6073391437530518
time_elpased: 1.859
#iterations: 107
currently lose_sum: 0.6107323169708252
time_elpased: 1.866
#iterations: 108
currently lose_sum: 0.6344527006149292
time_elpased: 1.874
#iterations: 109
currently lose_sum: 0.655872642993927
time_elpased: 2.006
#iterations: 110
currently lose_sum: 0.6519229412078857
time_elpased: 1.869
#iterations: 111
currently lose_sum: 0.6017547845840454
time_elpased: 1.912
#iterations: 112
currently lose_sum: 0.5855656862258911
time_elpased: 2.165
#iterations: 113
currently lose_sum: 0.5946907997131348
time_elpased: 1.923
#iterations: 114
currently lose_sum: 0.601799488067627
time_elpased: 2.038
#iterations: 115
currently lose_sum: 0.6009812355041504
time_elpased: 1.848
#iterations: 116
currently lose_sum: 0.6290045976638794
time_elpased: 2.127
#iterations: 117
currently lose_sum: 0.5729352831840515
time_elpased: 2.392
#iterations: 118
currently lose_sum: 0.5787711143493652
time_elpased: 1.906
#iterations: 119
currently lose_sum: 0.6144792437553406
time_elpased: 2.39
start validation test
0.6592
0.698185291309
0.576953433307
0.631806395851
0.660333975372
15.554
#iterations: 120
currently lose_sum: 0.5928425788879395
time_elpased: 1.868
#iterations: 121
currently lose_sum: 0.6174032092094421
time_elpased: 1.977
#iterations: 122
currently lose_sum: 0.5717613101005554
time_elpased: 1.873
#iterations: 123
currently lose_sum: 0.57613205909729
time_elpased: 2.052
#iterations: 124
currently lose_sum: 0.7132424712181091
time_elpased: 1.85
#iterations: 125
currently lose_sum: 0.5894047617912292
time_elpased: 1.867
#iterations: 126
currently lose_sum: 0.5918319821357727
time_elpased: 1.885
#iterations: 127
currently lose_sum: 0.5785582661628723
time_elpased: 1.858
#iterations: 128
currently lose_sum: 0.5919427275657654
time_elpased: 1.897
#iterations: 129
currently lose_sum: 0.6845692992210388
time_elpased: 1.84
#iterations: 130
currently lose_sum: 0.5647477507591248
time_elpased: 1.889
#iterations: 131
currently lose_sum: 0.607217013835907
time_elpased: 1.924
#iterations: 132
currently lose_sum: 0.551664412021637
time_elpased: 1.899
#iterations: 133
currently lose_sum: 0.6036220788955688
time_elpased: 2.015
#iterations: 134
currently lose_sum: 0.6314931511878967
time_elpased: 1.906
#iterations: 135
currently lose_sum: 0.6044641137123108
time_elpased: 1.938
#iterations: 136
currently lose_sum: 0.5875031352043152
time_elpased: 1.878
#iterations: 137
currently lose_sum: 0.5862235426902771
time_elpased: 1.9
#iterations: 138
currently lose_sum: 0.6724138855934143
time_elpased: 1.99
#iterations: 139
currently lose_sum: 0.6094731092453003
time_elpased: 1.859
start validation test
0.6572
0.736175115207
0.504340962904
0.598594847775
0.659307545524
15.510
#iterations: 140
currently lose_sum: 0.6059126853942871
time_elpased: 1.906
#iterations: 141
currently lose_sum: 0.7440275549888611
time_elpased: 2.028
#iterations: 142
currently lose_sum: 0.647372305393219
time_elpased: 1.899
#iterations: 143
currently lose_sum: 0.6113337874412537
time_elpased: 1.895
#iterations: 144
currently lose_sum: 0.6716934442520142
time_elpased: 1.921
#iterations: 145
currently lose_sum: 0.5772192478179932
time_elpased: 1.873
#iterations: 146
currently lose_sum: 0.6058766841888428
time_elpased: 1.899
#iterations: 147
currently lose_sum: 0.5758106708526611
time_elpased: 1.871
#iterations: 148
currently lose_sum: 0.5458855628967285
time_elpased: 1.887
#iterations: 149
currently lose_sum: 0.6429646015167236
time_elpased: 1.823
#iterations: 150
currently lose_sum: 0.63212651014328
time_elpased: 2.251
#iterations: 151
currently lose_sum: 0.5678293704986572
time_elpased: 2.003
#iterations: 152
currently lose_sum: 0.6066880226135254
time_elpased: 1.845
#iterations: 153
currently lose_sum: 0.5960546135902405
time_elpased: 1.983
#iterations: 154
currently lose_sum: 0.5493738651275635
time_elpased: 1.94
#iterations: 155
currently lose_sum: 0.5873993635177612
time_elpased: 1.88
#iterations: 156
currently lose_sum: 0.555370569229126
time_elpased: 1.87
#iterations: 157
currently lose_sum: 0.5974729061126709
time_elpased: 1.893
#iterations: 158
currently lose_sum: 0.5946049690246582
time_elpased: 1.966
#iterations: 159
currently lose_sum: 0.5938929915428162
time_elpased: 1.887
start validation test
0.6816
0.700084961767
0.650355169692
0.674304418985
0.682030788415
14.935
#iterations: 160
currently lose_sum: 0.6255571842193604
time_elpased: 1.885
#iterations: 161
currently lose_sum: 0.5660272240638733
time_elpased: 2.262
#iterations: 162
currently lose_sum: 0.6128032207489014
time_elpased: 1.991
#iterations: 163
currently lose_sum: 0.6448310017585754
time_elpased: 1.937
#iterations: 164
currently lose_sum: 0.552035391330719
time_elpased: 1.876
#iterations: 165
currently lose_sum: 0.6321866512298584
time_elpased: 2.1
#iterations: 166
currently lose_sum: 0.5475185513496399
time_elpased: 1.934
#iterations: 167
currently lose_sum: 0.5994420647621155
time_elpased: 1.859
#iterations: 168
currently lose_sum: 0.6047840714454651
time_elpased: 1.903
#iterations: 169
currently lose_sum: 0.5935550928115845
time_elpased: 2.258
#iterations: 170
currently lose_sum: 0.56076979637146
time_elpased: 1.855
#iterations: 171
currently lose_sum: 0.5411068201065063
time_elpased: 2.095
#iterations: 172
currently lose_sum: 0.5114587545394897
time_elpased: 1.837
#iterations: 173
currently lose_sum: 0.5025720000267029
time_elpased: 1.905
#iterations: 174
currently lose_sum: 0.6236136555671692
time_elpased: 1.9
#iterations: 175
currently lose_sum: 0.5930114388465881
time_elpased: 1.831
#iterations: 176
currently lose_sum: 0.5328226685523987
time_elpased: 1.879
#iterations: 177
currently lose_sum: 0.7354618310928345
time_elpased: 1.882
#iterations: 178
currently lose_sum: 0.5845429301261902
time_elpased: 1.874
#iterations: 179
currently lose_sum: 0.5590867400169373
time_elpased: 1.924
start validation test
0.6668
0.639102564103
0.786898184688
0.705341351256
0.665144145061
14.940
#iterations: 180
currently lose_sum: 0.6281620264053345
time_elpased: 1.82
#iterations: 181
currently lose_sum: 0.6185424327850342
time_elpased: 1.862
#iterations: 182
currently lose_sum: 0.5627093315124512
time_elpased: 2.546
#iterations: 183
currently lose_sum: 0.6175581216812134
time_elpased: 2.002
#iterations: 184
currently lose_sum: 0.596683144569397
time_elpased: 1.86
#iterations: 185
currently lose_sum: 0.5740859508514404
time_elpased: 1.864
#iterations: 186
currently lose_sum: 0.5609967112541199
time_elpased: 1.935
#iterations: 187
currently lose_sum: 0.5544008016586304
time_elpased: 1.851
#iterations: 188
currently lose_sum: 0.5316072702407837
time_elpased: 1.889
#iterations: 189
currently lose_sum: 0.5617663860321045
time_elpased: 1.843
#iterations: 190
currently lose_sum: 0.5776558518409729
time_elpased: 1.898
#iterations: 191
currently lose_sum: 0.6020370721817017
time_elpased: 1.846
#iterations: 192
currently lose_sum: 0.5842090845108032
time_elpased: 2.058
#iterations: 193
currently lose_sum: 0.6460337042808533
time_elpased: 1.971
#iterations: 194
currently lose_sum: 0.6078379154205322
time_elpased: 1.988
#iterations: 195
currently lose_sum: 0.5431118607521057
time_elpased: 1.899
#iterations: 196
currently lose_sum: 0.6084765791893005
time_elpased: 2.006
#iterations: 197
currently lose_sum: 0.5179504156112671
time_elpased: 1.86
#iterations: 198
currently lose_sum: 0.643125593662262
time_elpased: 1.909
#iterations: 199
currently lose_sum: 0.5380313396453857
time_elpased: 1.844
start validation test
0.692
0.693385214008
0.703235990529
0.698275862069
0.691845083667
14.534
#iterations: 200
currently lose_sum: 0.5719662308692932
time_elpased: 1.898
#iterations: 201
currently lose_sum: 0.5367587208747864
time_elpased: 2.0
#iterations: 202
currently lose_sum: 0.580858051776886
time_elpased: 1.876
#iterations: 203
currently lose_sum: 0.6572664380073547
time_elpased: 1.939
#iterations: 204
currently lose_sum: 0.5527232885360718
time_elpased: 1.862
#iterations: 205
currently lose_sum: 0.6370858550071716
time_elpased: 1.851
#iterations: 206
currently lose_sum: 0.570189893245697
time_elpased: 1.863
#iterations: 207
currently lose_sum: 0.5970783233642578
time_elpased: 1.899
#iterations: 208
currently lose_sum: 0.5906354784965515
time_elpased: 2.226
#iterations: 209
currently lose_sum: 0.5673611164093018
time_elpased: 2.036
#iterations: 210
currently lose_sum: 0.5424785614013672
time_elpased: 1.869
#iterations: 211
currently lose_sum: 0.5358692407608032
time_elpased: 1.903
#iterations: 212
currently lose_sum: 0.5603834986686707
time_elpased: 1.89
#iterations: 213
currently lose_sum: 0.5266382098197937
time_elpased: 1.855
#iterations: 214
currently lose_sum: 0.4844528138637543
time_elpased: 1.872
#iterations: 215
currently lose_sum: 0.5655566453933716
time_elpased: 1.82
#iterations: 216
currently lose_sum: 0.5139660835266113
time_elpased: 1.873
#iterations: 217
currently lose_sum: 0.603212296962738
time_elpased: 1.857
#iterations: 218
currently lose_sum: 0.6001792550086975
time_elpased: 1.855
#iterations: 219
currently lose_sum: 0.5840187668800354
time_elpased: 2.04
start validation test
0.6652
0.801120448179
0.451460142068
0.577486118122
0.668146940458
15.517
#iterations: 220
currently lose_sum: 0.6805109977722168
time_elpased: 1.995
#iterations: 221
currently lose_sum: 0.5826494097709656
time_elpased: 1.87
#iterations: 222
currently lose_sum: 0.49278494715690613
time_elpased: 1.917
#iterations: 223
currently lose_sum: 0.5369492173194885
time_elpased: 1.878
#iterations: 224
currently lose_sum: 0.5034456849098206
time_elpased: 1.862
#iterations: 225
currently lose_sum: 0.5308673977851868
time_elpased: 1.885
#iterations: 226
currently lose_sum: 0.5812156796455383
time_elpased: 1.951
#iterations: 227
currently lose_sum: 0.5297956466674805
time_elpased: 1.841
#iterations: 228
currently lose_sum: 0.5956292152404785
time_elpased: 1.891
#iterations: 229
currently lose_sum: 0.525480329990387
time_elpased: 1.927
#iterations: 230
currently lose_sum: 0.526323676109314
time_elpased: 1.891
#iterations: 231
currently lose_sum: 0.5645757913589478
time_elpased: 1.894
#iterations: 232
currently lose_sum: 0.5375932455062866
time_elpased: 1.979
#iterations: 233
currently lose_sum: 0.5191624164581299
time_elpased: 1.882
#iterations: 234
currently lose_sum: 0.542950451374054
time_elpased: 1.877
#iterations: 235
currently lose_sum: 0.5371870398521423
time_elpased: 2.155
#iterations: 236
currently lose_sum: 0.6655453443527222
time_elpased: 1.947
#iterations: 237
currently lose_sum: 0.501356840133667
time_elpased: 1.92
#iterations: 238
currently lose_sum: 0.4998754560947418
time_elpased: 1.935
#iterations: 239
currently lose_sum: 0.6545480489730835
time_elpased: 2.046
start validation test
0.6972
0.762345679012
0.584846093133
0.661902635105
0.69874908063
14.578
#iterations: 240
currently lose_sum: 0.5244383215904236
time_elpased: 1.867
#iterations: 241
currently lose_sum: 0.5335297584533691
time_elpased: 1.871
#iterations: 242
currently lose_sum: 0.5507590770721436
time_elpased: 1.863
#iterations: 243
currently lose_sum: 0.6288133263587952
time_elpased: 1.892
#iterations: 244
currently lose_sum: 0.5243634581565857
time_elpased: 1.89
#iterations: 245
currently lose_sum: 0.5345227122306824
time_elpased: 1.949
#iterations: 246
currently lose_sum: 0.4798947870731354
time_elpased: 1.904
#iterations: 247
currently lose_sum: 0.5001932382583618
time_elpased: 1.817
#iterations: 248
currently lose_sum: 0.5567907691001892
time_elpased: 1.911
#iterations: 249
currently lose_sum: 0.5648889541625977
time_elpased: 1.872
#iterations: 250
currently lose_sum: 0.5387805700302124
time_elpased: 1.893
#iterations: 251
currently lose_sum: 0.6058259010314941
time_elpased: 1.886
#iterations: 252
currently lose_sum: 0.5177996158599854
time_elpased: 1.875
#iterations: 253
currently lose_sum: 0.5495541095733643
time_elpased: 1.882
#iterations: 254
currently lose_sum: 0.5003591775894165
time_elpased: 2.076
#iterations: 255
currently lose_sum: 0.6409522294998169
time_elpased: 1.972
#iterations: 256
currently lose_sum: 0.5507275462150574
time_elpased: 1.836
#iterations: 257
currently lose_sum: 0.5241620540618896
time_elpased: 1.912
#iterations: 258
currently lose_sum: 0.5629876852035522
time_elpased: 1.856
#iterations: 259
currently lose_sum: 0.521917462348938
time_elpased: 1.863
start validation test
0.6764
0.644206549118
0.807419100237
0.716637478109
0.674593572827
14.483
#iterations: 260
currently lose_sum: 0.5391376614570618
time_elpased: 1.889
#iterations: 261
currently lose_sum: 0.4868549406528473
time_elpased: 2.212
#iterations: 262
currently lose_sum: 0.5576317310333252
time_elpased: 1.859
#iterations: 263
currently lose_sum: 0.48152121901512146
time_elpased: 1.845
#iterations: 264
currently lose_sum: 0.6126823425292969
time_elpased: 1.842
#iterations: 265
currently lose_sum: 0.537770688533783
time_elpased: 1.841
#iterations: 266
currently lose_sum: 0.5336295962333679
time_elpased: 2.149
#iterations: 267
currently lose_sum: 0.6677303910255432
time_elpased: 1.845
#iterations: 268
currently lose_sum: 0.5281503200531006
time_elpased: 1.942
#iterations: 269
currently lose_sum: 0.5106160640716553
time_elpased: 1.857
#iterations: 270
currently lose_sum: 0.5173025131225586
time_elpased: 1.894
#iterations: 271
currently lose_sum: 0.537803590297699
time_elpased: 1.865
#iterations: 272
currently lose_sum: 0.5301061868667603
time_elpased: 1.873
#iterations: 273
currently lose_sum: 0.5606809854507446
time_elpased: 1.929
#iterations: 274
currently lose_sum: 0.5148386359214783
time_elpased: 1.93
#iterations: 275
currently lose_sum: 0.5987609624862671
time_elpased: 1.951
#iterations: 276
currently lose_sum: 0.5360943078994751
time_elpased: 1.865
#iterations: 277
currently lose_sum: 0.5226190686225891
time_elpased: 1.872
#iterations: 278
currently lose_sum: 0.5849159955978394
time_elpased: 1.957
#iterations: 279
currently lose_sum: 0.5231092572212219
time_elpased: 1.892
start validation test
0.6808
0.801801801802
0.491712707182
0.609589041096
0.683407042967
14.954
#iterations: 280
currently lose_sum: 0.5031906366348267
time_elpased: 1.864
#iterations: 281
currently lose_sum: 0.6844643950462341
time_elpased: 1.9
#iterations: 282
currently lose_sum: 0.5217134356498718
time_elpased: 2.355
#iterations: 283
currently lose_sum: 0.5685054063796997
time_elpased: 1.838
#iterations: 284
currently lose_sum: 0.48740655183792114
time_elpased: 1.895
#iterations: 285
currently lose_sum: 0.5228875875473022
time_elpased: 1.892
#iterations: 286
currently lose_sum: 0.48414725065231323
time_elpased: 1.85
#iterations: 287
currently lose_sum: 0.5388413071632385
time_elpased: 1.895
#iterations: 288
currently lose_sum: 0.5405209064483643
time_elpased: 2.344
#iterations: 289
currently lose_sum: 0.5862017273902893
time_elpased: 1.849
#iterations: 290
currently lose_sum: 0.47585564851760864
time_elpased: 1.859
#iterations: 291
currently lose_sum: 0.4795266091823578
time_elpased: 1.827
#iterations: 292
currently lose_sum: 0.5899345278739929
time_elpased: 1.902
#iterations: 293
currently lose_sum: 0.568109929561615
time_elpased: 1.881
#iterations: 294
currently lose_sum: 0.5435935854911804
time_elpased: 1.82
#iterations: 295
currently lose_sum: 0.5024912357330322
time_elpased: 1.88
#iterations: 296
currently lose_sum: 0.4525006413459778
time_elpased: 1.922
#iterations: 297
currently lose_sum: 0.47981002926826477
time_elpased: 1.889
#iterations: 298
currently lose_sum: 0.5011795163154602
time_elpased: 1.889
#iterations: 299
currently lose_sum: 0.5405402183532715
time_elpased: 1.877
start validation test
0.7044
0.696428571429
0.738752959747
0.716966679433
0.703926358219
13.978
#iterations: 300
currently lose_sum: 0.49077343940734863
time_elpased: 1.944
#iterations: 301
currently lose_sum: 0.520798921585083
time_elpased: 2.052
#iterations: 302
currently lose_sum: 0.6001728773117065
time_elpased: 1.865
#iterations: 303
currently lose_sum: 0.6232335567474365
time_elpased: 1.932
#iterations: 304
currently lose_sum: 0.5531048774719238
time_elpased: 1.853
#iterations: 305
currently lose_sum: 0.6132447719573975
time_elpased: 1.859
#iterations: 306
currently lose_sum: 0.44639530777931213
time_elpased: 1.864
#iterations: 307
currently lose_sum: 0.5080046653747559
time_elpased: 1.853
#iterations: 308
currently lose_sum: 0.5318282246589661
time_elpased: 1.876
#iterations: 309
currently lose_sum: 0.6222769618034363
time_elpased: 1.858
#iterations: 310
currently lose_sum: 0.5901706218719482
time_elpased: 2.228
#iterations: 311
currently lose_sum: 0.6381389498710632
time_elpased: 1.859
#iterations: 312
currently lose_sum: 0.5015386343002319
time_elpased: 2.082
#iterations: 313
currently lose_sum: 0.5435197949409485
time_elpased: 1.895
#iterations: 314
currently lose_sum: 0.5483769774436951
time_elpased: 2.062
#iterations: 315
currently lose_sum: 0.5577985644340515
time_elpased: 2.07
#iterations: 316
currently lose_sum: 0.5880149006843567
time_elpased: 1.903
#iterations: 317
currently lose_sum: 0.556143045425415
time_elpased: 2.08
#iterations: 318
currently lose_sum: 0.5232976675033569
time_elpased: 1.894
#iterations: 319
currently lose_sum: 0.5017150640487671
time_elpased: 1.88
start validation test
0.6776
0.639951426837
0.831886345699
0.723404255319
0.675472775445
14.649
#iterations: 320
currently lose_sum: 0.4628780484199524
time_elpased: 2.492
#iterations: 321
currently lose_sum: 0.583443284034729
time_elpased: 1.851
#iterations: 322
currently lose_sum: 0.7449000477790833
time_elpased: 1.948
#iterations: 323
currently lose_sum: 0.5242008566856384
time_elpased: 1.98
#iterations: 324
currently lose_sum: 0.4898250102996826
time_elpased: 1.862
#iterations: 325
currently lose_sum: 0.4720746576786041
time_elpased: 1.865
#iterations: 326
currently lose_sum: 0.5907446146011353
time_elpased: 1.873
#iterations: 327
currently lose_sum: 0.4256115257740021
time_elpased: 1.868
#iterations: 328
currently lose_sum: 0.4534512460231781
time_elpased: 2.157
#iterations: 329
currently lose_sum: 0.6052705645561218
time_elpased: 2.256
#iterations: 330
currently lose_sum: 0.5654246211051941
time_elpased: 1.857
#iterations: 331
currently lose_sum: 0.5065035820007324
time_elpased: 1.908
#iterations: 332
currently lose_sum: 0.47660553455352783
time_elpased: 1.897
#iterations: 333
currently lose_sum: 0.5809852480888367
time_elpased: 1.922
#iterations: 334
currently lose_sum: 0.5113019347190857
time_elpased: 1.94
#iterations: 335
currently lose_sum: 0.5471475720405579
time_elpased: 1.846
#iterations: 336
currently lose_sum: 0.4977591633796692
time_elpased: 1.897
#iterations: 337
currently lose_sum: 0.47186052799224854
time_elpased: 1.961
#iterations: 338
currently lose_sum: 0.4856702387332916
time_elpased: 1.87
#iterations: 339
currently lose_sum: 0.42913079261779785
time_elpased: 2.018
start validation test
0.7088
0.702784048157
0.737174427782
0.719568567026
0.708408787289
13.851
#iterations: 340
currently lose_sum: 0.5740037560462952
time_elpased: 1.852
#iterations: 341
currently lose_sum: 0.5382199287414551
time_elpased: 1.908
#iterations: 342
currently lose_sum: 0.5800031423568726
time_elpased: 1.869
#iterations: 343
currently lose_sum: 0.5241291522979736
time_elpased: 1.984
#iterations: 344
currently lose_sum: 0.46804505586624146
time_elpased: 1.865
#iterations: 345
currently lose_sum: 0.5238274931907654
time_elpased: 1.858
#iterations: 346
currently lose_sum: 0.4857906401157379
time_elpased: 2.019
#iterations: 347
currently lose_sum: 0.46035629510879517
time_elpased: 2.096
#iterations: 348
currently lose_sum: 0.46344882249832153
time_elpased: 1.846
#iterations: 349
currently lose_sum: 0.5031217336654663
time_elpased: 1.924
#iterations: 350
currently lose_sum: 0.46825364232063293
time_elpased: 1.873
#iterations: 351
currently lose_sum: 0.5048331618309021
time_elpased: 1.873
#iterations: 352
currently lose_sum: 0.5553571581840515
time_elpased: 1.892
#iterations: 353
currently lose_sum: 0.5102978348731995
time_elpased: 1.932
#iterations: 354
currently lose_sum: 0.5630350708961487
time_elpased: 1.906
#iterations: 355
currently lose_sum: 0.5470998287200928
time_elpased: 1.908
#iterations: 356
currently lose_sum: 0.439473956823349
time_elpased: 1.915
#iterations: 357
currently lose_sum: 0.5189761519432068
time_elpased: 1.923
#iterations: 358
currently lose_sum: 0.569396436214447
time_elpased: 1.977
#iterations: 359
currently lose_sum: 0.47890472412109375
time_elpased: 1.863
start validation test
0.7188
0.775390625
0.626677190213
0.693147097337
0.720070144174
14.160
#iterations: 360
currently lose_sum: 0.45080316066741943
time_elpased: 1.898
#iterations: 361
currently lose_sum: 0.4778846800327301
time_elpased: 2.117
#iterations: 362
currently lose_sum: 0.48838523030281067
time_elpased: 1.876
#iterations: 363
currently lose_sum: 0.5890987515449524
time_elpased: 1.839
#iterations: 364
currently lose_sum: 0.5177662372589111
time_elpased: 1.911
#iterations: 365
currently lose_sum: 0.5479539632797241
time_elpased: 1.862
#iterations: 366
currently lose_sum: 0.5446757674217224
time_elpased: 1.914
#iterations: 367
currently lose_sum: 0.5603262186050415
time_elpased: 1.91
#iterations: 368
currently lose_sum: 0.46948838233947754
time_elpased: 1.829
#iterations: 369
currently lose_sum: 0.4684688448905945
time_elpased: 1.842
#iterations: 370
currently lose_sum: 0.4686942398548126
time_elpased: 2.169
#iterations: 371
currently lose_sum: 0.5551220774650574
time_elpased: 1.889
#iterations: 372
currently lose_sum: 0.5024928450584412
time_elpased: 1.847
#iterations: 373
currently lose_sum: 0.5644578337669373
time_elpased: 1.904
#iterations: 374
currently lose_sum: 0.5041376352310181
time_elpased: 1.97
#iterations: 375
currently lose_sum: 0.5323017239570618
time_elpased: 1.921
#iterations: 376
currently lose_sum: 0.572692334651947
time_elpased: 1.862
#iterations: 377
currently lose_sum: 0.4246140718460083
time_elpased: 1.897
#iterations: 378
currently lose_sum: 0.48572880029678345
time_elpased: 1.849
#iterations: 379
currently lose_sum: 0.5811585783958435
time_elpased: 2.194
start validation test
0.7204
0.761992619926
0.651933701657
0.702679710761
0.721343979783
13.896
#iterations: 380
currently lose_sum: 0.4645008146762848
time_elpased: 1.857
#iterations: 381
currently lose_sum: 0.49810051918029785
time_elpased: 1.871
#iterations: 382
currently lose_sum: 0.48583465814590454
time_elpased: 1.864
#iterations: 383
currently lose_sum: 0.5999172925949097
time_elpased: 1.896
#iterations: 384
currently lose_sum: 0.4829234778881073
time_elpased: 1.915
#iterations: 385
currently lose_sum: 0.5174211263656616
time_elpased: 1.871
#iterations: 386
currently lose_sum: 0.45376431941986084
time_elpased: 1.907
#iterations: 387
currently lose_sum: 0.4849448502063751
time_elpased: 1.929
#iterations: 388
currently lose_sum: 0.5224202871322632
time_elpased: 1.91
#iterations: 389
currently lose_sum: 0.557827353477478
time_elpased: 2.394
#iterations: 390
currently lose_sum: 0.4977603256702423
time_elpased: 1.873
#iterations: 391
currently lose_sum: 0.6115962862968445
time_elpased: 1.873
#iterations: 392
currently lose_sum: 0.492267906665802
time_elpased: 2.286
#iterations: 393
currently lose_sum: 0.4991227984428406
time_elpased: 2.102
#iterations: 394
currently lose_sum: 0.49252432584762573
time_elpased: 1.976
#iterations: 395
currently lose_sum: 0.446003258228302
time_elpased: 1.842
#iterations: 396
currently lose_sum: 0.5498887300491333
time_elpased: 1.88
#iterations: 397
currently lose_sum: 0.5568344593048096
time_elpased: 1.913
#iterations: 398
currently lose_sum: 0.6219226717948914
time_elpased: 1.863
#iterations: 399
currently lose_sum: 0.551214873790741
time_elpased: 1.864
start validation test
0.6724
0.843558282209
0.43409629045
0.573215216258
0.675685614811
15.493
#iterations: 400
currently lose_sum: 0.5737583637237549
time_elpased: 1.953
#iterations: 401
currently lose_sum: 0.456684410572052
time_elpased: 1.859
#iterations: 402
currently lose_sum: 0.43220776319503784
time_elpased: 1.894
#iterations: 403
currently lose_sum: 0.5857804417610168
time_elpased: 1.897
#iterations: 404
currently lose_sum: 0.44892314076423645
time_elpased: 2.15
#iterations: 405
currently lose_sum: 0.464750200510025
time_elpased: 1.837
#iterations: 406
currently lose_sum: 0.5238881707191467
time_elpased: 1.911
#iterations: 407
currently lose_sum: 0.40147194266319275
time_elpased: 1.89
#iterations: 408
currently lose_sum: 0.5179241299629211
time_elpased: 1.869
#iterations: 409
currently lose_sum: 0.3850746154785156
time_elpased: 1.968
#iterations: 410
currently lose_sum: 0.5108363032341003
time_elpased: 1.887
#iterations: 411
currently lose_sum: 0.4603661298751831
time_elpased: 1.883
#iterations: 412
currently lose_sum: 0.45960262417793274
time_elpased: 1.954
#iterations: 413
currently lose_sum: 0.526681125164032
time_elpased: 1.849
#iterations: 414
currently lose_sum: 0.49106118083000183
time_elpased: 1.899
#iterations: 415
currently lose_sum: 0.5517494082450867
time_elpased: 1.866
#iterations: 416
currently lose_sum: 0.46564552187919617
time_elpased: 1.87
#iterations: 417
currently lose_sum: 0.5525082349777222
time_elpased: 1.88
#iterations: 418
currently lose_sum: 0.44343501329421997
time_elpased: 1.849
#iterations: 419
currently lose_sum: 0.5946606993675232
time_elpased: 1.869
start validation test
0.7204
0.764432029795
0.647987371744
0.701409653994
0.721398389846
13.752
#iterations: 420
currently lose_sum: 0.5717803835868835
time_elpased: 1.849
#iterations: 421
currently lose_sum: 0.5230012536048889
time_elpased: 1.904
#iterations: 422
currently lose_sum: 0.5487213134765625
time_elpased: 1.85
#iterations: 423
currently lose_sum: 0.5251761674880981
time_elpased: 1.906
#iterations: 424
currently lose_sum: 0.440134197473526
time_elpased: 1.872
#iterations: 425
currently lose_sum: 0.5459795594215393
time_elpased: 1.938
#iterations: 426
currently lose_sum: 0.5024911761283875
time_elpased: 1.859
#iterations: 427
currently lose_sum: 0.4876236319541931
time_elpased: 2.607
#iterations: 428
currently lose_sum: 0.5802714824676514
time_elpased: 1.867
#iterations: 429
currently lose_sum: 0.5120460391044617
time_elpased: 1.954
#iterations: 430
currently lose_sum: 0.48233506083488464
time_elpased: 1.86
#iterations: 431
currently lose_sum: 0.5246353149414062
time_elpased: 1.882
#iterations: 432
currently lose_sum: 0.5008916258811951
time_elpased: 1.848
#iterations: 433
currently lose_sum: 0.45414137840270996
time_elpased: 2.182
#iterations: 434
currently lose_sum: 0.515954315662384
time_elpased: 1.889
#iterations: 435
currently lose_sum: 0.5466921329498291
time_elpased: 1.881
#iterations: 436
currently lose_sum: 0.4737893342971802
time_elpased: 1.849
#iterations: 437
currently lose_sum: 0.5681025981903076
time_elpased: 1.944
#iterations: 438
currently lose_sum: 0.4758842885494232
time_elpased: 1.863
#iterations: 439
currently lose_sum: 0.5421330332756042
time_elpased: 2.237
start validation test
0.696
0.821292775665
0.511444356748
0.630350194553
0.698544562802
14.919
#iterations: 440
currently lose_sum: 0.5222247242927551
time_elpased: 2.054
#iterations: 441
currently lose_sum: 0.5274611115455627
time_elpased: 1.877
#iterations: 442
currently lose_sum: 0.6589353680610657
time_elpased: 1.859
#iterations: 443
currently lose_sum: 0.5027942061424255
time_elpased: 1.909
#iterations: 444
currently lose_sum: 0.44763344526290894
time_elpased: 1.874
#iterations: 445
currently lose_sum: 0.4776720106601715
time_elpased: 1.869
#iterations: 446
currently lose_sum: 0.5504003167152405
time_elpased: 2.304
#iterations: 447
currently lose_sum: 0.4859504997730255
time_elpased: 1.926
#iterations: 448
currently lose_sum: 0.3897717595100403
time_elpased: 1.923
#iterations: 449
currently lose_sum: 0.4777303636074066
time_elpased: 1.885
#iterations: 450
currently lose_sum: 0.4959184229373932
time_elpased: 1.822
#iterations: 451
currently lose_sum: 0.42762044072151184
time_elpased: 1.905
#iterations: 452
currently lose_sum: 0.4647809565067291
time_elpased: 1.879
#iterations: 453
currently lose_sum: 0.42364105582237244
time_elpased: 1.866
#iterations: 454
currently lose_sum: 0.5358477234840393
time_elpased: 1.868
#iterations: 455
currently lose_sum: 0.4742235243320465
time_elpased: 1.991
#iterations: 456
currently lose_sum: 0.7103900909423828
time_elpased: 1.918
#iterations: 457
currently lose_sum: 0.4888209104537964
time_elpased: 1.883
#iterations: 458
currently lose_sum: 0.5647052526473999
time_elpased: 1.895
#iterations: 459
currently lose_sum: 0.6292439103126526
time_elpased: 1.869
start validation test
0.6424
0.887733887734
0.337016574586
0.488558352403
0.646610477074
18.281
#iterations: 460
currently lose_sum: 0.5082796216011047
time_elpased: 1.831
#iterations: 461
currently lose_sum: 0.5591283440589905
time_elpased: 1.865
#iterations: 462
currently lose_sum: 0.5170378684997559
time_elpased: 1.905
#iterations: 463
currently lose_sum: 0.5162965655326843
time_elpased: 1.855
#iterations: 464
currently lose_sum: 0.5292734503746033
time_elpased: 1.829
#iterations: 465
currently lose_sum: 0.470206618309021
time_elpased: 2.205
#iterations: 466
currently lose_sum: 0.5517061352729797
time_elpased: 1.823
#iterations: 467
currently lose_sum: 0.504582941532135
time_elpased: 1.904
#iterations: 468
currently lose_sum: 0.5874168276786804
time_elpased: 1.91
#iterations: 469
currently lose_sum: 0.5376334190368652
time_elpased: 1.832
#iterations: 470
currently lose_sum: 0.4585381746292114
time_elpased: 1.861
#iterations: 471
currently lose_sum: 0.5207642316818237
time_elpased: 1.909
#iterations: 472
currently lose_sum: 0.5009018778800964
time_elpased: 1.85
#iterations: 473
currently lose_sum: 0.4783421456813812
time_elpased: 1.942
#iterations: 474
currently lose_sum: 0.42452147603034973
time_elpased: 1.866
#iterations: 475
currently lose_sum: 0.5087574124336243
time_elpased: 1.931
#iterations: 476
currently lose_sum: 0.5049797892570496
time_elpased: 1.907
#iterations: 477
currently lose_sum: 0.5849034190177917
time_elpased: 1.871
#iterations: 478
currently lose_sum: 0.4580836892127991
time_elpased: 1.871
#iterations: 479
currently lose_sum: 0.5746983885765076
time_elpased: 1.895
start validation test
0.7108
0.802222222222
0.569850039463
0.666359021689
0.71274334901
14.231
#iterations: 480
currently lose_sum: 0.45360085368156433
time_elpased: 1.89
#iterations: 481
currently lose_sum: 0.589765727519989
time_elpased: 1.907
#iterations: 482
currently lose_sum: 0.5628155469894409
time_elpased: 1.996
#iterations: 483
currently lose_sum: 0.48388782143592834
time_elpased: 1.84
#iterations: 484
currently lose_sum: 0.42981216311454773
time_elpased: 1.859
#iterations: 485
currently lose_sum: 0.45671480894088745
time_elpased: 1.887
#iterations: 486
currently lose_sum: 0.47784483432769775
time_elpased: 1.839
#iterations: 487
currently lose_sum: 0.4906645119190216
time_elpased: 1.865
#iterations: 488
currently lose_sum: 0.5189460515975952
time_elpased: 2.071
#iterations: 489
currently lose_sum: 0.5079534649848938
time_elpased: 1.877
#iterations: 490
currently lose_sum: 0.513356626033783
time_elpased: 2.061
#iterations: 491
currently lose_sum: 0.4842577874660492
time_elpased: 1.865
#iterations: 492
currently lose_sum: 0.46862176060676575
time_elpased: 1.88
#iterations: 493
currently lose_sum: 0.487204372882843
time_elpased: 2.201
#iterations: 494
currently lose_sum: 0.4500831961631775
time_elpased: 2.015
#iterations: 495
currently lose_sum: 0.49912261962890625
time_elpased: 1.887
#iterations: 496
currently lose_sum: 0.3759634494781494
time_elpased: 2.512
#iterations: 497
currently lose_sum: 0.45644882321357727
time_elpased: 1.88
#iterations: 498
currently lose_sum: 0.5565693974494934
time_elpased: 1.909
#iterations: 499
currently lose_sum: 0.5172781348228455
time_elpased: 1.916
start validation test
0.7176
0.705193855157
0.760852407261
0.731966590737
0.717003656996
13.538
#iterations: 500
currently lose_sum: 0.5105279088020325
time_elpased: 1.922
#iterations: 501
currently lose_sum: 0.4418930113315582
time_elpased: 1.864
#iterations: 502
currently lose_sum: 0.5299070477485657
time_elpased: 1.871
#iterations: 503
currently lose_sum: 0.4686468243598938
time_elpased: 1.867
#iterations: 504
currently lose_sum: 0.45194312930107117
time_elpased: 2.295
#iterations: 505
currently lose_sum: 0.474986732006073
time_elpased: 1.997
#iterations: 506
currently lose_sum: 0.5681864023208618
time_elpased: 2.176
#iterations: 507
currently lose_sum: 0.43628600239753723
time_elpased: 1.916
#iterations: 508
currently lose_sum: 0.5954043865203857
time_elpased: 1.965
#iterations: 509
currently lose_sum: 0.4690634608268738
time_elpased: 1.909
#iterations: 510
currently lose_sum: 0.4604315161705017
time_elpased: 1.917
#iterations: 511
currently lose_sum: 0.4462842643260956
time_elpased: 1.838
#iterations: 512
currently lose_sum: 0.49089187383651733
time_elpased: 1.858
#iterations: 513
currently lose_sum: 0.4797477424144745
time_elpased: 1.921
#iterations: 514
currently lose_sum: 0.547995924949646
time_elpased: 1.909
#iterations: 515
currently lose_sum: 0.5210828185081482
time_elpased: 1.89
#iterations: 516
currently lose_sum: 0.4640175700187683
time_elpased: 1.959
#iterations: 517
currently lose_sum: 0.4068712592124939
time_elpased: 1.866
#iterations: 518
currently lose_sum: 0.5352872014045715
time_elpased: 1.938
#iterations: 519
currently lose_sum: 0.540881872177124
time_elpased: 1.875
start validation test
0.7308
0.771480804388
0.666140489345
0.714951291825
0.731691493659
13.530
#iterations: 520
currently lose_sum: 0.49148041009902954
time_elpased: 1.89
#iterations: 521
currently lose_sum: 0.392983078956604
time_elpased: 1.875
#iterations: 522
currently lose_sum: 0.4449999928474426
time_elpased: 1.915
#iterations: 523
currently lose_sum: 0.45905232429504395
time_elpased: 1.928
#iterations: 524
currently lose_sum: 0.4310119152069092
time_elpased: 1.893
#iterations: 525
currently lose_sum: 0.45854660868644714
time_elpased: 2.285
#iterations: 526
currently lose_sum: 0.4611644744873047
time_elpased: 1.885
#iterations: 527
currently lose_sum: 0.47908905148506165
time_elpased: 1.862
#iterations: 528
currently lose_sum: 0.5119304656982422
time_elpased: 1.867
#iterations: 529
currently lose_sum: 0.3956245481967926
time_elpased: 1.823
#iterations: 530
currently lose_sum: 0.45164573192596436
time_elpased: 1.851
#iterations: 531
currently lose_sum: 0.4581214487552643
time_elpased: 1.87
#iterations: 532
currently lose_sum: 0.4334426820278168
time_elpased: 1.874
#iterations: 533
currently lose_sum: 0.4257231056690216
time_elpased: 1.995
#iterations: 534
currently lose_sum: 0.47508352994918823
time_elpased: 2.223
#iterations: 535
currently lose_sum: 0.5208525061607361
time_elpased: 1.898
#iterations: 536
currently lose_sum: 0.5435460805892944
time_elpased: 1.87
#iterations: 537
currently lose_sum: 0.5259900093078613
time_elpased: 1.871
#iterations: 538
currently lose_sum: 0.4422225058078766
time_elpased: 1.977
#iterations: 539
currently lose_sum: 0.46920111775398254
time_elpased: 1.878
start validation test
0.7212
0.69682320442
0.79636937648
0.743278084715
0.72016360146
13.576
#iterations: 540
currently lose_sum: 0.43998536467552185
time_elpased: 1.878
#iterations: 541
currently lose_sum: 0.4213084280490875
time_elpased: 1.864
#iterations: 542
currently lose_sum: 0.3174905776977539
time_elpased: 1.863
#iterations: 543
currently lose_sum: 0.4908442795276642
time_elpased: 1.887
#iterations: 544
currently lose_sum: 0.4451424479484558
time_elpased: 2.175
#iterations: 545
currently lose_sum: 0.38340258598327637
time_elpased: 1.906
#iterations: 546
currently lose_sum: 0.5262992978096008
time_elpased: 1.883
#iterations: 547
currently lose_sum: 0.3899495601654053
time_elpased: 2.12
#iterations: 548
currently lose_sum: 0.3852568566799164
time_elpased: 2.216
#iterations: 549
currently lose_sum: 0.570796549320221
time_elpased: 1.935
#iterations: 550
currently lose_sum: 0.43621811270713806
time_elpased: 1.878
#iterations: 551
currently lose_sum: 0.47610825300216675
time_elpased: 1.946
#iterations: 552
currently lose_sum: 0.48287340998649597
time_elpased: 1.88
#iterations: 553
currently lose_sum: 0.5323982238769531
time_elpased: 1.946
#iterations: 554
currently lose_sum: 0.4461508095264435
time_elpased: 1.886
#iterations: 555
currently lose_sum: 0.46200916171073914
time_elpased: 2.454
#iterations: 556
currently lose_sum: 0.6428073644638062
time_elpased: 1.875
#iterations: 557
currently lose_sum: 0.5262770652770996
time_elpased: 1.833
#iterations: 558
currently lose_sum: 0.48800572752952576
time_elpased: 1.872
#iterations: 559
currently lose_sum: 0.45932814478874207
time_elpased: 1.994
start validation test
0.7288
0.78564500485
0.639305445935
0.704960835509
0.730033907071
13.576
#iterations: 560
currently lose_sum: 0.4744138717651367
time_elpased: 1.895
#iterations: 561
currently lose_sum: 0.4149860441684723
time_elpased: 1.868
#iterations: 562
currently lose_sum: 0.5499088764190674
time_elpased: 1.886
#iterations: 563
currently lose_sum: 0.3865518271923065
time_elpased: 1.84
#iterations: 564
currently lose_sum: 0.4311866760253906
time_elpased: 2.047
#iterations: 565
currently lose_sum: 0.5673031806945801
time_elpased: 1.893
#iterations: 566
currently lose_sum: 0.5737990736961365
time_elpased: 1.824
#iterations: 567
currently lose_sum: 0.36728835105895996
time_elpased: 2.115
#iterations: 568
currently lose_sum: 0.5178994536399841
time_elpased: 1.845
#iterations: 569
currently lose_sum: 0.4975603520870209
time_elpased: 1.869
#iterations: 570
currently lose_sum: 0.4377293288707733
time_elpased: 1.86
#iterations: 571
currently lose_sum: 0.4694848358631134
time_elpased: 1.834
#iterations: 572
currently lose_sum: 0.5284843444824219
time_elpased: 1.853
#iterations: 573
currently lose_sum: 0.5307386517524719
time_elpased: 1.862
#iterations: 574
currently lose_sum: 0.4001334309577942
time_elpased: 1.851
#iterations: 575
currently lose_sum: 0.44929876923561096
time_elpased: 1.882
#iterations: 576
currently lose_sum: 0.4885592758655548
time_elpased: 1.918
#iterations: 577
currently lose_sum: 0.5799909830093384
time_elpased: 1.913
#iterations: 578
currently lose_sum: 0.4641972780227661
time_elpased: 1.941
#iterations: 579
currently lose_sum: 0.6261190176010132
time_elpased: 1.91
start validation test
0.726
0.769944341373
0.655090765588
0.7078891258
0.726977661788
13.755
#iterations: 580
currently lose_sum: 0.48173901438713074
time_elpased: 1.855
#iterations: 581
currently lose_sum: 0.5417580604553223
time_elpased: 1.879
#iterations: 582
currently lose_sum: 0.40272530913352966
time_elpased: 1.998
#iterations: 583
currently lose_sum: 0.4587542712688446
time_elpased: 1.936
#iterations: 584
currently lose_sum: 0.4957791864871979
time_elpased: 1.971
#iterations: 585
currently lose_sum: 0.5190334916114807
time_elpased: 1.898
#iterations: 586
currently lose_sum: 0.46153777837753296
time_elpased: 2.011
#iterations: 587
currently lose_sum: 0.4863077402114868
time_elpased: 1.942
#iterations: 588
currently lose_sum: 0.48284056782722473
time_elpased: 1.997
#iterations: 589
currently lose_sum: 0.4642168879508972
time_elpased: 1.964
#iterations: 590
currently lose_sum: 0.546968400478363
time_elpased: 1.903
#iterations: 591
currently lose_sum: 0.4861890375614166
time_elpased: 1.894
#iterations: 592
currently lose_sum: 0.5179598331451416
time_elpased: 2.304
#iterations: 593
currently lose_sum: 0.4694664478302002
time_elpased: 1.87
#iterations: 594
currently lose_sum: 0.42551299929618835
time_elpased: 2.069
#iterations: 595
currently lose_sum: 0.49713149666786194
time_elpased: 1.887
#iterations: 596
currently lose_sum: 0.45998886227607727
time_elpased: 1.88
#iterations: 597
currently lose_sum: 0.4964641332626343
time_elpased: 1.993
#iterations: 598
currently lose_sum: 0.5685538649559021
time_elpased: 1.865
#iterations: 599
currently lose_sum: 0.45175251364707947
time_elpased: 1.835
start validation test
0.7224
0.807733619764
0.593528018942
0.684258416742
0.724176823745
13.841
acc: 0.724
pre: 0.752
rec: 0.680
F1: 0.714
auc: 0.724
