start to construct computing graph
graph construct over
3802
epochs start
#iterations: 0
currently lose_sum: 0.7032676935195923
time_elpased: 3.249
#iterations: 1
currently lose_sum: 0.6946746706962585
time_elpased: 3.208
#iterations: 2
currently lose_sum: 0.6960991024971008
time_elpased: 3.285
#iterations: 3
currently lose_sum: 0.7061371803283691
time_elpased: 3.193
#iterations: 4
currently lose_sum: 0.6806573271751404
time_elpased: 3.164
#iterations: 5
currently lose_sum: 0.6811790466308594
time_elpased: 3.234
#iterations: 6
currently lose_sum: 0.6868095397949219
time_elpased: 3.189
#iterations: 7
currently lose_sum: 0.6811975836753845
time_elpased: 3.155
#iterations: 8
currently lose_sum: 0.6963086128234863
time_elpased: 3.257
#iterations: 9
currently lose_sum: 0.7063554525375366
time_elpased: 3.334
#iterations: 10
currently lose_sum: 0.7031105160713196
time_elpased: 3.246
#iterations: 11
currently lose_sum: 0.6896654367446899
time_elpased: 3.342
#iterations: 12
currently lose_sum: 0.667457103729248
time_elpased: 3.235
#iterations: 13
currently lose_sum: 0.6840646266937256
time_elpased: 3.282
#iterations: 14
currently lose_sum: 0.6833623647689819
time_elpased: 3.226
#iterations: 15
currently lose_sum: 0.6667810082435608
time_elpased: 3.27
#iterations: 16
currently lose_sum: 0.6879182457923889
time_elpased: 3.2
#iterations: 17
currently lose_sum: 0.6838220357894897
time_elpased: 3.208
#iterations: 18
currently lose_sum: 0.6705476641654968
time_elpased: 3.135
#iterations: 19
currently lose_sum: 0.6924028992652893
time_elpased: 3.275
start validation test
0.5488
0.533816425121
0.871451104101
0.662073097663
0.544085941661
17.088
#iterations: 20
currently lose_sum: 0.6818618774414062
time_elpased: 2.813
#iterations: 21
currently lose_sum: 0.6874441504478455
time_elpased: 2.447
#iterations: 22
currently lose_sum: 0.6658790111541748
time_elpased: 2.485
#iterations: 23
currently lose_sum: 0.692965567111969
time_elpased: 2.563
#iterations: 24
currently lose_sum: 0.6840095520019531
time_elpased: 2.59
#iterations: 25
currently lose_sum: 0.7180072069168091
time_elpased: 2.518
#iterations: 26
currently lose_sum: 0.6774789690971375
time_elpased: 2.525
#iterations: 27
currently lose_sum: 0.7080756425857544
time_elpased: 2.538
#iterations: 28
currently lose_sum: 0.6822012066841125
time_elpased: 2.527
#iterations: 29
currently lose_sum: 0.6676660180091858
time_elpased: 2.511
#iterations: 30
currently lose_sum: 0.6783276200294495
time_elpased: 2.484
#iterations: 31
currently lose_sum: 0.6725884079933167
time_elpased: 2.489
#iterations: 32
currently lose_sum: 0.6679261922836304
time_elpased: 2.462
#iterations: 33
currently lose_sum: 0.6586186289787292
time_elpased: 2.614
#iterations: 34
currently lose_sum: 0.6936553716659546
time_elpased: 2.493
#iterations: 35
currently lose_sum: 0.6716577410697937
time_elpased: 2.483
#iterations: 36
currently lose_sum: 0.678063154220581
time_elpased: 2.546
#iterations: 37
currently lose_sum: 0.6616439819335938
time_elpased: 2.473
#iterations: 38
currently lose_sum: 0.6370377540588379
time_elpased: 2.554
#iterations: 39
currently lose_sum: 0.6462830305099487
time_elpased: 2.585
start validation test
0.5924
0.606319385141
0.559936908517
0.582205822058
0.592874298415
16.647
#iterations: 40
currently lose_sum: 0.6411492824554443
time_elpased: 2.496
#iterations: 41
currently lose_sum: 0.6960399746894836
time_elpased: 2.453
#iterations: 42
currently lose_sum: 0.6529005169868469
time_elpased: 2.644
#iterations: 43
currently lose_sum: 0.6535952687263489
time_elpased: 2.486
#iterations: 44
currently lose_sum: 0.6700118780136108
time_elpased: 2.438
#iterations: 45
currently lose_sum: 0.6681257486343384
time_elpased: 2.538
#iterations: 46
currently lose_sum: 0.6656121611595154
time_elpased: 2.456
#iterations: 47
currently lose_sum: 0.6543423533439636
time_elpased: 2.456
#iterations: 48
currently lose_sum: 0.6532840132713318
time_elpased: 2.641
#iterations: 49
currently lose_sum: 0.6485863327980042
time_elpased: 2.493
#iterations: 50
currently lose_sum: 0.652751624584198
time_elpased: 2.524
#iterations: 51
currently lose_sum: 0.6649941802024841
time_elpased: 2.524
#iterations: 52
currently lose_sum: 0.6391128301620483
time_elpased: 2.482
#iterations: 53
currently lose_sum: 0.6450912356376648
time_elpased: 2.436
#iterations: 54
currently lose_sum: 0.6313264966011047
time_elpased: 2.517
#iterations: 55
currently lose_sum: 0.6514388918876648
time_elpased: 2.637
#iterations: 56
currently lose_sum: 0.6434066295623779
time_elpased: 2.558
#iterations: 57
currently lose_sum: 0.652468740940094
time_elpased: 2.497
#iterations: 58
currently lose_sum: 0.6048785448074341
time_elpased: 2.459
#iterations: 59
currently lose_sum: 0.6500977277755737
time_elpased: 2.437
start validation test
0.582
0.701627486438
0.305993690852
0.4261394838
0.586032559712
16.894
#iterations: 60
currently lose_sum: 0.6317434906959534
time_elpased: 2.505
#iterations: 61
currently lose_sum: 0.6212365031242371
time_elpased: 2.507
#iterations: 62
currently lose_sum: 0.6469086408615112
time_elpased: 2.508
#iterations: 63
currently lose_sum: 0.6161088347434998
time_elpased: 2.45
#iterations: 64
currently lose_sum: 0.6324027180671692
time_elpased: 2.472
#iterations: 65
currently lose_sum: 0.6380266547203064
time_elpased: 2.616
#iterations: 66
currently lose_sum: 0.6898364424705505
time_elpased: 2.556
#iterations: 67
currently lose_sum: 0.6821887493133545
time_elpased: 2.559
#iterations: 68
currently lose_sum: 0.6815850734710693
time_elpased: 2.553
#iterations: 69
currently lose_sum: 0.6525279879570007
time_elpased: 2.506
#iterations: 70
currently lose_sum: 0.646071195602417
time_elpased: 2.496
#iterations: 71
currently lose_sum: 0.6361361145973206
time_elpased: 2.446
#iterations: 72
currently lose_sum: 0.6461533308029175
time_elpased: 2.477
#iterations: 73
currently lose_sum: 0.6842588186264038
time_elpased: 2.474
#iterations: 74
currently lose_sum: 0.665293276309967
time_elpased: 2.506
#iterations: 75
currently lose_sum: 0.7035470604896545
time_elpased: 2.531
#iterations: 76
currently lose_sum: 0.6419265866279602
time_elpased: 2.466
#iterations: 77
currently lose_sum: 0.6700434684753418
time_elpased: 2.508
#iterations: 78
currently lose_sum: 0.5911176204681396
time_elpased: 2.495
#iterations: 79
currently lose_sum: 0.659440279006958
time_elpased: 2.55
start validation test
0.6344
0.625354107649
0.696372239748
0.658955223881
0.633494561432
16.031
#iterations: 80
currently lose_sum: 0.6071262955665588
time_elpased: 2.455
#iterations: 81
currently lose_sum: 0.6337549090385437
time_elpased: 2.486
#iterations: 82
currently lose_sum: 0.6184766888618469
time_elpased: 2.571
#iterations: 83
currently lose_sum: 0.6364733576774597
time_elpased: 2.543
#iterations: 84
currently lose_sum: 0.6227899789810181
time_elpased: 2.443
#iterations: 85
currently lose_sum: 0.627177894115448
time_elpased: 2.51
#iterations: 86
currently lose_sum: 0.5960214138031006
time_elpased: 2.456
#iterations: 87
currently lose_sum: 0.6274048089981079
time_elpased: 2.558
#iterations: 88
currently lose_sum: 0.6366321444511414
time_elpased: 2.493
#iterations: 89
currently lose_sum: 0.6124691963195801
time_elpased: 2.495
#iterations: 90
currently lose_sum: 0.615770697593689
time_elpased: 2.489
#iterations: 91
currently lose_sum: 0.6212899684906006
time_elpased: 2.49
#iterations: 92
currently lose_sum: 0.6387646794319153
time_elpased: 2.582
#iterations: 93
currently lose_sum: 0.6434928178787231
time_elpased: 2.523
#iterations: 94
currently lose_sum: 0.6413513422012329
time_elpased: 2.505
#iterations: 95
currently lose_sum: 0.6265180706977844
time_elpased: 2.501
#iterations: 96
currently lose_sum: 0.5900851488113403
time_elpased: 2.545
#iterations: 97
currently lose_sum: 0.6335618495941162
time_elpased: 2.579
#iterations: 98
currently lose_sum: 0.7417070269584656
time_elpased: 2.49
#iterations: 99
currently lose_sum: 0.6347860097885132
time_elpased: 2.543
start validation test
0.6044
0.712328767123
0.369085173502
0.486233766234
0.607838041296
16.494
#iterations: 100
currently lose_sum: 0.646943986415863
time_elpased: 2.598
#iterations: 101
currently lose_sum: 0.6469948291778564
time_elpased: 2.541
#iterations: 102
currently lose_sum: 0.6252583861351013
time_elpased: 2.493
#iterations: 103
currently lose_sum: 0.6076238751411438
time_elpased: 2.579
#iterations: 104
currently lose_sum: 0.6303553581237793
time_elpased: 2.537
#iterations: 105
currently lose_sum: 0.5954719185829163
time_elpased: 2.487
#iterations: 106
currently lose_sum: 0.6356716752052307
time_elpased: 2.545
#iterations: 107
currently lose_sum: 0.6299370527267456
time_elpased: 2.508
#iterations: 108
currently lose_sum: 0.6249863505363464
time_elpased: 2.457
#iterations: 109
currently lose_sum: 0.6201949119567871
time_elpased: 2.467
#iterations: 110
currently lose_sum: 0.6569897532463074
time_elpased: 2.491
#iterations: 111
currently lose_sum: 0.6021914482116699
time_elpased: 2.448
#iterations: 112
currently lose_sum: 0.5945258140563965
time_elpased: 2.51
#iterations: 113
currently lose_sum: 0.5766702890396118
time_elpased: 2.439
#iterations: 114
currently lose_sum: 0.6363746523857117
time_elpased: 2.532
#iterations: 115
currently lose_sum: 0.6729559898376465
time_elpased: 2.492
#iterations: 116
currently lose_sum: 0.6542884707450867
time_elpased: 2.46
#iterations: 117
currently lose_sum: 0.6169754266738892
time_elpased: 2.47
#iterations: 118
currently lose_sum: 0.6690002679824829
time_elpased: 2.655
#iterations: 119
currently lose_sum: 0.5769360065460205
time_elpased: 2.472
start validation test
0.6568
0.638700947226
0.744479495268
0.687545520757
0.655518968413
15.502
#iterations: 120
currently lose_sum: 0.6137792468070984
time_elpased: 2.593
#iterations: 121
currently lose_sum: 0.6193711757659912
time_elpased: 2.524
#iterations: 122
currently lose_sum: 0.6075135469436646
time_elpased: 2.425
#iterations: 123
currently lose_sum: 0.6061676144599915
time_elpased: 2.522
#iterations: 124
currently lose_sum: 0.5929802656173706
time_elpased: 2.54
#iterations: 125
currently lose_sum: 0.594563901424408
time_elpased: 2.443
#iterations: 126
currently lose_sum: 0.6015169024467468
time_elpased: 2.533
#iterations: 127
currently lose_sum: 0.6105780601501465
time_elpased: 2.461
#iterations: 128
currently lose_sum: 0.5890634655952454
time_elpased: 2.584
#iterations: 129
currently lose_sum: 0.6080471873283386
time_elpased: 2.497
#iterations: 130
currently lose_sum: 0.6622110605239868
time_elpased: 2.438
#iterations: 131
currently lose_sum: 0.619211733341217
time_elpased: 2.456
#iterations: 132
currently lose_sum: 0.603782057762146
time_elpased: 2.493
#iterations: 133
currently lose_sum: 0.5975672006607056
time_elpased: 2.511
#iterations: 134
currently lose_sum: 0.6087651252746582
time_elpased: 2.556
#iterations: 135
currently lose_sum: 0.6143555641174316
time_elpased: 2.484
#iterations: 136
currently lose_sum: 0.6119197607040405
time_elpased: 2.438
#iterations: 137
currently lose_sum: 0.579551100730896
time_elpased: 2.44
#iterations: 138
currently lose_sum: 0.6076024174690247
time_elpased: 2.478
#iterations: 139
currently lose_sum: 0.5820960402488708
time_elpased: 2.49
start validation test
0.664
0.701127819549
0.58832807571
0.639794168096
0.665105596296
15.448
#iterations: 140
currently lose_sum: 0.5957901477813721
time_elpased: 2.478
#iterations: 141
currently lose_sum: 0.6110718250274658
time_elpased: 2.436
#iterations: 142
currently lose_sum: 0.5703789591789246
time_elpased: 2.492
#iterations: 143
currently lose_sum: 0.6140190362930298
time_elpased: 2.469
#iterations: 144
currently lose_sum: 0.6412926316261292
time_elpased: 2.468
#iterations: 145
currently lose_sum: 0.5848113298416138
time_elpased: 2.492
#iterations: 146
currently lose_sum: 0.6084723472595215
time_elpased: 2.508
#iterations: 147
currently lose_sum: 0.6198938488960266
time_elpased: 2.456
#iterations: 148
currently lose_sum: 0.5579174160957336
time_elpased: 2.49
#iterations: 149
currently lose_sum: 0.6216787695884705
time_elpased: 2.439
#iterations: 150
currently lose_sum: 0.5758348107337952
time_elpased: 2.468
#iterations: 151
currently lose_sum: 0.5820702910423279
time_elpased: 2.53
#iterations: 152
currently lose_sum: 0.6549317836761475
time_elpased: 2.462
#iterations: 153
currently lose_sum: 0.5737197995185852
time_elpased: 2.456
#iterations: 154
currently lose_sum: 0.6223008632659912
time_elpased: 2.517
#iterations: 155
currently lose_sum: 0.584716796875
time_elpased: 2.516
#iterations: 156
currently lose_sum: 0.5970458388328552
time_elpased: 2.487
#iterations: 157
currently lose_sum: 0.5574022531509399
time_elpased: 2.471
#iterations: 158
currently lose_sum: 0.6363144516944885
time_elpased: 2.506
#iterations: 159
currently lose_sum: 0.6385534405708313
time_elpased: 2.559
start validation test
0.6652
0.761212121212
0.495268138801
0.600095556617
0.667682770699
15.420
#iterations: 160
currently lose_sum: 0.5217223167419434
time_elpased: 2.599
#iterations: 161
currently lose_sum: 0.560344934463501
time_elpased: 2.566
#iterations: 162
currently lose_sum: 0.5709258317947388
time_elpased: 2.491
#iterations: 163
currently lose_sum: 0.5606794357299805
time_elpased: 2.476
#iterations: 164
currently lose_sum: 0.6038859486579895
time_elpased: 2.495
#iterations: 165
currently lose_sum: 0.5487494468688965
time_elpased: 2.475
#iterations: 166
currently lose_sum: 0.6400825381278992
time_elpased: 2.478
#iterations: 167
currently lose_sum: 0.621027946472168
time_elpased: 2.466
#iterations: 168
currently lose_sum: 0.5817704200744629
time_elpased: 2.533
#iterations: 169
currently lose_sum: 0.5860580801963806
time_elpased: 2.485
#iterations: 170
currently lose_sum: 0.576911985874176
time_elpased: 2.489
#iterations: 171
currently lose_sum: 0.5819514989852905
time_elpased: 2.501
#iterations: 172
currently lose_sum: 0.551868736743927
time_elpased: 2.502
#iterations: 173
currently lose_sum: 0.6601316332817078
time_elpased: 2.418
#iterations: 174
currently lose_sum: 0.4589492082595825
time_elpased: 2.423
#iterations: 175
currently lose_sum: 0.6004273891448975
time_elpased: 2.541
#iterations: 176
currently lose_sum: 0.613207221031189
time_elpased: 2.447
#iterations: 177
currently lose_sum: 0.5818217992782593
time_elpased: 2.442
#iterations: 178
currently lose_sum: 0.512320876121521
time_elpased: 2.506
#iterations: 179
currently lose_sum: 0.5738742351531982
time_elpased: 2.516
start validation test
0.6884
0.690568978956
0.698738170347
0.694629557036
0.688248955303
14.897
#iterations: 180
currently lose_sum: 0.6371002793312073
time_elpased: 2.487
#iterations: 181
currently lose_sum: 0.5607892870903015
time_elpased: 2.504
#iterations: 182
currently lose_sum: 0.5297160148620605
time_elpased: 2.61
#iterations: 183
currently lose_sum: 0.6162672638893127
time_elpased: 2.484
#iterations: 184
currently lose_sum: 0.5821170210838318
time_elpased: 2.478
#iterations: 185
currently lose_sum: 0.5313618183135986
time_elpased: 2.468
#iterations: 186
currently lose_sum: 0.5861852765083313
time_elpased: 2.481
#iterations: 187
currently lose_sum: 0.5872969627380371
time_elpased: 2.579
#iterations: 188
currently lose_sum: 0.5649721622467041
time_elpased: 2.453
#iterations: 189
currently lose_sum: 0.612192690372467
time_elpased: 2.514
#iterations: 190
currently lose_sum: 0.6652195453643799
time_elpased: 2.502
#iterations: 191
currently lose_sum: 0.582369327545166
time_elpased: 2.503
#iterations: 192
currently lose_sum: 0.593852162361145
time_elpased: 2.61
#iterations: 193
currently lose_sum: 0.543342113494873
time_elpased: 2.432
#iterations: 194
currently lose_sum: 0.5203641653060913
time_elpased: 2.501
#iterations: 195
currently lose_sum: 0.51617431640625
time_elpased: 2.458
#iterations: 196
currently lose_sum: 0.5807271003723145
time_elpased: 2.487
#iterations: 197
currently lose_sum: 0.5834190249443054
time_elpased: 2.54
#iterations: 198
currently lose_sum: 0.5937158465385437
time_elpased: 2.539
#iterations: 199
currently lose_sum: 0.5743952989578247
time_elpased: 2.594
start validation test
0.6908
0.700080840744
0.682965299685
0.691417165669
0.690914468024
14.745
#iterations: 200
currently lose_sum: 0.6011152863502502
time_elpased: 2.509
#iterations: 201
currently lose_sum: 0.5734109282493591
time_elpased: 2.479
#iterations: 202
currently lose_sum: 0.5402826070785522
time_elpased: 2.472
#iterations: 203
currently lose_sum: 0.6066806316375732
time_elpased: 2.53
#iterations: 204
currently lose_sum: 0.6049690246582031
time_elpased: 2.512
#iterations: 205
currently lose_sum: 0.5748355388641357
time_elpased: 2.453
#iterations: 206
currently lose_sum: 0.4941113293170929
time_elpased: 2.545
#iterations: 207
currently lose_sum: 0.5524730086326599
time_elpased: 2.501
#iterations: 208
currently lose_sum: 0.5978582501411438
time_elpased: 2.514
#iterations: 209
currently lose_sum: 0.5703286528587341
time_elpased: 2.475
#iterations: 210
currently lose_sum: 0.58500736951828
time_elpased: 2.572
#iterations: 211
currently lose_sum: 0.5753213167190552
time_elpased: 2.617
#iterations: 212
currently lose_sum: 0.5004635453224182
time_elpased: 2.491
#iterations: 213
currently lose_sum: 0.5206784605979919
time_elpased: 2.482
#iterations: 214
currently lose_sum: 0.59529709815979
time_elpased: 2.517
#iterations: 215
currently lose_sum: 0.5564708709716797
time_elpased: 2.546
#iterations: 216
currently lose_sum: 0.5241100192070007
time_elpased: 2.504
#iterations: 217
currently lose_sum: 0.4787046015262604
time_elpased: 2.496
#iterations: 218
currently lose_sum: 0.5614879727363586
time_elpased: 2.493
#iterations: 219
currently lose_sum: 0.6072291731834412
time_elpased: 2.497
start validation test
0.6008
0.855263157895
0.256309148265
0.394417475728
0.605833145561
17.831
#iterations: 220
currently lose_sum: 0.5217404961585999
time_elpased: 2.422
#iterations: 221
currently lose_sum: 0.5454053282737732
time_elpased: 2.445
#iterations: 222
currently lose_sum: 0.527060329914093
time_elpased: 2.523
#iterations: 223
currently lose_sum: 0.5433719754219055
time_elpased: 2.438
#iterations: 224
currently lose_sum: 0.6487606167793274
time_elpased: 2.541
#iterations: 225
currently lose_sum: 0.530048131942749
time_elpased: 2.477
#iterations: 226
currently lose_sum: 0.5223565101623535
time_elpased: 2.511
#iterations: 227
currently lose_sum: 0.5546968579292297
time_elpased: 2.512
#iterations: 228
currently lose_sum: 0.5355326533317566
time_elpased: 2.56
#iterations: 229
currently lose_sum: 0.6787977814674377
time_elpased: 2.48
#iterations: 230
currently lose_sum: 0.5987733602523804
time_elpased: 2.485
#iterations: 231
currently lose_sum: 0.5577762126922607
time_elpased: 2.476
#iterations: 232
currently lose_sum: 0.5604526996612549
time_elpased: 2.465
#iterations: 233
currently lose_sum: 0.5706654787063599
time_elpased: 2.479
#iterations: 234
currently lose_sum: 0.6028055548667908
time_elpased: 2.518
#iterations: 235
currently lose_sum: 0.6226133704185486
time_elpased: 2.482
#iterations: 236
currently lose_sum: 0.5771644115447998
time_elpased: 2.483
#iterations: 237
currently lose_sum: 0.5084020495414734
time_elpased: 2.473
#iterations: 238
currently lose_sum: 0.5159173011779785
time_elpased: 2.49
#iterations: 239
currently lose_sum: 0.5746634602546692
time_elpased: 2.497
start validation test
0.6812
0.781362007168
0.515772870662
0.621377672209
0.683616954812
14.933
#iterations: 240
currently lose_sum: 0.5734454989433289
time_elpased: 2.453
#iterations: 241
currently lose_sum: 0.5515212416648865
time_elpased: 2.509
#iterations: 242
currently lose_sum: 0.6022112965583801
time_elpased: 2.551
#iterations: 243
currently lose_sum: 0.6422432661056519
time_elpased: 2.649
#iterations: 244
currently lose_sum: 0.6023180484771729
time_elpased: 2.637
#iterations: 245
currently lose_sum: 0.4726414978504181
time_elpased: 2.503
#iterations: 246
currently lose_sum: 0.5934446454048157
time_elpased: 2.424
#iterations: 247
currently lose_sum: 0.5032408833503723
time_elpased: 2.48
#iterations: 248
currently lose_sum: 0.5793028473854065
time_elpased: 2.465
#iterations: 249
currently lose_sum: 0.5108961462974548
time_elpased: 2.543
#iterations: 250
currently lose_sum: 0.587638795375824
time_elpased: 2.477
#iterations: 251
currently lose_sum: 0.5596634149551392
time_elpased: 2.49
#iterations: 252
currently lose_sum: 0.578340470790863
time_elpased: 2.439
#iterations: 253
currently lose_sum: 0.5699228644371033
time_elpased: 2.443
#iterations: 254
currently lose_sum: 0.5825204849243164
time_elpased: 2.483
#iterations: 255
currently lose_sum: 0.6214601397514343
time_elpased: 2.542
#iterations: 256
currently lose_sum: 0.5677056312561035
time_elpased: 2.486
#iterations: 257
currently lose_sum: 0.6288859844207764
time_elpased: 2.51
#iterations: 258
currently lose_sum: 0.5820158123970032
time_elpased: 2.496
#iterations: 259
currently lose_sum: 0.5882837772369385
time_elpased: 2.496
start validation test
0.6832
0.639344262295
0.86119873817
0.733870967742
0.680599369085
14.796
#iterations: 260
currently lose_sum: 0.5262178182601929
time_elpased: 2.558
#iterations: 261
currently lose_sum: 0.5379343628883362
time_elpased: 2.472
#iterations: 262
currently lose_sum: 0.6017584204673767
time_elpased: 2.495
#iterations: 263
currently lose_sum: 0.5343058705329895
time_elpased: 2.502
#iterations: 264
currently lose_sum: 0.531273365020752
time_elpased: 2.524
#iterations: 265
currently lose_sum: 0.5613455772399902
time_elpased: 2.501
#iterations: 266
currently lose_sum: 0.5959213376045227
time_elpased: 2.531
#iterations: 267
currently lose_sum: 0.5970606803894043
time_elpased: 2.522
#iterations: 268
currently lose_sum: 0.543326199054718
time_elpased: 2.528
#iterations: 269
currently lose_sum: 0.5657989978790283
time_elpased: 2.553
#iterations: 270
currently lose_sum: 0.6285837292671204
time_elpased: 2.441
#iterations: 271
currently lose_sum: 0.609725296497345
time_elpased: 2.492
#iterations: 272
currently lose_sum: 0.6089614629745483
time_elpased: 2.472
#iterations: 273
currently lose_sum: 0.5885381698608398
time_elpased: 2.543
#iterations: 274
currently lose_sum: 0.5812563896179199
time_elpased: 2.493
#iterations: 275
currently lose_sum: 0.5041816830635071
time_elpased: 2.532
#iterations: 276
currently lose_sum: 0.5658882260322571
time_elpased: 2.539
#iterations: 277
currently lose_sum: 0.574958086013794
time_elpased: 2.525
#iterations: 278
currently lose_sum: 0.5219833254814148
time_elpased: 2.475
#iterations: 279
currently lose_sum: 0.568480908870697
time_elpased: 2.52
start validation test
0.6688
0.778481012658
0.485015772871
0.597667638484
0.671485159163
15.037
#iterations: 280
currently lose_sum: 0.5681907534599304
time_elpased: 2.436
#iterations: 281
currently lose_sum: 0.47963833808898926
time_elpased: 2.488
#iterations: 282
currently lose_sum: 0.5215485095977783
time_elpased: 2.502
#iterations: 283
currently lose_sum: 0.5234930515289307
time_elpased: 2.464
#iterations: 284
currently lose_sum: 0.5516303777694702
time_elpased: 2.502
#iterations: 285
currently lose_sum: 0.585944652557373
time_elpased: 2.69
#iterations: 286
currently lose_sum: 0.5729888677597046
time_elpased: 2.477
#iterations: 287
currently lose_sum: 0.5318155884742737
time_elpased: 2.672
#iterations: 288
currently lose_sum: 0.4738406240940094
time_elpased: 2.52
#iterations: 289
currently lose_sum: 0.6225101351737976
time_elpased: 2.479
#iterations: 290
currently lose_sum: 0.5325118899345398
time_elpased: 2.484
#iterations: 291
currently lose_sum: 0.48618584871292114
time_elpased: 2.454
#iterations: 292
currently lose_sum: 0.5199129581451416
time_elpased: 2.503
#iterations: 293
currently lose_sum: 0.5534781813621521
time_elpased: 2.528
#iterations: 294
currently lose_sum: 0.5339405536651611
time_elpased: 2.464
#iterations: 295
currently lose_sum: 0.5657525658607483
time_elpased: 2.507
#iterations: 296
currently lose_sum: 0.5489118695259094
time_elpased: 2.483
#iterations: 297
currently lose_sum: 0.54716557264328
time_elpased: 2.547
#iterations: 298
currently lose_sum: 0.5475136637687683
time_elpased: 2.469
#iterations: 299
currently lose_sum: 0.6114012002944946
time_elpased: 2.559
start validation test
0.706
0.737310774711
0.652996845426
0.692597239649
0.706774396739
14.299
#iterations: 300
currently lose_sum: 0.529754102230072
time_elpased: 2.461
#iterations: 301
currently lose_sum: 0.5286186337471008
time_elpased: 2.5
#iterations: 302
currently lose_sum: 0.6047413349151611
time_elpased: 2.592
#iterations: 303
currently lose_sum: 0.534267783164978
time_elpased: 2.521
#iterations: 304
currently lose_sum: 0.5354771018028259
time_elpased: 2.487
#iterations: 305
currently lose_sum: 0.5082201361656189
time_elpased: 2.496
#iterations: 306
currently lose_sum: 0.5725268721580505
time_elpased: 2.523
#iterations: 307
currently lose_sum: 0.5334664583206177
time_elpased: 2.541
#iterations: 308
currently lose_sum: 0.5061538219451904
time_elpased: 2.536
#iterations: 309
currently lose_sum: 0.5359542369842529
time_elpased: 2.522
#iterations: 310
currently lose_sum: 0.5644873976707458
time_elpased: 2.554
#iterations: 311
currently lose_sum: 0.5974076986312866
time_elpased: 2.522
#iterations: 312
currently lose_sum: 0.5630882382392883
time_elpased: 2.56
#iterations: 313
currently lose_sum: 0.4740515649318695
time_elpased: 2.522
#iterations: 314
currently lose_sum: 0.45441707968711853
time_elpased: 2.463
#iterations: 315
currently lose_sum: 0.5132612586021423
time_elpased: 2.494
#iterations: 316
currently lose_sum: 0.48366448283195496
time_elpased: 2.498
#iterations: 317
currently lose_sum: 0.6372013688087463
time_elpased: 2.5
#iterations: 318
currently lose_sum: 0.5466395616531372
time_elpased: 2.492
#iterations: 319
currently lose_sum: 0.5101162195205688
time_elpased: 2.498
start validation test
0.7056
0.731304347826
0.663249211356
0.695616211745
0.706218761522
14.078
#iterations: 320
currently lose_sum: 0.542778730392456
time_elpased: 2.585
#iterations: 321
currently lose_sum: 0.528845489025116
time_elpased: 2.463
#iterations: 322
currently lose_sum: 0.502578854560852
time_elpased: 2.505
#iterations: 323
currently lose_sum: 0.5359089970588684
time_elpased: 2.548
#iterations: 324
currently lose_sum: 0.5314794778823853
time_elpased: 2.512
#iterations: 325
currently lose_sum: 0.4663764238357544
time_elpased: 2.603
#iterations: 326
currently lose_sum: 0.5074220299720764
time_elpased: 2.433
#iterations: 327
currently lose_sum: 0.4772494435310364
time_elpased: 2.511
#iterations: 328
currently lose_sum: 0.5219783782958984
time_elpased: 2.555
#iterations: 329
currently lose_sum: 0.5782188177108765
time_elpased: 2.551
#iterations: 330
currently lose_sum: 0.5346477031707764
time_elpased: 2.443
#iterations: 331
currently lose_sum: 0.5086991786956787
time_elpased: 2.546
#iterations: 332
currently lose_sum: 0.5017235279083252
time_elpased: 2.466
#iterations: 333
currently lose_sum: 0.5678253769874573
time_elpased: 2.484
#iterations: 334
currently lose_sum: 0.5290660262107849
time_elpased: 2.538
#iterations: 335
currently lose_sum: 0.4859776198863983
time_elpased: 2.537
#iterations: 336
currently lose_sum: 0.5038716793060303
time_elpased: 2.541
#iterations: 337
currently lose_sum: 0.547406792640686
time_elpased: 2.469
#iterations: 338
currently lose_sum: 0.5622716546058655
time_elpased: 2.472
#iterations: 339
currently lose_sum: 0.49195143580436707
time_elpased: 2.588
start validation test
0.7084
0.76976976977
0.606466876972
0.6784296427
0.709889282642
14.113
#iterations: 340
currently lose_sum: 0.6074246168136597
time_elpased: 2.56
#iterations: 341
currently lose_sum: 0.5011724233627319
time_elpased: 2.57
#iterations: 342
currently lose_sum: 0.5515254735946655
time_elpased: 2.497
#iterations: 343
currently lose_sum: 0.5190795063972473
time_elpased: 2.56
#iterations: 344
currently lose_sum: 0.49781379103660583
time_elpased: 2.516
#iterations: 345
currently lose_sum: 0.5456215143203735
time_elpased: 2.472
#iterations: 346
currently lose_sum: 0.49151256680488586
time_elpased: 2.456
#iterations: 347
currently lose_sum: 0.5385121703147888
time_elpased: 2.466
#iterations: 348
currently lose_sum: 0.5803920030593872
time_elpased: 2.452
#iterations: 349
currently lose_sum: 0.5683978199958801
time_elpased: 2.502
#iterations: 350
currently lose_sum: 0.5167754292488098
time_elpased: 2.497
#iterations: 351
currently lose_sum: 0.532497763633728
time_elpased: 2.453
#iterations: 352
currently lose_sum: 0.534220814704895
time_elpased: 2.516
#iterations: 353
currently lose_sum: 0.5092501640319824
time_elpased: 2.438
#iterations: 354
currently lose_sum: 0.52500319480896
time_elpased: 2.494
#iterations: 355
currently lose_sum: 0.5045212507247925
time_elpased: 2.499
#iterations: 356
currently lose_sum: 0.5351595878601074
time_elpased: 2.539
#iterations: 357
currently lose_sum: 0.5302424430847168
time_elpased: 2.549
#iterations: 358
currently lose_sum: 0.5607109069824219
time_elpased: 2.546
#iterations: 359
currently lose_sum: 0.5343977212905884
time_elpased: 2.445
start validation test
0.7048
0.679782903664
0.790220820189
0.730853391685
0.703551968536
14.209
#iterations: 360
currently lose_sum: 0.48658886551856995
time_elpased: 2.458
#iterations: 361
currently lose_sum: 0.5032428503036499
time_elpased: 2.528
#iterations: 362
currently lose_sum: 0.5111307501792908
time_elpased: 2.516
#iterations: 363
currently lose_sum: 0.5061441659927368
time_elpased: 2.49
#iterations: 364
currently lose_sum: 0.5621209740638733
time_elpased: 2.482
#iterations: 365
currently lose_sum: 0.5327411890029907
time_elpased: 2.462
#iterations: 366
currently lose_sum: 0.547673225402832
time_elpased: 2.529
#iterations: 367
currently lose_sum: 0.5303425788879395
time_elpased: 2.5
#iterations: 368
currently lose_sum: 0.5932590365409851
time_elpased: 2.5
#iterations: 369
currently lose_sum: 0.46816280484199524
time_elpased: 2.509
#iterations: 370
currently lose_sum: 0.5626254081726074
time_elpased: 2.481
#iterations: 371
currently lose_sum: 0.5314589738845825
time_elpased: 2.511
#iterations: 372
currently lose_sum: 0.4681875705718994
time_elpased: 2.488
#iterations: 373
currently lose_sum: 0.5732113718986511
time_elpased: 2.458
#iterations: 374
currently lose_sum: 0.5071807503700256
time_elpased: 2.522
#iterations: 375
currently lose_sum: 0.4889821708202362
time_elpased: 2.466
#iterations: 376
currently lose_sum: 0.495972603559494
time_elpased: 2.486
#iterations: 377
currently lose_sum: 0.56441730260849
time_elpased: 2.484
#iterations: 378
currently lose_sum: 0.44426700472831726
time_elpased: 2.561
#iterations: 379
currently lose_sum: 0.4802471399307251
time_elpased: 2.502
start validation test
0.7204
0.723137254902
0.727129337539
0.725127801809
0.720301681757
13.891
#iterations: 380
currently lose_sum: 0.535976767539978
time_elpased: 2.452
#iterations: 381
currently lose_sum: 0.5436701774597168
time_elpased: 2.469
#iterations: 382
currently lose_sum: 0.5154686570167542
time_elpased: 2.564
#iterations: 383
currently lose_sum: 0.5183757543563843
time_elpased: 2.534
#iterations: 384
currently lose_sum: 0.4695737361907959
time_elpased: 2.518
#iterations: 385
currently lose_sum: 0.5728078484535217
time_elpased: 2.535
#iterations: 386
currently lose_sum: 0.45736709237098694
time_elpased: 2.468
#iterations: 387
currently lose_sum: 0.522918164730072
time_elpased: 2.578
#iterations: 388
currently lose_sum: 0.4176722764968872
time_elpased: 2.543
#iterations: 389
currently lose_sum: 0.553419291973114
time_elpased: 2.5
#iterations: 390
currently lose_sum: 0.5488341450691223
time_elpased: 2.473
#iterations: 391
currently lose_sum: 0.6184190511703491
time_elpased: 2.493
#iterations: 392
currently lose_sum: 0.4791359305381775
time_elpased: 2.457
#iterations: 393
currently lose_sum: 0.5064619183540344
time_elpased: 2.471
#iterations: 394
currently lose_sum: 0.4540412127971649
time_elpased: 2.535
#iterations: 395
currently lose_sum: 0.5074030756950378
time_elpased: 2.442
#iterations: 396
currently lose_sum: 0.5066692233085632
time_elpased: 2.5
#iterations: 397
currently lose_sum: 0.5450945496559143
time_elpased: 2.474
#iterations: 398
currently lose_sum: 0.5101498961448669
time_elpased: 2.559
#iterations: 399
currently lose_sum: 0.46301043033599854
time_elpased: 2.473
start validation test
0.712
0.758003766478
0.634858044164
0.690987124464
0.71312707403
13.932
#iterations: 400
currently lose_sum: 0.5103380084037781
time_elpased: 2.479
#iterations: 401
currently lose_sum: 0.5426058769226074
time_elpased: 2.451
#iterations: 402
currently lose_sum: 0.48141026496887207
time_elpased: 2.53
#iterations: 403
currently lose_sum: 0.5442858338356018
time_elpased: 2.517
#iterations: 404
currently lose_sum: 0.5642918348312378
time_elpased: 2.492
#iterations: 405
currently lose_sum: 0.4767632782459259
time_elpased: 2.53
#iterations: 406
currently lose_sum: 0.4666241705417633
time_elpased: 2.401
#iterations: 407
currently lose_sum: 0.463073194026947
time_elpased: 2.551
#iterations: 408
currently lose_sum: 0.43981659412384033
time_elpased: 2.474
#iterations: 409
currently lose_sum: 0.5391743183135986
time_elpased: 2.418
#iterations: 410
currently lose_sum: 0.4969836473464966
time_elpased: 2.469
#iterations: 411
currently lose_sum: 0.5134828686714172
time_elpased: 2.5
#iterations: 412
currently lose_sum: 0.501335620880127
time_elpased: 2.571
#iterations: 413
currently lose_sum: 0.5502498745918274
time_elpased: 2.511
#iterations: 414
currently lose_sum: 0.5014355182647705
time_elpased: 2.49
#iterations: 415
currently lose_sum: 0.5117616057395935
time_elpased: 2.503
#iterations: 416
currently lose_sum: 0.5248076319694519
time_elpased: 2.553
#iterations: 417
currently lose_sum: 0.5143339037895203
time_elpased: 2.499
#iterations: 418
currently lose_sum: 0.5640091896057129
time_elpased: 2.424
#iterations: 419
currently lose_sum: 0.5621161460876465
time_elpased: 2.498
start validation test
0.7136
0.776553106212
0.61119873817
0.684024713151
0.715096122332
13.927
#iterations: 420
currently lose_sum: 0.5153756737709045
time_elpased: 2.51
#iterations: 421
currently lose_sum: 0.5129320621490479
time_elpased: 2.473
#iterations: 422
currently lose_sum: 0.49236607551574707
time_elpased: 2.428
#iterations: 423
currently lose_sum: 0.5064049363136292
time_elpased: 2.526
#iterations: 424
currently lose_sum: 0.4921940267086029
time_elpased: 2.487
#iterations: 425
currently lose_sum: 0.45111700892448425
time_elpased: 2.492
#iterations: 426
currently lose_sum: 0.5662198066711426
time_elpased: 2.546
#iterations: 427
currently lose_sum: 0.518013596534729
time_elpased: 2.443
#iterations: 428
currently lose_sum: 0.4859689474105835
time_elpased: 2.554
#iterations: 429
currently lose_sum: 0.5440338253974915
time_elpased: 2.48
#iterations: 430
currently lose_sum: 0.4851289391517639
time_elpased: 2.487
#iterations: 431
currently lose_sum: 0.5441281199455261
time_elpased: 2.53
#iterations: 432
currently lose_sum: 0.5281426310539246
time_elpased: 2.589
#iterations: 433
currently lose_sum: 0.5141775012016296
time_elpased: 2.432
#iterations: 434
currently lose_sum: 0.5858127474784851
time_elpased: 2.548
#iterations: 435
currently lose_sum: 0.4297107756137848
time_elpased: 2.446
#iterations: 436
currently lose_sum: 0.5123165845870972
time_elpased: 2.529
#iterations: 437
currently lose_sum: 0.5673854947090149
time_elpased: 2.529
#iterations: 438
currently lose_sum: 0.5096699595451355
time_elpased: 2.536
#iterations: 439
currently lose_sum: 0.4815376400947571
time_elpased: 2.48
start validation test
0.6732
0.861958266453
0.423501577287
0.567953463776
0.676848191241
15.440
#iterations: 440
currently lose_sum: 0.444772869348526
time_elpased: 2.505
#iterations: 441
currently lose_sum: 0.4607591927051544
time_elpased: 2.532
#iterations: 442
currently lose_sum: 0.4959803819656372
time_elpased: 2.542
#iterations: 443
currently lose_sum: 0.4369625747203827
time_elpased: 2.567
#iterations: 444
currently lose_sum: 0.54874187707901
time_elpased: 2.506
#iterations: 445
currently lose_sum: 0.4258776903152466
time_elpased: 2.565
#iterations: 446
currently lose_sum: 0.44659286737442017
time_elpased: 2.558
#iterations: 447
currently lose_sum: 0.4916055202484131
time_elpased: 2.499
#iterations: 448
currently lose_sum: 0.49335628747940063
time_elpased: 2.506
#iterations: 449
currently lose_sum: 0.4734092652797699
time_elpased: 2.493
#iterations: 450
currently lose_sum: 0.5962631106376648
time_elpased: 2.469
#iterations: 451
currently lose_sum: 0.5832467675209045
time_elpased: 2.481
#iterations: 452
currently lose_sum: 0.47581619024276733
time_elpased: 2.497
#iterations: 453
currently lose_sum: 0.4198530912399292
time_elpased: 2.474
#iterations: 454
currently lose_sum: 0.49712496995925903
time_elpased: 2.608
#iterations: 455
currently lose_sum: 0.4930497407913208
time_elpased: 2.469
#iterations: 456
currently lose_sum: 0.49782875180244446
time_elpased: 2.429
#iterations: 457
currently lose_sum: 0.4509548842906952
time_elpased: 2.513
#iterations: 458
currently lose_sum: 0.5231406688690186
time_elpased: 2.465
#iterations: 459
currently lose_sum: 0.4772912859916687
time_elpased: 2.449
start validation test
0.7196
0.732949876746
0.703470031546
0.717907444668
0.719835665124
13.617
#iterations: 460
currently lose_sum: 0.5030403733253479
time_elpased: 2.506
#iterations: 461
currently lose_sum: 0.5186889171600342
time_elpased: 2.477
#iterations: 462
currently lose_sum: 0.5088632106781006
time_elpased: 2.512
#iterations: 463
currently lose_sum: 0.47342848777770996
time_elpased: 2.474
#iterations: 464
currently lose_sum: 0.5366179347038269
time_elpased: 2.501
#iterations: 465
currently lose_sum: 0.537077784538269
time_elpased: 2.477
#iterations: 466
currently lose_sum: 0.47713494300842285
time_elpased: 2.503
#iterations: 467
currently lose_sum: 0.47527438402175903
time_elpased: 2.517
#iterations: 468
currently lose_sum: 0.45554831624031067
time_elpased: 2.466
#iterations: 469
currently lose_sum: 0.4687897562980652
time_elpased: 2.66
#iterations: 470
currently lose_sum: 0.4690718948841095
time_elpased: 2.484
#iterations: 471
currently lose_sum: 0.5028157234191895
time_elpased: 2.512
#iterations: 472
currently lose_sum: 0.5033385157585144
time_elpased: 2.575
#iterations: 473
currently lose_sum: 0.4574391543865204
time_elpased: 2.483
#iterations: 474
currently lose_sum: 0.49473410844802856
time_elpased: 2.522
#iterations: 475
currently lose_sum: 0.4929641783237457
time_elpased: 2.457
#iterations: 476
currently lose_sum: 0.48655205965042114
time_elpased: 2.492
#iterations: 477
currently lose_sum: 0.5299966335296631
time_elpased: 2.705
#iterations: 478
currently lose_sum: 0.534538745880127
time_elpased: 2.449
#iterations: 479
currently lose_sum: 0.44741249084472656
time_elpased: 2.456
start validation test
0.724
0.724727838258
0.735015772871
0.729835552075
0.723839055267
13.604
#iterations: 480
currently lose_sum: 0.5962929725646973
time_elpased: 2.417
#iterations: 481
currently lose_sum: 0.43480080366134644
time_elpased: 2.48
#iterations: 482
currently lose_sum: 0.5126236081123352
time_elpased: 2.42
#iterations: 483
currently lose_sum: 0.4299081563949585
time_elpased: 2.512
#iterations: 484
currently lose_sum: 0.4459611475467682
time_elpased: 2.486
#iterations: 485
currently lose_sum: 0.5852397084236145
time_elpased: 2.543
#iterations: 486
currently lose_sum: 0.4787946045398712
time_elpased: 2.503
#iterations: 487
currently lose_sum: 0.5339087843894958
time_elpased: 2.448
#iterations: 488
currently lose_sum: 0.4687654972076416
time_elpased: 2.476
#iterations: 489
currently lose_sum: 0.49174004793167114
time_elpased: 2.563
#iterations: 490
currently lose_sum: 0.5510603189468384
time_elpased: 2.56
#iterations: 491
currently lose_sum: 0.5202769637107849
time_elpased: 2.537
#iterations: 492
currently lose_sum: 0.4812208414077759
time_elpased: 2.489
#iterations: 493
currently lose_sum: 0.46678435802459717
time_elpased: 2.616
#iterations: 494
currently lose_sum: 0.4238240718841553
time_elpased: 2.456
#iterations: 495
currently lose_sum: 0.45629021525382996
time_elpased: 2.491
#iterations: 496
currently lose_sum: 0.4893278479576111
time_elpased: 2.485
#iterations: 497
currently lose_sum: 0.4426024556159973
time_elpased: 2.518
#iterations: 498
currently lose_sum: 0.5321115255355835
time_elpased: 2.463
#iterations: 499
currently lose_sum: 0.4535588026046753
time_elpased: 2.485
start validation test
0.7196
0.774975751697
0.630126182965
0.695084819487
0.720907247327
13.718
#iterations: 500
currently lose_sum: 0.43550196290016174
time_elpased: 2.45
#iterations: 501
currently lose_sum: 0.49670761823654175
time_elpased: 2.457
#iterations: 502
currently lose_sum: 0.4804460406303406
time_elpased: 2.445
#iterations: 503
currently lose_sum: 0.541957676410675
time_elpased: 2.53
#iterations: 504
currently lose_sum: 0.5093545317649841
time_elpased: 2.481
#iterations: 505
currently lose_sum: 0.4759300947189331
time_elpased: 2.519
#iterations: 506
currently lose_sum: 0.4354652464389801
time_elpased: 2.509
#iterations: 507
currently lose_sum: 0.41316941380500793
time_elpased: 2.474
#iterations: 508
currently lose_sum: 0.4280495345592499
time_elpased: 2.491
#iterations: 509
currently lose_sum: 0.45054125785827637
time_elpased: 2.518
#iterations: 510
currently lose_sum: 0.5621916055679321
time_elpased: 2.556
#iterations: 511
currently lose_sum: 0.5593432784080505
time_elpased: 2.477
#iterations: 512
currently lose_sum: 0.5604963898658752
time_elpased: 2.478
#iterations: 513
currently lose_sum: 0.41746607422828674
time_elpased: 2.518
#iterations: 514
currently lose_sum: 0.5166268944740295
time_elpased: 2.476
#iterations: 515
currently lose_sum: 0.42013055086135864
time_elpased: 2.476
#iterations: 516
currently lose_sum: 0.5288770198822021
time_elpased: 2.504
#iterations: 517
currently lose_sum: 0.43661659955978394
time_elpased: 2.53
#iterations: 518
currently lose_sum: 0.47368377447128296
time_elpased: 2.434
#iterations: 519
currently lose_sum: 0.539711594581604
time_elpased: 2.524
start validation test
0.7176
0.806768558952
0.582807570978
0.67673992674
0.719569369905
13.940
#iterations: 520
currently lose_sum: 0.5053975582122803
time_elpased: 2.551
#iterations: 521
currently lose_sum: 0.5215249061584473
time_elpased: 2.524
#iterations: 522
currently lose_sum: 0.4041045010089874
time_elpased: 2.594
#iterations: 523
currently lose_sum: 0.5253781676292419
time_elpased: 2.494
#iterations: 524
currently lose_sum: 0.5648969411849976
time_elpased: 2.59
#iterations: 525
currently lose_sum: 0.4290974736213684
time_elpased: 2.514
#iterations: 526
currently lose_sum: 0.47276565432548523
time_elpased: 2.499
#iterations: 527
currently lose_sum: 0.47514763474464417
time_elpased: 2.535
#iterations: 528
currently lose_sum: 0.5144026875495911
time_elpased: 2.514
#iterations: 529
currently lose_sum: 0.4957963824272156
time_elpased: 2.482
#iterations: 530
currently lose_sum: 0.4458557963371277
time_elpased: 2.44
#iterations: 531
currently lose_sum: 0.42641597986221313
time_elpased: 2.459
#iterations: 532
currently lose_sum: 0.5300917625427246
time_elpased: 2.511
#iterations: 533
currently lose_sum: 0.40095680952072144
time_elpased: 2.476
#iterations: 534
currently lose_sum: 0.3651714324951172
time_elpased: 2.522
#iterations: 535
currently lose_sum: 0.4667903780937195
time_elpased: 2.595
#iterations: 536
currently lose_sum: 0.49569061398506165
time_elpased: 2.463
#iterations: 537
currently lose_sum: 0.5845962166786194
time_elpased: 2.502
#iterations: 538
currently lose_sum: 0.47457677125930786
time_elpased: 2.482
#iterations: 539
currently lose_sum: 0.44656726717948914
time_elpased: 2.434
start validation test
0.6904
0.839285714286
0.481861198738
0.612224448898
0.693446833135
14.698
#iterations: 540
currently lose_sum: 0.5792396664619446
time_elpased: 2.485
#iterations: 541
currently lose_sum: 0.5440729260444641
time_elpased: 2.568
#iterations: 542
currently lose_sum: 0.5229593515396118
time_elpased: 2.452
#iterations: 543
currently lose_sum: 0.4754517674446106
time_elpased: 2.467
#iterations: 544
currently lose_sum: 0.4779779016971588
time_elpased: 2.501
#iterations: 545
currently lose_sum: 0.46380603313446045
time_elpased: 2.463
#iterations: 546
currently lose_sum: 0.5095058083534241
time_elpased: 2.49
#iterations: 547
currently lose_sum: 0.5876227021217346
time_elpased: 2.493
#iterations: 548
currently lose_sum: 0.5323941707611084
time_elpased: 2.513
#iterations: 549
currently lose_sum: 0.41781967878341675
time_elpased: 2.505
#iterations: 550
currently lose_sum: 0.4347531199455261
time_elpased: 2.558
#iterations: 551
currently lose_sum: 0.48547565937042236
time_elpased: 2.435
#iterations: 552
currently lose_sum: 0.39474695920944214
time_elpased: 2.483
#iterations: 553
currently lose_sum: 0.49742844700813293
time_elpased: 2.514
#iterations: 554
currently lose_sum: 0.5160399079322815
time_elpased: 2.495
#iterations: 555
currently lose_sum: 0.5262135863304138
time_elpased: 2.465
#iterations: 556
currently lose_sum: 0.4798618257045746
time_elpased: 2.551
#iterations: 557
currently lose_sum: 0.5330930352210999
time_elpased: 2.522
#iterations: 558
currently lose_sum: 0.5300843715667725
time_elpased: 2.493
#iterations: 559
currently lose_sum: 0.5116787552833557
time_elpased: 2.502
start validation test
0.7236
0.745950554135
0.690063091483
0.716919295371
0.7240899873
13.432
#iterations: 560
currently lose_sum: 0.4225863516330719
time_elpased: 2.525
#iterations: 561
currently lose_sum: 0.4593936502933502
time_elpased: 2.443
#iterations: 562
currently lose_sum: 0.44365546107292175
time_elpased: 2.466
#iterations: 563
currently lose_sum: 0.4573424458503723
time_elpased: 2.489
#iterations: 564
currently lose_sum: 0.537247896194458
time_elpased: 2.55
#iterations: 565
currently lose_sum: 0.46620482206344604
time_elpased: 2.526
#iterations: 566
currently lose_sum: 0.5352773070335388
time_elpased: 2.585
#iterations: 567
currently lose_sum: 0.517389178276062
time_elpased: 2.574
#iterations: 568
currently lose_sum: 0.44685640931129456
time_elpased: 2.462
#iterations: 569
currently lose_sum: 0.43407878279685974
time_elpased: 2.483
#iterations: 570
currently lose_sum: 0.4325368404388428
time_elpased: 2.505
#iterations: 571
currently lose_sum: 0.4654770791530609
time_elpased: 2.494
#iterations: 572
currently lose_sum: 0.5330774188041687
time_elpased: 2.552
#iterations: 573
currently lose_sum: 0.547126054763794
time_elpased: 2.512
#iterations: 574
currently lose_sum: 0.5337395071983337
time_elpased: 2.501
#iterations: 575
currently lose_sum: 0.4915849566459656
time_elpased: 2.648
#iterations: 576
currently lose_sum: 0.457465261220932
time_elpased: 2.449
#iterations: 577
currently lose_sum: 0.4479639530181885
time_elpased: 2.513
#iterations: 578
currently lose_sum: 0.4331037998199463
time_elpased: 2.583
#iterations: 579
currently lose_sum: 0.4634624421596527
time_elpased: 2.505
start validation test
0.7184
0.786004056795
0.61119873817
0.687666370896
0.719966252202
13.679
#iterations: 580
currently lose_sum: 0.47347328066825867
time_elpased: 2.544
#iterations: 581
currently lose_sum: 0.5120874643325806
time_elpased: 2.489
#iterations: 582
currently lose_sum: 0.4902452528476715
time_elpased: 2.544
#iterations: 583
currently lose_sum: 0.44272980093955994
time_elpased: 2.544
#iterations: 584
currently lose_sum: 0.5405328869819641
time_elpased: 2.446
#iterations: 585
currently lose_sum: 0.5636109113693237
time_elpased: 2.587
#iterations: 586
currently lose_sum: 0.4816155731678009
time_elpased: 2.498
#iterations: 587
currently lose_sum: 0.4424643814563751
time_elpased: 2.451
#iterations: 588
currently lose_sum: 0.4368913769721985
time_elpased: 2.593
#iterations: 589
currently lose_sum: 0.4927389919757843
time_elpased: 2.481
#iterations: 590
currently lose_sum: 0.5210217833518982
time_elpased: 2.553
#iterations: 591
currently lose_sum: 0.4678587019443512
time_elpased: 2.48
#iterations: 592
currently lose_sum: 0.4608094096183777
time_elpased: 2.67
#iterations: 593
currently lose_sum: 0.4746921956539154
time_elpased: 2.535
#iterations: 594
currently lose_sum: 0.42784714698791504
time_elpased: 2.538
#iterations: 595
currently lose_sum: 0.5441071391105652
time_elpased: 2.467
#iterations: 596
currently lose_sum: 0.44237208366394043
time_elpased: 2.496
#iterations: 597
currently lose_sum: 0.48545411229133606
time_elpased: 2.485
#iterations: 598
currently lose_sum: 0.5190160274505615
time_elpased: 2.527
#iterations: 599
currently lose_sum: 0.46327894926071167
time_elpased: 2.5
start validation test
0.7148
0.770204479065
0.6238170347
0.689324618736
0.716129296571
13.674
acc: 0.698
pre: 0.715
rec: 0.672
F1: 0.693
auc: 0.698
