start to construct computing graph
graph construct over
3803
epochs start
#iterations: 0
currently lose_sum: 0.6929174661636353
time_elpased: 4.268
#iterations: 1
currently lose_sum: 0.689481258392334
time_elpased: 4.293
#iterations: 2
currently lose_sum: 0.6983096599578857
time_elpased: 4.201
#iterations: 3
currently lose_sum: 0.6886135935783386
time_elpased: 4.225
#iterations: 4
currently lose_sum: 0.6896370649337769
time_elpased: 4.267
#iterations: 5
currently lose_sum: 0.688698410987854
time_elpased: 4.235
#iterations: 6
currently lose_sum: 0.688204824924469
time_elpased: 4.303
#iterations: 7
currently lose_sum: 0.6900539994239807
time_elpased: 4.253
#iterations: 8
currently lose_sum: 0.6789975762367249
time_elpased: 4.232
#iterations: 9
currently lose_sum: 0.6854904890060425
time_elpased: 4.279
#iterations: 10
currently lose_sum: 0.6950141787528992
time_elpased: 4.249
#iterations: 11
currently lose_sum: 0.6943511366844177
time_elpased: 4.257
#iterations: 12
currently lose_sum: 0.6954257488250732
time_elpased: 4.323
#iterations: 13
currently lose_sum: 0.6713874936103821
time_elpased: 4.244
#iterations: 14
currently lose_sum: 0.6912113428115845
time_elpased: 4.255
#iterations: 15
currently lose_sum: 0.6966407895088196
time_elpased: 4.26
#iterations: 16
currently lose_sum: 0.697467029094696
time_elpased: 4.198
#iterations: 17
currently lose_sum: 0.672303318977356
time_elpased: 4.701
#iterations: 18
currently lose_sum: 0.7094869017601013
time_elpased: 4.285
#iterations: 19
currently lose_sum: 0.6904234290122986
time_elpased: 4.21
start validation test
0.5552
0.563576702215
0.542225730071
0.552695092518
0.555378882878
17.078
#iterations: 20
currently lose_sum: 0.6865292191505432
time_elpased: 3.623
#iterations: 21
currently lose_sum: 0.6875645518302917
time_elpased: 3.589
#iterations: 22
currently lose_sum: 0.6919180154800415
time_elpased: 3.813
#iterations: 23
currently lose_sum: 0.6767212152481079
time_elpased: 3.629
#iterations: 24
currently lose_sum: 0.6758599877357483
time_elpased: 3.604
#iterations: 25
currently lose_sum: 0.6756930351257324
time_elpased: 3.645
#iterations: 26
currently lose_sum: 0.6830302476882935
time_elpased: 3.62
#iterations: 27
currently lose_sum: 0.6813411712646484
time_elpased: 3.563
#iterations: 28
currently lose_sum: 0.6757013201713562
time_elpased: 3.626
#iterations: 29
currently lose_sum: 0.7300015091896057
time_elpased: 3.656
#iterations: 30
currently lose_sum: 0.6751275062561035
time_elpased: 3.685
#iterations: 31
currently lose_sum: 0.7097356915473938
time_elpased: 3.598
#iterations: 32
currently lose_sum: 0.6798070669174194
time_elpased: 3.643
#iterations: 33
currently lose_sum: 0.6911304593086243
time_elpased: 3.592
#iterations: 34
currently lose_sum: 0.6721864342689514
time_elpased: 3.623
#iterations: 35
currently lose_sum: 0.6594712734222412
time_elpased: 3.735
#iterations: 36
currently lose_sum: 0.6759973168373108
time_elpased: 3.608
#iterations: 37
currently lose_sum: 0.6870490908622742
time_elpased: 3.692
#iterations: 38
currently lose_sum: 0.6601282358169556
time_elpased: 3.912
#iterations: 39
currently lose_sum: 0.6837142705917358
time_elpased: 3.586
start validation test
0.5892
0.572551390568
0.747434885556
0.648408079425
0.587018334911
16.818
#iterations: 40
currently lose_sum: 0.6613824963569641
time_elpased: 3.791
#iterations: 41
currently lose_sum: 0.6582248210906982
time_elpased: 3.592
#iterations: 42
currently lose_sum: 0.6571734547615051
time_elpased: 3.565
#iterations: 43
currently lose_sum: 0.6628603935241699
time_elpased: 4.015
#iterations: 44
currently lose_sum: 0.6391549706459045
time_elpased: 3.988
#iterations: 45
currently lose_sum: 0.6803921461105347
time_elpased: 3.624
#iterations: 46
currently lose_sum: 0.638400137424469
time_elpased: 3.597
#iterations: 47
currently lose_sum: 0.6785310506820679
time_elpased: 3.858
#iterations: 48
currently lose_sum: 0.6672636270523071
time_elpased: 3.607
#iterations: 49
currently lose_sum: 0.6449396014213562
time_elpased: 3.718
#iterations: 50
currently lose_sum: 0.653083324432373
time_elpased: 3.634
#iterations: 51
currently lose_sum: 0.6246849894523621
time_elpased: 3.613
#iterations: 52
currently lose_sum: 0.6668437123298645
time_elpased: 3.717
#iterations: 53
currently lose_sum: 0.649478018283844
time_elpased: 3.582
#iterations: 54
currently lose_sum: 0.6387103796005249
time_elpased: 3.652
#iterations: 55
currently lose_sum: 0.6296820640563965
time_elpased: 3.614
#iterations: 56
currently lose_sum: 0.673439621925354
time_elpased: 3.6
#iterations: 57
currently lose_sum: 0.5813608765602112
time_elpased: 3.589
#iterations: 58
currently lose_sum: 0.6613488793373108
time_elpased: 3.594
#iterations: 59
currently lose_sum: 0.647706925868988
time_elpased: 3.596
start validation test
0.6156
0.593179049939
0.768745067088
0.669645926435
0.613488510835
16.194
#iterations: 60
currently lose_sum: 0.6717216372489929
time_elpased: 3.708
#iterations: 61
currently lose_sum: 0.6683449745178223
time_elpased: 3.59
#iterations: 62
currently lose_sum: 0.6887642741203308
time_elpased: 3.599
#iterations: 63
currently lose_sum: 0.6513082385063171
time_elpased: 3.643
#iterations: 64
currently lose_sum: 0.6353012919425964
time_elpased: 3.648
#iterations: 65
currently lose_sum: 0.6510463953018188
time_elpased: 3.62
#iterations: 66
currently lose_sum: 0.6492511630058289
time_elpased: 3.625
#iterations: 67
currently lose_sum: 0.6087216138839722
time_elpased: 3.564
#iterations: 68
currently lose_sum: 0.6760218739509583
time_elpased: 3.702
#iterations: 69
currently lose_sum: 0.6303327083587646
time_elpased: 3.601
#iterations: 70
currently lose_sum: 0.6683349609375
time_elpased: 3.608
#iterations: 71
currently lose_sum: 0.6580525040626526
time_elpased: 3.594
#iterations: 72
currently lose_sum: 0.641025722026825
time_elpased: 3.613
#iterations: 73
currently lose_sum: 0.6325462460517883
time_elpased: 3.626
#iterations: 74
currently lose_sum: 0.6297060251235962
time_elpased: 3.613
#iterations: 75
currently lose_sum: 0.6568255424499512
time_elpased: 3.771
#iterations: 76
currently lose_sum: 0.6635968089103699
time_elpased: 3.608
#iterations: 77
currently lose_sum: 0.654429018497467
time_elpased: 3.621
#iterations: 78
currently lose_sum: 0.6510135531425476
time_elpased: 3.655
#iterations: 79
currently lose_sum: 0.6321921348571777
time_elpased: 3.956
start validation test
0.6268
0.601581508516
0.780584056827
0.679491583648
0.624679700757
16.168
#iterations: 80
currently lose_sum: 0.6295930743217468
time_elpased: 3.635
#iterations: 81
currently lose_sum: 0.5916423201560974
time_elpased: 4.029
#iterations: 82
currently lose_sum: 0.5953726172447205
time_elpased: 3.593
#iterations: 83
currently lose_sum: 0.6214420795440674
time_elpased: 3.683
#iterations: 84
currently lose_sum: 0.6021404266357422
time_elpased: 3.643
#iterations: 85
currently lose_sum: 0.6615133881568909
time_elpased: 3.666
#iterations: 86
currently lose_sum: 0.6170961856842041
time_elpased: 3.597
#iterations: 87
currently lose_sum: 0.6310109496116638
time_elpased: 3.601
#iterations: 88
currently lose_sum: 0.5956667065620422
time_elpased: 3.619
#iterations: 89
currently lose_sum: 0.6504358053207397
time_elpased: 3.573
#iterations: 90
currently lose_sum: 0.6962062120437622
time_elpased: 3.594
#iterations: 91
currently lose_sum: 0.6895501613616943
time_elpased: 3.628
#iterations: 92
currently lose_sum: 0.6247416138648987
time_elpased: 3.656
#iterations: 93
currently lose_sum: 0.6127126216888428
time_elpased: 3.6
#iterations: 94
currently lose_sum: 0.6113454699516296
time_elpased: 4.097
#iterations: 95
currently lose_sum: 0.605372428894043
time_elpased: 3.651
#iterations: 96
currently lose_sum: 0.6949207782745361
time_elpased: 3.657
#iterations: 97
currently lose_sum: 0.592968761920929
time_elpased: 3.61
#iterations: 98
currently lose_sum: 0.6062825918197632
time_elpased: 3.615
#iterations: 99
currently lose_sum: 0.6025686860084534
time_elpased: 3.619
start validation test
0.6288
0.748898678414
0.402525651144
0.523613963039
0.631919759879
15.900
#iterations: 100
currently lose_sum: 0.5903376936912537
time_elpased: 3.614
#iterations: 101
currently lose_sum: 0.6073144674301147
time_elpased: 3.643
#iterations: 102
currently lose_sum: 0.6575578451156616
time_elpased: 3.608
#iterations: 103
currently lose_sum: 0.6045902371406555
time_elpased: 3.593
#iterations: 104
currently lose_sum: 0.5986529588699341
time_elpased: 3.726
#iterations: 105
currently lose_sum: 0.5948967933654785
time_elpased: 3.68
#iterations: 106
currently lose_sum: 0.6038885712623596
time_elpased: 3.571
#iterations: 107
currently lose_sum: 0.60428786277771
time_elpased: 3.576
#iterations: 108
currently lose_sum: 0.6130020618438721
time_elpased: 3.585
#iterations: 109
currently lose_sum: 0.604739785194397
time_elpased: 3.778
#iterations: 110
currently lose_sum: 0.617613673210144
time_elpased: 3.623
#iterations: 111
currently lose_sum: 0.6007547378540039
time_elpased: 3.596
#iterations: 112
currently lose_sum: 0.5668848156929016
time_elpased: 3.918
#iterations: 113
currently lose_sum: 0.5711118578910828
time_elpased: 3.698
#iterations: 114
currently lose_sum: 0.7529659867286682
time_elpased: 3.751
#iterations: 115
currently lose_sum: 0.6082727313041687
time_elpased: 3.581
#iterations: 116
currently lose_sum: 0.641335129737854
time_elpased: 3.896
#iterations: 117
currently lose_sum: 0.5809236168861389
time_elpased: 4.133
#iterations: 118
currently lose_sum: 0.6130093932151794
time_elpased: 3.562
#iterations: 119
currently lose_sum: 0.6093540787696838
time_elpased: 4.124
start validation test
0.6588
0.626065773447
0.81136543015
0.706772086628
0.656696502585
15.664
#iterations: 120
currently lose_sum: 0.605802595615387
time_elpased: 3.564
#iterations: 121
currently lose_sum: 0.6504800319671631
time_elpased: 3.697
#iterations: 122
currently lose_sum: 0.5464878082275391
time_elpased: 3.552
#iterations: 123
currently lose_sum: 0.5632410645484924
time_elpased: 3.8
#iterations: 124
currently lose_sum: 0.6671859622001648
time_elpased: 3.598
#iterations: 125
currently lose_sum: 0.614232063293457
time_elpased: 3.585
#iterations: 126
currently lose_sum: 0.5973439812660217
time_elpased: 3.631
#iterations: 127
currently lose_sum: 0.6302352547645569
time_elpased: 3.632
#iterations: 128
currently lose_sum: 0.5662420392036438
time_elpased: 3.59
#iterations: 129
currently lose_sum: 0.6205036640167236
time_elpased: 3.555
#iterations: 130
currently lose_sum: 0.5566560626029968
time_elpased: 3.592
#iterations: 131
currently lose_sum: 0.6352484822273254
time_elpased: 3.614
#iterations: 132
currently lose_sum: 0.5643380880355835
time_elpased: 3.636
#iterations: 133
currently lose_sum: 0.6996285915374756
time_elpased: 3.781
#iterations: 134
currently lose_sum: 0.5927181243896484
time_elpased: 3.651
#iterations: 135
currently lose_sum: 0.6042322516441345
time_elpased: 3.684
#iterations: 136
currently lose_sum: 0.6062881350517273
time_elpased: 3.601
#iterations: 137
currently lose_sum: 0.5599712133407593
time_elpased: 3.593
#iterations: 138
currently lose_sum: 0.7844592332839966
time_elpased: 3.671
#iterations: 139
currently lose_sum: 0.5479834675788879
time_elpased: 3.624
start validation test
0.6776
0.657984921179
0.757695343331
0.70432868672
0.676495684642
14.750
#iterations: 140
currently lose_sum: 0.6031033992767334
time_elpased: 3.605
#iterations: 141
currently lose_sum: 0.6455500721931458
time_elpased: 3.8
#iterations: 142
currently lose_sum: 0.6359730362892151
time_elpased: 3.613
#iterations: 143
currently lose_sum: 0.577741265296936
time_elpased: 3.677
#iterations: 144
currently lose_sum: 0.7334657311439514
time_elpased: 3.696
#iterations: 145
currently lose_sum: 0.5723327398300171
time_elpased: 3.603
#iterations: 146
currently lose_sum: 0.5703598856925964
time_elpased: 3.642
#iterations: 147
currently lose_sum: 0.5564839243888855
time_elpased: 3.597
#iterations: 148
currently lose_sum: 0.5332322716712952
time_elpased: 3.621
#iterations: 149
currently lose_sum: 0.6169984340667725
time_elpased: 3.615
#iterations: 150
currently lose_sum: 0.6776622533798218
time_elpased: 3.972
#iterations: 151
currently lose_sum: 0.5739446878433228
time_elpased: 3.721
#iterations: 152
currently lose_sum: 0.5868045091629028
time_elpased: 3.577
#iterations: 153
currently lose_sum: 0.6000150442123413
time_elpased: 3.735
#iterations: 154
currently lose_sum: 0.5753948092460632
time_elpased: 3.707
#iterations: 155
currently lose_sum: 0.5771974325180054
time_elpased: 3.627
#iterations: 156
currently lose_sum: 0.538847029209137
time_elpased: 3.576
#iterations: 157
currently lose_sum: 0.5751742720603943
time_elpased: 3.674
#iterations: 158
currently lose_sum: 0.6419796943664551
time_elpased: 3.679
#iterations: 159
currently lose_sum: 0.5810129046440125
time_elpased: 3.578
start validation test
0.688
0.749743589744
0.576953433307
0.652096342551
0.689531055664
14.714
#iterations: 160
currently lose_sum: 0.54819655418396
time_elpased: 3.663
#iterations: 161
currently lose_sum: 0.5675063133239746
time_elpased: 3.979
#iterations: 162
currently lose_sum: 0.5721914172172546
time_elpased: 3.72
#iterations: 163
currently lose_sum: 0.6533524990081787
time_elpased: 3.658
#iterations: 164
currently lose_sum: 0.5287527441978455
time_elpased: 3.6
#iterations: 165
currently lose_sum: 0.6111882328987122
time_elpased: 3.868
#iterations: 166
currently lose_sum: 0.5417681932449341
time_elpased: 3.716
#iterations: 167
currently lose_sum: 0.7407373189926147
time_elpased: 3.634
#iterations: 168
currently lose_sum: 0.6192021369934082
time_elpased: 3.592
#iterations: 169
currently lose_sum: 0.5650263428688049
time_elpased: 3.962
#iterations: 170
currently lose_sum: 0.5311903357505798
time_elpased: 3.597
#iterations: 171
currently lose_sum: 0.5260756015777588
time_elpased: 3.813
#iterations: 172
currently lose_sum: 0.4698716104030609
time_elpased: 3.606
#iterations: 173
currently lose_sum: 0.5164238810539246
time_elpased: 3.679
#iterations: 174
currently lose_sum: 0.6318093538284302
time_elpased: 3.602
#iterations: 175
currently lose_sum: 0.5569043159484863
time_elpased: 3.599
#iterations: 176
currently lose_sum: 0.5080090165138245
time_elpased: 3.614
#iterations: 177
currently lose_sum: 0.6656749248504639
time_elpased: 3.604
#iterations: 178
currently lose_sum: 0.5547019243240356
time_elpased: 3.627
#iterations: 179
currently lose_sum: 0.5779564380645752
time_elpased: 3.686
start validation test
0.6492
0.806603773585
0.404893449092
0.539148712559
0.652568379047
15.459
#iterations: 180
currently lose_sum: 0.5807674527168274
time_elpased: 3.63
#iterations: 181
currently lose_sum: 0.5926340818405151
time_elpased: 3.581
#iterations: 182
currently lose_sum: 0.4974074959754944
time_elpased: 4.288
#iterations: 183
currently lose_sum: 0.71840500831604
time_elpased: 3.787
#iterations: 184
currently lose_sum: 0.5713448524475098
time_elpased: 3.609
#iterations: 185
currently lose_sum: 0.5792333483695984
time_elpased: 3.635
#iterations: 186
currently lose_sum: 0.5097601413726807
time_elpased: 3.717
#iterations: 187
currently lose_sum: 0.5509470105171204
time_elpased: 3.59
#iterations: 188
currently lose_sum: 0.5492191314697266
time_elpased: 3.641
#iterations: 189
currently lose_sum: 0.5517308115959167
time_elpased: 3.632
#iterations: 190
currently lose_sum: 0.5131289958953857
time_elpased: 3.575
#iterations: 191
currently lose_sum: 0.6568304300308228
time_elpased: 3.606
#iterations: 192
currently lose_sum: 0.5340026021003723
time_elpased: 3.787
#iterations: 193
currently lose_sum: 0.6160549521446228
time_elpased: 3.657
#iterations: 194
currently lose_sum: 0.5831225514411926
time_elpased: 3.712
#iterations: 195
currently lose_sum: 0.5675101280212402
time_elpased: 3.603
#iterations: 196
currently lose_sum: 0.5128753781318665
time_elpased: 3.72
#iterations: 197
currently lose_sum: 0.5388827323913574
time_elpased: 3.562
#iterations: 198
currently lose_sum: 0.659262478351593
time_elpased: 3.633
#iterations: 199
currently lose_sum: 0.45617207884788513
time_elpased: 3.619
start validation test
0.6972
0.765625
0.580110497238
0.660080826224
0.698814372706
14.444
#iterations: 200
currently lose_sum: 0.5842031836509705
time_elpased: 3.65
#iterations: 201
currently lose_sum: 0.54770427942276
time_elpased: 3.819
#iterations: 202
currently lose_sum: 0.5989573001861572
time_elpased: 3.555
#iterations: 203
currently lose_sum: 0.5515335202217102
time_elpased: 3.647
#iterations: 204
currently lose_sum: 0.5335608720779419
time_elpased: 3.727
#iterations: 205
currently lose_sum: 0.5944458842277527
time_elpased: 3.574
#iterations: 206
currently lose_sum: 0.5713475942611694
time_elpased: 3.656
#iterations: 207
currently lose_sum: 0.5513725280761719
time_elpased: 3.585
#iterations: 208
currently lose_sum: 0.5405697822570801
time_elpased: 3.975
#iterations: 209
currently lose_sum: 0.6754599213600159
time_elpased: 3.698
#iterations: 210
currently lose_sum: 0.5495433211326599
time_elpased: 3.614
#iterations: 211
currently lose_sum: 0.5393179059028625
time_elpased: 3.652
#iterations: 212
currently lose_sum: 0.5121855139732361
time_elpased: 3.573
#iterations: 213
currently lose_sum: 0.5214949250221252
time_elpased: 3.596
#iterations: 214
currently lose_sum: 0.5248243808746338
time_elpased: 3.612
#iterations: 215
currently lose_sum: 0.526669442653656
time_elpased: 3.622
#iterations: 216
currently lose_sum: 0.59694904088974
time_elpased: 3.621
#iterations: 217
currently lose_sum: 0.6178262233734131
time_elpased: 3.6
#iterations: 218
currently lose_sum: 0.5719321370124817
time_elpased: 3.601
#iterations: 219
currently lose_sum: 0.5599170923233032
time_elpased: 3.823
start validation test
0.6516
0.83110367893
0.39226519337
0.532975871314
0.655175581276
15.708
#iterations: 220
currently lose_sum: 0.6217862963676453
time_elpased: 3.715
#iterations: 221
currently lose_sum: 0.5902140736579895
time_elpased: 3.613
#iterations: 222
currently lose_sum: 0.4639531672000885
time_elpased: 3.654
#iterations: 223
currently lose_sum: 0.6226609945297241
time_elpased: 3.586
#iterations: 224
currently lose_sum: 0.4796798825263977
time_elpased: 3.619
#iterations: 225
currently lose_sum: 0.7389338612556458
time_elpased: 3.577
#iterations: 226
currently lose_sum: 0.5499804019927979
time_elpased: 3.633
#iterations: 227
currently lose_sum: 0.5030013918876648
time_elpased: 3.693
#iterations: 228
currently lose_sum: 0.553231954574585
time_elpased: 3.659
#iterations: 229
currently lose_sum: 0.5282846093177795
time_elpased: 3.643
#iterations: 230
currently lose_sum: 0.5177304744720459
time_elpased: 3.642
#iterations: 231
currently lose_sum: 0.6250498294830322
time_elpased: 3.607
#iterations: 232
currently lose_sum: 0.5295031666755676
time_elpased: 3.73
#iterations: 233
currently lose_sum: 0.542300283908844
time_elpased: 3.617
#iterations: 234
currently lose_sum: 0.5023608207702637
time_elpased: 3.647
#iterations: 235
currently lose_sum: 0.4943070709705353
time_elpased: 3.907
#iterations: 236
currently lose_sum: 0.6304085850715637
time_elpased: 3.648
#iterations: 237
currently lose_sum: 0.5593221783638
time_elpased: 3.631
#iterations: 238
currently lose_sum: 0.48579010367393494
time_elpased: 3.676
#iterations: 239
currently lose_sum: 0.5508180260658264
time_elpased: 3.863
start validation test
0.7112
0.782969885774
0.595106550908
0.676233183857
0.712800639606
14.139
#iterations: 240
currently lose_sum: 0.5182334184646606
time_elpased: 3.56
#iterations: 241
currently lose_sum: 0.5296576619148254
time_elpased: 3.611
#iterations: 242
currently lose_sum: 0.49894455075263977
time_elpased: 3.609
#iterations: 243
currently lose_sum: 0.7090049982070923
time_elpased: 3.573
#iterations: 244
currently lose_sum: 0.499958336353302
time_elpased: 3.633
#iterations: 245
currently lose_sum: 0.521003782749176
time_elpased: 3.695
#iterations: 246
currently lose_sum: 0.49263808131217957
time_elpased: 3.603
#iterations: 247
currently lose_sum: 0.5483962297439575
time_elpased: 3.591
#iterations: 248
currently lose_sum: 0.5583714842796326
time_elpased: 3.6
#iterations: 249
currently lose_sum: 0.5183632373809814
time_elpased: 3.604
#iterations: 250
currently lose_sum: 0.5277013182640076
time_elpased: 3.648
#iterations: 251
currently lose_sum: 0.5769171714782715
time_elpased: 3.649
#iterations: 252
currently lose_sum: 0.550073504447937
time_elpased: 3.651
#iterations: 253
currently lose_sum: 0.4967709481716156
time_elpased: 3.659
#iterations: 254
currently lose_sum: 0.4550855755805969
time_elpased: 3.846
#iterations: 255
currently lose_sum: 0.7040798664093018
time_elpased: 3.679
#iterations: 256
currently lose_sum: 0.5179682970046997
time_elpased: 3.6
#iterations: 257
currently lose_sum: 0.5067135095596313
time_elpased: 3.696
#iterations: 258
currently lose_sum: 0.5732184648513794
time_elpased: 3.674
#iterations: 259
currently lose_sum: 0.5262969136238098
time_elpased: 3.595
start validation test
0.7188
0.761111111111
0.648776637727
0.700468683426
0.719765447817
13.727
#iterations: 260
currently lose_sum: 0.6635087728500366
time_elpased: 3.665
#iterations: 261
currently lose_sum: 0.45912277698516846
time_elpased: 3.979
#iterations: 262
currently lose_sum: 0.6972207427024841
time_elpased: 3.619
#iterations: 263
currently lose_sum: 0.5195456743240356
time_elpased: 3.632
#iterations: 264
currently lose_sum: 0.5364758372306824
time_elpased: 3.617
#iterations: 265
currently lose_sum: 0.5565568804740906
time_elpased: 3.623
#iterations: 266
currently lose_sum: 0.5492822527885437
time_elpased: 3.917
#iterations: 267
currently lose_sum: 0.49094173312187195
time_elpased: 3.71
#iterations: 268
currently lose_sum: 0.6370372772216797
time_elpased: 3.734
#iterations: 269
currently lose_sum: 0.4988202750682831
time_elpased: 3.608
#iterations: 270
currently lose_sum: 0.5436373949050903
time_elpased: 3.62
#iterations: 271
currently lose_sum: 0.5294479131698608
time_elpased: 3.593
#iterations: 272
currently lose_sum: 0.46855780482292175
time_elpased: 3.649
#iterations: 273
currently lose_sum: 0.6225306987762451
time_elpased: 3.658
#iterations: 274
currently lose_sum: 0.5155177116394043
time_elpased: 3.673
#iterations: 275
currently lose_sum: 0.5483113527297974
time_elpased: 3.672
#iterations: 276
currently lose_sum: 0.5323445200920105
time_elpased: 3.603
#iterations: 277
currently lose_sum: 0.5033226013183594
time_elpased: 3.642
#iterations: 278
currently lose_sum: 0.5357202291488647
time_elpased: 3.717
#iterations: 279
currently lose_sum: 0.4912557899951935
time_elpased: 3.592
start validation test
0.7092
0.794117647059
0.575374901342
0.667276887872
0.711045114904
14.145
#iterations: 280
currently lose_sum: 0.5078452825546265
time_elpased: 3.619
#iterations: 281
currently lose_sum: 0.7982627749443054
time_elpased: 3.663
#iterations: 282
currently lose_sum: 0.5056078433990479
time_elpased: 4.122
#iterations: 283
currently lose_sum: 0.5305750370025635
time_elpased: 3.646
#iterations: 284
currently lose_sum: 0.46854206919670105
time_elpased: 3.577
#iterations: 285
currently lose_sum: 0.6385584473609924
time_elpased: 3.567
#iterations: 286
currently lose_sum: 0.4704396724700928
time_elpased: 3.594
#iterations: 287
currently lose_sum: 0.5547247529029846
time_elpased: 3.638
#iterations: 288
currently lose_sum: 0.520723283290863
time_elpased: 4.184
#iterations: 289
currently lose_sum: 0.5574949383735657
time_elpased: 3.622
#iterations: 290
currently lose_sum: 0.5294653177261353
time_elpased: 3.655
#iterations: 291
currently lose_sum: 0.4664234220981598
time_elpased: 3.631
#iterations: 292
currently lose_sum: 0.6108008623123169
time_elpased: 3.632
#iterations: 293
currently lose_sum: 0.5867488980293274
time_elpased: 3.592
#iterations: 294
currently lose_sum: 0.5343694090843201
time_elpased: 3.625
#iterations: 295
currently lose_sum: 0.4972746968269348
time_elpased: 3.633
#iterations: 296
currently lose_sum: 0.495362788438797
time_elpased: 3.639
#iterations: 297
currently lose_sum: 0.4558565020561218
time_elpased: 3.599
#iterations: 298
currently lose_sum: 0.48454275727272034
time_elpased: 3.577
#iterations: 299
currently lose_sum: 0.5271502137184143
time_elpased: 3.583
start validation test
0.6956
0.826030927835
0.50591949487
0.627508565835
0.698215221887
14.995
#iterations: 300
currently lose_sum: 0.47213634848594666
time_elpased: 3.577
#iterations: 301
currently lose_sum: 0.5948511958122253
time_elpased: 3.764
#iterations: 302
currently lose_sum: 0.5839586853981018
time_elpased: 3.616
#iterations: 303
currently lose_sum: 0.5863494873046875
time_elpased: 3.665
#iterations: 304
currently lose_sum: 0.5614052414894104
time_elpased: 3.622
#iterations: 305
currently lose_sum: 0.6583278179168701
time_elpased: 3.606
#iterations: 306
currently lose_sum: 0.3713473975658417
time_elpased: 3.601
#iterations: 307
currently lose_sum: 0.5143364667892456
time_elpased: 3.601
#iterations: 308
currently lose_sum: 0.5923067331314087
time_elpased: 3.61
#iterations: 309
currently lose_sum: 0.543392539024353
time_elpased: 3.595
#iterations: 310
currently lose_sum: 0.5271520018577576
time_elpased: 3.978
#iterations: 311
currently lose_sum: 0.6972209811210632
time_elpased: 3.665
#iterations: 312
currently lose_sum: 0.4906599521636963
time_elpased: 3.791
#iterations: 313
currently lose_sum: 0.5601343512535095
time_elpased: 3.665
#iterations: 314
currently lose_sum: 0.5016869306564331
time_elpased: 3.838
#iterations: 315
currently lose_sum: 0.5263006687164307
time_elpased: 3.782
#iterations: 316
currently lose_sum: 0.5258450508117676
time_elpased: 3.646
#iterations: 317
currently lose_sum: 0.5195949673652649
time_elpased: 3.886
#iterations: 318
currently lose_sum: 0.5197112560272217
time_elpased: 3.699
#iterations: 319
currently lose_sum: 0.4636850655078888
time_elpased: 3.684
start validation test
0.6848
0.638519375361
0.87134964483
0.736982643525
0.682227944881
14.626
#iterations: 320
currently lose_sum: 0.4193284511566162
time_elpased: 4.194
#iterations: 321
currently lose_sum: 0.5424712896347046
time_elpased: 3.655
#iterations: 322
currently lose_sum: 0.7621206045150757
time_elpased: 3.745
#iterations: 323
currently lose_sum: 0.5015343427658081
time_elpased: 3.699
#iterations: 324
currently lose_sum: 0.5333116054534912
time_elpased: 3.643
#iterations: 325
currently lose_sum: 0.4958704113960266
time_elpased: 3.592
#iterations: 326
currently lose_sum: 0.544219970703125
time_elpased: 3.627
#iterations: 327
currently lose_sum: 0.44034671783447266
time_elpased: 3.607
#iterations: 328
currently lose_sum: 0.4899060130119324
time_elpased: 3.912
#iterations: 329
currently lose_sum: 0.5654466152191162
time_elpased: 4.014
#iterations: 330
currently lose_sum: 0.517400324344635
time_elpased: 3.584
#iterations: 331
currently lose_sum: 0.5546861886978149
time_elpased: 3.685
#iterations: 332
currently lose_sum: 0.4617752730846405
time_elpased: 3.633
#iterations: 333
currently lose_sum: 0.5192649364471436
time_elpased: 3.65
#iterations: 334
currently lose_sum: 0.5035561323165894
time_elpased: 3.602
#iterations: 335
currently lose_sum: 0.5462303757667542
time_elpased: 3.582
#iterations: 336
currently lose_sum: 0.4821445345878601
time_elpased: 3.636
#iterations: 337
currently lose_sum: 0.4024113416671753
time_elpased: 3.773
#iterations: 338
currently lose_sum: 0.48221275210380554
time_elpased: 3.616
#iterations: 339
currently lose_sum: 0.39776015281677246
time_elpased: 3.738
start validation test
0.73
0.721556886228
0.760852407261
0.740683826354
0.729574622122
13.414
#iterations: 340
currently lose_sum: 0.6063855886459351
time_elpased: 3.694
#iterations: 341
currently lose_sum: 0.6169254183769226
time_elpased: 3.683
#iterations: 342
currently lose_sum: 0.5863088369369507
time_elpased: 3.663
#iterations: 343
currently lose_sum: 0.5393479466438293
time_elpased: 3.672
#iterations: 344
currently lose_sum: 0.42394959926605225
time_elpased: 3.567
#iterations: 345
currently lose_sum: 0.5360535979270935
time_elpased: 3.606
#iterations: 346
currently lose_sum: 0.4677501320838928
time_elpased: 3.772
#iterations: 347
currently lose_sum: 0.4176184833049774
time_elpased: 3.81
#iterations: 348
currently lose_sum: 0.4455903172492981
time_elpased: 3.64
#iterations: 349
currently lose_sum: 0.4820571541786194
time_elpased: 3.713
#iterations: 350
currently lose_sum: 0.5253527760505676
time_elpased: 3.549
#iterations: 351
currently lose_sum: 0.442415326833725
time_elpased: 3.636
#iterations: 352
currently lose_sum: 0.4767392873764038
time_elpased: 3.585
#iterations: 353
currently lose_sum: 0.5004309415817261
time_elpased: 3.654
#iterations: 354
currently lose_sum: 0.4908081889152527
time_elpased: 3.595
#iterations: 355
currently lose_sum: 0.732900083065033
time_elpased: 3.622
#iterations: 356
currently lose_sum: 0.462697297334671
time_elpased: 3.639
#iterations: 357
currently lose_sum: 0.5226016044616699
time_elpased: 3.603
#iterations: 358
currently lose_sum: 0.7203872799873352
time_elpased: 3.72
#iterations: 359
currently lose_sum: 0.467233806848526
time_elpased: 3.635
start validation test
0.722
0.715037593985
0.750591949487
0.732383519446
0.721605788207
13.371
#iterations: 360
currently lose_sum: 0.4442964494228363
time_elpased: 3.6
#iterations: 361
currently lose_sum: 0.4681142568588257
time_elpased: 3.875
#iterations: 362
currently lose_sum: 0.49987706542015076
time_elpased: 3.631
#iterations: 363
currently lose_sum: 0.497903972864151
time_elpased: 3.643
#iterations: 364
currently lose_sum: 0.5138311982154846
time_elpased: 3.626
#iterations: 365
currently lose_sum: 0.5293388962745667
time_elpased: 3.624
#iterations: 366
currently lose_sum: 0.6098287105560303
time_elpased: 3.655
#iterations: 367
currently lose_sum: 0.5151666402816772
time_elpased: 3.626
#iterations: 368
currently lose_sum: 0.453296959400177
time_elpased: 3.585
#iterations: 369
currently lose_sum: 0.407387912273407
time_elpased: 3.616
#iterations: 370
currently lose_sum: 0.5324411988258362
time_elpased: 3.968
#iterations: 371
currently lose_sum: 0.4314865469932556
time_elpased: 3.583
#iterations: 372
currently lose_sum: 0.5002729892730713
time_elpased: 3.633
#iterations: 373
currently lose_sum: 0.5403032898902893
time_elpased: 3.663
#iterations: 374
currently lose_sum: 0.48092955350875854
time_elpased: 3.684
#iterations: 375
currently lose_sum: 0.542690634727478
time_elpased: 3.654
#iterations: 376
currently lose_sum: 0.554368257522583
time_elpased: 3.648
#iterations: 377
currently lose_sum: 0.4159266948699951
time_elpased: 3.622
#iterations: 378
currently lose_sum: 0.48212894797325134
time_elpased: 3.573
#iterations: 379
currently lose_sum: 0.5168817639350891
time_elpased: 3.962
start validation test
0.7264
0.740313272877
0.708760852407
0.724193548387
0.726643199926
13.221
#iterations: 380
currently lose_sum: 0.42859017848968506
time_elpased: 3.629
#iterations: 381
currently lose_sum: 0.47597962617874146
time_elpased: 3.635
#iterations: 382
currently lose_sum: 0.461856484413147
time_elpased: 3.619
#iterations: 383
currently lose_sum: 0.6104034781455994
time_elpased: 3.69
#iterations: 384
currently lose_sum: 0.48773857951164246
time_elpased: 3.649
#iterations: 385
currently lose_sum: 0.6800618171691895
time_elpased: 3.598
#iterations: 386
currently lose_sum: 0.46613356471061707
time_elpased: 3.607
#iterations: 387
currently lose_sum: 0.4492813050746918
time_elpased: 3.767
#iterations: 388
currently lose_sum: 0.5368927121162415
time_elpased: 3.618
#iterations: 389
currently lose_sum: 0.5214875936508179
time_elpased: 4.138
#iterations: 390
currently lose_sum: 0.47528594732284546
time_elpased: 3.645
#iterations: 391
currently lose_sum: 0.5612640976905823
time_elpased: 3.636
#iterations: 392
currently lose_sum: 0.474631667137146
time_elpased: 4.0
#iterations: 393
currently lose_sum: 0.4783739447593689
time_elpased: 3.846
#iterations: 394
currently lose_sum: 0.44572657346725464
time_elpased: 3.745
#iterations: 395
currently lose_sum: 0.4794761538505554
time_elpased: 3.65
#iterations: 396
currently lose_sum: 0.4745047688484192
time_elpased: 3.62
#iterations: 397
currently lose_sum: 0.5795938968658447
time_elpased: 3.632
#iterations: 398
currently lose_sum: 0.5409777164459229
time_elpased: 3.584
#iterations: 399
currently lose_sum: 0.5373212695121765
time_elpased: 3.641
start validation test
0.7
0.831835686778
0.511444356748
0.633431085044
0.702599712843
14.431
#iterations: 400
currently lose_sum: 0.5288596153259277
time_elpased: 3.709
#iterations: 401
currently lose_sum: 0.49908924102783203
time_elpased: 3.698
#iterations: 402
currently lose_sum: 0.5637250542640686
time_elpased: 3.674
#iterations: 403
currently lose_sum: 0.5276415944099426
time_elpased: 3.63
#iterations: 404
currently lose_sum: 0.4300422668457031
time_elpased: 3.912
#iterations: 405
currently lose_sum: 0.5621068477630615
time_elpased: 3.632
#iterations: 406
currently lose_sum: 0.718486487865448
time_elpased: 3.617
#iterations: 407
currently lose_sum: 0.38919776678085327
time_elpased: 3.656
#iterations: 408
currently lose_sum: 0.47902026772499084
time_elpased: 3.645
#iterations: 409
currently lose_sum: 0.35498616099357605
time_elpased: 3.698
#iterations: 410
currently lose_sum: 0.4655809700489044
time_elpased: 3.59
#iterations: 411
currently lose_sum: 0.49484291672706604
time_elpased: 3.637
#iterations: 412
currently lose_sum: 0.4378420114517212
time_elpased: 3.697
#iterations: 413
currently lose_sum: 0.5194738507270813
time_elpased: 3.63
#iterations: 414
currently lose_sum: 0.556008517742157
time_elpased: 3.599
#iterations: 415
currently lose_sum: 0.49485722184181213
time_elpased: 3.62
#iterations: 416
currently lose_sum: 0.4869610667228699
time_elpased: 3.701
#iterations: 417
currently lose_sum: 0.7149057984352112
time_elpased: 3.578
#iterations: 418
currently lose_sum: 0.4001968801021576
time_elpased: 3.662
#iterations: 419
currently lose_sum: 0.5702446699142456
time_elpased: 3.586
start validation test
0.6856
0.841134751773
0.468034727703
0.601419878296
0.688599683397
15.287
#iterations: 420
currently lose_sum: 0.5180462002754211
time_elpased: 3.619
#iterations: 421
currently lose_sum: 0.46692144870758057
time_elpased: 3.693
#iterations: 422
currently lose_sum: 0.5210409760475159
time_elpased: 3.609
#iterations: 423
currently lose_sum: 0.4917796850204468
time_elpased: 3.585
#iterations: 424
currently lose_sum: 0.39791613817214966
time_elpased: 3.61
#iterations: 425
currently lose_sum: 0.5216041207313538
time_elpased: 3.643
#iterations: 426
currently lose_sum: 0.5051480531692505
time_elpased: 3.682
#iterations: 427
currently lose_sum: 0.4993016719818115
time_elpased: 4.308
#iterations: 428
currently lose_sum: 0.5636335611343384
time_elpased: 3.663
#iterations: 429
currently lose_sum: 0.499718576669693
time_elpased: 3.756
#iterations: 430
currently lose_sum: 0.44738471508026123
time_elpased: 3.573
#iterations: 431
currently lose_sum: 0.5307241678237915
time_elpased: 3.625
#iterations: 432
currently lose_sum: 0.4717825949192047
time_elpased: 3.589
#iterations: 433
currently lose_sum: 0.4993778467178345
time_elpased: 3.952
#iterations: 434
currently lose_sum: 0.49293965101242065
time_elpased: 3.629
#iterations: 435
currently lose_sum: 0.5554670095443726
time_elpased: 3.587
#iterations: 436
currently lose_sum: 0.46097174286842346
time_elpased: 3.704
#iterations: 437
currently lose_sum: 0.5838656425476074
time_elpased: 3.66
#iterations: 438
currently lose_sum: 0.43714046478271484
time_elpased: 3.642
#iterations: 439
currently lose_sum: 0.524246335029602
time_elpased: 4.013
start validation test
0.7348
0.753355704698
0.708760852407
0.730378202521
0.735159015011
13.611
#iterations: 440
currently lose_sum: 0.4696047306060791
time_elpased: 3.763
#iterations: 441
currently lose_sum: 0.4852776825428009
time_elpased: 3.567
#iterations: 442
currently lose_sum: 0.4716976284980774
time_elpased: 3.584
#iterations: 443
currently lose_sum: 0.4523973762989044
time_elpased: 3.587
#iterations: 444
currently lose_sum: 0.41133689880371094
time_elpased: 3.586
#iterations: 445
currently lose_sum: 0.48694097995758057
time_elpased: 3.585
#iterations: 446
currently lose_sum: 0.488027960062027
time_elpased: 4.087
#iterations: 447
currently lose_sum: 0.5040720105171204
time_elpased: 3.63
#iterations: 448
currently lose_sum: 0.49317091703414917
time_elpased: 3.634
#iterations: 449
currently lose_sum: 0.4538341462612152
time_elpased: 3.647
#iterations: 450
currently lose_sum: 0.47865182161331177
time_elpased: 3.637
#iterations: 451
currently lose_sum: 0.38465821743011475
time_elpased: 3.622
#iterations: 452
currently lose_sum: 0.49300143122673035
time_elpased: 3.62
#iterations: 453
currently lose_sum: 0.4389858543872833
time_elpased: 3.667
#iterations: 454
currently lose_sum: 0.4895516335964203
time_elpased: 3.695
#iterations: 455
currently lose_sum: 0.45150452852249146
time_elpased: 3.727
#iterations: 456
currently lose_sum: 0.5672295093536377
time_elpased: 3.677
#iterations: 457
currently lose_sum: 0.489512175321579
time_elpased: 3.58
#iterations: 458
currently lose_sum: 0.5636574029922485
time_elpased: 3.619
#iterations: 459
currently lose_sum: 0.5579918622970581
time_elpased: 3.626
start validation test
0.6392
0.899343544858
0.324388318863
0.476798143852
0.643540469245
18.640
#iterations: 460
currently lose_sum: 0.5952920317649841
time_elpased: 3.625
#iterations: 461
currently lose_sum: 0.5295729637145996
time_elpased: 3.572
#iterations: 462
currently lose_sum: 0.4725790321826935
time_elpased: 3.664
#iterations: 463
currently lose_sum: 0.47712287306785583
time_elpased: 3.614
#iterations: 464
currently lose_sum: 0.48782721161842346
time_elpased: 3.593
#iterations: 465
currently lose_sum: 0.4969806969165802
time_elpased: 3.919
#iterations: 466
currently lose_sum: 0.5042410492897034
time_elpased: 3.656
#iterations: 467
currently lose_sum: 0.41665297746658325
time_elpased: 3.571
#iterations: 468
currently lose_sum: 0.5493739247322083
time_elpased: 3.599
#iterations: 469
currently lose_sum: 0.4860202670097351
time_elpased: 3.572
#iterations: 470
currently lose_sum: 0.4822359085083008
time_elpased: 3.591
#iterations: 471
currently lose_sum: 0.4633757770061493
time_elpased: 3.618
#iterations: 472
currently lose_sum: 0.4376653730869293
time_elpased: 3.638
#iterations: 473
currently lose_sum: 0.49163392186164856
time_elpased: 3.602
#iterations: 474
currently lose_sum: 0.4054887294769287
time_elpased: 3.598
#iterations: 475
currently lose_sum: 0.4682571291923523
time_elpased: 3.594
#iterations: 476
currently lose_sum: 0.49285003542900085
time_elpased: 3.645
#iterations: 477
currently lose_sum: 0.4799116551876068
time_elpased: 3.61
#iterations: 478
currently lose_sum: 0.4800616204738617
time_elpased: 3.568
#iterations: 479
currently lose_sum: 0.5132521986961365
time_elpased: 3.624
start validation test
0.6828
0.864615384615
0.443567482242
0.586332811685
0.686098420764
15.526
#iterations: 480
currently lose_sum: 0.5066726207733154
time_elpased: 3.568
#iterations: 481
currently lose_sum: 0.4751335084438324
time_elpased: 3.675
#iterations: 482
currently lose_sum: 0.5364975929260254
time_elpased: 3.726
#iterations: 483
currently lose_sum: 0.457789808511734
time_elpased: 3.609
#iterations: 484
currently lose_sum: 0.4491835832595825
time_elpased: 3.572
#iterations: 485
currently lose_sum: 0.43071243166923523
time_elpased: 3.669
#iterations: 486
currently lose_sum: 0.4333682954311371
time_elpased: 3.634
#iterations: 487
currently lose_sum: 0.39621502161026
time_elpased: 3.621
#iterations: 488
currently lose_sum: 0.49133768677711487
time_elpased: 3.798
#iterations: 489
currently lose_sum: 0.5125876069068909
time_elpased: 3.576
#iterations: 490
currently lose_sum: 0.4059849679470062
time_elpased: 3.744
#iterations: 491
currently lose_sum: 0.6797775030136108
time_elpased: 3.598
#iterations: 492
currently lose_sum: 0.43581610918045044
time_elpased: 3.651
#iterations: 493
currently lose_sum: 0.4387258291244507
time_elpased: 3.859
#iterations: 494
currently lose_sum: 0.6396329402923584
time_elpased: 3.773
#iterations: 495
currently lose_sum: 0.49838772416114807
time_elpased: 3.661
#iterations: 496
currently lose_sum: 0.35915184020996094
time_elpased: 4.222
#iterations: 497
currently lose_sum: 0.5635261535644531
time_elpased: 3.666
#iterations: 498
currently lose_sum: 0.4773002564907074
time_elpased: 3.647
#iterations: 499
currently lose_sum: 0.4683864712715149
time_elpased: 3.692
start validation test
0.73
0.731611893584
0.737963693765
0.734774066798
0.729890200491
13.007
#iterations: 500
currently lose_sum: 0.4199064373970032
time_elpased: 3.622
#iterations: 501
currently lose_sum: 0.5802609920501709
time_elpased: 3.648
#iterations: 502
currently lose_sum: 0.4932393729686737
time_elpased: 3.614
#iterations: 503
currently lose_sum: 0.43427303433418274
time_elpased: 3.6
#iterations: 504
currently lose_sum: 0.5018155574798584
time_elpased: 4.017
#iterations: 505
currently lose_sum: 0.41731026768684387
time_elpased: 3.727
#iterations: 506
currently lose_sum: 0.4770873188972473
time_elpased: 3.899
#iterations: 507
currently lose_sum: 0.372793048620224
time_elpased: 3.644
#iterations: 508
currently lose_sum: 0.3676193952560425
time_elpased: 3.723
#iterations: 509
currently lose_sum: 0.4291303753852844
time_elpased: 3.601
#iterations: 510
currently lose_sum: 0.45357078313827515
time_elpased: 3.668
#iterations: 511
currently lose_sum: 0.39402854442596436
time_elpased: 3.668
#iterations: 512
currently lose_sum: 0.4252348244190216
time_elpased: 3.57
#iterations: 513
currently lose_sum: 0.4585890471935272
time_elpased: 3.662
#iterations: 514
currently lose_sum: 0.5147474408149719
time_elpased: 3.661
#iterations: 515
currently lose_sum: 0.4976328909397125
time_elpased: 3.593
#iterations: 516
currently lose_sum: 0.4257158637046814
time_elpased: 3.648
#iterations: 517
currently lose_sum: 0.3391314446926117
time_elpased: 3.647
#iterations: 518
currently lose_sum: 0.43604183197021484
time_elpased: 3.587
#iterations: 519
currently lose_sum: 0.46382376551628113
time_elpased: 3.603
start validation test
0.6668
0.880701754386
0.396211523283
0.546543277082
0.670530741366
16.902
#iterations: 520
currently lose_sum: 0.5185768604278564
time_elpased: 3.631
#iterations: 521
currently lose_sum: 0.35175150632858276
time_elpased: 3.67
#iterations: 522
currently lose_sum: 0.48127281665802
time_elpased: 3.718
#iterations: 523
currently lose_sum: 0.4012037515640259
time_elpased: 3.677
#iterations: 524
currently lose_sum: 0.44917282462120056
time_elpased: 3.623
#iterations: 525
currently lose_sum: 0.43207550048828125
time_elpased: 3.97
#iterations: 526
currently lose_sum: 0.4402969777584076
time_elpased: 3.63
#iterations: 527
currently lose_sum: 0.4888947010040283
time_elpased: 3.565
#iterations: 528
currently lose_sum: 0.45494747161865234
time_elpased: 3.644
#iterations: 529
currently lose_sum: 0.4085383713245392
time_elpased: 3.65
#iterations: 530
currently lose_sum: 0.48589518666267395
time_elpased: 3.666
#iterations: 531
currently lose_sum: 0.38630616664886475
time_elpased: 3.64
#iterations: 532
currently lose_sum: 0.44244903326034546
time_elpased: 3.616
#iterations: 533
currently lose_sum: 0.4471369683742523
time_elpased: 3.691
#iterations: 534
currently lose_sum: 0.508279025554657
time_elpased: 3.931
#iterations: 535
currently lose_sum: 0.49579617381095886
time_elpased: 3.591
#iterations: 536
currently lose_sum: 0.49238473176956177
time_elpased: 3.597
#iterations: 537
currently lose_sum: 0.5539219379425049
time_elpased: 3.628
#iterations: 538
currently lose_sum: 0.46695980429649353
time_elpased: 3.747
#iterations: 539
currently lose_sum: 0.4192807078361511
time_elpased: 3.623
start validation test
0.7284
0.69918699187
0.814522494081
0.752460809333
0.72721258524
13.153
#iterations: 540
currently lose_sum: 0.409056156873703
time_elpased: 3.643
#iterations: 541
currently lose_sum: 0.3463287055492401
time_elpased: 3.648
#iterations: 542
currently lose_sum: 0.33530399203300476
time_elpased: 3.566
#iterations: 543
currently lose_sum: 0.4841737449169159
time_elpased: 3.597
#iterations: 544
currently lose_sum: 0.4528377652168274
time_elpased: 3.957
#iterations: 545
currently lose_sum: 0.3371773660182953
time_elpased: 3.593
#iterations: 546
currently lose_sum: 0.4621434509754181
time_elpased: 3.585
#iterations: 547
currently lose_sum: 0.39187729358673096
time_elpased: 3.862
#iterations: 548
currently lose_sum: 0.39112433791160583
time_elpased: 3.974
#iterations: 549
currently lose_sum: 0.531308650970459
time_elpased: 3.673
#iterations: 550
currently lose_sum: 0.40585464239120483
time_elpased: 3.629
#iterations: 551
currently lose_sum: 0.4540351629257202
time_elpased: 3.728
#iterations: 552
currently lose_sum: 0.47879108786582947
time_elpased: 3.685
#iterations: 553
currently lose_sum: 0.42112359404563904
time_elpased: 3.637
#iterations: 554
currently lose_sum: 0.46390166878700256
time_elpased: 3.609
#iterations: 555
currently lose_sum: 0.4222394824028015
time_elpased: 4.199
#iterations: 556
currently lose_sum: 0.6738847494125366
time_elpased: 3.638
#iterations: 557
currently lose_sum: 0.49861541390419006
time_elpased: 3.682
#iterations: 558
currently lose_sum: 0.36883068084716797
time_elpased: 3.661
#iterations: 559
currently lose_sum: 0.410849004983902
time_elpased: 3.724
start validation test
0.7368
0.736964980545
0.747434885556
0.742163009404
0.736653371408
12.899
#iterations: 560
currently lose_sum: 0.5066790580749512
time_elpased: 3.62
#iterations: 561
currently lose_sum: 0.4795154333114624
time_elpased: 3.664
#iterations: 562
currently lose_sum: 0.5260235071182251
time_elpased: 3.621
#iterations: 563
currently lose_sum: 0.4196292459964752
time_elpased: 3.603
#iterations: 564
currently lose_sum: 0.40602347254753113
time_elpased: 3.8
#iterations: 565
currently lose_sum: 0.4306597113609314
time_elpased: 3.655
#iterations: 566
currently lose_sum: 0.5422099828720093
time_elpased: 3.628
#iterations: 567
currently lose_sum: 0.3342739939689636
time_elpased: 3.877
#iterations: 568
currently lose_sum: 0.5380216836929321
time_elpased: 3.566
#iterations: 569
currently lose_sum: 0.45037785172462463
time_elpased: 3.687
#iterations: 570
currently lose_sum: 0.43593743443489075
time_elpased: 3.662
#iterations: 571
currently lose_sum: 0.4114747643470764
time_elpased: 3.624
#iterations: 572
currently lose_sum: 0.4885748326778412
time_elpased: 3.674
#iterations: 573
currently lose_sum: 0.3753742575645447
time_elpased: 3.57
#iterations: 574
currently lose_sum: 0.3928436040878296
time_elpased: 3.6
#iterations: 575
currently lose_sum: 0.44651031494140625
time_elpased: 3.636
#iterations: 576
currently lose_sum: 0.44283226132392883
time_elpased: 3.614
#iterations: 577
currently lose_sum: 0.5529926419258118
time_elpased: 3.583
#iterations: 578
currently lose_sum: 0.4848625957965851
time_elpased: 3.703
#iterations: 579
currently lose_sum: 0.5556222796440125
time_elpased: 3.592
start validation test
0.7408
0.787372330548
0.669297553275
0.723549488055
0.741785840709
13.068
#iterations: 580
currently lose_sum: 0.4555462896823883
time_elpased: 3.623
#iterations: 581
currently lose_sum: 0.5702239274978638
time_elpased: 3.65
#iterations: 582
currently lose_sum: 0.3982962369918823
time_elpased: 3.759
#iterations: 583
currently lose_sum: 0.4205944836139679
time_elpased: 3.662
#iterations: 584
currently lose_sum: 0.5200053453445435
time_elpased: 3.71
#iterations: 585
currently lose_sum: 0.5626729726791382
time_elpased: 3.644
#iterations: 586
currently lose_sum: 0.4605361223220825
time_elpased: 3.781
#iterations: 587
currently lose_sum: 0.5737429261207581
time_elpased: 3.685
#iterations: 588
currently lose_sum: 0.4506101608276367
time_elpased: 3.786
#iterations: 589
currently lose_sum: 0.4238516688346863
time_elpased: 3.716
#iterations: 590
currently lose_sum: 0.5360459089279175
time_elpased: 3.672
#iterations: 591
currently lose_sum: 0.4437972605228424
time_elpased: 3.617
#iterations: 592
currently lose_sum: 0.5344529151916504
time_elpased: 3.99
#iterations: 593
currently lose_sum: 0.4279302954673767
time_elpased: 3.635
#iterations: 594
currently lose_sum: 0.42295050621032715
time_elpased: 3.802
#iterations: 595
currently lose_sum: 0.4765096604824066
time_elpased: 3.661
#iterations: 596
currently lose_sum: 0.4549224078655243
time_elpased: 3.629
#iterations: 597
currently lose_sum: 0.4568696618080139
time_elpased: 3.717
#iterations: 598
currently lose_sum: 0.4990732967853546
time_elpased: 3.587
#iterations: 599
currently lose_sum: 0.485909640789032
time_elpased: 3.622
start validation test
0.7344
0.711876317639
0.79952644041
0.753159851301
0.733502068543
13.134
acc: 0.738
pre: 0.730
rec: 0.765
F1: 0.747
auc: 0.737
