start to construct computing graph
graph construct over
3802
epochs start
#iterations: 0
currently lose_sum: 0.6940380334854126
time_elpased: 4.445
#iterations: 1
currently lose_sum: 0.6993681192398071
time_elpased: 4.432
#iterations: 2
currently lose_sum: 0.694017231464386
time_elpased: 4.495
#iterations: 3
currently lose_sum: 0.692495584487915
time_elpased: 4.449
#iterations: 4
currently lose_sum: 0.6926710605621338
time_elpased: 4.385
#iterations: 5
currently lose_sum: 0.6830184459686279
time_elpased: 4.43
#iterations: 6
currently lose_sum: 0.6934030055999756
time_elpased: 4.469
#iterations: 7
currently lose_sum: 0.6979281902313232
time_elpased: 4.384
#iterations: 8
currently lose_sum: 0.6926681399345398
time_elpased: 4.459
#iterations: 9
currently lose_sum: 0.6858679056167603
time_elpased: 4.402
#iterations: 10
currently lose_sum: 0.6857885718345642
time_elpased: 4.43
#iterations: 11
currently lose_sum: 0.683540940284729
time_elpased: 4.478
#iterations: 12
currently lose_sum: 0.6904457211494446
time_elpased: 4.456
#iterations: 13
currently lose_sum: 0.6879533529281616
time_elpased: 4.372
#iterations: 14
currently lose_sum: 0.6742185950279236
time_elpased: 4.408
#iterations: 15
currently lose_sum: 0.675304114818573
time_elpased: 4.546
#iterations: 16
currently lose_sum: 0.6988280415534973
time_elpased: 4.443
#iterations: 17
currently lose_sum: 0.6807177662849426
time_elpased: 4.434
#iterations: 18
currently lose_sum: 0.6969531178474426
time_elpased: 4.397
#iterations: 19
currently lose_sum: 0.6907362341880798
time_elpased: 4.425
start validation test
0.548
0.54575596817
0.64905362776
0.592939481268
0.546523567127
17.225
#iterations: 20
currently lose_sum: 0.6848568916320801
time_elpased: 3.727
#iterations: 21
currently lose_sum: 0.680509626865387
time_elpased: 3.698
#iterations: 22
currently lose_sum: 0.6721858382225037
time_elpased: 3.759
#iterations: 23
currently lose_sum: 0.6896190047264099
time_elpased: 3.751
#iterations: 24
currently lose_sum: 0.6831492781639099
time_elpased: 3.783
#iterations: 25
currently lose_sum: 0.7310423254966736
time_elpased: 3.855
#iterations: 26
currently lose_sum: 0.7133195400238037
time_elpased: 3.701
#iterations: 27
currently lose_sum: 0.6637823581695557
time_elpased: 3.634
#iterations: 28
currently lose_sum: 0.6938320398330688
time_elpased: 3.694
#iterations: 29
currently lose_sum: 0.6859427690505981
time_elpased: 3.685
#iterations: 30
currently lose_sum: 0.6807795763015747
time_elpased: 3.773
#iterations: 31
currently lose_sum: 0.7293137907981873
time_elpased: 3.729
#iterations: 32
currently lose_sum: 0.7328054904937744
time_elpased: 3.7
#iterations: 33
currently lose_sum: 0.6652006506919861
time_elpased: 3.672
#iterations: 34
currently lose_sum: 0.6940979957580566
time_elpased: 3.689
#iterations: 35
currently lose_sum: 0.692623496055603
time_elpased: 3.783
#iterations: 36
currently lose_sum: 0.6727902293205261
time_elpased: 3.772
#iterations: 37
currently lose_sum: 0.64742112159729
time_elpased: 3.818
#iterations: 38
currently lose_sum: 0.6806379556655884
time_elpased: 3.704
#iterations: 39
currently lose_sum: 0.7056440711021423
time_elpased: 3.735
start validation test
0.5612
0.542558486809
0.859621451104
0.665242599939
0.556839946331
18.047
#iterations: 40
currently lose_sum: 0.6675226092338562
time_elpased: 3.735
#iterations: 41
currently lose_sum: 0.73565673828125
time_elpased: 3.78
#iterations: 42
currently lose_sum: 0.6965408325195312
time_elpased: 3.731
#iterations: 43
currently lose_sum: 0.6656509637832642
time_elpased: 3.719
#iterations: 44
currently lose_sum: 0.6864668130874634
time_elpased: 3.764
#iterations: 45
currently lose_sum: 0.659496545791626
time_elpased: 3.702
#iterations: 46
currently lose_sum: 0.7288020253181458
time_elpased: 3.763
#iterations: 47
currently lose_sum: 0.6341966986656189
time_elpased: 3.681
#iterations: 48
currently lose_sum: 0.6825065016746521
time_elpased: 3.705
#iterations: 49
currently lose_sum: 0.6553311944007874
time_elpased: 3.777
#iterations: 50
currently lose_sum: 0.6444189548492432
time_elpased: 3.754
#iterations: 51
currently lose_sum: 0.6713134050369263
time_elpased: 3.719
#iterations: 52
currently lose_sum: 0.7039584517478943
time_elpased: 3.731
#iterations: 53
currently lose_sum: 0.6322231292724609
time_elpased: 3.695
#iterations: 54
currently lose_sum: 0.6744776368141174
time_elpased: 3.72
#iterations: 55
currently lose_sum: 0.6832802295684814
time_elpased: 3.704
#iterations: 56
currently lose_sum: 0.6618791818618774
time_elpased: 3.644
#iterations: 57
currently lose_sum: 0.7321326732635498
time_elpased: 3.66
#iterations: 58
currently lose_sum: 0.663999617099762
time_elpased: 3.666
#iterations: 59
currently lose_sum: 0.654112696647644
time_elpased: 3.777
start validation test
0.5892
0.566391184573
0.81072555205
0.66688290626
0.585963425376
16.518
#iterations: 60
currently lose_sum: 0.6325011253356934
time_elpased: 3.696
#iterations: 61
currently lose_sum: 0.669883131980896
time_elpased: 3.662
#iterations: 62
currently lose_sum: 0.6607515811920166
time_elpased: 3.697
#iterations: 63
currently lose_sum: 0.6985185742378235
time_elpased: 3.76
#iterations: 64
currently lose_sum: 0.6289175152778625
time_elpased: 3.795
#iterations: 65
currently lose_sum: 0.6521214246749878
time_elpased: 3.723
#iterations: 66
currently lose_sum: 0.6564094424247742
time_elpased: 3.703
#iterations: 67
currently lose_sum: 0.6935127377510071
time_elpased: 3.754
#iterations: 68
currently lose_sum: 0.6621225476264954
time_elpased: 3.749
#iterations: 69
currently lose_sum: 0.6658422350883484
time_elpased: 3.68
#iterations: 70
currently lose_sum: 0.6257744431495667
time_elpased: 3.839
#iterations: 71
currently lose_sum: 0.6302634477615356
time_elpased: 3.78
#iterations: 72
currently lose_sum: 0.612095832824707
time_elpased: 3.701
#iterations: 73
currently lose_sum: 0.6415884494781494
time_elpased: 3.722
#iterations: 74
currently lose_sum: 0.6246138215065002
time_elpased: 3.744
#iterations: 75
currently lose_sum: 0.6409022808074951
time_elpased: 3.791
#iterations: 76
currently lose_sum: 0.639650285243988
time_elpased: 3.791
#iterations: 77
currently lose_sum: 0.6511848568916321
time_elpased: 3.738
#iterations: 78
currently lose_sum: 0.6341256499290466
time_elpased: 3.862
#iterations: 79
currently lose_sum: 0.6293546557426453
time_elpased: 3.735
start validation test
0.6064
0.587980173482
0.748422712934
0.658570437196
0.604324992831
16.251
#iterations: 80
currently lose_sum: 0.6766061186790466
time_elpased: 3.703
#iterations: 81
currently lose_sum: 0.607284665107727
time_elpased: 3.732
#iterations: 82
currently lose_sum: 0.7162550091743469
time_elpased: 3.74
#iterations: 83
currently lose_sum: 0.6022117733955383
time_elpased: 3.753
#iterations: 84
currently lose_sum: 0.6345574259757996
time_elpased: 3.805
#iterations: 85
currently lose_sum: 0.6409452557563782
time_elpased: 3.717
#iterations: 86
currently lose_sum: 0.599234402179718
time_elpased: 3.732
#iterations: 87
currently lose_sum: 0.630924642086029
time_elpased: 3.807
#iterations: 88
currently lose_sum: 0.6054155826568604
time_elpased: 3.667
#iterations: 89
currently lose_sum: 0.635435938835144
time_elpased: 3.793
#iterations: 90
currently lose_sum: 0.6335387825965881
time_elpased: 3.805
#iterations: 91
currently lose_sum: 0.6203539371490479
time_elpased: 3.655
#iterations: 92
currently lose_sum: 0.6138404607772827
time_elpased: 3.699
#iterations: 93
currently lose_sum: 0.6649743914604187
time_elpased: 3.751
#iterations: 94
currently lose_sum: 0.6164668202400208
time_elpased: 3.766
#iterations: 95
currently lose_sum: 0.6785393357276917
time_elpased: 3.684
#iterations: 96
currently lose_sum: 0.5629628300666809
time_elpased: 3.713
#iterations: 97
currently lose_sum: 0.6392879486083984
time_elpased: 3.676
#iterations: 98
currently lose_sum: 0.6496593952178955
time_elpased: 3.669
#iterations: 99
currently lose_sum: 0.5648796558380127
time_elpased: 3.701
start validation test
0.6244
0.712258064516
0.435331230284
0.540381791483
0.627162368389
16.201
#iterations: 100
currently lose_sum: 0.6612829566001892
time_elpased: 3.694
#iterations: 101
currently lose_sum: 0.6731935143470764
time_elpased: 3.689
#iterations: 102
currently lose_sum: 0.6692949533462524
time_elpased: 3.666
#iterations: 103
currently lose_sum: 0.5793708562850952
time_elpased: 3.696
#iterations: 104
currently lose_sum: 0.58851557970047
time_elpased: 3.783
#iterations: 105
currently lose_sum: 0.616524338722229
time_elpased: 3.696
#iterations: 106
currently lose_sum: 0.6975119113922119
time_elpased: 3.688
#iterations: 107
currently lose_sum: 0.5974909067153931
time_elpased: 3.693
#iterations: 108
currently lose_sum: 0.5819787383079529
time_elpased: 3.683
#iterations: 109
currently lose_sum: 0.6501017808914185
time_elpased: 3.777
#iterations: 110
currently lose_sum: 0.6096179485321045
time_elpased: 3.817
#iterations: 111
currently lose_sum: 0.6638261675834656
time_elpased: 3.685
#iterations: 112
currently lose_sum: 0.5896540880203247
time_elpased: 3.766
#iterations: 113
currently lose_sum: 0.7113804817199707
time_elpased: 3.686
#iterations: 114
currently lose_sum: 0.5751946568489075
time_elpased: 3.783
#iterations: 115
currently lose_sum: 0.5707951188087463
time_elpased: 3.763
#iterations: 116
currently lose_sum: 0.6521644592285156
time_elpased: 3.809
#iterations: 117
currently lose_sum: 0.5224242806434631
time_elpased: 3.786
#iterations: 118
currently lose_sum: 0.5820860266685486
time_elpased: 3.748
#iterations: 119
currently lose_sum: 0.6175710558891296
time_elpased: 3.774
start validation test
0.642
0.674136321195
0.569400630915
0.617357845233
0.643060705068
15.787
#iterations: 120
currently lose_sum: 0.562994658946991
time_elpased: 3.731
#iterations: 121
currently lose_sum: 0.619019091129303
time_elpased: 3.716
#iterations: 122
currently lose_sum: 0.5724455118179321
time_elpased: 3.704
#iterations: 123
currently lose_sum: 0.6516518592834473
time_elpased: 3.682
#iterations: 124
currently lose_sum: 0.642082691192627
time_elpased: 3.699
#iterations: 125
currently lose_sum: 0.5866331458091736
time_elpased: 3.68
#iterations: 126
currently lose_sum: 0.597804844379425
time_elpased: 3.704
#iterations: 127
currently lose_sum: 0.5849831104278564
time_elpased: 3.797
#iterations: 128
currently lose_sum: 0.7056462168693542
time_elpased: 3.689
#iterations: 129
currently lose_sum: 0.7104313373565674
time_elpased: 3.791
#iterations: 130
currently lose_sum: 0.633583128452301
time_elpased: 3.834
#iterations: 131
currently lose_sum: 0.6415719389915466
time_elpased: 3.837
#iterations: 132
currently lose_sum: 0.6985247135162354
time_elpased: 3.787
#iterations: 133
currently lose_sum: 0.5544643998146057
time_elpased: 3.707
#iterations: 134
currently lose_sum: 0.6371324062347412
time_elpased: 3.765
#iterations: 135
currently lose_sum: 0.582312822341919
time_elpased: 3.746
#iterations: 136
currently lose_sum: 0.5049434900283813
time_elpased: 3.716
#iterations: 137
currently lose_sum: 0.6249800324440002
time_elpased: 3.799
#iterations: 138
currently lose_sum: 0.660780668258667
time_elpased: 3.843
#iterations: 139
currently lose_sum: 0.6089909672737122
time_elpased: 3.832
start validation test
0.6428
0.746386333771
0.447949526814
0.559881715131
0.645646841329
15.518
#iterations: 140
currently lose_sum: 0.6142686605453491
time_elpased: 3.71
#iterations: 141
currently lose_sum: 0.5976476073265076
time_elpased: 3.732
#iterations: 142
currently lose_sum: 0.6594238877296448
time_elpased: 3.801
#iterations: 143
currently lose_sum: 0.6110531091690063
time_elpased: 3.716
#iterations: 144
currently lose_sum: 0.5932592749595642
time_elpased: 3.809
#iterations: 145
currently lose_sum: 0.5658255815505981
time_elpased: 3.719
#iterations: 146
currently lose_sum: 0.6965247988700867
time_elpased: 3.734
#iterations: 147
currently lose_sum: 0.6354125738143921
time_elpased: 3.761
#iterations: 148
currently lose_sum: 0.661935031414032
time_elpased: 3.721
#iterations: 149
currently lose_sum: 0.62591153383255
time_elpased: 3.711
#iterations: 150
currently lose_sum: 0.5588510036468506
time_elpased: 3.679
#iterations: 151
currently lose_sum: 0.6211450099945068
time_elpased: 3.737
#iterations: 152
currently lose_sum: 0.6393499374389648
time_elpased: 3.743
#iterations: 153
currently lose_sum: 0.6534177660942078
time_elpased: 3.696
#iterations: 154
currently lose_sum: 0.5377768874168396
time_elpased: 3.728
#iterations: 155
currently lose_sum: 0.5339239239692688
time_elpased: 3.767
#iterations: 156
currently lose_sum: 0.5439055562019348
time_elpased: 3.7
#iterations: 157
currently lose_sum: 0.5834081172943115
time_elpased: 3.699
#iterations: 158
currently lose_sum: 0.6487751603126526
time_elpased: 3.742
#iterations: 159
currently lose_sum: 0.704408586025238
time_elpased: 3.8
start validation test
0.6028
0.819025522042
0.278391167192
0.415538552089
0.60753973944
17.852
#iterations: 160
currently lose_sum: 0.5976518392562866
time_elpased: 3.795
#iterations: 161
currently lose_sum: 0.6419519186019897
time_elpased: 3.773
#iterations: 162
currently lose_sum: 0.5843902826309204
time_elpased: 3.814
#iterations: 163
currently lose_sum: 0.5931991338729858
time_elpased: 3.722
#iterations: 164
currently lose_sum: 0.527696430683136
time_elpased: 3.845
#iterations: 165
currently lose_sum: 0.5558847784996033
time_elpased: 3.779
#iterations: 166
currently lose_sum: 0.6036393642425537
time_elpased: 3.795
#iterations: 167
currently lose_sum: 0.5358303189277649
time_elpased: 3.761
#iterations: 168
currently lose_sum: 0.6452938914299011
time_elpased: 3.737
#iterations: 169
currently lose_sum: 0.6412187218666077
time_elpased: 3.734
#iterations: 170
currently lose_sum: 0.5596145391464233
time_elpased: 3.745
#iterations: 171
currently lose_sum: 0.5608931183815002
time_elpased: 3.724
#iterations: 172
currently lose_sum: 0.5759870409965515
time_elpased: 3.717
#iterations: 173
currently lose_sum: 0.5857058167457581
time_elpased: 3.747
#iterations: 174
currently lose_sum: 0.6088265776634216
time_elpased: 3.742
#iterations: 175
currently lose_sum: 0.5537578463554382
time_elpased: 3.796
#iterations: 176
currently lose_sum: 0.5836314558982849
time_elpased: 3.704
#iterations: 177
currently lose_sum: 0.5408587455749512
time_elpased: 3.69
#iterations: 178
currently lose_sum: 0.7234434485435486
time_elpased: 3.696
#iterations: 179
currently lose_sum: 0.4897759258747101
time_elpased: 3.743
start validation test
0.6372
0.598258029396
0.866719242902
0.707890499195
0.633846634438
16.186
#iterations: 180
currently lose_sum: 0.49312180280685425
time_elpased: 3.761
#iterations: 181
currently lose_sum: 0.5961631536483765
time_elpased: 3.717
#iterations: 182
currently lose_sum: 0.6057543158531189
time_elpased: 3.742
#iterations: 183
currently lose_sum: 0.5409936904907227
time_elpased: 3.771
#iterations: 184
currently lose_sum: 0.5083091855049133
time_elpased: 3.678
#iterations: 185
currently lose_sum: 0.5455598831176758
time_elpased: 3.762
#iterations: 186
currently lose_sum: 0.6405258178710938
time_elpased: 3.763
#iterations: 187
currently lose_sum: 0.5948042273521423
time_elpased: 3.719
#iterations: 188
currently lose_sum: 0.5829529762268066
time_elpased: 3.72
#iterations: 189
currently lose_sum: 0.6062847375869751
time_elpased: 3.661
#iterations: 190
currently lose_sum: 0.6473456025123596
time_elpased: 3.696
#iterations: 191
currently lose_sum: 0.5737324357032776
time_elpased: 3.722
#iterations: 192
currently lose_sum: 0.5670810341835022
time_elpased: 3.748
#iterations: 193
currently lose_sum: 0.6795440912246704
time_elpased: 3.771
#iterations: 194
currently lose_sum: 0.5170291066169739
time_elpased: 3.737
#iterations: 195
currently lose_sum: 0.5569677352905273
time_elpased: 3.704
#iterations: 196
currently lose_sum: 0.5514940619468689
time_elpased: 3.797
#iterations: 197
currently lose_sum: 0.5141631364822388
time_elpased: 3.803
#iterations: 198
currently lose_sum: 0.5404571294784546
time_elpased: 3.955
#iterations: 199
currently lose_sum: 0.6024636626243591
time_elpased: 3.778
start validation test
0.6708
0.776397515528
0.492902208202
0.602990834539
0.673399156049
15.137
#iterations: 200
currently lose_sum: 0.5174537301063538
time_elpased: 3.632
#iterations: 201
currently lose_sum: 0.540502667427063
time_elpased: 3.694
#iterations: 202
currently lose_sum: 0.6348161101341248
time_elpased: 3.653
#iterations: 203
currently lose_sum: 0.5303410291671753
time_elpased: 3.663
#iterations: 204
currently lose_sum: 0.5493423938751221
time_elpased: 3.636
#iterations: 205
currently lose_sum: 0.5423688888549805
time_elpased: 3.711
#iterations: 206
currently lose_sum: 0.5990357398986816
time_elpased: 3.684
#iterations: 207
currently lose_sum: 0.5170550346374512
time_elpased: 3.655
#iterations: 208
currently lose_sum: 0.5551326274871826
time_elpased: 3.751
#iterations: 209
currently lose_sum: 0.544360339641571
time_elpased: 3.775
#iterations: 210
currently lose_sum: 0.593690812587738
time_elpased: 3.708
#iterations: 211
currently lose_sum: 0.5428504347801208
time_elpased: 3.77
#iterations: 212
currently lose_sum: 0.5289711356163025
time_elpased: 3.763
#iterations: 213
currently lose_sum: 0.5628410577774048
time_elpased: 3.731
#iterations: 214
currently lose_sum: 0.6631710529327393
time_elpased: 3.859
#iterations: 215
currently lose_sum: 0.5359867215156555
time_elpased: 3.681
#iterations: 216
currently lose_sum: 0.568930447101593
time_elpased: 3.692
#iterations: 217
currently lose_sum: 0.5839345455169678
time_elpased: 3.7
#iterations: 218
currently lose_sum: 0.5481638312339783
time_elpased: 3.661
#iterations: 219
currently lose_sum: 0.5520421862602234
time_elpased: 3.729
start validation test
0.6856
0.716726618705
0.628548895899
0.66974789916
0.686433538859
14.632
#iterations: 220
currently lose_sum: 0.5813452005386353
time_elpased: 3.632
#iterations: 221
currently lose_sum: 0.6297857165336609
time_elpased: 3.638
#iterations: 222
currently lose_sum: 0.5705145597457886
time_elpased: 3.708
#iterations: 223
currently lose_sum: 0.5295915007591248
time_elpased: 3.609
#iterations: 224
currently lose_sum: 0.5634753704071045
time_elpased: 3.689
#iterations: 225
currently lose_sum: 0.6901144981384277
time_elpased: 3.664
#iterations: 226
currently lose_sum: 0.5752725005149841
time_elpased: 3.73
#iterations: 227
currently lose_sum: 0.5621441006660461
time_elpased: 3.715
#iterations: 228
currently lose_sum: 0.5283381938934326
time_elpased: 3.674
#iterations: 229
currently lose_sum: 0.5732120871543884
time_elpased: 3.636
#iterations: 230
currently lose_sum: 0.5241855382919312
time_elpased: 3.741
#iterations: 231
currently lose_sum: 0.5435740947723389
time_elpased: 3.672
#iterations: 232
currently lose_sum: 0.594546377658844
time_elpased: 3.649
#iterations: 233
currently lose_sum: 0.5702559947967529
time_elpased: 3.725
#iterations: 234
currently lose_sum: 0.6155864000320435
time_elpased: 3.657
#iterations: 235
currently lose_sum: 0.5233437418937683
time_elpased: 3.723
#iterations: 236
currently lose_sum: 0.5176704525947571
time_elpased: 3.669
#iterations: 237
currently lose_sum: 0.738974928855896
time_elpased: 3.69
#iterations: 238
currently lose_sum: 0.5397965908050537
time_elpased: 3.674
#iterations: 239
currently lose_sum: 0.5391937494277954
time_elpased: 3.723
start validation test
0.662
0.774319066148
0.470820189274
0.585581167239
0.66479321152
15.571
#iterations: 240
currently lose_sum: 0.5579451322555542
time_elpased: 3.626
#iterations: 241
currently lose_sum: 0.601621150970459
time_elpased: 3.662
#iterations: 242
currently lose_sum: 0.537810206413269
time_elpased: 3.599
#iterations: 243
currently lose_sum: 0.5202086567878723
time_elpased: 3.748
#iterations: 244
currently lose_sum: 0.5907443761825562
time_elpased: 3.662
#iterations: 245
currently lose_sum: 0.6017512679100037
time_elpased: 3.633
#iterations: 246
currently lose_sum: 0.5092481374740601
time_elpased: 3.714
#iterations: 247
currently lose_sum: 0.5154154300689697
time_elpased: 3.646
#iterations: 248
currently lose_sum: 0.5366722345352173
time_elpased: 3.653
#iterations: 249
currently lose_sum: 0.6231741309165955
time_elpased: 3.672
#iterations: 250
currently lose_sum: 0.49805763363838196
time_elpased: 3.632
#iterations: 251
currently lose_sum: 0.5358800292015076
time_elpased: 3.687
#iterations: 252
currently lose_sum: 0.6118301749229431
time_elpased: 3.681
#iterations: 253
currently lose_sum: 0.4744194746017456
time_elpased: 3.672
#iterations: 254
currently lose_sum: 0.5444707274436951
time_elpased: 3.651
#iterations: 255
currently lose_sum: 0.48100197315216064
time_elpased: 3.667
#iterations: 256
currently lose_sum: 0.4945152699947357
time_elpased: 3.665
#iterations: 257
currently lose_sum: 0.5798080563545227
time_elpased: 3.715
#iterations: 258
currently lose_sum: 0.4468059539794922
time_elpased: 3.742
#iterations: 259
currently lose_sum: 0.5637902021408081
time_elpased: 3.68
start validation test
0.6724
0.633076467101
0.842271293375
0.722842639594
0.66991811422
15.139
#iterations: 260
currently lose_sum: 0.5235770344734192
time_elpased: 3.694
#iterations: 261
currently lose_sum: 0.5236857533454895
time_elpased: 3.781
#iterations: 262
currently lose_sum: 0.5189619064331055
time_elpased: 3.669
#iterations: 263
currently lose_sum: 0.5209721326828003
time_elpased: 3.723
#iterations: 264
currently lose_sum: 0.5907208919525146
time_elpased: 3.69
#iterations: 265
currently lose_sum: 0.5441117882728577
time_elpased: 3.78
#iterations: 266
currently lose_sum: 0.5250149369239807
time_elpased: 3.681
#iterations: 267
currently lose_sum: 0.468057245016098
time_elpased: 3.704
#iterations: 268
currently lose_sum: 0.5783495903015137
time_elpased: 3.631
#iterations: 269
currently lose_sum: 0.47816702723503113
time_elpased: 3.667
#iterations: 270
currently lose_sum: 0.47281697392463684
time_elpased: 3.677
#iterations: 271
currently lose_sum: 0.5828683376312256
time_elpased: 3.623
#iterations: 272
currently lose_sum: 0.5582082867622375
time_elpased: 3.662
#iterations: 273
currently lose_sum: 0.49815094470977783
time_elpased: 3.709
#iterations: 274
currently lose_sum: 0.5620545148849487
time_elpased: 3.722
#iterations: 275
currently lose_sum: 0.4753597378730774
time_elpased: 3.729
#iterations: 276
currently lose_sum: 0.5050361752510071
time_elpased: 3.736
#iterations: 277
currently lose_sum: 0.5727160573005676
time_elpased: 3.675
#iterations: 278
currently lose_sum: 0.5491489171981812
time_elpased: 3.749
#iterations: 279
currently lose_sum: 0.5227630734443665
time_elpased: 3.738
start validation test
0.6508
0.607512248231
0.880126182965
0.71884057971
0.647449455119
17.578
#iterations: 280
currently lose_sum: 0.4481174051761627
time_elpased: 3.752
#iterations: 281
currently lose_sum: 0.5211344361305237
time_elpased: 3.658
#iterations: 282
currently lose_sum: 0.5583599209785461
time_elpased: 3.663
#iterations: 283
currently lose_sum: 0.4605339467525482
time_elpased: 3.708
#iterations: 284
currently lose_sum: 0.5884206891059875
time_elpased: 3.708
#iterations: 285
currently lose_sum: 0.4774032235145569
time_elpased: 3.633
#iterations: 286
currently lose_sum: 0.49711963534355164
time_elpased: 3.673
#iterations: 287
currently lose_sum: 0.5767411589622498
time_elpased: 3.622
#iterations: 288
currently lose_sum: 0.4524073898792267
time_elpased: 3.644
#iterations: 289
currently lose_sum: 0.5428494215011597
time_elpased: 3.647
#iterations: 290
currently lose_sum: 0.5350393056869507
time_elpased: 3.719
#iterations: 291
currently lose_sum: 0.46500739455223083
time_elpased: 3.656
#iterations: 292
currently lose_sum: 0.5432486534118652
time_elpased: 3.684
#iterations: 293
currently lose_sum: 0.477639764547348
time_elpased: 3.633
#iterations: 294
currently lose_sum: 0.5121018886566162
time_elpased: 3.68
#iterations: 295
currently lose_sum: 0.4704733192920685
time_elpased: 3.643
#iterations: 296
currently lose_sum: 0.6011372208595276
time_elpased: 3.685
#iterations: 297
currently lose_sum: 0.4967777132987976
time_elpased: 3.655
#iterations: 298
currently lose_sum: 0.49153777956962585
time_elpased: 3.652
#iterations: 299
currently lose_sum: 0.5051722526550293
time_elpased: 3.684
start validation test
0.698
0.689578713969
0.735804416404
0.711942006868
0.697447662747
14.206
#iterations: 300
currently lose_sum: 0.49158918857574463
time_elpased: 3.684
#iterations: 301
currently lose_sum: 0.561083197593689
time_elpased: 3.572
#iterations: 302
currently lose_sum: 0.5533996820449829
time_elpased: 3.689
#iterations: 303
currently lose_sum: 0.48607325553894043
time_elpased: 3.673
#iterations: 304
currently lose_sum: 0.4981575310230255
time_elpased: 3.707
#iterations: 305
currently lose_sum: 0.5082967281341553
time_elpased: 3.69
#iterations: 306
currently lose_sum: 0.47462624311447144
time_elpased: 3.679
#iterations: 307
currently lose_sum: 0.5144134759902954
time_elpased: 3.721
#iterations: 308
currently lose_sum: 0.645252525806427
time_elpased: 3.66
#iterations: 309
currently lose_sum: 0.4832899570465088
time_elpased: 3.679
#iterations: 310
currently lose_sum: 0.5537859797477722
time_elpased: 3.723
#iterations: 311
currently lose_sum: 0.5747953653335571
time_elpased: 3.653
#iterations: 312
currently lose_sum: 0.4919782280921936
time_elpased: 3.63
#iterations: 313
currently lose_sum: 0.40337491035461426
time_elpased: 3.644
#iterations: 314
currently lose_sum: 0.6707472205162048
time_elpased: 3.699
#iterations: 315
currently lose_sum: 0.5559907555580139
time_elpased: 3.668
#iterations: 316
currently lose_sum: 0.5449680685997009
time_elpased: 3.642
#iterations: 317
currently lose_sum: 0.587345540523529
time_elpased: 3.679
#iterations: 318
currently lose_sum: 0.44200143218040466
time_elpased: 3.646
#iterations: 319
currently lose_sum: 0.4638071358203888
time_elpased: 3.75
start validation test
0.6948
0.667107875579
0.794952681388
0.725440806045
0.693336730304
14.213
#iterations: 320
currently lose_sum: 0.5080068111419678
time_elpased: 3.638
#iterations: 321
currently lose_sum: 0.5063014626502991
time_elpased: 3.676
#iterations: 322
currently lose_sum: 0.6452854871749878
time_elpased: 3.693
#iterations: 323
currently lose_sum: 0.6168950796127319
time_elpased: 3.688
#iterations: 324
currently lose_sum: 0.4825943112373352
time_elpased: 3.695
#iterations: 325
currently lose_sum: 0.5684333443641663
time_elpased: 3.632
#iterations: 326
currently lose_sum: 0.49856412410736084
time_elpased: 3.676
#iterations: 327
currently lose_sum: 0.5928112864494324
time_elpased: 3.677
#iterations: 328
currently lose_sum: 0.5696540474891663
time_elpased: 3.69
#iterations: 329
currently lose_sum: 0.5166167616844177
time_elpased: 3.669
#iterations: 330
currently lose_sum: 0.47394153475761414
time_elpased: 3.676
#iterations: 331
currently lose_sum: 0.725861668586731
time_elpased: 3.699
#iterations: 332
currently lose_sum: 0.5553843975067139
time_elpased: 3.644
#iterations: 333
currently lose_sum: 0.5169124007225037
time_elpased: 3.624
#iterations: 334
currently lose_sum: 0.5525339841842651
time_elpased: 3.677
#iterations: 335
currently lose_sum: 0.5061661601066589
time_elpased: 3.717
#iterations: 336
currently lose_sum: 0.5065462589263916
time_elpased: 3.606
#iterations: 337
currently lose_sum: 0.4537082016468048
time_elpased: 3.664
#iterations: 338
currently lose_sum: 0.4412885904312134
time_elpased: 3.67
#iterations: 339
currently lose_sum: 0.488179475069046
time_elpased: 3.727
start validation test
0.6996
0.732673267327
0.641955835962
0.684321143338
0.700442203695
14.171
#iterations: 340
currently lose_sum: 0.5229851007461548
time_elpased: 3.673
#iterations: 341
currently lose_sum: 0.5817746520042419
time_elpased: 3.702
#iterations: 342
currently lose_sum: 0.4381568133831024
time_elpased: 3.654
#iterations: 343
currently lose_sum: 0.5406386852264404
time_elpased: 3.654
#iterations: 344
currently lose_sum: 0.5176131129264832
time_elpased: 3.723
#iterations: 345
currently lose_sum: 0.5151499509811401
time_elpased: 3.695
#iterations: 346
currently lose_sum: 0.4569395184516907
time_elpased: 3.669
#iterations: 347
currently lose_sum: 0.6394006609916687
time_elpased: 3.688
#iterations: 348
currently lose_sum: 0.580568790435791
time_elpased: 3.68
#iterations: 349
currently lose_sum: 0.5485708117485046
time_elpased: 3.663
#iterations: 350
currently lose_sum: 0.5719493627548218
time_elpased: 3.703
#iterations: 351
currently lose_sum: 0.4568292200565338
time_elpased: 3.639
#iterations: 352
currently lose_sum: 0.5279487371444702
time_elpased: 3.617
#iterations: 353
currently lose_sum: 0.5235368013381958
time_elpased: 3.626
#iterations: 354
currently lose_sum: 0.49564507603645325
time_elpased: 3.681
#iterations: 355
currently lose_sum: 0.46735328435897827
time_elpased: 3.667
#iterations: 356
currently lose_sum: 0.4928470551967621
time_elpased: 3.682
#iterations: 357
currently lose_sum: 0.4300196170806885
time_elpased: 3.675
#iterations: 358
currently lose_sum: 0.5408012270927429
time_elpased: 3.626
#iterations: 359
currently lose_sum: 0.48428916931152344
time_elpased: 3.763
start validation test
0.7104
0.734887737478
0.671135646688
0.701566364386
0.7109736675
13.945
#iterations: 360
currently lose_sum: 0.5013594627380371
time_elpased: 3.732
#iterations: 361
currently lose_sum: 0.5347532033920288
time_elpased: 3.637
#iterations: 362
currently lose_sum: 0.42790114879608154
time_elpased: 3.618
#iterations: 363
currently lose_sum: 0.6035621166229248
time_elpased: 3.654
#iterations: 364
currently lose_sum: 0.44625627994537354
time_elpased: 3.806
#iterations: 365
currently lose_sum: 0.535656750202179
time_elpased: 3.704
#iterations: 366
currently lose_sum: 0.5412692427635193
time_elpased: 3.704
#iterations: 367
currently lose_sum: 0.5347025990486145
time_elpased: 3.682
#iterations: 368
currently lose_sum: 0.5195007920265198
time_elpased: 3.681
#iterations: 369
currently lose_sum: 0.48150119185447693
time_elpased: 3.674
#iterations: 370
currently lose_sum: 0.538271963596344
time_elpased: 3.724
#iterations: 371
currently lose_sum: 0.508192777633667
time_elpased: 3.598
#iterations: 372
currently lose_sum: 0.5570257306098938
time_elpased: 3.653
#iterations: 373
currently lose_sum: 0.5529096722602844
time_elpased: 3.684
#iterations: 374
currently lose_sum: 0.4617505371570587
time_elpased: 3.627
#iterations: 375
currently lose_sum: 0.5116108059883118
time_elpased: 3.684
#iterations: 376
currently lose_sum: 0.5312318205833435
time_elpased: 3.659
#iterations: 377
currently lose_sum: 0.4065108597278595
time_elpased: 3.688
#iterations: 378
currently lose_sum: 0.4926653206348419
time_elpased: 3.677
#iterations: 379
currently lose_sum: 0.45667076110839844
time_elpased: 3.638
start validation test
0.7076
0.719542109567
0.694006309148
0.706543556804
0.70779860912
14.024
#iterations: 380
currently lose_sum: 0.5005273222923279
time_elpased: 3.69
#iterations: 381
currently lose_sum: 0.4933050870895386
time_elpased: 3.687
#iterations: 382
currently lose_sum: 0.5025818347930908
time_elpased: 3.623
#iterations: 383
currently lose_sum: 0.5088351368904114
time_elpased: 3.656
#iterations: 384
currently lose_sum: 0.5008628964424133
time_elpased: 3.696
#iterations: 385
currently lose_sum: 0.5154770612716675
time_elpased: 3.681
#iterations: 386
currently lose_sum: 0.4519648849964142
time_elpased: 3.666
#iterations: 387
currently lose_sum: 0.4682806134223938
time_elpased: 3.686
#iterations: 388
currently lose_sum: 0.497010201215744
time_elpased: 3.647
#iterations: 389
currently lose_sum: 0.5364185571670532
time_elpased: 3.739
#iterations: 390
currently lose_sum: 0.38542845845222473
time_elpased: 3.688
#iterations: 391
currently lose_sum: 0.5587702989578247
time_elpased: 3.617
#iterations: 392
currently lose_sum: 0.496297687292099
time_elpased: 3.673
#iterations: 393
currently lose_sum: 0.5352413654327393
time_elpased: 3.649
#iterations: 394
currently lose_sum: 0.4883709251880646
time_elpased: 3.678
#iterations: 395
currently lose_sum: 0.44900253415107727
time_elpased: 3.678
#iterations: 396
currently lose_sum: 0.6147957444190979
time_elpased: 3.742
#iterations: 397
currently lose_sum: 0.5716407299041748
time_elpased: 3.682
#iterations: 398
currently lose_sum: 0.4497927129268646
time_elpased: 3.652
#iterations: 399
currently lose_sum: 0.4491484463214874
time_elpased: 3.661
start validation test
0.668
0.623868778281
0.869873817035
0.726613965744
0.665050544881
15.879
#iterations: 400
currently lose_sum: 0.506116509437561
time_elpased: 3.622
#iterations: 401
currently lose_sum: 0.5202617049217224
time_elpased: 3.764
#iterations: 402
currently lose_sum: 0.49772122502326965
time_elpased: 3.679
#iterations: 403
currently lose_sum: 0.5210617780685425
time_elpased: 3.711
#iterations: 404
currently lose_sum: 0.48961231112480164
time_elpased: 3.682
#iterations: 405
currently lose_sum: 0.4577050507068634
time_elpased: 3.739
#iterations: 406
currently lose_sum: 0.49637866020202637
time_elpased: 3.687
#iterations: 407
currently lose_sum: 0.5386591553688049
time_elpased: 3.841
#iterations: 408
currently lose_sum: 0.5306743383407593
time_elpased: 3.676
#iterations: 409
currently lose_sum: 0.5682541728019714
time_elpased: 3.664
#iterations: 410
currently lose_sum: 0.4822154641151428
time_elpased: 3.678
#iterations: 411
currently lose_sum: 0.5271826982498169
time_elpased: 3.75
#iterations: 412
currently lose_sum: 0.5790313482284546
time_elpased: 3.699
#iterations: 413
currently lose_sum: 0.4489995241165161
time_elpased: 3.737
#iterations: 414
currently lose_sum: 0.42167481780052185
time_elpased: 3.675
#iterations: 415
currently lose_sum: 0.4118891954421997
time_elpased: 3.666
#iterations: 416
currently lose_sum: 0.569052517414093
time_elpased: 3.698
#iterations: 417
currently lose_sum: 0.46172797679901123
time_elpased: 3.659
#iterations: 418
currently lose_sum: 0.5556240677833557
time_elpased: 3.693
#iterations: 419
currently lose_sum: 0.5241013169288635
time_elpased: 3.649
start validation test
0.6388
0.836095764273
0.358044164038
0.501380452789
0.642901952149
17.666
#iterations: 420
currently lose_sum: 0.47126734256744385
time_elpased: 3.621
#iterations: 421
currently lose_sum: 0.5084753632545471
time_elpased: 3.674
#iterations: 422
currently lose_sum: 0.4996265470981598
time_elpased: 3.636
#iterations: 423
currently lose_sum: 0.4155226945877075
time_elpased: 3.644
#iterations: 424
currently lose_sum: 0.46260368824005127
time_elpased: 3.618
#iterations: 425
currently lose_sum: 0.6140559315681458
time_elpased: 3.735
#iterations: 426
currently lose_sum: 0.49081024527549744
time_elpased: 3.685
#iterations: 427
currently lose_sum: 0.5705767273902893
time_elpased: 3.645
#iterations: 428
currently lose_sum: 0.3948725759983063
time_elpased: 3.649
#iterations: 429
currently lose_sum: 0.4702479839324951
time_elpased: 3.579
#iterations: 430
currently lose_sum: 0.41210702061653137
time_elpased: 3.716
#iterations: 431
currently lose_sum: 0.5037163496017456
time_elpased: 3.663
#iterations: 432
currently lose_sum: 0.5237690210342407
time_elpased: 3.659
#iterations: 433
currently lose_sum: 0.4588664174079895
time_elpased: 3.729
#iterations: 434
currently lose_sum: 0.47751182317733765
time_elpased: 3.785
#iterations: 435
currently lose_sum: 0.5095076560974121
time_elpased: 3.673
#iterations: 436
currently lose_sum: 0.5284965634346008
time_elpased: 3.659
#iterations: 437
currently lose_sum: 0.5727590918540955
time_elpased: 3.67
#iterations: 438
currently lose_sum: 0.5023579597473145
time_elpased: 3.679
#iterations: 439
currently lose_sum: 0.4950910806655884
time_elpased: 3.636
start validation test
0.7008
0.671277997365
0.803627760252
0.731514716439
0.69929764636
14.657
#iterations: 440
currently lose_sum: 0.5854409337043762
time_elpased: 3.69
#iterations: 441
currently lose_sum: 0.40588119626045227
time_elpased: 3.643
#iterations: 442
currently lose_sum: 0.5218261480331421
time_elpased: 3.644
#iterations: 443
currently lose_sum: 0.46481654047966003
time_elpased: 3.593
#iterations: 444
currently lose_sum: 0.44919708371162415
time_elpased: 3.645
#iterations: 445
currently lose_sum: 0.45424485206604004
time_elpased: 3.643
#iterations: 446
currently lose_sum: 0.5804889798164368
time_elpased: 3.647
#iterations: 447
currently lose_sum: 0.44481152296066284
time_elpased: 3.811
#iterations: 448
currently lose_sum: 0.4843696355819702
time_elpased: 3.63
#iterations: 449
currently lose_sum: 0.45560985803604126
time_elpased: 3.69
#iterations: 450
currently lose_sum: 0.5389936566352844
time_elpased: 3.639
#iterations: 451
currently lose_sum: 0.4714476764202118
time_elpased: 3.679
#iterations: 452
currently lose_sum: 0.5034793019294739
time_elpased: 3.681
#iterations: 453
currently lose_sum: 0.48853394389152527
time_elpased: 3.676
#iterations: 454
currently lose_sum: 0.3955169916152954
time_elpased: 3.658
#iterations: 455
currently lose_sum: 0.4379698932170868
time_elpased: 3.701
#iterations: 456
currently lose_sum: 0.5002886056900024
time_elpased: 3.752
#iterations: 457
currently lose_sum: 0.4761553108692169
time_elpased: 3.683
#iterations: 458
currently lose_sum: 0.5009705424308777
time_elpased: 3.649
#iterations: 459
currently lose_sum: 0.5041473507881165
time_elpased: 3.629
start validation test
0.716
0.724637681159
0.709779179811
0.717131474104
0.716090888607
13.789
#iterations: 460
currently lose_sum: 0.42525771260261536
time_elpased: 3.638
#iterations: 461
currently lose_sum: 0.4386195242404938
time_elpased: 3.627
#iterations: 462
currently lose_sum: 0.4978329837322235
time_elpased: 3.668
#iterations: 463
currently lose_sum: 0.4849121868610382
time_elpased: 3.644
#iterations: 464
currently lose_sum: 0.4165571928024292
time_elpased: 3.705
#iterations: 465
currently lose_sum: 0.5640888214111328
time_elpased: 3.674
#iterations: 466
currently lose_sum: 0.5120120644569397
time_elpased: 3.686
#iterations: 467
currently lose_sum: 0.49796149134635925
time_elpased: 3.59
#iterations: 468
currently lose_sum: 0.3688187897205353
time_elpased: 3.672
#iterations: 469
currently lose_sum: 0.4999238848686218
time_elpased: 3.672
#iterations: 470
currently lose_sum: 0.4694784879684448
time_elpased: 3.623
#iterations: 471
currently lose_sum: 0.494476854801178
time_elpased: 3.642
#iterations: 472
currently lose_sum: 0.4397822916507721
time_elpased: 3.694
#iterations: 473
currently lose_sum: 0.47346821427345276
time_elpased: 3.68
#iterations: 474
currently lose_sum: 0.5375958681106567
time_elpased: 3.664
#iterations: 475
currently lose_sum: 0.43102627992630005
time_elpased: 3.675
#iterations: 476
currently lose_sum: 0.5904180407524109
time_elpased: 3.699
#iterations: 477
currently lose_sum: 0.4643603265285492
time_elpased: 3.703
#iterations: 478
currently lose_sum: 0.49539175629615784
time_elpased: 3.673
#iterations: 479
currently lose_sum: 0.7871554493904114
time_elpased: 3.675
start validation test
0.702
0.681723419041
0.773659305994
0.724787587736
0.70095302962
14.080
#iterations: 480
currently lose_sum: 0.44171956181526184
time_elpased: 3.642
#iterations: 481
currently lose_sum: 0.4374069571495056
time_elpased: 3.609
#iterations: 482
currently lose_sum: 0.5132396817207336
time_elpased: 3.69
#iterations: 483
currently lose_sum: 0.4908394515514374
time_elpased: 3.657
#iterations: 484
currently lose_sum: 0.4748358130455017
time_elpased: 3.651
#iterations: 485
currently lose_sum: 0.4779087007045746
time_elpased: 3.694
#iterations: 486
currently lose_sum: 0.4269515872001648
time_elpased: 3.706
#iterations: 487
currently lose_sum: 0.45482170581817627
time_elpased: 3.71
#iterations: 488
currently lose_sum: 0.513739824295044
time_elpased: 3.7
#iterations: 489
currently lose_sum: 0.43117833137512207
time_elpased: 3.629
#iterations: 490
currently lose_sum: 0.447383850812912
time_elpased: 3.705
#iterations: 491
currently lose_sum: 0.48431330919265747
time_elpased: 3.701
#iterations: 492
currently lose_sum: 0.5676651000976562
time_elpased: 3.663
#iterations: 493
currently lose_sum: 0.49144116044044495
time_elpased: 3.654
#iterations: 494
currently lose_sum: 0.4847193658351898
time_elpased: 3.628
#iterations: 495
currently lose_sum: 0.5612772703170776
time_elpased: 3.677
#iterations: 496
currently lose_sum: 0.5331666469573975
time_elpased: 3.631
#iterations: 497
currently lose_sum: 0.3783295750617981
time_elpased: 3.673
#iterations: 498
currently lose_sum: 0.6121042370796204
time_elpased: 3.643
#iterations: 499
currently lose_sum: 0.5368763208389282
time_elpased: 3.666
start validation test
0.7148
0.71662763466
0.723974763407
0.720282463711
0.714665953132
13.646
#iterations: 500
currently lose_sum: 0.493114173412323
time_elpased: 3.646
#iterations: 501
currently lose_sum: 0.5366761088371277
time_elpased: 3.777
#iterations: 502
currently lose_sum: 0.5116127133369446
time_elpased: 3.71
#iterations: 503
currently lose_sum: 0.4483143985271454
time_elpased: 3.712
#iterations: 504
currently lose_sum: 0.4806862771511078
time_elpased: 3.646
#iterations: 505
currently lose_sum: 0.4926963150501251
time_elpased: 3.655
#iterations: 506
currently lose_sum: 0.48952704668045044
time_elpased: 3.675
#iterations: 507
currently lose_sum: 0.3945833444595337
time_elpased: 3.689
#iterations: 508
currently lose_sum: 0.449859082698822
time_elpased: 3.67
#iterations: 509
currently lose_sum: 0.435556560754776
time_elpased: 3.663
#iterations: 510
currently lose_sum: 0.41281449794769287
time_elpased: 3.678
#iterations: 511
currently lose_sum: 0.49000415205955505
time_elpased: 3.706
#iterations: 512
currently lose_sum: 0.45480144023895264
time_elpased: 3.68
#iterations: 513
currently lose_sum: 0.4750446677207947
time_elpased: 3.668
#iterations: 514
currently lose_sum: 0.5401970148086548
time_elpased: 3.678
#iterations: 515
currently lose_sum: 0.4132598042488098
time_elpased: 3.647
#iterations: 516
currently lose_sum: 0.3466702401638031
time_elpased: 3.691
#iterations: 517
currently lose_sum: 0.4477246403694153
time_elpased: 3.674
#iterations: 518
currently lose_sum: 0.5178346037864685
time_elpased: 3.791
#iterations: 519
currently lose_sum: 0.44653594493865967
time_elpased: 3.604
start validation test
0.7136
0.728476821192
0.694006309148
0.710823909532
0.713886271457
13.759
#iterations: 520
currently lose_sum: 0.4167090654373169
time_elpased: 3.686
#iterations: 521
currently lose_sum: 0.5143150687217712
time_elpased: 3.663
#iterations: 522
currently lose_sum: 0.4764849841594696
time_elpased: 3.8
#iterations: 523
currently lose_sum: 0.4476466476917267
time_elpased: 3.662
#iterations: 524
currently lose_sum: 0.520297110080719
time_elpased: 3.711
#iterations: 525
currently lose_sum: 0.4366084933280945
time_elpased: 3.738
#iterations: 526
currently lose_sum: 0.4677925109863281
time_elpased: 3.655
#iterations: 527
currently lose_sum: 0.40698927640914917
time_elpased: 3.736
#iterations: 528
currently lose_sum: 0.41713806986808777
time_elpased: 3.605
#iterations: 529
currently lose_sum: 0.4899512529373169
time_elpased: 3.64
#iterations: 530
currently lose_sum: 0.4692342281341553
time_elpased: 3.693
#iterations: 531
currently lose_sum: 0.4678485095500946
time_elpased: 3.664
#iterations: 532
currently lose_sum: 0.36633601784706116
time_elpased: 3.72
#iterations: 533
currently lose_sum: 0.40900668501853943
time_elpased: 3.666
#iterations: 534
currently lose_sum: 0.4680350422859192
time_elpased: 3.721
#iterations: 535
currently lose_sum: 0.4427691698074341
time_elpased: 3.709
#iterations: 536
currently lose_sum: 0.5586177110671997
time_elpased: 3.608
#iterations: 537
currently lose_sum: 0.5653147101402283
time_elpased: 3.641
#iterations: 538
currently lose_sum: 0.44934073090553284
time_elpased: 3.653
#iterations: 539
currently lose_sum: 0.49267905950546265
time_elpased: 3.667
start validation test
0.7032
0.66858974359
0.822555205047
0.737623762376
0.701456173952
14.314
#iterations: 540
currently lose_sum: 0.46607574820518494
time_elpased: 3.666
#iterations: 541
currently lose_sum: 0.4997866749763489
time_elpased: 3.655
#iterations: 542
currently lose_sum: 0.433411568403244
time_elpased: 3.635
#iterations: 543
currently lose_sum: 0.4362969696521759
time_elpased: 3.644
#iterations: 544
currently lose_sum: 0.39706432819366455
time_elpased: 3.636
#iterations: 545
currently lose_sum: 0.3782402276992798
time_elpased: 3.661
#iterations: 546
currently lose_sum: 0.5309011936187744
time_elpased: 3.739
#iterations: 547
currently lose_sum: 0.4520290493965149
time_elpased: 3.806
#iterations: 548
currently lose_sum: 0.475636750459671
time_elpased: 3.687
#iterations: 549
currently lose_sum: 0.43269211053848267
time_elpased: 3.605
#iterations: 550
currently lose_sum: 0.4112622141838074
time_elpased: 3.677
#iterations: 551
currently lose_sum: 0.45593681931495667
time_elpased: 3.694
#iterations: 552
currently lose_sum: 0.4899188280105591
time_elpased: 3.666
#iterations: 553
currently lose_sum: 0.43645310401916504
time_elpased: 3.678
#iterations: 554
currently lose_sum: 0.4820070266723633
time_elpased: 3.665
#iterations: 555
currently lose_sum: 0.4475063681602478
time_elpased: 3.664
#iterations: 556
currently lose_sum: 0.560827374458313
time_elpased: 3.628
#iterations: 557
currently lose_sum: 0.5021337866783142
time_elpased: 3.642
#iterations: 558
currently lose_sum: 0.5532890558242798
time_elpased: 3.613
#iterations: 559
currently lose_sum: 0.4546276330947876
time_elpased: 3.738
start validation test
0.6812
0.83215796897
0.465299684543
0.596863935255
0.684354387726
15.250
#iterations: 560
currently lose_sum: 0.4962247908115387
time_elpased: 3.59
#iterations: 561
currently lose_sum: 0.5618391633033752
time_elpased: 3.679
#iterations: 562
currently lose_sum: 0.42528656125068665
time_elpased: 3.652
#iterations: 563
currently lose_sum: 0.41302725672721863
time_elpased: 3.698
#iterations: 564
currently lose_sum: 0.5023962259292603
time_elpased: 3.661
#iterations: 565
currently lose_sum: 0.38251790404319763
time_elpased: 3.716
#iterations: 566
currently lose_sum: 0.41287970542907715
time_elpased: 3.629
#iterations: 567
currently lose_sum: 0.40148842334747314
time_elpased: 3.665
#iterations: 568
currently lose_sum: 0.4435265362262726
time_elpased: 3.647
#iterations: 569
currently lose_sum: 0.4393174648284912
time_elpased: 3.66
#iterations: 570
currently lose_sum: 0.6619236469268799
time_elpased: 3.659
#iterations: 571
currently lose_sum: 0.4630087912082672
time_elpased: 3.654
#iterations: 572
currently lose_sum: 0.44704803824424744
time_elpased: 3.687
#iterations: 573
currently lose_sum: 0.4772619307041168
time_elpased: 3.659
#iterations: 574
currently lose_sum: 0.47235772013664246
time_elpased: 3.754
#iterations: 575
currently lose_sum: 0.5210918188095093
time_elpased: 3.646
#iterations: 576
currently lose_sum: 0.49060648679733276
time_elpased: 3.664
#iterations: 577
currently lose_sum: 0.48428916931152344
time_elpased: 3.625
#iterations: 578
currently lose_sum: 0.41560494899749756
time_elpased: 3.693
#iterations: 579
currently lose_sum: 0.41405707597732544
time_elpased: 3.717
start validation test
0.7224
0.738372093023
0.701104100946
0.71925566343
0.722711141382
13.930
#iterations: 580
currently lose_sum: 0.4754050374031067
time_elpased: 3.686
#iterations: 581
currently lose_sum: 0.4068753719329834
time_elpased: 3.724
#iterations: 582
currently lose_sum: 0.41465890407562256
time_elpased: 3.686
#iterations: 583
currently lose_sum: 0.5296072363853455
time_elpased: 3.686
#iterations: 584
currently lose_sum: 0.4121752083301544
time_elpased: 3.632
#iterations: 585
currently lose_sum: 0.4813201129436493
time_elpased: 3.634
#iterations: 586
currently lose_sum: 0.39823248982429504
time_elpased: 3.654
#iterations: 587
currently lose_sum: 0.5358386039733887
time_elpased: 3.635
#iterations: 588
currently lose_sum: 0.41704118251800537
time_elpased: 3.713
#iterations: 589
currently lose_sum: 0.4158520996570587
time_elpased: 3.669
#iterations: 590
currently lose_sum: 0.4153875708580017
time_elpased: 3.67
#iterations: 591
currently lose_sum: 0.5061158537864685
time_elpased: 3.624
#iterations: 592
currently lose_sum: 0.47606730461120605
time_elpased: 3.699
#iterations: 593
currently lose_sum: 0.4984581768512726
time_elpased: 3.688
#iterations: 594
currently lose_sum: 0.4414292871952057
time_elpased: 3.651
#iterations: 595
currently lose_sum: 0.6373514533042908
time_elpased: 3.683
#iterations: 596
currently lose_sum: 0.3749219477176666
time_elpased: 3.66
#iterations: 597
currently lose_sum: 0.485289603471756
time_elpased: 3.702
#iterations: 598
currently lose_sum: 0.39986899495124817
time_elpased: 3.838
#iterations: 599
currently lose_sum: 0.4744686782360077
time_elpased: 3.582
start validation test
0.72
0.70913107511
0.759463722397
0.73343488195
0.71942341964
14.361
acc: 0.734
pre: 0.732
rec: 0.749
F1: 0.741
auc: 0.734
