start to construct computing graph
graph construct over
3803
epochs start
#iterations: 0
currently lose_sum: 0.6927028894424438
time_elpased: 3.205
#iterations: 1
currently lose_sum: 0.6910038590431213
time_elpased: 3.141
#iterations: 2
currently lose_sum: 0.6974995136260986
time_elpased: 3.188
#iterations: 3
currently lose_sum: 0.6882937550544739
time_elpased: 3.139
#iterations: 4
currently lose_sum: 0.6903433799743652
time_elpased: 3.196
#iterations: 5
currently lose_sum: 0.6890542507171631
time_elpased: 3.14
#iterations: 6
currently lose_sum: 0.6881236433982849
time_elpased: 3.083
#iterations: 7
currently lose_sum: 0.6909523010253906
time_elpased: 3.124
#iterations: 8
currently lose_sum: 0.6866154670715332
time_elpased: 3.152
#iterations: 9
currently lose_sum: 0.6886759996414185
time_elpased: 3.202
#iterations: 10
currently lose_sum: 0.6937379240989685
time_elpased: 3.065
#iterations: 11
currently lose_sum: 0.6936166882514954
time_elpased: 3.169
#iterations: 12
currently lose_sum: 0.7019683718681335
time_elpased: 3.195
#iterations: 13
currently lose_sum: 0.6750802397727966
time_elpased: 3.162
#iterations: 14
currently lose_sum: 0.6912763118743896
time_elpased: 3.144
#iterations: 15
currently lose_sum: 0.6959144473075867
time_elpased: 3.137
#iterations: 16
currently lose_sum: 0.6999969482421875
time_elpased: 3.129
#iterations: 17
currently lose_sum: 0.6796571612358093
time_elpased: 3.639
#iterations: 18
currently lose_sum: 0.7035653591156006
time_elpased: 3.131
#iterations: 19
currently lose_sum: 0.6932904124259949
time_elpased: 3.127
start validation test
0.5516
0.569523809524
0.471981057616
0.516184721623
0.552697746975
17.230
#iterations: 20
currently lose_sum: 0.6862872838973999
time_elpased: 2.542
#iterations: 21
currently lose_sum: 0.6862059831619263
time_elpased: 2.476
#iterations: 22
currently lose_sum: 0.6960699558258057
time_elpased: 2.711
#iterations: 23
currently lose_sum: 0.6783065795898438
time_elpased: 2.499
#iterations: 24
currently lose_sum: 0.6934269666671753
time_elpased: 2.478
#iterations: 25
currently lose_sum: 0.6783463358879089
time_elpased: 2.546
#iterations: 26
currently lose_sum: 0.6881541609764099
time_elpased: 2.454
#iterations: 27
currently lose_sum: 0.6798190474510193
time_elpased: 2.459
#iterations: 28
currently lose_sum: 0.6866999864578247
time_elpased: 2.519
#iterations: 29
currently lose_sum: 0.6967260837554932
time_elpased: 2.49
#iterations: 30
currently lose_sum: 0.6872627139091492
time_elpased: 2.489
#iterations: 31
currently lose_sum: 0.6976019144058228
time_elpased: 2.506
#iterations: 32
currently lose_sum: 0.6791831851005554
time_elpased: 2.478
#iterations: 33
currently lose_sum: 0.6959031820297241
time_elpased: 2.555
#iterations: 34
currently lose_sum: 0.6861379742622375
time_elpased: 2.461
#iterations: 35
currently lose_sum: 0.6643865704536438
time_elpased: 2.676
#iterations: 36
currently lose_sum: 0.6869580149650574
time_elpased: 2.538
#iterations: 37
currently lose_sum: 0.6713085770606995
time_elpased: 2.516
#iterations: 38
currently lose_sum: 0.6649017333984375
time_elpased: 2.754
#iterations: 39
currently lose_sum: 0.6851000785827637
time_elpased: 2.469
start validation test
0.5672
0.557204700062
0.711128650355
0.624826629681
0.565215582274
16.890
#iterations: 40
currently lose_sum: 0.6773903369903564
time_elpased: 2.66
#iterations: 41
currently lose_sum: 0.6830875873565674
time_elpased: 2.553
#iterations: 42
currently lose_sum: 0.6737940907478333
time_elpased: 2.459
#iterations: 43
currently lose_sum: 0.6786851286888123
time_elpased: 2.876
#iterations: 44
currently lose_sum: 0.6728458404541016
time_elpased: 2.894
#iterations: 45
currently lose_sum: 0.6813286542892456
time_elpased: 2.485
#iterations: 46
currently lose_sum: 0.6731194853782654
time_elpased: 2.462
#iterations: 47
currently lose_sum: 0.6868600249290466
time_elpased: 2.656
#iterations: 48
currently lose_sum: 0.6893646121025085
time_elpased: 2.513
#iterations: 49
currently lose_sum: 0.6254377365112305
time_elpased: 2.575
#iterations: 50
currently lose_sum: 0.694307267665863
time_elpased: 2.469
#iterations: 51
currently lose_sum: 0.628903329372406
time_elpased: 2.472
#iterations: 52
currently lose_sum: 0.67500901222229
time_elpased: 2.617
#iterations: 53
currently lose_sum: 0.663606584072113
time_elpased: 2.534
#iterations: 54
currently lose_sum: 0.6427412629127502
time_elpased: 2.507
#iterations: 55
currently lose_sum: 0.6840364336967468
time_elpased: 2.473
#iterations: 56
currently lose_sum: 0.6868310570716858
time_elpased: 2.467
#iterations: 57
currently lose_sum: 0.6038826704025269
time_elpased: 2.506
#iterations: 58
currently lose_sum: 0.6712625622749329
time_elpased: 2.483
#iterations: 59
currently lose_sum: 0.6628396511077881
time_elpased: 2.51
start validation test
0.596
0.598922247883
0.614048934491
0.60639127046
0.595751150133
16.456
#iterations: 60
currently lose_sum: 0.6380045413970947
time_elpased: 2.64
#iterations: 61
currently lose_sum: 0.6748275756835938
time_elpased: 2.585
#iterations: 62
currently lose_sum: 0.6917785406112671
time_elpased: 2.43
#iterations: 63
currently lose_sum: 0.6893856525421143
time_elpased: 2.561
#iterations: 64
currently lose_sum: 0.6304545402526855
time_elpased: 2.508
#iterations: 65
currently lose_sum: 0.6631987690925598
time_elpased: 2.478
#iterations: 66
currently lose_sum: 0.6500658392906189
time_elpased: 2.525
#iterations: 67
currently lose_sum: 0.5977839231491089
time_elpased: 2.473
#iterations: 68
currently lose_sum: 0.6984882950782776
time_elpased: 2.605
#iterations: 69
currently lose_sum: 0.6306858062744141
time_elpased: 2.523
#iterations: 70
currently lose_sum: 0.66729736328125
time_elpased: 2.505
#iterations: 71
currently lose_sum: 0.6711990237236023
time_elpased: 2.475
#iterations: 72
currently lose_sum: 0.6435810923576355
time_elpased: 2.523
#iterations: 73
currently lose_sum: 0.6503399610519409
time_elpased: 2.487
#iterations: 74
currently lose_sum: 0.6690689921379089
time_elpased: 2.461
#iterations: 75
currently lose_sum: 0.6552141308784485
time_elpased: 2.65
#iterations: 76
currently lose_sum: 0.657604992389679
time_elpased: 2.49
#iterations: 77
currently lose_sum: 0.623641848564148
time_elpased: 2.464
#iterations: 78
currently lose_sum: 0.6440723538398743
time_elpased: 2.438
#iterations: 79
currently lose_sum: 0.6351938843727112
time_elpased: 2.838
start validation test
0.5752
0.787114845938
0.221783741121
0.3460591133
0.580072730252
17.442
#iterations: 80
currently lose_sum: 0.6181179285049438
time_elpased: 2.527
#iterations: 81
currently lose_sum: 0.6121019124984741
time_elpased: 2.878
#iterations: 82
currently lose_sum: 0.636652410030365
time_elpased: 2.462
#iterations: 83
currently lose_sum: 0.6162977814674377
time_elpased: 2.616
#iterations: 84
currently lose_sum: 0.6151159405708313
time_elpased: 2.468
#iterations: 85
currently lose_sum: 0.6678431630134583
time_elpased: 2.608
#iterations: 86
currently lose_sum: 0.6586101055145264
time_elpased: 2.519
#iterations: 87
currently lose_sum: 0.5907251238822937
time_elpased: 2.496
#iterations: 88
currently lose_sum: 0.600734531879425
time_elpased: 2.478
#iterations: 89
currently lose_sum: 0.6196611523628235
time_elpased: 2.478
#iterations: 90
currently lose_sum: 0.64603590965271
time_elpased: 2.505
#iterations: 91
currently lose_sum: 0.6363025903701782
time_elpased: 2.451
#iterations: 92
currently lose_sum: 0.6446423530578613
time_elpased: 2.493
#iterations: 93
currently lose_sum: 0.6457018852233887
time_elpased: 2.504
#iterations: 94
currently lose_sum: 0.6318857669830322
time_elpased: 2.968
#iterations: 95
currently lose_sum: 0.6295179128646851
time_elpased: 2.503
#iterations: 96
currently lose_sum: 0.634829580783844
time_elpased: 2.578
#iterations: 97
currently lose_sum: 0.5996778011322021
time_elpased: 2.472
#iterations: 98
currently lose_sum: 0.6026841998100281
time_elpased: 2.432
#iterations: 99
currently lose_sum: 0.6118344664573669
time_elpased: 2.47
start validation test
0.5764
0.76
0.239936858721
0.364727054589
0.581038988971
17.464
#iterations: 100
currently lose_sum: 0.5944730639457703
time_elpased: 2.483
#iterations: 101
currently lose_sum: 0.6317217350006104
time_elpased: 2.476
#iterations: 102
currently lose_sum: 0.6367977261543274
time_elpased: 2.502
#iterations: 103
currently lose_sum: 0.6129800081253052
time_elpased: 2.494
#iterations: 104
currently lose_sum: 0.6576616168022156
time_elpased: 2.497
#iterations: 105
currently lose_sum: 0.5915496349334717
time_elpased: 2.488
#iterations: 106
currently lose_sum: 0.5990403890609741
time_elpased: 2.448
#iterations: 107
currently lose_sum: 0.6102864742279053
time_elpased: 2.452
#iterations: 108
currently lose_sum: 0.6195063591003418
time_elpased: 2.53
#iterations: 109
currently lose_sum: 0.6385969519615173
time_elpased: 2.73
#iterations: 110
currently lose_sum: 0.6257408857345581
time_elpased: 2.507
#iterations: 111
currently lose_sum: 0.6004153490066528
time_elpased: 2.566
#iterations: 112
currently lose_sum: 0.6401146054267883
time_elpased: 2.756
#iterations: 113
currently lose_sum: 0.5842010378837585
time_elpased: 2.57
#iterations: 114
currently lose_sum: 0.5926982760429382
time_elpased: 2.595
#iterations: 115
currently lose_sum: 0.6020151376724243
time_elpased: 2.512
#iterations: 116
currently lose_sum: 0.637423574924469
time_elpased: 2.778
#iterations: 117
currently lose_sum: 0.588813841342926
time_elpased: 2.935
#iterations: 118
currently lose_sum: 0.5917940139770508
time_elpased: 2.515
#iterations: 119
currently lose_sum: 0.5895736813545227
time_elpased: 2.981
start validation test
0.6456
0.613460393091
0.812943962115
0.699253224711
0.643292743426
15.907
#iterations: 120
currently lose_sum: 0.6192386150360107
time_elpased: 2.509
#iterations: 121
currently lose_sum: 0.6092396974563599
time_elpased: 2.526
#iterations: 122
currently lose_sum: 0.5433686971664429
time_elpased: 2.492
#iterations: 123
currently lose_sum: 0.5788388252258301
time_elpased: 2.693
#iterations: 124
currently lose_sum: 0.6666553020477295
time_elpased: 2.519
#iterations: 125
currently lose_sum: 0.5947315692901611
time_elpased: 2.484
#iterations: 126
currently lose_sum: 0.5922382473945618
time_elpased: 2.523
#iterations: 127
currently lose_sum: 0.5662173628807068
time_elpased: 2.446
#iterations: 128
currently lose_sum: 0.5918093323707581
time_elpased: 2.486
#iterations: 129
currently lose_sum: 0.6397435665130615
time_elpased: 2.464
#iterations: 130
currently lose_sum: 0.5587925314903259
time_elpased: 2.536
#iterations: 131
currently lose_sum: 0.6269063949584961
time_elpased: 2.506
#iterations: 132
currently lose_sum: 0.566079318523407
time_elpased: 2.493
#iterations: 133
currently lose_sum: 0.6290424466133118
time_elpased: 2.651
#iterations: 134
currently lose_sum: 0.6186937093734741
time_elpased: 2.501
#iterations: 135
currently lose_sum: 0.603361189365387
time_elpased: 2.577
#iterations: 136
currently lose_sum: 0.6053395867347717
time_elpased: 2.451
#iterations: 137
currently lose_sum: 0.5858389139175415
time_elpased: 2.517
#iterations: 138
currently lose_sum: 0.6379342079162598
time_elpased: 2.59
#iterations: 139
currently lose_sum: 0.6261950135231018
time_elpased: 2.526
start validation test
0.644
0.720467836257
0.486187845304
0.580584354383
0.646175836683
15.822
#iterations: 140
currently lose_sum: 0.6250694394111633
time_elpased: 2.503
#iterations: 141
currently lose_sum: 0.6705561876296997
time_elpased: 2.643
#iterations: 142
currently lose_sum: 0.6405733227729797
time_elpased: 2.462
#iterations: 143
currently lose_sum: 0.5888770222663879
time_elpased: 2.509
#iterations: 144
currently lose_sum: 0.5819416642189026
time_elpased: 2.607
#iterations: 145
currently lose_sum: 0.5901291370391846
time_elpased: 2.541
#iterations: 146
currently lose_sum: 0.6824894547462463
time_elpased: 2.538
#iterations: 147
currently lose_sum: 0.5832183957099915
time_elpased: 2.478
#iterations: 148
currently lose_sum: 0.5636088848114014
time_elpased: 2.588
#iterations: 149
currently lose_sum: 0.6247807145118713
time_elpased: 2.538
#iterations: 150
currently lose_sum: 0.598426103591919
time_elpased: 2.818
#iterations: 151
currently lose_sum: 0.6081745028495789
time_elpased: 2.567
#iterations: 152
currently lose_sum: 0.5984221696853638
time_elpased: 2.517
#iterations: 153
currently lose_sum: 0.6153650283813477
time_elpased: 2.61
#iterations: 154
currently lose_sum: 0.5272115468978882
time_elpased: 2.554
#iterations: 155
currently lose_sum: 0.5291813611984253
time_elpased: 2.484
#iterations: 156
currently lose_sum: 0.5849419236183167
time_elpased: 2.511
#iterations: 157
currently lose_sum: 0.5569390654563904
time_elpased: 2.551
#iterations: 158
currently lose_sum: 0.6023052334785461
time_elpased: 2.602
#iterations: 159
currently lose_sum: 0.5409103631973267
time_elpased: 2.47
start validation test
0.6736
0.655196145905
0.75138121547
0.7
0.672527590703
14.917
#iterations: 160
currently lose_sum: 0.5893498063087463
time_elpased: 2.476
#iterations: 161
currently lose_sum: 0.5840821862220764
time_elpased: 2.902
#iterations: 162
currently lose_sum: 0.5968220233917236
time_elpased: 2.589
#iterations: 163
currently lose_sum: 0.6708903312683105
time_elpased: 2.53
#iterations: 164
currently lose_sum: 0.5369536876678467
time_elpased: 2.545
#iterations: 165
currently lose_sum: 0.6298263072967529
time_elpased: 2.745
#iterations: 166
currently lose_sum: 0.5674967765808105
time_elpased: 2.596
#iterations: 167
currently lose_sum: 0.6052104830741882
time_elpased: 2.509
#iterations: 168
currently lose_sum: 0.577570915222168
time_elpased: 2.474
#iterations: 169
currently lose_sum: 0.6111375689506531
time_elpased: 2.851
#iterations: 170
currently lose_sum: 0.5245269536972046
time_elpased: 2.48
#iterations: 171
currently lose_sum: 0.540245532989502
time_elpased: 2.685
#iterations: 172
currently lose_sum: 0.5971681475639343
time_elpased: 2.523
#iterations: 173
currently lose_sum: 0.530704140663147
time_elpased: 2.53
#iterations: 174
currently lose_sum: 0.665353536605835
time_elpased: 2.595
#iterations: 175
currently lose_sum: 0.5493482947349548
time_elpased: 2.508
#iterations: 176
currently lose_sum: 0.4828192889690399
time_elpased: 2.492
#iterations: 177
currently lose_sum: 0.6801478862762451
time_elpased: 2.501
#iterations: 178
currently lose_sum: 0.600867509841919
time_elpased: 2.484
#iterations: 179
currently lose_sum: 0.6479684710502625
time_elpased: 2.589
start validation test
0.6844
0.730250481696
0.598263614838
0.657700650759
0.685587606284
14.733
#iterations: 180
currently lose_sum: 0.6345499157905579
time_elpased: 2.49
#iterations: 181
currently lose_sum: 0.6148372888565063
time_elpased: 2.448
#iterations: 182
currently lose_sum: 0.524842381477356
time_elpased: 3.188
#iterations: 183
currently lose_sum: 0.6581475138664246
time_elpased: 2.667
#iterations: 184
currently lose_sum: 0.5822171568870544
time_elpased: 2.541
#iterations: 185
currently lose_sum: 0.5929572582244873
time_elpased: 2.514
#iterations: 186
currently lose_sum: 0.5072968602180481
time_elpased: 2.601
#iterations: 187
currently lose_sum: 0.6064388751983643
time_elpased: 2.531
#iterations: 188
currently lose_sum: 0.5409778356552124
time_elpased: 2.524
#iterations: 189
currently lose_sum: 0.5295554995536804
time_elpased: 2.45
#iterations: 190
currently lose_sum: 0.5474355816841125
time_elpased: 2.547
#iterations: 191
currently lose_sum: 0.5671876668930054
time_elpased: 2.475
#iterations: 192
currently lose_sum: 0.5820813775062561
time_elpased: 2.63
#iterations: 193
currently lose_sum: 0.5929447412490845
time_elpased: 2.544
#iterations: 194
currently lose_sum: 0.5888292789459229
time_elpased: 2.531
#iterations: 195
currently lose_sum: 0.5532371997833252
time_elpased: 2.453
#iterations: 196
currently lose_sum: 0.5831702947616577
time_elpased: 2.603
#iterations: 197
currently lose_sum: 0.5419082045555115
time_elpased: 2.454
#iterations: 198
currently lose_sum: 0.6458009481430054
time_elpased: 2.464
#iterations: 199
currently lose_sum: 0.5009342432022095
time_elpased: 2.488
start validation test
0.6652
0.782894736842
0.469613259669
0.587074494327
0.667896654165
15.124
#iterations: 200
currently lose_sum: 0.590008020401001
time_elpased: 2.476
#iterations: 201
currently lose_sum: 0.5657016634941101
time_elpased: 2.601
#iterations: 202
currently lose_sum: 0.5826207995414734
time_elpased: 2.548
#iterations: 203
currently lose_sum: 0.6222969889640808
time_elpased: 2.534
#iterations: 204
currently lose_sum: 0.575063169002533
time_elpased: 2.462
#iterations: 205
currently lose_sum: 0.6679330468177795
time_elpased: 2.484
#iterations: 206
currently lose_sum: 0.5734880566596985
time_elpased: 2.529
#iterations: 207
currently lose_sum: 0.6111953258514404
time_elpased: 2.429
#iterations: 208
currently lose_sum: 0.5957145690917969
time_elpased: 2.817
#iterations: 209
currently lose_sum: 0.5217925906181335
time_elpased: 2.62
#iterations: 210
currently lose_sum: 0.5865510702133179
time_elpased: 2.475
#iterations: 211
currently lose_sum: 0.538159191608429
time_elpased: 2.516
#iterations: 212
currently lose_sum: 0.5100206136703491
time_elpased: 2.49
#iterations: 213
currently lose_sum: 0.538875162601471
time_elpased: 2.47
#iterations: 214
currently lose_sum: 0.49091213941574097
time_elpased: 2.541
#iterations: 215
currently lose_sum: 0.5459225177764893
time_elpased: 2.519
#iterations: 216
currently lose_sum: 0.6785270571708679
time_elpased: 2.524
#iterations: 217
currently lose_sum: 0.6261518001556396
time_elpased: 2.417
#iterations: 218
currently lose_sum: 0.5359483957290649
time_elpased: 2.541
#iterations: 219
currently lose_sum: 0.5552934408187866
time_elpased: 2.672
start validation test
0.6884
0.756842105263
0.567482241515
0.648624267028
0.690067154821
14.749
#iterations: 220
currently lose_sum: 0.7071560621261597
time_elpased: 2.635
#iterations: 221
currently lose_sum: 0.6079012751579285
time_elpased: 2.532
#iterations: 222
currently lose_sum: 0.4797041416168213
time_elpased: 2.52
#iterations: 223
currently lose_sum: 0.5872933864593506
time_elpased: 2.462
#iterations: 224
currently lose_sum: 0.4935566186904907
time_elpased: 2.587
#iterations: 225
currently lose_sum: 0.566158652305603
time_elpased: 2.492
#iterations: 226
currently lose_sum: 0.5641067028045654
time_elpased: 2.547
#iterations: 227
currently lose_sum: 0.5690120458602905
time_elpased: 2.544
#iterations: 228
currently lose_sum: 0.5345762372016907
time_elpased: 2.532
#iterations: 229
currently lose_sum: 0.5300666689872742
time_elpased: 2.512
#iterations: 230
currently lose_sum: 0.5127891302108765
time_elpased: 2.492
#iterations: 231
currently lose_sum: 0.5433518886566162
time_elpased: 2.457
#iterations: 232
currently lose_sum: 0.5485406517982483
time_elpased: 2.603
#iterations: 233
currently lose_sum: 0.5344191789627075
time_elpased: 2.488
#iterations: 234
currently lose_sum: 0.5281971096992493
time_elpased: 2.567
#iterations: 235
currently lose_sum: 0.5222692489624023
time_elpased: 2.74
#iterations: 236
currently lose_sum: 0.6841377019882202
time_elpased: 2.471
#iterations: 237
currently lose_sum: 0.5143634676933289
time_elpased: 2.498
#iterations: 238
currently lose_sum: 0.549793004989624
time_elpased: 2.529
#iterations: 239
currently lose_sum: 0.5873106122016907
time_elpased: 2.668
start validation test
0.6936
0.662979830839
0.804262036306
0.726818830243
0.692074246053
14.378
#iterations: 240
currently lose_sum: 0.5287676453590393
time_elpased: 2.496
#iterations: 241
currently lose_sum: 0.5347148776054382
time_elpased: 2.451
#iterations: 242
currently lose_sum: 0.5395292043685913
time_elpased: 2.492
#iterations: 243
currently lose_sum: 0.6809172630310059
time_elpased: 2.479
#iterations: 244
currently lose_sum: 0.522798478603363
time_elpased: 2.521
#iterations: 245
currently lose_sum: 0.5839732885360718
time_elpased: 2.556
#iterations: 246
currently lose_sum: 0.504214346408844
time_elpased: 2.457
#iterations: 247
currently lose_sum: 0.5153239369392395
time_elpased: 2.542
#iterations: 248
currently lose_sum: 0.5629417896270752
time_elpased: 2.551
#iterations: 249
currently lose_sum: 0.5165404677391052
time_elpased: 2.49
#iterations: 250
currently lose_sum: 0.5465719103813171
time_elpased: 2.535
#iterations: 251
currently lose_sum: 0.553672194480896
time_elpased: 2.495
#iterations: 252
currently lose_sum: 0.45446422696113586
time_elpased: 2.472
#iterations: 253
currently lose_sum: 0.506756067276001
time_elpased: 2.479
#iterations: 254
currently lose_sum: 0.46735861897468567
time_elpased: 2.697
#iterations: 255
currently lose_sum: 0.6213022470474243
time_elpased: 2.607
#iterations: 256
currently lose_sum: 0.5147854685783386
time_elpased: 2.459
#iterations: 257
currently lose_sum: 0.5068500638008118
time_elpased: 2.543
#iterations: 258
currently lose_sum: 0.6824084520339966
time_elpased: 2.479
#iterations: 259
currently lose_sum: 0.530376672744751
time_elpased: 2.494
start validation test
0.6852
0.644752714113
0.843725335438
0.73094017094
0.683014330331
14.587
#iterations: 260
currently lose_sum: 0.5769005417823792
time_elpased: 2.492
#iterations: 261
currently lose_sum: 0.4854152202606201
time_elpased: 2.781
#iterations: 262
currently lose_sum: 0.7109330892562866
time_elpased: 2.55
#iterations: 263
currently lose_sum: 0.5051775574684143
time_elpased: 2.504
#iterations: 264
currently lose_sum: 0.5646694302558899
time_elpased: 2.528
#iterations: 265
currently lose_sum: 0.51920485496521
time_elpased: 2.484
#iterations: 266
currently lose_sum: 0.5146656632423401
time_elpased: 2.707
#iterations: 267
currently lose_sum: 0.557369589805603
time_elpased: 2.48
#iterations: 268
currently lose_sum: 0.6384885311126709
time_elpased: 2.572
#iterations: 269
currently lose_sum: 0.49506381154060364
time_elpased: 2.51
#iterations: 270
currently lose_sum: 0.5252683162689209
time_elpased: 2.486
#iterations: 271
currently lose_sum: 0.5180255174636841
time_elpased: 2.464
#iterations: 272
currently lose_sum: 0.5000450015068054
time_elpased: 2.492
#iterations: 273
currently lose_sum: 0.5840712189674377
time_elpased: 2.612
#iterations: 274
currently lose_sum: 0.49927300214767456
time_elpased: 2.462
#iterations: 275
currently lose_sum: 0.5884701609611511
time_elpased: 2.583
#iterations: 276
currently lose_sum: 0.5611423850059509
time_elpased: 2.513
#iterations: 277
currently lose_sum: 0.4959445297718048
time_elpased: 2.464
#iterations: 278
currently lose_sum: 0.5756883025169373
time_elpased: 2.559
#iterations: 279
currently lose_sum: 0.49827736616134644
time_elpased: 2.492
start validation test
0.696
0.675190048376
0.771112865036
0.719970523213
0.694964380612
14.392
#iterations: 280
currently lose_sum: 0.5421396493911743
time_elpased: 2.516
#iterations: 281
currently lose_sum: 0.6164108514785767
time_elpased: 2.501
#iterations: 282
currently lose_sum: 0.4720567464828491
time_elpased: 3.018
#iterations: 283
currently lose_sum: 0.6476272344589233
time_elpased: 2.498
#iterations: 284
currently lose_sum: 0.48584845662117004
time_elpased: 2.507
#iterations: 285
currently lose_sum: 0.510881781578064
time_elpased: 2.531
#iterations: 286
currently lose_sum: 0.4587138891220093
time_elpased: 2.44
#iterations: 287
currently lose_sum: 0.49307239055633545
time_elpased: 2.44
#iterations: 288
currently lose_sum: 0.5576850771903992
time_elpased: 2.944
#iterations: 289
currently lose_sum: 0.5076670050621033
time_elpased: 2.522
#iterations: 290
currently lose_sum: 0.47700271010398865
time_elpased: 2.551
#iterations: 291
currently lose_sum: 0.45911267399787903
time_elpased: 2.495
#iterations: 292
currently lose_sum: 0.720420241355896
time_elpased: 2.533
#iterations: 293
currently lose_sum: 0.5558205246925354
time_elpased: 2.429
#iterations: 294
currently lose_sum: 0.5227133631706238
time_elpased: 2.437
#iterations: 295
currently lose_sum: 0.513415515422821
time_elpased: 2.507
#iterations: 296
currently lose_sum: 0.4419190287590027
time_elpased: 2.554
#iterations: 297
currently lose_sum: 0.4928303062915802
time_elpased: 2.552
#iterations: 298
currently lose_sum: 0.4989827871322632
time_elpased: 2.501
#iterations: 299
currently lose_sum: 0.5704278349876404
time_elpased: 2.439
start validation test
0.7056
0.753581661891
0.6227308603
0.681936041487
0.706742559104
14.117
#iterations: 300
currently lose_sum: 0.5418345928192139
time_elpased: 2.531
#iterations: 301
currently lose_sum: 0.5228091478347778
time_elpased: 2.641
#iterations: 302
currently lose_sum: 0.5446951389312744
time_elpased: 2.532
#iterations: 303
currently lose_sum: 0.6217898726463318
time_elpased: 2.568
#iterations: 304
currently lose_sum: 0.5916410684585571
time_elpased: 2.466
#iterations: 305
currently lose_sum: 0.6194000840187073
time_elpased: 2.476
#iterations: 306
currently lose_sum: 0.3522679805755615
time_elpased: 2.439
#iterations: 307
currently lose_sum: 0.5502244830131531
time_elpased: 2.527
#iterations: 308
currently lose_sum: 0.5264462232589722
time_elpased: 2.491
#iterations: 309
currently lose_sum: 0.5790591239929199
time_elpased: 2.513
#iterations: 310
currently lose_sum: 0.5339229702949524
time_elpased: 2.796
#iterations: 311
currently lose_sum: 0.6971641778945923
time_elpased: 2.538
#iterations: 312
currently lose_sum: 0.4769420623779297
time_elpased: 2.731
#iterations: 313
currently lose_sum: 0.49809420108795166
time_elpased: 2.475
#iterations: 314
currently lose_sum: 0.5305193066596985
time_elpased: 2.769
#iterations: 315
currently lose_sum: 0.543058454990387
time_elpased: 2.718
#iterations: 316
currently lose_sum: 0.5236117839813232
time_elpased: 2.524
#iterations: 317
currently lose_sum: 0.5221803188323975
time_elpased: 2.632
#iterations: 318
currently lose_sum: 0.48547685146331787
time_elpased: 2.551
#iterations: 319
currently lose_sum: 0.5214832425117493
time_elpased: 2.503
start validation test
0.6444
0.596134282808
0.92501973165
0.725023198268
0.640530952605
16.861
#iterations: 320
currently lose_sum: 0.4471406042575836
time_elpased: 3.051
#iterations: 321
currently lose_sum: 0.5460413098335266
time_elpased: 2.495
#iterations: 322
currently lose_sum: 0.7338348627090454
time_elpased: 2.613
#iterations: 323
currently lose_sum: 0.5272647738456726
time_elpased: 2.573
#iterations: 324
currently lose_sum: 0.48678550124168396
time_elpased: 2.496
#iterations: 325
currently lose_sum: 0.5142505168914795
time_elpased: 2.506
#iterations: 326
currently lose_sum: 0.5730264782905579
time_elpased: 2.486
#iterations: 327
currently lose_sum: 0.4067479968070984
time_elpased: 2.52
#iterations: 328
currently lose_sum: 0.479528546333313
time_elpased: 2.739
#iterations: 329
currently lose_sum: 0.5552019476890564
time_elpased: 2.861
#iterations: 330
currently lose_sum: 0.5697584748268127
time_elpased: 2.544
#iterations: 331
currently lose_sum: 0.49450385570526123
time_elpased: 2.518
#iterations: 332
currently lose_sum: 0.5299135446548462
time_elpased: 2.442
#iterations: 333
currently lose_sum: 0.5586003661155701
time_elpased: 2.558
#iterations: 334
currently lose_sum: 0.5019505023956299
time_elpased: 2.457
#iterations: 335
currently lose_sum: 0.567192792892456
time_elpased: 2.534
#iterations: 336
currently lose_sum: 0.4829484522342682
time_elpased: 2.511
#iterations: 337
currently lose_sum: 0.4527481198310852
time_elpased: 2.66
#iterations: 338
currently lose_sum: 0.506504237651825
time_elpased: 2.537
#iterations: 339
currently lose_sum: 0.4193815588951111
time_elpased: 2.599
start validation test
0.7144
0.721732157177
0.710339384373
0.715990453461
0.714455985779
13.671
#iterations: 340
currently lose_sum: 0.7754371762275696
time_elpased: 2.508
#iterations: 341
currently lose_sum: 0.5134748816490173
time_elpased: 2.521
#iterations: 342
currently lose_sum: 0.46285080909729004
time_elpased: 2.478
#iterations: 343
currently lose_sum: 0.5476725697517395
time_elpased: 2.572
#iterations: 344
currently lose_sum: 0.4657112956047058
time_elpased: 2.502
#iterations: 345
currently lose_sum: 0.5080049633979797
time_elpased: 2.549
#iterations: 346
currently lose_sum: 0.46543586254119873
time_elpased: 2.619
#iterations: 347
currently lose_sum: 0.41322657465934753
time_elpased: 2.69
#iterations: 348
currently lose_sum: 0.48016443848609924
time_elpased: 2.486
#iterations: 349
currently lose_sum: 0.49395743012428284
time_elpased: 2.561
#iterations: 350
currently lose_sum: 0.46567267179489136
time_elpased: 2.474
#iterations: 351
currently lose_sum: 0.46729689836502075
time_elpased: 2.5
#iterations: 352
currently lose_sum: 0.4977584779262543
time_elpased: 2.462
#iterations: 353
currently lose_sum: 0.5101075172424316
time_elpased: 2.545
#iterations: 354
currently lose_sum: 0.5319367051124573
time_elpased: 2.528
#iterations: 355
currently lose_sum: 0.4912022352218628
time_elpased: 2.521
#iterations: 356
currently lose_sum: 0.44725459814071655
time_elpased: 2.523
#iterations: 357
currently lose_sum: 0.5762050151824951
time_elpased: 2.479
#iterations: 358
currently lose_sum: 0.513149619102478
time_elpased: 2.518
#iterations: 359
currently lose_sum: 0.49615806341171265
time_elpased: 2.57
start validation test
0.6572
0.859649122807
0.386740331492
0.53347849755
0.660928965421
16.732
#iterations: 360
currently lose_sum: 0.47174498438835144
time_elpased: 2.519
#iterations: 361
currently lose_sum: 0.48843222856521606
time_elpased: 2.717
#iterations: 362
currently lose_sum: 0.46627625823020935
time_elpased: 2.477
#iterations: 363
currently lose_sum: 0.6026074290275574
time_elpased: 2.534
#iterations: 364
currently lose_sum: 0.54950350522995
time_elpased: 2.5
#iterations: 365
currently lose_sum: 0.5288668274879456
time_elpased: 2.449
#iterations: 366
currently lose_sum: 0.6079311966896057
time_elpased: 2.51
#iterations: 367
currently lose_sum: 0.5416468977928162
time_elpased: 2.568
#iterations: 368
currently lose_sum: 0.4963292181491852
time_elpased: 2.5
#iterations: 369
currently lose_sum: 0.4003979563713074
time_elpased: 2.477
#iterations: 370
currently lose_sum: 0.468044251203537
time_elpased: 2.807
#iterations: 371
currently lose_sum: 0.42253968119621277
time_elpased: 2.464
#iterations: 372
currently lose_sum: 0.5252640247344971
time_elpased: 2.458
#iterations: 373
currently lose_sum: 0.5610595941543579
time_elpased: 2.456
#iterations: 374
currently lose_sum: 0.5439004302024841
time_elpased: 2.625
#iterations: 375
currently lose_sum: 0.5360416173934937
time_elpased: 2.522
#iterations: 376
currently lose_sum: 0.5625868439674377
time_elpased: 2.58
#iterations: 377
currently lose_sum: 0.42623671889305115
time_elpased: 2.47
#iterations: 378
currently lose_sum: 0.5224416255950928
time_elpased: 2.496
#iterations: 379
currently lose_sum: 0.5419502258300781
time_elpased: 2.811
start validation test
0.7168
0.766444232602
0.634569850039
0.694300518135
0.717933749026
13.830
#iterations: 380
currently lose_sum: 0.6229625940322876
time_elpased: 2.501
#iterations: 381
currently lose_sum: 0.4669606685638428
time_elpased: 2.455
#iterations: 382
currently lose_sum: 0.4815356433391571
time_elpased: 2.612
#iterations: 383
currently lose_sum: 0.6121639013290405
time_elpased: 2.505
#iterations: 384
currently lose_sum: 0.5087184309959412
time_elpased: 2.499
#iterations: 385
currently lose_sum: 0.49219638109207153
time_elpased: 2.518
#iterations: 386
currently lose_sum: 0.4721769094467163
time_elpased: 2.538
#iterations: 387
currently lose_sum: 0.42844659090042114
time_elpased: 2.56
#iterations: 388
currently lose_sum: 0.5252569913864136
time_elpased: 2.542
#iterations: 389
currently lose_sum: 0.5328463912010193
time_elpased: 3.114
#iterations: 390
currently lose_sum: 0.47498562932014465
time_elpased: 2.477
#iterations: 391
currently lose_sum: 0.6315624713897705
time_elpased: 2.506
#iterations: 392
currently lose_sum: 0.444038987159729
time_elpased: 2.865
#iterations: 393
currently lose_sum: 0.4807330369949341
time_elpased: 2.723
#iterations: 394
currently lose_sum: 0.49266311526298523
time_elpased: 2.594
#iterations: 395
currently lose_sum: 0.4565010368824005
time_elpased: 2.48
#iterations: 396
currently lose_sum: 0.45536553859710693
time_elpased: 2.531
#iterations: 397
currently lose_sum: 0.5172724723815918
time_elpased: 2.511
#iterations: 398
currently lose_sum: 0.6634836792945862
time_elpased: 2.501
#iterations: 399
currently lose_sum: 0.5185966491699219
time_elpased: 2.548
start validation test
0.6656
0.86218487395
0.404893449092
0.551020408163
0.669194494214
16.229
#iterations: 400
currently lose_sum: 0.5646010041236877
time_elpased: 2.615
#iterations: 401
currently lose_sum: 0.4848353862762451
time_elpased: 2.491
#iterations: 402
currently lose_sum: 0.44269639253616333
time_elpased: 2.479
#iterations: 403
currently lose_sum: 0.5746241211891174
time_elpased: 2.483
#iterations: 404
currently lose_sum: 0.44881129264831543
time_elpased: 2.717
#iterations: 405
currently lose_sum: 0.46571671962738037
time_elpased: 2.496
#iterations: 406
currently lose_sum: 0.5244573354721069
time_elpased: 2.475
#iterations: 407
currently lose_sum: 0.37910857796669006
time_elpased: 2.484
#iterations: 408
currently lose_sum: 0.48821234703063965
time_elpased: 2.447
#iterations: 409
currently lose_sum: 0.3705369532108307
time_elpased: 2.656
#iterations: 410
currently lose_sum: 0.4775208532810211
time_elpased: 2.483
#iterations: 411
currently lose_sum: 0.5113670229911804
time_elpased: 2.482
#iterations: 412
currently lose_sum: 0.4645598530769348
time_elpased: 2.592
#iterations: 413
currently lose_sum: 0.4612571597099304
time_elpased: 2.553
#iterations: 414
currently lose_sum: 0.5082610845565796
time_elpased: 2.52
#iterations: 415
currently lose_sum: 0.5085195899009705
time_elpased: 2.468
#iterations: 416
currently lose_sum: 0.43925705552101135
time_elpased: 2.516
#iterations: 417
currently lose_sum: 0.5941428542137146
time_elpased: 2.448
#iterations: 418
currently lose_sum: 0.3752458095550537
time_elpased: 2.523
#iterations: 419
currently lose_sum: 0.520390510559082
time_elpased: 2.493
start validation test
0.7232
0.767940354147
0.650355169692
0.704273504274
0.724204348836
13.677
#iterations: 420
currently lose_sum: 0.5499801635742188
time_elpased: 2.537
#iterations: 421
currently lose_sum: 0.4402344524860382
time_elpased: 2.565
#iterations: 422
currently lose_sum: 0.556386411190033
time_elpased: 2.587
#iterations: 423
currently lose_sum: 0.5034452676773071
time_elpased: 2.48
#iterations: 424
currently lose_sum: 0.4381277561187744
time_elpased: 2.514
#iterations: 425
currently lose_sum: 0.6036928296089172
time_elpased: 2.576
#iterations: 426
currently lose_sum: 0.5334698557853699
time_elpased: 2.505
#iterations: 427
currently lose_sum: 0.46325749158859253
time_elpased: 3.164
#iterations: 428
currently lose_sum: 0.5378873944282532
time_elpased: 2.45
#iterations: 429
currently lose_sum: 0.5076519250869751
time_elpased: 2.544
#iterations: 430
currently lose_sum: 0.4518200159072876
time_elpased: 2.483
#iterations: 431
currently lose_sum: 0.5258055329322815
time_elpased: 2.474
#iterations: 432
currently lose_sum: 0.5119246244430542
time_elpased: 2.49
#iterations: 433
currently lose_sum: 0.43371039628982544
time_elpased: 2.844
#iterations: 434
currently lose_sum: 0.4992755055427551
time_elpased: 2.519
#iterations: 435
currently lose_sum: 0.4775438606739044
time_elpased: 2.512
#iterations: 436
currently lose_sum: 0.4998869001865387
time_elpased: 2.5
#iterations: 437
currently lose_sum: 0.5265719294548035
time_elpased: 2.521
#iterations: 438
currently lose_sum: 0.4354519546031952
time_elpased: 2.547
#iterations: 439
currently lose_sum: 0.6114599108695984
time_elpased: 2.873
start validation test
0.6904
0.823066841415
0.495659037096
0.618719211823
0.693084993
15.246
#iterations: 440
currently lose_sum: 0.47194334864616394
time_elpased: 2.738
#iterations: 441
currently lose_sum: 0.5140178799629211
time_elpased: 2.492
#iterations: 442
currently lose_sum: 0.5753657817840576
time_elpased: 2.526
#iterations: 443
currently lose_sum: 0.4927951395511627
time_elpased: 2.482
#iterations: 444
currently lose_sum: 0.4311458170413971
time_elpased: 2.48
#iterations: 445
currently lose_sum: 0.48015856742858887
time_elpased: 2.478
#iterations: 446
currently lose_sum: 0.4740036129951477
time_elpased: 2.889
#iterations: 447
currently lose_sum: 0.470070481300354
time_elpased: 2.56
#iterations: 448
currently lose_sum: 0.4807796776294708
time_elpased: 2.536
#iterations: 449
currently lose_sum: 0.4337024688720703
time_elpased: 2.567
#iterations: 450
currently lose_sum: 0.4918960928916931
time_elpased: 2.555
#iterations: 451
currently lose_sum: 0.4079911708831787
time_elpased: 2.455
#iterations: 452
currently lose_sum: 0.5348347425460815
time_elpased: 2.517
#iterations: 453
currently lose_sum: 0.47786715626716614
time_elpased: 2.488
#iterations: 454
currently lose_sum: 0.4781399667263031
time_elpased: 2.436
#iterations: 455
currently lose_sum: 0.4365713596343994
time_elpased: 2.613
#iterations: 456
currently lose_sum: 0.6380149126052856
time_elpased: 2.629
#iterations: 457
currently lose_sum: 0.47576668858528137
time_elpased: 2.483
#iterations: 458
currently lose_sum: 0.5474253296852112
time_elpased: 2.504
#iterations: 459
currently lose_sum: 0.5087922811508179
time_elpased: 2.534
start validation test
0.6816
0.834992887624
0.463299131807
0.595939086294
0.684609825433
15.280
#iterations: 460
currently lose_sum: 0.5506249666213989
time_elpased: 2.553
#iterations: 461
currently lose_sum: 0.556704044342041
time_elpased: 2.559
#iterations: 462
currently lose_sum: 0.5348615050315857
time_elpased: 2.501
#iterations: 463
currently lose_sum: 0.497201144695282
time_elpased: 2.556
#iterations: 464
currently lose_sum: 0.5701979398727417
time_elpased: 2.533
#iterations: 465
currently lose_sum: 0.43820351362228394
time_elpased: 2.801
#iterations: 466
currently lose_sum: 0.537690281867981
time_elpased: 2.463
#iterations: 467
currently lose_sum: 0.4417685568332672
time_elpased: 2.497
#iterations: 468
currently lose_sum: 0.5012263059616089
time_elpased: 2.508
#iterations: 469
currently lose_sum: 0.4952906668186188
time_elpased: 2.457
#iterations: 470
currently lose_sum: 0.48902907967567444
time_elpased: 2.536
#iterations: 471
currently lose_sum: 0.4874114990234375
time_elpased: 2.546
#iterations: 472
currently lose_sum: 0.47302353382110596
time_elpased: 2.501
#iterations: 473
currently lose_sum: 0.524811327457428
time_elpased: 2.493
#iterations: 474
currently lose_sum: 0.4661095440387726
time_elpased: 2.493
#iterations: 475
currently lose_sum: 0.49657005071640015
time_elpased: 2.489
#iterations: 476
currently lose_sum: 0.5708258152008057
time_elpased: 2.554
#iterations: 477
currently lose_sum: 0.5576174259185791
time_elpased: 2.561
#iterations: 478
currently lose_sum: 0.48343783617019653
time_elpased: 2.491
#iterations: 479
currently lose_sum: 0.5136098265647888
time_elpased: 2.509
start validation test
0.662
0.860068259386
0.397790055249
0.543982730707
0.665642797292
16.316
#iterations: 480
currently lose_sum: 0.42579200863838196
time_elpased: 2.483
#iterations: 481
currently lose_sum: 0.5140895247459412
time_elpased: 2.581
#iterations: 482
currently lose_sum: 0.46795395016670227
time_elpased: 2.664
#iterations: 483
currently lose_sum: 0.4835434854030609
time_elpased: 2.529
#iterations: 484
currently lose_sum: 0.4955271780490875
time_elpased: 2.454
#iterations: 485
currently lose_sum: 0.4500085711479187
time_elpased: 2.489
#iterations: 486
currently lose_sum: 0.4469085931777954
time_elpased: 2.483
#iterations: 487
currently lose_sum: 0.4603342115879059
time_elpased: 2.54
#iterations: 488
currently lose_sum: 0.5019314885139465
time_elpased: 2.71
#iterations: 489
currently lose_sum: 0.497192919254303
time_elpased: 2.497
#iterations: 490
currently lose_sum: 0.4258987307548523
time_elpased: 2.653
#iterations: 491
currently lose_sum: 0.4872104525566101
time_elpased: 2.44
#iterations: 492
currently lose_sum: 0.43361184000968933
time_elpased: 2.491
#iterations: 493
currently lose_sum: 0.45641571283340454
time_elpased: 2.735
#iterations: 494
currently lose_sum: 0.5004177689552307
time_elpased: 2.624
#iterations: 495
currently lose_sum: 0.5127173066139221
time_elpased: 2.462
#iterations: 496
currently lose_sum: 0.4034331440925598
time_elpased: 3.163
#iterations: 497
currently lose_sum: 0.46629172563552856
time_elpased: 2.498
#iterations: 498
currently lose_sum: 0.5272552967071533
time_elpased: 2.538
#iterations: 499
currently lose_sum: 0.497811883687973
time_elpased: 2.527
start validation test
0.72
0.700921332388
0.780584056827
0.738610903659
0.719164696702
13.494
#iterations: 500
currently lose_sum: 0.5058729648590088
time_elpased: 2.52
#iterations: 501
currently lose_sum: 0.43822169303894043
time_elpased: 2.524
#iterations: 502
currently lose_sum: 0.4894443452358246
time_elpased: 2.501
#iterations: 503
currently lose_sum: 0.4557274580001831
time_elpased: 2.5
#iterations: 504
currently lose_sum: 0.4505118131637573
time_elpased: 2.957
#iterations: 505
currently lose_sum: 0.4131283462047577
time_elpased: 2.596
#iterations: 506
currently lose_sum: 0.49825653433799744
time_elpased: 2.829
#iterations: 507
currently lose_sum: 0.3903772830963135
time_elpased: 2.563
#iterations: 508
currently lose_sum: 0.3919293284416199
time_elpased: 2.681
#iterations: 509
currently lose_sum: 0.41663581132888794
time_elpased: 2.527
#iterations: 510
currently lose_sum: 0.43667498230934143
time_elpased: 2.513
#iterations: 511
currently lose_sum: 0.45929577946662903
time_elpased: 2.507
#iterations: 512
currently lose_sum: 0.5548880100250244
time_elpased: 2.49
#iterations: 513
currently lose_sum: 0.45690977573394775
time_elpased: 2.477
#iterations: 514
currently lose_sum: 0.5419660806655884
time_elpased: 2.54
#iterations: 515
currently lose_sum: 0.5228573679924011
time_elpased: 2.491
#iterations: 516
currently lose_sum: 0.4263627231121063
time_elpased: 2.568
#iterations: 517
currently lose_sum: 0.3473803997039795
time_elpased: 2.512
#iterations: 518
currently lose_sum: 0.5529825091362
time_elpased: 2.476
#iterations: 519
currently lose_sum: 0.4932784140110016
time_elpased: 2.492
start validation test
0.7164
0.681404421326
0.827150749803
0.747237076649
0.714873022914
13.768
#iterations: 520
currently lose_sum: 0.5325515270233154
time_elpased: 2.536
#iterations: 521
currently lose_sum: 0.36939918994903564
time_elpased: 2.503
#iterations: 522
currently lose_sum: 0.508250892162323
time_elpased: 2.608
#iterations: 523
currently lose_sum: 0.45403945446014404
time_elpased: 2.613
#iterations: 524
currently lose_sum: 0.4766264855861664
time_elpased: 2.542
#iterations: 525
currently lose_sum: 0.46550750732421875
time_elpased: 2.888
#iterations: 526
currently lose_sum: 0.46218886971473694
time_elpased: 2.415
#iterations: 527
currently lose_sum: 0.463908314704895
time_elpased: 2.481
#iterations: 528
currently lose_sum: 0.5441625714302063
time_elpased: 2.558
#iterations: 529
currently lose_sum: 0.36424049735069275
time_elpased: 2.541
#iterations: 530
currently lose_sum: 0.40846458077430725
time_elpased: 2.485
#iterations: 531
currently lose_sum: 0.5397560000419617
time_elpased: 2.453
#iterations: 532
currently lose_sum: 0.5095275044441223
time_elpased: 2.566
#iterations: 533
currently lose_sum: 0.3396046459674835
time_elpased: 2.592
#iterations: 534
currently lose_sum: 0.4739178419113159
time_elpased: 2.814
#iterations: 535
currently lose_sum: 0.5289156436920166
time_elpased: 2.507
#iterations: 536
currently lose_sum: 0.5851346850395203
time_elpased: 2.539
#iterations: 537
currently lose_sum: 0.5196395516395569
time_elpased: 2.501
#iterations: 538
currently lose_sum: 0.39549389481544495
time_elpased: 2.603
#iterations: 539
currently lose_sum: 0.48891106247901917
time_elpased: 2.496
start validation test
0.7244
0.711876832845
0.76637726914
0.738122386925
0.723821237976
13.388
#iterations: 540
currently lose_sum: 0.48184069991111755
time_elpased: 2.5
#iterations: 541
currently lose_sum: 0.5117464661598206
time_elpased: 2.486
#iterations: 542
currently lose_sum: 0.3184090256690979
time_elpased: 2.495
#iterations: 543
currently lose_sum: 0.49536287784576416
time_elpased: 2.482
#iterations: 544
currently lose_sum: 0.4928213059902191
time_elpased: 2.776
#iterations: 545
currently lose_sum: 0.3624599575996399
time_elpased: 2.446
#iterations: 546
currently lose_sum: 0.48820045590400696
time_elpased: 2.473
#iterations: 547
currently lose_sum: 0.43970784544944763
time_elpased: 2.785
#iterations: 548
currently lose_sum: 0.3979848623275757
time_elpased: 2.835
#iterations: 549
currently lose_sum: 0.5618071556091309
time_elpased: 2.542
#iterations: 550
currently lose_sum: 0.44163817167282104
time_elpased: 2.45
#iterations: 551
currently lose_sum: 0.4705660939216614
time_elpased: 2.528
#iterations: 552
currently lose_sum: 0.4661850035190582
time_elpased: 2.502
#iterations: 553
currently lose_sum: 0.40851837396621704
time_elpased: 2.489
#iterations: 554
currently lose_sum: 0.5124244093894958
time_elpased: 2.471
#iterations: 555
currently lose_sum: 0.46395692229270935
time_elpased: 3.012
#iterations: 556
currently lose_sum: 0.7609887719154358
time_elpased: 2.498
#iterations: 557
currently lose_sum: 0.47970595955848694
time_elpased: 2.462
#iterations: 558
currently lose_sum: 0.3835987448692322
time_elpased: 2.54
#iterations: 559
currently lose_sum: 0.4355885684490204
time_elpased: 2.569
start validation test
0.7224
0.709276844412
0.76637726914
0.736722306525
0.721793662956
13.418
#iterations: 560
currently lose_sum: 0.46354836225509644
time_elpased: 2.433
#iterations: 561
currently lose_sum: 0.42535102367401123
time_elpased: 2.496
#iterations: 562
currently lose_sum: 0.5247563719749451
time_elpased: 2.452
#iterations: 563
currently lose_sum: 0.38193631172180176
time_elpased: 2.516
#iterations: 564
currently lose_sum: 0.4116488993167877
time_elpased: 2.681
#iterations: 565
currently lose_sum: 0.4620343744754791
time_elpased: 2.505
#iterations: 566
currently lose_sum: 0.5060731768608093
time_elpased: 2.542
#iterations: 567
currently lose_sum: 0.35617294907569885
time_elpased: 2.757
#iterations: 568
currently lose_sum: 0.5103445649147034
time_elpased: 2.492
#iterations: 569
currently lose_sum: 0.517960786819458
time_elpased: 2.521
#iterations: 570
currently lose_sum: 0.5054425001144409
time_elpased: 2.467
#iterations: 571
currently lose_sum: 0.432333379983902
time_elpased: 2.479
#iterations: 572
currently lose_sum: 0.486176460981369
time_elpased: 2.495
#iterations: 573
currently lose_sum: 0.4564598500728607
time_elpased: 2.496
#iterations: 574
currently lose_sum: 0.4127980172634125
time_elpased: 2.503
#iterations: 575
currently lose_sum: 0.47217217087745667
time_elpased: 2.514
#iterations: 576
currently lose_sum: 0.43529877066612244
time_elpased: 2.529
#iterations: 577
currently lose_sum: 0.4903508126735687
time_elpased: 2.455
#iterations: 578
currently lose_sum: 0.4492848217487335
time_elpased: 2.563
#iterations: 579
currently lose_sum: 0.5589718222618103
time_elpased: 2.537
start validation test
0.726
0.695040214477
0.818468823994
0.751721638275
0.724725085152
13.954
#iterations: 580
currently lose_sum: 0.5043507814407349
time_elpased: 2.459
#iterations: 581
currently lose_sum: 0.5078781843185425
time_elpased: 2.503
#iterations: 582
currently lose_sum: 0.3800155520439148
time_elpased: 2.598
#iterations: 583
currently lose_sum: 0.4586234390735626
time_elpased: 2.502
#iterations: 584
currently lose_sum: 0.5372765064239502
time_elpased: 2.555
#iterations: 585
currently lose_sum: 0.5250217914581299
time_elpased: 2.435
#iterations: 586
currently lose_sum: 0.45367249846458435
time_elpased: 2.652
#iterations: 587
currently lose_sum: 0.4670512080192566
time_elpased: 2.564
#iterations: 588
currently lose_sum: 0.4672524929046631
time_elpased: 2.593
#iterations: 589
currently lose_sum: 0.42654675245285034
time_elpased: 2.566
#iterations: 590
currently lose_sum: 0.5501885414123535
time_elpased: 2.551
#iterations: 591
currently lose_sum: 0.5761821269989014
time_elpased: 2.484
#iterations: 592
currently lose_sum: 0.512864351272583
time_elpased: 2.879
#iterations: 593
currently lose_sum: 0.4560736119747162
time_elpased: 2.482
#iterations: 594
currently lose_sum: 0.4410907030105591
time_elpased: 2.735
#iterations: 595
currently lose_sum: 0.5035489797592163
time_elpased: 2.475
#iterations: 596
currently lose_sum: 0.45024845004081726
time_elpased: 2.443
#iterations: 597
currently lose_sum: 0.4627424478530884
time_elpased: 2.584
#iterations: 598
currently lose_sum: 0.48072582483291626
time_elpased: 2.454
#iterations: 599
currently lose_sum: 0.4790881276130676
time_elpased: 2.445
start validation test
0.724
0.695593220339
0.809786898185
0.748358862144
0.722817212272
14.013
acc: 0.712
pre: 0.698
rec: 0.763
F1: 0.729
auc: 0.712
