start to construct computing graph
graph construct over
3802
epochs start
#iterations: 0
currently lose_sum: 0.6928637623786926
time_elpased: 27.853
#iterations: 1
currently lose_sum: 0.6911834478378296
time_elpased: 27.504
#iterations: 2
currently lose_sum: 0.6969099640846252
time_elpased: 27.566
#iterations: 3
currently lose_sum: 0.6937930583953857
time_elpased: 27.514
#iterations: 4
currently lose_sum: 0.6941593885421753
time_elpased: 28.158
#iterations: 5
currently lose_sum: 0.6810066103935242
time_elpased: 27.365
#iterations: 6
currently lose_sum: 0.6879734992980957
time_elpased: 28.016
#iterations: 7
currently lose_sum: 0.6814537048339844
time_elpased: 28.06
#iterations: 8
currently lose_sum: 0.6915446519851685
time_elpased: 27.465
#iterations: 9
currently lose_sum: 0.6905854940414429
time_elpased: 27.84
#iterations: 10
currently lose_sum: 0.6938769817352295
time_elpased: 27.452
#iterations: 11
currently lose_sum: 0.6794503927230835
time_elpased: 27.527
#iterations: 12
currently lose_sum: 0.7073527574539185
time_elpased: 27.635
#iterations: 13
currently lose_sum: 0.691234290599823
time_elpased: 27.427
#iterations: 14
currently lose_sum: 0.6858147382736206
time_elpased: 27.572
#iterations: 15
currently lose_sum: 0.6855607628822327
time_elpased: 27.547
#iterations: 16
currently lose_sum: 0.7160829305648804
time_elpased: 27.593
#iterations: 17
currently lose_sum: 0.705919623374939
time_elpased: 27.532
#iterations: 18
currently lose_sum: 0.6886454820632935
time_elpased: 27.585
#iterations: 19
currently lose_sum: 0.6882827281951904
time_elpased: 27.54
start validation test
0.5124
0.510731493649
0.919558359621
0.65671641791
0.506451257733
17.298
#iterations: 20
currently lose_sum: 0.6908401250839233
time_elpased: 27.109
#iterations: 21
currently lose_sum: 0.6906611919403076
time_elpased: 26.756
#iterations: 22
currently lose_sum: 0.7103304862976074
time_elpased: 26.947
#iterations: 23
currently lose_sum: 0.6907672882080078
time_elpased: 26.919
#iterations: 24
currently lose_sum: 0.6850515604019165
time_elpased: 27.025
#iterations: 25
currently lose_sum: 0.6853016018867493
time_elpased: 27.2
#iterations: 26
currently lose_sum: 0.684033989906311
time_elpased: 26.924
#iterations: 27
currently lose_sum: 0.723137378692627
time_elpased: 27.108
#iterations: 28
currently lose_sum: 0.6906498670578003
time_elpased: 26.927
#iterations: 29
currently lose_sum: 0.6868904829025269
time_elpased: 27.178
#iterations: 30
currently lose_sum: 0.6914400458335876
time_elpased: 27.668
#iterations: 31
currently lose_sum: 0.6832194328308105
time_elpased: 26.931
#iterations: 32
currently lose_sum: 0.6925904154777527
time_elpased: 26.931
#iterations: 33
currently lose_sum: 0.6995303630828857
time_elpased: 27.117
#iterations: 34
currently lose_sum: 0.6843986511230469
time_elpased: 27.182
#iterations: 35
currently lose_sum: 0.703970730304718
time_elpased: 26.978
#iterations: 36
currently lose_sum: 0.6928690075874329
time_elpased: 26.769
#iterations: 37
currently lose_sum: 0.6931541562080383
time_elpased: 26.837
#iterations: 38
currently lose_sum: 0.6902995109558105
time_elpased: 26.808
#iterations: 39
currently lose_sum: 0.6811851263046265
time_elpased: 26.975
start validation test
0.5088
0.54854368932
0.178233438486
0.269047619048
0.513629706256
17.274
#iterations: 40
currently lose_sum: 0.6968514323234558
time_elpased: 26.787
#iterations: 41
currently lose_sum: 0.6943469047546387
time_elpased: 26.749
#iterations: 42
currently lose_sum: 0.6926576495170593
time_elpased: 26.75
#iterations: 43
currently lose_sum: 0.6768772602081299
time_elpased: 27.199
#iterations: 44
currently lose_sum: 0.6706535816192627
time_elpased: 26.921
#iterations: 45
currently lose_sum: 0.6845077276229858
time_elpased: 27.365
#iterations: 46
currently lose_sum: 0.6706251502037048
time_elpased: 27.017
#iterations: 47
currently lose_sum: 0.6903511881828308
time_elpased: 27.053
#iterations: 48
currently lose_sum: 0.6405436992645264
time_elpased: 27.134
#iterations: 49
currently lose_sum: 0.6830494403839111
time_elpased: 26.859
#iterations: 50
currently lose_sum: 0.7042534351348877
time_elpased: 27.024
#iterations: 51
currently lose_sum: 0.7034010887145996
time_elpased: 27.102
#iterations: 52
currently lose_sum: 0.6863089799880981
time_elpased: 26.762
#iterations: 53
currently lose_sum: 0.6817019581794739
time_elpased: 26.989
#iterations: 54
currently lose_sum: 0.6857669949531555
time_elpased: 27.12
#iterations: 55
currently lose_sum: 0.6907812356948853
time_elpased: 26.67
#iterations: 56
currently lose_sum: 0.6799536347389221
time_elpased: 26.883
#iterations: 57
currently lose_sum: 0.683747410774231
time_elpased: 27.023
#iterations: 58
currently lose_sum: 0.6762803792953491
time_elpased: 27.615
#iterations: 59
currently lose_sum: 0.686850905418396
time_elpased: 27.144
start validation test
0.5212
0.586374695864
0.190063091483
0.287075640262
0.526038039248
17.285
#iterations: 60
currently lose_sum: 0.6640316843986511
time_elpased: 27.002
#iterations: 61
currently lose_sum: 0.6869403123855591
time_elpased: 26.725
#iterations: 62
currently lose_sum: 0.6887312531471252
time_elpased: 26.665
#iterations: 63
currently lose_sum: 0.6672919392585754
time_elpased: 26.969
#iterations: 64
currently lose_sum: 0.6755616664886475
time_elpased: 27.309
#iterations: 65
currently lose_sum: 0.6958741545677185
time_elpased: 27.897
#iterations: 66
currently lose_sum: 0.6654805541038513
time_elpased: 28.099
#iterations: 67
currently lose_sum: 0.7089727520942688
time_elpased: 27.305
#iterations: 68
currently lose_sum: 0.7012380957603455
time_elpased: 26.766
#iterations: 69
currently lose_sum: 0.681011438369751
time_elpased: 26.715
#iterations: 70
currently lose_sum: 0.6776922345161438
time_elpased: 26.766
#iterations: 71
currently lose_sum: 0.6759000420570374
time_elpased: 26.938
#iterations: 72
currently lose_sum: 0.6909602284431458
time_elpased: 27.085
#iterations: 73
currently lose_sum: 0.6870007514953613
time_elpased: 26.916
#iterations: 74
currently lose_sum: 0.6947628855705261
time_elpased: 26.707
#iterations: 75
currently lose_sum: 0.698121190071106
time_elpased: 26.766
#iterations: 76
currently lose_sum: 0.6788191199302673
time_elpased: 27.511
#iterations: 77
currently lose_sum: 0.6885281205177307
time_elpased: 26.886
#iterations: 78
currently lose_sum: 0.6859850883483887
time_elpased: 26.825
#iterations: 79
currently lose_sum: 0.6819311380386353
time_elpased: 26.652
start validation test
0.5448
0.570346320346
0.415615141956
0.480839416058
0.546687441108
17.157
#iterations: 80
currently lose_sum: 0.6847500801086426
time_elpased: 26.945
#iterations: 81
currently lose_sum: 0.6898219585418701
time_elpased: 27.113
#iterations: 82
currently lose_sum: 0.6843797564506531
time_elpased: 26.805
#iterations: 83
currently lose_sum: 0.6861017346382141
time_elpased: 26.824
#iterations: 84
currently lose_sum: 0.6543459892272949
time_elpased: 26.712
#iterations: 85
currently lose_sum: 0.679432213306427
time_elpased: 26.832
#iterations: 86
currently lose_sum: 0.6983689665794373
time_elpased: 26.946
#iterations: 87
currently lose_sum: 0.68833327293396
time_elpased: 26.942
#iterations: 88
currently lose_sum: 0.6844356656074524
time_elpased: 26.82
#iterations: 89
currently lose_sum: 0.6606056094169617
time_elpased: 26.971
#iterations: 90
currently lose_sum: 0.6732213497161865
time_elpased: 26.981
#iterations: 91
currently lose_sum: 0.7102156281471252
time_elpased: 26.894
#iterations: 92
currently lose_sum: 0.7015218138694763
time_elpased: 26.885
#iterations: 93
currently lose_sum: 0.7147831916809082
time_elpased: 27.045
#iterations: 94
currently lose_sum: 0.6932586431503296
time_elpased: 26.849
#iterations: 95
currently lose_sum: 0.673352837562561
time_elpased: 26.923
#iterations: 96
currently lose_sum: 0.7019107937812805
time_elpased: 27.084
#iterations: 97
currently lose_sum: 0.7121484875679016
time_elpased: 26.829
#iterations: 98
currently lose_sum: 0.697134256362915
time_elpased: 26.711
#iterations: 99
currently lose_sum: 0.6788615584373474
time_elpased: 26.865
start validation test
0.5532
0.589774078478
0.391167192429
0.470365101944
0.555567362448
17.146
#iterations: 100
currently lose_sum: 0.6993419528007507
time_elpased: 26.932
#iterations: 101
currently lose_sum: 0.6616355180740356
time_elpased: 26.739
#iterations: 102
currently lose_sum: 0.692767322063446
time_elpased: 26.973
#iterations: 103
currently lose_sum: 0.7196108102798462
time_elpased: 26.753
#iterations: 104
currently lose_sum: 0.6931986212730408
time_elpased: 26.923
#iterations: 105
currently lose_sum: 0.6862794756889343
time_elpased: 26.838
#iterations: 106
currently lose_sum: 0.6789155006408691
time_elpased: 26.739
#iterations: 107
currently lose_sum: 0.6826890707015991
time_elpased: 26.884
#iterations: 108
currently lose_sum: 0.6621636748313904
time_elpased: 26.747
#iterations: 109
currently lose_sum: 0.6884301900863647
time_elpased: 26.804
#iterations: 110
currently lose_sum: 0.6796472072601318
time_elpased: 26.754
#iterations: 111
currently lose_sum: 0.6649589538574219
time_elpased: 26.689
#iterations: 112
currently lose_sum: 0.6639619469642639
time_elpased: 26.632
#iterations: 113
currently lose_sum: 0.6781771183013916
time_elpased: 26.806
#iterations: 114
currently lose_sum: 0.6511138677597046
time_elpased: 26.63
#iterations: 115
currently lose_sum: 0.6734502911567688
time_elpased: 26.826
#iterations: 116
currently lose_sum: 0.6864710450172424
time_elpased: 26.789
#iterations: 117
currently lose_sum: 0.693023681640625
time_elpased: 26.718
#iterations: 118
currently lose_sum: 0.6872621774673462
time_elpased: 27.033
#iterations: 119
currently lose_sum: 0.687541663646698
time_elpased: 26.841
start validation test
0.554
0.575369458128
0.460567823344
0.511607533947
0.555365080503
17.105
#iterations: 120
currently lose_sum: 0.6844412088394165
time_elpased: 27.353
#iterations: 121
currently lose_sum: 0.7061969041824341
time_elpased: 27.146
#iterations: 122
currently lose_sum: 0.666053295135498
time_elpased: 27.203
#iterations: 123
currently lose_sum: 0.686470091342926
time_elpased: 27.28
#iterations: 124
currently lose_sum: 0.7084187865257263
time_elpased: 27.251
#iterations: 125
currently lose_sum: 0.7033915519714355
time_elpased: 27.557
#iterations: 126
currently lose_sum: 0.6896092295646667
time_elpased: 27.144
#iterations: 127
currently lose_sum: 0.6679016351699829
time_elpased: 27.171
#iterations: 128
currently lose_sum: 0.6582492589950562
time_elpased: 27.24
#iterations: 129
currently lose_sum: 0.6703884601593018
time_elpased: 27.346
#iterations: 130
currently lose_sum: 0.6697779893875122
time_elpased: 27.205
#iterations: 131
currently lose_sum: 0.6692684292793274
time_elpased: 27.345
#iterations: 132
currently lose_sum: 0.6664223670959473
time_elpased: 27.262
#iterations: 133
currently lose_sum: 0.6831285357475281
time_elpased: 27.255
#iterations: 134
currently lose_sum: 0.6846592426300049
time_elpased: 27.326
#iterations: 135
currently lose_sum: 0.6818484663963318
time_elpased: 27.339
#iterations: 136
currently lose_sum: 0.6813137531280518
time_elpased: 27.251
#iterations: 137
currently lose_sum: 0.6792177557945251
time_elpased: 27.238
#iterations: 138
currently lose_sum: 0.6971197724342346
time_elpased: 27.493
#iterations: 139
currently lose_sum: 0.6590086221694946
time_elpased: 27.422
start validation test
0.5532
0.611521418021
0.326498422713
0.425706940874
0.556512198369
17.030
#iterations: 140
currently lose_sum: 0.6868458390235901
time_elpased: 26.857
#iterations: 141
currently lose_sum: 0.6573176383972168
time_elpased: 26.945
#iterations: 142
currently lose_sum: 0.673882246017456
time_elpased: 27.051
#iterations: 143
currently lose_sum: 0.6555132865905762
time_elpased: 26.979
#iterations: 144
currently lose_sum: 0.6920252442359924
time_elpased: 26.909
#iterations: 145
currently lose_sum: 0.6817787885665894
time_elpased: 26.942
#iterations: 146
currently lose_sum: 0.6819296479225159
time_elpased: 26.894
#iterations: 147
currently lose_sum: 0.7295200824737549
time_elpased: 27.076
#iterations: 148
currently lose_sum: 0.676094651222229
time_elpased: 26.885
#iterations: 149
currently lose_sum: 0.7200117707252502
time_elpased: 27.05
#iterations: 150
currently lose_sum: 0.6781434416770935
time_elpased: 26.783
#iterations: 151
currently lose_sum: 0.7012270092964172
time_elpased: 26.843
#iterations: 152
currently lose_sum: 0.6673417687416077
time_elpased: 26.882
#iterations: 153
currently lose_sum: 0.6781249046325684
time_elpased: 26.846
#iterations: 154
currently lose_sum: 0.6784115433692932
time_elpased: 26.894
#iterations: 155
currently lose_sum: 0.6953291893005371
time_elpased: 27.004
#iterations: 156
currently lose_sum: 0.6631068587303162
time_elpased: 26.919
#iterations: 157
currently lose_sum: 0.6985978484153748
time_elpased: 27.177
#iterations: 158
currently lose_sum: 0.6876941919326782
time_elpased: 26.968
#iterations: 159
currently lose_sum: 0.6870166063308716
time_elpased: 27.106
start validation test
0.5468
0.56937307297
0.43690851735
0.494422132976
0.548405557376
16.938
#iterations: 160
currently lose_sum: 0.7061262726783752
time_elpased: 26.993
#iterations: 161
currently lose_sum: 0.6737332344055176
time_elpased: 27.333
#iterations: 162
currently lose_sum: 0.6690537333488464
time_elpased: 27.019
#iterations: 163
currently lose_sum: 0.6873822212219238
time_elpased: 27.501
#iterations: 164
currently lose_sum: 0.6625567674636841
time_elpased: 26.839
#iterations: 165
currently lose_sum: 0.662238597869873
time_elpased: 26.934
#iterations: 166
currently lose_sum: 0.6784934997558594
time_elpased: 26.919
#iterations: 167
currently lose_sum: 0.6556562185287476
time_elpased: 27.119
#iterations: 168
currently lose_sum: 0.6790302395820618
time_elpased: 26.977
#iterations: 169
currently lose_sum: 0.6471379995346069
time_elpased: 26.798
#iterations: 170
currently lose_sum: 0.6725285053253174
time_elpased: 26.846
#iterations: 171
currently lose_sum: 0.6679382920265198
time_elpased: 26.762
#iterations: 172
currently lose_sum: 0.6620578765869141
time_elpased: 26.915
#iterations: 173
currently lose_sum: 0.6825578212738037
time_elpased: 26.846
#iterations: 174
currently lose_sum: 0.68851637840271
time_elpased: 26.849
#iterations: 175
currently lose_sum: 0.6795873045921326
time_elpased: 27.046
#iterations: 176
currently lose_sum: 0.6797882318496704
time_elpased: 26.854
#iterations: 177
currently lose_sum: 0.6745451092720032
time_elpased: 27.059
#iterations: 178
currently lose_sum: 0.6760744452476501
time_elpased: 26.949
#iterations: 179
currently lose_sum: 0.6731643676757812
time_elpased: 27.0
start validation test
0.5536
0.550065876153
0.658517350158
0.599425699928
0.552067116637
16.978
#iterations: 180
currently lose_sum: 0.6578586101531982
time_elpased: 26.898
#iterations: 181
currently lose_sum: 0.658481776714325
time_elpased: 26.881
#iterations: 182
currently lose_sum: 0.6987152099609375
time_elpased: 26.903
#iterations: 183
currently lose_sum: 0.685955822467804
time_elpased: 26.92
#iterations: 184
currently lose_sum: 0.6640627980232239
time_elpased: 27.162
#iterations: 185
currently lose_sum: 0.6545811295509338
time_elpased: 26.952
#iterations: 186
currently lose_sum: 0.6665301322937012
time_elpased: 26.967
#iterations: 187
currently lose_sum: 0.6449699401855469
time_elpased: 26.896
#iterations: 188
currently lose_sum: 0.685371458530426
time_elpased: 27.302
#iterations: 189
currently lose_sum: 0.6701579093933105
time_elpased: 26.981
#iterations: 190
currently lose_sum: 0.6721923351287842
time_elpased: 26.961
#iterations: 191
currently lose_sum: 0.6740067005157471
time_elpased: 27.102
#iterations: 192
currently lose_sum: 0.6501258611679077
time_elpased: 26.797
#iterations: 193
currently lose_sum: 0.6626697778701782
time_elpased: 26.668
#iterations: 194
currently lose_sum: 0.692363977432251
time_elpased: 26.739
#iterations: 195
currently lose_sum: 0.6648712158203125
time_elpased: 26.654
#iterations: 196
currently lose_sum: 0.6539028882980347
time_elpased: 26.764
#iterations: 197
currently lose_sum: 0.6698611378669739
time_elpased: 26.755
#iterations: 198
currently lose_sum: 0.6834863424301147
time_elpased: 26.709
#iterations: 199
currently lose_sum: 0.6808311939239502
time_elpased: 26.836
start validation test
0.562
0.62776957164
0.335173501577
0.437017994859
0.565314023516
17.023
#iterations: 200
currently lose_sum: 0.6721618175506592
time_elpased: 27.15
#iterations: 201
currently lose_sum: 0.6730139255523682
time_elpased: 26.769
#iterations: 202
currently lose_sum: 0.6544283032417297
time_elpased: 26.971
#iterations: 203
currently lose_sum: 0.6728107929229736
time_elpased: 26.84
#iterations: 204
currently lose_sum: 0.6556271314620972
time_elpased: 26.756
#iterations: 205
currently lose_sum: 0.7023167610168457
time_elpased: 26.994
#iterations: 206
currently lose_sum: 0.6625663042068481
time_elpased: 26.899
#iterations: 207
currently lose_sum: 0.6810133457183838
time_elpased: 27.017
#iterations: 208
currently lose_sum: 0.6875742077827454
time_elpased: 26.989
#iterations: 209
currently lose_sum: 0.6719504594802856
time_elpased: 26.938
#iterations: 210
currently lose_sum: 0.6837465167045593
time_elpased: 26.901
#iterations: 211
currently lose_sum: 0.6382133364677429
time_elpased: 26.962
#iterations: 212
currently lose_sum: 0.6821397542953491
time_elpased: 27.056
#iterations: 213
currently lose_sum: 0.6404345631599426
time_elpased: 27.012
#iterations: 214
currently lose_sum: 0.6759039163589478
time_elpased: 27.046
#iterations: 215
currently lose_sum: 0.6659393906593323
time_elpased: 27.032
#iterations: 216
currently lose_sum: 0.6433795094490051
time_elpased: 26.943
#iterations: 217
currently lose_sum: 0.6926400661468506
time_elpased: 26.931
#iterations: 218
currently lose_sum: 0.633946418762207
time_elpased: 26.88
#iterations: 219
currently lose_sum: 0.6755704283714294
time_elpased: 26.792
start validation test
0.5424
0.601307189542
0.290220820189
0.391489361702
0.546084436069
17.116
#iterations: 220
currently lose_sum: 0.6605387330055237
time_elpased: 26.917
#iterations: 221
currently lose_sum: 0.6784034967422485
time_elpased: 27.097
#iterations: 222
currently lose_sum: 0.6929710507392883
time_elpased: 27.0
#iterations: 223
currently lose_sum: 0.6594067215919495
time_elpased: 26.867
#iterations: 224
currently lose_sum: 0.6533433794975281
time_elpased: 27.221
#iterations: 225
currently lose_sum: 0.6544477939605713
time_elpased: 26.877
#iterations: 226
currently lose_sum: 0.656869649887085
time_elpased: 26.856
#iterations: 227
currently lose_sum: 0.6506873965263367
time_elpased: 27.007
#iterations: 228
currently lose_sum: 0.6699023246765137
time_elpased: 26.908
#iterations: 229
currently lose_sum: 0.6861377954483032
time_elpased: 26.746
#iterations: 230
currently lose_sum: 0.684225857257843
time_elpased: 26.746
#iterations: 231
currently lose_sum: 0.7138676643371582
time_elpased: 26.829
#iterations: 232
currently lose_sum: 0.6575065851211548
time_elpased: 26.951
#iterations: 233
currently lose_sum: 0.6793937683105469
time_elpased: 26.932
#iterations: 234
currently lose_sum: 0.653706967830658
time_elpased: 26.801
#iterations: 235
currently lose_sum: 0.6776727437973022
time_elpased: 26.852
#iterations: 236
currently lose_sum: 0.6482824683189392
time_elpased: 26.802
#iterations: 237
currently lose_sum: 0.6656941175460815
time_elpased: 26.753
#iterations: 238
currently lose_sum: 0.6521707773208618
time_elpased: 26.837
#iterations: 239
currently lose_sum: 0.6824972629547119
time_elpased: 26.963
start validation test
0.5496
0.596994535519
0.344637223975
0.437
0.552594586013
17.002
#iterations: 240
currently lose_sum: 0.6451143026351929
time_elpased: 26.854
#iterations: 241
currently lose_sum: 0.6911027431488037
time_elpased: 26.776
#iterations: 242
currently lose_sum: 0.6928988099098206
time_elpased: 27.163
#iterations: 243
currently lose_sum: 0.6591137647628784
time_elpased: 26.92
#iterations: 244
currently lose_sum: 0.6459248065948486
time_elpased: 26.874
#iterations: 245
currently lose_sum: 0.6669557690620422
time_elpased: 26.823
#iterations: 246
currently lose_sum: 0.6695161461830139
time_elpased: 26.951
#iterations: 247
currently lose_sum: 0.6875747442245483
time_elpased: 27.012
#iterations: 248
currently lose_sum: 0.6700003147125244
time_elpased: 27.37
#iterations: 249
currently lose_sum: 0.6517319679260254
time_elpased: 26.949
#iterations: 250
currently lose_sum: 0.6833248734474182
time_elpased: 27.07
#iterations: 251
currently lose_sum: 0.6765910387039185
time_elpased: 26.824
#iterations: 252
currently lose_sum: 0.6832137107849121
time_elpased: 26.879
#iterations: 253
currently lose_sum: 0.6844144463539124
time_elpased: 27.087
#iterations: 254
currently lose_sum: 0.6659235954284668
time_elpased: 27.13
#iterations: 255
currently lose_sum: 0.6825166940689087
time_elpased: 27.372
#iterations: 256
currently lose_sum: 0.6679284572601318
time_elpased: 26.951
#iterations: 257
currently lose_sum: 0.6649700403213501
time_elpased: 26.846
#iterations: 258
currently lose_sum: 0.6708815693855286
time_elpased: 26.776
#iterations: 259
currently lose_sum: 0.6577443480491638
time_elpased: 26.827
start validation test
0.56
0.560781476122
0.61119873817
0.584905660377
0.559251966488
16.832
#iterations: 260
currently lose_sum: 0.667286217212677
time_elpased: 26.91
#iterations: 261
currently lose_sum: 0.6588892936706543
time_elpased: 26.936
#iterations: 262
currently lose_sum: 0.6716157793998718
time_elpased: 27.27
#iterations: 263
currently lose_sum: 0.679934561252594
time_elpased: 26.801
#iterations: 264
currently lose_sum: 0.6834332346916199
time_elpased: 26.803
#iterations: 265
currently lose_sum: 0.6411964297294617
time_elpased: 26.884
#iterations: 266
currently lose_sum: 0.7084410786628723
time_elpased: 26.782
#iterations: 267
currently lose_sum: 0.6556706428527832
time_elpased: 26.791
#iterations: 268
currently lose_sum: 0.6621760725975037
time_elpased: 26.926
#iterations: 269
currently lose_sum: 0.6726321578025818
time_elpased: 26.868
#iterations: 270
currently lose_sum: 0.6121039390563965
time_elpased: 26.873
#iterations: 271
currently lose_sum: 0.6412396430969238
time_elpased: 26.858
#iterations: 272
currently lose_sum: 0.6520298719406128
time_elpased: 26.907
#iterations: 273
currently lose_sum: 0.6647985577583313
time_elpased: 26.914
#iterations: 274
currently lose_sum: 0.7058044672012329
time_elpased: 27.022
#iterations: 275
currently lose_sum: 0.6745485067367554
time_elpased: 26.906
#iterations: 276
currently lose_sum: 0.6647976636886597
time_elpased: 26.983
#iterations: 277
currently lose_sum: 0.6709541082382202
time_elpased: 26.873
#iterations: 278
currently lose_sum: 0.6854174733161926
time_elpased: 26.957
#iterations: 279
currently lose_sum: 0.6495292782783508
time_elpased: 26.773
start validation test
0.5292
0.598698481562
0.217665615142
0.319259687681
0.53375163874
18.355
#iterations: 280
currently lose_sum: 0.6970903873443604
time_elpased: 26.733
#iterations: 281
currently lose_sum: 0.6714141964912415
time_elpased: 26.88
#iterations: 282
currently lose_sum: 0.6882470846176147
time_elpased: 26.855
#iterations: 283
currently lose_sum: 0.6672853231430054
time_elpased: 26.892
#iterations: 284
currently lose_sum: 0.6874646544456482
time_elpased: 27.002
#iterations: 285
currently lose_sum: 0.683224618434906
time_elpased: 26.864
#iterations: 286
currently lose_sum: 0.6521116495132446
time_elpased: 27.041
#iterations: 287
currently lose_sum: 0.6952633857727051
time_elpased: 26.868
#iterations: 288
currently lose_sum: 0.6671082973480225
time_elpased: 26.843
#iterations: 289
currently lose_sum: 0.675791323184967
time_elpased: 27.175
#iterations: 290
currently lose_sum: 0.6757749915122986
time_elpased: 27.109
#iterations: 291
currently lose_sum: 0.657408595085144
time_elpased: 26.969
#iterations: 292
currently lose_sum: 0.6604598760604858
time_elpased: 27.018
#iterations: 293
currently lose_sum: 0.6459129452705383
time_elpased: 26.887
#iterations: 294
currently lose_sum: 0.6642115712165833
time_elpased: 26.779
#iterations: 295
currently lose_sum: 0.6583755016326904
time_elpased: 27.049
#iterations: 296
currently lose_sum: 0.7105987668037415
time_elpased: 27.103
#iterations: 297
currently lose_sum: 0.6569600105285645
time_elpased: 26.861
#iterations: 298
currently lose_sum: 0.7040358185768127
time_elpased: 27.059
#iterations: 299
currently lose_sum: 0.6341472864151001
time_elpased: 26.949
start validation test
0.5516
0.564417177914
0.507886435331
0.534661685347
0.552238672211
16.883
#iterations: 300
currently lose_sum: 0.6331580877304077
time_elpased: 27.114
#iterations: 301
currently lose_sum: 0.6728455424308777
time_elpased: 26.899
#iterations: 302
currently lose_sum: 0.6790611147880554
time_elpased: 26.952
#iterations: 303
currently lose_sum: 0.6717960834503174
time_elpased: 27.004
#iterations: 304
currently lose_sum: 0.6936981081962585
time_elpased: 26.94
#iterations: 305
currently lose_sum: 0.7025666832923889
time_elpased: 27.028
#iterations: 306
currently lose_sum: 0.6724687814712524
time_elpased: 26.784
#iterations: 307
currently lose_sum: 0.6868353486061096
time_elpased: 27.016
#iterations: 308
currently lose_sum: 0.6660189628601074
time_elpased: 26.871
#iterations: 309
currently lose_sum: 0.6753780841827393
time_elpased: 26.924
#iterations: 310
currently lose_sum: 0.6767237782478333
time_elpased: 26.818
#iterations: 311
currently lose_sum: 0.6400601267814636
time_elpased: 27.002
#iterations: 312
currently lose_sum: 0.6616564989089966
time_elpased: 26.838
#iterations: 313
currently lose_sum: 0.6159984469413757
time_elpased: 26.773
#iterations: 314
currently lose_sum: 0.6537628769874573
time_elpased: 26.752
#iterations: 315
currently lose_sum: 0.662335216999054
time_elpased: 26.816
#iterations: 316
currently lose_sum: 0.7068653106689453
time_elpased: 26.86
#iterations: 317
currently lose_sum: 0.6621612310409546
time_elpased: 26.923
#iterations: 318
currently lose_sum: 0.6552941203117371
time_elpased: 26.899
#iterations: 319
currently lose_sum: 0.701191246509552
time_elpased: 26.993
start validation test
0.5332
0.525910723448
0.808359621451
0.637239664283
0.529179810726
17.333
#iterations: 320
currently lose_sum: 0.6583603024482727
time_elpased: 26.987
#iterations: 321
currently lose_sum: 0.6849391460418701
time_elpased: 27.373
#iterations: 322
currently lose_sum: 0.6328643560409546
time_elpased: 26.893
#iterations: 323
currently lose_sum: 0.6877196431159973
time_elpased: 26.791
#iterations: 324
currently lose_sum: 0.6270642876625061
time_elpased: 26.827
#iterations: 325
currently lose_sum: 0.6790196895599365
time_elpased: 26.976
#iterations: 326
currently lose_sum: 0.689817488193512
time_elpased: 26.877
#iterations: 327
currently lose_sum: 0.6653256416320801
time_elpased: 26.686
#iterations: 328
currently lose_sum: 0.6603846549987793
time_elpased: 26.978
#iterations: 329
currently lose_sum: 0.6483153700828552
time_elpased: 26.672
#iterations: 330
currently lose_sum: 0.6924431324005127
time_elpased: 26.908
#iterations: 331
currently lose_sum: 0.6875783801078796
time_elpased: 27.021
#iterations: 332
currently lose_sum: 0.6874059438705444
time_elpased: 26.926
#iterations: 333
currently lose_sum: 0.6943594217300415
time_elpased: 26.914
#iterations: 334
currently lose_sum: 0.6790069341659546
time_elpased: 27.01
#iterations: 335
currently lose_sum: 0.6988629102706909
time_elpased: 26.99
#iterations: 336
currently lose_sum: 0.6532538533210754
time_elpased: 27.437
#iterations: 337
currently lose_sum: 0.6909932494163513
time_elpased: 26.924
#iterations: 338
currently lose_sum: 0.6417582035064697
time_elpased: 26.894
#iterations: 339
currently lose_sum: 0.6601851582527161
time_elpased: 26.915
start validation test
0.5604
0.618181818182
0.34858044164
0.44578920827
0.563494766275
16.869
#iterations: 340
currently lose_sum: 0.6519052386283875
time_elpased: 26.989
#iterations: 341
currently lose_sum: 0.6300547122955322
time_elpased: 27.131
#iterations: 342
currently lose_sum: 0.6333363056182861
time_elpased: 27.072
#iterations: 343
currently lose_sum: 0.6539204120635986
time_elpased: 26.929
#iterations: 344
currently lose_sum: 0.6762837171554565
time_elpased: 26.931
#iterations: 345
currently lose_sum: 0.7118819355964661
time_elpased: 26.735
#iterations: 346
currently lose_sum: 0.6631985306739807
time_elpased: 26.792
#iterations: 347
currently lose_sum: 0.6454580426216125
time_elpased: 27.303
#iterations: 348
currently lose_sum: 0.6885871887207031
time_elpased: 26.72
#iterations: 349
currently lose_sum: 0.6701627969741821
time_elpased: 26.907
#iterations: 350
currently lose_sum: 0.7123197913169861
time_elpased: 26.681
#iterations: 351
currently lose_sum: 0.6729496121406555
time_elpased: 26.772
#iterations: 352
currently lose_sum: 0.6565126776695251
time_elpased: 26.9
#iterations: 353
currently lose_sum: 0.6629517078399658
time_elpased: 26.764
#iterations: 354
currently lose_sum: 0.7270592451095581
time_elpased: 26.78
#iterations: 355
currently lose_sum: 0.6804124712944031
time_elpased: 26.695
#iterations: 356
currently lose_sum: 0.631738007068634
time_elpased: 26.704
#iterations: 357
currently lose_sum: 0.6999323964118958
time_elpased: 26.906
#iterations: 358
currently lose_sum: 0.6653164625167847
time_elpased: 26.918
#iterations: 359
currently lose_sum: 0.6839639544487
time_elpased: 26.747
start validation test
0.5624
0.561095505618
0.630126182965
0.593610698366
0.56141049408
16.815
#iterations: 360
currently lose_sum: 0.6548758149147034
time_elpased: 26.764
#iterations: 361
currently lose_sum: 0.654304027557373
time_elpased: 26.973
#iterations: 362
currently lose_sum: 0.6413922905921936
time_elpased: 26.817
#iterations: 363
currently lose_sum: 0.6723074316978455
time_elpased: 26.833
#iterations: 364
currently lose_sum: 0.6752356886863708
time_elpased: 26.762
#iterations: 365
currently lose_sum: 0.7013154029846191
time_elpased: 26.94
#iterations: 366
currently lose_sum: 0.7064586877822876
time_elpased: 26.782
#iterations: 367
currently lose_sum: 0.6499937176704407
time_elpased: 26.748
#iterations: 368
currently lose_sum: 0.6520897150039673
time_elpased: 26.643
#iterations: 369
currently lose_sum: 0.6758643984794617
time_elpased: 26.775
#iterations: 370
currently lose_sum: 0.6487040519714355
time_elpased: 26.748
#iterations: 371
currently lose_sum: 0.6336120367050171
time_elpased: 26.762
#iterations: 372
currently lose_sum: 0.6850383877754211
time_elpased: 27.014
#iterations: 373
currently lose_sum: 0.6689068675041199
time_elpased: 26.781
#iterations: 374
currently lose_sum: 0.6451497077941895
time_elpased: 26.933
#iterations: 375
currently lose_sum: 0.6425254344940186
time_elpased: 26.653
#iterations: 376
currently lose_sum: 0.6440325975418091
time_elpased: 26.683
#iterations: 377
currently lose_sum: 0.6392617225646973
time_elpased: 26.705
#iterations: 378
currently lose_sum: 0.6472834944725037
time_elpased: 26.861
#iterations: 379
currently lose_sum: 0.6554651856422424
time_elpased: 26.745
start validation test
0.5596
0.579146919431
0.481861198738
0.526043908739
0.560735794174
16.827
#iterations: 380
currently lose_sum: 0.6530708074569702
time_elpased: 26.786
#iterations: 381
currently lose_sum: 0.6328341960906982
time_elpased: 26.726
#iterations: 382
currently lose_sum: 0.6127577424049377
time_elpased: 26.857
#iterations: 383
currently lose_sum: 0.6427592635154724
time_elpased: 26.831
#iterations: 384
currently lose_sum: 0.6841294169425964
time_elpased: 26.963
#iterations: 385
currently lose_sum: 0.6771030426025391
time_elpased: 26.883
#iterations: 386
currently lose_sum: 0.7089980840682983
time_elpased: 27.026
#iterations: 387
currently lose_sum: 0.6630575656890869
time_elpased: 26.902
#iterations: 388
currently lose_sum: 0.6111382246017456
time_elpased: 27.165
#iterations: 389
currently lose_sum: 0.6867179870605469
time_elpased: 26.69
#iterations: 390
currently lose_sum: 0.6806344389915466
time_elpased: 26.869
#iterations: 391
currently lose_sum: 0.7009291648864746
time_elpased: 27.442
#iterations: 392
currently lose_sum: 0.6359608769416809
time_elpased: 26.967
#iterations: 393
currently lose_sum: 0.6572818160057068
time_elpased: 27.017
#iterations: 394
currently lose_sum: 0.6371406316757202
time_elpased: 27.078
#iterations: 395
currently lose_sum: 0.6413819193840027
time_elpased: 26.875
#iterations: 396
currently lose_sum: 0.651865541934967
time_elpased: 27.023
#iterations: 397
currently lose_sum: 0.6915637254714966
time_elpased: 26.966
#iterations: 398
currently lose_sum: 0.6564696431159973
time_elpased: 26.769
#iterations: 399
currently lose_sum: 0.6409552097320557
time_elpased: 28.153
start validation test
0.5604
0.575920934412
0.505520504732
0.538429231415
0.561201810807
16.892
#iterations: 400
currently lose_sum: 0.6547753810882568
time_elpased: 27.043
#iterations: 401
currently lose_sum: 0.6598093509674072
time_elpased: 26.963
#iterations: 402
currently lose_sum: 0.6560083031654358
time_elpased: 26.913
#iterations: 403
currently lose_sum: 0.680422842502594
time_elpased: 26.827
#iterations: 404
currently lose_sum: 0.6315178871154785
time_elpased: 26.892
#iterations: 405
currently lose_sum: 0.623532235622406
time_elpased: 26.859
#iterations: 406
currently lose_sum: 0.5876762270927429
time_elpased: 27.091
#iterations: 407
currently lose_sum: 0.7046570777893066
time_elpased: 27.027
#iterations: 408
currently lose_sum: 0.6682137846946716
time_elpased: 26.975
#iterations: 409
currently lose_sum: 0.6245490908622742
time_elpased: 26.895
#iterations: 410
currently lose_sum: 0.6613036394119263
time_elpased: 26.871
#iterations: 411
currently lose_sum: 0.6596623063087463
time_elpased: 26.889
#iterations: 412
currently lose_sum: 0.6611316204071045
time_elpased: 26.936
#iterations: 413
currently lose_sum: 0.6954299807548523
time_elpased: 26.949
#iterations: 414
currently lose_sum: 0.6612383127212524
time_elpased: 27.175
#iterations: 415
currently lose_sum: 0.6614628434181213
time_elpased: 26.894
#iterations: 416
currently lose_sum: 0.6603415608406067
time_elpased: 27.166
#iterations: 417
currently lose_sum: 0.7062699794769287
time_elpased: 26.845
#iterations: 418
currently lose_sum: 0.6892796158790588
time_elpased: 26.934
#iterations: 419
currently lose_sum: 0.663077712059021
time_elpased: 26.934
start validation test
0.568
0.557457212714
0.719242902208
0.628099173554
0.565790282273
17.038
#iterations: 420
currently lose_sum: 0.673115611076355
time_elpased: 27.037
#iterations: 421
currently lose_sum: 0.6231863498687744
time_elpased: 26.869
#iterations: 422
currently lose_sum: 0.639458179473877
time_elpased: 26.879
#iterations: 423
currently lose_sum: 0.6309809684753418
time_elpased: 26.884
#iterations: 424
currently lose_sum: 0.6302486658096313
time_elpased: 26.821
#iterations: 425
currently lose_sum: 0.6294561624526978
time_elpased: 26.983
#iterations: 426
currently lose_sum: 0.6867059469223022
time_elpased: 26.907
#iterations: 427
currently lose_sum: 0.6432903409004211
time_elpased: 27.012
#iterations: 428
currently lose_sum: 0.6700198650360107
time_elpased: 26.841
#iterations: 429
currently lose_sum: 0.6774967908859253
time_elpased: 26.791
#iterations: 430
currently lose_sum: 0.673184335231781
time_elpased: 26.819
#iterations: 431
currently lose_sum: 0.6187901496887207
time_elpased: 26.965
#iterations: 432
currently lose_sum: 0.6389844417572021
time_elpased: 26.946
#iterations: 433
currently lose_sum: 0.6527692675590515
time_elpased: 26.753
#iterations: 434
currently lose_sum: 0.6281467080116272
time_elpased: 27.123
#iterations: 435
currently lose_sum: 0.6570925712585449
time_elpased: 27.019
#iterations: 436
currently lose_sum: 0.6349490880966187
time_elpased: 26.826
#iterations: 437
currently lose_sum: 0.6304349899291992
time_elpased: 26.902
#iterations: 438
currently lose_sum: 0.6613557934761047
time_elpased: 27.176
#iterations: 439
currently lose_sum: 0.6722779870033264
time_elpased: 26.931
start validation test
0.572
0.630952380952
0.3761829653
0.471343873518
0.574860963169
17.001
#iterations: 440
currently lose_sum: 0.6572824120521545
time_elpased: 27.035
#iterations: 441
currently lose_sum: 0.6447603106498718
time_elpased: 26.949
#iterations: 442
currently lose_sum: 0.6388970613479614
time_elpased: 27.039
#iterations: 443
currently lose_sum: 0.7047358751296997
time_elpased: 27.07
#iterations: 444
currently lose_sum: 0.5990540385246277
time_elpased: 26.882
#iterations: 445
currently lose_sum: 0.6809964179992676
time_elpased: 26.909
#iterations: 446
currently lose_sum: 0.664720892906189
time_elpased: 27.017
#iterations: 447
currently lose_sum: 0.6800087094306946
time_elpased: 26.876
#iterations: 448
currently lose_sum: 0.6576634049415588
time_elpased: 26.884
#iterations: 449
currently lose_sum: 0.6276659965515137
time_elpased: 27.005
#iterations: 450
currently lose_sum: 0.6243040561676025
time_elpased: 26.871
#iterations: 451
currently lose_sum: 0.6905449032783508
time_elpased: 26.736
#iterations: 452
currently lose_sum: 0.6704261302947998
time_elpased: 26.947
#iterations: 453
currently lose_sum: 0.7010902166366577
time_elpased: 27.215
#iterations: 454
currently lose_sum: 0.6355769038200378
time_elpased: 26.822
#iterations: 455
currently lose_sum: 0.6985105872154236
time_elpased: 26.702
#iterations: 456
currently lose_sum: 0.656032919883728
time_elpased: 26.708
#iterations: 457
currently lose_sum: 0.6556492447853088
time_elpased: 27.085
#iterations: 458
currently lose_sum: 0.6567044258117676
time_elpased: 26.757
#iterations: 459
currently lose_sum: 0.6581442356109619
time_elpased: 26.801
start validation test
0.5716
0.560990712074
0.714511041009
0.628511966701
0.569512014011
17.029
#iterations: 460
currently lose_sum: 0.6482561230659485
time_elpased: 26.717
#iterations: 461
currently lose_sum: 0.6800812482833862
time_elpased: 26.751
#iterations: 462
currently lose_sum: 0.6392045021057129
time_elpased: 26.743
#iterations: 463
currently lose_sum: 0.6535101532936096
time_elpased: 26.767
#iterations: 464
currently lose_sum: 0.6715804934501648
time_elpased: 26.772
#iterations: 465
currently lose_sum: 0.6454260349273682
time_elpased: 26.822
#iterations: 466
currently lose_sum: 0.6423823833465576
time_elpased: 27.284
#iterations: 467
currently lose_sum: 0.6536889672279358
time_elpased: 26.894
#iterations: 468
currently lose_sum: 0.6689965724945068
time_elpased: 26.848
#iterations: 469
currently lose_sum: 0.6426199078559875
time_elpased: 26.99
#iterations: 470
currently lose_sum: 0.671191394329071
time_elpased: 26.968
#iterations: 471
currently lose_sum: 0.6807373762130737
time_elpased: 26.892
#iterations: 472
currently lose_sum: 0.6492652893066406
time_elpased: 27.003
#iterations: 473
currently lose_sum: 0.6439021825790405
time_elpased: 26.915
#iterations: 474
currently lose_sum: 0.6911338567733765
time_elpased: 27.09
#iterations: 475
currently lose_sum: 0.6750192046165466
time_elpased: 26.914
#iterations: 476
currently lose_sum: 0.7249897718429565
time_elpased: 26.818
#iterations: 477
currently lose_sum: 0.6489467024803162
time_elpased: 26.731
#iterations: 478
currently lose_sum: 0.6428877115249634
time_elpased: 26.826
#iterations: 479
currently lose_sum: 0.668349027633667
time_elpased: 26.911
start validation test
0.5684
0.610011641444
0.413249211356
0.49271274095
0.57066681347
17.065
#iterations: 480
currently lose_sum: 0.6147324442863464
time_elpased: 27.199
#iterations: 481
currently lose_sum: 0.6632232666015625
time_elpased: 26.89
#iterations: 482
currently lose_sum: 0.6704034209251404
time_elpased: 26.834
#iterations: 483
currently lose_sum: 0.6540906429290771
time_elpased: 26.996
#iterations: 484
currently lose_sum: 0.6422065496444702
time_elpased: 26.877
#iterations: 485
currently lose_sum: 0.6594399213790894
time_elpased: 26.88
#iterations: 486
currently lose_sum: 0.6639056205749512
time_elpased: 26.899
#iterations: 487
currently lose_sum: 0.6397693157196045
time_elpased: 26.984
#iterations: 488
currently lose_sum: 0.6228761672973633
time_elpased: 26.841
#iterations: 489
currently lose_sum: 0.6562967896461487
time_elpased: 26.978
#iterations: 490
currently lose_sum: 0.6415295600891113
time_elpased: 27.056
#iterations: 491
currently lose_sum: 0.6511284708976746
time_elpased: 26.933
#iterations: 492
currently lose_sum: 0.7150938510894775
time_elpased: 26.874
#iterations: 493
currently lose_sum: 0.6139512658119202
time_elpased: 26.877
#iterations: 494
currently lose_sum: 0.6694548726081848
time_elpased: 27.004
#iterations: 495
currently lose_sum: 0.6553178429603577
time_elpased: 27.008
#iterations: 496
currently lose_sum: 0.6413249373435974
time_elpased: 27.043
#iterations: 497
currently lose_sum: 0.6426242589950562
time_elpased: 27.051
#iterations: 498
currently lose_sum: 0.645222008228302
time_elpased: 26.886
#iterations: 499
currently lose_sum: 0.6598660349845886
time_elpased: 26.771
start validation test
0.5676
0.564261168385
0.647476340694
0.603011384502
0.566432975542
16.814
#iterations: 500
currently lose_sum: 0.7027467489242554
time_elpased: 26.862
#iterations: 501
currently lose_sum: 0.6642001271247864
time_elpased: 26.811
#iterations: 502
currently lose_sum: 0.6770755648612976
time_elpased: 26.802
#iterations: 503
currently lose_sum: 0.6670088768005371
time_elpased: 27.132
#iterations: 504
currently lose_sum: 0.6460039019584656
time_elpased: 26.947
#iterations: 505
currently lose_sum: 0.6420848369598389
time_elpased: 26.886
#iterations: 506
currently lose_sum: 0.6624050736427307
time_elpased: 26.879
#iterations: 507
currently lose_sum: 0.6687204241752625
time_elpased: 26.865
#iterations: 508
currently lose_sum: 0.6180116534233093
time_elpased: 27.048
#iterations: 509
currently lose_sum: 0.7183817028999329
time_elpased: 27.021
#iterations: 510
currently lose_sum: 0.6775743365287781
time_elpased: 26.864
#iterations: 511
currently lose_sum: 0.6138296723365784
time_elpased: 26.944
#iterations: 512
currently lose_sum: 0.6178449392318726
time_elpased: 26.945
#iterations: 513
currently lose_sum: 0.604966938495636
time_elpased: 26.907
#iterations: 514
currently lose_sum: 0.7048353552818298
time_elpased: 26.966
#iterations: 515
currently lose_sum: 0.633633017539978
time_elpased: 26.835
#iterations: 516
currently lose_sum: 0.6868329644203186
time_elpased: 26.937
#iterations: 517
currently lose_sum: 0.6531676650047302
time_elpased: 26.839
#iterations: 518
currently lose_sum: 0.7289013862609863
time_elpased: 26.997
#iterations: 519
currently lose_sum: 0.6538909673690796
time_elpased: 26.852
start validation test
0.5696
0.565663474692
0.652208201893
0.605860805861
0.568393061985
16.812
#iterations: 520
currently lose_sum: 0.6549960374832153
time_elpased: 26.627
#iterations: 521
currently lose_sum: 0.6845455765724182
time_elpased: 26.783
#iterations: 522
currently lose_sum: 0.639279305934906
time_elpased: 26.821
#iterations: 523
currently lose_sum: 0.7071280479431152
time_elpased: 26.706
#iterations: 524
currently lose_sum: 0.6880526542663574
time_elpased: 26.686
#iterations: 525
currently lose_sum: 0.6757016777992249
time_elpased: 26.685
#iterations: 526
currently lose_sum: 0.6835559606552124
time_elpased: 26.775
#iterations: 527
currently lose_sum: 0.7027589678764343
time_elpased: 26.971
#iterations: 528
currently lose_sum: 0.6615312099456787
time_elpased: 26.808
#iterations: 529
currently lose_sum: 0.622667133808136
time_elpased: 27.232
#iterations: 530
currently lose_sum: 0.676388144493103
time_elpased: 27.082
#iterations: 531
currently lose_sum: 0.6718603372573853
time_elpased: 26.841
#iterations: 532
currently lose_sum: 0.6276249885559082
time_elpased: 26.816
#iterations: 533
currently lose_sum: 0.6511154174804688
time_elpased: 26.698
#iterations: 534
currently lose_sum: 0.654884934425354
time_elpased: 26.755
#iterations: 535
currently lose_sum: 0.6788783073425293
time_elpased: 26.716
#iterations: 536
currently lose_sum: 0.6491199731826782
time_elpased: 26.704
#iterations: 537
currently lose_sum: 0.6062604784965515
time_elpased: 26.896
#iterations: 538
currently lose_sum: 0.6378692388534546
time_elpased: 27.87
#iterations: 539
currently lose_sum: 0.6787267923355103
time_elpased: 26.794
start validation test
0.5596
0.583084577114
0.46214511041
0.515618125825
0.561023853906
16.782
#iterations: 540
currently lose_sum: 0.5813295245170593
time_elpased: 26.803
#iterations: 541
currently lose_sum: 0.6482917070388794
time_elpased: 27.117
#iterations: 542
currently lose_sum: 0.6243193745613098
time_elpased: 26.856
#iterations: 543
currently lose_sum: 0.6765501499176025
time_elpased: 26.909
#iterations: 544
currently lose_sum: 0.6207842230796814
time_elpased: 26.758
#iterations: 545
currently lose_sum: 0.648579478263855
time_elpased: 26.876
#iterations: 546
currently lose_sum: 0.6664544939994812
time_elpased: 27.027
#iterations: 547
currently lose_sum: 0.6642982363700867
time_elpased: 26.945
#iterations: 548
currently lose_sum: 0.6669195294380188
time_elpased: 26.806
#iterations: 549
currently lose_sum: 0.600626528263092
time_elpased: 26.743
#iterations: 550
currently lose_sum: 0.6515827775001526
time_elpased: 26.997
#iterations: 551
currently lose_sum: 0.6626772284507751
time_elpased: 26.832
#iterations: 552
currently lose_sum: 0.6437175273895264
time_elpased: 26.838
#iterations: 553
currently lose_sum: 0.6247580647468567
time_elpased: 26.869
#iterations: 554
currently lose_sum: 0.6820773482322693
time_elpased: 26.87
#iterations: 555
currently lose_sum: 0.642894446849823
time_elpased: 26.835
#iterations: 556
currently lose_sum: 0.6767635941505432
time_elpased: 27.199
#iterations: 557
currently lose_sum: 0.6458967328071594
time_elpased: 27.038
#iterations: 558
currently lose_sum: 0.6415084600448608
time_elpased: 26.898
#iterations: 559
currently lose_sum: 0.6437733173370361
time_elpased: 26.812
start validation test
0.5708
0.566643882433
0.653785488959
0.607103625046
0.569587549674
16.755
#iterations: 560
currently lose_sum: 0.6875402331352234
time_elpased: 26.826
#iterations: 561
currently lose_sum: 0.6514955759048462
time_elpased: 26.97
#iterations: 562
currently lose_sum: 0.6227673888206482
time_elpased: 26.866
#iterations: 563
currently lose_sum: 0.6431922912597656
time_elpased: 26.792
#iterations: 564
currently lose_sum: 0.7138258218765259
time_elpased: 27.117
#iterations: 565
currently lose_sum: 0.6595268249511719
time_elpased: 26.937
#iterations: 566
currently lose_sum: 0.6323078274726868
time_elpased: 26.846
#iterations: 567
currently lose_sum: 0.6378070116043091
time_elpased: 26.829
#iterations: 568
currently lose_sum: 0.6594752669334412
time_elpased: 26.936
#iterations: 569
currently lose_sum: 0.6940857172012329
time_elpased: 26.971
#iterations: 570
currently lose_sum: 0.6189906597137451
time_elpased: 26.89
#iterations: 571
currently lose_sum: 0.6748273968696594
time_elpased: 27.037
#iterations: 572
currently lose_sum: 0.6678610444068909
time_elpased: 27.015
#iterations: 573
currently lose_sum: 0.6258310079574585
time_elpased: 26.859
#iterations: 574
currently lose_sum: 0.688606321811676
time_elpased: 27.075
#iterations: 575
currently lose_sum: 0.6932461261749268
time_elpased: 26.869
#iterations: 576
currently lose_sum: 0.6625758409500122
time_elpased: 26.933
#iterations: 577
currently lose_sum: 0.6747117638587952
time_elpased: 26.946
#iterations: 578
currently lose_sum: 0.618385374546051
time_elpased: 26.905
#iterations: 579
currently lose_sum: 0.675057590007782
time_elpased: 27.369
start validation test
0.5764
0.594229035167
0.519716088328
0.554480437526
0.577228174034
16.893
#iterations: 580
currently lose_sum: 0.6241345405578613
time_elpased: 26.857
#iterations: 581
currently lose_sum: 0.6533255577087402
time_elpased: 26.84
#iterations: 582
currently lose_sum: 0.6291704773902893
time_elpased: 27.301
#iterations: 583
currently lose_sum: 0.6375008821487427
time_elpased: 26.847
#iterations: 584
currently lose_sum: 0.6553553938865662
time_elpased: 27.241
#iterations: 585
currently lose_sum: 0.6057968139648438
time_elpased: 27.033
#iterations: 586
currently lose_sum: 0.6602444648742676
time_elpased: 26.772
#iterations: 587
currently lose_sum: 0.6608443260192871
time_elpased: 26.839
#iterations: 588
currently lose_sum: 0.6357029676437378
time_elpased: 27.012
#iterations: 589
currently lose_sum: 0.6295305490493774
time_elpased: 26.99
#iterations: 590
currently lose_sum: 0.64095139503479
time_elpased: 27.008
#iterations: 591
currently lose_sum: 0.6337308287620544
time_elpased: 26.986
#iterations: 592
currently lose_sum: 0.6189218163490295
time_elpased: 26.965
#iterations: 593
currently lose_sum: 0.718931257724762
time_elpased: 34.869
#iterations: 594
currently lose_sum: 0.6620384454727173
time_elpased: 81.48
#iterations: 595
currently lose_sum: 0.6399858593940735
time_elpased: 85.623
#iterations: 596
currently lose_sum: 0.6814228892326355
time_elpased: 85.78
#iterations: 597
currently lose_sum: 0.623094916343689
time_elpased: 80.867
#iterations: 598
currently lose_sum: 0.6429316997528076
time_elpased: 81.768
#iterations: 599
currently lose_sum: 0.6525911092758179
time_elpased: 84.653
start validation test
0.5596
0.543648719289
0.820189274448
0.65388242691
0.555792689172
16.913
acc: 0.569
pre: 0.562
rec: 0.680
F1: 0.615
auc: 0.567
