start to construct computing graph
graph construct over
3802
epochs start
#iterations: 0
currently lose_sum: 0.7017112970352173
time_elpased: 3.109
#iterations: 1
currently lose_sum: 0.6932458281517029
time_elpased: 2.827
#iterations: 2
currently lose_sum: 0.693645179271698
time_elpased: 2.878
#iterations: 3
currently lose_sum: 0.6935530304908752
time_elpased: 2.889
#iterations: 4
currently lose_sum: 0.6916972398757935
time_elpased: 3.54
#iterations: 5
currently lose_sum: 0.6805077195167542
time_elpased: 2.759
#iterations: 6
currently lose_sum: 0.6822549700737
time_elpased: 3.134
#iterations: 7
currently lose_sum: 0.6892716884613037
time_elpased: 2.735
#iterations: 8
currently lose_sum: 0.6910792589187622
time_elpased: 2.772
#iterations: 9
currently lose_sum: 0.7030090093612671
time_elpased: 3.085
#iterations: 10
currently lose_sum: 0.6923454999923706
time_elpased: 2.8
#iterations: 11
currently lose_sum: 0.6912200450897217
time_elpased: 2.781
#iterations: 12
currently lose_sum: 0.6958875060081482
time_elpased: 2.83
#iterations: 13
currently lose_sum: 0.6865338087081909
time_elpased: 2.783
#iterations: 14
currently lose_sum: 0.6922372579574585
time_elpased: 2.782
#iterations: 15
currently lose_sum: 0.6825307607650757
time_elpased: 2.782
#iterations: 16
currently lose_sum: 0.6974615454673767
time_elpased: 2.731
#iterations: 17
currently lose_sum: 0.7051833868026733
time_elpased: 2.776
#iterations: 18
currently lose_sum: 0.6868711709976196
time_elpased: 2.876
#iterations: 19
currently lose_sum: 0.6874846816062927
time_elpased: 2.758
start validation test
0.5156
0.513882123721
0.832018927445
0.635350797952
0.51097699619
17.280
#iterations: 20
currently lose_sum: 0.6912255883216858
time_elpased: 2.415
#iterations: 21
currently lose_sum: 0.6978124380111694
time_elpased: 2.048
#iterations: 22
currently lose_sum: 0.6994429230690002
time_elpased: 2.219
#iterations: 23
currently lose_sum: 0.6913490891456604
time_elpased: 2.087
#iterations: 24
currently lose_sum: 0.7025302052497864
time_elpased: 2.172
#iterations: 25
currently lose_sum: 0.6873805522918701
time_elpased: 2.086
#iterations: 26
currently lose_sum: 0.6990481615066528
time_elpased: 2.03
#iterations: 27
currently lose_sum: 0.7054171562194824
time_elpased: 2.079
#iterations: 28
currently lose_sum: 0.6802423000335693
time_elpased: 2.094
#iterations: 29
currently lose_sum: 0.6890920996665955
time_elpased: 2.07
#iterations: 30
currently lose_sum: 0.6947433948516846
time_elpased: 2.114
#iterations: 31
currently lose_sum: 0.6829041838645935
time_elpased: 2.09
#iterations: 32
currently lose_sum: 0.6933243274688721
time_elpased: 2.147
#iterations: 33
currently lose_sum: 0.6910929083824158
time_elpased: 2.111
#iterations: 34
currently lose_sum: 0.6837014555931091
time_elpased: 2.11
#iterations: 35
currently lose_sum: 0.6922177076339722
time_elpased: 2.068
#iterations: 36
currently lose_sum: 0.6754618883132935
time_elpased: 2.129
#iterations: 37
currently lose_sum: 0.6964883208274841
time_elpased: 2.076
#iterations: 38
currently lose_sum: 0.703224778175354
time_elpased: 2.118
#iterations: 39
currently lose_sum: 0.6694782972335815
time_elpased: 2.084
start validation test
0.542
0.575091575092
0.371451104101
0.45136559655
0.544491785817
17.206
#iterations: 40
currently lose_sum: 0.6894844174385071
time_elpased: 2.109
#iterations: 41
currently lose_sum: 0.6915065050125122
time_elpased: 2.049
#iterations: 42
currently lose_sum: 0.6929360032081604
time_elpased: 2.079
#iterations: 43
currently lose_sum: 0.6752128005027771
time_elpased: 2.491
#iterations: 44
currently lose_sum: 0.6782094836235046
time_elpased: 2.104
#iterations: 45
currently lose_sum: 0.6775395274162292
time_elpased: 2.258
#iterations: 46
currently lose_sum: 0.6617693305015564
time_elpased: 2.096
#iterations: 47
currently lose_sum: 0.6758893728256226
time_elpased: 2.123
#iterations: 48
currently lose_sum: 0.6155298352241516
time_elpased: 2.127
#iterations: 49
currently lose_sum: 0.6967337131500244
time_elpased: 2.086
#iterations: 50
currently lose_sum: 0.7047470808029175
time_elpased: 2.373
#iterations: 51
currently lose_sum: 0.7036213874816895
time_elpased: 2.128
#iterations: 52
currently lose_sum: 0.6802912950515747
time_elpased: 2.075
#iterations: 53
currently lose_sum: 0.6669827103614807
time_elpased: 2.063
#iterations: 54
currently lose_sum: 0.6762869358062744
time_elpased: 2.108
#iterations: 55
currently lose_sum: 0.6840580701828003
time_elpased: 2.07
#iterations: 56
currently lose_sum: 0.6718437075614929
time_elpased: 2.046
#iterations: 57
currently lose_sum: 0.6997532844543457
time_elpased: 2.183
#iterations: 58
currently lose_sum: 0.677290141582489
time_elpased: 2.429
#iterations: 59
currently lose_sum: 0.686105489730835
time_elpased: 2.321
start validation test
0.5528
0.593516209476
0.375394321767
0.459903381643
0.555391966078
17.048
#iterations: 60
currently lose_sum: 0.6701008081436157
time_elpased: 2.207
#iterations: 61
currently lose_sum: 0.6601612567901611
time_elpased: 2.082
#iterations: 62
currently lose_sum: 0.6504228115081787
time_elpased: 2.049
#iterations: 63
currently lose_sum: 0.6713241338729858
time_elpased: 2.05
#iterations: 64
currently lose_sum: 0.6656630635261536
time_elpased: 2.038
#iterations: 65
currently lose_sum: 0.6914411187171936
time_elpased: 2.118
#iterations: 66
currently lose_sum: 0.679625391960144
time_elpased: 2.131
#iterations: 67
currently lose_sum: 0.7173241972923279
time_elpased: 2.035
#iterations: 68
currently lose_sum: 0.6974618434906006
time_elpased: 2.076
#iterations: 69
currently lose_sum: 0.6611420512199402
time_elpased: 2.105
#iterations: 70
currently lose_sum: 0.6848747134208679
time_elpased: 2.091
#iterations: 71
currently lose_sum: 0.6649725437164307
time_elpased: 2.23
#iterations: 72
currently lose_sum: 0.6867539882659912
time_elpased: 2.068
#iterations: 73
currently lose_sum: 0.6776621341705322
time_elpased: 2.267
#iterations: 74
currently lose_sum: 0.6693722605705261
time_elpased: 2.114
#iterations: 75
currently lose_sum: 0.6934049129486084
time_elpased: 2.191
#iterations: 76
currently lose_sum: 0.6788318157196045
time_elpased: 2.852
#iterations: 77
currently lose_sum: 0.6710269451141357
time_elpased: 2.071
#iterations: 78
currently lose_sum: 0.6841894388198853
time_elpased: 2.142
#iterations: 79
currently lose_sum: 0.6672682166099548
time_elpased: 2.131
start validation test
0.562
0.594742606791
0.428233438486
0.497936726272
0.563954381581
17.113
#iterations: 80
currently lose_sum: 0.6859468221664429
time_elpased: 2.28
#iterations: 81
currently lose_sum: 0.6790311932563782
time_elpased: 2.499
#iterations: 82
currently lose_sum: 0.6718948483467102
time_elpased: 2.122
#iterations: 83
currently lose_sum: 0.6844151020050049
time_elpased: 2.04
#iterations: 84
currently lose_sum: 0.6462832689285278
time_elpased: 2.058
#iterations: 85
currently lose_sum: 0.649040162563324
time_elpased: 2.089
#iterations: 86
currently lose_sum: 0.6962280869483948
time_elpased: 2.179
#iterations: 87
currently lose_sum: 0.6854697465896606
time_elpased: 2.11
#iterations: 88
currently lose_sum: 0.6946600079536438
time_elpased: 2.079
#iterations: 89
currently lose_sum: 0.6536501049995422
time_elpased: 2.084
#iterations: 90
currently lose_sum: 0.6611202359199524
time_elpased: 2.127
#iterations: 91
currently lose_sum: 0.686959981918335
time_elpased: 2.075
#iterations: 92
currently lose_sum: 0.6950284838676453
time_elpased: 2.084
#iterations: 93
currently lose_sum: 0.6644216179847717
time_elpased: 2.056
#iterations: 94
currently lose_sum: 0.6841150522232056
time_elpased: 2.086
#iterations: 95
currently lose_sum: 0.6478622555732727
time_elpased: 2.151
#iterations: 96
currently lose_sum: 0.7136275768280029
time_elpased: 2.204
#iterations: 97
currently lose_sum: 0.7026585340499878
time_elpased: 2.065
#iterations: 98
currently lose_sum: 0.7070598006248474
time_elpased: 2.033
#iterations: 99
currently lose_sum: 0.6533718705177307
time_elpased: 2.087
start validation test
0.5568
0.565466448445
0.544952681388
0.555020080321
0.556973093941
17.012
#iterations: 100
currently lose_sum: 0.6949209570884705
time_elpased: 2.18
#iterations: 101
currently lose_sum: 0.6744766235351562
time_elpased: 2.045
#iterations: 102
currently lose_sum: 0.6905620098114014
time_elpased: 2.031
#iterations: 103
currently lose_sum: 0.7065055966377258
time_elpased: 2.126
#iterations: 104
currently lose_sum: 0.6804953217506409
time_elpased: 2.122
#iterations: 105
currently lose_sum: 0.679790735244751
time_elpased: 2.084
#iterations: 106
currently lose_sum: 0.6291103363037109
time_elpased: 2.05
#iterations: 107
currently lose_sum: 0.6848225593566895
time_elpased: 2.165
#iterations: 108
currently lose_sum: 0.6417017579078674
time_elpased: 2.046
#iterations: 109
currently lose_sum: 0.6791269183158875
time_elpased: 2.081
#iterations: 110
currently lose_sum: 0.6675232648849487
time_elpased: 2.038
#iterations: 111
currently lose_sum: 0.6556933522224426
time_elpased: 2.075
#iterations: 112
currently lose_sum: 0.6616819500923157
time_elpased: 2.089
#iterations: 113
currently lose_sum: 0.6780416965484619
time_elpased: 2.11
#iterations: 114
currently lose_sum: 0.6482856273651123
time_elpased: 2.054
#iterations: 115
currently lose_sum: 0.6400294303894043
time_elpased: 2.095
#iterations: 116
currently lose_sum: 0.6808908581733704
time_elpased: 2.03
#iterations: 117
currently lose_sum: 0.6902063488960266
time_elpased: 2.05
#iterations: 118
currently lose_sum: 0.6870245337486267
time_elpased: 2.337
#iterations: 119
currently lose_sum: 0.6689243316650391
time_elpased: 2.128
start validation test
0.5652
0.562456866805
0.642744479495
0.5999263894
0.564067044942
16.897
#iterations: 120
currently lose_sum: 0.686985194683075
time_elpased: 2.111
#iterations: 121
currently lose_sum: 0.710239052772522
time_elpased: 2.043
#iterations: 122
currently lose_sum: 0.6607040166854858
time_elpased: 2.054
#iterations: 123
currently lose_sum: 0.6562241911888123
time_elpased: 2.067
#iterations: 124
currently lose_sum: 0.7108395099639893
time_elpased: 2.042
#iterations: 125
currently lose_sum: 0.6847364902496338
time_elpased: 2.385
#iterations: 126
currently lose_sum: 0.7053767442703247
time_elpased: 2.115
#iterations: 127
currently lose_sum: 0.6642069816589355
time_elpased: 2.028
#iterations: 128
currently lose_sum: 0.6388538479804993
time_elpased: 2.073
#iterations: 129
currently lose_sum: 0.6616159081459045
time_elpased: 2.16
#iterations: 130
currently lose_sum: 0.6685659885406494
time_elpased: 2.054
#iterations: 131
currently lose_sum: 0.6840187311172485
time_elpased: 2.197
#iterations: 132
currently lose_sum: 0.657962441444397
time_elpased: 2.041
#iterations: 133
currently lose_sum: 0.6704583168029785
time_elpased: 2.06
#iterations: 134
currently lose_sum: 0.6718710064888
time_elpased: 2.055
#iterations: 135
currently lose_sum: 0.6904809474945068
time_elpased: 2.099
#iterations: 136
currently lose_sum: 0.6629631519317627
time_elpased: 2.028
#iterations: 137
currently lose_sum: 0.66942298412323
time_elpased: 2.066
#iterations: 138
currently lose_sum: 0.6588478088378906
time_elpased: 2.066
#iterations: 139
currently lose_sum: 0.6413182616233826
time_elpased: 2.111
start validation test
0.5528
0.602179836512
0.34858044164
0.441558441558
0.555783727314
16.958
#iterations: 140
currently lose_sum: 0.6516922116279602
time_elpased: 2.116
#iterations: 141
currently lose_sum: 0.6587371230125427
time_elpased: 2.152
#iterations: 142
currently lose_sum: 0.6804275512695312
time_elpased: 2.207
#iterations: 143
currently lose_sum: 0.63509202003479
time_elpased: 2.151
#iterations: 144
currently lose_sum: 0.6759776473045349
time_elpased: 2.046
#iterations: 145
currently lose_sum: 0.6621626019477844
time_elpased: 2.173
#iterations: 146
currently lose_sum: 0.6706384420394897
time_elpased: 2.129
#iterations: 147
currently lose_sum: 0.7294896841049194
time_elpased: 2.184
#iterations: 148
currently lose_sum: 0.6678521037101746
time_elpased: 2.062
#iterations: 149
currently lose_sum: 0.7114958167076111
time_elpased: 2.37
#iterations: 150
currently lose_sum: 0.6758790612220764
time_elpased: 2.051
#iterations: 151
currently lose_sum: 0.6121073365211487
time_elpased: 2.108
#iterations: 152
currently lose_sum: 0.6316123604774475
time_elpased: 2.056
#iterations: 153
currently lose_sum: 0.6947541832923889
time_elpased: 2.069
#iterations: 154
currently lose_sum: 0.6635599732398987
time_elpased: 2.141
#iterations: 155
currently lose_sum: 0.6900795698165894
time_elpased: 2.229
#iterations: 156
currently lose_sum: 0.6489394307136536
time_elpased: 2.052
#iterations: 157
currently lose_sum: 0.7077556848526001
time_elpased: 2.208
#iterations: 158
currently lose_sum: 0.674835205078125
time_elpased: 2.071
#iterations: 159
currently lose_sum: 0.6926683783531189
time_elpased: 2.367
start validation test
0.5752
0.587436332767
0.545741324921
0.565821749796
0.57563040272
16.804
#iterations: 160
currently lose_sum: 0.7022579908370972
time_elpased: 2.048
#iterations: 161
currently lose_sum: 0.6687614321708679
time_elpased: 2.561
#iterations: 162
currently lose_sum: 0.6678657531738281
time_elpased: 2.177
#iterations: 163
currently lose_sum: 0.6986441612243652
time_elpased: 2.594
#iterations: 164
currently lose_sum: 0.6567440629005432
time_elpased: 2.067
#iterations: 165
currently lose_sum: 0.6459053158760071
time_elpased: 2.048
#iterations: 166
currently lose_sum: 0.6579148769378662
time_elpased: 2.151
#iterations: 167
currently lose_sum: 0.6326752305030823
time_elpased: 2.265
#iterations: 168
currently lose_sum: 0.6557666063308716
time_elpased: 2.102
#iterations: 169
currently lose_sum: 0.6339768767356873
time_elpased: 2.046
#iterations: 170
currently lose_sum: 0.5973535776138306
time_elpased: 2.056
#iterations: 171
currently lose_sum: 0.6865869164466858
time_elpased: 2.108
#iterations: 172
currently lose_sum: 0.6611056327819824
time_elpased: 2.266
#iterations: 173
currently lose_sum: 0.6415228247642517
time_elpased: 2.115
#iterations: 174
currently lose_sum: 0.6716418266296387
time_elpased: 2.019
#iterations: 175
currently lose_sum: 0.6540301442146301
time_elpased: 2.212
#iterations: 176
currently lose_sum: 0.6676188707351685
time_elpased: 2.049
#iterations: 177
currently lose_sum: 0.6650497317314148
time_elpased: 2.07
#iterations: 178
currently lose_sum: 0.6164061427116394
time_elpased: 2.099
#iterations: 179
currently lose_sum: 0.6592634320259094
time_elpased: 2.08
start validation test
0.548
0.545039164491
0.658517350158
0.596428571429
0.546385298455
16.950
#iterations: 180
currently lose_sum: 0.6211494207382202
time_elpased: 2.052
#iterations: 181
currently lose_sum: 0.6315314769744873
time_elpased: 2.045
#iterations: 182
currently lose_sum: 0.7265289425849915
time_elpased: 2.108
#iterations: 183
currently lose_sum: 0.673441469669342
time_elpased: 2.146
#iterations: 184
currently lose_sum: 0.6522010564804077
time_elpased: 2.339
#iterations: 185
currently lose_sum: 0.6738088726997375
time_elpased: 2.154
#iterations: 186
currently lose_sum: 0.6597532033920288
time_elpased: 2.041
#iterations: 187
currently lose_sum: 0.6488670110702515
time_elpased: 2.074
#iterations: 188
currently lose_sum: 0.6785637140274048
time_elpased: 2.414
#iterations: 189
currently lose_sum: 0.6626121401786804
time_elpased: 2.035
#iterations: 190
currently lose_sum: 0.6847181916236877
time_elpased: 2.059
#iterations: 191
currently lose_sum: 0.6550086736679077
time_elpased: 2.297
#iterations: 192
currently lose_sum: 0.646990180015564
time_elpased: 2.077
#iterations: 193
currently lose_sum: 0.6316261291503906
time_elpased: 2.086
#iterations: 194
currently lose_sum: 0.6927391886711121
time_elpased: 2.044
#iterations: 195
currently lose_sum: 0.6945674419403076
time_elpased: 2.085
#iterations: 196
currently lose_sum: 0.628881573677063
time_elpased: 2.069
#iterations: 197
currently lose_sum: 0.6667307019233704
time_elpased: 2.067
#iterations: 198
currently lose_sum: 0.6845986843109131
time_elpased: 2.056
#iterations: 199
currently lose_sum: 0.6698504686355591
time_elpased: 2.096
start validation test
0.5672
0.574044585987
0.568611987382
0.571315372425
0.567179370314
16.814
#iterations: 200
currently lose_sum: 0.6616078019142151
time_elpased: 2.479
#iterations: 201
currently lose_sum: 0.6664696335792542
time_elpased: 2.073
#iterations: 202
currently lose_sum: 0.6175432801246643
time_elpased: 2.049
#iterations: 203
currently lose_sum: 0.6562489867210388
time_elpased: 2.053
#iterations: 204
currently lose_sum: 0.6218541860580444
time_elpased: 2.097
#iterations: 205
currently lose_sum: 0.6722938418388367
time_elpased: 2.031
#iterations: 206
currently lose_sum: 0.664417564868927
time_elpased: 2.04
#iterations: 207
currently lose_sum: 0.6734922528266907
time_elpased: 2.083
#iterations: 208
currently lose_sum: 0.6621637940406799
time_elpased: 2.098
#iterations: 209
currently lose_sum: 0.6541135907173157
time_elpased: 2.054
#iterations: 210
currently lose_sum: 0.6515659093856812
time_elpased: 2.036
#iterations: 211
currently lose_sum: 0.6353994011878967
time_elpased: 2.031
#iterations: 212
currently lose_sum: 0.6610989570617676
time_elpased: 2.064
#iterations: 213
currently lose_sum: 0.6124057173728943
time_elpased: 2.122
#iterations: 214
currently lose_sum: 0.6491668820381165
time_elpased: 2.246
#iterations: 215
currently lose_sum: 0.6685612201690674
time_elpased: 2.317
#iterations: 216
currently lose_sum: 0.6196258664131165
time_elpased: 2.073
#iterations: 217
currently lose_sum: 0.6709856986999512
time_elpased: 2.15
#iterations: 218
currently lose_sum: 0.6068761944770813
time_elpased: 2.085
#iterations: 219
currently lose_sum: 0.6607409119606018
time_elpased: 2.123
start validation test
0.562
0.601884570082
0.402996845426
0.48275862069
0.564323098038
16.960
#iterations: 220
currently lose_sum: 0.6613922119140625
time_elpased: 2.059
#iterations: 221
currently lose_sum: 0.676607608795166
time_elpased: 2.252
#iterations: 222
currently lose_sum: 0.6748022437095642
time_elpased: 2.104
#iterations: 223
currently lose_sum: 0.6515690684318542
time_elpased: 2.116
#iterations: 224
currently lose_sum: 0.6496350169181824
time_elpased: 2.459
#iterations: 225
currently lose_sum: 0.6534289717674255
time_elpased: 2.056
#iterations: 226
currently lose_sum: 0.630342960357666
time_elpased: 2.063
#iterations: 227
currently lose_sum: 0.6605191230773926
time_elpased: 2.147
#iterations: 228
currently lose_sum: 0.66107177734375
time_elpased: 2.039
#iterations: 229
currently lose_sum: 0.6871485710144043
time_elpased: 2.084
#iterations: 230
currently lose_sum: 0.6762357950210571
time_elpased: 2.066
#iterations: 231
currently lose_sum: 0.7007460594177246
time_elpased: 2.068
#iterations: 232
currently lose_sum: 0.6471195220947266
time_elpased: 2.081
#iterations: 233
currently lose_sum: 0.7004846334457397
time_elpased: 2.087
#iterations: 234
currently lose_sum: 0.6361656785011292
time_elpased: 2.101
#iterations: 235
currently lose_sum: 0.6827334761619568
time_elpased: 2.064
#iterations: 236
currently lose_sum: 0.6578741669654846
time_elpased: 2.038
#iterations: 237
currently lose_sum: 0.6297251582145691
time_elpased: 2.052
#iterations: 238
currently lose_sum: 0.6488254070281982
time_elpased: 2.071
#iterations: 239
currently lose_sum: 0.6485070586204529
time_elpased: 2.251
start validation test
0.5596
0.616783216783
0.347791798107
0.444780635401
0.562694600352
16.892
#iterations: 240
currently lose_sum: 0.615614652633667
time_elpased: 2.077
#iterations: 241
currently lose_sum: 0.6776760816574097
time_elpased: 2.043
#iterations: 242
currently lose_sum: 0.6733795404434204
time_elpased: 2.33
#iterations: 243
currently lose_sum: 0.6500961184501648
time_elpased: 2.137
#iterations: 244
currently lose_sum: 0.6503174304962158
time_elpased: 2.047
#iterations: 245
currently lose_sum: 0.640411376953125
time_elpased: 2.044
#iterations: 246
currently lose_sum: 0.641560971736908
time_elpased: 2.115
#iterations: 247
currently lose_sum: 0.6686707139015198
time_elpased: 2.223
#iterations: 248
currently lose_sum: 0.6519851088523865
time_elpased: 2.362
#iterations: 249
currently lose_sum: 0.6409909129142761
time_elpased: 2.104
#iterations: 250
currently lose_sum: 0.6156424283981323
time_elpased: 2.202
#iterations: 251
currently lose_sum: 0.6698155403137207
time_elpased: 2.066
#iterations: 252
currently lose_sum: 0.6489734053611755
time_elpased: 2.054
#iterations: 253
currently lose_sum: 0.703883945941925
time_elpased: 2.357
#iterations: 254
currently lose_sum: 0.6645515561103821
time_elpased: 2.309
#iterations: 255
currently lose_sum: 0.6465132236480713
time_elpased: 2.391
#iterations: 256
currently lose_sum: 0.6800588965415955
time_elpased: 2.041
#iterations: 257
currently lose_sum: 0.6533292531967163
time_elpased: 2.063
#iterations: 258
currently lose_sum: 0.6324103474617004
time_elpased: 2.076
#iterations: 259
currently lose_sum: 0.6481841206550598
time_elpased: 2.03
start validation test
0.562
0.621318373072
0.349369085174
0.44724886421
0.565106620509
16.937
#iterations: 260
currently lose_sum: 0.6359257698059082
time_elpased: 2.089
#iterations: 261
currently lose_sum: 0.640181303024292
time_elpased: 2.096
#iterations: 262
currently lose_sum: 0.6493949890136719
time_elpased: 2.602
#iterations: 263
currently lose_sum: 0.6678466796875
time_elpased: 2.093
#iterations: 264
currently lose_sum: 0.6919987201690674
time_elpased: 2.088
#iterations: 265
currently lose_sum: 0.620185375213623
time_elpased: 2.02
#iterations: 266
currently lose_sum: 0.6883760094642639
time_elpased: 2.067
#iterations: 267
currently lose_sum: 0.6385039687156677
time_elpased: 2.044
#iterations: 268
currently lose_sum: 0.6431999206542969
time_elpased: 2.063
#iterations: 269
currently lose_sum: 0.6684805154800415
time_elpased: 2.149
#iterations: 270
currently lose_sum: 0.6017979979515076
time_elpased: 2.129
#iterations: 271
currently lose_sum: 0.6200778484344482
time_elpased: 2.034
#iterations: 272
currently lose_sum: 0.6408509016036987
time_elpased: 2.074
#iterations: 273
currently lose_sum: 0.6449491381645203
time_elpased: 2.048
#iterations: 274
currently lose_sum: 0.7026702761650085
time_elpased: 2.052
#iterations: 275
currently lose_sum: 0.6629356145858765
time_elpased: 2.028
#iterations: 276
currently lose_sum: 0.6455903649330139
time_elpased: 2.06
#iterations: 277
currently lose_sum: 0.6603215932846069
time_elpased: 2.069
#iterations: 278
currently lose_sum: 0.6879693865776062
time_elpased: 2.106
#iterations: 279
currently lose_sum: 0.6416575908660889
time_elpased: 2.044
start validation test
0.5712
0.616666666667
0.408517350158
0.491461100569
0.573576856897
17.091
#iterations: 280
currently lose_sum: 0.6909921169281006
time_elpased: 2.029
#iterations: 281
currently lose_sum: 0.6349475979804993
time_elpased: 2.069
#iterations: 282
currently lose_sum: 0.6915072798728943
time_elpased: 2.016
#iterations: 283
currently lose_sum: 0.6557691693305969
time_elpased: 2.1
#iterations: 284
currently lose_sum: 0.6640533208847046
time_elpased: 2.075
#iterations: 285
currently lose_sum: 0.6561821103096008
time_elpased: 2.055
#iterations: 286
currently lose_sum: 0.6457086801528931
time_elpased: 2.173
#iterations: 287
currently lose_sum: 0.6778005957603455
time_elpased: 2.036
#iterations: 288
currently lose_sum: 0.6478652954101562
time_elpased: 2.035
#iterations: 289
currently lose_sum: 0.6756978034973145
time_elpased: 2.259
#iterations: 290
currently lose_sum: 0.656501829624176
time_elpased: 2.206
#iterations: 291
currently lose_sum: 0.6440612077713013
time_elpased: 2.098
#iterations: 292
currently lose_sum: 0.6482303738594055
time_elpased: 2.007
#iterations: 293
currently lose_sum: 0.6527177691459656
time_elpased: 2.044
#iterations: 294
currently lose_sum: 0.6515069603919983
time_elpased: 2.031
#iterations: 295
currently lose_sum: 0.6890068054199219
time_elpased: 2.105
#iterations: 296
currently lose_sum: 0.6745787858963013
time_elpased: 2.31
#iterations: 297
currently lose_sum: 0.6522348523139954
time_elpased: 2.03
#iterations: 298
currently lose_sum: 0.6707921624183655
time_elpased: 2.113
#iterations: 299
currently lose_sum: 0.6112127900123596
time_elpased: 2.08
start validation test
0.5556
0.572217111316
0.490536277603
0.528237791932
0.556550606334
16.709
#iterations: 300
currently lose_sum: 0.6272579431533813
time_elpased: 2.241
#iterations: 301
currently lose_sum: 0.6523644924163818
time_elpased: 2.046
#iterations: 302
currently lose_sum: 0.6642101407051086
time_elpased: 2.053
#iterations: 303
currently lose_sum: 0.6394413113594055
time_elpased: 2.078
#iterations: 304
currently lose_sum: 0.7085206508636475
time_elpased: 2.034
#iterations: 305
currently lose_sum: 0.6884306073188782
time_elpased: 2.186
#iterations: 306
currently lose_sum: 0.6695062518119812
time_elpased: 2.131
#iterations: 307
currently lose_sum: 0.6724022030830383
time_elpased: 2.104
#iterations: 308
currently lose_sum: 0.6739518046379089
time_elpased: 2.085
#iterations: 309
currently lose_sum: 0.6627467274665833
time_elpased: 2.062
#iterations: 310
currently lose_sum: 0.6625019907951355
time_elpased: 2.038
#iterations: 311
currently lose_sum: 0.6229809522628784
time_elpased: 2.294
#iterations: 312
currently lose_sum: 0.6454799175262451
time_elpased: 2.15
#iterations: 313
currently lose_sum: 0.5953351855278015
time_elpased: 2.072
#iterations: 314
currently lose_sum: 0.6291489601135254
time_elpased: 2.116
#iterations: 315
currently lose_sum: 0.6749519109725952
time_elpased: 2.13
#iterations: 316
currently lose_sum: 0.67039954662323
time_elpased: 2.126
#iterations: 317
currently lose_sum: 0.6648281812667847
time_elpased: 2.079
#iterations: 318
currently lose_sum: 0.6458759903907776
time_elpased: 2.012
#iterations: 319
currently lose_sum: 0.6857534646987915
time_elpased: 2.051
start validation test
0.576
0.572625698324
0.646687697161
0.607407407407
0.574967225204
16.857
#iterations: 320
currently lose_sum: 0.6520078182220459
time_elpased: 2.078
#iterations: 321
currently lose_sum: 0.6663306355476379
time_elpased: 2.488
#iterations: 322
currently lose_sum: 0.6376573443412781
time_elpased: 2.027
#iterations: 323
currently lose_sum: 0.6795647144317627
time_elpased: 2.017
#iterations: 324
currently lose_sum: 0.6090705394744873
time_elpased: 2.031
#iterations: 325
currently lose_sum: 0.6815346479415894
time_elpased: 2.272
#iterations: 326
currently lose_sum: 0.6705234050750732
time_elpased: 2.043
#iterations: 327
currently lose_sum: 0.6773138642311096
time_elpased: 2.065
#iterations: 328
currently lose_sum: 0.6616113185882568
time_elpased: 2.273
#iterations: 329
currently lose_sum: 0.6296584606170654
time_elpased: 2.06
#iterations: 330
currently lose_sum: 0.7067604064941406
time_elpased: 2.035
#iterations: 331
currently lose_sum: 0.681425929069519
time_elpased: 2.227
#iterations: 332
currently lose_sum: 0.6626562476158142
time_elpased: 2.257
#iterations: 333
currently lose_sum: 0.6804862022399902
time_elpased: 2.076
#iterations: 334
currently lose_sum: 0.6432735323905945
time_elpased: 2.064
#iterations: 335
currently lose_sum: 0.6796321868896484
time_elpased: 2.156
#iterations: 336
currently lose_sum: 0.6451696753501892
time_elpased: 2.428
#iterations: 337
currently lose_sum: 0.6753720641136169
time_elpased: 2.069
#iterations: 338
currently lose_sum: 0.6194483041763306
time_elpased: 2.036
#iterations: 339
currently lose_sum: 0.6731935739517212
time_elpased: 2.101
start validation test
0.5708
0.583120204604
0.539432176656
0.560426054896
0.57125829612
16.741
#iterations: 340
currently lose_sum: 0.6791942715644836
time_elpased: 2.051
#iterations: 341
currently lose_sum: 0.6206817030906677
time_elpased: 2.277
#iterations: 342
currently lose_sum: 0.6319829821586609
time_elpased: 2.16
#iterations: 343
currently lose_sum: 0.6393675804138184
time_elpased: 2.025
#iterations: 344
currently lose_sum: 0.6713398694992065
time_elpased: 2.165
#iterations: 345
currently lose_sum: 0.7074615955352783
time_elpased: 2.054
#iterations: 346
currently lose_sum: 0.6463432312011719
time_elpased: 2.14
#iterations: 347
currently lose_sum: 0.6254963874816895
time_elpased: 2.605
#iterations: 348
currently lose_sum: 0.6519458889961243
time_elpased: 2.053
#iterations: 349
currently lose_sum: 0.6504625082015991
time_elpased: 2.153
#iterations: 350
currently lose_sum: 0.7009783387184143
time_elpased: 2.029
#iterations: 351
currently lose_sum: 0.6816269159317017
time_elpased: 2.083
#iterations: 352
currently lose_sum: 0.6534979343414307
time_elpased: 2.164
#iterations: 353
currently lose_sum: 0.6642526984214783
time_elpased: 2.064
#iterations: 354
currently lose_sum: 0.7287142276763916
time_elpased: 2.043
#iterations: 355
currently lose_sum: 0.6478121280670166
time_elpased: 2.04
#iterations: 356
currently lose_sum: 0.6316936612129211
time_elpased: 2.08
#iterations: 357
currently lose_sum: 0.7016790509223938
time_elpased: 2.067
#iterations: 358
currently lose_sum: 0.6599940657615662
time_elpased: 2.03
#iterations: 359
currently lose_sum: 0.6521320343017578
time_elpased: 2.049
start validation test
0.57
0.577385725742
0.567823343849
0.572564612326
0.570031801794
16.723
#iterations: 360
currently lose_sum: 0.6375223398208618
time_elpased: 2.064
#iterations: 361
currently lose_sum: 0.6402407884597778
time_elpased: 2.13
#iterations: 362
currently lose_sum: 0.6600066423416138
time_elpased: 2.007
#iterations: 363
currently lose_sum: 0.671089768409729
time_elpased: 2.076
#iterations: 364
currently lose_sum: 0.6567802429199219
time_elpased: 2.062
#iterations: 365
currently lose_sum: 0.7045503854751587
time_elpased: 2.092
#iterations: 366
currently lose_sum: 0.6692907810211182
time_elpased: 2.071
#iterations: 367
currently lose_sum: 0.652998685836792
time_elpased: 2.083
#iterations: 368
currently lose_sum: 0.6444876194000244
time_elpased: 2.024
#iterations: 369
currently lose_sum: 0.6784936785697937
time_elpased: 2.061
#iterations: 370
currently lose_sum: 0.6317597031593323
time_elpased: 2.064
#iterations: 371
currently lose_sum: 0.6525082588195801
time_elpased: 2.054
#iterations: 372
currently lose_sum: 0.6772089600563049
time_elpased: 2.335
#iterations: 373
currently lose_sum: 0.6396218538284302
time_elpased: 2.035
#iterations: 374
currently lose_sum: 0.6319313645362854
time_elpased: 2.205
#iterations: 375
currently lose_sum: 0.6114593744277954
time_elpased: 2.081
#iterations: 376
currently lose_sum: 0.6067065596580505
time_elpased: 2.097
#iterations: 377
currently lose_sum: 0.6235706210136414
time_elpased: 2.064
#iterations: 378
currently lose_sum: 0.6275876760482788
time_elpased: 2.114
#iterations: 379
currently lose_sum: 0.6599154472351074
time_elpased: 2.029
start validation test
0.5688
0.565247252747
0.64905362776
0.604258443465
0.567627463231
16.653
#iterations: 380
currently lose_sum: 0.6286690831184387
time_elpased: 2.046
#iterations: 381
currently lose_sum: 0.6196415424346924
time_elpased: 2.092
#iterations: 382
currently lose_sum: 0.5799753069877625
time_elpased: 2.1
#iterations: 383
currently lose_sum: 0.6357125639915466
time_elpased: 2.134
#iterations: 384
currently lose_sum: 0.6501195430755615
time_elpased: 2.022
#iterations: 385
currently lose_sum: 0.6789903044700623
time_elpased: 2.019
#iterations: 386
currently lose_sum: 0.6790463924407959
time_elpased: 2.044
#iterations: 387
currently lose_sum: 0.6917847990989685
time_elpased: 2.058
#iterations: 388
currently lose_sum: 0.6184397339820862
time_elpased: 2.278
#iterations: 389
currently lose_sum: 0.647835373878479
time_elpased: 2.039
#iterations: 390
currently lose_sum: 0.6748904585838318
time_elpased: 2.162
#iterations: 391
currently lose_sum: 0.7101086378097534
time_elpased: 2.518
#iterations: 392
currently lose_sum: 0.6245733499526978
time_elpased: 2.166
#iterations: 393
currently lose_sum: 0.6378059387207031
time_elpased: 2.088
#iterations: 394
currently lose_sum: 0.6146267056465149
time_elpased: 2.193
#iterations: 395
currently lose_sum: 0.6437138319015503
time_elpased: 2.104
#iterations: 396
currently lose_sum: 0.6432768106460571
time_elpased: 2.05
#iterations: 397
currently lose_sum: 0.6935473680496216
time_elpased: 2.095
#iterations: 398
currently lose_sum: 0.6617739796638489
time_elpased: 2.048
#iterations: 399
currently lose_sum: 0.6240643858909607
time_elpased: 3.354
start validation test
0.5804
0.606413994169
0.492113564669
0.543317370483
0.581689899218
16.700
#iterations: 400
currently lose_sum: 0.6471941471099854
time_elpased: 2.148
#iterations: 401
currently lose_sum: 0.6874302625656128
time_elpased: 2.056
#iterations: 402
currently lose_sum: 0.6332317590713501
time_elpased: 2.248
#iterations: 403
currently lose_sum: 0.6567707657814026
time_elpased: 2.061
#iterations: 404
currently lose_sum: 0.6235127449035645
time_elpased: 2.089
#iterations: 405
currently lose_sum: 0.6004860401153564
time_elpased: 2.17
#iterations: 406
currently lose_sum: 0.5794479250907898
time_elpased: 2.38
#iterations: 407
currently lose_sum: 0.679551362991333
time_elpased: 2.13
#iterations: 408
currently lose_sum: 0.6640156507492065
time_elpased: 2.143
#iterations: 409
currently lose_sum: 0.6247721314430237
time_elpased: 2.014
#iterations: 410
currently lose_sum: 0.6490265727043152
time_elpased: 2.031
#iterations: 411
currently lose_sum: 0.6351228952407837
time_elpased: 2.114
#iterations: 412
currently lose_sum: 0.6747553944587708
time_elpased: 2.163
#iterations: 413
currently lose_sum: 0.6749090552330017
time_elpased: 2.043
#iterations: 414
currently lose_sum: 0.6574819684028625
time_elpased: 2.302
#iterations: 415
currently lose_sum: 0.6412626504898071
time_elpased: 2.026
#iterations: 416
currently lose_sum: 0.6198321580886841
time_elpased: 2.281
#iterations: 417
currently lose_sum: 0.697550356388092
time_elpased: 2.098
#iterations: 418
currently lose_sum: 0.6764474511146545
time_elpased: 2.032
#iterations: 419
currently lose_sum: 0.6275244355201721
time_elpased: 2.038
start validation test
0.5832
0.615778688525
0.473974763407
0.535650623886
0.584795823262
16.723
#iterations: 420
currently lose_sum: 0.66689133644104
time_elpased: 2.075
#iterations: 421
currently lose_sum: 0.6176224946975708
time_elpased: 2.035
#iterations: 422
currently lose_sum: 0.6224970817565918
time_elpased: 2.024
#iterations: 423
currently lose_sum: 0.638206958770752
time_elpased: 2.029
#iterations: 424
currently lose_sum: 0.6048786640167236
time_elpased: 2.008
#iterations: 425
currently lose_sum: 0.6403773427009583
time_elpased: 2.207
#iterations: 426
currently lose_sum: 0.629172682762146
time_elpased: 2.028
#iterations: 427
currently lose_sum: 0.6471271514892578
time_elpased: 2.072
#iterations: 428
currently lose_sum: 0.668514609336853
time_elpased: 2.066
#iterations: 429
currently lose_sum: 0.6725804209709167
time_elpased: 2.034
#iterations: 430
currently lose_sum: 0.6758790016174316
time_elpased: 2.047
#iterations: 431
currently lose_sum: 0.6180918216705322
time_elpased: 2.12
#iterations: 432
currently lose_sum: 0.6360828876495361
time_elpased: 2.024
#iterations: 433
currently lose_sum: 0.6630852222442627
time_elpased: 2.049
#iterations: 434
currently lose_sum: 0.6148960590362549
time_elpased: 2.214
#iterations: 435
currently lose_sum: 0.6506963968276978
time_elpased: 2.234
#iterations: 436
currently lose_sum: 0.5922641158103943
time_elpased: 2.041
#iterations: 437
currently lose_sum: 0.6366944313049316
time_elpased: 2.059
#iterations: 438
currently lose_sum: 0.6584945917129517
time_elpased: 2.245
#iterations: 439
currently lose_sum: 0.7058542370796204
time_elpased: 2.053
start validation test
0.5704
0.595472440945
0.477129337539
0.529772329247
0.571762720718
16.780
#iterations: 440
currently lose_sum: 0.6570440530776978
time_elpased: 2.135
#iterations: 441
currently lose_sum: 0.6281964182853699
time_elpased: 2.098
#iterations: 442
currently lose_sum: 0.6339107751846313
time_elpased: 2.171
#iterations: 443
currently lose_sum: 0.6852160692214966
time_elpased: 2.127
#iterations: 444
currently lose_sum: 0.6066798567771912
time_elpased: 2.06
#iterations: 445
currently lose_sum: 0.68865966796875
time_elpased: 2.025
#iterations: 446
currently lose_sum: 0.6708908081054688
time_elpased: 2.053
#iterations: 447
currently lose_sum: 0.662644624710083
time_elpased: 2.073
#iterations: 448
currently lose_sum: 0.6437074542045593
time_elpased: 2.062
#iterations: 449
currently lose_sum: 0.6283227801322937
time_elpased: 2.162
#iterations: 450
currently lose_sum: 0.623076856136322
time_elpased: 2.05
#iterations: 451
currently lose_sum: 0.6888079643249512
time_elpased: 2.093
#iterations: 452
currently lose_sum: 0.6700352430343628
time_elpased: 2.054
#iterations: 453
currently lose_sum: 0.6586789488792419
time_elpased: 2.239
#iterations: 454
currently lose_sum: 0.6055248379707336
time_elpased: 2.02
#iterations: 455
currently lose_sum: 0.7162168622016907
time_elpased: 2.053
#iterations: 456
currently lose_sum: 0.6407298445701599
time_elpased: 2.058
#iterations: 457
currently lose_sum: 0.657772958278656
time_elpased: 2.227
#iterations: 458
currently lose_sum: 0.6709422469139099
time_elpased: 2.09
#iterations: 459
currently lose_sum: 0.6496301889419556
time_elpased: 2.031
start validation test
0.5632
0.579136690647
0.507886435331
0.541176470588
0.564008152731
16.735
#iterations: 460
currently lose_sum: 0.6331769227981567
time_elpased: 2.036
#iterations: 461
currently lose_sum: 0.6637364029884338
time_elpased: 2.079
#iterations: 462
currently lose_sum: 0.622435986995697
time_elpased: 2.044
#iterations: 463
currently lose_sum: 0.6261829137802124
time_elpased: 2.063
#iterations: 464
currently lose_sum: 0.6427555680274963
time_elpased: 2.058
#iterations: 465
currently lose_sum: 0.6352927684783936
time_elpased: 2.049
#iterations: 466
currently lose_sum: 0.6011546850204468
time_elpased: 2.331
#iterations: 467
currently lose_sum: 0.6342285871505737
time_elpased: 2.135
#iterations: 468
currently lose_sum: 0.665865421295166
time_elpased: 2.056
#iterations: 469
currently lose_sum: 0.6348133683204651
time_elpased: 2.13
#iterations: 470
currently lose_sum: 0.6709190607070923
time_elpased: 2.042
#iterations: 471
currently lose_sum: 0.6665009260177612
time_elpased: 2.079
#iterations: 472
currently lose_sum: 0.643455445766449
time_elpased: 2.117
#iterations: 473
currently lose_sum: 0.6300286650657654
time_elpased: 2.018
#iterations: 474
currently lose_sum: 0.691307783126831
time_elpased: 2.038
#iterations: 475
currently lose_sum: 0.6658096313476562
time_elpased: 2.095
#iterations: 476
currently lose_sum: 0.6955322027206421
time_elpased: 2.029
#iterations: 477
currently lose_sum: 0.6347400546073914
time_elpased: 2.144
#iterations: 478
currently lose_sum: 0.6507903933525085
time_elpased: 2.06
#iterations: 479
currently lose_sum: 0.6245710849761963
time_elpased: 2.091
start validation test
0.5652
0.61499364676
0.381703470032
0.47104622871
0.567880955795
17.316
#iterations: 480
currently lose_sum: 0.5971447825431824
time_elpased: 2.341
#iterations: 481
currently lose_sum: 0.6683880686759949
time_elpased: 2.133
#iterations: 482
currently lose_sum: 0.678968071937561
time_elpased: 2.03
#iterations: 483
currently lose_sum: 0.6448356509208679
time_elpased: 2.093
#iterations: 484
currently lose_sum: 0.6534906029701233
time_elpased: 2.028
#iterations: 485
currently lose_sum: 0.6730049252510071
time_elpased: 2.018
#iterations: 486
currently lose_sum: 0.6424770355224609
time_elpased: 2.125
#iterations: 487
currently lose_sum: 0.636970579624176
time_elpased: 2.032
#iterations: 488
currently lose_sum: 0.6055397987365723
time_elpased: 2.029
#iterations: 489
currently lose_sum: 0.6432926654815674
time_elpased: 2.07
#iterations: 490
currently lose_sum: 0.6387592554092407
time_elpased: 2.055
#iterations: 491
currently lose_sum: 0.639254629611969
time_elpased: 2.025
#iterations: 492
currently lose_sum: 0.6983016729354858
time_elpased: 2.014
#iterations: 493
currently lose_sum: 0.5987511277198792
time_elpased: 2.062
#iterations: 494
currently lose_sum: 0.6714717745780945
time_elpased: 2.144
#iterations: 495
currently lose_sum: 0.6375887989997864
time_elpased: 2.08
#iterations: 496
currently lose_sum: 0.624423086643219
time_elpased: 2.038
#iterations: 497
currently lose_sum: 0.6252325177192688
time_elpased: 2.224
#iterations: 498
currently lose_sum: 0.6298563480377197
time_elpased: 2.015
#iterations: 499
currently lose_sum: 0.6478552222251892
time_elpased: 2.02
start validation test
0.5684
0.576891781937
0.559148264984
0.567881457749
0.568535171453
16.792
#iterations: 500
currently lose_sum: 0.6811574697494507
time_elpased: 2.01
#iterations: 501
currently lose_sum: 0.646773099899292
time_elpased: 2.004
#iterations: 502
currently lose_sum: 0.6586426496505737
time_elpased: 2.007
#iterations: 503
currently lose_sum: 0.6753957867622375
time_elpased: 2.259
#iterations: 504
currently lose_sum: 0.6608113050460815
time_elpased: 2.097
#iterations: 505
currently lose_sum: 0.6302716135978699
time_elpased: 2.052
#iterations: 506
currently lose_sum: 0.668283998966217
time_elpased: 2.057
#iterations: 507
currently lose_sum: 0.6738958954811096
time_elpased: 2.038
#iterations: 508
currently lose_sum: 0.6188130378723145
time_elpased: 2.171
#iterations: 509
currently lose_sum: 0.6897180080413818
time_elpased: 2.059
#iterations: 510
currently lose_sum: 0.6729617118835449
time_elpased: 2.078
#iterations: 511
currently lose_sum: 0.6165409684181213
time_elpased: 2.19
#iterations: 512
currently lose_sum: 0.623157262802124
time_elpased: 2.034
#iterations: 513
currently lose_sum: 0.597226083278656
time_elpased: 2.063
#iterations: 514
currently lose_sum: 0.6480218768119812
time_elpased: 2.151
#iterations: 515
currently lose_sum: 0.6239734888076782
time_elpased: 2.049
#iterations: 516
currently lose_sum: 0.6527895927429199
time_elpased: 2.059
#iterations: 517
currently lose_sum: 0.6495857238769531
time_elpased: 2.022
#iterations: 518
currently lose_sum: 0.6670541167259216
time_elpased: 2.062
#iterations: 519
currently lose_sum: 0.6463836431503296
time_elpased: 2.011
start validation test
0.584
0.604204753199
0.521293375394
0.559695173582
0.584916168217
16.765
#iterations: 520
currently lose_sum: 0.642111599445343
time_elpased: 2.036
#iterations: 521
currently lose_sum: 0.668618381023407
time_elpased: 2.038
#iterations: 522
currently lose_sum: 0.6256482601165771
time_elpased: 2.052
#iterations: 523
currently lose_sum: 0.714530348777771
time_elpased: 2.021
#iterations: 524
currently lose_sum: 0.7075749039649963
time_elpased: 2.033
#iterations: 525
currently lose_sum: 0.6543077826499939
time_elpased: 2.112
#iterations: 526
currently lose_sum: 0.6749172806739807
time_elpased: 2.037
#iterations: 527
currently lose_sum: 0.697085976600647
time_elpased: 2.142
#iterations: 528
currently lose_sum: 0.6442785859107971
time_elpased: 2.04
#iterations: 529
currently lose_sum: 0.6146894693374634
time_elpased: 2.466
#iterations: 530
currently lose_sum: 0.6483099460601807
time_elpased: 2.459
#iterations: 531
currently lose_sum: 0.6589358448982239
time_elpased: 2.275
#iterations: 532
currently lose_sum: 0.6415354013442993
time_elpased: 2.179
#iterations: 533
currently lose_sum: 0.6687420606613159
time_elpased: 2.033
#iterations: 534
currently lose_sum: 0.6397430300712585
time_elpased: 2.025
#iterations: 535
currently lose_sum: 0.6830171346664429
time_elpased: 2.058
#iterations: 536
currently lose_sum: 0.606152355670929
time_elpased: 2.079
#iterations: 537
currently lose_sum: 0.587973952293396
time_elpased: 2.114
#iterations: 538
currently lose_sum: 0.6180500984191895
time_elpased: 3.061
#iterations: 539
currently lose_sum: 0.63606858253479
time_elpased: 2.124
start validation test
0.5716
0.645066273932
0.345425867508
0.449922958398
0.574904492196
16.937
#iterations: 540
currently lose_sum: 0.5786886215209961
time_elpased: 2.066
#iterations: 541
currently lose_sum: 0.6505123376846313
time_elpased: 2.352
#iterations: 542
currently lose_sum: 0.6321797966957092
time_elpased: 2.105
#iterations: 543
currently lose_sum: 0.641744077205658
time_elpased: 2.138
#iterations: 544
currently lose_sum: 0.6356931328773499
time_elpased: 2.051
#iterations: 545
currently lose_sum: 0.6399707198143005
time_elpased: 2.079
#iterations: 546
currently lose_sum: 0.6584630012512207
time_elpased: 2.241
#iterations: 547
currently lose_sum: 0.6227835416793823
time_elpased: 2.182
#iterations: 548
currently lose_sum: 0.6364098191261292
time_elpased: 2.045
#iterations: 549
currently lose_sum: 0.5839393734931946
time_elpased: 2.032
#iterations: 550
currently lose_sum: 0.6277173161506653
time_elpased: 2.267
#iterations: 551
currently lose_sum: 0.639482319355011
time_elpased: 2.016
#iterations: 552
currently lose_sum: 0.637773334980011
time_elpased: 2.085
#iterations: 553
currently lose_sum: 0.6044001579284668
time_elpased: 2.125
#iterations: 554
currently lose_sum: 0.6645812392234802
time_elpased: 2.078
#iterations: 555
currently lose_sum: 0.6257781386375427
time_elpased: 2.072
#iterations: 556
currently lose_sum: 0.6649709343910217
time_elpased: 2.375
#iterations: 557
currently lose_sum: 0.636721670627594
time_elpased: 2.189
#iterations: 558
currently lose_sum: 0.6825740933418274
time_elpased: 2.089
#iterations: 559
currently lose_sum: 0.6340526342391968
time_elpased: 2.022
start validation test
0.5788
0.588331963846
0.564668769716
0.576257545272
0.57900646278
16.681
#iterations: 560
currently lose_sum: 0.672920823097229
time_elpased: 2.074
#iterations: 561
currently lose_sum: 0.6407223343849182
time_elpased: 2.112
#iterations: 562
currently lose_sum: 0.6090037822723389
time_elpased: 2.054
#iterations: 563
currently lose_sum: 0.6094587445259094
time_elpased: 2.045
#iterations: 564
currently lose_sum: 0.7114903926849365
time_elpased: 2.332
#iterations: 565
currently lose_sum: 0.6361942887306213
time_elpased: 2.053
#iterations: 566
currently lose_sum: 0.6137799620628357
time_elpased: 2.044
#iterations: 567
currently lose_sum: 0.6194310188293457
time_elpased: 2.053
#iterations: 568
currently lose_sum: 0.6563999652862549
time_elpased: 2.016
#iterations: 569
currently lose_sum: 0.6781082153320312
time_elpased: 2.046
#iterations: 570
currently lose_sum: 0.6351768374443054
time_elpased: 2.039
#iterations: 571
currently lose_sum: 0.6572161912918091
time_elpased: 2.045
#iterations: 572
currently lose_sum: 0.678417980670929
time_elpased: 2.086
#iterations: 573
currently lose_sum: 0.6383522748947144
time_elpased: 2.035
#iterations: 574
currently lose_sum: 0.6605996489524841
time_elpased: 2.163
#iterations: 575
currently lose_sum: 0.6860381364822388
time_elpased: 2.041
#iterations: 576
currently lose_sum: 0.6378076076507568
time_elpased: 2.102
#iterations: 577
currently lose_sum: 0.6911026835441589
time_elpased: 2.092
#iterations: 578
currently lose_sum: 0.5922372937202454
time_elpased: 2.071
#iterations: 579
currently lose_sum: 0.681908130645752
time_elpased: 2.549
start validation test
0.5732
0.572668112798
0.624605678233
0.597510373444
0.572448943013
16.712
#iterations: 580
currently lose_sum: 0.6109320521354675
time_elpased: 2.026
#iterations: 581
currently lose_sum: 0.638141393661499
time_elpased: 2.038
#iterations: 582
currently lose_sum: 0.6229825019836426
time_elpased: 2.324
#iterations: 583
currently lose_sum: 0.6772035956382751
time_elpased: 2.057
#iterations: 584
currently lose_sum: 0.653066873550415
time_elpased: 2.424
#iterations: 585
currently lose_sum: 0.6118736267089844
time_elpased: 2.342
#iterations: 586
currently lose_sum: 0.6594610810279846
time_elpased: 2.029
#iterations: 587
currently lose_sum: 0.6493988037109375
time_elpased: 2.049
#iterations: 588
currently lose_sum: 0.6208977103233337
time_elpased: 2.124
#iterations: 589
currently lose_sum: 0.627626895904541
time_elpased: 2.069
#iterations: 590
currently lose_sum: 0.6273645162582397
time_elpased: 2.191
#iterations: 591
currently lose_sum: 0.640516996383667
time_elpased: 2.05
#iterations: 592
currently lose_sum: 0.6256263852119446
time_elpased: 2.028
#iterations: 593
currently lose_sum: 0.684876561164856
time_elpased: 2.037
#iterations: 594
currently lose_sum: 0.6093207597732544
time_elpased: 2.036
#iterations: 595
currently lose_sum: 0.6337231397628784
time_elpased: 2.084
#iterations: 596
currently lose_sum: 0.6680925488471985
time_elpased: 2.034
#iterations: 597
currently lose_sum: 0.6199251413345337
time_elpased: 2.029
#iterations: 598
currently lose_sum: 0.6210724115371704
time_elpased: 2.143
#iterations: 599
currently lose_sum: 0.6492620706558228
time_elpased: 2.304
start validation test
0.576
0.565162907268
0.711356466877
0.629888268156
0.574022389283
16.766
acc: 0.560
pre: 0.561
rec: 0.606
F1: 0.583
auc: 0.559
