start to construct computing graph
graph construct over
3802
epochs start
#iterations: 0
currently lose_sum: 0.6952693462371826
time_elpased: 5.701
#iterations: 1
currently lose_sum: 0.6919443607330322
time_elpased: 5.768
#iterations: 2
currently lose_sum: 0.6962885856628418
time_elpased: 5.638
#iterations: 3
currently lose_sum: 0.7068002820014954
time_elpased: 5.711
#iterations: 4
currently lose_sum: 0.7026140689849854
time_elpased: 5.96
#iterations: 5
currently lose_sum: 0.6986210346221924
time_elpased: 5.552
#iterations: 6
currently lose_sum: 0.6918626427650452
time_elpased: 5.571
#iterations: 7
currently lose_sum: 0.6903581023216248
time_elpased: 5.619
#iterations: 8
currently lose_sum: 0.6896573901176453
time_elpased: 5.575
#iterations: 9
currently lose_sum: 0.6907294988632202
time_elpased: 5.557
#iterations: 10
currently lose_sum: 0.6911746263504028
time_elpased: 5.598
#iterations: 11
currently lose_sum: 0.6928225159645081
time_elpased: 5.733
#iterations: 12
currently lose_sum: 0.6895996928215027
time_elpased: 5.59
#iterations: 13
currently lose_sum: 0.6945353746414185
time_elpased: 5.542
#iterations: 14
currently lose_sum: 0.6852405071258545
time_elpased: 5.752
#iterations: 15
currently lose_sum: 0.7018855214118958
time_elpased: 5.534
#iterations: 16
currently lose_sum: 0.6909776329994202
time_elpased: 5.558
#iterations: 17
currently lose_sum: 0.6913092136383057
time_elpased: 5.71
#iterations: 18
currently lose_sum: 0.6923739910125732
time_elpased: 5.619
#iterations: 19
currently lose_sum: 0.6954749822616577
time_elpased: 5.583
start validation test
0.5168
0.522421524664
0.551261829653
0.536454336147
0.516296499242
17.263
#iterations: 20
currently lose_sum: 0.6866452693939209
time_elpased: 4.792
#iterations: 21
currently lose_sum: 0.6765697598457336
time_elpased: 4.949
#iterations: 22
currently lose_sum: 0.6946176290512085
time_elpased: 5.117
#iterations: 23
currently lose_sum: 0.7044192552566528
time_elpased: 4.905
#iterations: 24
currently lose_sum: 0.6841056942939758
time_elpased: 4.895
#iterations: 25
currently lose_sum: 0.6652485728263855
time_elpased: 4.823
#iterations: 26
currently lose_sum: 0.6886855363845825
time_elpased: 4.824
#iterations: 27
currently lose_sum: 0.6693850755691528
time_elpased: 5.026
#iterations: 28
currently lose_sum: 0.6748849749565125
time_elpased: 4.826
#iterations: 29
currently lose_sum: 0.6776574850082397
time_elpased: 4.922
#iterations: 30
currently lose_sum: 0.6891970634460449
time_elpased: 4.927
#iterations: 31
currently lose_sum: 0.7019214630126953
time_elpased: 4.876
#iterations: 32
currently lose_sum: 0.6855387687683105
time_elpased: 4.945
#iterations: 33
currently lose_sum: 0.6910619139671326
time_elpased: 4.816
#iterations: 34
currently lose_sum: 0.6726664900779724
time_elpased: 4.863
#iterations: 35
currently lose_sum: 0.6827517747879028
time_elpased: 4.995
#iterations: 36
currently lose_sum: 0.6928659081459045
time_elpased: 4.857
#iterations: 37
currently lose_sum: 0.6838011741638184
time_elpased: 4.913
#iterations: 38
currently lose_sum: 0.6586361527442932
time_elpased: 4.855
#iterations: 39
currently lose_sum: 0.6895517110824585
time_elpased: 4.888
start validation test
0.5112
0.580985915493
0.130126182965
0.212628865979
0.516767636937
17.329
#iterations: 40
currently lose_sum: 0.6767894625663757
time_elpased: 4.853
#iterations: 41
currently lose_sum: 0.669844388961792
time_elpased: 4.864
#iterations: 42
currently lose_sum: 0.6789653301239014
time_elpased: 5.295
#iterations: 43
currently lose_sum: 0.6824324131011963
time_elpased: 4.9
#iterations: 44
currently lose_sum: 0.6859727501869202
time_elpased: 4.892
#iterations: 45
currently lose_sum: 0.6808714270591736
time_elpased: 4.777
#iterations: 46
currently lose_sum: 0.6969743967056274
time_elpased: 4.854
#iterations: 47
currently lose_sum: 0.6959918141365051
time_elpased: 4.96
#iterations: 48
currently lose_sum: 0.6854496002197266
time_elpased: 4.898
#iterations: 49
currently lose_sum: 0.6987849473953247
time_elpased: 4.909
#iterations: 50
currently lose_sum: 0.6878625750541687
time_elpased: 4.872
#iterations: 51
currently lose_sum: 0.6803420782089233
time_elpased: 4.792
#iterations: 52
currently lose_sum: 0.6897109746932983
time_elpased: 5.127
#iterations: 53
currently lose_sum: 0.6905947327613831
time_elpased: 4.966
#iterations: 54
currently lose_sum: 0.72786545753479
time_elpased: 4.874
#iterations: 55
currently lose_sum: 0.690818190574646
time_elpased: 4.883
#iterations: 56
currently lose_sum: 0.6922311186790466
time_elpased: 4.884
#iterations: 57
currently lose_sum: 0.6951086521148682
time_elpased: 4.942
#iterations: 58
currently lose_sum: 0.6820727586746216
time_elpased: 5.143
#iterations: 59
currently lose_sum: 0.6966514587402344
time_elpased: 4.92
start validation test
0.542
0.539499036609
0.662460567823
0.594690265487
0.540240024171
17.175
#iterations: 60
currently lose_sum: 0.6907341480255127
time_elpased: 4.808
#iterations: 61
currently lose_sum: 0.6863071322441101
time_elpased: 4.819
#iterations: 62
currently lose_sum: 0.6900801062583923
time_elpased: 4.851
#iterations: 63
currently lose_sum: 0.6929722428321838
time_elpased: 4.865
#iterations: 64
currently lose_sum: 0.6692237854003906
time_elpased: 5.131
#iterations: 65
currently lose_sum: 0.6525156497955322
time_elpased: 5.042
#iterations: 66
currently lose_sum: 0.6804215908050537
time_elpased: 4.825
#iterations: 67
currently lose_sum: 0.6982051134109497
time_elpased: 4.969
#iterations: 68
currently lose_sum: 0.6815549731254578
time_elpased: 4.849
#iterations: 69
currently lose_sum: 0.6584237813949585
time_elpased: 4.843
#iterations: 70
currently lose_sum: 0.7272181510925293
time_elpased: 5.02
#iterations: 71
currently lose_sum: 0.7020413875579834
time_elpased: 5.061
#iterations: 72
currently lose_sum: 0.6950051784515381
time_elpased: 4.92
#iterations: 73
currently lose_sum: 0.6690844893455505
time_elpased: 4.868
#iterations: 74
currently lose_sum: 0.6898292303085327
time_elpased: 5.36
#iterations: 75
currently lose_sum: 0.6688905358314514
time_elpased: 5.025
#iterations: 76
currently lose_sum: 0.663928210735321
time_elpased: 4.931
#iterations: 77
currently lose_sum: 0.6751676797866821
time_elpased: 4.819
#iterations: 78
currently lose_sum: 0.6633757948875427
time_elpased: 4.849
#iterations: 79
currently lose_sum: 0.6764318346977234
time_elpased: 4.945
start validation test
0.5492
0.607963246554
0.31309148265
0.413326392504
0.552649637429
17.164
#iterations: 80
currently lose_sum: 0.7074340581893921
time_elpased: 4.919
#iterations: 81
currently lose_sum: 0.6563887596130371
time_elpased: 4.83
#iterations: 82
currently lose_sum: 0.6833899021148682
time_elpased: 4.871
#iterations: 83
currently lose_sum: 0.6673913598060608
time_elpased: 4.803
#iterations: 84
currently lose_sum: 0.6882322430610657
time_elpased: 4.849
#iterations: 85
currently lose_sum: 0.676921010017395
time_elpased: 4.852
#iterations: 86
currently lose_sum: 0.7011192440986633
time_elpased: 4.864
#iterations: 87
currently lose_sum: 0.6934024691581726
time_elpased: 4.832
#iterations: 88
currently lose_sum: 0.6873475909233093
time_elpased: 4.948
#iterations: 89
currently lose_sum: 0.6734954714775085
time_elpased: 5.127
#iterations: 90
currently lose_sum: 0.6889933943748474
time_elpased: 5.054
#iterations: 91
currently lose_sum: 0.6976408362388611
time_elpased: 4.99
#iterations: 92
currently lose_sum: 0.6537038683891296
time_elpased: 4.97
#iterations: 93
currently lose_sum: 0.689302384853363
time_elpased: 4.997
#iterations: 94
currently lose_sum: 0.6797192096710205
time_elpased: 4.865
#iterations: 95
currently lose_sum: 0.6796543598175049
time_elpased: 4.937
#iterations: 96
currently lose_sum: 0.6749853491783142
time_elpased: 4.829
#iterations: 97
currently lose_sum: 0.6591559052467346
time_elpased: 4.812
#iterations: 98
currently lose_sum: 0.6859120726585388
time_elpased: 4.912
#iterations: 99
currently lose_sum: 0.6282293200492859
time_elpased: 4.957
start validation test
0.562
0.596218020022
0.422712933754
0.494693124135
0.564035038306
17.148
#iterations: 100
currently lose_sum: 0.6879782676696777
time_elpased: 4.879
#iterations: 101
currently lose_sum: 0.6645431518554688
time_elpased: 4.84
#iterations: 102
currently lose_sum: 0.6429746747016907
time_elpased: 4.971
#iterations: 103
currently lose_sum: 0.6609923839569092
time_elpased: 4.875
#iterations: 104
currently lose_sum: 0.669924795627594
time_elpased: 4.93
#iterations: 105
currently lose_sum: 0.669607400894165
time_elpased: 4.971
#iterations: 106
currently lose_sum: 0.6879661083221436
time_elpased: 4.994
#iterations: 107
currently lose_sum: 0.6859371662139893
time_elpased: 4.906
#iterations: 108
currently lose_sum: 0.6963350772857666
time_elpased: 4.911
#iterations: 109
currently lose_sum: 0.6997353434562683
time_elpased: 5.156
#iterations: 110
currently lose_sum: 0.7008030414581299
time_elpased: 5.072
#iterations: 111
currently lose_sum: 0.6921362280845642
time_elpased: 4.857
#iterations: 112
currently lose_sum: 0.685207188129425
time_elpased: 4.882
#iterations: 113
currently lose_sum: 0.7113184928894043
time_elpased: 4.918
#iterations: 114
currently lose_sum: 0.6677848696708679
time_elpased: 5.026
#iterations: 115
currently lose_sum: 0.662568211555481
time_elpased: 4.836
#iterations: 116
currently lose_sum: 0.6272904872894287
time_elpased: 4.93
#iterations: 117
currently lose_sum: 0.676819384098053
time_elpased: 5.049
#iterations: 118
currently lose_sum: 0.6641284227371216
time_elpased: 4.872
#iterations: 119
currently lose_sum: 0.679087221622467
time_elpased: 4.927
start validation test
0.546
0.537088678193
0.759463722397
0.629206141784
0.542881211848
17.124
#iterations: 120
currently lose_sum: 0.6774033904075623
time_elpased: 4.829
#iterations: 121
currently lose_sum: 0.681251049041748
time_elpased: 4.909
#iterations: 122
currently lose_sum: 0.669208824634552
time_elpased: 4.908
#iterations: 123
currently lose_sum: 0.6801792979240417
time_elpased: 4.844
#iterations: 124
currently lose_sum: 0.6352817416191101
time_elpased: 5.049
#iterations: 125
currently lose_sum: 0.6886364817619324
time_elpased: 4.908
#iterations: 126
currently lose_sum: 0.6701475381851196
time_elpased: 4.879
#iterations: 127
currently lose_sum: 0.6874010562896729
time_elpased: 4.882
#iterations: 128
currently lose_sum: 0.6747520565986633
time_elpased: 4.884
#iterations: 129
currently lose_sum: 0.6741664409637451
time_elpased: 4.864
#iterations: 130
currently lose_sum: 0.655917227268219
time_elpased: 4.849
#iterations: 131
currently lose_sum: 0.6884466409683228
time_elpased: 4.811
#iterations: 132
currently lose_sum: 0.6798536777496338
time_elpased: 5.013
#iterations: 133
currently lose_sum: 0.6968241333961487
time_elpased: 4.989
#iterations: 134
currently lose_sum: 0.6931571960449219
time_elpased: 4.91
#iterations: 135
currently lose_sum: 0.6750341653823853
time_elpased: 4.953
#iterations: 136
currently lose_sum: 0.6450464129447937
time_elpased: 4.903
#iterations: 137
currently lose_sum: 0.6945844888687134
time_elpased: 4.844
#iterations: 138
currently lose_sum: 0.6802501678466797
time_elpased: 4.922
#iterations: 139
currently lose_sum: 0.6897742748260498
time_elpased: 4.911
start validation test
0.5588
0.61316872428
0.352523659306
0.447671507261
0.561813777705
16.951
#iterations: 140
currently lose_sum: 0.6962364912033081
time_elpased: 4.848
#iterations: 141
currently lose_sum: 0.6778709292411804
time_elpased: 4.862
#iterations: 142
currently lose_sum: 0.6785041093826294
time_elpased: 4.867
#iterations: 143
currently lose_sum: 0.7099522352218628
time_elpased: 4.998
#iterations: 144
currently lose_sum: 0.6542086005210876
time_elpased: 4.929
#iterations: 145
currently lose_sum: 0.6724853515625
time_elpased: 4.839
#iterations: 146
currently lose_sum: 0.7032953500747681
time_elpased: 5.033
#iterations: 147
currently lose_sum: 0.681064784526825
time_elpased: 4.953
#iterations: 148
currently lose_sum: 0.6766290068626404
time_elpased: 4.836
#iterations: 149
currently lose_sum: 0.6553003787994385
time_elpased: 4.904
#iterations: 150
currently lose_sum: 0.6585033535957336
time_elpased: 4.816
#iterations: 151
currently lose_sum: 0.6444313526153564
time_elpased: 4.838
#iterations: 152
currently lose_sum: 0.6681047081947327
time_elpased: 4.841
#iterations: 153
currently lose_sum: 0.6116288304328918
time_elpased: 4.917
#iterations: 154
currently lose_sum: 0.6683674454689026
time_elpased: 4.81
#iterations: 155
currently lose_sum: 0.6712183952331543
time_elpased: 4.902
#iterations: 156
currently lose_sum: 0.6335006356239319
time_elpased: 4.851
#iterations: 157
currently lose_sum: 0.6841906905174255
time_elpased: 4.801
#iterations: 158
currently lose_sum: 0.6755995750427246
time_elpased: 4.925
#iterations: 159
currently lose_sum: 0.6852021217346191
time_elpased: 4.997
start validation test
0.5572
0.625194401244
0.317034700315
0.420722135008
0.560708908599
17.069
#iterations: 160
currently lose_sum: 0.6967651844024658
time_elpased: 4.858
#iterations: 161
currently lose_sum: 0.623655378818512
time_elpased: 4.997
#iterations: 162
currently lose_sum: 0.6733279228210449
time_elpased: 4.824
#iterations: 163
currently lose_sum: 0.6741893887519836
time_elpased: 4.859
#iterations: 164
currently lose_sum: 0.6318348050117493
time_elpased: 4.836
#iterations: 165
currently lose_sum: 0.6611447334289551
time_elpased: 4.877
#iterations: 166
currently lose_sum: 0.6356382966041565
time_elpased: 4.799
#iterations: 167
currently lose_sum: 0.6838122606277466
time_elpased: 4.863
#iterations: 168
currently lose_sum: 0.6608750820159912
time_elpased: 5.147
#iterations: 169
currently lose_sum: 0.6874157190322876
time_elpased: 5.165
#iterations: 170
currently lose_sum: 0.703911542892456
time_elpased: 4.861
#iterations: 171
currently lose_sum: 0.6591594219207764
time_elpased: 4.834
#iterations: 172
currently lose_sum: 0.6516737341880798
time_elpased: 4.925
#iterations: 173
currently lose_sum: 0.6529257893562317
time_elpased: 4.94
#iterations: 174
currently lose_sum: 0.636788010597229
time_elpased: 4.86
#iterations: 175
currently lose_sum: 0.6363546252250671
time_elpased: 4.903
#iterations: 176
currently lose_sum: 0.6653595566749573
time_elpased: 4.947
#iterations: 177
currently lose_sum: 0.6762863397598267
time_elpased: 4.838
#iterations: 178
currently lose_sum: 0.6767741441726685
time_elpased: 4.859
#iterations: 179
currently lose_sum: 0.7162855267524719
time_elpased: 5.053
start validation test
0.5524
0.577685088634
0.43690851735
0.497530309834
0.554087375558
16.999
#iterations: 180
currently lose_sum: 0.671059787273407
time_elpased: 5.007
#iterations: 181
currently lose_sum: 0.643649697303772
time_elpased: 4.836
#iterations: 182
currently lose_sum: 0.6647964715957642
time_elpased: 5.012
#iterations: 183
currently lose_sum: 0.6386340856552124
time_elpased: 5.005
#iterations: 184
currently lose_sum: 0.6397658586502075
time_elpased: 4.875
#iterations: 185
currently lose_sum: 0.685818076133728
time_elpased: 4.886
#iterations: 186
currently lose_sum: 0.6973204016685486
time_elpased: 4.844
#iterations: 187
currently lose_sum: 0.6663379073143005
time_elpased: 4.841
#iterations: 188
currently lose_sum: 0.6846191883087158
time_elpased: 4.809
#iterations: 189
currently lose_sum: 0.6225351095199585
time_elpased: 4.864
#iterations: 190
currently lose_sum: 0.6783908009529114
time_elpased: 4.788
#iterations: 191
currently lose_sum: 0.6460919380187988
time_elpased: 4.904
#iterations: 192
currently lose_sum: 0.6487516760826111
time_elpased: 5.006
#iterations: 193
currently lose_sum: 0.649936854839325
time_elpased: 4.829
#iterations: 194
currently lose_sum: 0.6820521354675293
time_elpased: 5.012
#iterations: 195
currently lose_sum: 0.6264612078666687
time_elpased: 5.113
#iterations: 196
currently lose_sum: 0.6636760234832764
time_elpased: 4.971
#iterations: 197
currently lose_sum: 0.6621981859207153
time_elpased: 4.988
#iterations: 198
currently lose_sum: 0.6771564483642578
time_elpased: 5.091
#iterations: 199
currently lose_sum: 0.6290738582611084
time_elpased: 4.906
start validation test
0.5572
0.606340819022
0.361987381703
0.453333333333
0.56005213241
16.996
#iterations: 200
currently lose_sum: 0.70984947681427
time_elpased: 4.87
#iterations: 201
currently lose_sum: 0.6602393984794617
time_elpased: 4.957
#iterations: 202
currently lose_sum: 0.7120859026908875
time_elpased: 4.868
#iterations: 203
currently lose_sum: 0.6580659747123718
time_elpased: 4.925
#iterations: 204
currently lose_sum: 0.6510571241378784
time_elpased: 4.876
#iterations: 205
currently lose_sum: 0.6577552556991577
time_elpased: 4.8
#iterations: 206
currently lose_sum: 0.679469883441925
time_elpased: 4.98
#iterations: 207
currently lose_sum: 0.6385960578918457
time_elpased: 4.824
#iterations: 208
currently lose_sum: 0.6512811779975891
time_elpased: 4.905
#iterations: 209
currently lose_sum: 0.6571301817893982
time_elpased: 4.934
#iterations: 210
currently lose_sum: 0.7179965376853943
time_elpased: 4.971
#iterations: 211
currently lose_sum: 0.6157607436180115
time_elpased: 4.986
#iterations: 212
currently lose_sum: 0.6801229119300842
time_elpased: 4.868
#iterations: 213
currently lose_sum: 0.648277759552002
time_elpased: 4.855
#iterations: 214
currently lose_sum: 0.6835871934890747
time_elpased: 5.46
#iterations: 215
currently lose_sum: 0.6457609534263611
time_elpased: 4.919
#iterations: 216
currently lose_sum: 0.6560289859771729
time_elpased: 4.794
#iterations: 217
currently lose_sum: 0.692557692527771
time_elpased: 5.097
#iterations: 218
currently lose_sum: 0.6794760227203369
time_elpased: 4.911
#iterations: 219
currently lose_sum: 0.6457266211509705
time_elpased: 4.844
start validation test
0.5596
0.552351097179
0.694794952681
0.61543835138
0.557624749068
16.936
#iterations: 220
currently lose_sum: 0.627407431602478
time_elpased: 5.282
#iterations: 221
currently lose_sum: 0.6871406435966492
time_elpased: 4.941
#iterations: 222
currently lose_sum: 0.678841233253479
time_elpased: 5.102
#iterations: 223
currently lose_sum: 0.6438104510307312
time_elpased: 5.114
#iterations: 224
currently lose_sum: 0.6641054749488831
time_elpased: 5.126
#iterations: 225
currently lose_sum: 0.6575528979301453
time_elpased: 4.868
#iterations: 226
currently lose_sum: 0.6419689059257507
time_elpased: 4.883
#iterations: 227
currently lose_sum: 0.6927037835121155
time_elpased: 4.805
#iterations: 228
currently lose_sum: 0.6430185437202454
time_elpased: 4.827
#iterations: 229
currently lose_sum: 0.6933175921440125
time_elpased: 5.177
#iterations: 230
currently lose_sum: 0.6606225371360779
time_elpased: 4.905
#iterations: 231
currently lose_sum: 0.700052797794342
time_elpased: 4.826
#iterations: 232
currently lose_sum: 0.6405839323997498
time_elpased: 5.019
#iterations: 233
currently lose_sum: 0.65411776304245
time_elpased: 5.079
#iterations: 234
currently lose_sum: 0.6725452542304993
time_elpased: 5.051
#iterations: 235
currently lose_sum: 0.6931362152099609
time_elpased: 4.882
#iterations: 236
currently lose_sum: 0.6795980334281921
time_elpased: 4.925
#iterations: 237
currently lose_sum: 0.6513298749923706
time_elpased: 4.836
#iterations: 238
currently lose_sum: 0.6846126317977905
time_elpased: 4.929
#iterations: 239
currently lose_sum: 0.6947076320648193
time_elpased: 4.897
start validation test
0.5536
0.559654631083
0.562302839117
0.560975609756
0.55347284813
16.946
#iterations: 240
currently lose_sum: 0.6678051948547363
time_elpased: 4.866
#iterations: 241
currently lose_sum: 0.6179410815238953
time_elpased: 4.856
#iterations: 242
currently lose_sum: 0.6590772867202759
time_elpased: 4.853
#iterations: 243
currently lose_sum: 0.6587592363357544
time_elpased: 4.946
#iterations: 244
currently lose_sum: 0.6441178917884827
time_elpased: 4.851
#iterations: 245
currently lose_sum: 0.6576570272445679
time_elpased: 5.046
#iterations: 246
currently lose_sum: 0.6621004343032837
time_elpased: 4.91
#iterations: 247
currently lose_sum: 0.6743694543838501
time_elpased: 4.839
#iterations: 248
currently lose_sum: 0.6041497588157654
time_elpased: 4.944
#iterations: 249
currently lose_sum: 0.6307623982429504
time_elpased: 4.827
#iterations: 250
currently lose_sum: 0.6195564866065979
time_elpased: 4.864
#iterations: 251
currently lose_sum: 0.6506287455558777
time_elpased: 5.218
#iterations: 252
currently lose_sum: 0.6803267598152161
time_elpased: 4.94
#iterations: 253
currently lose_sum: 0.6591196656227112
time_elpased: 4.957
#iterations: 254
currently lose_sum: 0.665815532207489
time_elpased: 4.938
#iterations: 255
currently lose_sum: 0.6328883171081543
time_elpased: 4.915
#iterations: 256
currently lose_sum: 0.6686953902244568
time_elpased: 4.886
#iterations: 257
currently lose_sum: 0.6834648251533508
time_elpased: 4.859
#iterations: 258
currently lose_sum: 0.6310363411903381
time_elpased: 4.843
#iterations: 259
currently lose_sum: 0.6858305931091309
time_elpased: 4.895
start validation test
0.5716
0.619975639464
0.40141955836
0.487314504548
0.574086402556
17.050
#iterations: 260
currently lose_sum: 0.652366042137146
time_elpased: 4.853
#iterations: 261
currently lose_sum: 0.6609660387039185
time_elpased: 4.922
#iterations: 262
currently lose_sum: 0.6505807638168335
time_elpased: 4.818
#iterations: 263
currently lose_sum: 0.6611003875732422
time_elpased: 5.148
#iterations: 264
currently lose_sum: 0.6699546575546265
time_elpased: 4.893
#iterations: 265
currently lose_sum: 0.6657674908638
time_elpased: 4.888
#iterations: 266
currently lose_sum: 0.6973651051521301
time_elpased: 4.921
#iterations: 267
currently lose_sum: 0.6630989909172058
time_elpased: 4.831
#iterations: 268
currently lose_sum: 0.6836923956871033
time_elpased: 4.804
#iterations: 269
currently lose_sum: 0.665332019329071
time_elpased: 4.906
#iterations: 270
currently lose_sum: 0.6392174363136292
time_elpased: 4.897
#iterations: 271
currently lose_sum: 0.64227294921875
time_elpased: 4.902
#iterations: 272
currently lose_sum: 0.6220954656600952
time_elpased: 4.864
#iterations: 273
currently lose_sum: 0.6197290420532227
time_elpased: 4.941
#iterations: 274
currently lose_sum: 0.6530534625053406
time_elpased: 4.849
#iterations: 275
currently lose_sum: 0.6690881252288818
time_elpased: 4.976
#iterations: 276
currently lose_sum: 0.6321239471435547
time_elpased: 4.916
#iterations: 277
currently lose_sum: 0.6616063117980957
time_elpased: 4.903
#iterations: 278
currently lose_sum: 0.6525246500968933
time_elpased: 5.256
#iterations: 279
currently lose_sum: 0.6379433274269104
time_elpased: 5.132
start validation test
0.5612
0.56462585034
0.589116719243
0.57661134697
0.560792125855
17.121
#iterations: 280
currently lose_sum: 0.639087975025177
time_elpased: 4.849
#iterations: 281
currently lose_sum: 0.6534832715988159
time_elpased: 5.016
#iterations: 282
currently lose_sum: 0.6524080038070679
time_elpased: 4.933
#iterations: 283
currently lose_sum: 0.60975182056427
time_elpased: 5.078
#iterations: 284
currently lose_sum: 0.6881539821624756
time_elpased: 5.067
#iterations: 285
currently lose_sum: 0.6709641814231873
time_elpased: 4.877
#iterations: 286
currently lose_sum: 0.6384838819503784
time_elpased: 4.907
#iterations: 287
currently lose_sum: 0.6781489849090576
time_elpased: 4.867
#iterations: 288
currently lose_sum: 0.678005039691925
time_elpased: 4.844
#iterations: 289
currently lose_sum: 0.6467544436454773
time_elpased: 4.904
#iterations: 290
currently lose_sum: 0.6618267893791199
time_elpased: 4.844
#iterations: 291
currently lose_sum: 0.6346046328544617
time_elpased: 5.136
#iterations: 292
currently lose_sum: 0.6718124151229858
time_elpased: 4.879
#iterations: 293
currently lose_sum: 0.640775203704834
time_elpased: 4.836
#iterations: 294
currently lose_sum: 0.6401178240776062
time_elpased: 4.857
#iterations: 295
currently lose_sum: 0.6501359343528748
time_elpased: 4.956
#iterations: 296
currently lose_sum: 0.6641430854797363
time_elpased: 4.904
#iterations: 297
currently lose_sum: 0.6756681799888611
time_elpased: 4.798
#iterations: 298
currently lose_sum: 0.6486819386482239
time_elpased: 4.949
#iterations: 299
currently lose_sum: 0.6680917143821716
time_elpased: 4.84
start validation test
0.5608
0.569444444444
0.549684542587
0.559390048154
0.560962401164
16.968
#iterations: 300
currently lose_sum: 0.6086562871932983
time_elpased: 4.858
#iterations: 301
currently lose_sum: 0.6536034941673279
time_elpased: 4.893
#iterations: 302
currently lose_sum: 0.6986333727836609
time_elpased: 4.93
#iterations: 303
currently lose_sum: 0.6680583357810974
time_elpased: 4.852
#iterations: 304
currently lose_sum: 0.6636171936988831
time_elpased: 4.87
#iterations: 305
currently lose_sum: 0.6292976140975952
time_elpased: 4.865
#iterations: 306
currently lose_sum: 0.6260384917259216
time_elpased: 5.025
#iterations: 307
currently lose_sum: 0.6411848664283752
time_elpased: 5.471
#iterations: 308
currently lose_sum: 0.6708219647407532
time_elpased: 5.033
#iterations: 309
currently lose_sum: 0.6672295331954956
time_elpased: 4.869
#iterations: 310
currently lose_sum: 0.6858177185058594
time_elpased: 4.843
#iterations: 311
currently lose_sum: 0.6659741997718811
time_elpased: 4.907
#iterations: 312
currently lose_sum: 0.6445735692977905
time_elpased: 4.885
#iterations: 313
currently lose_sum: 0.6540775299072266
time_elpased: 4.88
#iterations: 314
currently lose_sum: 0.6670017242431641
time_elpased: 5.003
#iterations: 315
currently lose_sum: 0.642142117023468
time_elpased: 4.919
#iterations: 316
currently lose_sum: 0.6599322557449341
time_elpased: 4.877
#iterations: 317
currently lose_sum: 0.6794612407684326
time_elpased: 4.832
#iterations: 318
currently lose_sum: 0.6242254376411438
time_elpased: 4.878
#iterations: 319
currently lose_sum: 0.597048282623291
time_elpased: 4.923
start validation test
0.562
0.554300062775
0.696372239748
0.617266689969
0.560036769224
16.953
#iterations: 320
currently lose_sum: 0.6441372632980347
time_elpased: 4.78
#iterations: 321
currently lose_sum: 0.6461976766586304
time_elpased: 5.217
#iterations: 322
currently lose_sum: 0.6585041880607605
time_elpased: 4.775
#iterations: 323
currently lose_sum: 0.6490902900695801
time_elpased: 4.852
#iterations: 324
currently lose_sum: 0.7211502194404602
time_elpased: 4.822
#iterations: 325
currently lose_sum: 0.6745349168777466
time_elpased: 4.986
#iterations: 326
currently lose_sum: 0.664660632610321
time_elpased: 4.885
#iterations: 327
currently lose_sum: 0.6079095602035522
time_elpased: 5.09
#iterations: 328
currently lose_sum: 0.6464840173721313
time_elpased: 4.953
#iterations: 329
currently lose_sum: 0.6760265827178955
time_elpased: 4.886
#iterations: 330
currently lose_sum: 0.6452134847640991
time_elpased: 4.813
#iterations: 331
currently lose_sum: 0.6517937183380127
time_elpased: 5.089
#iterations: 332
currently lose_sum: 0.689073920249939
time_elpased: 4.835
#iterations: 333
currently lose_sum: 0.6448765397071838
time_elpased: 4.788
#iterations: 334
currently lose_sum: 0.637816309928894
time_elpased: 4.897
#iterations: 335
currently lose_sum: 0.6327764391899109
time_elpased: 4.915
#iterations: 336
currently lose_sum: 0.599281907081604
time_elpased: 5.029
#iterations: 337
currently lose_sum: 0.6279463768005371
time_elpased: 4.895
#iterations: 338
currently lose_sum: 0.634733259677887
time_elpased: 5.322
#iterations: 339
currently lose_sum: 0.6400682926177979
time_elpased: 4.881
start validation test
0.5704
0.608744394619
0.428233438486
0.502777777778
0.572477108853
16.923
#iterations: 340
currently lose_sum: 0.5948999524116516
time_elpased: 4.906
#iterations: 341
currently lose_sum: 0.6486345529556274
time_elpased: 4.789
#iterations: 342
currently lose_sum: 0.6181065440177917
time_elpased: 4.999
#iterations: 343
currently lose_sum: 0.6752307415008545
time_elpased: 4.858
#iterations: 344
currently lose_sum: 0.6783291101455688
time_elpased: 4.76
#iterations: 345
currently lose_sum: 0.660331130027771
time_elpased: 4.871
#iterations: 346
currently lose_sum: 0.6916846632957458
time_elpased: 4.889
#iterations: 347
currently lose_sum: 0.6531596183776855
time_elpased: 4.871
#iterations: 348
currently lose_sum: 0.6735976934432983
time_elpased: 4.842
#iterations: 349
currently lose_sum: 0.6587231159210205
time_elpased: 4.909
#iterations: 350
currently lose_sum: 0.615548312664032
time_elpased: 4.878
#iterations: 351
currently lose_sum: 0.6444058418273926
time_elpased: 4.87
#iterations: 352
currently lose_sum: 0.6678927540779114
time_elpased: 4.827
#iterations: 353
currently lose_sum: 0.632198691368103
time_elpased: 4.859
#iterations: 354
currently lose_sum: 0.6045118570327759
time_elpased: 4.823
#iterations: 355
currently lose_sum: 0.6337534189224243
time_elpased: 4.838
#iterations: 356
currently lose_sum: 0.6591148972511292
time_elpased: 4.937
#iterations: 357
currently lose_sum: 0.6320397853851318
time_elpased: 5.189
#iterations: 358
currently lose_sum: 0.6548274159431458
time_elpased: 5.06
#iterations: 359
currently lose_sum: 0.6479745507240295
time_elpased: 4.833
start validation test
0.566
0.586402266289
0.489747634069
0.533734422003
0.567114076775
16.782
#iterations: 360
currently lose_sum: 0.6725586652755737
time_elpased: 4.814
#iterations: 361
currently lose_sum: 0.6751077175140381
time_elpased: 4.948
#iterations: 362
currently lose_sum: 0.6403170228004456
time_elpased: 4.85
#iterations: 363
currently lose_sum: 0.6643162369728088
time_elpased: 4.925
#iterations: 364
currently lose_sum: 0.6057716608047485
time_elpased: 4.949
#iterations: 365
currently lose_sum: 0.6234903931617737
time_elpased: 4.853
#iterations: 366
currently lose_sum: 0.6358126997947693
time_elpased: 4.941
#iterations: 367
currently lose_sum: 0.6580324769020081
time_elpased: 5.121
#iterations: 368
currently lose_sum: 0.5990980267524719
time_elpased: 4.831
#iterations: 369
currently lose_sum: 0.604853630065918
time_elpased: 4.852
#iterations: 370
currently lose_sum: 0.6079603433609009
time_elpased: 4.974
#iterations: 371
currently lose_sum: 0.6465794444084167
time_elpased: 4.877
#iterations: 372
currently lose_sum: 0.6291995644569397
time_elpased: 4.836
#iterations: 373
currently lose_sum: 0.642348051071167
time_elpased: 4.957
#iterations: 374
currently lose_sum: 0.6607093811035156
time_elpased: 5.225
#iterations: 375
currently lose_sum: 0.6643388271331787
time_elpased: 5.057
#iterations: 376
currently lose_sum: 0.6169653534889221
time_elpased: 4.868
#iterations: 377
currently lose_sum: 0.6622371673583984
time_elpased: 4.782
#iterations: 378
currently lose_sum: 0.6125319004058838
time_elpased: 4.958
#iterations: 379
currently lose_sum: 0.6626743078231812
time_elpased: 4.94
start validation test
0.562
0.56587966489
0.58596214511
0.575745834948
0.561649903724
16.750
#iterations: 380
currently lose_sum: 0.6616127490997314
time_elpased: 4.883
#iterations: 381
currently lose_sum: 0.6878568530082703
time_elpased: 4.916
#iterations: 382
currently lose_sum: 0.6614221334457397
time_elpased: 4.881
#iterations: 383
currently lose_sum: 0.6526769995689392
time_elpased: 4.9
#iterations: 384
currently lose_sum: 0.6131510734558105
time_elpased: 4.869
#iterations: 385
currently lose_sum: 0.6455631852149963
time_elpased: 4.811
#iterations: 386
currently lose_sum: 0.6264309883117676
time_elpased: 4.845
#iterations: 387
currently lose_sum: 0.6581424474716187
time_elpased: 4.852
#iterations: 388
currently lose_sum: 0.6764687895774841
time_elpased: 4.833
#iterations: 389
currently lose_sum: 0.6720959544181824
time_elpased: 4.883
#iterations: 390
currently lose_sum: 0.6510740518569946
time_elpased: 4.867
#iterations: 391
currently lose_sum: 0.6318866610527039
time_elpased: 4.844
#iterations: 392
currently lose_sum: 0.6290373802185059
time_elpased: 4.87
#iterations: 393
currently lose_sum: 0.6026790142059326
time_elpased: 4.79
#iterations: 394
currently lose_sum: 0.6513028144836426
time_elpased: 4.91
#iterations: 395
currently lose_sum: 0.6548179388046265
time_elpased: 4.924
#iterations: 396
currently lose_sum: 0.6311244964599609
time_elpased: 4.885
#iterations: 397
currently lose_sum: 0.642075777053833
time_elpased: 4.808
#iterations: 398
currently lose_sum: 0.5989856123924255
time_elpased: 4.835
#iterations: 399
currently lose_sum: 0.6255335211753845
time_elpased: 4.832
start validation test
0.5612
0.552550706822
0.708990536278
0.621070811744
0.559040722684
16.951
#iterations: 400
currently lose_sum: 0.6712362766265869
time_elpased: 4.854
#iterations: 401
currently lose_sum: 0.6160682439804077
time_elpased: 4.93
#iterations: 402
currently lose_sum: 0.6577757000923157
time_elpased: 4.928
#iterations: 403
currently lose_sum: 0.6157848834991455
time_elpased: 4.849
#iterations: 404
currently lose_sum: 0.6517581343650818
time_elpased: 4.843
#iterations: 405
currently lose_sum: 0.6740586757659912
time_elpased: 4.9
#iterations: 406
currently lose_sum: 0.6275452375411987
time_elpased: 4.86
#iterations: 407
currently lose_sum: 0.6805264353752136
time_elpased: 4.903
#iterations: 408
currently lose_sum: 0.677996814250946
time_elpased: 4.849
#iterations: 409
currently lose_sum: 0.6082255840301514
time_elpased: 4.819
#iterations: 410
currently lose_sum: 0.685178816318512
time_elpased: 4.956
#iterations: 411
currently lose_sum: 0.6599102020263672
time_elpased: 5.0
#iterations: 412
currently lose_sum: 0.6373053789138794
time_elpased: 4.884
#iterations: 413
currently lose_sum: 0.661037266254425
time_elpased: 5.342
#iterations: 414
currently lose_sum: 0.66361403465271
time_elpased: 4.855
#iterations: 415
currently lose_sum: 0.6425585150718689
time_elpased: 4.904
#iterations: 416
currently lose_sum: 0.6703746318817139
time_elpased: 4.889
#iterations: 417
currently lose_sum: 0.6104970574378967
time_elpased: 5.15
#iterations: 418
currently lose_sum: 0.6235545873641968
time_elpased: 4.842
#iterations: 419
currently lose_sum: 0.62834632396698
time_elpased: 4.903
start validation test
0.5652
0.571091908877
0.57334384858
0.572215663125
0.565081015199
16.806
#iterations: 420
currently lose_sum: 0.7027209997177124
time_elpased: 4.815
#iterations: 421
currently lose_sum: 0.6324572563171387
time_elpased: 4.984
#iterations: 422
currently lose_sum: 0.6038491725921631
time_elpased: 4.795
#iterations: 423
currently lose_sum: 0.6762809753417969
time_elpased: 4.83
#iterations: 424
currently lose_sum: 0.6481984853744507
time_elpased: 4.867
#iterations: 425
currently lose_sum: 0.640896201133728
time_elpased: 4.944
#iterations: 426
currently lose_sum: 0.6009779572486877
time_elpased: 4.784
#iterations: 427
currently lose_sum: 0.6653945446014404
time_elpased: 4.883
#iterations: 428
currently lose_sum: 0.6717360019683838
time_elpased: 4.931
#iterations: 429
currently lose_sum: 0.6881043910980225
time_elpased: 4.89
#iterations: 430
currently lose_sum: 0.6433750987052917
time_elpased: 4.835
#iterations: 431
currently lose_sum: 0.6530071496963501
time_elpased: 5.009
#iterations: 432
currently lose_sum: 0.6534911394119263
time_elpased: 4.935
#iterations: 433
currently lose_sum: 0.6155145764350891
time_elpased: 4.861
#iterations: 434
currently lose_sum: 0.6857962012290955
time_elpased: 4.92
#iterations: 435
currently lose_sum: 0.649552583694458
time_elpased: 4.866
#iterations: 436
currently lose_sum: 0.6461434960365295
time_elpased: 4.901
#iterations: 437
currently lose_sum: 0.6469001770019531
time_elpased: 4.821
#iterations: 438
currently lose_sum: 0.6379634737968445
time_elpased: 5.004
#iterations: 439
currently lose_sum: 0.6330313086509705
time_elpased: 4.856
start validation test
0.562
0.556351791531
0.673501577287
0.609347128077
0.560370918514
16.819
#iterations: 440
currently lose_sum: 0.6609159708023071
time_elpased: 4.837
#iterations: 441
currently lose_sum: 0.6369634866714478
time_elpased: 4.905
#iterations: 442
currently lose_sum: 0.6832684278488159
time_elpased: 4.945
#iterations: 443
currently lose_sum: 0.6223229169845581
time_elpased: 4.954
#iterations: 444
currently lose_sum: 0.6817983984947205
time_elpased: 5.16
#iterations: 445
currently lose_sum: 0.6486799716949463
time_elpased: 4.874
#iterations: 446
currently lose_sum: 0.6820893287658691
time_elpased: 4.975
#iterations: 447
currently lose_sum: 0.6167332530021667
time_elpased: 4.873
#iterations: 448
currently lose_sum: 0.6515215039253235
time_elpased: 4.904
#iterations: 449
currently lose_sum: 0.6165421009063721
time_elpased: 4.952
#iterations: 450
currently lose_sum: 0.6397613286972046
time_elpased: 5.053
#iterations: 451
currently lose_sum: 0.6154358386993408
time_elpased: 4.9
#iterations: 452
currently lose_sum: 0.5669907927513123
time_elpased: 4.841
#iterations: 453
currently lose_sum: 0.6503477692604065
time_elpased: 4.967
#iterations: 454
currently lose_sum: 0.6567696928977966
time_elpased: 5.205
#iterations: 455
currently lose_sum: 0.6475200653076172
time_elpased: 5.021
#iterations: 456
currently lose_sum: 0.6407555937767029
time_elpased: 4.923
#iterations: 457
currently lose_sum: 0.6132033467292786
time_elpased: 4.935
#iterations: 458
currently lose_sum: 0.6459337472915649
time_elpased: 5.225
#iterations: 459
currently lose_sum: 0.6268627047538757
time_elpased: 5.127
start validation test
0.562
0.55613238157
0.675867507886
0.610181559274
0.560336351346
16.907
#iterations: 460
currently lose_sum: 0.6551319360733032
time_elpased: 4.851
#iterations: 461
currently lose_sum: 0.6280677914619446
time_elpased: 4.836
#iterations: 462
currently lose_sum: 0.6779199838638306
time_elpased: 4.849
#iterations: 463
currently lose_sum: 0.6834303140640259
time_elpased: 4.833
#iterations: 464
currently lose_sum: 0.6463429927825928
time_elpased: 4.886
#iterations: 465
currently lose_sum: 0.6077293157577515
time_elpased: 4.92
#iterations: 466
currently lose_sum: 0.6534820795059204
time_elpased: 4.909
#iterations: 467
currently lose_sum: 0.6670974493026733
time_elpased: 4.966
#iterations: 468
currently lose_sum: 0.6085469126701355
time_elpased: 5.157
#iterations: 469
currently lose_sum: 0.6909018754959106
time_elpased: 4.847
#iterations: 470
currently lose_sum: 0.6622058153152466
time_elpased: 4.802
#iterations: 471
currently lose_sum: 0.6551210284233093
time_elpased: 5.261
#iterations: 472
currently lose_sum: 0.6400644183158875
time_elpased: 4.89
#iterations: 473
currently lose_sum: 0.6515608429908752
time_elpased: 4.908
#iterations: 474
currently lose_sum: 0.6465364098548889
time_elpased: 4.948
#iterations: 475
currently lose_sum: 0.6265364289283752
time_elpased: 4.844
#iterations: 476
currently lose_sum: 0.6427950263023376
time_elpased: 4.846
#iterations: 477
currently lose_sum: 0.6393253803253174
time_elpased: 4.866
#iterations: 478
currently lose_sum: 0.6534993052482605
time_elpased: 4.946
#iterations: 479
currently lose_sum: 0.6406881809234619
time_elpased: 4.875
start validation test
0.5652
0.586108468126
0.485804416404
0.531263475636
0.56636000041
16.741
#iterations: 480
currently lose_sum: 0.6411547064781189
time_elpased: 5.021
#iterations: 481
currently lose_sum: 0.6631060242652893
time_elpased: 4.973
#iterations: 482
currently lose_sum: 0.6576840281486511
time_elpased: 4.916
#iterations: 483
currently lose_sum: 0.6480704545974731
time_elpased: 4.98
#iterations: 484
currently lose_sum: 0.6880744695663452
time_elpased: 4.82
#iterations: 485
currently lose_sum: 0.662556529045105
time_elpased: 4.902
#iterations: 486
currently lose_sum: 0.6780595183372498
time_elpased: 4.921
#iterations: 487
currently lose_sum: 0.6480961441993713
time_elpased: 4.87
#iterations: 488
currently lose_sum: 0.6425125598907471
time_elpased: 4.868
#iterations: 489
currently lose_sum: 0.6481850147247314
time_elpased: 4.89
#iterations: 490
currently lose_sum: 0.6276782751083374
time_elpased: 4.915
#iterations: 491
currently lose_sum: 0.6644209027290344
time_elpased: 4.869
#iterations: 492
currently lose_sum: 0.6172779202461243
time_elpased: 5.203
#iterations: 493
currently lose_sum: 0.608287513256073
time_elpased: 4.832
#iterations: 494
currently lose_sum: 0.653532087802887
time_elpased: 5.181
#iterations: 495
currently lose_sum: 0.6721917986869812
time_elpased: 4.854
#iterations: 496
currently lose_sum: 0.6612665057182312
time_elpased: 4.864
#iterations: 497
currently lose_sum: 0.6499804854393005
time_elpased: 4.834
#iterations: 498
currently lose_sum: 0.6271734833717346
time_elpased: 4.906
#iterations: 499
currently lose_sum: 0.6067759990692139
time_elpased: 4.863
start validation test
0.5636
0.564835164835
0.608044164038
0.585643752374
0.562950653447
16.742
#iterations: 500
currently lose_sum: 0.6605445146560669
time_elpased: 4.804
#iterations: 501
currently lose_sum: 0.6651665568351746
time_elpased: 4.878
#iterations: 502
currently lose_sum: 0.6788251996040344
time_elpased: 4.861
#iterations: 503
currently lose_sum: 0.6687748432159424
time_elpased: 4.856
#iterations: 504
currently lose_sum: 0.6470562815666199
time_elpased: 4.863
#iterations: 505
currently lose_sum: 0.6229004263877869
time_elpased: 4.86
#iterations: 506
currently lose_sum: 0.6558966040611267
time_elpased: 4.983
#iterations: 507
currently lose_sum: 0.5906049609184265
time_elpased: 4.878
#iterations: 508
currently lose_sum: 0.5957527160644531
time_elpased: 4.877
#iterations: 509
currently lose_sum: 0.6562687754631042
time_elpased: 4.83
#iterations: 510
currently lose_sum: 0.6126046776771545
time_elpased: 4.963
#iterations: 511
currently lose_sum: 0.6719829440116882
time_elpased: 4.904
#iterations: 512
currently lose_sum: 0.5825014114379883
time_elpased: 4.798
#iterations: 513
currently lose_sum: 0.6456018686294556
time_elpased: 4.907
#iterations: 514
currently lose_sum: 0.6733514666557312
time_elpased: 4.873
#iterations: 515
currently lose_sum: 0.6839747428894043
time_elpased: 5.417
#iterations: 516
currently lose_sum: 0.5965797305107117
time_elpased: 4.922
#iterations: 517
currently lose_sum: 0.591564416885376
time_elpased: 4.831
#iterations: 518
currently lose_sum: 0.6314447522163391
time_elpased: 5.052
#iterations: 519
currently lose_sum: 0.5801690220832825
time_elpased: 4.902
start validation test
0.5564
0.569553805774
0.513406940063
0.540024885939
0.557028145356
16.830
#iterations: 520
currently lose_sum: 0.6466050744056702
time_elpased: 4.882
#iterations: 521
currently lose_sum: 0.6770005226135254
time_elpased: 4.882
#iterations: 522
currently lose_sum: 0.6261804699897766
time_elpased: 5.007
#iterations: 523
currently lose_sum: 0.6667306423187256
time_elpased: 4.808
#iterations: 524
currently lose_sum: 0.6226451992988586
time_elpased: 4.948
#iterations: 525
currently lose_sum: 0.6390607357025146
time_elpased: 4.823
#iterations: 526
currently lose_sum: 0.6119953989982605
time_elpased: 4.871
#iterations: 527
currently lose_sum: 0.6915574669837952
time_elpased: 4.896
#iterations: 528
currently lose_sum: 0.6515507698059082
time_elpased: 5.173
#iterations: 529
currently lose_sum: 0.6795045733451843
time_elpased: 4.961
#iterations: 530
currently lose_sum: 0.6268882155418396
time_elpased: 4.811
#iterations: 531
currently lose_sum: 0.6713640689849854
time_elpased: 4.914
#iterations: 532
currently lose_sum: 0.6534281969070435
time_elpased: 4.895
#iterations: 533
currently lose_sum: 0.615688681602478
time_elpased: 4.839
#iterations: 534
currently lose_sum: 0.663187563419342
time_elpased: 4.961
#iterations: 535
currently lose_sum: 0.5895358920097351
time_elpased: 4.898
#iterations: 536
currently lose_sum: 0.6550222635269165
time_elpased: 4.882
#iterations: 537
currently lose_sum: 0.6453826427459717
time_elpased: 5.006
#iterations: 538
currently lose_sum: 0.7042300701141357
time_elpased: 4.974
#iterations: 539
currently lose_sum: 0.6277613639831543
time_elpased: 4.861
start validation test
0.5664
0.559202059202
0.685331230284
0.615875265769
0.564662368389
16.798
#iterations: 540
currently lose_sum: 0.6120429635047913
time_elpased: 4.892
#iterations: 541
currently lose_sum: 0.654446542263031
time_elpased: 5.458
#iterations: 542
currently lose_sum: 0.6563624739646912
time_elpased: 4.946
#iterations: 543
currently lose_sum: 0.6131981611251831
time_elpased: 4.896
#iterations: 544
currently lose_sum: 0.6223576664924622
time_elpased: 4.799
#iterations: 545
currently lose_sum: 0.6539682745933533
time_elpased: 5.154
#iterations: 546
currently lose_sum: 0.6288349628448486
time_elpased: 5.152
#iterations: 547
currently lose_sum: 0.6207040548324585
time_elpased: 4.844
#iterations: 548
currently lose_sum: 0.666337251663208
time_elpased: 4.946
#iterations: 549
currently lose_sum: 0.6018359661102295
time_elpased: 4.88
#iterations: 550
currently lose_sum: 0.6507472991943359
time_elpased: 4.963
#iterations: 551
currently lose_sum: 0.6722524762153625
time_elpased: 4.853
#iterations: 552
currently lose_sum: 0.6316444873809814
time_elpased: 4.902
#iterations: 553
currently lose_sum: 0.6782578825950623
time_elpased: 4.912
#iterations: 554
currently lose_sum: 0.6425187587738037
time_elpased: 4.801
#iterations: 555
currently lose_sum: 0.587097704410553
time_elpased: 4.946
#iterations: 556
currently lose_sum: 0.5757415890693665
time_elpased: 4.941
#iterations: 557
currently lose_sum: 0.6122757196426392
time_elpased: 4.887
#iterations: 558
currently lose_sum: 0.5803925395011902
time_elpased: 4.915
#iterations: 559
currently lose_sum: 0.6451684832572937
time_elpased: 4.933
start validation test
0.57
0.582267689685
0.538643533123
0.559606718558
0.570458130198
16.686
#iterations: 560
currently lose_sum: 0.6012970805168152
time_elpased: 4.915
#iterations: 561
currently lose_sum: 0.6324617266654968
time_elpased: 4.897
#iterations: 562
currently lose_sum: 0.6324363946914673
time_elpased: 4.967
#iterations: 563
currently lose_sum: 0.6388554573059082
time_elpased: 4.809
#iterations: 564
currently lose_sum: 0.6687709093093872
time_elpased: 4.795
#iterations: 565
currently lose_sum: 0.6188796758651733
time_elpased: 4.964
#iterations: 566
currently lose_sum: 0.6637071371078491
time_elpased: 4.909
#iterations: 567
currently lose_sum: 0.6163960099220276
time_elpased: 4.932
#iterations: 568
currently lose_sum: 0.616916835308075
time_elpased: 4.861
#iterations: 569
currently lose_sum: 0.6767184734344482
time_elpased: 4.861
#iterations: 570
currently lose_sum: 0.6599153876304626
time_elpased: 4.937
#iterations: 571
currently lose_sum: 0.6844683885574341
time_elpased: 5.012
#iterations: 572
currently lose_sum: 0.6198217868804932
time_elpased: 4.919
#iterations: 573
currently lose_sum: 0.6336745619773865
time_elpased: 4.84
#iterations: 574
currently lose_sum: 0.6623106598854065
time_elpased: 4.818
#iterations: 575
currently lose_sum: 0.6021971702575684
time_elpased: 4.871
#iterations: 576
currently lose_sum: 0.6685117483139038
time_elpased: 4.957
#iterations: 577
currently lose_sum: 0.6440881490707397
time_elpased: 4.815
#iterations: 578
currently lose_sum: 0.6719442009925842
time_elpased: 4.918
#iterations: 579
currently lose_sum: 0.6315291523933411
time_elpased: 5.032
start validation test
0.5672
0.570241691843
0.595425867508
0.582561728395
0.566787609079
16.734
#iterations: 580
currently lose_sum: 0.6620290875434875
time_elpased: 4.932
#iterations: 581
currently lose_sum: 0.6575034856796265
time_elpased: 4.911
#iterations: 582
currently lose_sum: 0.6219587922096252
time_elpased: 4.937
#iterations: 583
currently lose_sum: 0.6574477553367615
time_elpased: 5.067
#iterations: 584
currently lose_sum: 0.6507113575935364
time_elpased: 4.961
#iterations: 585
currently lose_sum: 0.5816280245780945
time_elpased: 4.815
#iterations: 586
currently lose_sum: 0.588729739189148
time_elpased: 4.853
#iterations: 587
currently lose_sum: 0.5962519645690918
time_elpased: 4.986
#iterations: 588
currently lose_sum: 0.640343189239502
time_elpased: 4.929
#iterations: 589
currently lose_sum: 0.6498193144798279
time_elpased: 4.805
#iterations: 590
currently lose_sum: 0.576206386089325
time_elpased: 4.926
#iterations: 591
currently lose_sum: 0.6298274993896484
time_elpased: 4.854
#iterations: 592
currently lose_sum: 0.5719206929206848
time_elpased: 4.908
#iterations: 593
currently lose_sum: 0.5868139863014221
time_elpased: 4.859
#iterations: 594
currently lose_sum: 0.6532958149909973
time_elpased: 4.921
#iterations: 595
currently lose_sum: 0.6417475938796997
time_elpased: 4.821
#iterations: 596
currently lose_sum: 0.6681481003761292
time_elpased: 4.967
#iterations: 597
currently lose_sum: 0.6384212374687195
time_elpased: 4.844
#iterations: 598
currently lose_sum: 0.6417364478111267
time_elpased: 4.936
#iterations: 599
currently lose_sum: 0.6664533019065857
time_elpased: 4.869
start validation test
0.55
0.564356435644
0.494479495268
0.52711223203
0.550811176205
17.376
acc: 0.590
pre: 0.621
rec: 0.490
F1: 0.548
auc: 0.591
