start to construct computing graph
graph construct over
3804
epochs start
#iterations: 0
currently lose_sum: 0.7016212344169617
time_elpased: 2.776
#iterations: 1
currently lose_sum: 0.6946299076080322
time_elpased: 2.851
#iterations: 2
currently lose_sum: 0.6940017938613892
time_elpased: 2.932
#iterations: 3
currently lose_sum: 0.6957361698150635
time_elpased: 2.771
#iterations: 4
currently lose_sum: 0.6942688822746277
time_elpased: 2.815
#iterations: 5
currently lose_sum: 0.6929858922958374
time_elpased: 2.811
#iterations: 6
currently lose_sum: 0.6993455290794373
time_elpased: 2.788
#iterations: 7
currently lose_sum: 0.6938683986663818
time_elpased: 2.805
#iterations: 8
currently lose_sum: 0.6911411285400391
time_elpased: 2.832
#iterations: 9
currently lose_sum: 0.6937035322189331
time_elpased: 2.808
#iterations: 10
currently lose_sum: 0.6927260756492615
time_elpased: 2.769
#iterations: 11
currently lose_sum: 0.692356288433075
time_elpased: 2.78
#iterations: 12
currently lose_sum: 0.6943721771240234
time_elpased: 2.762
#iterations: 13
currently lose_sum: 0.6887801289558411
time_elpased: 2.836
#iterations: 14
currently lose_sum: 0.6886781454086304
time_elpased: 2.748
#iterations: 15
currently lose_sum: 0.6879899501800537
time_elpased: 2.767
#iterations: 16
currently lose_sum: 0.6931788921356201
time_elpased: 2.771
#iterations: 17
currently lose_sum: 0.6947155594825745
time_elpased: 2.822
#iterations: 18
currently lose_sum: 0.6901836395263672
time_elpased: 2.74
#iterations: 19
currently lose_sum: 0.6917961239814758
time_elpased: 2.772
start validation test
0.5192
0.539779681763
0.348066298343
0.423224568138
0.521559507647
17.305
#iterations: 20
currently lose_sum: 0.6997042298316956
time_elpased: 2.09
#iterations: 21
currently lose_sum: 0.6852974891662598
time_elpased: 2.239
#iterations: 22
currently lose_sum: 0.6850625872612
time_elpased: 2.096
#iterations: 23
currently lose_sum: 0.6958134174346924
time_elpased: 2.167
#iterations: 24
currently lose_sum: 0.6860020160675049
time_elpased: 2.269
#iterations: 25
currently lose_sum: 0.68329256772995
time_elpased: 2.135
#iterations: 26
currently lose_sum: 0.7204570174217224
time_elpased: 2.147
#iterations: 27
currently lose_sum: 0.688168466091156
time_elpased: 2.203
#iterations: 28
currently lose_sum: 0.6957871913909912
time_elpased: 2.099
#iterations: 29
currently lose_sum: 0.6880166530609131
time_elpased: 2.065
#iterations: 30
currently lose_sum: 0.6844668388366699
time_elpased: 2.135
#iterations: 31
currently lose_sum: 0.6899775862693787
time_elpased: 2.129
#iterations: 32
currently lose_sum: 0.6826856136322021
time_elpased: 2.078
#iterations: 33
currently lose_sum: 0.6863070130348206
time_elpased: 2.211
#iterations: 34
currently lose_sum: 0.707173764705658
time_elpased: 2.148
#iterations: 35
currently lose_sum: 0.6912676095962524
time_elpased: 2.145
#iterations: 36
currently lose_sum: 0.6987915635108948
time_elpased: 2.124
#iterations: 37
currently lose_sum: 0.6825188994407654
time_elpased: 2.134
#iterations: 38
currently lose_sum: 0.6846933960914612
time_elpased: 2.152
#iterations: 39
currently lose_sum: 0.6791307926177979
time_elpased: 2.141
start validation test
0.5272
0.604422604423
0.194159431728
0.293906810036
0.531791800211
17.307
#iterations: 40
currently lose_sum: 0.6806517243385315
time_elpased: 2.235
#iterations: 41
currently lose_sum: 0.6797701120376587
time_elpased: 2.113
#iterations: 42
currently lose_sum: 0.6833738088607788
time_elpased: 2.118
#iterations: 43
currently lose_sum: 0.676767885684967
time_elpased: 2.141
#iterations: 44
currently lose_sum: 0.6901264190673828
time_elpased: 2.11
#iterations: 45
currently lose_sum: 0.6847581267356873
time_elpased: 2.077
#iterations: 46
currently lose_sum: 0.67246413230896
time_elpased: 2.125
#iterations: 47
currently lose_sum: 0.6849306225776672
time_elpased: 2.162
#iterations: 48
currently lose_sum: 0.6723935604095459
time_elpased: 2.096
#iterations: 49
currently lose_sum: 0.6831721663475037
time_elpased: 2.115
#iterations: 50
currently lose_sum: 0.6991427540779114
time_elpased: 2.144
#iterations: 51
currently lose_sum: 0.6965117454528809
time_elpased: 2.186
#iterations: 52
currently lose_sum: 0.6981070637702942
time_elpased: 2.175
#iterations: 53
currently lose_sum: 0.6885635852813721
time_elpased: 2.132
#iterations: 54
currently lose_sum: 0.6841139197349548
time_elpased: 2.093
#iterations: 55
currently lose_sum: 0.6765753030776978
time_elpased: 2.118
#iterations: 56
currently lose_sum: 0.6851608753204346
time_elpased: 2.08
#iterations: 57
currently lose_sum: 0.6988511085510254
time_elpased: 2.088
#iterations: 58
currently lose_sum: 0.6890144944190979
time_elpased: 2.084
#iterations: 59
currently lose_sum: 0.6914469003677368
time_elpased: 2.168
start validation test
0.5452
0.544827586207
0.623520126283
0.581523739418
0.544120160465
17.135
#iterations: 60
currently lose_sum: 0.6852188110351562
time_elpased: 2.163
#iterations: 61
currently lose_sum: 0.6810157299041748
time_elpased: 2.161
#iterations: 62
currently lose_sum: 0.7028436064720154
time_elpased: 2.165
#iterations: 63
currently lose_sum: 0.6489271521568298
time_elpased: 2.072
#iterations: 64
currently lose_sum: 0.6812782883644104
time_elpased: 2.116
#iterations: 65
currently lose_sum: 0.6808379888534546
time_elpased: 2.106
#iterations: 66
currently lose_sum: 0.6843332648277283
time_elpased: 2.13
#iterations: 67
currently lose_sum: 0.6844383478164673
time_elpased: 2.084
#iterations: 68
currently lose_sum: 0.6707896590232849
time_elpased: 2.136
#iterations: 69
currently lose_sum: 0.6814396381378174
time_elpased: 2.143
#iterations: 70
currently lose_sum: 0.6756578087806702
time_elpased: 2.168
#iterations: 71
currently lose_sum: 0.6867091655731201
time_elpased: 2.126
#iterations: 72
currently lose_sum: 0.686360776424408
time_elpased: 2.121
#iterations: 73
currently lose_sum: 0.695813000202179
time_elpased: 2.144
#iterations: 74
currently lose_sum: 0.6758683919906616
time_elpased: 2.129
#iterations: 75
currently lose_sum: 0.6743811964988708
time_elpased: 2.149
#iterations: 76
currently lose_sum: 0.6924473643302917
time_elpased: 2.092
#iterations: 77
currently lose_sum: 0.7065531015396118
time_elpased: 2.109
#iterations: 78
currently lose_sum: 0.6883765459060669
time_elpased: 2.09
#iterations: 79
currently lose_sum: 0.6658369302749634
time_elpased: 2.14
start validation test
0.5332
0.538639876352
0.550118389897
0.544318625537
0.532966737528
17.132
#iterations: 80
currently lose_sum: 0.6936099529266357
time_elpased: 2.166
#iterations: 81
currently lose_sum: 0.6828125715255737
time_elpased: 2.168
#iterations: 82
currently lose_sum: 0.6870488524436951
time_elpased: 2.133
#iterations: 83
currently lose_sum: 0.675106942653656
time_elpased: 2.164
#iterations: 84
currently lose_sum: 0.6631143689155579
time_elpased: 2.094
#iterations: 85
currently lose_sum: 0.6723921298980713
time_elpased: 2.142
#iterations: 86
currently lose_sum: 0.6519933938980103
time_elpased: 2.096
#iterations: 87
currently lose_sum: 0.6886357665061951
time_elpased: 2.127
#iterations: 88
currently lose_sum: 0.660922646522522
time_elpased: 2.117
#iterations: 89
currently lose_sum: 0.6966602206230164
time_elpased: 2.136
#iterations: 90
currently lose_sum: 0.6764727830886841
time_elpased: 2.106
#iterations: 91
currently lose_sum: 0.6571688652038574
time_elpased: 2.2
#iterations: 92
currently lose_sum: 0.6955317854881287
time_elpased: 2.154
#iterations: 93
currently lose_sum: 0.6868062019348145
time_elpased: 2.103
#iterations: 94
currently lose_sum: 0.6877937316894531
time_elpased: 2.104
#iterations: 95
currently lose_sum: 0.6817874908447266
time_elpased: 2.131
#iterations: 96
currently lose_sum: 0.6798481941223145
time_elpased: 2.129
#iterations: 97
currently lose_sum: 0.6784932017326355
time_elpased: 2.151
#iterations: 98
currently lose_sum: 0.6647732257843018
time_elpased: 2.112
#iterations: 99
currently lose_sum: 0.6824474334716797
time_elpased: 2.087
start validation test
0.5516
0.554640718563
0.584846093133
0.569343065693
0.551141619154
17.005
#iterations: 100
currently lose_sum: 0.6897661089897156
time_elpased: 2.127
#iterations: 101
currently lose_sum: 0.6861383318901062
time_elpased: 2.177
#iterations: 102
currently lose_sum: 0.6884430050849915
time_elpased: 2.094
#iterations: 103
currently lose_sum: 0.6642191410064697
time_elpased: 2.115
#iterations: 104
currently lose_sum: 0.6800304651260376
time_elpased: 2.155
#iterations: 105
currently lose_sum: 0.6614726185798645
time_elpased: 2.15
#iterations: 106
currently lose_sum: 0.6794114708900452
time_elpased: 2.172
#iterations: 107
currently lose_sum: 0.6818476319313049
time_elpased: 2.098
#iterations: 108
currently lose_sum: 0.6874714493751526
time_elpased: 2.171
#iterations: 109
currently lose_sum: 0.6762217879295349
time_elpased: 2.137
#iterations: 110
currently lose_sum: 0.6823378205299377
time_elpased: 2.135
#iterations: 111
currently lose_sum: 0.6926373839378357
time_elpased: 2.202
#iterations: 112
currently lose_sum: 0.6820017099380493
time_elpased: 2.168
#iterations: 113
currently lose_sum: 0.7033164501190186
time_elpased: 2.121
#iterations: 114
currently lose_sum: 0.6974825859069824
time_elpased: 2.207
#iterations: 115
currently lose_sum: 0.6738118529319763
time_elpased: 2.108
#iterations: 116
currently lose_sum: 0.670012354850769
time_elpased: 2.194
#iterations: 117
currently lose_sum: 0.6968241930007935
time_elpased: 2.126
#iterations: 118
currently lose_sum: 0.6609538197517395
time_elpased: 2.106
#iterations: 119
currently lose_sum: 0.6665162444114685
time_elpased: 2.14
start validation test
0.5628
0.563503649635
0.609313338595
0.585513841487
0.562158696873
16.969
#iterations: 120
currently lose_sum: 0.670149564743042
time_elpased: 2.142
#iterations: 121
currently lose_sum: 0.6478486061096191
time_elpased: 2.226
#iterations: 122
currently lose_sum: 0.6627188324928284
time_elpased: 2.161
#iterations: 123
currently lose_sum: 0.6934827566146851
time_elpased: 2.119
#iterations: 124
currently lose_sum: 0.676871657371521
time_elpased: 2.133
#iterations: 125
currently lose_sum: 0.6708962917327881
time_elpased: 2.22
#iterations: 126
currently lose_sum: 0.6741703152656555
time_elpased: 2.134
#iterations: 127
currently lose_sum: 0.6622567772865295
time_elpased: 2.154
#iterations: 128
currently lose_sum: 0.6647012829780579
time_elpased: 2.123
#iterations: 129
currently lose_sum: 0.6454205513000488
time_elpased: 2.142
#iterations: 130
currently lose_sum: 0.6751815676689148
time_elpased: 2.157
#iterations: 131
currently lose_sum: 0.6391573548316956
time_elpased: 2.139
#iterations: 132
currently lose_sum: 0.6607156991958618
time_elpased: 2.074
#iterations: 133
currently lose_sum: 0.725585401058197
time_elpased: 2.101
#iterations: 134
currently lose_sum: 0.697653591632843
time_elpased: 2.094
#iterations: 135
currently lose_sum: 0.6866992712020874
time_elpased: 2.223
#iterations: 136
currently lose_sum: 0.6893330216407776
time_elpased: 2.104
#iterations: 137
currently lose_sum: 0.683449387550354
time_elpased: 2.103
#iterations: 138
currently lose_sum: 0.6469326615333557
time_elpased: 2.11
#iterations: 139
currently lose_sum: 0.6708827018737793
time_elpased: 2.108
start validation test
0.5576
0.56816257409
0.529597474349
0.548202614379
0.557986085106
17.028
#iterations: 140
currently lose_sum: 0.6482720971107483
time_elpased: 2.133
#iterations: 141
currently lose_sum: 0.6852710843086243
time_elpased: 2.079
#iterations: 142
currently lose_sum: 0.6773776412010193
time_elpased: 2.135
#iterations: 143
currently lose_sum: 0.6680119037628174
time_elpased: 2.174
#iterations: 144
currently lose_sum: 0.6625234484672546
time_elpased: 2.103
#iterations: 145
currently lose_sum: 0.6967266798019409
time_elpased: 2.121
#iterations: 146
currently lose_sum: 0.650387167930603
time_elpased: 2.096
#iterations: 147
currently lose_sum: 0.664360761642456
time_elpased: 2.141
#iterations: 148
currently lose_sum: 0.6614668369293213
time_elpased: 2.118
#iterations: 149
currently lose_sum: 0.6717913150787354
time_elpased: 2.173
#iterations: 150
currently lose_sum: 0.6670922636985779
time_elpased: 2.104
#iterations: 151
currently lose_sum: 0.6543715596199036
time_elpased: 2.094
#iterations: 152
currently lose_sum: 0.6758655309677124
time_elpased: 2.122
#iterations: 153
currently lose_sum: 0.6595819592475891
time_elpased: 2.111
#iterations: 154
currently lose_sum: 0.671448290348053
time_elpased: 2.204
#iterations: 155
currently lose_sum: 0.6737757921218872
time_elpased: 2.135
#iterations: 156
currently lose_sum: 0.6919701099395752
time_elpased: 2.105
#iterations: 157
currently lose_sum: 0.6434993743896484
time_elpased: 2.098
#iterations: 158
currently lose_sum: 0.6656062602996826
time_elpased: 2.127
#iterations: 159
currently lose_sum: 0.6857143640518188
time_elpased: 2.149
start validation test
0.5628
0.590248962656
0.44909234412
0.510085163604
0.564367745458
16.905
#iterations: 160
currently lose_sum: 0.6640031337738037
time_elpased: 2.101
#iterations: 161
currently lose_sum: 0.6619837880134583
time_elpased: 2.217
#iterations: 162
currently lose_sum: 0.62471604347229
time_elpased: 2.138
#iterations: 163
currently lose_sum: 0.621249258518219
time_elpased: 2.103
#iterations: 164
currently lose_sum: 0.6897477507591248
time_elpased: 2.332
#iterations: 165
currently lose_sum: 0.6503476500511169
time_elpased: 2.11
#iterations: 166
currently lose_sum: 0.6582922339439392
time_elpased: 2.139
#iterations: 167
currently lose_sum: 0.6650549173355103
time_elpased: 2.123
#iterations: 168
currently lose_sum: 0.6738711595535278
time_elpased: 2.158
#iterations: 169
currently lose_sum: 0.671140730381012
time_elpased: 2.098
#iterations: 170
currently lose_sum: 0.6915382146835327
time_elpased: 2.143
#iterations: 171
currently lose_sum: 0.6613521575927734
time_elpased: 2.08
#iterations: 172
currently lose_sum: 0.643664538860321
time_elpased: 2.197
#iterations: 173
currently lose_sum: 0.6897084712982178
time_elpased: 2.117
#iterations: 174
currently lose_sum: 0.6968116760253906
time_elpased: 2.092
#iterations: 175
currently lose_sum: 0.6570159196853638
time_elpased: 2.137
#iterations: 176
currently lose_sum: 0.6974943280220032
time_elpased: 2.081
#iterations: 177
currently lose_sum: 0.6734762787818909
time_elpased: 2.187
#iterations: 178
currently lose_sum: 0.6555364727973938
time_elpased: 2.158
#iterations: 179
currently lose_sum: 0.6974833607673645
time_elpased: 2.177
start validation test
0.56
0.5568413887
0.645619573796
0.597953216374
0.558819519258
16.954
#iterations: 180
currently lose_sum: 0.6531199812889099
time_elpased: 2.199
#iterations: 181
currently lose_sum: 0.6529279947280884
time_elpased: 2.097
#iterations: 182
currently lose_sum: 0.6756711006164551
time_elpased: 2.183
#iterations: 183
currently lose_sum: 0.6594366431236267
time_elpased: 2.118
#iterations: 184
currently lose_sum: 0.675193190574646
time_elpased: 2.125
#iterations: 185
currently lose_sum: 0.6690677404403687
time_elpased: 2.117
#iterations: 186
currently lose_sum: 0.6680689454078674
time_elpased: 2.212
#iterations: 187
currently lose_sum: 0.6842777132987976
time_elpased: 2.079
#iterations: 188
currently lose_sum: 0.655595064163208
time_elpased: 2.207
#iterations: 189
currently lose_sum: 0.6760227680206299
time_elpased: 2.168
#iterations: 190
currently lose_sum: 0.657968282699585
time_elpased: 2.119
#iterations: 191
currently lose_sum: 0.6782258749008179
time_elpased: 2.131
#iterations: 192
currently lose_sum: 0.6546189785003662
time_elpased: 2.2
#iterations: 193
currently lose_sum: 0.667145311832428
time_elpased: 2.085
#iterations: 194
currently lose_sum: 0.6970800757408142
time_elpased: 2.136
#iterations: 195
currently lose_sum: 0.6670709252357483
time_elpased: 2.106
#iterations: 196
currently lose_sum: 0.6345561742782593
time_elpased: 2.075
#iterations: 197
currently lose_sum: 0.6493054032325745
time_elpased: 2.126
#iterations: 198
currently lose_sum: 0.6234061121940613
time_elpased: 2.17
#iterations: 199
currently lose_sum: 0.7012944221496582
time_elpased: 2.118
start validation test
0.5652
0.580500894454
0.512233622731
0.544234800839
0.565930274464
16.885
#iterations: 200
currently lose_sum: 0.6868950128555298
time_elpased: 2.132
#iterations: 201
currently lose_sum: 0.6782699823379517
time_elpased: 2.121
#iterations: 202
currently lose_sum: 0.6663150787353516
time_elpased: 2.116
#iterations: 203
currently lose_sum: 0.681792676448822
time_elpased: 2.118
#iterations: 204
currently lose_sum: 0.6690806746482849
time_elpased: 2.208
#iterations: 205
currently lose_sum: 0.6926266551017761
time_elpased: 2.118
#iterations: 206
currently lose_sum: 0.6581843495368958
time_elpased: 2.133
#iterations: 207
currently lose_sum: 0.6365928649902344
time_elpased: 2.369
#iterations: 208
currently lose_sum: 0.6707479953765869
time_elpased: 2.124
#iterations: 209
currently lose_sum: 0.6588699221611023
time_elpased: 2.118
#iterations: 210
currently lose_sum: 0.6473844051361084
time_elpased: 2.185
#iterations: 211
currently lose_sum: 0.6354112029075623
time_elpased: 2.141
#iterations: 212
currently lose_sum: 0.663594663143158
time_elpased: 2.159
#iterations: 213
currently lose_sum: 0.6156231760978699
time_elpased: 2.109
#iterations: 214
currently lose_sum: 0.6888176202774048
time_elpased: 2.125
#iterations: 215
currently lose_sum: 0.6363272666931152
time_elpased: 2.163
#iterations: 216
currently lose_sum: 0.6666406989097595
time_elpased: 2.132
#iterations: 217
currently lose_sum: 0.6584702134132385
time_elpased: 2.129
#iterations: 218
currently lose_sum: 0.6646161079406738
time_elpased: 2.264
#iterations: 219
currently lose_sum: 0.659043550491333
time_elpased: 2.117
start validation test
0.5708
0.579508196721
0.558011049724
0.568556493768
0.570976327782
16.944
#iterations: 220
currently lose_sum: 0.6829989552497864
time_elpased: 2.254
#iterations: 221
currently lose_sum: 0.6400103569030762
time_elpased: 2.153
#iterations: 222
currently lose_sum: 0.6708706617355347
time_elpased: 2.103
#iterations: 223
currently lose_sum: 0.6666358709335327
time_elpased: 2.096
#iterations: 224
currently lose_sum: 0.6233832836151123
time_elpased: 2.104
#iterations: 225
currently lose_sum: 0.6694766879081726
time_elpased: 2.08
#iterations: 226
currently lose_sum: 0.6333342790603638
time_elpased: 2.112
#iterations: 227
currently lose_sum: 0.6845180988311768
time_elpased: 2.113
#iterations: 228
currently lose_sum: 0.6903532147407532
time_elpased: 2.095
#iterations: 229
currently lose_sum: 0.6644014120101929
time_elpased: 2.108
#iterations: 230
currently lose_sum: 0.666983425617218
time_elpased: 2.126
#iterations: 231
currently lose_sum: 0.7118943929672241
time_elpased: 2.08
#iterations: 232
currently lose_sum: 0.6336572170257568
time_elpased: 2.179
#iterations: 233
currently lose_sum: 0.6735104322433472
time_elpased: 2.141
#iterations: 234
currently lose_sum: 0.673888623714447
time_elpased: 2.124
#iterations: 235
currently lose_sum: 0.6670827269554138
time_elpased: 2.109
#iterations: 236
currently lose_sum: 0.6314642429351807
time_elpased: 2.132
#iterations: 237
currently lose_sum: 0.657688319683075
time_elpased: 2.123
#iterations: 238
currently lose_sum: 0.6622775793075562
time_elpased: 2.116
#iterations: 239
currently lose_sum: 0.6405203342437744
time_elpased: 2.246
start validation test
0.57
0.561224489796
0.69455406472
0.620811287478
0.56828270957
16.957
#iterations: 240
currently lose_sum: 0.6994102597236633
time_elpased: 2.104
#iterations: 241
currently lose_sum: 0.6595744490623474
time_elpased: 2.135
#iterations: 242
currently lose_sum: 0.6812039017677307
time_elpased: 2.143
#iterations: 243
currently lose_sum: 0.745693027973175
time_elpased: 2.154
#iterations: 244
currently lose_sum: 0.6556017398834229
time_elpased: 2.116
#iterations: 245
currently lose_sum: 0.6587690114974976
time_elpased: 2.123
#iterations: 246
currently lose_sum: 0.6850669980049133
time_elpased: 2.075
#iterations: 247
currently lose_sum: 0.6091253757476807
time_elpased: 2.121
#iterations: 248
currently lose_sum: 0.6539953351020813
time_elpased: 2.263
#iterations: 249
currently lose_sum: 0.6427217721939087
time_elpased: 2.21
#iterations: 250
currently lose_sum: 0.6802173852920532
time_elpased: 2.144
#iterations: 251
currently lose_sum: 0.6902417540550232
time_elpased: 2.157
#iterations: 252
currently lose_sum: 0.6674091219902039
time_elpased: 2.142
#iterations: 253
currently lose_sum: 0.7185816764831543
time_elpased: 2.187
#iterations: 254
currently lose_sum: 0.6564871072769165
time_elpased: 2.075
#iterations: 255
currently lose_sum: 0.662676215171814
time_elpased: 2.095
#iterations: 256
currently lose_sum: 0.6819389462471008
time_elpased: 2.136
#iterations: 257
currently lose_sum: 0.6074371933937073
time_elpased: 2.123
#iterations: 258
currently lose_sum: 0.6701099872589111
time_elpased: 2.133
#iterations: 259
currently lose_sum: 0.6560171246528625
time_elpased: 2.096
start validation test
0.566
0.556875
0.703235990529
0.621555633066
0.564107857389
16.796
#iterations: 260
currently lose_sum: 0.6527824997901917
time_elpased: 2.133
#iterations: 261
currently lose_sum: 0.6247714757919312
time_elpased: 2.185
#iterations: 262
currently lose_sum: 0.6672003269195557
time_elpased: 2.1
#iterations: 263
currently lose_sum: 0.6406223177909851
time_elpased: 2.14
#iterations: 264
currently lose_sum: 0.6884049773216248
time_elpased: 2.184
#iterations: 265
currently lose_sum: 0.634731650352478
time_elpased: 2.141
#iterations: 266
currently lose_sum: 0.6704033017158508
time_elpased: 2.208
#iterations: 267
currently lose_sum: 0.6618392467498779
time_elpased: 2.11
#iterations: 268
currently lose_sum: 0.6528724431991577
time_elpased: 2.085
#iterations: 269
currently lose_sum: 0.6592434048652649
time_elpased: 2.219
#iterations: 270
currently lose_sum: 0.6778810024261475
time_elpased: 2.124
#iterations: 271
currently lose_sum: 0.6400552988052368
time_elpased: 2.076
#iterations: 272
currently lose_sum: 0.6266685724258423
time_elpased: 2.112
#iterations: 273
currently lose_sum: 0.6729608178138733
time_elpased: 2.136
#iterations: 274
currently lose_sum: 0.6416178941726685
time_elpased: 2.154
#iterations: 275
currently lose_sum: 0.6681240797042847
time_elpased: 2.131
#iterations: 276
currently lose_sum: 0.6690706014633179
time_elpased: 2.1
#iterations: 277
currently lose_sum: 0.67450350522995
time_elpased: 2.176
#iterations: 278
currently lose_sum: 0.662382185459137
time_elpased: 2.104
#iterations: 279
currently lose_sum: 0.6615022420883179
time_elpased: 2.112
start validation test
0.562
0.551435406699
0.727703235991
0.627424293978
0.559715364954
17.021
#iterations: 280
currently lose_sum: 0.6699838042259216
time_elpased: 2.108
#iterations: 281
currently lose_sum: 0.6473702192306519
time_elpased: 2.155
#iterations: 282
currently lose_sum: 0.6603457927703857
time_elpased: 2.114
#iterations: 283
currently lose_sum: 0.6413799524307251
time_elpased: 2.094
#iterations: 284
currently lose_sum: 0.6183297634124756
time_elpased: 2.127
#iterations: 285
currently lose_sum: 0.6882364153862
time_elpased: 2.167
#iterations: 286
currently lose_sum: 0.6425784230232239
time_elpased: 2.116
#iterations: 287
currently lose_sum: 0.6662557721138
time_elpased: 2.142
#iterations: 288
currently lose_sum: 0.6591300964355469
time_elpased: 2.102
#iterations: 289
currently lose_sum: 0.6458566188812256
time_elpased: 2.093
#iterations: 290
currently lose_sum: 0.6961519122123718
time_elpased: 2.119
#iterations: 291
currently lose_sum: 0.6573965549468994
time_elpased: 2.1
#iterations: 292
currently lose_sum: 0.6756863594055176
time_elpased: 2.106
#iterations: 293
currently lose_sum: 0.6384338140487671
time_elpased: 2.139
#iterations: 294
currently lose_sum: 0.6500012278556824
time_elpased: 2.123
#iterations: 295
currently lose_sum: 0.6649886965751648
time_elpased: 2.24
#iterations: 296
currently lose_sum: 0.672624409198761
time_elpased: 2.199
#iterations: 297
currently lose_sum: 0.6807665824890137
time_elpased: 2.095
#iterations: 298
currently lose_sum: 0.6362606287002563
time_elpased: 2.109
#iterations: 299
currently lose_sum: 0.6722820401191711
time_elpased: 2.115
start validation test
0.5644
0.576198630137
0.531176006314
0.552772073922
0.56485807615
16.980
#iterations: 300
currently lose_sum: 0.6379799842834473
time_elpased: 2.095
#iterations: 301
currently lose_sum: 0.677844762802124
time_elpased: 2.122
#iterations: 302
currently lose_sum: 0.6387691497802734
time_elpased: 2.125
#iterations: 303
currently lose_sum: 0.6599360704421997
time_elpased: 2.114
#iterations: 304
currently lose_sum: 0.6640859842300415
time_elpased: 2.1
#iterations: 305
currently lose_sum: 0.6981489658355713
time_elpased: 2.2
#iterations: 306
currently lose_sum: 0.6592046618461609
time_elpased: 2.099
#iterations: 307
currently lose_sum: 0.6732536554336548
time_elpased: 2.091
#iterations: 308
currently lose_sum: 0.7083072662353516
time_elpased: 2.098
#iterations: 309
currently lose_sum: 0.663423478603363
time_elpased: 2.155
#iterations: 310
currently lose_sum: 0.6792672872543335
time_elpased: 2.178
#iterations: 311
currently lose_sum: 0.6523311734199524
time_elpased: 2.155
#iterations: 312
currently lose_sum: 0.6914688348770142
time_elpased: 2.091
#iterations: 313
currently lose_sum: 0.6540338397026062
time_elpased: 2.188
#iterations: 314
currently lose_sum: 0.6629736423492432
time_elpased: 2.092
#iterations: 315
currently lose_sum: 0.6550340056419373
time_elpased: 2.095
#iterations: 316
currently lose_sum: 0.6941245794296265
time_elpased: 2.172
#iterations: 317
currently lose_sum: 0.6743832230567932
time_elpased: 2.136
#iterations: 318
currently lose_sum: 0.6610029339790344
time_elpased: 2.173
#iterations: 319
currently lose_sum: 0.6776716113090515
time_elpased: 2.27
start validation test
0.5776
0.58683127572
0.56274664562
0.574536663981
0.577804790774
16.817
#iterations: 320
currently lose_sum: 0.6448233127593994
time_elpased: 2.105
#iterations: 321
currently lose_sum: 0.6352945566177368
time_elpased: 2.169
#iterations: 322
currently lose_sum: 0.6820486187934875
time_elpased: 2.128
#iterations: 323
currently lose_sum: 0.636287271976471
time_elpased: 2.082
#iterations: 324
currently lose_sum: 0.6836234927177429
time_elpased: 2.269
#iterations: 325
currently lose_sum: 0.6361089944839478
time_elpased: 2.147
#iterations: 326
currently lose_sum: 0.6311262249946594
time_elpased: 2.135
#iterations: 327
currently lose_sum: 0.6262366771697998
time_elpased: 2.221
#iterations: 328
currently lose_sum: 0.6605221629142761
time_elpased: 2.187
#iterations: 329
currently lose_sum: 0.6267967820167542
time_elpased: 2.105
#iterations: 330
currently lose_sum: 0.6481820940971375
time_elpased: 2.097
#iterations: 331
currently lose_sum: 0.6317819952964783
time_elpased: 2.094
#iterations: 332
currently lose_sum: 0.6770063638687134
time_elpased: 2.09
#iterations: 333
currently lose_sum: 0.6412745714187622
time_elpased: 2.089
#iterations: 334
currently lose_sum: 0.6905752420425415
time_elpased: 2.105
#iterations: 335
currently lose_sum: 0.610630214214325
time_elpased: 2.169
#iterations: 336
currently lose_sum: 0.6635499596595764
time_elpased: 2.243
#iterations: 337
currently lose_sum: 0.6688346266746521
time_elpased: 2.144
#iterations: 338
currently lose_sum: 0.6744987964630127
time_elpased: 2.123
#iterations: 339
currently lose_sum: 0.6559255123138428
time_elpased: 2.151
start validation test
0.5812
0.570967741935
0.698500394633
0.62832800852
0.57958271962
16.922
#iterations: 340
currently lose_sum: 0.6711110472679138
time_elpased: 2.15
#iterations: 341
currently lose_sum: 0.6807209253311157
time_elpased: 2.094
#iterations: 342
currently lose_sum: 0.6690576076507568
time_elpased: 2.13
#iterations: 343
currently lose_sum: 0.6531803607940674
time_elpased: 2.11
#iterations: 344
currently lose_sum: 0.6803819537162781
time_elpased: 2.13
#iterations: 345
currently lose_sum: 0.6321204900741577
time_elpased: 2.107
#iterations: 346
currently lose_sum: 0.6502043008804321
time_elpased: 2.117
#iterations: 347
currently lose_sum: 0.6320821642875671
time_elpased: 2.146
#iterations: 348
currently lose_sum: 0.6233925819396973
time_elpased: 2.103
#iterations: 349
currently lose_sum: 0.696239173412323
time_elpased: 2.128
#iterations: 350
currently lose_sum: 0.7290499210357666
time_elpased: 2.086
#iterations: 351
currently lose_sum: 0.6503352522850037
time_elpased: 2.131
#iterations: 352
currently lose_sum: 0.6688737273216248
time_elpased: 2.1
#iterations: 353
currently lose_sum: 0.6684776544570923
time_elpased: 2.115
#iterations: 354
currently lose_sum: 0.6109635829925537
time_elpased: 2.145
#iterations: 355
currently lose_sum: 0.58866286277771
time_elpased: 2.129
#iterations: 356
currently lose_sum: 0.634164035320282
time_elpased: 2.118
#iterations: 357
currently lose_sum: 0.6315677165985107
time_elpased: 2.082
#iterations: 358
currently lose_sum: 0.5917473435401917
time_elpased: 2.094
#iterations: 359
currently lose_sum: 0.6547911167144775
time_elpased: 2.165
start validation test
0.5724
0.582362728785
0.552486187845
0.567031186715
0.572674561887
16.749
#iterations: 360
currently lose_sum: 0.7017989158630371
time_elpased: 2.112
#iterations: 361
currently lose_sum: 0.590741753578186
time_elpased: 2.107
#iterations: 362
currently lose_sum: 0.6536746025085449
time_elpased: 2.104
#iterations: 363
currently lose_sum: 0.6369854807853699
time_elpased: 2.205
#iterations: 364
currently lose_sum: 0.6335471272468567
time_elpased: 2.244
#iterations: 365
currently lose_sum: 0.6364256143569946
time_elpased: 2.138
#iterations: 366
currently lose_sum: 0.6731916666030884
time_elpased: 2.162
#iterations: 367
currently lose_sum: 0.6776003837585449
time_elpased: 2.133
#iterations: 368
currently lose_sum: 0.6613067388534546
time_elpased: 2.105
#iterations: 369
currently lose_sum: 0.6436017751693726
time_elpased: 2.148
#iterations: 370
currently lose_sum: 0.6093071699142456
time_elpased: 2.162
#iterations: 371
currently lose_sum: 0.65091872215271
time_elpased: 2.147
#iterations: 372
currently lose_sum: 0.6563240885734558
time_elpased: 2.138
#iterations: 373
currently lose_sum: 0.6507992744445801
time_elpased: 2.137
#iterations: 374
currently lose_sum: 0.6384308338165283
time_elpased: 2.203
#iterations: 375
currently lose_sum: 0.6709081530570984
time_elpased: 2.173
#iterations: 376
currently lose_sum: 0.6780900359153748
time_elpased: 2.152
#iterations: 377
currently lose_sum: 0.6556146740913391
time_elpased: 2.135
#iterations: 378
currently lose_sum: 0.5785552263259888
time_elpased: 2.102
#iterations: 379
currently lose_sum: 0.6196655035018921
time_elpased: 2.13
start validation test
0.5724
0.597058823529
0.480662983425
0.532575426323
0.573664825046
16.992
#iterations: 380
currently lose_sum: 0.6558387875556946
time_elpased: 2.152
#iterations: 381
currently lose_sum: 0.6614881157875061
time_elpased: 2.197
#iterations: 382
currently lose_sum: 0.6575590372085571
time_elpased: 2.075
#iterations: 383
currently lose_sum: 0.678230881690979
time_elpased: 2.173
#iterations: 384
currently lose_sum: 0.6587833166122437
time_elpased: 2.128
#iterations: 385
currently lose_sum: 0.6159932613372803
time_elpased: 2.096
#iterations: 386
currently lose_sum: 0.6771477460861206
time_elpased: 2.157
#iterations: 387
currently lose_sum: 0.6555107831954956
time_elpased: 2.172
#iterations: 388
currently lose_sum: 0.6327569484710693
time_elpased: 2.158
#iterations: 389
currently lose_sum: 0.6387715339660645
time_elpased: 2.106
#iterations: 390
currently lose_sum: 0.6461248993873596
time_elpased: 2.098
#iterations: 391
currently lose_sum: 0.6936425566673279
time_elpased: 2.122
#iterations: 392
currently lose_sum: 0.6618568301200867
time_elpased: 2.111
#iterations: 393
currently lose_sum: 0.682420015335083
time_elpased: 2.129
#iterations: 394
currently lose_sum: 0.6425068378448486
time_elpased: 2.131
#iterations: 395
currently lose_sum: 0.6841232180595398
time_elpased: 2.135
#iterations: 396
currently lose_sum: 0.6464821100234985
time_elpased: 2.211
#iterations: 397
currently lose_sum: 0.6622374057769775
time_elpased: 2.106
#iterations: 398
currently lose_sum: 0.6626483201980591
time_elpased: 2.075
#iterations: 399
currently lose_sum: 0.6500517129898071
time_elpased: 2.117
start validation test
0.5816
0.585858585859
0.595106550908
0.590446358653
0.581413778292
16.756
#iterations: 400
currently lose_sum: 0.6525488495826721
time_elpased: 2.166
#iterations: 401
currently lose_sum: 0.6403918266296387
time_elpased: 2.201
#iterations: 402
currently lose_sum: 0.6687436103820801
time_elpased: 2.072
#iterations: 403
currently lose_sum: 0.6581191420555115
time_elpased: 2.161
#iterations: 404
currently lose_sum: 0.693769097328186
time_elpased: 2.127
#iterations: 405
currently lose_sum: 0.6556997895240784
time_elpased: 2.137
#iterations: 406
currently lose_sum: 0.6298764944076538
time_elpased: 2.109
#iterations: 407
currently lose_sum: 0.6846950054168701
time_elpased: 2.076
#iterations: 408
currently lose_sum: 0.6489055156707764
time_elpased: 2.093
#iterations: 409
currently lose_sum: 0.6467604041099548
time_elpased: 2.123
#iterations: 410
currently lose_sum: 0.6768760681152344
time_elpased: 2.184
#iterations: 411
currently lose_sum: 0.6460314393043518
time_elpased: 2.131
#iterations: 412
currently lose_sum: 0.6875067949295044
time_elpased: 2.106
#iterations: 413
currently lose_sum: 0.6532478928565979
time_elpased: 2.121
#iterations: 414
currently lose_sum: 0.6484129428863525
time_elpased: 2.125
#iterations: 415
currently lose_sum: 0.6910021901130676
time_elpased: 2.112
#iterations: 416
currently lose_sum: 0.6140690445899963
time_elpased: 2.135
#iterations: 417
currently lose_sum: 0.6408211588859558
time_elpased: 2.219
#iterations: 418
currently lose_sum: 0.6219692230224609
time_elpased: 2.122
#iterations: 419
currently lose_sum: 0.6535349488258362
time_elpased: 2.261
start validation test
0.5696
0.61355529132
0.40726124704
0.489563567362
0.571838247202
16.919
#iterations: 420
currently lose_sum: 0.635728657245636
time_elpased: 2.196
#iterations: 421
currently lose_sum: 0.6420800685882568
time_elpased: 2.077
#iterations: 422
currently lose_sum: 0.645270824432373
time_elpased: 2.083
#iterations: 423
currently lose_sum: 0.6509012579917908
time_elpased: 2.118
#iterations: 424
currently lose_sum: 0.6391522884368896
time_elpased: 2.1
#iterations: 425
currently lose_sum: 0.6438647508621216
time_elpased: 2.148
#iterations: 426
currently lose_sum: 0.6569761633872986
time_elpased: 2.116
#iterations: 427
currently lose_sum: 0.6497666835784912
time_elpased: 2.105
#iterations: 428
currently lose_sum: 0.671857476234436
time_elpased: 2.127
#iterations: 429
currently lose_sum: 0.6722657084465027
time_elpased: 2.085
#iterations: 430
currently lose_sum: 0.7134263515472412
time_elpased: 2.125
#iterations: 431
currently lose_sum: 0.6418182849884033
time_elpased: 2.181
#iterations: 432
currently lose_sum: 0.6011297702789307
time_elpased: 2.103
#iterations: 433
currently lose_sum: 0.6803634762763977
time_elpased: 2.127
#iterations: 434
currently lose_sum: 0.6397480964660645
time_elpased: 2.103
#iterations: 435
currently lose_sum: 0.6208727955818176
time_elpased: 2.202
#iterations: 436
currently lose_sum: 0.6519200205802917
time_elpased: 2.123
#iterations: 437
currently lose_sum: 0.5924192070960999
time_elpased: 2.117
#iterations: 438
currently lose_sum: 0.6282100677490234
time_elpased: 2.115
#iterations: 439
currently lose_sum: 0.609365701675415
time_elpased: 2.15
start validation test
0.5824
0.59982094897
0.528808208366
0.562080536913
0.58313889737
16.789
#iterations: 440
currently lose_sum: 0.6497353911399841
time_elpased: 2.065
#iterations: 441
currently lose_sum: 0.633604109287262
time_elpased: 2.125
#iterations: 442
currently lose_sum: 0.6274537444114685
time_elpased: 2.117
#iterations: 443
currently lose_sum: 0.6285478472709656
time_elpased: 2.182
#iterations: 444
currently lose_sum: 0.6360636353492737
time_elpased: 2.112
#iterations: 445
currently lose_sum: 0.6450855731964111
time_elpased: 2.118
#iterations: 446
currently lose_sum: 0.6474618315696716
time_elpased: 2.125
#iterations: 447
currently lose_sum: 0.6761146783828735
time_elpased: 2.139
#iterations: 448
currently lose_sum: 0.6618304252624512
time_elpased: 2.15
#iterations: 449
currently lose_sum: 0.6358739733695984
time_elpased: 2.07
#iterations: 450
currently lose_sum: 0.624886691570282
time_elpased: 2.157
#iterations: 451
currently lose_sum: 0.6684211492538452
time_elpased: 2.08
#iterations: 452
currently lose_sum: 0.6220483779907227
time_elpased: 2.105
#iterations: 453
currently lose_sum: 0.6601923108100891
time_elpased: 2.113
#iterations: 454
currently lose_sum: 0.7106224298477173
time_elpased: 2.108
#iterations: 455
currently lose_sum: 0.6804412603378296
time_elpased: 2.099
#iterations: 456
currently lose_sum: 0.6265683770179749
time_elpased: 2.106
#iterations: 457
currently lose_sum: 0.6809402704238892
time_elpased: 2.084
#iterations: 458
currently lose_sum: 0.694807767868042
time_elpased: 2.163
#iterations: 459
currently lose_sum: 0.6985612511634827
time_elpased: 2.163
start validation test
0.5776
0.61631753032
0.441199684294
0.514259429623
0.579480620736
16.885
#iterations: 460
currently lose_sum: 0.6354458332061768
time_elpased: 2.101
#iterations: 461
currently lose_sum: 0.6469919681549072
time_elpased: 2.117
#iterations: 462
currently lose_sum: 0.6594570875167847
time_elpased: 2.154
#iterations: 463
currently lose_sum: 0.666823148727417
time_elpased: 2.158
#iterations: 464
currently lose_sum: 0.6462565064430237
time_elpased: 2.142
#iterations: 465
currently lose_sum: 0.6602752208709717
time_elpased: 2.209
#iterations: 466
currently lose_sum: 0.6627265810966492
time_elpased: 2.177
#iterations: 467
currently lose_sum: 0.6560317873954773
time_elpased: 2.155
#iterations: 468
currently lose_sum: 0.6287524104118347
time_elpased: 2.19
#iterations: 469
currently lose_sum: 0.6573620438575745
time_elpased: 2.208
#iterations: 470
currently lose_sum: 0.5874320864677429
time_elpased: 2.139
#iterations: 471
currently lose_sum: 0.6023005843162537
time_elpased: 2.174
#iterations: 472
currently lose_sum: 0.5993176102638245
time_elpased: 2.117
#iterations: 473
currently lose_sum: 0.6503634452819824
time_elpased: 2.147
#iterations: 474
currently lose_sum: 0.6450821757316589
time_elpased: 2.085
#iterations: 475
currently lose_sum: 0.678477942943573
time_elpased: 2.139
#iterations: 476
currently lose_sum: 0.6767594218254089
time_elpased: 2.125
#iterations: 477
currently lose_sum: 0.6866101026535034
time_elpased: 2.132
#iterations: 478
currently lose_sum: 0.6651757955551147
time_elpased: 2.091
#iterations: 479
currently lose_sum: 0.6847615242004395
time_elpased: 2.131
start validation test
0.5652
0.634328358209
0.33543804262
0.438822922044
0.568367845317
17.031
#iterations: 480
currently lose_sum: 0.6346583962440491
time_elpased: 2.128
#iterations: 481
currently lose_sum: 0.6624858975410461
time_elpased: 2.15
#iterations: 482
currently lose_sum: 0.6363332867622375
time_elpased: 2.126
#iterations: 483
currently lose_sum: 0.6790522933006287
time_elpased: 2.162
#iterations: 484
currently lose_sum: 0.6445550322532654
time_elpased: 2.187
#iterations: 485
currently lose_sum: 0.622929573059082
time_elpased: 2.122
#iterations: 486
currently lose_sum: 0.630501389503479
time_elpased: 2.198
#iterations: 487
currently lose_sum: 0.6186747550964355
time_elpased: 2.13
#iterations: 488
currently lose_sum: 0.6529812812805176
time_elpased: 2.068
#iterations: 489
currently lose_sum: 0.6917123198509216
time_elpased: 2.16
#iterations: 490
currently lose_sum: 0.6876553297042847
time_elpased: 2.128
#iterations: 491
currently lose_sum: 0.6451495289802551
time_elpased: 2.106
#iterations: 492
currently lose_sum: 0.6618650555610657
time_elpased: 2.134
#iterations: 493
currently lose_sum: 0.6389288306236267
time_elpased: 2.228
#iterations: 494
currently lose_sum: 0.6733213663101196
time_elpased: 2.104
#iterations: 495
currently lose_sum: 0.6759312152862549
time_elpased: 2.134
#iterations: 496
currently lose_sum: 0.6416006684303284
time_elpased: 2.098
#iterations: 497
currently lose_sum: 0.6176702976226807
time_elpased: 2.106
#iterations: 498
currently lose_sum: 0.7051980495452881
time_elpased: 2.275
#iterations: 499
currently lose_sum: 0.6849804520606995
time_elpased: 2.066
start validation test
0.5816
0.60635226179
0.497237569061
0.546400693842
0.582763147872
16.794
#iterations: 500
currently lose_sum: 0.5916428565979004
time_elpased: 2.196
#iterations: 501
currently lose_sum: 0.6159283518791199
time_elpased: 2.165
#iterations: 502
currently lose_sum: 0.6500540375709534
time_elpased: 2.163
#iterations: 503
currently lose_sum: 0.628817081451416
time_elpased: 2.159
#iterations: 504
currently lose_sum: 0.6674469113349915
time_elpased: 2.117
#iterations: 505
currently lose_sum: 0.6863656044006348
time_elpased: 2.089
#iterations: 506
currently lose_sum: 0.6753968596458435
time_elpased: 2.114
#iterations: 507
currently lose_sum: 0.6702332496643066
time_elpased: 2.147
#iterations: 508
currently lose_sum: 0.6481895446777344
time_elpased: 2.137
#iterations: 509
currently lose_sum: 0.6167547106742859
time_elpased: 2.123
#iterations: 510
currently lose_sum: 0.6216878294944763
time_elpased: 2.144
#iterations: 511
currently lose_sum: 0.652341902256012
time_elpased: 2.145
#iterations: 512
currently lose_sum: 0.6457197666168213
time_elpased: 2.156
#iterations: 513
currently lose_sum: 0.6544802188873291
time_elpased: 2.162
#iterations: 514
currently lose_sum: 0.6837531924247742
time_elpased: 2.105
#iterations: 515
currently lose_sum: 0.6301146149635315
time_elpased: 2.113
#iterations: 516
currently lose_sum: 0.6338247656822205
time_elpased: 2.115
#iterations: 517
currently lose_sum: 0.6533429026603699
time_elpased: 2.089
#iterations: 518
currently lose_sum: 0.6445655226707458
time_elpased: 2.094
#iterations: 519
currently lose_sum: 0.6556980609893799
time_elpased: 2.146
start validation test
0.5728
0.623910336239
0.395422257301
0.484057971014
0.575245597426
16.950
#iterations: 520
currently lose_sum: 0.6972653269767761
time_elpased: 2.14
#iterations: 521
currently lose_sum: 0.6525932550430298
time_elpased: 2.173
#iterations: 522
currently lose_sum: 0.6682785153388977
time_elpased: 2.211
#iterations: 523
currently lose_sum: 0.6540454030036926
time_elpased: 2.171
#iterations: 524
currently lose_sum: 0.6395254731178284
time_elpased: 2.101
#iterations: 525
currently lose_sum: 0.6907675266265869
time_elpased: 2.151
#iterations: 526
currently lose_sum: 0.662505030632019
time_elpased: 2.098
#iterations: 527
currently lose_sum: 0.6418983936309814
time_elpased: 2.105
#iterations: 528
currently lose_sum: 0.6392130851745605
time_elpased: 2.114
#iterations: 529
currently lose_sum: 0.6251651644706726
time_elpased: 2.12
#iterations: 530
currently lose_sum: 0.6353805661201477
time_elpased: 2.138
#iterations: 531
currently lose_sum: 0.6074966192245483
time_elpased: 2.109
#iterations: 532
currently lose_sum: 0.661927342414856
time_elpased: 2.098
#iterations: 533
currently lose_sum: 0.6351337432861328
time_elpased: 2.124
#iterations: 534
currently lose_sum: 0.5977542400360107
time_elpased: 2.116
#iterations: 535
currently lose_sum: 0.6768568158149719
time_elpased: 2.138
#iterations: 536
currently lose_sum: 0.6442680358886719
time_elpased: 2.153
#iterations: 537
currently lose_sum: 0.6301202178001404
time_elpased: 2.12
#iterations: 538
currently lose_sum: 0.65216463804245
time_elpased: 2.101
#iterations: 539
currently lose_sum: 0.648476243019104
time_elpased: 2.175
start validation test
0.584
0.623773173391
0.451460142068
0.52380952381
0.585827394635
16.842
#iterations: 540
currently lose_sum: 0.6947087049484253
time_elpased: 2.132
#iterations: 541
currently lose_sum: 0.6678985357284546
time_elpased: 2.254
#iterations: 542
currently lose_sum: 0.6498187780380249
time_elpased: 2.159
#iterations: 543
currently lose_sum: 0.6209850907325745
time_elpased: 2.113
#iterations: 544
currently lose_sum: 0.6269222497940063
time_elpased: 2.162
#iterations: 545
currently lose_sum: 0.6256975531578064
time_elpased: 2.133
#iterations: 546
currently lose_sum: 0.5914777517318726
time_elpased: 2.104
#iterations: 547
currently lose_sum: 0.6798406839370728
time_elpased: 2.165
#iterations: 548
currently lose_sum: 0.6309630870819092
time_elpased: 2.203
#iterations: 549
currently lose_sum: 0.6585689783096313
time_elpased: 2.114
#iterations: 550
currently lose_sum: 0.632460355758667
time_elpased: 2.112
#iterations: 551
currently lose_sum: 0.6448114514350891
time_elpased: 2.131
#iterations: 552
currently lose_sum: 0.6364179849624634
time_elpased: 2.208
#iterations: 553
currently lose_sum: 0.6329070925712585
time_elpased: 2.151
#iterations: 554
currently lose_sum: 0.6608688831329346
time_elpased: 2.125
#iterations: 555
currently lose_sum: 0.6478758454322815
time_elpased: 2.127
#iterations: 556
currently lose_sum: 0.6180606484413147
time_elpased: 2.141
#iterations: 557
currently lose_sum: 0.6633537411689758
time_elpased: 2.243
#iterations: 558
currently lose_sum: 0.6705658435821533
time_elpased: 2.183
#iterations: 559
currently lose_sum: 0.5961636304855347
time_elpased: 2.093
start validation test
0.5676
0.622368421053
0.373322809787
0.466699555994
0.57027859873
16.959
#iterations: 560
currently lose_sum: 0.6846828460693359
time_elpased: 2.165
#iterations: 561
currently lose_sum: 0.6553727984428406
time_elpased: 2.12
#iterations: 562
currently lose_sum: 0.6415656805038452
time_elpased: 2.206
#iterations: 563
currently lose_sum: 0.5926041603088379
time_elpased: 2.121
#iterations: 564
currently lose_sum: 0.6699325442314148
time_elpased: 2.233
#iterations: 565
currently lose_sum: 0.663815438747406
time_elpased: 2.163
#iterations: 566
currently lose_sum: 0.6482627987861633
time_elpased: 2.11
#iterations: 567
currently lose_sum: 0.7252964973449707
time_elpased: 2.173
#iterations: 568
currently lose_sum: 0.6822953224182129
time_elpased: 2.249
#iterations: 569
currently lose_sum: 0.6443844437599182
time_elpased: 2.097
#iterations: 570
currently lose_sum: 0.6503676772117615
time_elpased: 2.149
#iterations: 571
currently lose_sum: 0.6122822761535645
time_elpased: 2.152
#iterations: 572
currently lose_sum: 0.6260955333709717
time_elpased: 2.119
#iterations: 573
currently lose_sum: 0.6624464392662048
time_elpased: 2.162
#iterations: 574
currently lose_sum: 0.5985428094863892
time_elpased: 2.128
#iterations: 575
currently lose_sum: 0.6371467113494873
time_elpased: 2.164
#iterations: 576
currently lose_sum: 0.6699400544166565
time_elpased: 2.117
#iterations: 577
currently lose_sum: 0.660993218421936
time_elpased: 2.149
#iterations: 578
currently lose_sum: 0.5968432426452637
time_elpased: 2.247
#iterations: 579
currently lose_sum: 0.6137961745262146
time_elpased: 2.116
start validation test
0.5688
0.619167717528
0.387529597474
0.476699029126
0.571299267513
17.095
#iterations: 580
currently lose_sum: 0.6307403445243835
time_elpased: 2.195
#iterations: 581
currently lose_sum: 0.6530098915100098
time_elpased: 2.121
#iterations: 582
currently lose_sum: 0.664783775806427
time_elpased: 2.125
#iterations: 583
currently lose_sum: 0.6025186777114868
time_elpased: 2.075
#iterations: 584
currently lose_sum: 0.6648954749107361
time_elpased: 2.124
#iterations: 585
currently lose_sum: 0.6803289651870728
time_elpased: 2.149
#iterations: 586
currently lose_sum: 0.6656657457351685
time_elpased: 2.127
#iterations: 587
currently lose_sum: 0.6459720134735107
time_elpased: 2.137
#iterations: 588
currently lose_sum: 0.6258384585380554
time_elpased: 2.101
#iterations: 589
currently lose_sum: 0.6370058059692383
time_elpased: 2.193
#iterations: 590
currently lose_sum: 0.660251796245575
time_elpased: 2.117
#iterations: 591
currently lose_sum: 0.6480944752693176
time_elpased: 2.151
#iterations: 592
currently lose_sum: 0.6044583320617676
time_elpased: 2.108
#iterations: 593
currently lose_sum: 0.7006310820579529
time_elpased: 2.115
#iterations: 594
currently lose_sum: 0.6385676264762878
time_elpased: 2.181
#iterations: 595
currently lose_sum: 0.6257179975509644
time_elpased: 2.101
#iterations: 596
currently lose_sum: 0.6678704619407654
time_elpased: 2.185
#iterations: 597
currently lose_sum: 0.6556200981140137
time_elpased: 2.118
#iterations: 598
currently lose_sum: 0.6488415598869324
time_elpased: 2.115
#iterations: 599
currently lose_sum: 0.6384872198104858
time_elpased: 2.143
start validation test
0.5888
0.599832915622
0.566692975533
0.582792207792
0.589104800824
16.756
acc: 0.596
pre: 0.631
rec: 0.489
F1: 0.551
auc: 0.598
