start to construct computing graph
graph construct over
3804
epochs start
#iterations: 0
currently lose_sum: 0.6932379007339478
time_elpased: 5.538
#iterations: 1
currently lose_sum: 0.6920332908630371
time_elpased: 5.473
#iterations: 2
currently lose_sum: 0.6905133128166199
time_elpased: 5.612
#iterations: 3
currently lose_sum: 0.6924285888671875
time_elpased: 5.489
#iterations: 4
currently lose_sum: 0.6904509663581848
time_elpased: 5.559
#iterations: 5
currently lose_sum: 0.6946862936019897
time_elpased: 5.555
#iterations: 6
currently lose_sum: 0.6998183727264404
time_elpased: 5.462
#iterations: 7
currently lose_sum: 0.6931213140487671
time_elpased: 5.491
#iterations: 8
currently lose_sum: 0.6914650201797485
time_elpased: 5.564
#iterations: 9
currently lose_sum: 0.6893438696861267
time_elpased: 5.473
#iterations: 10
currently lose_sum: 0.6900084018707275
time_elpased: 5.444
#iterations: 11
currently lose_sum: 0.6884446740150452
time_elpased: 5.438
#iterations: 12
currently lose_sum: 0.6930223703384399
time_elpased: 5.518
#iterations: 13
currently lose_sum: 0.6885859966278076
time_elpased: 5.571
#iterations: 14
currently lose_sum: 0.6943196654319763
time_elpased: 5.555
#iterations: 15
currently lose_sum: 0.6874411702156067
time_elpased: 5.531
#iterations: 16
currently lose_sum: 0.6949067115783691
time_elpased: 5.418
#iterations: 17
currently lose_sum: 0.6952648162841797
time_elpased: 5.509
#iterations: 18
currently lose_sum: 0.6909282207489014
time_elpased: 5.473
#iterations: 19
currently lose_sum: 0.6906437873840332
time_elpased: 5.497
start validation test
0.5208
0.587786259542
0.182320441989
0.278313253012
0.525466790338
17.326
#iterations: 20
currently lose_sum: 0.6978880167007446
time_elpased: 4.88
#iterations: 21
currently lose_sum: 0.6814008951187134
time_elpased: 4.864
#iterations: 22
currently lose_sum: 0.6881564259529114
time_elpased: 4.816
#iterations: 23
currently lose_sum: 0.6935063004493713
time_elpased: 4.824
#iterations: 24
currently lose_sum: 0.6787886023521423
time_elpased: 4.95
#iterations: 25
currently lose_sum: 0.6828520894050598
time_elpased: 4.884
#iterations: 26
currently lose_sum: 0.7184760570526123
time_elpased: 4.795
#iterations: 27
currently lose_sum: 0.6920320391654968
time_elpased: 4.88
#iterations: 28
currently lose_sum: 0.6864755153656006
time_elpased: 4.898
#iterations: 29
currently lose_sum: 0.6894090175628662
time_elpased: 4.797
#iterations: 30
currently lose_sum: 0.6838876605033875
time_elpased: 4.83
#iterations: 31
currently lose_sum: 0.6940969824790955
time_elpased: 4.802
#iterations: 32
currently lose_sum: 0.680752158164978
time_elpased: 4.818
#iterations: 33
currently lose_sum: 0.6916713714599609
time_elpased: 4.839
#iterations: 34
currently lose_sum: 0.706291675567627
time_elpased: 4.855
#iterations: 35
currently lose_sum: 0.7144554257392883
time_elpased: 4.879
#iterations: 36
currently lose_sum: 0.6890773773193359
time_elpased: 4.816
#iterations: 37
currently lose_sum: 0.6878275871276855
time_elpased: 4.865
#iterations: 38
currently lose_sum: 0.6870653033256531
time_elpased: 4.834
#iterations: 39
currently lose_sum: 0.6922217011451721
time_elpased: 4.793
start validation test
0.5196
0.646017699115
0.115232833465
0.195579370395
0.525175216408
17.314
#iterations: 40
currently lose_sum: 0.6766419410705566
time_elpased: 5.002
#iterations: 41
currently lose_sum: 0.6872523427009583
time_elpased: 4.8
#iterations: 42
currently lose_sum: 0.6980764865875244
time_elpased: 4.863
#iterations: 43
currently lose_sum: 0.6782112121582031
time_elpased: 4.86
#iterations: 44
currently lose_sum: 0.6950794458389282
time_elpased: 4.878
#iterations: 45
currently lose_sum: 0.6853642463684082
time_elpased: 4.879
#iterations: 46
currently lose_sum: 0.6705490946769714
time_elpased: 4.821
#iterations: 47
currently lose_sum: 0.6811509728431702
time_elpased: 4.828
#iterations: 48
currently lose_sum: 0.6752837896347046
time_elpased: 4.758
#iterations: 49
currently lose_sum: 0.6917941570281982
time_elpased: 4.828
#iterations: 50
currently lose_sum: 0.6957547664642334
time_elpased: 4.787
#iterations: 51
currently lose_sum: 0.7185214757919312
time_elpased: 4.87
#iterations: 52
currently lose_sum: 0.6973151564598083
time_elpased: 4.92
#iterations: 53
currently lose_sum: 0.688978374004364
time_elpased: 4.768
#iterations: 54
currently lose_sum: 0.6857804656028748
time_elpased: 4.811
#iterations: 55
currently lose_sum: 0.6721753478050232
time_elpased: 4.789
#iterations: 56
currently lose_sum: 0.7059953212738037
time_elpased: 4.763
#iterations: 57
currently lose_sum: 0.6958878040313721
time_elpased: 4.819
#iterations: 58
currently lose_sum: 0.6919727921485901
time_elpased: 4.796
#iterations: 59
currently lose_sum: 0.6843234896659851
time_elpased: 4.762
start validation test
0.5408
0.553846153846
0.483030781373
0.516020236088
0.541596493687
17.091
#iterations: 60
currently lose_sum: 0.686168909072876
time_elpased: 4.816
#iterations: 61
currently lose_sum: 0.6850519776344299
time_elpased: 4.813
#iterations: 62
currently lose_sum: 0.697755753993988
time_elpased: 4.824
#iterations: 63
currently lose_sum: 0.6693817377090454
time_elpased: 4.821
#iterations: 64
currently lose_sum: 0.6771484613418579
time_elpased: 4.832
#iterations: 65
currently lose_sum: 0.6846662759780884
time_elpased: 4.801
#iterations: 66
currently lose_sum: 0.6800218820571899
time_elpased: 4.853
#iterations: 67
currently lose_sum: 0.6906152963638306
time_elpased: 4.844
#iterations: 68
currently lose_sum: 0.673114001750946
time_elpased: 4.829
#iterations: 69
currently lose_sum: 0.6754365563392639
time_elpased: 4.754
#iterations: 70
currently lose_sum: 0.6814337968826294
time_elpased: 4.924
#iterations: 71
currently lose_sum: 0.6854564547538757
time_elpased: 4.858
#iterations: 72
currently lose_sum: 0.6808766722679138
time_elpased: 4.816
#iterations: 73
currently lose_sum: 0.6831978559494019
time_elpased: 4.837
#iterations: 74
currently lose_sum: 0.6717411875724792
time_elpased: 4.729
#iterations: 75
currently lose_sum: 0.6980698108673096
time_elpased: 4.944
#iterations: 76
currently lose_sum: 0.6903953552246094
time_elpased: 4.811
#iterations: 77
currently lose_sum: 0.6941283345222473
time_elpased: 4.791
#iterations: 78
currently lose_sum: 0.6887214779853821
time_elpased: 4.763
#iterations: 79
currently lose_sum: 0.6775087118148804
time_elpased: 4.831
start validation test
0.538
0.531567080045
0.744277821626
0.620190726735
0.535155942443
17.109
#iterations: 80
currently lose_sum: 0.6981216669082642
time_elpased: 4.877
#iterations: 81
currently lose_sum: 0.6932986378669739
time_elpased: 4.902
#iterations: 82
currently lose_sum: 0.7031388878822327
time_elpased: 4.835
#iterations: 83
currently lose_sum: 0.6805530786514282
time_elpased: 4.858
#iterations: 84
currently lose_sum: 0.669616162776947
time_elpased: 4.829
#iterations: 85
currently lose_sum: 0.6878257989883423
time_elpased: 4.846
#iterations: 86
currently lose_sum: 0.6541283130645752
time_elpased: 4.799
#iterations: 87
currently lose_sum: 0.6921008229255676
time_elpased: 4.803
#iterations: 88
currently lose_sum: 0.6676228046417236
time_elpased: 4.82
#iterations: 89
currently lose_sum: 0.7135992646217346
time_elpased: 4.79
#iterations: 90
currently lose_sum: 0.6759280562400818
time_elpased: 4.769
#iterations: 91
currently lose_sum: 0.674522340297699
time_elpased: 4.91
#iterations: 92
currently lose_sum: 0.6864123344421387
time_elpased: 4.857
#iterations: 93
currently lose_sum: 0.6860830783843994
time_elpased: 4.856
#iterations: 94
currently lose_sum: 0.6862760782241821
time_elpased: 4.763
#iterations: 95
currently lose_sum: 0.6836367845535278
time_elpased: 4.795
#iterations: 96
currently lose_sum: 0.6815330386161804
time_elpased: 4.753
#iterations: 97
currently lose_sum: 0.687010645866394
time_elpased: 4.839
#iterations: 98
currently lose_sum: 0.6588836908340454
time_elpased: 4.865
#iterations: 99
currently lose_sum: 0.6837490797042847
time_elpased: 4.908
start validation test
0.5396
0.575916230366
0.34727703236
0.433284096504
0.542251654866
17.161
#iterations: 100
currently lose_sum: 0.6856467723846436
time_elpased: 4.808
#iterations: 101
currently lose_sum: 0.6866679191589355
time_elpased: 4.9
#iterations: 102
currently lose_sum: 0.6916468739509583
time_elpased: 4.807
#iterations: 103
currently lose_sum: 0.6602848172187805
time_elpased: 4.796
#iterations: 104
currently lose_sum: 0.6937640309333801
time_elpased: 4.847
#iterations: 105
currently lose_sum: 0.6627587080001831
time_elpased: 4.843
#iterations: 106
currently lose_sum: 0.6833986639976501
time_elpased: 4.846
#iterations: 107
currently lose_sum: 0.6884129047393799
time_elpased: 4.837
#iterations: 108
currently lose_sum: 0.6854231953620911
time_elpased: 4.79
#iterations: 109
currently lose_sum: 0.6688704490661621
time_elpased: 4.814
#iterations: 110
currently lose_sum: 0.6709222197532654
time_elpased: 4.855
#iterations: 111
currently lose_sum: 0.6911075711250305
time_elpased: 4.792
#iterations: 112
currently lose_sum: 0.6865747570991516
time_elpased: 4.805
#iterations: 113
currently lose_sum: 0.7180541157722473
time_elpased: 4.87
#iterations: 114
currently lose_sum: 0.6823455095291138
time_elpased: 4.916
#iterations: 115
currently lose_sum: 0.6773250699043274
time_elpased: 4.782
#iterations: 116
currently lose_sum: 0.6816738247871399
time_elpased: 4.88
#iterations: 117
currently lose_sum: 0.6826232671737671
time_elpased: 4.815
#iterations: 118
currently lose_sum: 0.6684126257896423
time_elpased: 4.837
#iterations: 119
currently lose_sum: 0.656725287437439
time_elpased: 4.854
start validation test
0.5476
0.533203125
0.861878453039
0.658823529412
0.543266882643
17.373
#iterations: 120
currently lose_sum: 0.6873942613601685
time_elpased: 4.857
#iterations: 121
currently lose_sum: 0.7066950798034668
time_elpased: 4.919
#iterations: 122
currently lose_sum: 0.6590551733970642
time_elpased: 4.881
#iterations: 123
currently lose_sum: 0.6745085120201111
time_elpased: 4.806
#iterations: 124
currently lose_sum: 0.6890484094619751
time_elpased: 4.818
#iterations: 125
currently lose_sum: 0.6972476840019226
time_elpased: 4.976
#iterations: 126
currently lose_sum: 0.6707873344421387
time_elpased: 4.764
#iterations: 127
currently lose_sum: 0.6745155453681946
time_elpased: 4.737
#iterations: 128
currently lose_sum: 0.6672496199607849
time_elpased: 4.802
#iterations: 129
currently lose_sum: 0.6467154622077942
time_elpased: 4.798
#iterations: 130
currently lose_sum: 0.6895432472229004
time_elpased: 4.813
#iterations: 131
currently lose_sum: 0.654033362865448
time_elpased: 4.807
#iterations: 132
currently lose_sum: 0.676470160484314
time_elpased: 4.761
#iterations: 133
currently lose_sum: 0.726645827293396
time_elpased: 4.852
#iterations: 134
currently lose_sum: 0.7224094271659851
time_elpased: 4.855
#iterations: 135
currently lose_sum: 0.6784600615501404
time_elpased: 4.788
#iterations: 136
currently lose_sum: 0.6941124200820923
time_elpased: 4.75
#iterations: 137
currently lose_sum: 0.6780681610107422
time_elpased: 4.733
#iterations: 138
currently lose_sum: 0.6548696756362915
time_elpased: 4.819
#iterations: 139
currently lose_sum: 0.6628516912460327
time_elpased: 4.8
start validation test
0.5664
0.60409556314
0.41910023678
0.494874184529
0.568430896979
16.950
#iterations: 140
currently lose_sum: 0.6462522149085999
time_elpased: 4.8
#iterations: 141
currently lose_sum: 0.6657061576843262
time_elpased: 4.825
#iterations: 142
currently lose_sum: 0.6663702130317688
time_elpased: 4.807
#iterations: 143
currently lose_sum: 0.6914623379707336
time_elpased: 4.861
#iterations: 144
currently lose_sum: 0.6688278317451477
time_elpased: 4.784
#iterations: 145
currently lose_sum: 0.7005107402801514
time_elpased: 4.791
#iterations: 146
currently lose_sum: 0.6496723294258118
time_elpased: 4.833
#iterations: 147
currently lose_sum: 0.6591601371765137
time_elpased: 4.796
#iterations: 148
currently lose_sum: 0.6615051031112671
time_elpased: 4.796
#iterations: 149
currently lose_sum: 0.6754918098449707
time_elpased: 4.823
#iterations: 150
currently lose_sum: 0.675615668296814
time_elpased: 4.868
#iterations: 151
currently lose_sum: 0.6475799083709717
time_elpased: 4.805
#iterations: 152
currently lose_sum: 0.6531791687011719
time_elpased: 4.842
#iterations: 153
currently lose_sum: 0.6691012382507324
time_elpased: 4.828
#iterations: 154
currently lose_sum: 0.6710180044174194
time_elpased: 4.873
#iterations: 155
currently lose_sum: 0.6878013014793396
time_elpased: 4.86
#iterations: 156
currently lose_sum: 0.6926500201225281
time_elpased: 4.854
#iterations: 157
currently lose_sum: 0.6456650495529175
time_elpased: 4.754
#iterations: 158
currently lose_sum: 0.6538041830062866
time_elpased: 4.819
#iterations: 159
currently lose_sum: 0.6762787699699402
time_elpased: 4.842
start validation test
0.5644
0.557271557272
0.683504340963
0.613966678483
0.562757847692
16.889
#iterations: 160
currently lose_sum: 0.6443684101104736
time_elpased: 4.815
#iterations: 161
currently lose_sum: 0.6664092540740967
time_elpased: 4.881
#iterations: 162
currently lose_sum: 0.6285908818244934
time_elpased: 4.859
#iterations: 163
currently lose_sum: 0.6280539035797119
time_elpased: 4.853
#iterations: 164
currently lose_sum: 0.695899486541748
time_elpased: 5.028
#iterations: 165
currently lose_sum: 0.6590306162834167
time_elpased: 4.807
#iterations: 166
currently lose_sum: 0.6898577809333801
time_elpased: 4.859
#iterations: 167
currently lose_sum: 0.683460533618927
time_elpased: 4.794
#iterations: 168
currently lose_sum: 0.662940263748169
time_elpased: 4.76
#iterations: 169
currently lose_sum: 0.6818398833274841
time_elpased: 4.86
#iterations: 170
currently lose_sum: 0.6857131719589233
time_elpased: 4.816
#iterations: 171
currently lose_sum: 0.6778140068054199
time_elpased: 4.817
#iterations: 172
currently lose_sum: 0.6723267436027527
time_elpased: 4.949
#iterations: 173
currently lose_sum: 0.6810081005096436
time_elpased: 4.82
#iterations: 174
currently lose_sum: 0.6797559857368469
time_elpased: 4.81
#iterations: 175
currently lose_sum: 0.6555993556976318
time_elpased: 4.827
#iterations: 176
currently lose_sum: 0.6952266097068787
time_elpased: 4.839
#iterations: 177
currently lose_sum: 0.679740846157074
time_elpased: 4.869
#iterations: 178
currently lose_sum: 0.6633908152580261
time_elpased: 4.951
#iterations: 179
currently lose_sum: 0.6918199062347412
time_elpased: 4.857
start validation test
0.5744
0.578137028483
0.59273875296
0.585346843336
0.574147154258
16.850
#iterations: 180
currently lose_sum: 0.6528474688529968
time_elpased: 4.95
#iterations: 181
currently lose_sum: 0.6443507671356201
time_elpased: 4.917
#iterations: 182
currently lose_sum: 0.6609032154083252
time_elpased: 4.89
#iterations: 183
currently lose_sum: 0.6723676323890686
time_elpased: 4.774
#iterations: 184
currently lose_sum: 0.6843029856681824
time_elpased: 4.804
#iterations: 185
currently lose_sum: 0.6596412062644958
time_elpased: 4.785
#iterations: 186
currently lose_sum: 0.6343885660171509
time_elpased: 4.824
#iterations: 187
currently lose_sum: 0.6886184215545654
time_elpased: 4.842
#iterations: 188
currently lose_sum: 0.6415767073631287
time_elpased: 4.862
#iterations: 189
currently lose_sum: 0.6787053942680359
time_elpased: 4.838
#iterations: 190
currently lose_sum: 0.6665434241294861
time_elpased: 4.849
#iterations: 191
currently lose_sum: 0.6700373888015747
time_elpased: 4.848
#iterations: 192
currently lose_sum: 0.6629650592803955
time_elpased: 4.874
#iterations: 193
currently lose_sum: 0.6731863617897034
time_elpased: 4.774
#iterations: 194
currently lose_sum: 0.6796850562095642
time_elpased: 4.866
#iterations: 195
currently lose_sum: 0.6820406913757324
time_elpased: 4.864
#iterations: 196
currently lose_sum: 0.6585543155670166
time_elpased: 4.803
#iterations: 197
currently lose_sum: 0.6548444628715515
time_elpased: 4.834
#iterations: 198
currently lose_sum: 0.6448835730552673
time_elpased: 4.865
#iterations: 199
currently lose_sum: 0.6965187191963196
time_elpased: 4.869
start validation test
0.55
0.56442831216
0.4909234412
0.525116082735
0.550814518653
17.120
#iterations: 200
currently lose_sum: 0.6758126616477966
time_elpased: 4.94
#iterations: 201
currently lose_sum: 0.6770036816596985
time_elpased: 4.866
#iterations: 202
currently lose_sum: 0.6639297604560852
time_elpased: 4.792
#iterations: 203
currently lose_sum: 0.7055730223655701
time_elpased: 4.779
#iterations: 204
currently lose_sum: 0.6310278177261353
time_elpased: 4.91
#iterations: 205
currently lose_sum: 0.6795594692230225
time_elpased: 4.844
#iterations: 206
currently lose_sum: 0.663770318031311
time_elpased: 4.851
#iterations: 207
currently lose_sum: 0.6641485095024109
time_elpased: 4.998
#iterations: 208
currently lose_sum: 0.653633713722229
time_elpased: 4.881
#iterations: 209
currently lose_sum: 0.6855195760726929
time_elpased: 4.812
#iterations: 210
currently lose_sum: 0.6390823125839233
time_elpased: 4.883
#iterations: 211
currently lose_sum: 0.6554296016693115
time_elpased: 4.779
#iterations: 212
currently lose_sum: 0.6455985307693481
time_elpased: 4.838
#iterations: 213
currently lose_sum: 0.6113947033882141
time_elpased: 4.807
#iterations: 214
currently lose_sum: 0.6761317253112793
time_elpased: 4.772
#iterations: 215
currently lose_sum: 0.6590957641601562
time_elpased: 4.814
#iterations: 216
currently lose_sum: 0.6893763542175293
time_elpased: 4.831
#iterations: 217
currently lose_sum: 0.6719037890434265
time_elpased: 4.883
#iterations: 218
currently lose_sum: 0.6664042472839355
time_elpased: 4.925
#iterations: 219
currently lose_sum: 0.6826936602592468
time_elpased: 4.814
start validation test
0.5496
0.578595317726
0.409629044988
0.47966728281
0.551529850961
16.991
#iterations: 220
currently lose_sum: 0.6746360063552856
time_elpased: 4.941
#iterations: 221
currently lose_sum: 0.6608777046203613
time_elpased: 4.861
#iterations: 222
currently lose_sum: 0.6974895000457764
time_elpased: 4.813
#iterations: 223
currently lose_sum: 0.6941415667533875
time_elpased: 4.822
#iterations: 224
currently lose_sum: 0.6279273629188538
time_elpased: 4.889
#iterations: 225
currently lose_sum: 0.661496102809906
time_elpased: 4.831
#iterations: 226
currently lose_sum: 0.6365176439285278
time_elpased: 4.79
#iterations: 227
currently lose_sum: 0.6816167235374451
time_elpased: 4.788
#iterations: 228
currently lose_sum: 0.6696463227272034
time_elpased: 4.871
#iterations: 229
currently lose_sum: 0.6597388982772827
time_elpased: 4.807
#iterations: 230
currently lose_sum: 0.6689232587814331
time_elpased: 4.871
#iterations: 231
currently lose_sum: 0.7221998572349548
time_elpased: 4.818
#iterations: 232
currently lose_sum: 0.6347422003746033
time_elpased: 4.833
#iterations: 233
currently lose_sum: 0.6607823371887207
time_elpased: 4.792
#iterations: 234
currently lose_sum: 0.6553311944007874
time_elpased: 4.826
#iterations: 235
currently lose_sum: 0.6542848348617554
time_elpased: 4.803
#iterations: 236
currently lose_sum: 0.6304436326026917
time_elpased: 4.779
#iterations: 237
currently lose_sum: 0.6797621846199036
time_elpased: 4.825
#iterations: 238
currently lose_sum: 0.6607445478439331
time_elpased: 4.788
#iterations: 239
currently lose_sum: 0.670451283454895
time_elpased: 4.945
start validation test
0.5696
0.559650218613
0.707182320442
0.624825662483
0.567703082362
16.880
#iterations: 240
currently lose_sum: 0.6930553317070007
time_elpased: 4.819
#iterations: 241
currently lose_sum: 0.6495408415794373
time_elpased: 4.83
#iterations: 242
currently lose_sum: 0.6725178360939026
time_elpased: 4.811
#iterations: 243
currently lose_sum: 0.7296733856201172
time_elpased: 4.926
#iterations: 244
currently lose_sum: 0.6498017907142639
time_elpased: 4.808
#iterations: 245
currently lose_sum: 0.6771079897880554
time_elpased: 4.796
#iterations: 246
currently lose_sum: 0.6833314299583435
time_elpased: 4.791
#iterations: 247
currently lose_sum: 0.5963349342346191
time_elpased: 4.786
#iterations: 248
currently lose_sum: 0.664306104183197
time_elpased: 4.996
#iterations: 249
currently lose_sum: 0.6704902052879333
time_elpased: 4.885
#iterations: 250
currently lose_sum: 0.689553439617157
time_elpased: 4.927
#iterations: 251
currently lose_sum: 0.6696008443832397
time_elpased: 4.82
#iterations: 252
currently lose_sum: 0.6745513677597046
time_elpased: 4.844
#iterations: 253
currently lose_sum: 0.6907997131347656
time_elpased: 4.866
#iterations: 254
currently lose_sum: 0.6261501312255859
time_elpased: 4.81
#iterations: 255
currently lose_sum: 0.6598271131515503
time_elpased: 4.745
#iterations: 256
currently lose_sum: 0.6755017042160034
time_elpased: 4.745
#iterations: 257
currently lose_sum: 0.6216086745262146
time_elpased: 4.741
#iterations: 258
currently lose_sum: 0.6620286703109741
time_elpased: 4.823
#iterations: 259
currently lose_sum: 0.6736153364181519
time_elpased: 4.764
start validation test
0.5808
0.600550964187
0.516179952644
0.555178268251
0.581690949558
16.725
#iterations: 260
currently lose_sum: 0.6589368581771851
time_elpased: 4.823
#iterations: 261
currently lose_sum: 0.6372563242912292
time_elpased: 4.907
#iterations: 262
currently lose_sum: 0.6873098611831665
time_elpased: 4.85
#iterations: 263
currently lose_sum: 0.6563770174980164
time_elpased: 4.764
#iterations: 264
currently lose_sum: 0.6660659909248352
time_elpased: 4.758
#iterations: 265
currently lose_sum: 0.6303697228431702
time_elpased: 4.818
#iterations: 266
currently lose_sum: 0.65207839012146
time_elpased: 4.862
#iterations: 267
currently lose_sum: 0.6845078468322754
time_elpased: 4.866
#iterations: 268
currently lose_sum: 0.6420871615409851
time_elpased: 4.813
#iterations: 269
currently lose_sum: 0.6594484448432922
time_elpased: 4.846
#iterations: 270
currently lose_sum: 0.6710633635520935
time_elpased: 4.817
#iterations: 271
currently lose_sum: 0.6431389451026917
time_elpased: 4.886
#iterations: 272
currently lose_sum: 0.6617537140846252
time_elpased: 4.815
#iterations: 273
currently lose_sum: 0.6657071113586426
time_elpased: 4.821
#iterations: 274
currently lose_sum: 0.6665006279945374
time_elpased: 4.847
#iterations: 275
currently lose_sum: 0.6904811859130859
time_elpased: 4.821
#iterations: 276
currently lose_sum: 0.6818910241127014
time_elpased: 4.808
#iterations: 277
currently lose_sum: 0.6834046244621277
time_elpased: 4.831
#iterations: 278
currently lose_sum: 0.6575824618339539
time_elpased: 4.826
#iterations: 279
currently lose_sum: 0.6689680218696594
time_elpased: 4.906
start validation test
0.5616
0.620253164557
0.348066298343
0.445904954499
0.564544098076
16.842
#iterations: 280
currently lose_sum: 0.6596180200576782
time_elpased: 4.829
#iterations: 281
currently lose_sum: 0.6451613903045654
time_elpased: 4.821
#iterations: 282
currently lose_sum: 0.6575367450714111
time_elpased: 4.786
#iterations: 283
currently lose_sum: 0.672389805316925
time_elpased: 4.886
#iterations: 284
currently lose_sum: 0.6592845320701599
time_elpased: 4.791
#iterations: 285
currently lose_sum: 0.6915310025215149
time_elpased: 4.853
#iterations: 286
currently lose_sum: 0.6356526613235474
time_elpased: 4.818
#iterations: 287
currently lose_sum: 0.6649835109710693
time_elpased: 4.859
#iterations: 288
currently lose_sum: 0.6814743280410767
time_elpased: 4.79
#iterations: 289
currently lose_sum: 0.6519870162010193
time_elpased: 4.916
#iterations: 290
currently lose_sum: 0.6653414368629456
time_elpased: 4.861
#iterations: 291
currently lose_sum: 0.6461067795753479
time_elpased: 4.825
#iterations: 292
currently lose_sum: 0.6789305210113525
time_elpased: 4.803
#iterations: 293
currently lose_sum: 0.6500560641288757
time_elpased: 4.836
#iterations: 294
currently lose_sum: 0.64423668384552
time_elpased: 4.831
#iterations: 295
currently lose_sum: 0.6611178517341614
time_elpased: 4.931
#iterations: 296
currently lose_sum: 0.6733421087265015
time_elpased: 4.871
#iterations: 297
currently lose_sum: 0.6850569248199463
time_elpased: 4.815
#iterations: 298
currently lose_sum: 0.6349906325340271
time_elpased: 4.872
#iterations: 299
currently lose_sum: 0.6625603437423706
time_elpased: 4.782
start validation test
0.5628
0.618206521739
0.359116022099
0.454318522217
0.56560829491
16.836
#iterations: 300
currently lose_sum: 0.6451525688171387
time_elpased: 4.74
#iterations: 301
currently lose_sum: 0.6978946924209595
time_elpased: 4.804
#iterations: 302
currently lose_sum: 0.6365604400634766
time_elpased: 4.795
#iterations: 303
currently lose_sum: 0.6565824151039124
time_elpased: 4.756
#iterations: 304
currently lose_sum: 0.639549970626831
time_elpased: 4.842
#iterations: 305
currently lose_sum: 0.6868152618408203
time_elpased: 4.871
#iterations: 306
currently lose_sum: 0.6591461300849915
time_elpased: 4.822
#iterations: 307
currently lose_sum: 0.6774844527244568
time_elpased: 4.76
#iterations: 308
currently lose_sum: 0.6949686408042908
time_elpased: 4.759
#iterations: 309
currently lose_sum: 0.6688879132270813
time_elpased: 4.893
#iterations: 310
currently lose_sum: 0.6768220663070679
time_elpased: 4.81
#iterations: 311
currently lose_sum: 0.6441863179206848
time_elpased: 4.801
#iterations: 312
currently lose_sum: 0.6696016192436218
time_elpased: 4.792
#iterations: 313
currently lose_sum: 0.6570846438407898
time_elpased: 4.955
#iterations: 314
currently lose_sum: 0.6689706444740295
time_elpased: 4.807
#iterations: 315
currently lose_sum: 0.6520014405250549
time_elpased: 4.812
#iterations: 316
currently lose_sum: 0.6894964575767517
time_elpased: 4.899
#iterations: 317
currently lose_sum: 0.6634565591812134
time_elpased: 4.81
#iterations: 318
currently lose_sum: 0.638353168964386
time_elpased: 4.809
#iterations: 319
currently lose_sum: 0.6846249103546143
time_elpased: 4.939
start validation test
0.564
0.577427821522
0.52091554854
0.547717842324
0.564594027311
16.784
#iterations: 320
currently lose_sum: 0.6812090277671814
time_elpased: 4.901
#iterations: 321
currently lose_sum: 0.6341742277145386
time_elpased: 4.775
#iterations: 322
currently lose_sum: 0.6658473014831543
time_elpased: 4.807
#iterations: 323
currently lose_sum: 0.6529498100280762
time_elpased: 4.74
#iterations: 324
currently lose_sum: 0.6702755689620972
time_elpased: 4.89
#iterations: 325
currently lose_sum: 0.6608326435089111
time_elpased: 4.891
#iterations: 326
currently lose_sum: 0.6267759203910828
time_elpased: 4.771
#iterations: 327
currently lose_sum: 0.6513941287994385
time_elpased: 4.916
#iterations: 328
currently lose_sum: 0.6640915870666504
time_elpased: 4.828
#iterations: 329
currently lose_sum: 0.6263522505760193
time_elpased: 4.832
#iterations: 330
currently lose_sum: 0.6518164873123169
time_elpased: 4.774
#iterations: 331
currently lose_sum: 0.6490830779075623
time_elpased: 4.799
#iterations: 332
currently lose_sum: 0.6710959076881409
time_elpased: 4.859
#iterations: 333
currently lose_sum: 0.6667219400405884
time_elpased: 4.775
#iterations: 334
currently lose_sum: 0.6768660545349121
time_elpased: 4.817
#iterations: 335
currently lose_sum: 0.5948839783668518
time_elpased: 4.918
#iterations: 336
currently lose_sum: 0.6716395616531372
time_elpased: 4.899
#iterations: 337
currently lose_sum: 0.6739959716796875
time_elpased: 4.842
#iterations: 338
currently lose_sum: 0.6486045718193054
time_elpased: 4.794
#iterations: 339
currently lose_sum: 0.668108344078064
time_elpased: 4.819
start validation test
0.5768
0.573643410853
0.642462509866
0.606105733433
0.57589467748
16.721
#iterations: 340
currently lose_sum: 0.6506755352020264
time_elpased: 4.917
#iterations: 341
currently lose_sum: 0.6686999797821045
time_elpased: 4.797
#iterations: 342
currently lose_sum: 0.6756918430328369
time_elpased: 4.874
#iterations: 343
currently lose_sum: 0.6723891496658325
time_elpased: 4.776
#iterations: 344
currently lose_sum: 0.6794702410697937
time_elpased: 4.825
#iterations: 345
currently lose_sum: 0.6648939251899719
time_elpased: 4.795
#iterations: 346
currently lose_sum: 0.6585350632667542
time_elpased: 4.807
#iterations: 347
currently lose_sum: 0.638176441192627
time_elpased: 4.903
#iterations: 348
currently lose_sum: 0.6687538027763367
time_elpased: 4.828
#iterations: 349
currently lose_sum: 0.7011210918426514
time_elpased: 4.834
#iterations: 350
currently lose_sum: 0.7070109844207764
time_elpased: 4.871
#iterations: 351
currently lose_sum: 0.6550078392028809
time_elpased: 4.881
#iterations: 352
currently lose_sum: 0.6799593567848206
time_elpased: 4.822
#iterations: 353
currently lose_sum: 0.6561979651451111
time_elpased: 4.852
#iterations: 354
currently lose_sum: 0.5881425738334656
time_elpased: 4.822
#iterations: 355
currently lose_sum: 0.5899592638015747
time_elpased: 4.82
#iterations: 356
currently lose_sum: 0.6470798254013062
time_elpased: 4.78
#iterations: 357
currently lose_sum: 0.6342549920082092
time_elpased: 4.782
#iterations: 358
currently lose_sum: 0.6111629605293274
time_elpased: 4.769
#iterations: 359
currently lose_sum: 0.6656567454338074
time_elpased: 4.788
start validation test
0.5808
0.586698337292
0.584846093133
0.585770750988
0.58074421445
16.676
#iterations: 360
currently lose_sum: 0.6513040065765381
time_elpased: 4.814
#iterations: 361
currently lose_sum: 0.5944508910179138
time_elpased: 4.805
#iterations: 362
currently lose_sum: 0.6494390964508057
time_elpased: 4.832
#iterations: 363
currently lose_sum: 0.6460926532745361
time_elpased: 4.827
#iterations: 364
currently lose_sum: 0.6419923305511475
time_elpased: 4.939
#iterations: 365
currently lose_sum: 0.6669166684150696
time_elpased: 4.787
#iterations: 366
currently lose_sum: 0.6542682647705078
time_elpased: 4.825
#iterations: 367
currently lose_sum: 0.7016993761062622
time_elpased: 4.795
#iterations: 368
currently lose_sum: 0.6632254719734192
time_elpased: 4.777
#iterations: 369
currently lose_sum: 0.6393181681632996
time_elpased: 4.813
#iterations: 370
currently lose_sum: 0.6407612562179565
time_elpased: 4.874
#iterations: 371
currently lose_sum: 0.6887917518615723
time_elpased: 4.903
#iterations: 372
currently lose_sum: 0.678005039691925
time_elpased: 4.819
#iterations: 373
currently lose_sum: 0.6536862254142761
time_elpased: 4.761
#iterations: 374
currently lose_sum: 0.6557066440582275
time_elpased: 4.857
#iterations: 375
currently lose_sum: 0.6779077053070068
time_elpased: 4.843
#iterations: 376
currently lose_sum: 0.675320565700531
time_elpased: 4.855
#iterations: 377
currently lose_sum: 0.6263037323951721
time_elpased: 4.896
#iterations: 378
currently lose_sum: 0.5987829566001892
time_elpased: 4.713
#iterations: 379
currently lose_sum: 0.6071460247039795
time_elpased: 4.84
start validation test
0.576
0.582077716098
0.579321231255
0.580696202532
0.57595420849
16.727
#iterations: 380
currently lose_sum: 0.6368218064308167
time_elpased: 4.848
#iterations: 381
currently lose_sum: 0.6356592774391174
time_elpased: 4.849
#iterations: 382
currently lose_sum: 0.6425100564956665
time_elpased: 4.76
#iterations: 383
currently lose_sum: 0.6343013048171997
time_elpased: 4.861
#iterations: 384
currently lose_sum: 0.6790140271186829
time_elpased: 4.834
#iterations: 385
currently lose_sum: 0.6621019244194031
time_elpased: 4.744
#iterations: 386
currently lose_sum: 0.6490795016288757
time_elpased: 4.815
#iterations: 387
currently lose_sum: 0.6709269881248474
time_elpased: 4.823
#iterations: 388
currently lose_sum: 0.6177738904953003
time_elpased: 4.924
#iterations: 389
currently lose_sum: 0.6335556507110596
time_elpased: 4.841
#iterations: 390
currently lose_sum: 0.6484321355819702
time_elpased: 4.793
#iterations: 391
currently lose_sum: 0.6925773024559021
time_elpased: 4.793
#iterations: 392
currently lose_sum: 0.6778420209884644
time_elpased: 4.804
#iterations: 393
currently lose_sum: 0.6945089101791382
time_elpased: 4.8
#iterations: 394
currently lose_sum: 0.6496592164039612
time_elpased: 4.827
#iterations: 395
currently lose_sum: 0.6779946684837341
time_elpased: 4.851
#iterations: 396
currently lose_sum: 0.667115330696106
time_elpased: 4.823
#iterations: 397
currently lose_sum: 0.6638796925544739
time_elpased: 4.843
#iterations: 398
currently lose_sum: 0.6633963584899902
time_elpased: 4.938
#iterations: 399
currently lose_sum: 0.6733978390693665
time_elpased: 4.848
start validation test
0.5712
0.563767168084
0.680347277032
0.616595135908
0.569695130811
16.711
#iterations: 400
currently lose_sum: 0.687938928604126
time_elpased: 4.85
#iterations: 401
currently lose_sum: 0.6539707779884338
time_elpased: 4.893
#iterations: 402
currently lose_sum: 0.6793156266212463
time_elpased: 4.804
#iterations: 403
currently lose_sum: 0.6531800627708435
time_elpased: 4.772
#iterations: 404
currently lose_sum: 0.6870662569999695
time_elpased: 4.798
#iterations: 405
currently lose_sum: 0.6494690179824829
time_elpased: 4.843
#iterations: 406
currently lose_sum: 0.6259023547172546
time_elpased: 4.793
#iterations: 407
currently lose_sum: 0.708173394203186
time_elpased: 4.765
#iterations: 408
currently lose_sum: 0.6264081001281738
time_elpased: 4.774
#iterations: 409
currently lose_sum: 0.6618263721466064
time_elpased: 4.777
#iterations: 410
currently lose_sum: 0.7162785530090332
time_elpased: 4.798
#iterations: 411
currently lose_sum: 0.6267502307891846
time_elpased: 4.817
#iterations: 412
currently lose_sum: 0.6799017190933228
time_elpased: 4.879
#iterations: 413
currently lose_sum: 0.6467391848564148
time_elpased: 4.79
#iterations: 414
currently lose_sum: 0.6412060260772705
time_elpased: 4.768
#iterations: 415
currently lose_sum: 0.6861967444419861
time_elpased: 4.798
#iterations: 416
currently lose_sum: 0.6711992025375366
time_elpased: 4.97
#iterations: 417
currently lose_sum: 0.6223991513252258
time_elpased: 4.856
#iterations: 418
currently lose_sum: 0.6269095540046692
time_elpased: 4.798
#iterations: 419
currently lose_sum: 0.6543683409690857
time_elpased: 4.896
start validation test
0.5608
0.611330698287
0.366219415943
0.458045409674
0.563482781775
16.976
#iterations: 420
currently lose_sum: 0.6229175925254822
time_elpased: 4.927
#iterations: 421
currently lose_sum: 0.6255701184272766
time_elpased: 4.836
#iterations: 422
currently lose_sum: 0.6592150330543518
time_elpased: 4.768
#iterations: 423
currently lose_sum: 0.6573675274848938
time_elpased: 4.817
#iterations: 424
currently lose_sum: 0.6281989812850952
time_elpased: 4.76
#iterations: 425
currently lose_sum: 0.6686325073242188
time_elpased: 4.806
#iterations: 426
currently lose_sum: 0.6901289224624634
time_elpased: 4.757
#iterations: 427
currently lose_sum: 0.628892719745636
time_elpased: 4.748
#iterations: 428
currently lose_sum: 0.657137393951416
time_elpased: 4.791
#iterations: 429
currently lose_sum: 0.6482723951339722
time_elpased: 4.801
#iterations: 430
currently lose_sum: 0.6545140147209167
time_elpased: 4.816
#iterations: 431
currently lose_sum: 0.633167028427124
time_elpased: 4.811
#iterations: 432
currently lose_sum: 0.61872798204422
time_elpased: 4.881
#iterations: 433
currently lose_sum: 0.6636927723884583
time_elpased: 4.794
#iterations: 434
currently lose_sum: 0.6343200206756592
time_elpased: 4.791
#iterations: 435
currently lose_sum: 0.6172440648078918
time_elpased: 4.938
#iterations: 436
currently lose_sum: 0.6076885461807251
time_elpased: 4.823
#iterations: 437
currently lose_sum: 0.6256102323532104
time_elpased: 4.836
#iterations: 438
currently lose_sum: 0.6164790987968445
time_elpased: 4.823
#iterations: 439
currently lose_sum: 0.6281553506851196
time_elpased: 4.891
start validation test
0.5876
0.600511073254
0.556432517758
0.577632117984
0.588029721977
16.652
#iterations: 440
currently lose_sum: 0.6631659865379333
time_elpased: 4.764
#iterations: 441
currently lose_sum: 0.6353076100349426
time_elpased: 4.836
#iterations: 442
currently lose_sum: 0.6329019665718079
time_elpased: 4.714
#iterations: 443
currently lose_sum: 0.6537225246429443
time_elpased: 4.946
#iterations: 444
currently lose_sum: 0.6179482936859131
time_elpased: 4.79
#iterations: 445
currently lose_sum: 0.6543676257133484
time_elpased: 4.846
#iterations: 446
currently lose_sum: 0.6486110091209412
time_elpased: 4.875
#iterations: 447
currently lose_sum: 0.6777040362358093
time_elpased: 4.847
#iterations: 448
currently lose_sum: 0.6742727160453796
time_elpased: 4.848
#iterations: 449
currently lose_sum: 0.620293140411377
time_elpased: 4.832
#iterations: 450
currently lose_sum: 0.6111717820167542
time_elpased: 4.878
#iterations: 451
currently lose_sum: 0.6289103031158447
time_elpased: 4.725
#iterations: 452
currently lose_sum: 0.6335945725440979
time_elpased: 4.878
#iterations: 453
currently lose_sum: 0.6569249033927917
time_elpased: 4.878
#iterations: 454
currently lose_sum: 0.6829485297203064
time_elpased: 4.816
#iterations: 455
currently lose_sum: 0.6580568552017212
time_elpased: 4.868
#iterations: 456
currently lose_sum: 0.6742479801177979
time_elpased: 4.797
#iterations: 457
currently lose_sum: 0.7058086395263672
time_elpased: 4.708
#iterations: 458
currently lose_sum: 0.663362443447113
time_elpased: 4.903
#iterations: 459
currently lose_sum: 0.6820555329322815
time_elpased: 4.827
start validation test
0.58
0.586454183267
0.58089976322
0.583663758921
0.579987594505
16.835
#iterations: 460
currently lose_sum: 0.6162134408950806
time_elpased: 4.798
#iterations: 461
currently lose_sum: 0.667640209197998
time_elpased: 4.848
#iterations: 462
currently lose_sum: 0.662860095500946
time_elpased: 4.832
#iterations: 463
currently lose_sum: 0.6131897568702698
time_elpased: 4.867
#iterations: 464
currently lose_sum: 0.6396324634552002
time_elpased: 4.891
#iterations: 465
currently lose_sum: 0.6943749785423279
time_elpased: 4.929
#iterations: 466
currently lose_sum: 0.6755915284156799
time_elpased: 4.887
#iterations: 467
currently lose_sum: 0.6903563737869263
time_elpased: 4.827
#iterations: 468
currently lose_sum: 0.6451361775398254
time_elpased: 4.913
#iterations: 469
currently lose_sum: 0.674419641494751
time_elpased: 5.033
#iterations: 470
currently lose_sum: 0.6155681610107422
time_elpased: 4.86
#iterations: 471
currently lose_sum: 0.6238449215888977
time_elpased: 4.907
#iterations: 472
currently lose_sum: 0.640977144241333
time_elpased: 4.744
#iterations: 473
currently lose_sum: 0.6733146905899048
time_elpased: 4.794
#iterations: 474
currently lose_sum: 0.6712925434112549
time_elpased: 4.771
#iterations: 475
currently lose_sum: 0.744889497756958
time_elpased: 4.841
#iterations: 476
currently lose_sum: 0.664622962474823
time_elpased: 4.864
#iterations: 477
currently lose_sum: 0.6905519366264343
time_elpased: 4.718
#iterations: 478
currently lose_sum: 0.6532354950904846
time_elpased: 4.847
#iterations: 479
currently lose_sum: 0.6655288934707642
time_elpased: 4.831
start validation test
0.5856
0.59217877095
0.585635359116
0.588888888889
0.585599512486
16.723
#iterations: 480
currently lose_sum: 0.6657005548477173
time_elpased: 4.826
#iterations: 481
currently lose_sum: 0.639731764793396
time_elpased: 4.819
#iterations: 482
currently lose_sum: 0.6345849633216858
time_elpased: 4.842
#iterations: 483
currently lose_sum: 0.6550546884536743
time_elpased: 4.825
#iterations: 484
currently lose_sum: 0.6399676203727722
time_elpased: 4.945
#iterations: 485
currently lose_sum: 0.6454212069511414
time_elpased: 4.861
#iterations: 486
currently lose_sum: 0.6408364176750183
time_elpased: 4.822
#iterations: 487
currently lose_sum: 0.6482713222503662
time_elpased: 4.814
#iterations: 488
currently lose_sum: 0.6321117281913757
time_elpased: 4.825
#iterations: 489
currently lose_sum: 0.7010571956634521
time_elpased: 4.974
#iterations: 490
currently lose_sum: 0.6484631896018982
time_elpased: 4.853
#iterations: 491
currently lose_sum: 0.631847620010376
time_elpased: 4.867
#iterations: 492
currently lose_sum: 0.6295026540756226
time_elpased: 4.805
#iterations: 493
currently lose_sum: 0.6352818012237549
time_elpased: 5.008
#iterations: 494
currently lose_sum: 0.6693505644798279
time_elpased: 4.834
#iterations: 495
currently lose_sum: 0.6744412183761597
time_elpased: 4.789
#iterations: 496
currently lose_sum: 0.6513707637786865
time_elpased: 4.808
#iterations: 497
currently lose_sum: 0.5961719751358032
time_elpased: 4.809
#iterations: 498
currently lose_sum: 0.7088477611541748
time_elpased: 4.995
#iterations: 499
currently lose_sum: 0.6885590553283691
time_elpased: 4.78
start validation test
0.572
0.562381253958
0.700868192581
0.624033731553
0.570223228488
16.643
#iterations: 500
currently lose_sum: 0.5966953039169312
time_elpased: 4.845
#iterations: 501
currently lose_sum: 0.6630098819732666
time_elpased: 4.909
#iterations: 502
currently lose_sum: 0.6604218482971191
time_elpased: 4.877
#iterations: 503
currently lose_sum: 0.6453843116760254
time_elpased: 4.809
#iterations: 504
currently lose_sum: 0.6749998331069946
time_elpased: 4.814
#iterations: 505
currently lose_sum: 0.6633783578872681
time_elpased: 4.727
#iterations: 506
currently lose_sum: 0.6819063425064087
time_elpased: 4.791
#iterations: 507
currently lose_sum: 0.6812655925750732
time_elpased: 4.806
#iterations: 508
currently lose_sum: 0.6582246422767639
time_elpased: 4.903
#iterations: 509
currently lose_sum: 0.6357151865959167
time_elpased: 4.836
#iterations: 510
currently lose_sum: 0.6254569888114929
time_elpased: 4.93
#iterations: 511
currently lose_sum: 0.6551697254180908
time_elpased: 4.795
#iterations: 512
currently lose_sum: 0.6472713947296143
time_elpased: 4.778
#iterations: 513
currently lose_sum: 0.6924861073493958
time_elpased: 4.788
#iterations: 514
currently lose_sum: 0.6751632690429688
time_elpased: 4.781
#iterations: 515
currently lose_sum: 0.6401410698890686
time_elpased: 4.781
#iterations: 516
currently lose_sum: 0.6181747913360596
time_elpased: 4.806
#iterations: 517
currently lose_sum: 0.6410201787948608
time_elpased: 4.817
#iterations: 518
currently lose_sum: 0.662581205368042
time_elpased: 4.76
#iterations: 519
currently lose_sum: 0.6954090595245361
time_elpased: 4.835
start validation test
0.578
0.633838383838
0.396211523283
0.487615347256
0.580506410466
16.889
#iterations: 520
currently lose_sum: 0.7035067081451416
time_elpased: 4.828
#iterations: 521
currently lose_sum: 0.6475465893745422
time_elpased: 4.768
#iterations: 522
currently lose_sum: 0.6570537090301514
time_elpased: 4.912
#iterations: 523
currently lose_sum: 0.6512536406517029
time_elpased: 4.925
#iterations: 524
currently lose_sum: 0.6840130686759949
time_elpased: 4.8
#iterations: 525
currently lose_sum: 0.6960105299949646
time_elpased: 4.929
#iterations: 526
currently lose_sum: 0.6257710456848145
time_elpased: 4.752
#iterations: 527
currently lose_sum: 0.6599170565605164
time_elpased: 4.785
#iterations: 528
currently lose_sum: 0.6361811757087708
time_elpased: 4.818
#iterations: 529
currently lose_sum: 0.6629989743232727
time_elpased: 4.773
#iterations: 530
currently lose_sum: 0.6747773885726929
time_elpased: 4.776
#iterations: 531
currently lose_sum: 0.6103343963623047
time_elpased: 4.807
#iterations: 532
currently lose_sum: 0.7060402035713196
time_elpased: 4.836
#iterations: 533
currently lose_sum: 0.6668501496315002
time_elpased: 4.755
#iterations: 534
currently lose_sum: 0.5781614780426025
time_elpased: 4.775
#iterations: 535
currently lose_sum: 0.6337869167327881
time_elpased: 4.818
#iterations: 536
currently lose_sum: 0.6153016090393066
time_elpased: 4.786
#iterations: 537
currently lose_sum: 0.6548488736152649
time_elpased: 4.802
#iterations: 538
currently lose_sum: 0.6688458323478699
time_elpased: 4.781
#iterations: 539
currently lose_sum: 0.6421612501144409
time_elpased: 4.84
start validation test
0.5776
0.565163681285
0.722178374112
0.634095634096
0.575606624201
16.658
#iterations: 540
currently lose_sum: 0.6964729428291321
time_elpased: 4.841
#iterations: 541
currently lose_sum: 0.6494184136390686
time_elpased: 4.836
#iterations: 542
currently lose_sum: 0.6551609635353088
time_elpased: 4.834
#iterations: 543
currently lose_sum: 0.6351242065429688
time_elpased: 4.887
#iterations: 544
currently lose_sum: 0.6185264587402344
time_elpased: 4.893
#iterations: 545
currently lose_sum: 0.6102378964424133
time_elpased: 4.87
#iterations: 546
currently lose_sum: 0.6194520592689514
time_elpased: 4.883
#iterations: 547
currently lose_sum: 0.6893446445465088
time_elpased: 4.778
#iterations: 548
currently lose_sum: 0.6395446062088013
time_elpased: 4.928
#iterations: 549
currently lose_sum: 0.6421285271644592
time_elpased: 4.831
#iterations: 550
currently lose_sum: 0.6394808292388916
time_elpased: 4.834
#iterations: 551
currently lose_sum: 0.682963490486145
time_elpased: 4.879
#iterations: 552
currently lose_sum: 0.6493934392929077
time_elpased: 4.868
#iterations: 553
currently lose_sum: 0.6574651598930359
time_elpased: 4.868
#iterations: 554
currently lose_sum: 0.6790308952331543
time_elpased: 4.816
#iterations: 555
currently lose_sum: 0.6433552503585815
time_elpased: 4.805
#iterations: 556
currently lose_sum: 0.6234310269355774
time_elpased: 4.889
#iterations: 557
currently lose_sum: 0.658867359161377
time_elpased: 4.955
#iterations: 558
currently lose_sum: 0.6667715311050415
time_elpased: 4.987
#iterations: 559
currently lose_sum: 0.6075471043586731
time_elpased: 4.838
start validation test
0.5816
0.57604955265
0.660615627466
0.615441176471
0.580510571235
16.637
#iterations: 560
currently lose_sum: 0.6752573251724243
time_elpased: 4.892
#iterations: 561
currently lose_sum: 0.6609944105148315
time_elpased: 4.805
#iterations: 562
currently lose_sum: 0.6422870755195618
time_elpased: 4.951
#iterations: 563
currently lose_sum: 0.5881910920143127
time_elpased: 4.744
#iterations: 564
currently lose_sum: 0.6805214881896973
time_elpased: 4.98
#iterations: 565
currently lose_sum: 0.630953848361969
time_elpased: 4.861
#iterations: 566
currently lose_sum: 0.6392571926116943
time_elpased: 4.797
#iterations: 567
currently lose_sum: 0.683807373046875
time_elpased: 4.864
#iterations: 568
currently lose_sum: 0.6907814145088196
time_elpased: 4.969
#iterations: 569
currently lose_sum: 0.6721557378768921
time_elpased: 4.814
#iterations: 570
currently lose_sum: 0.6454054117202759
time_elpased: 4.864
#iterations: 571
currently lose_sum: 0.6196457743644714
time_elpased: 4.837
#iterations: 572
currently lose_sum: 0.6433070302009583
time_elpased: 4.859
#iterations: 573
currently lose_sum: 0.647240161895752
time_elpased: 4.822
#iterations: 574
currently lose_sum: 0.6136398315429688
time_elpased: 4.896
#iterations: 575
currently lose_sum: 0.6455615162849426
time_elpased: 4.904
#iterations: 576
currently lose_sum: 0.6762828230857849
time_elpased: 4.791
#iterations: 577
currently lose_sum: 0.6622117757797241
time_elpased: 4.849
#iterations: 578
currently lose_sum: 0.5903193950653076
time_elpased: 4.88
#iterations: 579
currently lose_sum: 0.636350154876709
time_elpased: 4.794
start validation test
0.5816
0.579211469534
0.63772691397
0.607062359128
0.580826149605
16.717
#iterations: 580
currently lose_sum: 0.6356414556503296
time_elpased: 4.846
#iterations: 581
currently lose_sum: 0.6835647821426392
time_elpased: 4.807
#iterations: 582
currently lose_sum: 0.6819988489151001
time_elpased: 4.824
#iterations: 583
currently lose_sum: 0.6090946793556213
time_elpased: 4.857
#iterations: 584
currently lose_sum: 0.6775448322296143
time_elpased: 4.841
#iterations: 585
currently lose_sum: 0.6542283892631531
time_elpased: 4.898
#iterations: 586
currently lose_sum: 0.6156566739082336
time_elpased: 4.897
#iterations: 587
currently lose_sum: 0.6586498022079468
time_elpased: 4.82
#iterations: 588
currently lose_sum: 0.5947184562683105
time_elpased: 4.847
#iterations: 589
currently lose_sum: 0.63258957862854
time_elpased: 4.843
#iterations: 590
currently lose_sum: 0.6909419894218445
time_elpased: 4.816
#iterations: 591
currently lose_sum: 0.6437320113182068
time_elpased: 4.862
#iterations: 592
currently lose_sum: 0.6255512833595276
time_elpased: 4.871
#iterations: 593
currently lose_sum: 0.6835362911224365
time_elpased: 4.843
#iterations: 594
currently lose_sum: 0.6523459553718567
time_elpased: 5.058
#iterations: 595
currently lose_sum: 0.6433953642845154
time_elpased: 4.837
#iterations: 596
currently lose_sum: 0.6385824680328369
time_elpased: 4.91
#iterations: 597
currently lose_sum: 0.6528045535087585
time_elpased: 4.83
#iterations: 598
currently lose_sum: 0.6527159214019775
time_elpased: 4.763
#iterations: 599
currently lose_sum: 0.6532900333404541
time_elpased: 4.879
start validation test
0.5856
0.583153347732
0.639305445935
0.609939759036
0.58485953562
16.790
acc: 0.589
pre: 0.586
rec: 0.642
F1: 0.613
auc: 0.588
