start to construct computing graph
graph construct over
3803
epochs start
#iterations: 0
currently lose_sum: 0.6934570074081421
time_elpased: 61.948
#iterations: 1
currently lose_sum: 0.6938007473945618
time_elpased: 61.091
#iterations: 2
currently lose_sum: 0.6881135702133179
time_elpased: 63.383
#iterations: 3
currently lose_sum: 0.6872982978820801
time_elpased: 66.425
#iterations: 4
currently lose_sum: 0.694369375705719
time_elpased: 66.941
#iterations: 5
currently lose_sum: 0.698574960231781
time_elpased: 66.965
#iterations: 6
currently lose_sum: 0.6980674862861633
time_elpased: 66.472
#iterations: 7
currently lose_sum: 0.6960189938545227
time_elpased: 66.651
#iterations: 8
currently lose_sum: 0.6923492550849915
time_elpased: 60.249
#iterations: 9
currently lose_sum: 0.6771928668022156
time_elpased: 61.242
#iterations: 10
currently lose_sum: 0.6890631914138794
time_elpased: 62.874
#iterations: 11
currently lose_sum: 0.6999843716621399
time_elpased: 64.934
#iterations: 12
currently lose_sum: 0.6888443827629089
time_elpased: 66.256
#iterations: 13
currently lose_sum: 0.6943709850311279
time_elpased: 65.991
#iterations: 14
currently lose_sum: 0.6924501657485962
time_elpased: 60.789
#iterations: 15
currently lose_sum: 0.6927846670150757
time_elpased: 61.988
#iterations: 16
currently lose_sum: 0.6898376941680908
time_elpased: 66.722
#iterations: 17
currently lose_sum: 0.7069764137268066
time_elpased: 65.499
#iterations: 18
currently lose_sum: 0.6734112501144409
time_elpased: 64.208
#iterations: 19
currently lose_sum: 0.7026388645172119
time_elpased: 64.893
start validation test
0.5164
0.514000949217
0.854100946372
0.641777777778
0.511466057602
17.294
#iterations: 20
currently lose_sum: 0.6896631121635437
time_elpased: 48.515
#iterations: 21
currently lose_sum: 0.7004372477531433
time_elpased: 63.219
#iterations: 22
currently lose_sum: 0.706679105758667
time_elpased: 62.101
#iterations: 23
currently lose_sum: 0.6869120597839355
time_elpased: 63.32
#iterations: 24
currently lose_sum: 0.7008304595947266
time_elpased: 63.134
#iterations: 25
currently lose_sum: 0.6905624866485596
time_elpased: 64.15
#iterations: 26
currently lose_sum: 0.6842683553695679
time_elpased: 64.663
#iterations: 27
currently lose_sum: 0.6892672181129456
time_elpased: 62.403
#iterations: 28
currently lose_sum: 0.6926757097244263
time_elpased: 62.484
#iterations: 29
currently lose_sum: 0.6891781687736511
time_elpased: 58.35
#iterations: 30
currently lose_sum: 0.6869145035743713
time_elpased: 58.745
#iterations: 31
currently lose_sum: 0.6694916486740112
time_elpased: 63.566
#iterations: 32
currently lose_sum: 0.6908857822418213
time_elpased: 64.62
#iterations: 33
currently lose_sum: 0.691901445388794
time_elpased: 62.99
#iterations: 34
currently lose_sum: 0.6892336010932922
time_elpased: 61.605
#iterations: 35
currently lose_sum: 0.6966637969017029
time_elpased: 59.097
#iterations: 36
currently lose_sum: 0.6862562298774719
time_elpased: 59.124
#iterations: 37
currently lose_sum: 0.6883024573326111
time_elpased: 62.921
#iterations: 38
currently lose_sum: 0.6962141394615173
time_elpased: 64.81
#iterations: 39
currently lose_sum: 0.6915542483329773
time_elpased: 63.211
start validation test
0.5368
0.537162162162
0.626971608833
0.578602620087
0.535482557663
17.236
#iterations: 40
currently lose_sum: 0.6855305433273315
time_elpased: 62.302
#iterations: 41
currently lose_sum: 0.688172459602356
time_elpased: 58.025
#iterations: 42
currently lose_sum: 0.673462986946106
time_elpased: 61.904
#iterations: 43
currently lose_sum: 0.7075585126876831
time_elpased: 62.807
#iterations: 44
currently lose_sum: 0.6857626438140869
time_elpased: 65.23
#iterations: 45
currently lose_sum: 0.6832566261291504
time_elpased: 61.286
#iterations: 46
currently lose_sum: 0.682395875453949
time_elpased: 62.063
#iterations: 47
currently lose_sum: 0.6714540719985962
time_elpased: 62.224
#iterations: 48
currently lose_sum: 0.6867852807044983
time_elpased: 61.412
#iterations: 49
currently lose_sum: 0.7040280103683472
time_elpased: 61.524
#iterations: 50
currently lose_sum: 0.6842799186706543
time_elpased: 60.735
#iterations: 51
currently lose_sum: 0.6891988515853882
time_elpased: 61.464
#iterations: 52
currently lose_sum: 0.6752052903175354
time_elpased: 65.4
#iterations: 53
currently lose_sum: 0.6911331415176392
time_elpased: 65.684
#iterations: 54
currently lose_sum: 0.6754004955291748
time_elpased: 65.326
#iterations: 55
currently lose_sum: 0.6946601867675781
time_elpased: 65.362
#iterations: 56
currently lose_sum: 0.6903912425041199
time_elpased: 60.212
#iterations: 57
currently lose_sum: 0.6759756207466125
time_elpased: 63.158
#iterations: 58
currently lose_sum: 0.6887568831443787
time_elpased: 64.73
#iterations: 59
currently lose_sum: 0.6861150860786438
time_elpased: 65.052
start validation test
0.5304
0.537007874016
0.53785488959
0.537431048069
0.530291081159
17.142
#iterations: 60
currently lose_sum: 0.7033811807632446
time_elpased: 65.332
#iterations: 61
currently lose_sum: 0.672450840473175
time_elpased: 65.375
#iterations: 62
currently lose_sum: 0.6757082939147949
time_elpased: 66.28
#iterations: 63
currently lose_sum: 0.6976479291915894
time_elpased: 65.596
#iterations: 64
currently lose_sum: 0.6834436058998108
time_elpased: 65.735
#iterations: 65
currently lose_sum: 0.7035113573074341
time_elpased: 65.825
#iterations: 66
currently lose_sum: 0.6922961473464966
time_elpased: 64.637
#iterations: 67
currently lose_sum: 0.6737878918647766
time_elpased: 65.367
#iterations: 68
currently lose_sum: 0.704109787940979
time_elpased: 64.116
#iterations: 69
currently lose_sum: 0.6788148283958435
time_elpased: 65.449
#iterations: 70
currently lose_sum: 0.6903532147407532
time_elpased: 64.818
#iterations: 71
currently lose_sum: 0.7435966730117798
time_elpased: 65.057
#iterations: 72
currently lose_sum: 0.6858223080635071
time_elpased: 65.571
#iterations: 73
currently lose_sum: 0.6850253343582153
time_elpased: 65.743
#iterations: 74
currently lose_sum: 0.6775962114334106
time_elpased: 65.036
#iterations: 75
currently lose_sum: 0.6810985803604126
time_elpased: 65.485
#iterations: 76
currently lose_sum: 0.6911419630050659
time_elpased: 65.228
#iterations: 77
currently lose_sum: 0.7061816453933716
time_elpased: 65.933
#iterations: 78
currently lose_sum: 0.6557264924049377
time_elpased: 66.538
#iterations: 79
currently lose_sum: 0.6757468581199646
time_elpased: 64.193
start validation test
0.5352
0.609504132231
0.232649842271
0.336757990868
0.539620375681
17.127
#iterations: 80
currently lose_sum: 0.6942836046218872
time_elpased: 65.057
#iterations: 81
currently lose_sum: 0.6988045573234558
time_elpased: 62.395
#iterations: 82
currently lose_sum: 0.6883748769760132
time_elpased: 61.352
#iterations: 83
currently lose_sum: 0.6950314044952393
time_elpased: 63.136
#iterations: 84
currently lose_sum: 0.6818968057632446
time_elpased: 64.0
#iterations: 85
currently lose_sum: 0.6781975030899048
time_elpased: 63.536
#iterations: 86
currently lose_sum: 0.6685452461242676
time_elpased: 64.378
#iterations: 87
currently lose_sum: 0.6926081776618958
time_elpased: 64.207
#iterations: 88
currently lose_sum: 0.6905106902122498
time_elpased: 65.639
#iterations: 89
currently lose_sum: 0.6660944223403931
time_elpased: 64.521
#iterations: 90
currently lose_sum: 0.650809645652771
time_elpased: 64.03
#iterations: 91
currently lose_sum: 0.7059652805328369
time_elpased: 65.61
#iterations: 92
currently lose_sum: 0.6662630438804626
time_elpased: 65.786
#iterations: 93
currently lose_sum: 0.6852312684059143
time_elpased: 64.937
#iterations: 94
currently lose_sum: 0.6962020993232727
time_elpased: 64.075
#iterations: 95
currently lose_sum: 0.6911536455154419
time_elpased: 64.137
#iterations: 96
currently lose_sum: 0.680243968963623
time_elpased: 64.709
#iterations: 97
currently lose_sum: 0.690519392490387
time_elpased: 64.626
#iterations: 98
currently lose_sum: 0.6810874938964844
time_elpased: 65.981
#iterations: 99
currently lose_sum: 0.682380199432373
time_elpased: 65.363
start validation test
0.5508
0.557585385226
0.553627760252
0.555599525129
0.550758685321
17.041
#iterations: 100
currently lose_sum: 0.6875227093696594
time_elpased: 65.575
#iterations: 101
currently lose_sum: 0.6868751645088196
time_elpased: 64.596
#iterations: 102
currently lose_sum: 0.6798421740531921
time_elpased: 65.289
#iterations: 103
currently lose_sum: 0.7056876420974731
time_elpased: 65.366
#iterations: 104
currently lose_sum: 0.6934091448783875
time_elpased: 65.053
#iterations: 105
currently lose_sum: 0.6781344413757324
time_elpased: 64.684
#iterations: 106
currently lose_sum: 0.6822850108146667
time_elpased: 65.519
#iterations: 107
currently lose_sum: 0.6869345307350159
time_elpased: 65.821
#iterations: 108
currently lose_sum: 0.6797724962234497
time_elpased: 66.135
#iterations: 109
currently lose_sum: 0.6921387314796448
time_elpased: 65.063
#iterations: 110
currently lose_sum: 0.6860400438308716
time_elpased: 65.507
#iterations: 111
currently lose_sum: 0.6834174990653992
time_elpased: 64.396
#iterations: 112
currently lose_sum: 0.7011398077011108
time_elpased: 65.401
#iterations: 113
currently lose_sum: 0.6854444742202759
time_elpased: 65.262
#iterations: 114
currently lose_sum: 0.68487948179245
time_elpased: 65.663
#iterations: 115
currently lose_sum: 0.6892640590667725
time_elpased: 64.223
#iterations: 116
currently lose_sum: 0.6547859311103821
time_elpased: 65.45
#iterations: 117
currently lose_sum: 0.6823002696037292
time_elpased: 65.092
#iterations: 118
currently lose_sum: 0.6694228649139404
time_elpased: 64.598
#iterations: 119
currently lose_sum: 0.691298246383667
time_elpased: 64.485
start validation test
0.5456
0.534375
0.809148264984
0.643663739021
0.541749457167
17.220
#iterations: 120
currently lose_sum: 0.6761422753334045
time_elpased: 65.572
#iterations: 121
currently lose_sum: 0.69327712059021
time_elpased: 64.682
#iterations: 122
currently lose_sum: 0.6938934922218323
time_elpased: 65.196
#iterations: 123
currently lose_sum: 0.6927427649497986
time_elpased: 64.796
#iterations: 124
currently lose_sum: 0.6894953846931458
time_elpased: 64.342
#iterations: 125
currently lose_sum: 0.6879027485847473
time_elpased: 65.061
#iterations: 126
currently lose_sum: 0.6535089015960693
time_elpased: 64.353
#iterations: 127
currently lose_sum: 0.6750978231430054
time_elpased: 65.06
#iterations: 128
currently lose_sum: 0.6667371392250061
time_elpased: 65.293
#iterations: 129
currently lose_sum: 0.6601814031600952
time_elpased: 65.879
#iterations: 130
currently lose_sum: 0.6939376592636108
time_elpased: 65.527
#iterations: 131
currently lose_sum: 0.683505654335022
time_elpased: 64.272
#iterations: 132
currently lose_sum: 0.7201290726661682
time_elpased: 64.458
#iterations: 133
currently lose_sum: 0.7008639574050903
time_elpased: 64.654
#iterations: 134
currently lose_sum: 0.7011067271232605
time_elpased: 64.544
#iterations: 135
currently lose_sum: 0.6692320108413696
time_elpased: 64.655
#iterations: 136
currently lose_sum: 0.6790642738342285
time_elpased: 64.91
#iterations: 137
currently lose_sum: 0.7087464928627014
time_elpased: 64.555
#iterations: 138
currently lose_sum: 0.679840087890625
time_elpased: 65.067
#iterations: 139
currently lose_sum: 0.658588707447052
time_elpased: 64.179
start validation test
0.5528
0.554112554113
0.605678233438
0.578749058026
0.552027428408
17.045
#iterations: 140
currently lose_sum: 0.7384212017059326
time_elpased: 65.51
#iterations: 141
currently lose_sum: 0.6882156133651733
time_elpased: 64.843
#iterations: 142
currently lose_sum: 0.7127532958984375
time_elpased: 65.056
#iterations: 143
currently lose_sum: 0.6804093718528748
time_elpased: 65.353
#iterations: 144
currently lose_sum: 0.6697657704353333
time_elpased: 65.368
#iterations: 145
currently lose_sum: 0.6370211243629456
time_elpased: 65.16
#iterations: 146
currently lose_sum: 0.6829438805580139
time_elpased: 65.491
#iterations: 147
currently lose_sum: 0.7000288367271423
time_elpased: 64.447
#iterations: 148
currently lose_sum: 0.6894636750221252
time_elpased: 65.24
#iterations: 149
currently lose_sum: 0.6827622056007385
time_elpased: 64.546
#iterations: 150
currently lose_sum: 0.7017603516578674
time_elpased: 65.701
#iterations: 151
currently lose_sum: 0.6839916110038757
time_elpased: 64.492
#iterations: 152
currently lose_sum: 0.6609028577804565
time_elpased: 64.345
#iterations: 153
currently lose_sum: 0.6904629468917847
time_elpased: 65.4
#iterations: 154
currently lose_sum: 0.6727049350738525
time_elpased: 65.493
#iterations: 155
currently lose_sum: 0.6625379920005798
time_elpased: 64.318
#iterations: 156
currently lose_sum: 0.7025507092475891
time_elpased: 65.315
#iterations: 157
currently lose_sum: 0.6821157932281494
time_elpased: 64.68
#iterations: 158
currently lose_sum: 0.6675209999084473
time_elpased: 64.79
#iterations: 159
currently lose_sum: 0.6841796040534973
time_elpased: 65.442
start validation test
0.5664
0.600877192982
0.432176656151
0.502752293578
0.568361055348
16.972
#iterations: 160
currently lose_sum: 0.6647474765777588
time_elpased: 63.808
#iterations: 161
currently lose_sum: 0.6933460831642151
time_elpased: 65.452
#iterations: 162
currently lose_sum: 0.674927830696106
time_elpased: 65.028
#iterations: 163
currently lose_sum: 0.6713796854019165
time_elpased: 65.695
#iterations: 164
currently lose_sum: 0.6453625559806824
time_elpased: 65.218
#iterations: 165
currently lose_sum: 0.6884911060333252
time_elpased: 65.158
#iterations: 166
currently lose_sum: 0.6740773916244507
time_elpased: 64.766
#iterations: 167
currently lose_sum: 0.6779615879058838
time_elpased: 65.546
#iterations: 168
currently lose_sum: 0.6859579682350159
time_elpased: 64.369
#iterations: 169
currently lose_sum: 0.7170959711074829
time_elpased: 65.08
#iterations: 170
currently lose_sum: 0.6536744832992554
time_elpased: 66.129
#iterations: 171
currently lose_sum: 0.6889631748199463
time_elpased: 65.72
#iterations: 172
currently lose_sum: 0.6773122549057007
time_elpased: 64.28
#iterations: 173
currently lose_sum: 0.699170708656311
time_elpased: 64.233
#iterations: 174
currently lose_sum: 0.6696678400039673
time_elpased: 65.005
#iterations: 175
currently lose_sum: 0.6790501475334167
time_elpased: 65.045
#iterations: 176
currently lose_sum: 0.6712576150894165
time_elpased: 64.745
#iterations: 177
currently lose_sum: 0.6415776014328003
time_elpased: 64.363
#iterations: 178
currently lose_sum: 0.6799059510231018
time_elpased: 65.775
#iterations: 179
currently lose_sum: 0.6640183329582214
time_elpased: 64.87
start validation test
0.5616
0.596846846847
0.417981072555
0.491651205937
0.563698328485
17.017
#iterations: 180
currently lose_sum: 0.6551020741462708
time_elpased: 65.017
#iterations: 181
currently lose_sum: 0.6916297674179077
time_elpased: 64.295
#iterations: 182
currently lose_sum: 0.6897357106208801
time_elpased: 66.129
#iterations: 183
currently lose_sum: 0.6965528726577759
time_elpased: 65.829
#iterations: 184
currently lose_sum: 0.6854232549667358
time_elpased: 66.228
#iterations: 185
currently lose_sum: 0.6906688213348389
time_elpased: 64.788
#iterations: 186
currently lose_sum: 0.6590998768806458
time_elpased: 65.439
#iterations: 187
currently lose_sum: 0.6902002096176147
time_elpased: 64.965
#iterations: 188
currently lose_sum: 0.6753346920013428
time_elpased: 64.736
#iterations: 189
currently lose_sum: 0.6857465505599976
time_elpased: 64.971
#iterations: 190
currently lose_sum: 0.682635486125946
time_elpased: 65.237
#iterations: 191
currently lose_sum: 0.6532256603240967
time_elpased: 65.594
#iterations: 192
currently lose_sum: 0.6876956820487976
time_elpased: 65.096
#iterations: 193
currently lose_sum: 0.6571045517921448
time_elpased: 63.701
#iterations: 194
currently lose_sum: 0.6817169189453125
time_elpased: 65.097
#iterations: 195
currently lose_sum: 0.6782543659210205
time_elpased: 64.274
#iterations: 196
currently lose_sum: 0.7030208110809326
time_elpased: 64.787
#iterations: 197
currently lose_sum: 0.6802294850349426
time_elpased: 64.482
#iterations: 198
currently lose_sum: 0.6494792699813843
time_elpased: 64.472
#iterations: 199
currently lose_sum: 0.6502475142478943
time_elpased: 64.452
start validation test
0.5464
0.536255411255
0.781545741325
0.636071887035
0.542964429104
17.127
#iterations: 200
currently lose_sum: 0.6890808343887329
time_elpased: 65.021
#iterations: 201
currently lose_sum: 0.6680260300636292
time_elpased: 66.17
#iterations: 202
currently lose_sum: 0.6765215396881104
time_elpased: 64.995
#iterations: 203
currently lose_sum: 0.6624401211738586
time_elpased: 66.127
#iterations: 204
currently lose_sum: 0.687987208366394
time_elpased: 64.194
#iterations: 205
currently lose_sum: 0.6783832311630249
time_elpased: 64.755
#iterations: 206
currently lose_sum: 0.6862475872039795
time_elpased: 65.253
#iterations: 207
currently lose_sum: 0.6892697215080261
time_elpased: 65.456
#iterations: 208
currently lose_sum: 0.6536480188369751
time_elpased: 64.479
#iterations: 209
currently lose_sum: 0.6788363456726074
time_elpased: 65.461
#iterations: 210
currently lose_sum: 0.6715748310089111
time_elpased: 64.839
#iterations: 211
currently lose_sum: 0.6734716892242432
time_elpased: 64.359
#iterations: 212
currently lose_sum: 0.6794155836105347
time_elpased: 64.393
#iterations: 213
currently lose_sum: 0.638896644115448
time_elpased: 65.071
#iterations: 214
currently lose_sum: 0.6819003224372864
time_elpased: 64.416
#iterations: 215
currently lose_sum: 0.6797168254852295
time_elpased: 65.522
#iterations: 216
currently lose_sum: 0.6721388101577759
time_elpased: 64.799
#iterations: 217
currently lose_sum: 0.6794449687004089
time_elpased: 65.158
#iterations: 218
currently lose_sum: 0.6820613741874695
time_elpased: 64.401
#iterations: 219
currently lose_sum: 0.6631675958633423
time_elpased: 64.656
start validation test
0.5512
0.536609829488
0.843848580442
0.65603923973
0.546924290221
17.162
#iterations: 220
currently lose_sum: 0.6609593033790588
time_elpased: 65.263
#iterations: 221
currently lose_sum: 0.6814273595809937
time_elpased: 66.207
#iterations: 222
currently lose_sum: 0.634306013584137
time_elpased: 64.845
#iterations: 223
currently lose_sum: 0.6757615804672241
time_elpased: 65.086
#iterations: 224
currently lose_sum: 0.6587948799133301
time_elpased: 65.012
#iterations: 225
currently lose_sum: 0.6339722275733948
time_elpased: 65.524
#iterations: 226
currently lose_sum: 0.6551960706710815
time_elpased: 65.022
#iterations: 227
currently lose_sum: 0.656806230545044
time_elpased: 64.983
#iterations: 228
currently lose_sum: 0.6823322772979736
time_elpased: 64.962
#iterations: 229
currently lose_sum: 0.6354159116744995
time_elpased: 65.218
#iterations: 230
currently lose_sum: 0.667717456817627
time_elpased: 64.951
#iterations: 231
currently lose_sum: 0.662964940071106
time_elpased: 64.68
#iterations: 232
currently lose_sum: 0.6843084692955017
time_elpased: 65.108
#iterations: 233
currently lose_sum: 0.6895305514335632
time_elpased: 64.969
#iterations: 234
currently lose_sum: 0.6383987665176392
time_elpased: 65.289
#iterations: 235
currently lose_sum: 0.6450346112251282
time_elpased: 64.659
#iterations: 236
currently lose_sum: 0.6552976965904236
time_elpased: 65.366
#iterations: 237
currently lose_sum: 0.6629140973091125
time_elpased: 65.092
#iterations: 238
currently lose_sum: 0.6665989756584167
time_elpased: 64.89
#iterations: 239
currently lose_sum: 0.6662202477455139
time_elpased: 64.266
start validation test
0.5796
0.589595375723
0.56309148265
0.576038725292
0.57984119587
16.878
#iterations: 240
currently lose_sum: 0.6936571002006531
time_elpased: 65.241
#iterations: 241
currently lose_sum: 0.6361119151115417
time_elpased: 65.176
#iterations: 242
currently lose_sum: 0.6820913553237915
time_elpased: 64.603
#iterations: 243
currently lose_sum: 0.6653987169265747
time_elpased: 64.996
#iterations: 244
currently lose_sum: 0.6750776767730713
time_elpased: 65.186
#iterations: 245
currently lose_sum: 0.6815370321273804
time_elpased: 63.848
#iterations: 246
currently lose_sum: 0.6654518246650696
time_elpased: 65.447
#iterations: 247
currently lose_sum: 0.6659489274024963
time_elpased: 63.979
#iterations: 248
currently lose_sum: 0.6529513597488403
time_elpased: 64.322
#iterations: 249
currently lose_sum: 0.7035092115402222
time_elpased: 64.979
#iterations: 250
currently lose_sum: 0.6697576642036438
time_elpased: 64.96
#iterations: 251
currently lose_sum: 0.686329185962677
time_elpased: 64.873
#iterations: 252
currently lose_sum: 0.655099630355835
time_elpased: 65.908
#iterations: 253
currently lose_sum: 0.6405503749847412
time_elpased: 65.058
#iterations: 254
currently lose_sum: 0.6654480695724487
time_elpased: 65.003
#iterations: 255
currently lose_sum: 0.6393489241600037
time_elpased: 65.714
#iterations: 256
currently lose_sum: 0.6722468733787537
time_elpased: 65.844
#iterations: 257
currently lose_sum: 0.6579601764678955
time_elpased: 65.134
#iterations: 258
currently lose_sum: 0.6620282530784607
time_elpased: 64.308
#iterations: 259
currently lose_sum: 0.6415918469429016
time_elpased: 65.395
start validation test
0.5756
0.588537211292
0.542586750789
0.564628641773
0.576082336433
16.872
#iterations: 260
currently lose_sum: 0.6377236247062683
time_elpased: 66.296
#iterations: 261
currently lose_sum: 0.6886081099510193
time_elpased: 64.73
#iterations: 262
currently lose_sum: 0.6626297831535339
time_elpased: 64.032
#iterations: 263
currently lose_sum: 0.6464436054229736
time_elpased: 65.373
#iterations: 264
currently lose_sum: 0.6978137493133545
time_elpased: 65.189
#iterations: 265
currently lose_sum: 0.7060562372207642
time_elpased: 65.996
#iterations: 266
currently lose_sum: 0.6601646542549133
time_elpased: 64.951
#iterations: 267
currently lose_sum: 0.6808565258979797
time_elpased: 65.088
#iterations: 268
currently lose_sum: 0.6343355178833008
time_elpased: 64.619
#iterations: 269
currently lose_sum: 0.6548660397529602
time_elpased: 64.62
#iterations: 270
currently lose_sum: 0.6840890645980835
time_elpased: 64.096
#iterations: 271
currently lose_sum: 0.6621513366699219
time_elpased: 65.488
#iterations: 272
currently lose_sum: 0.6717352271080017
time_elpased: 66.433
#iterations: 273
currently lose_sum: 0.6702458262443542
time_elpased: 64.809
#iterations: 274
currently lose_sum: 0.6539852619171143
time_elpased: 65.097
#iterations: 275
currently lose_sum: 0.6601049304008484
time_elpased: 65.0
#iterations: 276
currently lose_sum: 0.6433484554290771
time_elpased: 65.44
#iterations: 277
currently lose_sum: 0.6693592667579651
time_elpased: 65.213
#iterations: 278
currently lose_sum: 0.6833383440971375
time_elpased: 65.079
#iterations: 279
currently lose_sum: 0.6455296277999878
time_elpased: 65.101
start validation test
0.5728
0.605485232068
0.452681388013
0.518050541516
0.574554979721
16.796
#iterations: 280
currently lose_sum: 0.6804332137107849
time_elpased: 64.807
#iterations: 281
currently lose_sum: 0.6545409560203552
time_elpased: 65.132
#iterations: 282
currently lose_sum: 0.6992048621177673
time_elpased: 65.107
#iterations: 283
currently lose_sum: 0.6880338191986084
time_elpased: 65.66
#iterations: 284
currently lose_sum: 0.6570141315460205
time_elpased: 65.14
#iterations: 285
currently lose_sum: 0.6615623235702515
time_elpased: 64.473
#iterations: 286
currently lose_sum: 0.7145130634307861
time_elpased: 65.18
#iterations: 287
currently lose_sum: 0.7165884375572205
time_elpased: 65.737
#iterations: 288
currently lose_sum: 0.6682612895965576
time_elpased: 64.576
#iterations: 289
currently lose_sum: 0.6961947083473206
time_elpased: 64.646
#iterations: 290
currently lose_sum: 0.6791189312934875
time_elpased: 64.669
#iterations: 291
currently lose_sum: 0.6410368084907532
time_elpased: 65.672
#iterations: 292
currently lose_sum: 0.6849966645240784
time_elpased: 64.596
#iterations: 293
currently lose_sum: 0.6516215801239014
time_elpased: 63.73
#iterations: 294
currently lose_sum: 0.6449045538902283
time_elpased: 66.296
#iterations: 295
currently lose_sum: 0.6548976302146912
time_elpased: 65.988
#iterations: 296
currently lose_sum: 0.6695192456245422
time_elpased: 65.125
#iterations: 297
currently lose_sum: 0.6605870127677917
time_elpased: 65.866
#iterations: 298
currently lose_sum: 0.7043998837471008
time_elpased: 65.944
#iterations: 299
currently lose_sum: 0.673968493938446
time_elpased: 64.752
start validation test
0.5604
0.548759376803
0.75
0.633788737088
0.55762987013
16.957
#iterations: 300
currently lose_sum: 0.6508598327636719
time_elpased: 65.415
#iterations: 301
currently lose_sum: 0.6719368100166321
time_elpased: 65.242
#iterations: 302
currently lose_sum: 0.676889181137085
time_elpased: 64.948
#iterations: 303
currently lose_sum: 0.6636974811553955
time_elpased: 65.841
#iterations: 304
currently lose_sum: 0.656862199306488
time_elpased: 65.657
#iterations: 305
currently lose_sum: 0.6514676809310913
time_elpased: 66.461
#iterations: 306
currently lose_sum: 0.6724954843521118
time_elpased: 65.922
#iterations: 307
currently lose_sum: 0.7103515863418579
time_elpased: 65.678
#iterations: 308
currently lose_sum: 0.7025778293609619
time_elpased: 65.417
#iterations: 309
currently lose_sum: 0.6698852777481079
time_elpased: 66.331
#iterations: 310
currently lose_sum: 0.6663592457771301
time_elpased: 65.186
#iterations: 311
currently lose_sum: 0.6879095435142517
time_elpased: 65.872
#iterations: 312
currently lose_sum: 0.7132954597473145
time_elpased: 64.884
#iterations: 313
currently lose_sum: 0.6985795497894287
time_elpased: 66.332
#iterations: 314
currently lose_sum: 0.6934161186218262
time_elpased: 64.81
#iterations: 315
currently lose_sum: 0.6506192088127136
time_elpased: 66.543
#iterations: 316
currently lose_sum: 0.724393904209137
time_elpased: 65.731
#iterations: 317
currently lose_sum: 0.6319575309753418
time_elpased: 64.164
#iterations: 318
currently lose_sum: 0.6904880404472351
time_elpased: 65.619
#iterations: 319
currently lose_sum: 0.6781022548675537
time_elpased: 66.372
start validation test
0.576
0.58125
0.586750788644
0.58398744113
0.575842926789
16.933
#iterations: 320
currently lose_sum: 0.6602929830551147
time_elpased: 66.616
#iterations: 321
currently lose_sum: 0.652935802936554
time_elpased: 64.628
#iterations: 322
currently lose_sum: 0.6372817158699036
time_elpased: 65.742
#iterations: 323
currently lose_sum: 0.6549184918403625
time_elpased: 64.714
#iterations: 324
currently lose_sum: 0.6795741319656372
time_elpased: 65.999
#iterations: 325
currently lose_sum: 0.6706967949867249
time_elpased: 64.654
#iterations: 326
currently lose_sum: 0.6735727190971375
time_elpased: 64.375
#iterations: 327
currently lose_sum: 0.6546102166175842
time_elpased: 65.327
#iterations: 328
currently lose_sum: 0.6337273716926575
time_elpased: 65.536
#iterations: 329
currently lose_sum: 0.6801967024803162
time_elpased: 64.875
#iterations: 330
currently lose_sum: 0.6213613748550415
time_elpased: 64.646
#iterations: 331
currently lose_sum: 0.6785240173339844
time_elpased: 64.565
#iterations: 332
currently lose_sum: 0.6501539349555969
time_elpased: 65.417
#iterations: 333
currently lose_sum: 0.6466535925865173
time_elpased: 65.657
#iterations: 334
currently lose_sum: 0.6846907138824463
time_elpased: 64.281
#iterations: 335
currently lose_sum: 0.6588671803474426
time_elpased: 64.219
#iterations: 336
currently lose_sum: 0.6844635009765625
time_elpased: 65.561
#iterations: 337
currently lose_sum: 0.6510421633720398
time_elpased: 63.943
#iterations: 338
currently lose_sum: 0.6960710287094116
time_elpased: 65.06
#iterations: 339
currently lose_sum: 0.6627793908119202
time_elpased: 64.856
start validation test
0.5636
0.62447257384
0.350157728707
0.44871147044
0.566718474743
16.950
#iterations: 340
currently lose_sum: 0.6651483774185181
time_elpased: 64.483
#iterations: 341
currently lose_sum: 0.6639541387557983
time_elpased: 65.539
#iterations: 342
currently lose_sum: 0.6277711391448975
time_elpased: 65.471
#iterations: 343
currently lose_sum: 0.6817921996116638
time_elpased: 63.95
#iterations: 344
currently lose_sum: 0.658313512802124
time_elpased: 66.017
#iterations: 345
currently lose_sum: 0.7012414336204529
time_elpased: 64.833
#iterations: 346
currently lose_sum: 0.6730594635009766
time_elpased: 65.913
#iterations: 347
currently lose_sum: 0.6690086126327515
time_elpased: 64.84
#iterations: 348
currently lose_sum: 0.659339427947998
time_elpased: 65.449
#iterations: 349
currently lose_sum: 0.679767906665802
time_elpased: 65.274
#iterations: 350
currently lose_sum: 0.712759256362915
time_elpased: 64.949
#iterations: 351
currently lose_sum: 0.6243878602981567
time_elpased: 65.088
#iterations: 352
currently lose_sum: 0.6666161417961121
time_elpased: 65.111
#iterations: 353
currently lose_sum: 0.6723765730857849
time_elpased: 66.603
#iterations: 354
currently lose_sum: 0.6655402183532715
time_elpased: 65.427
#iterations: 355
currently lose_sum: 0.6220552325248718
time_elpased: 65.49
#iterations: 356
currently lose_sum: 0.674609363079071
time_elpased: 65.74
#iterations: 357
currently lose_sum: 0.691219687461853
time_elpased: 65.226
#iterations: 358
currently lose_sum: 0.6411860585212708
time_elpased: 65.03
#iterations: 359
currently lose_sum: 0.6413097977638245
time_elpased: 64.387
start validation test
0.5728
0.585324232082
0.541009463722
0.562295081967
0.573264472121
16.894
#iterations: 360
currently lose_sum: 0.6834749579429626
time_elpased: 66.428
#iterations: 361
currently lose_sum: 0.6647441983222961
time_elpased: 65.621
#iterations: 362
currently lose_sum: 0.6320812702178955
time_elpased: 66.694
#iterations: 363
currently lose_sum: 0.6372907757759094
time_elpased: 64.798
#iterations: 364
currently lose_sum: 0.6589979529380798
time_elpased: 65.561
#iterations: 365
currently lose_sum: 0.6962840557098389
time_elpased: 65.576
#iterations: 366
currently lose_sum: 0.6507043242454529
time_elpased: 64.207
#iterations: 367
currently lose_sum: 0.6260023713111877
time_elpased: 65.968
#iterations: 368
currently lose_sum: 0.6679229140281677
time_elpased: 64.805
#iterations: 369
currently lose_sum: 0.6363190412521362
time_elpased: 63.943
#iterations: 370
currently lose_sum: 0.6279054880142212
time_elpased: 64.831
#iterations: 371
currently lose_sum: 0.6629499793052673
time_elpased: 65.257
#iterations: 372
currently lose_sum: 0.6607749462127686
time_elpased: 64.374
#iterations: 373
currently lose_sum: 0.652773380279541
time_elpased: 64.717
#iterations: 374
currently lose_sum: 0.6393076777458191
time_elpased: 66.03
#iterations: 375
currently lose_sum: 0.6712591648101807
time_elpased: 65.025
#iterations: 376
currently lose_sum: 0.671233594417572
time_elpased: 65.657
#iterations: 377
currently lose_sum: 0.6835739016532898
time_elpased: 65.493
#iterations: 378
currently lose_sum: 0.6561336517333984
time_elpased: 65.347
#iterations: 379
currently lose_sum: 0.6671783924102783
time_elpased: 65.062
start validation test
0.5828
0.583643122677
0.619085173502
0.600841944126
0.582269859478
16.769
#iterations: 380
currently lose_sum: 0.6460609436035156
time_elpased: 64.624
#iterations: 381
currently lose_sum: 0.6444634795188904
time_elpased: 65.611
#iterations: 382
currently lose_sum: 0.6340559124946594
time_elpased: 65.451
#iterations: 383
currently lose_sum: 0.6364784240722656
time_elpased: 65.096
#iterations: 384
currently lose_sum: 0.6754133105278015
time_elpased: 64.614
#iterations: 385
currently lose_sum: 0.6815919280052185
time_elpased: 65.317
#iterations: 386
currently lose_sum: 0.6943826079368591
time_elpased: 65.459
#iterations: 387
currently lose_sum: 0.642815113067627
time_elpased: 65.61
#iterations: 388
currently lose_sum: 0.6228827834129333
time_elpased: 65.835
#iterations: 389
currently lose_sum: 0.6532944440841675
time_elpased: 64.635
#iterations: 390
currently lose_sum: 0.6757542490959167
time_elpased: 64.696
#iterations: 391
currently lose_sum: 0.6391664147377014
time_elpased: 63.88
#iterations: 392
currently lose_sum: 0.6811577081680298
time_elpased: 64.975
#iterations: 393
currently lose_sum: 0.6745704412460327
time_elpased: 66.119
#iterations: 394
currently lose_sum: 0.6637969017028809
time_elpased: 65.046
#iterations: 395
currently lose_sum: 0.6833956241607666
time_elpased: 65.219
#iterations: 396
currently lose_sum: 0.7146127820014954
time_elpased: 64.631
#iterations: 397
currently lose_sum: 0.6407893300056458
time_elpased: 66.129
#iterations: 398
currently lose_sum: 0.6781600713729858
time_elpased: 65.358
#iterations: 399
currently lose_sum: 0.668731689453125
time_elpased: 65.269
start validation test
0.5676
0.608342989571
0.41403785489
0.492726419521
0.569843602769
16.892
#iterations: 400
currently lose_sum: 0.6529676914215088
time_elpased: 65.584
#iterations: 401
currently lose_sum: 0.6573014855384827
time_elpased: 65.678
#iterations: 402
currently lose_sum: 0.674969494342804
time_elpased: 65.188
#iterations: 403
currently lose_sum: 0.6966703534126282
time_elpased: 63.679
#iterations: 404
currently lose_sum: 0.6491082906723022
time_elpased: 64.851
#iterations: 405
currently lose_sum: 0.6375648379325867
time_elpased: 64.988
#iterations: 406
currently lose_sum: 0.6543200612068176
time_elpased: 64.533
#iterations: 407
currently lose_sum: 0.6928895711898804
time_elpased: 65.16
#iterations: 408
currently lose_sum: 0.7291407585144043
time_elpased: 64.857
#iterations: 409
currently lose_sum: 0.6491366624832153
time_elpased: 64.386
#iterations: 410
currently lose_sum: 0.6702163219451904
time_elpased: 66.115
#iterations: 411
currently lose_sum: 0.6484284400939941
time_elpased: 64.261
#iterations: 412
currently lose_sum: 0.6228495836257935
time_elpased: 66.078
#iterations: 413
currently lose_sum: 0.6834446787834167
time_elpased: 65.656
#iterations: 414
currently lose_sum: 0.6390081644058228
time_elpased: 64.954
#iterations: 415
currently lose_sum: 0.6835184693336487
time_elpased: 60.686
#iterations: 416
currently lose_sum: 0.6601028442382812
time_elpased: 63.366
#iterations: 417
currently lose_sum: 0.651366651058197
time_elpased: 64.691
#iterations: 418
currently lose_sum: 0.6758068799972534
time_elpased: 65.548
#iterations: 419
currently lose_sum: 0.6395069360733032
time_elpased: 64.8
start validation test
0.5668
0.624161073826
0.366719242902
0.461997019374
0.569723257815
17.055
#iterations: 420
currently lose_sum: 0.6688743829727173
time_elpased: 65.437
#iterations: 421
currently lose_sum: 0.6862719655036926
time_elpased: 66.108
#iterations: 422
currently lose_sum: 0.6551200747489929
time_elpased: 64.834
#iterations: 423
currently lose_sum: 0.6566742062568665
time_elpased: 64.995
#iterations: 424
currently lose_sum: 0.6679890155792236
time_elpased: 64.371
#iterations: 425
currently lose_sum: 0.6553483605384827
time_elpased: 65.376
#iterations: 426
currently lose_sum: 0.640729546546936
time_elpased: 64.373
#iterations: 427
currently lose_sum: 0.6344614624977112
time_elpased: 63.443
#iterations: 428
currently lose_sum: 0.6773425936698914
time_elpased: 64.542
#iterations: 429
currently lose_sum: 0.6360565423965454
time_elpased: 65.173
#iterations: 430
currently lose_sum: 0.6570556163787842
time_elpased: 65.2
#iterations: 431
currently lose_sum: 0.663658618927002
time_elpased: 64.951
#iterations: 432
currently lose_sum: 0.646104097366333
time_elpased: 65.293
#iterations: 433
currently lose_sum: 0.6402734518051147
time_elpased: 65.07
#iterations: 434
currently lose_sum: 0.6786746382713318
time_elpased: 65.861
#iterations: 435
currently lose_sum: 0.6617169380187988
time_elpased: 64.643
#iterations: 436
currently lose_sum: 0.6354108452796936
time_elpased: 64.697
#iterations: 437
currently lose_sum: 0.6477165818214417
time_elpased: 65.773
#iterations: 438
currently lose_sum: 0.6625979542732239
time_elpased: 65.914
#iterations: 439
currently lose_sum: 0.6516804695129395
time_elpased: 64.728
start validation test
0.552
0.645669291339
0.258675078864
0.369369369369
0.55628559138
17.034
#iterations: 440
currently lose_sum: 0.6580161452293396
time_elpased: 65.082
#iterations: 441
currently lose_sum: 0.6546819806098938
time_elpased: 65.347
#iterations: 442
currently lose_sum: 0.6765934228897095
time_elpased: 63.927
#iterations: 443
currently lose_sum: 0.6984217762947083
time_elpased: 64.385
#iterations: 444
currently lose_sum: 0.6201945543289185
time_elpased: 64.86
#iterations: 445
currently lose_sum: 0.7363090515136719
time_elpased: 65.189
#iterations: 446
currently lose_sum: 0.6774997115135193
time_elpased: 65.611
#iterations: 447
currently lose_sum: 0.6307852268218994
time_elpased: 65.283
#iterations: 448
currently lose_sum: 0.6550644040107727
time_elpased: 64.865
#iterations: 449
currently lose_sum: 0.6487168669700623
time_elpased: 65.032
#iterations: 450
currently lose_sum: 0.6338082551956177
time_elpased: 64.746
#iterations: 451
currently lose_sum: 0.6736769080162048
time_elpased: 66.106
#iterations: 452
currently lose_sum: 0.6354566812515259
time_elpased: 65.024
#iterations: 453
currently lose_sum: 0.656238317489624
time_elpased: 64.049
#iterations: 454
currently lose_sum: 0.6465682983398438
time_elpased: 65.034
#iterations: 455
currently lose_sum: 0.6415389180183411
time_elpased: 65.835
#iterations: 456
currently lose_sum: 0.6560549736022949
time_elpased: 64.695
#iterations: 457
currently lose_sum: 0.6877315640449524
time_elpased: 66.639
#iterations: 458
currently lose_sum: 0.6332361698150635
time_elpased: 65.765
#iterations: 459
currently lose_sum: 0.6605586409568787
time_elpased: 64.441
start validation test
0.5828
0.603878116343
0.515772870662
0.556358996172
0.583779292474
16.833
#iterations: 460
currently lose_sum: 0.672031581401825
time_elpased: 64.91
#iterations: 461
currently lose_sum: 0.6493366956710815
time_elpased: 65.368
#iterations: 462
currently lose_sum: 0.6928719282150269
time_elpased: 65.735
#iterations: 463
currently lose_sum: 0.6174790859222412
time_elpased: 65.62
#iterations: 464
currently lose_sum: 0.6915277242660522
time_elpased: 65.668
#iterations: 465
currently lose_sum: 0.6622033715248108
time_elpased: 65.614
#iterations: 466
currently lose_sum: 0.671471118927002
time_elpased: 64.963
#iterations: 467
currently lose_sum: 0.7137707471847534
time_elpased: 65.16
#iterations: 468
currently lose_sum: 0.6483166217803955
time_elpased: 65.059
#iterations: 469
currently lose_sum: 0.6964553594589233
time_elpased: 64.933
#iterations: 470
currently lose_sum: 0.6343137621879578
time_elpased: 64.833
#iterations: 471
currently lose_sum: 0.672670841217041
time_elpased: 66.034
#iterations: 472
currently lose_sum: 0.6650692224502563
time_elpased: 65.428
#iterations: 473
currently lose_sum: 0.6446059346199036
time_elpased: 65.444
#iterations: 474
currently lose_sum: 0.6302189826965332
time_elpased: 65.322
#iterations: 475
currently lose_sum: 0.6745809316635132
time_elpased: 65.52
#iterations: 476
currently lose_sum: 0.7036120891571045
time_elpased: 64.992
#iterations: 477
currently lose_sum: 0.641376793384552
time_elpased: 65.113
#iterations: 478
currently lose_sum: 0.6729602217674255
time_elpased: 65.144
#iterations: 479
currently lose_sum: 0.6590740084648132
time_elpased: 65.938
start validation test
0.5672
0.630985915493
0.353312302839
0.45298281092
0.570324982588
17.036
#iterations: 480
currently lose_sum: 0.6394767761230469
time_elpased: 64.811
#iterations: 481
currently lose_sum: 0.6847101449966431
time_elpased: 66.39
#iterations: 482
currently lose_sum: 0.6550492644309998
time_elpased: 65.254
#iterations: 483
currently lose_sum: 0.7207868695259094
time_elpased: 66.006
#iterations: 484
currently lose_sum: 0.6462795734405518
time_elpased: 65.192
#iterations: 485
currently lose_sum: 0.639230489730835
time_elpased: 65.171
#iterations: 486
currently lose_sum: 0.6683520674705505
time_elpased: 66.419
#iterations: 487
currently lose_sum: 0.643933117389679
time_elpased: 64.979
#iterations: 488
currently lose_sum: 0.6969856023788452
time_elpased: 64.468
#iterations: 489
currently lose_sum: 0.6834485530853271
time_elpased: 64.941
#iterations: 490
currently lose_sum: 0.6811927556991577
time_elpased: 65.368
#iterations: 491
currently lose_sum: 0.6742596626281738
time_elpased: 64.249
#iterations: 492
currently lose_sum: 0.6481393575668335
time_elpased: 64.866
#iterations: 493
currently lose_sum: 0.677459716796875
time_elpased: 64.058
#iterations: 494
currently lose_sum: 0.628165066242218
time_elpased: 65.748
#iterations: 495
currently lose_sum: 0.6757859587669373
time_elpased: 65.143
#iterations: 496
currently lose_sum: 0.6850848197937012
time_elpased: 65.158
#iterations: 497
currently lose_sum: 0.6338468790054321
time_elpased: 65.167
#iterations: 498
currently lose_sum: 0.6787540912628174
time_elpased: 64.311
#iterations: 499
currently lose_sum: 0.6648706197738647
time_elpased: 65.831
start validation test
0.57
0.560199625702
0.708201892744
0.625566004876
0.567980816502
16.758
#iterations: 500
currently lose_sum: 0.6552472114562988
time_elpased: 66.655
#iterations: 501
currently lose_sum: 0.6296541690826416
time_elpased: 65.71
#iterations: 502
currently lose_sum: 0.6817330718040466
time_elpased: 65.032
#iterations: 503
currently lose_sum: 0.6298190355300903
time_elpased: 66.179
#iterations: 504
currently lose_sum: 0.6925250887870789
time_elpased: 64.927
#iterations: 505
currently lose_sum: 0.6787059903144836
time_elpased: 65.075
#iterations: 506
currently lose_sum: 0.6689298748970032
time_elpased: 65.663
#iterations: 507
currently lose_sum: 0.7303881645202637
time_elpased: 64.281
#iterations: 508
currently lose_sum: 0.6612589955329895
time_elpased: 64.409
#iterations: 509
currently lose_sum: 0.6273176074028015
time_elpased: 64.28
#iterations: 510
currently lose_sum: 0.6459622383117676
time_elpased: 61.938
#iterations: 511
currently lose_sum: 0.6895084381103516
time_elpased: 64.259
#iterations: 512
currently lose_sum: 0.692643404006958
time_elpased: 64.838
#iterations: 513
currently lose_sum: 0.6913418769836426
time_elpased: 66.148
#iterations: 514
currently lose_sum: 0.6697126030921936
time_elpased: 64.78
#iterations: 515
currently lose_sum: 0.5982882976531982
time_elpased: 65.987
#iterations: 516
currently lose_sum: 0.6809375286102295
time_elpased: 63.032
#iterations: 517
currently lose_sum: 0.6354548931121826
time_elpased: 64.009
#iterations: 518
currently lose_sum: 0.6834937334060669
time_elpased: 64.6
#iterations: 519
currently lose_sum: 0.6842811703681946
time_elpased: 66.099
start validation test
0.5664
0.591816367265
0.467665615142
0.522466960352
0.567842547831
16.853
#iterations: 520
currently lose_sum: 0.6442124247550964
time_elpased: 65.578
#iterations: 521
currently lose_sum: 0.6622432470321655
time_elpased: 64.173
#iterations: 522
currently lose_sum: 0.6910257935523987
time_elpased: 65.833
#iterations: 523
currently lose_sum: 0.6423922777175903
time_elpased: 65.801
#iterations: 524
currently lose_sum: 0.6514849662780762
time_elpased: 65.997
#iterations: 525
currently lose_sum: 0.6271080374717712
time_elpased: 64.954
#iterations: 526
currently lose_sum: 0.6531991362571716
time_elpased: 64.849
#iterations: 527
currently lose_sum: 0.6668244004249573
time_elpased: 64.5
#iterations: 528
currently lose_sum: 0.603598952293396
time_elpased: 65.583
#iterations: 529
currently lose_sum: 0.6147546172142029
time_elpased: 65.296
#iterations: 530
currently lose_sum: 0.6299393773078918
time_elpased: 65.893
#iterations: 531
currently lose_sum: 0.648806095123291
time_elpased: 64.497
#iterations: 532
currently lose_sum: 0.6325404644012451
time_elpased: 65.451
#iterations: 533
currently lose_sum: 0.6539505124092102
time_elpased: 65.987
#iterations: 534
currently lose_sum: 0.6667213439941406
time_elpased: 66.306
#iterations: 535
currently lose_sum: 0.6106032729148865
time_elpased: 66.09
#iterations: 536
currently lose_sum: 0.6446347832679749
time_elpased: 64.664
#iterations: 537
currently lose_sum: 0.6745626330375671
time_elpased: 65.993
#iterations: 538
currently lose_sum: 0.6574175357818604
time_elpased: 64.237
#iterations: 539
currently lose_sum: 0.6320929527282715
time_elpased: 64.716
start validation test
0.5772
0.569180327869
0.684542586751
0.621553884712
0.575631682986
16.735
#iterations: 540
currently lose_sum: 0.6939834356307983
time_elpased: 65.122
#iterations: 541
currently lose_sum: 0.6525971293449402
time_elpased: 64.618
#iterations: 542
currently lose_sum: 0.6533737182617188
time_elpased: 65.599
#iterations: 543
currently lose_sum: 0.680185079574585
time_elpased: 65.085
#iterations: 544
currently lose_sum: 0.7031324505805969
time_elpased: 65.381
#iterations: 545
currently lose_sum: 0.664661705493927
time_elpased: 65.695
#iterations: 546
currently lose_sum: 0.6416687965393066
time_elpased: 65.047
#iterations: 547
currently lose_sum: 0.668742299079895
time_elpased: 62.409
#iterations: 548
currently lose_sum: 0.6409043669700623
time_elpased: 63.651
#iterations: 549
currently lose_sum: 0.6375136971473694
time_elpased: 63.748
#iterations: 550
currently lose_sum: 0.6746000647544861
time_elpased: 65.47
#iterations: 551
currently lose_sum: 0.6846540570259094
time_elpased: 64.623
#iterations: 552
currently lose_sum: 0.6175404787063599
time_elpased: 64.284
#iterations: 553
currently lose_sum: 0.6695281863212585
time_elpased: 65.912
#iterations: 554
currently lose_sum: 0.6513627767562866
time_elpased: 65.227
#iterations: 555
currently lose_sum: 0.6518186926841736
time_elpased: 65.465
#iterations: 556
currently lose_sum: 0.6673459410667419
time_elpased: 65.177
#iterations: 557
currently lose_sum: 0.6452775597572327
time_elpased: 66.534
#iterations: 558
currently lose_sum: 0.6353977918624878
time_elpased: 65.288
#iterations: 559
currently lose_sum: 0.64654141664505
time_elpased: 65.626
start validation test
0.5836
0.577368779823
0.667981072555
0.619378427788
0.582367159654
16.750
#iterations: 560
currently lose_sum: 0.6272268295288086
time_elpased: 64.854
#iterations: 561
currently lose_sum: 0.6767739653587341
time_elpased: 65.289
#iterations: 562
currently lose_sum: 0.595540463924408
time_elpased: 65.364
#iterations: 563
currently lose_sum: 0.6128184795379639
time_elpased: 64.586
#iterations: 564
currently lose_sum: 0.6505668759346008
time_elpased: 65.393
#iterations: 565
currently lose_sum: 0.647264838218689
time_elpased: 65.873
#iterations: 566
currently lose_sum: 0.6461129784584045
time_elpased: 65.741
#iterations: 567
currently lose_sum: 0.6672995686531067
time_elpased: 65.248
#iterations: 568
currently lose_sum: 0.6694677472114563
time_elpased: 65.456
#iterations: 569
currently lose_sum: 0.6154155135154724
time_elpased: 64.231
#iterations: 570
currently lose_sum: 0.6674355864524841
time_elpased: 65.157
#iterations: 571
currently lose_sum: 0.6611919403076172
time_elpased: 65.129
#iterations: 572
currently lose_sum: 0.6851059198379517
time_elpased: 65.947
#iterations: 573
currently lose_sum: 0.6505785584449768
time_elpased: 65.349
#iterations: 574
currently lose_sum: 0.6657711863517761
time_elpased: 65.553
#iterations: 575
currently lose_sum: 0.6405214071273804
time_elpased: 64.307
#iterations: 576
currently lose_sum: 0.6864272356033325
time_elpased: 65.279
#iterations: 577
currently lose_sum: 0.6433689594268799
time_elpased: 65.166
#iterations: 578
currently lose_sum: 0.6479031443595886
time_elpased: 65.022
#iterations: 579
currently lose_sum: 0.6567519903182983
time_elpased: 65.938
start validation test
0.572
0.566891891892
0.66167192429
0.610625909753
0.570689858249
16.787
#iterations: 580
currently lose_sum: 0.6867027878761292
time_elpased: 64.827
#iterations: 581
currently lose_sum: 0.6602748036384583
time_elpased: 65.837
#iterations: 582
currently lose_sum: 0.6621837615966797
time_elpased: 66.1
#iterations: 583
currently lose_sum: 0.6746460795402527
time_elpased: 65.573
#iterations: 584
currently lose_sum: 0.6532630920410156
time_elpased: 65.403
#iterations: 585
currently lose_sum: 0.6277649998664856
time_elpased: 64.72
#iterations: 586
currently lose_sum: 0.6828237175941467
time_elpased: 66.38
#iterations: 587
currently lose_sum: 0.6266143321990967
time_elpased: 64.171
#iterations: 588
currently lose_sum: 0.6254801750183105
time_elpased: 64.912
#iterations: 589
currently lose_sum: 0.649882435798645
time_elpased: 64.881
#iterations: 590
currently lose_sum: 0.6543214917182922
time_elpased: 65.191
#iterations: 591
currently lose_sum: 0.6318939924240112
time_elpased: 65.202
#iterations: 592
currently lose_sum: 0.6682668924331665
time_elpased: 64.99
#iterations: 593
currently lose_sum: 0.6513233184814453
time_elpased: 65.748
#iterations: 594
currently lose_sum: 0.6787392497062683
time_elpased: 65.59
#iterations: 595
currently lose_sum: 0.6404209733009338
time_elpased: 65.497
#iterations: 596
currently lose_sum: 0.6617404222488403
time_elpased: 64.5
#iterations: 597
currently lose_sum: 0.617322564125061
time_elpased: 65.728
#iterations: 598
currently lose_sum: 0.6555439829826355
time_elpased: 65.267
#iterations: 599
currently lose_sum: 0.7043263912200928
time_elpased: 64.883
start validation test
0.5668
0.608951707892
0.407728706625
0.488427019367
0.569124093572
16.886
acc: 0.589
pre: 0.589
rec: 0.623
F1: 0.606
auc: 0.588
