start to construct computing graph
graph construct over
3802
epochs start
#iterations: 0
currently lose_sum: 0.6924811601638794
time_elpased: 19.676
#iterations: 1
currently lose_sum: 0.6907139420509338
time_elpased: 19.281
#iterations: 2
currently lose_sum: 0.6978585124015808
time_elpased: 19.422
#iterations: 3
currently lose_sum: 0.697904646396637
time_elpased: 19.435
#iterations: 4
currently lose_sum: 0.6948566436767578
time_elpased: 20.064
#iterations: 5
currently lose_sum: 0.6839489936828613
time_elpased: 19.298
#iterations: 6
currently lose_sum: 0.687089204788208
time_elpased: 19.807
#iterations: 7
currently lose_sum: 0.6805778741836548
time_elpased: 19.395
#iterations: 8
currently lose_sum: 0.6930909156799316
time_elpased: 19.447
#iterations: 9
currently lose_sum: 0.6931743621826172
time_elpased: 19.677
#iterations: 10
currently lose_sum: 0.6933152079582214
time_elpased: 19.352
#iterations: 11
currently lose_sum: 0.7022969126701355
time_elpased: 19.349
#iterations: 12
currently lose_sum: 0.7133309245109558
time_elpased: 19.335
#iterations: 13
currently lose_sum: 0.6863420009613037
time_elpased: 19.284
#iterations: 14
currently lose_sum: 0.6840512156486511
time_elpased: 19.22
#iterations: 15
currently lose_sum: 0.6837431192398071
time_elpased: 19.04
#iterations: 16
currently lose_sum: 0.6936266422271729
time_elpased: 19.253
#iterations: 17
currently lose_sum: 0.7088780403137207
time_elpased: 19.225
#iterations: 18
currently lose_sum: 0.6885890960693359
time_elpased: 19.306
#iterations: 19
currently lose_sum: 0.687874972820282
time_elpased: 19.183
start validation test
0.5064
0.521683673469
0.322555205047
0.398635477583
0.509086044082
17.383
#iterations: 20
currently lose_sum: 0.6901357173919678
time_elpased: 18.897
#iterations: 21
currently lose_sum: 0.6901735067367554
time_elpased: 18.514
#iterations: 22
currently lose_sum: 0.7273568511009216
time_elpased: 18.689
#iterations: 23
currently lose_sum: 0.689452588558197
time_elpased: 18.496
#iterations: 24
currently lose_sum: 0.6901742815971375
time_elpased: 18.596
#iterations: 25
currently lose_sum: 0.6980020403862
time_elpased: 18.509
#iterations: 26
currently lose_sum: 0.6886215806007385
time_elpased: 18.466
#iterations: 27
currently lose_sum: 0.7074870467185974
time_elpased: 18.517
#iterations: 28
currently lose_sum: 0.6807948350906372
time_elpased: 18.494
#iterations: 29
currently lose_sum: 0.6891226172447205
time_elpased: 18.442
#iterations: 30
currently lose_sum: 0.6928891539573669
time_elpased: 18.544
#iterations: 31
currently lose_sum: 0.680971086025238
time_elpased: 18.55
#iterations: 32
currently lose_sum: 0.6944206357002258
time_elpased: 18.553
#iterations: 33
currently lose_sum: 0.685508131980896
time_elpased: 18.457
#iterations: 34
currently lose_sum: 0.6851626634597778
time_elpased: 18.537
#iterations: 35
currently lose_sum: 0.6929327249526978
time_elpased: 18.534
#iterations: 36
currently lose_sum: 0.7032729983329773
time_elpased: 18.496
#iterations: 37
currently lose_sum: 0.6987075805664062
time_elpased: 18.498
#iterations: 38
currently lose_sum: 0.6937788128852844
time_elpased: 18.539
#iterations: 39
currently lose_sum: 0.6878029704093933
time_elpased: 18.595
start validation test
0.5296
0.536741214058
0.529968454259
0.533333333333
0.52959461674
17.192
#iterations: 40
currently lose_sum: 0.6893384456634521
time_elpased: 18.58
#iterations: 41
currently lose_sum: 0.6958351135253906
time_elpased: 18.497
#iterations: 42
currently lose_sum: 0.6872812509536743
time_elpased: 18.544
#iterations: 43
currently lose_sum: 0.6800597906112671
time_elpased: 18.87
#iterations: 44
currently lose_sum: 0.6746638417243958
time_elpased: 18.524
#iterations: 45
currently lose_sum: 0.6772247552871704
time_elpased: 18.842
#iterations: 46
currently lose_sum: 0.656535804271698
time_elpased: 18.501
#iterations: 47
currently lose_sum: 0.6907947063446045
time_elpased: 18.538
#iterations: 48
currently lose_sum: 0.6317489743232727
time_elpased: 18.541
#iterations: 49
currently lose_sum: 0.6972497701644897
time_elpased: 18.502
#iterations: 50
currently lose_sum: 0.7013552188873291
time_elpased: 18.922
#iterations: 51
currently lose_sum: 0.728198230266571
time_elpased: 18.573
#iterations: 52
currently lose_sum: 0.670092761516571
time_elpased: 18.527
#iterations: 53
currently lose_sum: 0.654401421546936
time_elpased: 18.617
#iterations: 54
currently lose_sum: 0.683106541633606
time_elpased: 18.634
#iterations: 55
currently lose_sum: 0.6844697594642639
time_elpased: 18.671
#iterations: 56
currently lose_sum: 0.6629660129547119
time_elpased: 18.716
#iterations: 57
currently lose_sum: 0.6803634762763977
time_elpased: 18.712
#iterations: 58
currently lose_sum: 0.6774322390556335
time_elpased: 19.028
#iterations: 59
currently lose_sum: 0.6804367303848267
time_elpased: 18.806
start validation test
0.5252
0.587096774194
0.215299684543
0.315060588575
0.529727764349
17.246
#iterations: 60
currently lose_sum: 0.6607537865638733
time_elpased: 18.677
#iterations: 61
currently lose_sum: 0.7030560970306396
time_elpased: 18.645
#iterations: 62
currently lose_sum: 0.6704261898994446
time_elpased: 18.663
#iterations: 63
currently lose_sum: 0.6692090034484863
time_elpased: 18.637
#iterations: 64
currently lose_sum: 0.665751039981842
time_elpased: 18.649
#iterations: 65
currently lose_sum: 0.7068135738372803
time_elpased: 18.652
#iterations: 66
currently lose_sum: 0.6748445630073547
time_elpased: 18.664
#iterations: 67
currently lose_sum: 0.7160375714302063
time_elpased: 18.578
#iterations: 68
currently lose_sum: 0.7089340090751648
time_elpased: 18.689
#iterations: 69
currently lose_sum: 0.667615532875061
time_elpased: 18.545
#iterations: 70
currently lose_sum: 0.6954667568206787
time_elpased: 18.72
#iterations: 71
currently lose_sum: 0.6705901622772217
time_elpased: 18.831
#iterations: 72
currently lose_sum: 0.6837364435195923
time_elpased: 18.628
#iterations: 73
currently lose_sum: 0.6823403239250183
time_elpased: 18.759
#iterations: 74
currently lose_sum: 0.6864733695983887
time_elpased: 18.588
#iterations: 75
currently lose_sum: 0.6912661194801331
time_elpased: 18.674
#iterations: 76
currently lose_sum: 0.679751455783844
time_elpased: 19.32
#iterations: 77
currently lose_sum: 0.6871469020843506
time_elpased: 18.603
#iterations: 78
currently lose_sum: 0.6790776252746582
time_elpased: 18.694
#iterations: 79
currently lose_sum: 0.6718685030937195
time_elpased: 18.614
start validation test
0.546
0.568911917098
0.432965299685
0.49171518137
0.547651481011
17.093
#iterations: 80
currently lose_sum: 0.6793899536132812
time_elpased: 18.703
#iterations: 81
currently lose_sum: 0.6772122383117676
time_elpased: 19.055
#iterations: 82
currently lose_sum: 0.6799774169921875
time_elpased: 18.634
#iterations: 83
currently lose_sum: 0.6837221384048462
time_elpased: 18.679
#iterations: 84
currently lose_sum: 0.6480271816253662
time_elpased: 18.692
#iterations: 85
currently lose_sum: 0.6651632785797119
time_elpased: 18.677
#iterations: 86
currently lose_sum: 0.6944514513015747
time_elpased: 18.728
#iterations: 87
currently lose_sum: 0.6837466359138489
time_elpased: 18.633
#iterations: 88
currently lose_sum: 0.6936360001564026
time_elpased: 18.659
#iterations: 89
currently lose_sum: 0.6490469574928284
time_elpased: 18.661
#iterations: 90
currently lose_sum: 0.6795318722724915
time_elpased: 18.724
#iterations: 91
currently lose_sum: 0.6993579268455505
time_elpased: 18.573
#iterations: 92
currently lose_sum: 0.6896584033966064
time_elpased: 18.599
#iterations: 93
currently lose_sum: 0.6734640002250671
time_elpased: 18.641
#iterations: 94
currently lose_sum: 0.6834862232208252
time_elpased: 18.603
#iterations: 95
currently lose_sum: 0.654315173625946
time_elpased: 18.655
#iterations: 96
currently lose_sum: 0.6965566873550415
time_elpased: 18.804
#iterations: 97
currently lose_sum: 0.7155523896217346
time_elpased: 18.613
#iterations: 98
currently lose_sum: 0.7039560675621033
time_elpased: 18.696
#iterations: 99
currently lose_sum: 0.6917867064476013
time_elpased: 18.642
start validation test
0.5428
0.534022863364
0.773659305994
0.631884057971
0.539427055594
17.235
#iterations: 100
currently lose_sum: 0.7171879410743713
time_elpased: 18.741
#iterations: 101
currently lose_sum: 0.677483081817627
time_elpased: 18.719
#iterations: 102
currently lose_sum: 0.6881702542304993
time_elpased: 18.618
#iterations: 103
currently lose_sum: 0.7076436877250671
time_elpased: 18.648
#iterations: 104
currently lose_sum: 0.6757362484931946
time_elpased: 18.802
#iterations: 105
currently lose_sum: 0.6851058006286621
time_elpased: 18.682
#iterations: 106
currently lose_sum: 0.6507034301757812
time_elpased: 18.654
#iterations: 107
currently lose_sum: 0.6759915351867676
time_elpased: 18.692
#iterations: 108
currently lose_sum: 0.6456387042999268
time_elpased: 18.439
#iterations: 109
currently lose_sum: 0.7198677659034729
time_elpased: 18.472
#iterations: 110
currently lose_sum: 0.6639877557754517
time_elpased: 18.57
#iterations: 111
currently lose_sum: 0.6833902597427368
time_elpased: 18.414
#iterations: 112
currently lose_sum: 0.6771136522293091
time_elpased: 18.53
#iterations: 113
currently lose_sum: 0.6756207346916199
time_elpased: 18.676
#iterations: 114
currently lose_sum: 0.6690475940704346
time_elpased: 18.577
#iterations: 115
currently lose_sum: 0.6602481007575989
time_elpased: 18.518
#iterations: 116
currently lose_sum: 0.6809588670730591
time_elpased: 18.517
#iterations: 117
currently lose_sum: 0.6864013671875
time_elpased: 18.467
#iterations: 118
currently lose_sum: 0.6794465780258179
time_elpased: 18.723
#iterations: 119
currently lose_sum: 0.6748781800270081
time_elpased: 18.55
start validation test
0.5524
0.564279551337
0.515772870662
0.538936959209
0.55293513663
17.507
#iterations: 120
currently lose_sum: 0.6915196180343628
time_elpased: 18.567
#iterations: 121
currently lose_sum: 0.7062400579452515
time_elpased: 18.52
#iterations: 122
currently lose_sum: 0.6598494052886963
time_elpased: 18.476
#iterations: 123
currently lose_sum: 0.6610011458396912
time_elpased: 18.475
#iterations: 124
currently lose_sum: 0.7110838294029236
time_elpased: 18.574
#iterations: 125
currently lose_sum: 0.6802207827568054
time_elpased: 18.933
#iterations: 126
currently lose_sum: 0.6864444017410278
time_elpased: 18.615
#iterations: 127
currently lose_sum: 0.6880124807357788
time_elpased: 18.556
#iterations: 128
currently lose_sum: 0.6465129256248474
time_elpased: 18.581
#iterations: 129
currently lose_sum: 0.7480058073997498
time_elpased: 18.536
#iterations: 130
currently lose_sum: 0.6786889433860779
time_elpased: 18.52
#iterations: 131
currently lose_sum: 0.6844204664230347
time_elpased: 18.603
#iterations: 132
currently lose_sum: 0.6838204860687256
time_elpased: 18.517
#iterations: 133
currently lose_sum: 0.673951268196106
time_elpased: 18.565
#iterations: 134
currently lose_sum: 0.6819668412208557
time_elpased: 18.589
#iterations: 135
currently lose_sum: 0.669141948223114
time_elpased: 18.611
#iterations: 136
currently lose_sum: 0.6717423796653748
time_elpased: 18.529
#iterations: 137
currently lose_sum: 0.674949049949646
time_elpased: 18.482
#iterations: 138
currently lose_sum: 0.6752501726150513
time_elpased: 18.554
#iterations: 139
currently lose_sum: 0.6631361246109009
time_elpased: 18.678
start validation test
0.5424
0.571593533487
0.390378548896
0.463917525773
0.54462109263
17.036
#iterations: 140
currently lose_sum: 0.6684935092926025
time_elpased: 18.587
#iterations: 141
currently lose_sum: 0.6464372277259827
time_elpased: 18.577
#iterations: 142
currently lose_sum: 0.6849219799041748
time_elpased: 18.65
#iterations: 143
currently lose_sum: 0.6446636319160461
time_elpased: 18.673
#iterations: 144
currently lose_sum: 0.6937229633331299
time_elpased: 18.65
#iterations: 145
currently lose_sum: 0.666649341583252
time_elpased: 18.745
#iterations: 146
currently lose_sum: 0.6821190714836121
time_elpased: 18.811
#iterations: 147
currently lose_sum: 0.6990297436714172
time_elpased: 18.779
#iterations: 148
currently lose_sum: 0.6931501030921936
time_elpased: 18.662
#iterations: 149
currently lose_sum: 0.6999098062515259
time_elpased: 18.856
#iterations: 150
currently lose_sum: 0.6775521039962769
time_elpased: 18.665
#iterations: 151
currently lose_sum: 0.6404086351394653
time_elpased: 18.678
#iterations: 152
currently lose_sum: 0.6754022240638733
time_elpased: 18.66
#iterations: 153
currently lose_sum: 0.7006492614746094
time_elpased: 18.642
#iterations: 154
currently lose_sum: 0.7450074553489685
time_elpased: 18.701
#iterations: 155
currently lose_sum: 0.6873670816421509
time_elpased: 18.763
#iterations: 156
currently lose_sum: 0.6581268310546875
time_elpased: 18.629
#iterations: 157
currently lose_sum: 0.712209165096283
time_elpased: 18.813
#iterations: 158
currently lose_sum: 0.6871247887611389
time_elpased: 18.66
#iterations: 159
currently lose_sum: 0.6965869069099426
time_elpased: 19.064
start validation test
0.5636
0.555625392835
0.697160883281
0.618398041273
0.561648623459
16.909
#iterations: 160
currently lose_sum: 0.6961826086044312
time_elpased: 18.604
#iterations: 161
currently lose_sum: 0.6731884479522705
time_elpased: 19.249
#iterations: 162
currently lose_sum: 0.668608546257019
time_elpased: 18.807
#iterations: 163
currently lose_sum: 0.6792483329772949
time_elpased: 19.085
#iterations: 164
currently lose_sum: 0.6596066951751709
time_elpased: 18.693
#iterations: 165
currently lose_sum: 0.6534844040870667
time_elpased: 18.567
#iterations: 166
currently lose_sum: 0.6620182991027832
time_elpased: 18.612
#iterations: 167
currently lose_sum: 0.6390686631202698
time_elpased: 18.858
#iterations: 168
currently lose_sum: 0.6662564277648926
time_elpased: 18.572
#iterations: 169
currently lose_sum: 0.6434043645858765
time_elpased: 18.534
#iterations: 170
currently lose_sum: 0.6109403371810913
time_elpased: 18.547
#iterations: 171
currently lose_sum: 0.6784013509750366
time_elpased: 18.61
#iterations: 172
currently lose_sum: 0.659700334072113
time_elpased: 18.636
#iterations: 173
currently lose_sum: 0.6561472415924072
time_elpased: 18.603
#iterations: 174
currently lose_sum: 0.6969321966171265
time_elpased: 18.701
#iterations: 175
currently lose_sum: 0.6885732412338257
time_elpased: 18.718
#iterations: 176
currently lose_sum: 0.6678054928779602
time_elpased: 18.612
#iterations: 177
currently lose_sum: 0.6680781841278076
time_elpased: 18.653
#iterations: 178
currently lose_sum: 0.629427433013916
time_elpased: 18.595
#iterations: 179
currently lose_sum: 0.678495466709137
time_elpased: 18.615
start validation test
0.5724
0.590372388738
0.51261829653
0.548754748839
0.573273433979
16.933
#iterations: 180
currently lose_sum: 0.6312148571014404
time_elpased: 18.637
#iterations: 181
currently lose_sum: 0.6454988121986389
time_elpased: 18.546
#iterations: 182
currently lose_sum: 0.7166045904159546
time_elpased: 18.607
#iterations: 183
currently lose_sum: 0.6772714257240295
time_elpased: 18.698
#iterations: 184
currently lose_sum: 0.6585317850112915
time_elpased: 18.899
#iterations: 185
currently lose_sum: 0.6839218139648438
time_elpased: 18.771
#iterations: 186
currently lose_sum: 0.6582740545272827
time_elpased: 18.599
#iterations: 187
currently lose_sum: 0.6704545617103577
time_elpased: 18.667
#iterations: 188
currently lose_sum: 0.6845405697822571
time_elpased: 18.948
#iterations: 189
currently lose_sum: 0.6635074615478516
time_elpased: 18.592
#iterations: 190
currently lose_sum: 0.6916273236274719
time_elpased: 18.61
#iterations: 191
currently lose_sum: 0.6664679050445557
time_elpased: 18.821
#iterations: 192
currently lose_sum: 0.6528279781341553
time_elpased: 18.595
#iterations: 193
currently lose_sum: 0.6450173258781433
time_elpased: 18.617
#iterations: 194
currently lose_sum: 0.6950422525405884
time_elpased: 18.663
#iterations: 195
currently lose_sum: 0.6855899691581726
time_elpased: 18.694
#iterations: 196
currently lose_sum: 0.6664534211158752
time_elpased: 18.564
#iterations: 197
currently lose_sum: 0.6807425022125244
time_elpased: 18.555
#iterations: 198
currently lose_sum: 0.676175057888031
time_elpased: 18.617
#iterations: 199
currently lose_sum: 0.6779976487159729
time_elpased: 18.692
start validation test
0.5668
0.557134033354
0.711356466877
0.624870107378
0.564687973698
16.816
#iterations: 200
currently lose_sum: 0.6766390204429626
time_elpased: 18.982
#iterations: 201
currently lose_sum: 0.6711850166320801
time_elpased: 18.539
#iterations: 202
currently lose_sum: 0.6416184902191162
time_elpased: 18.601
#iterations: 203
currently lose_sum: 0.6794705390930176
time_elpased: 18.563
#iterations: 204
currently lose_sum: 0.6317887306213379
time_elpased: 18.609
#iterations: 205
currently lose_sum: 0.6775104999542236
time_elpased: 18.621
#iterations: 206
currently lose_sum: 0.6668057441711426
time_elpased: 18.575
#iterations: 207
currently lose_sum: 0.6769070625305176
time_elpased: 18.627
#iterations: 208
currently lose_sum: 0.6799522638320923
time_elpased: 18.66
#iterations: 209
currently lose_sum: 0.656353771686554
time_elpased: 18.81
#iterations: 210
currently lose_sum: 0.6626801490783691
time_elpased: 18.63
#iterations: 211
currently lose_sum: 0.650133490562439
time_elpased: 18.563
#iterations: 212
currently lose_sum: 0.6701924204826355
time_elpased: 18.643
#iterations: 213
currently lose_sum: 0.6544308662414551
time_elpased: 18.675
#iterations: 214
currently lose_sum: 0.685982882976532
time_elpased: 18.742
#iterations: 215
currently lose_sum: 0.6778585314750671
time_elpased: 18.948
#iterations: 216
currently lose_sum: 0.6466841101646423
time_elpased: 18.617
#iterations: 217
currently lose_sum: 0.6938371062278748
time_elpased: 18.708
#iterations: 218
currently lose_sum: 0.6002994775772095
time_elpased: 18.58
#iterations: 219
currently lose_sum: 0.6729965209960938
time_elpased: 18.645
start validation test
0.5648
0.550055617353
0.779968454259
0.64514024788
0.561656305051
17.105
#iterations: 220
currently lose_sum: 0.6657727956771851
time_elpased: 18.608
#iterations: 221
currently lose_sum: 0.675490140914917
time_elpased: 18.759
#iterations: 222
currently lose_sum: 0.7209414839744568
time_elpased: 18.691
#iterations: 223
currently lose_sum: 0.6583557724952698
time_elpased: 18.711
#iterations: 224
currently lose_sum: 0.6608302593231201
time_elpased: 19.064
#iterations: 225
currently lose_sum: 0.6653129458427429
time_elpased: 18.587
#iterations: 226
currently lose_sum: 0.6687334179878235
time_elpased: 18.679
#iterations: 227
currently lose_sum: 0.6623408794403076
time_elpased: 18.724
#iterations: 228
currently lose_sum: 0.6714215278625488
time_elpased: 18.632
#iterations: 229
currently lose_sum: 0.6900349259376526
time_elpased: 18.623
#iterations: 230
currently lose_sum: 0.6732949018478394
time_elpased: 18.554
#iterations: 231
currently lose_sum: 0.6831190586090088
time_elpased: 18.645
#iterations: 232
currently lose_sum: 0.655321478843689
time_elpased: 18.613
#iterations: 233
currently lose_sum: 0.6635005474090576
time_elpased: 18.617
#iterations: 234
currently lose_sum: 0.638801634311676
time_elpased: 18.531
#iterations: 235
currently lose_sum: 0.6943457126617432
time_elpased: 18.572
#iterations: 236
currently lose_sum: 0.6770298480987549
time_elpased: 18.633
#iterations: 237
currently lose_sum: 0.6820951700210571
time_elpased: 18.683
#iterations: 238
currently lose_sum: 0.6599774360656738
time_elpased: 18.686
#iterations: 239
currently lose_sum: 0.6425418257713318
time_elpased: 18.785
start validation test
0.5784
0.615301724138
0.450315457413
0.520036429872
0.58027136507
16.947
#iterations: 240
currently lose_sum: 0.6451612710952759
time_elpased: 18.605
#iterations: 241
currently lose_sum: 0.66959547996521
time_elpased: 18.65
#iterations: 242
currently lose_sum: 0.6850466132164001
time_elpased: 18.847
#iterations: 243
currently lose_sum: 0.6452593803405762
time_elpased: 18.699
#iterations: 244
currently lose_sum: 0.634315550327301
time_elpased: 18.655
#iterations: 245
currently lose_sum: 0.6869587898254395
time_elpased: 18.512
#iterations: 246
currently lose_sum: 0.6411767601966858
time_elpased: 18.708
#iterations: 247
currently lose_sum: 0.6758798360824585
time_elpased: 18.738
#iterations: 248
currently lose_sum: 0.6553292870521545
time_elpased: 18.894
#iterations: 249
currently lose_sum: 0.6468682885169983
time_elpased: 18.65
#iterations: 250
currently lose_sum: 0.6543628573417664
time_elpased: 18.774
#iterations: 251
currently lose_sum: 0.664914071559906
time_elpased: 18.74
#iterations: 252
currently lose_sum: 0.6924983859062195
time_elpased: 18.748
#iterations: 253
currently lose_sum: 0.7067697644233704
time_elpased: 19.049
#iterations: 254
currently lose_sum: 0.6593800187110901
time_elpased: 19.025
#iterations: 255
currently lose_sum: 0.6440616846084595
time_elpased: 19.055
#iterations: 256
currently lose_sum: 0.6830978989601135
time_elpased: 18.575
#iterations: 257
currently lose_sum: 0.6634594798088074
time_elpased: 18.632
#iterations: 258
currently lose_sum: 0.6327579021453857
time_elpased: 18.516
#iterations: 259
currently lose_sum: 0.646885097026825
time_elpased: 18.631
start validation test
0.5664
0.561994609164
0.657728706625
0.606104651163
0.565065652014
16.780
#iterations: 260
currently lose_sum: 0.6418724060058594
time_elpased: 18.659
#iterations: 261
currently lose_sum: 0.6637327671051025
time_elpased: 18.694
#iterations: 262
currently lose_sum: 0.6775616407394409
time_elpased: 19.063
#iterations: 263
currently lose_sum: 0.675248384475708
time_elpased: 18.661
#iterations: 264
currently lose_sum: 0.685799241065979
time_elpased: 18.588
#iterations: 265
currently lose_sum: 0.6143373250961304
time_elpased: 18.569
#iterations: 266
currently lose_sum: 0.718086838722229
time_elpased: 18.598
#iterations: 267
currently lose_sum: 0.6578188538551331
time_elpased: 18.57
#iterations: 268
currently lose_sum: 0.654915452003479
time_elpased: 18.59
#iterations: 269
currently lose_sum: 0.6714403629302979
time_elpased: 18.677
#iterations: 270
currently lose_sum: 0.6303675174713135
time_elpased: 18.637
#iterations: 271
currently lose_sum: 0.6289632320404053
time_elpased: 18.566
#iterations: 272
currently lose_sum: 0.6510560512542725
time_elpased: 18.529
#iterations: 273
currently lose_sum: 0.6667794585227966
time_elpased: 18.588
#iterations: 274
currently lose_sum: 0.6997114419937134
time_elpased: 18.627
#iterations: 275
currently lose_sum: 0.650907576084137
time_elpased: 18.653
#iterations: 276
currently lose_sum: 0.6463884711265564
time_elpased: 18.623
#iterations: 277
currently lose_sum: 0.6956223845481873
time_elpased: 18.598
#iterations: 278
currently lose_sum: 0.6845552325248718
time_elpased: 18.74
#iterations: 279
currently lose_sum: 0.6565783023834229
time_elpased: 18.725
start validation test
0.568
0.599156118143
0.447949526814
0.512635379061
0.569753984186
17.116
#iterations: 280
currently lose_sum: 0.7030633687973022
time_elpased: 18.628
#iterations: 281
currently lose_sum: 0.6552082896232605
time_elpased: 18.614
#iterations: 282
currently lose_sum: 0.6865785121917725
time_elpased: 18.648
#iterations: 283
currently lose_sum: 0.7064048647880554
time_elpased: 18.697
#iterations: 284
currently lose_sum: 0.6722545027732849
time_elpased: 18.559
#iterations: 285
currently lose_sum: 0.677936315536499
time_elpased: 18.586
#iterations: 286
currently lose_sum: 0.6815992593765259
time_elpased: 18.781
#iterations: 287
currently lose_sum: 0.699082612991333
time_elpased: 18.689
#iterations: 288
currently lose_sum: 0.6691428422927856
time_elpased: 18.624
#iterations: 289
currently lose_sum: 0.6717538237571716
time_elpased: 18.839
#iterations: 290
currently lose_sum: 0.6910163760185242
time_elpased: 18.794
#iterations: 291
currently lose_sum: 0.6582290530204773
time_elpased: 18.694
#iterations: 292
currently lose_sum: 0.6540176272392273
time_elpased: 18.602
#iterations: 293
currently lose_sum: 0.6335833668708801
time_elpased: 18.693
#iterations: 294
currently lose_sum: 0.6585506200790405
time_elpased: 18.623
#iterations: 295
currently lose_sum: 0.6749914288520813
time_elpased: 18.704
#iterations: 296
currently lose_sum: 0.7178376913070679
time_elpased: 18.828
#iterations: 297
currently lose_sum: 0.685722291469574
time_elpased: 18.592
#iterations: 298
currently lose_sum: 0.6828242540359497
time_elpased: 18.557
#iterations: 299
currently lose_sum: 0.6367114186286926
time_elpased: 18.646
start validation test
0.556
0.579317269076
0.455047318612
0.509717314488
0.557474958007
16.948
#iterations: 300
currently lose_sum: 0.6455766558647156
time_elpased: 18.836
#iterations: 301
currently lose_sum: 0.659953236579895
time_elpased: 18.628
#iterations: 302
currently lose_sum: 0.6888182163238525
time_elpased: 18.581
#iterations: 303
currently lose_sum: 0.6432214379310608
time_elpased: 18.599
#iterations: 304
currently lose_sum: 0.6794484853744507
time_elpased: 18.582
#iterations: 305
currently lose_sum: 0.6831107139587402
time_elpased: 18.732
#iterations: 306
currently lose_sum: 0.6921623349189758
time_elpased: 18.566
#iterations: 307
currently lose_sum: 0.6622034311294556
time_elpased: 18.613
#iterations: 308
currently lose_sum: 0.6765835285186768
time_elpased: 18.691
#iterations: 309
currently lose_sum: 0.66829514503479
time_elpased: 18.685
#iterations: 310
currently lose_sum: 0.687852144241333
time_elpased: 18.636
#iterations: 311
currently lose_sum: 0.6370054483413696
time_elpased: 18.848
#iterations: 312
currently lose_sum: 0.6688746809959412
time_elpased: 18.72
#iterations: 313
currently lose_sum: 0.6110218167304993
time_elpased: 18.643
#iterations: 314
currently lose_sum: 0.6589341759681702
time_elpased: 18.607
#iterations: 315
currently lose_sum: 0.6543623208999634
time_elpased: 18.718
#iterations: 316
currently lose_sum: 0.6877515912055969
time_elpased: 18.637
#iterations: 317
currently lose_sum: 0.6964536309242249
time_elpased: 18.657
#iterations: 318
currently lose_sum: 0.6457826495170593
time_elpased: 18.639
#iterations: 319
currently lose_sum: 0.6865330338478088
time_elpased: 18.617
start validation test
0.5508
0.541357672561
0.748422712934
0.62826878517
0.547912655168
17.023
#iterations: 320
currently lose_sum: 0.6592859625816345
time_elpased: 18.691
#iterations: 321
currently lose_sum: 0.6820517182350159
time_elpased: 19.081
#iterations: 322
currently lose_sum: 0.6461737155914307
time_elpased: 18.59
#iterations: 323
currently lose_sum: 0.6662580966949463
time_elpased: 18.621
#iterations: 324
currently lose_sum: 0.6347293853759766
time_elpased: 18.646
#iterations: 325
currently lose_sum: 0.6851436495780945
time_elpased: 18.854
#iterations: 326
currently lose_sum: 0.6828237771987915
time_elpased: 18.629
#iterations: 327
currently lose_sum: 0.6762052774429321
time_elpased: 18.56
#iterations: 328
currently lose_sum: 0.649285078048706
time_elpased: 18.686
#iterations: 329
currently lose_sum: 0.6385132074356079
time_elpased: 18.501
#iterations: 330
currently lose_sum: 0.7100017070770264
time_elpased: 18.511
#iterations: 331
currently lose_sum: 0.7127765417098999
time_elpased: 18.805
#iterations: 332
currently lose_sum: 0.7045342922210693
time_elpased: 18.782
#iterations: 333
currently lose_sum: 0.7220633625984192
time_elpased: 18.671
#iterations: 334
currently lose_sum: 0.6643592715263367
time_elpased: 18.609
#iterations: 335
currently lose_sum: 0.6959975957870483
time_elpased: 18.83
#iterations: 336
currently lose_sum: 0.6529000997543335
time_elpased: 19.069
#iterations: 337
currently lose_sum: 0.6876910328865051
time_elpased: 18.57
#iterations: 338
currently lose_sum: 0.6348950266838074
time_elpased: 18.625
#iterations: 339
currently lose_sum: 0.6594295501708984
time_elpased: 18.667
start validation test
0.5704
0.565275908479
0.662460567823
0.610021786492
0.569054959236
16.733
#iterations: 340
currently lose_sum: 0.6819685101509094
time_elpased: 18.746
#iterations: 341
currently lose_sum: 0.6146073937416077
time_elpased: 18.864
#iterations: 342
currently lose_sum: 0.6400468349456787
time_elpased: 18.807
#iterations: 343
currently lose_sum: 0.6638131141662598
time_elpased: 18.716
#iterations: 344
currently lose_sum: 0.6697849035263062
time_elpased: 18.769
#iterations: 345
currently lose_sum: 0.7158521413803101
time_elpased: 18.806
#iterations: 346
currently lose_sum: 0.6827314496040344
time_elpased: 18.731
#iterations: 347
currently lose_sum: 0.6441735625267029
time_elpased: 19.117
#iterations: 348
currently lose_sum: 0.6884639263153076
time_elpased: 18.537
#iterations: 349
currently lose_sum: 0.6700520515441895
time_elpased: 18.712
#iterations: 350
currently lose_sum: 0.7229981422424316
time_elpased: 18.691
#iterations: 351
currently lose_sum: 0.6761186718940735
time_elpased: 18.709
#iterations: 352
currently lose_sum: 0.6602857708930969
time_elpased: 18.768
#iterations: 353
currently lose_sum: 0.6764090061187744
time_elpased: 18.636
#iterations: 354
currently lose_sum: 0.7200450301170349
time_elpased: 18.628
#iterations: 355
currently lose_sum: 0.6684901714324951
time_elpased: 18.564
#iterations: 356
currently lose_sum: 0.6341184973716736
time_elpased: 18.736
#iterations: 357
currently lose_sum: 0.6833513379096985
time_elpased: 18.687
#iterations: 358
currently lose_sum: 0.6778982281684875
time_elpased: 18.654
#iterations: 359
currently lose_sum: 0.6590015888214111
time_elpased: 18.551
start validation test
0.5592
0.616246498599
0.347003154574
0.443995963673
0.562300278586
16.865
#iterations: 360
currently lose_sum: 0.6519156098365784
time_elpased: 18.474
#iterations: 361
currently lose_sum: 0.6494467854499817
time_elpased: 18.609
#iterations: 362
currently lose_sum: 0.6418718099594116
time_elpased: 18.404
#iterations: 363
currently lose_sum: 0.6677136421203613
time_elpased: 18.418
#iterations: 364
currently lose_sum: 0.6418790221214294
time_elpased: 18.471
#iterations: 365
currently lose_sum: 0.7193716168403625
time_elpased: 18.596
#iterations: 366
currently lose_sum: 0.671895444393158
time_elpased: 18.66
#iterations: 367
currently lose_sum: 0.6559547185897827
time_elpased: 18.575
#iterations: 368
currently lose_sum: 0.6585611701011658
time_elpased: 18.937
#iterations: 369
currently lose_sum: 0.6661863923072815
time_elpased: 18.625
#iterations: 370
currently lose_sum: 0.6287301778793335
time_elpased: 18.504
#iterations: 371
currently lose_sum: 0.6506340503692627
time_elpased: 18.473
#iterations: 372
currently lose_sum: 0.6829402446746826
time_elpased: 18.747
#iterations: 373
currently lose_sum: 0.6616597771644592
time_elpased: 18.392
#iterations: 374
currently lose_sum: 0.639150857925415
time_elpased: 18.667
#iterations: 375
currently lose_sum: 0.6559883952140808
time_elpased: 18.486
#iterations: 376
currently lose_sum: 0.6472170948982239
time_elpased: 18.6
#iterations: 377
currently lose_sum: 0.6341396570205688
time_elpased: 18.548
#iterations: 378
currently lose_sum: 0.644819438457489
time_elpased: 18.599
#iterations: 379
currently lose_sum: 0.6506359577178955
time_elpased: 18.564
start validation test
0.5676
0.584007187781
0.51261829653
0.545989080218
0.568403304109
16.717
#iterations: 380
currently lose_sum: 0.6852145195007324
time_elpased: 18.535
#iterations: 381
currently lose_sum: 0.6359962224960327
time_elpased: 18.433
#iterations: 382
currently lose_sum: 0.6103894710540771
time_elpased: 18.535
#iterations: 383
currently lose_sum: 0.6379135847091675
time_elpased: 18.55
#iterations: 384
currently lose_sum: 0.6824585199356079
time_elpased: 18.49
#iterations: 385
currently lose_sum: 0.6760746836662292
time_elpased: 18.561
#iterations: 386
currently lose_sum: 0.6819904446601868
time_elpased: 18.458
#iterations: 387
currently lose_sum: 0.7002173662185669
time_elpased: 18.476
#iterations: 388
currently lose_sum: 0.6361632347106934
time_elpased: 18.743
#iterations: 389
currently lose_sum: 0.6829084753990173
time_elpased: 18.574
#iterations: 390
currently lose_sum: 0.698286771774292
time_elpased: 18.7
#iterations: 391
currently lose_sum: 0.7093868851661682
time_elpased: 18.982
#iterations: 392
currently lose_sum: 0.6622071862220764
time_elpased: 18.532
#iterations: 393
currently lose_sum: 0.6503680348396301
time_elpased: 18.439
#iterations: 394
currently lose_sum: 0.6333114504814148
time_elpased: 18.574
#iterations: 395
currently lose_sum: 0.6637048125267029
time_elpased: 18.428
#iterations: 396
currently lose_sum: 0.6473386883735657
time_elpased: 18.411
#iterations: 397
currently lose_sum: 0.6822414994239807
time_elpased: 18.487
#iterations: 398
currently lose_sum: 0.6736153960227966
time_elpased: 18.777
#iterations: 399
currently lose_sum: 0.6333158016204834
time_elpased: 19.931
start validation test
0.584
0.597602739726
0.55047318612
0.573070607553
0.584489839813
16.688
#iterations: 400
currently lose_sum: 0.6343830227851868
time_elpased: 18.518
#iterations: 401
currently lose_sum: 0.6512323021888733
time_elpased: 18.656
#iterations: 402
currently lose_sum: 0.635586678981781
time_elpased: 18.687
#iterations: 403
currently lose_sum: 0.6625142097473145
time_elpased: 18.587
#iterations: 404
currently lose_sum: 0.6296951770782471
time_elpased: 18.491
#iterations: 405
currently lose_sum: 0.622397780418396
time_elpased: 18.486
#iterations: 406
currently lose_sum: 0.6095329523086548
time_elpased: 18.716
#iterations: 407
currently lose_sum: 0.6899783611297607
time_elpased: 18.519
#iterations: 408
currently lose_sum: 0.6885514259338379
time_elpased: 18.535
#iterations: 409
currently lose_sum: 0.6518126130104065
time_elpased: 18.416
#iterations: 410
currently lose_sum: 0.6615739464759827
time_elpased: 18.434
#iterations: 411
currently lose_sum: 0.6559953093528748
time_elpased: 18.44
#iterations: 412
currently lose_sum: 0.6645682454109192
time_elpased: 18.509
#iterations: 413
currently lose_sum: 0.6675926446914673
time_elpased: 18.474
#iterations: 414
currently lose_sum: 0.6611499786376953
time_elpased: 18.768
#iterations: 415
currently lose_sum: 0.6588521003723145
time_elpased: 18.798
#iterations: 416
currently lose_sum: 0.6259946823120117
time_elpased: 18.813
#iterations: 417
currently lose_sum: 0.699697732925415
time_elpased: 18.45
#iterations: 418
currently lose_sum: 0.6972792148590088
time_elpased: 18.362
#iterations: 419
currently lose_sum: 0.6358314156532288
time_elpased: 18.363
start validation test
0.556
0.592941176471
0.397476340694
0.475920679887
0.558316092425
16.768
#iterations: 420
currently lose_sum: 0.6651023626327515
time_elpased: 18.429
#iterations: 421
currently lose_sum: 0.6431733965873718
time_elpased: 18.587
#iterations: 422
currently lose_sum: 0.6417717933654785
time_elpased: 18.474
#iterations: 423
currently lose_sum: 0.638103187084198
time_elpased: 18.626
#iterations: 424
currently lose_sum: 0.626861572265625
time_elpased: 18.387
#iterations: 425
currently lose_sum: 0.6563677787780762
time_elpased: 18.503
#iterations: 426
currently lose_sum: 0.6496255397796631
time_elpased: 18.501
#iterations: 427
currently lose_sum: 0.6681429147720337
time_elpased: 18.341
#iterations: 428
currently lose_sum: 0.6763550639152527
time_elpased: 18.451
#iterations: 429
currently lose_sum: 0.6687472462654114
time_elpased: 18.348
#iterations: 430
currently lose_sum: 0.676392674446106
time_elpased: 18.413
#iterations: 431
currently lose_sum: 0.6173876523971558
time_elpased: 18.474
#iterations: 432
currently lose_sum: 0.6828411221504211
time_elpased: 18.442
#iterations: 433
currently lose_sum: 0.6303222179412842
time_elpased: 18.391
#iterations: 434
currently lose_sum: 0.6258043050765991
time_elpased: 18.628
#iterations: 435
currently lose_sum: 0.6405683755874634
time_elpased: 18.558
#iterations: 436
currently lose_sum: 0.6302996277809143
time_elpased: 18.438
#iterations: 437
currently lose_sum: 0.6496818661689758
time_elpased: 18.474
#iterations: 438
currently lose_sum: 0.670479416847229
time_elpased: 18.694
#iterations: 439
currently lose_sum: 0.7158949375152588
time_elpased: 18.397
start validation test
0.5724
0.580048270314
0.568611987382
0.574273197929
0.57245534434
16.821
#iterations: 440
currently lose_sum: 0.6873648166656494
time_elpased: 18.498
#iterations: 441
currently lose_sum: 0.6591840386390686
time_elpased: 18.311
#iterations: 442
currently lose_sum: 0.6309574246406555
time_elpased: 18.547
#iterations: 443
currently lose_sum: 0.7046846151351929
time_elpased: 18.517
#iterations: 444
currently lose_sum: 0.6180573105812073
time_elpased: 18.432
#iterations: 445
currently lose_sum: 0.6875782608985901
time_elpased: 18.337
#iterations: 446
currently lose_sum: 0.6578603982925415
time_elpased: 18.369
#iterations: 447
currently lose_sum: 0.66888827085495
time_elpased: 18.361
#iterations: 448
currently lose_sum: 0.6555445790290833
time_elpased: 18.475
#iterations: 449
currently lose_sum: 0.6480104327201843
time_elpased: 18.559
#iterations: 450
currently lose_sum: 0.6547320485115051
time_elpased: 18.471
#iterations: 451
currently lose_sum: 0.689938485622406
time_elpased: 18.423
#iterations: 452
currently lose_sum: 0.6793622374534607
time_elpased: 18.411
#iterations: 453
currently lose_sum: 0.6733824014663696
time_elpased: 18.588
#iterations: 454
currently lose_sum: 0.6368350386619568
time_elpased: 18.426
#iterations: 455
currently lose_sum: 0.7102364897727966
time_elpased: 18.433
#iterations: 456
currently lose_sum: 0.665062427520752
time_elpased: 18.513
#iterations: 457
currently lose_sum: 0.6567625403404236
time_elpased: 18.69
#iterations: 458
currently lose_sum: 0.6395633816719055
time_elpased: 18.541
#iterations: 459
currently lose_sum: 0.6726502776145935
time_elpased: 18.374
start validation test
0.556
0.578685258964
0.458201892744
0.511443661972
0.55742886845
17.059
#iterations: 460
currently lose_sum: 0.6559100151062012
time_elpased: 18.396
#iterations: 461
currently lose_sum: 0.7051646709442139
time_elpased: 18.427
#iterations: 462
currently lose_sum: 0.6238826513290405
time_elpased: 18.402
#iterations: 463
currently lose_sum: 0.6831066012382507
time_elpased: 18.384
#iterations: 464
currently lose_sum: 0.652824878692627
time_elpased: 18.477
#iterations: 465
currently lose_sum: 0.6412954926490784
time_elpased: 18.419
#iterations: 466
currently lose_sum: 0.6424102187156677
time_elpased: 18.701
#iterations: 467
currently lose_sum: 0.6651039123535156
time_elpased: 18.515
#iterations: 468
currently lose_sum: 0.6530311107635498
time_elpased: 18.458
#iterations: 469
currently lose_sum: 0.6682196855545044
time_elpased: 18.589
#iterations: 470
currently lose_sum: 0.709140956401825
time_elpased: 18.445
#iterations: 471
currently lose_sum: 0.6830474734306335
time_elpased: 18.406
#iterations: 472
currently lose_sum: 0.6499214768409729
time_elpased: 18.523
#iterations: 473
currently lose_sum: 0.6536111235618591
time_elpased: 18.489
#iterations: 474
currently lose_sum: 0.7018914818763733
time_elpased: 18.458
#iterations: 475
currently lose_sum: 0.6597478985786438
time_elpased: 18.546
#iterations: 476
currently lose_sum: 0.7322321534156799
time_elpased: 18.394
#iterations: 477
currently lose_sum: 0.6532377600669861
time_elpased: 18.462
#iterations: 478
currently lose_sum: 0.6512104868888855
time_elpased: 18.373
#iterations: 479
currently lose_sum: 0.7020898461341858
time_elpased: 18.461
start validation test
0.5016
0.511982570806
0.370662460568
0.430009149131
0.503513048466
17.845
#iterations: 480
currently lose_sum: 0.6178088188171387
time_elpased: 18.7
#iterations: 481
currently lose_sum: 0.6755182147026062
time_elpased: 18.566
#iterations: 482
currently lose_sum: 0.6778296828269958
time_elpased: 18.482
#iterations: 483
currently lose_sum: 0.6806468963623047
time_elpased: 18.57
#iterations: 484
currently lose_sum: 0.674774706363678
time_elpased: 18.38
#iterations: 485
currently lose_sum: 0.6742038130760193
time_elpased: 18.433
#iterations: 486
currently lose_sum: 0.6661391258239746
time_elpased: 18.52
#iterations: 487
currently lose_sum: 0.6549026370048523
time_elpased: 18.468
#iterations: 488
currently lose_sum: 0.6267274618148804
time_elpased: 18.452
#iterations: 489
currently lose_sum: 0.6569897532463074
time_elpased: 18.507
#iterations: 490
currently lose_sum: 0.6656057238578796
time_elpased: 18.487
#iterations: 491
currently lose_sum: 0.6461696028709412
time_elpased: 18.405
#iterations: 492
currently lose_sum: 0.7028713822364807
time_elpased: 18.444
#iterations: 493
currently lose_sum: 0.6303139925003052
time_elpased: 18.405
#iterations: 494
currently lose_sum: 0.6637279987335205
time_elpased: 18.559
#iterations: 495
currently lose_sum: 0.63126540184021
time_elpased: 18.42
#iterations: 496
currently lose_sum: 0.6368005275726318
time_elpased: 18.353
#iterations: 497
currently lose_sum: 0.6539853811264038
time_elpased: 18.625
#iterations: 498
currently lose_sum: 0.6592233777046204
time_elpased: 18.471
#iterations: 499
currently lose_sum: 0.6518056988716125
time_elpased: 18.48
start validation test
0.5696
0.570588235294
0.611987381703
0.590563165906
0.568980703839
16.719
#iterations: 500
currently lose_sum: 0.7027517557144165
time_elpased: 18.462
#iterations: 501
currently lose_sum: 0.6673272848129272
time_elpased: 18.489
#iterations: 502
currently lose_sum: 0.6737444996833801
time_elpased: 18.415
#iterations: 503
currently lose_sum: 0.6697729229927063
time_elpased: 18.597
#iterations: 504
currently lose_sum: 0.6588941812515259
time_elpased: 18.594
#iterations: 505
currently lose_sum: 0.6349263191223145
time_elpased: 18.425
#iterations: 506
currently lose_sum: 0.6898715496063232
time_elpased: 18.406
#iterations: 507
currently lose_sum: 0.6625471711158752
time_elpased: 18.464
#iterations: 508
currently lose_sum: 0.6099727153778076
time_elpased: 18.585
#iterations: 509
currently lose_sum: 0.688000500202179
time_elpased: 18.374
#iterations: 510
currently lose_sum: 0.6975488066673279
time_elpased: 18.458
#iterations: 511
currently lose_sum: 0.6407544016838074
time_elpased: 18.499
#iterations: 512
currently lose_sum: 0.6337907314300537
time_elpased: 18.439
#iterations: 513
currently lose_sum: 0.6099337935447693
time_elpased: 18.557
#iterations: 514
currently lose_sum: 0.6986836194992065
time_elpased: 18.469
#iterations: 515
currently lose_sum: 0.6538079977035522
time_elpased: 18.38
#iterations: 516
currently lose_sum: 0.6607767343521118
time_elpased: 18.601
#iterations: 517
currently lose_sum: 0.662647008895874
time_elpased: 18.455
#iterations: 518
currently lose_sum: 0.6793875694274902
time_elpased: 18.411
#iterations: 519
currently lose_sum: 0.6638968586921692
time_elpased: 18.455
start validation test
0.5708
0.566191446029
0.657728706625
0.608537030281
0.569529937728
16.771
#iterations: 520
currently lose_sum: 0.6693902015686035
time_elpased: 18.481
#iterations: 521
currently lose_sum: 0.6839351058006287
time_elpased: 18.413
#iterations: 522
currently lose_sum: 0.647267758846283
time_elpased: 18.432
#iterations: 523
currently lose_sum: 0.7030630707740784
time_elpased: 18.492
#iterations: 524
currently lose_sum: 0.692260205745697
time_elpased: 18.405
#iterations: 525
currently lose_sum: 0.6901007294654846
time_elpased: 18.543
#iterations: 526
currently lose_sum: 0.680073618888855
time_elpased: 18.426
#iterations: 527
currently lose_sum: 0.713591456413269
time_elpased: 18.631
#iterations: 528
currently lose_sum: 0.6540551781654358
time_elpased: 18.545
#iterations: 529
currently lose_sum: 0.6418552994728088
time_elpased: 18.902
#iterations: 530
currently lose_sum: 0.6691365838050842
time_elpased: 18.848
#iterations: 531
currently lose_sum: 0.6686885952949524
time_elpased: 18.622
#iterations: 532
currently lose_sum: 0.6479597687721252
time_elpased: 18.531
#iterations: 533
currently lose_sum: 0.6783748865127563
time_elpased: 18.416
#iterations: 534
currently lose_sum: 0.6666654944419861
time_elpased: 18.583
#iterations: 535
currently lose_sum: 0.6926765441894531
time_elpased: 18.591
#iterations: 536
currently lose_sum: 0.6212961673736572
time_elpased: 18.563
#iterations: 537
currently lose_sum: 0.6358062624931335
time_elpased: 18.64
#iterations: 538
currently lose_sum: 0.6392495632171631
time_elpased: 19.417
#iterations: 539
currently lose_sum: 0.6671016216278076
time_elpased: 18.462
start validation test
0.5724
0.601842374616
0.463722397476
0.523830734967
0.573987822115
16.879
#iterations: 540
currently lose_sum: 0.5850746035575867
time_elpased: 18.528
#iterations: 541
currently lose_sum: 0.6501559615135193
time_elpased: 18.951
#iterations: 542
currently lose_sum: 0.6867985725402832
time_elpased: 18.647
#iterations: 543
currently lose_sum: 0.6722159385681152
time_elpased: 18.574
#iterations: 544
currently lose_sum: 0.6429498791694641
time_elpased: 18.445
#iterations: 545
currently lose_sum: 0.6775833368301392
time_elpased: 18.475
#iterations: 546
currently lose_sum: 0.6616760492324829
time_elpased: 18.575
#iterations: 547
currently lose_sum: 0.6515816450119019
time_elpased: 18.542
#iterations: 548
currently lose_sum: 0.6570586562156677
time_elpased: 18.477
#iterations: 549
currently lose_sum: 0.626171350479126
time_elpased: 18.514
#iterations: 550
currently lose_sum: 0.6430149674415588
time_elpased: 18.671
#iterations: 551
currently lose_sum: 0.6671676635742188
time_elpased: 18.57
#iterations: 552
currently lose_sum: 0.6553815603256226
time_elpased: 18.406
#iterations: 553
currently lose_sum: 0.6224622130393982
time_elpased: 18.528
#iterations: 554
currently lose_sum: 0.6926285624504089
time_elpased: 18.515
#iterations: 555
currently lose_sum: 0.6763981580734253
time_elpased: 18.527
#iterations: 556
currently lose_sum: 0.6888247132301331
time_elpased: 18.802
#iterations: 557
currently lose_sum: 0.6375587582588196
time_elpased: 18.642
#iterations: 558
currently lose_sum: 0.659529447555542
time_elpased: 18.458
#iterations: 559
currently lose_sum: 0.6449589729309082
time_elpased: 18.475
start validation test
0.5744
0.568733153639
0.665615141956
0.613372093023
0.573067311238
16.697
#iterations: 560
currently lose_sum: 0.6818906664848328
time_elpased: 18.59
#iterations: 561
currently lose_sum: 0.648027777671814
time_elpased: 18.99
#iterations: 562
currently lose_sum: 0.6244617700576782
time_elpased: 18.605
#iterations: 563
currently lose_sum: 0.6334480047225952
time_elpased: 18.52
#iterations: 564
currently lose_sum: 0.6995295882225037
time_elpased: 18.807
#iterations: 565
currently lose_sum: 0.6480514407157898
time_elpased: 18.497
#iterations: 566
currently lose_sum: 0.6086025834083557
time_elpased: 18.498
#iterations: 567
currently lose_sum: 0.6202436685562134
time_elpased: 18.481
#iterations: 568
currently lose_sum: 0.6517631411552429
time_elpased: 18.482
#iterations: 569
currently lose_sum: 0.7001051306724548
time_elpased: 18.532
#iterations: 570
currently lose_sum: 0.6334477066993713
time_elpased: 18.63
#iterations: 571
currently lose_sum: 0.6566425561904907
time_elpased: 18.577
#iterations: 572
currently lose_sum: 0.6747161746025085
time_elpased: 18.499
#iterations: 573
currently lose_sum: 0.6744494438171387
time_elpased: 18.476
#iterations: 574
currently lose_sum: 0.6726516485214233
time_elpased: 18.624
#iterations: 575
currently lose_sum: 0.6933824419975281
time_elpased: 18.477
#iterations: 576
currently lose_sum: 0.6567811369895935
time_elpased: 18.478
#iterations: 577
currently lose_sum: 0.702633798122406
time_elpased: 18.481
#iterations: 578
currently lose_sum: 0.5974875092506409
time_elpased: 18.491
#iterations: 579
currently lose_sum: 0.6561938524246216
time_elpased: 18.938
start validation test
0.55
0.63829787234
0.260252365931
0.36974789916
0.554233325822
17.622
#iterations: 580
currently lose_sum: 0.6270910501480103
time_elpased: 18.472
#iterations: 581
currently lose_sum: 0.6510879993438721
time_elpased: 18.396
#iterations: 582
currently lose_sum: 0.6159520149230957
time_elpased: 18.809
#iterations: 583
currently lose_sum: 0.6476484537124634
time_elpased: 18.519
#iterations: 584
currently lose_sum: 0.6622862219810486
time_elpased: 18.802
#iterations: 585
currently lose_sum: 0.6181806325912476
time_elpased: 18.702
#iterations: 586
currently lose_sum: 0.6362683773040771
time_elpased: 18.479
#iterations: 587
currently lose_sum: 0.6619524359703064
time_elpased: 18.492
#iterations: 588
currently lose_sum: 0.6345325112342834
time_elpased: 18.517
#iterations: 589
currently lose_sum: 0.6059852838516235
time_elpased: 18.51
#iterations: 590
currently lose_sum: 0.6444509625434875
time_elpased: 18.61
#iterations: 591
currently lose_sum: 0.6363075375556946
time_elpased: 18.501
#iterations: 592
currently lose_sum: 0.6235620975494385
time_elpased: 18.574
#iterations: 593
currently lose_sum: 0.7129548788070679
time_elpased: 18.557
#iterations: 594
currently lose_sum: 0.6462492942810059
time_elpased: 18.61
#iterations: 595
currently lose_sum: 0.6528361439704895
time_elpased: 18.572
#iterations: 596
currently lose_sum: 0.6671867370605469
time_elpased: 18.549
#iterations: 597
currently lose_sum: 0.6267622113227844
time_elpased: 18.46
#iterations: 598
currently lose_sum: 0.6404238939285278
time_elpased: 18.753
#iterations: 599
currently lose_sum: 0.6651769876480103
time_elpased: 18.866
start validation test
0.5644
0.567141785446
0.596214511041
0.581314878893
0.563935177598
16.827
acc: 0.543
pre: 0.535
rec: 0.754
F1: 0.626
auc: 0.540
