start to construct computing graph
graph construct over
3803
epochs start
#iterations: 0
currently lose_sum: 0.6953629851341248
time_elpased: 2.824
#iterations: 1
currently lose_sum: 0.6898281574249268
time_elpased: 2.879
#iterations: 2
currently lose_sum: 0.6943721771240234
time_elpased: 2.803
#iterations: 3
currently lose_sum: 0.6918638348579407
time_elpased: 2.811
#iterations: 4
currently lose_sum: 0.6935877799987793
time_elpased: 2.832
#iterations: 5
currently lose_sum: 0.6967294216156006
time_elpased: 2.843
#iterations: 6
currently lose_sum: 0.6955130100250244
time_elpased: 2.838
#iterations: 7
currently lose_sum: 0.6954730153083801
time_elpased: 2.847
#iterations: 8
currently lose_sum: 0.6919562816619873
time_elpased: 2.828
#iterations: 9
currently lose_sum: 0.6942322254180908
time_elpased: 2.851
#iterations: 10
currently lose_sum: 0.6921743750572205
time_elpased: 2.846
#iterations: 11
currently lose_sum: 0.6916618347167969
time_elpased: 2.807
#iterations: 12
currently lose_sum: 0.692217230796814
time_elpased: 2.835
#iterations: 13
currently lose_sum: 0.694922685623169
time_elpased: 2.795
#iterations: 14
currently lose_sum: 0.6932098269462585
time_elpased: 2.829
#iterations: 15
currently lose_sum: 0.692104160785675
time_elpased: 2.8
#iterations: 16
currently lose_sum: 0.6876938343048096
time_elpased: 2.822
#iterations: 17
currently lose_sum: 0.6985830068588257
time_elpased: 2.849
#iterations: 18
currently lose_sum: 0.6846976280212402
time_elpased: 2.816
#iterations: 19
currently lose_sum: 0.6934411525726318
time_elpased: 2.819
start validation test
0.5336
0.526813880126
0.790220820189
0.632176656151
0.529850669835
17.290
#iterations: 20
currently lose_sum: 0.6909382343292236
time_elpased: 2.186
#iterations: 21
currently lose_sum: 0.6992369294166565
time_elpased: 2.155
#iterations: 22
currently lose_sum: 0.6917953491210938
time_elpased: 2.152
#iterations: 23
currently lose_sum: 0.6914411783218384
time_elpased: 2.161
#iterations: 24
currently lose_sum: 0.703555703163147
time_elpased: 2.186
#iterations: 25
currently lose_sum: 0.6927189826965332
time_elpased: 2.157
#iterations: 26
currently lose_sum: 0.6922765970230103
time_elpased: 2.166
#iterations: 27
currently lose_sum: 0.6955932378768921
time_elpased: 2.17
#iterations: 28
currently lose_sum: 0.684499979019165
time_elpased: 2.165
#iterations: 29
currently lose_sum: 0.6873811483383179
time_elpased: 2.186
#iterations: 30
currently lose_sum: 0.6889191269874573
time_elpased: 2.139
#iterations: 31
currently lose_sum: 0.6891032457351685
time_elpased: 2.137
#iterations: 32
currently lose_sum: 0.6749235391616821
time_elpased: 2.149
#iterations: 33
currently lose_sum: 0.6911900043487549
time_elpased: 2.167
#iterations: 34
currently lose_sum: 0.6892058849334717
time_elpased: 2.137
#iterations: 35
currently lose_sum: 0.692128598690033
time_elpased: 2.166
#iterations: 36
currently lose_sum: 0.690116822719574
time_elpased: 2.157
#iterations: 37
currently lose_sum: 0.6852154731750488
time_elpased: 2.186
#iterations: 38
currently lose_sum: 0.6999279856681824
time_elpased: 2.175
#iterations: 39
currently lose_sum: 0.6737837195396423
time_elpased: 2.157
start validation test
0.5284
0.551090700344
0.378548895899
0.448807854137
0.530589383014
17.203
#iterations: 40
currently lose_sum: 0.697522759437561
time_elpased: 2.172
#iterations: 41
currently lose_sum: 0.6926819086074829
time_elpased: 2.187
#iterations: 42
currently lose_sum: 0.676399827003479
time_elpased: 2.153
#iterations: 43
currently lose_sum: 0.6950892806053162
time_elpased: 2.14
#iterations: 44
currently lose_sum: 0.6997396945953369
time_elpased: 2.147
#iterations: 45
currently lose_sum: 0.686892032623291
time_elpased: 2.169
#iterations: 46
currently lose_sum: 0.6805171966552734
time_elpased: 2.189
#iterations: 47
currently lose_sum: 0.6872387528419495
time_elpased: 2.208
#iterations: 48
currently lose_sum: 0.6743602752685547
time_elpased: 2.146
#iterations: 49
currently lose_sum: 0.6893078684806824
time_elpased: 2.127
#iterations: 50
currently lose_sum: 0.6902997493743896
time_elpased: 2.122
#iterations: 51
currently lose_sum: 0.698762059211731
time_elpased: 2.174
#iterations: 52
currently lose_sum: 0.6857416033744812
time_elpased: 2.132
#iterations: 53
currently lose_sum: 0.6959236264228821
time_elpased: 2.182
#iterations: 54
currently lose_sum: 0.6561442613601685
time_elpased: 2.125
#iterations: 55
currently lose_sum: 0.684886634349823
time_elpased: 2.148
#iterations: 56
currently lose_sum: 0.6766525506973267
time_elpased: 2.231
#iterations: 57
currently lose_sum: 0.6662328839302063
time_elpased: 2.155
#iterations: 58
currently lose_sum: 0.6880541443824768
time_elpased: 2.126
#iterations: 59
currently lose_sum: 0.6979269981384277
time_elpased: 2.156
start validation test
0.5196
0.521242866202
0.648264984227
0.577855887522
0.517720154451
17.212
#iterations: 60
currently lose_sum: 0.6961775422096252
time_elpased: 2.154
#iterations: 61
currently lose_sum: 0.6723796129226685
time_elpased: 2.179
#iterations: 62
currently lose_sum: 0.6617268323898315
time_elpased: 2.165
#iterations: 63
currently lose_sum: 0.6850820779800415
time_elpased: 2.147
#iterations: 64
currently lose_sum: 0.6874806880950928
time_elpased: 2.166
#iterations: 65
currently lose_sum: 0.710040807723999
time_elpased: 2.153
#iterations: 66
currently lose_sum: 0.7012021541595459
time_elpased: 2.203
#iterations: 67
currently lose_sum: 0.6657055616378784
time_elpased: 2.172
#iterations: 68
currently lose_sum: 0.702857494354248
time_elpased: 2.15
#iterations: 69
currently lose_sum: 0.6904487013816833
time_elpased: 2.18
#iterations: 70
currently lose_sum: 0.6776565313339233
time_elpased: 2.117
#iterations: 71
currently lose_sum: 0.7021356225013733
time_elpased: 2.195
#iterations: 72
currently lose_sum: 0.6873729228973389
time_elpased: 2.136
#iterations: 73
currently lose_sum: 0.671215832233429
time_elpased: 2.142
#iterations: 74
currently lose_sum: 0.682494044303894
time_elpased: 2.167
#iterations: 75
currently lose_sum: 0.6813926696777344
time_elpased: 2.148
#iterations: 76
currently lose_sum: 0.6996628642082214
time_elpased: 2.157
#iterations: 77
currently lose_sum: 0.687197744846344
time_elpased: 2.148
#iterations: 78
currently lose_sum: 0.6530137062072754
time_elpased: 2.167
#iterations: 79
currently lose_sum: 0.6687136292457581
time_elpased: 2.153
start validation test
0.5568
0.559790732436
0.590694006309
0.574827321566
0.556304795362
17.014
#iterations: 80
currently lose_sum: 0.7048629522323608
time_elpased: 2.19
#iterations: 81
currently lose_sum: 0.6983465552330017
time_elpased: 2.176
#iterations: 82
currently lose_sum: 0.6939952373504639
time_elpased: 2.192
#iterations: 83
currently lose_sum: 0.6920311450958252
time_elpased: 2.159
#iterations: 84
currently lose_sum: 0.671040952205658
time_elpased: 2.168
#iterations: 85
currently lose_sum: 0.6778379678726196
time_elpased: 2.161
#iterations: 86
currently lose_sum: 0.666985034942627
time_elpased: 2.16
#iterations: 87
currently lose_sum: 0.6927686333656311
time_elpased: 2.144
#iterations: 88
currently lose_sum: 0.687319815158844
time_elpased: 2.127
#iterations: 89
currently lose_sum: 0.6576167941093445
time_elpased: 2.157
#iterations: 90
currently lose_sum: 0.6430200934410095
time_elpased: 2.144
#iterations: 91
currently lose_sum: 0.7008285522460938
time_elpased: 2.164
#iterations: 92
currently lose_sum: 0.6746055483818054
time_elpased: 2.15
#iterations: 93
currently lose_sum: 0.6494189500808716
time_elpased: 2.176
#iterations: 94
currently lose_sum: 0.6775970458984375
time_elpased: 2.141
#iterations: 95
currently lose_sum: 0.6772393584251404
time_elpased: 2.152
#iterations: 96
currently lose_sum: 0.6796408295631409
time_elpased: 2.166
#iterations: 97
currently lose_sum: 0.6751937866210938
time_elpased: 2.175
#iterations: 98
currently lose_sum: 0.6755445599555969
time_elpased: 2.163
#iterations: 99
currently lose_sum: 0.6915422677993774
time_elpased: 2.15
start validation test
0.5588
0.576318223867
0.491324921136
0.530438484461
0.559785837191
17.017
#iterations: 100
currently lose_sum: 0.660165548324585
time_elpased: 2.127
#iterations: 101
currently lose_sum: 0.6924081444740295
time_elpased: 2.171
#iterations: 102
currently lose_sum: 0.6708270311355591
time_elpased: 2.177
#iterations: 103
currently lose_sum: 0.717500627040863
time_elpased: 2.149
#iterations: 104
currently lose_sum: 0.7000184655189514
time_elpased: 2.144
#iterations: 105
currently lose_sum: 0.6723148822784424
time_elpased: 2.131
#iterations: 106
currently lose_sum: 0.6724948287010193
time_elpased: 2.151
#iterations: 107
currently lose_sum: 0.6933147311210632
time_elpased: 2.126
#iterations: 108
currently lose_sum: 0.6552871465682983
time_elpased: 2.151
#iterations: 109
currently lose_sum: 0.6905402541160583
time_elpased: 2.189
#iterations: 110
currently lose_sum: 0.6729310750961304
time_elpased: 2.153
#iterations: 111
currently lose_sum: 0.684721052646637
time_elpased: 2.14
#iterations: 112
currently lose_sum: 0.6857388019561768
time_elpased: 2.172
#iterations: 113
currently lose_sum: 0.6878823637962341
time_elpased: 2.21
#iterations: 114
currently lose_sum: 0.6661148071289062
time_elpased: 2.172
#iterations: 115
currently lose_sum: 0.6856138706207275
time_elpased: 2.179
#iterations: 116
currently lose_sum: 0.6602697968482971
time_elpased: 2.141
#iterations: 117
currently lose_sum: 0.6604444980621338
time_elpased: 2.141
#iterations: 118
currently lose_sum: 0.6709042191505432
time_elpased: 2.126
#iterations: 119
currently lose_sum: 0.6671017408370972
time_elpased: 2.18
start validation test
0.536
0.546956521739
0.496056782334
0.520264681555
0.536583585972
17.077
#iterations: 120
currently lose_sum: 0.6636469960212708
time_elpased: 2.153
#iterations: 121
currently lose_sum: 0.6658875942230225
time_elpased: 2.133
#iterations: 122
currently lose_sum: 0.6631970405578613
time_elpased: 2.132
#iterations: 123
currently lose_sum: 0.6995274424552917
time_elpased: 2.192
#iterations: 124
currently lose_sum: 0.6870576739311218
time_elpased: 2.138
#iterations: 125
currently lose_sum: 0.6744344830513
time_elpased: 2.178
#iterations: 126
currently lose_sum: 0.6448584794998169
time_elpased: 2.173
#iterations: 127
currently lose_sum: 0.6763679385185242
time_elpased: 2.164
#iterations: 128
currently lose_sum: 0.6608096361160278
time_elpased: 2.157
#iterations: 129
currently lose_sum: 0.6577108502388
time_elpased: 2.167
#iterations: 130
currently lose_sum: 0.7035855054855347
time_elpased: 2.172
#iterations: 131
currently lose_sum: 0.6756336688995361
time_elpased: 2.14
#iterations: 132
currently lose_sum: 0.7141238451004028
time_elpased: 2.169
#iterations: 133
currently lose_sum: 0.7008876204490662
time_elpased: 2.136
#iterations: 134
currently lose_sum: 0.6754826903343201
time_elpased: 2.18
#iterations: 135
currently lose_sum: 0.6632186770439148
time_elpased: 2.135
#iterations: 136
currently lose_sum: 0.67890465259552
time_elpased: 2.159
#iterations: 137
currently lose_sum: 0.7178396582603455
time_elpased: 2.183
#iterations: 138
currently lose_sum: 0.6883723735809326
time_elpased: 2.138
#iterations: 139
currently lose_sum: 0.6461704969406128
time_elpased: 2.152
start validation test
0.546
0.549077490775
0.586750788644
0.567289363324
0.545404615101
17.043
#iterations: 140
currently lose_sum: 0.7187972068786621
time_elpased: 2.139
#iterations: 141
currently lose_sum: 0.6755114793777466
time_elpased: 2.147
#iterations: 142
currently lose_sum: 0.694394052028656
time_elpased: 2.163
#iterations: 143
currently lose_sum: 0.6657385230064392
time_elpased: 2.179
#iterations: 144
currently lose_sum: 0.687614917755127
time_elpased: 2.191
#iterations: 145
currently lose_sum: 0.643389105796814
time_elpased: 2.123
#iterations: 146
currently lose_sum: 0.6605122089385986
time_elpased: 2.169
#iterations: 147
currently lose_sum: 0.6604090929031372
time_elpased: 2.133
#iterations: 148
currently lose_sum: 0.6625831723213196
time_elpased: 2.174
#iterations: 149
currently lose_sum: 0.6837060451507568
time_elpased: 2.138
#iterations: 150
currently lose_sum: 0.6944513916969299
time_elpased: 2.143
#iterations: 151
currently lose_sum: 0.6950092911720276
time_elpased: 2.15
#iterations: 152
currently lose_sum: 0.6518593430519104
time_elpased: 2.182
#iterations: 153
currently lose_sum: 0.7012569308280945
time_elpased: 2.219
#iterations: 154
currently lose_sum: 0.6712482571601868
time_elpased: 2.144
#iterations: 155
currently lose_sum: 0.6671415567398071
time_elpased: 2.126
#iterations: 156
currently lose_sum: 0.6843692660331726
time_elpased: 2.133
#iterations: 157
currently lose_sum: 0.6873776316642761
time_elpased: 2.191
#iterations: 158
currently lose_sum: 0.6709353923797607
time_elpased: 2.179
#iterations: 159
currently lose_sum: 0.6832807064056396
time_elpased: 2.133
start validation test
0.5408
0.612359550562
0.257886435331
0.362930077691
0.544933477406
16.998
#iterations: 160
currently lose_sum: 0.6602703928947449
time_elpased: 2.151
#iterations: 161
currently lose_sum: 0.6892752647399902
time_elpased: 2.141
#iterations: 162
currently lose_sum: 0.6662557125091553
time_elpased: 2.161
#iterations: 163
currently lose_sum: 0.6754915118217468
time_elpased: 2.202
#iterations: 164
currently lose_sum: 0.6468928456306458
time_elpased: 2.164
#iterations: 165
currently lose_sum: 0.683663010597229
time_elpased: 2.176
#iterations: 166
currently lose_sum: 0.6729738116264343
time_elpased: 2.152
#iterations: 167
currently lose_sum: 0.6938716173171997
time_elpased: 2.134
#iterations: 168
currently lose_sum: 0.6701110601425171
time_elpased: 2.133
#iterations: 169
currently lose_sum: 0.7142102122306824
time_elpased: 2.152
#iterations: 170
currently lose_sum: 0.6538799405097961
time_elpased: 2.176
#iterations: 171
currently lose_sum: 0.6685399413108826
time_elpased: 2.13
#iterations: 172
currently lose_sum: 0.6766995191574097
time_elpased: 2.182
#iterations: 173
currently lose_sum: 0.6934011578559875
time_elpased: 2.173
#iterations: 174
currently lose_sum: 0.6571857929229736
time_elpased: 2.162
#iterations: 175
currently lose_sum: 0.6633235216140747
time_elpased: 2.163
#iterations: 176
currently lose_sum: 0.6749114394187927
time_elpased: 2.166
#iterations: 177
currently lose_sum: 0.6361799836158752
time_elpased: 2.146
#iterations: 178
currently lose_sum: 0.6687268018722534
time_elpased: 2.144
#iterations: 179
currently lose_sum: 0.6590811014175415
time_elpased: 2.147
start validation test
0.564
0.5764604811
0.529179810726
0.551809210526
0.564508736532
16.922
#iterations: 180
currently lose_sum: 0.6623420119285583
time_elpased: 2.189
#iterations: 181
currently lose_sum: 0.715771496295929
time_elpased: 2.164
#iterations: 182
currently lose_sum: 0.6612586975097656
time_elpased: 2.162
#iterations: 183
currently lose_sum: 0.689215898513794
time_elpased: 2.161
#iterations: 184
currently lose_sum: 0.6805961728096008
time_elpased: 2.161
#iterations: 185
currently lose_sum: 0.6895596981048584
time_elpased: 2.139
#iterations: 186
currently lose_sum: 0.680443286895752
time_elpased: 2.147
#iterations: 187
currently lose_sum: 0.6822511553764343
time_elpased: 2.146
#iterations: 188
currently lose_sum: 0.6804198622703552
time_elpased: 2.105
#iterations: 189
currently lose_sum: 0.7054243683815002
time_elpased: 2.16
#iterations: 190
currently lose_sum: 0.6631107926368713
time_elpased: 2.135
#iterations: 191
currently lose_sum: 0.6726504564285278
time_elpased: 2.151
#iterations: 192
currently lose_sum: 0.6734161972999573
time_elpased: 2.184
#iterations: 193
currently lose_sum: 0.6672407388687134
time_elpased: 2.111
#iterations: 194
currently lose_sum: 0.6719784736633301
time_elpased: 2.196
#iterations: 195
currently lose_sum: 0.6486608982086182
time_elpased: 2.193
#iterations: 196
currently lose_sum: 0.6857112050056458
time_elpased: 2.205
#iterations: 197
currently lose_sum: 0.6632437109947205
time_elpased: 2.148
#iterations: 198
currently lose_sum: 0.658673107624054
time_elpased: 2.146
#iterations: 199
currently lose_sum: 0.666487455368042
time_elpased: 2.162
start validation test
0.552
0.580610021786
0.420347003155
0.487648673376
0.553923501577
17.063
#iterations: 200
currently lose_sum: 0.6892787218093872
time_elpased: 2.172
#iterations: 201
currently lose_sum: 0.6773638725280762
time_elpased: 2.177
#iterations: 202
currently lose_sum: 0.6825777292251587
time_elpased: 2.182
#iterations: 203
currently lose_sum: 0.6558067202568054
time_elpased: 2.112
#iterations: 204
currently lose_sum: 0.6953442096710205
time_elpased: 2.153
#iterations: 205
currently lose_sum: 0.6925013661384583
time_elpased: 2.155
#iterations: 206
currently lose_sum: 0.6764723062515259
time_elpased: 2.116
#iterations: 207
currently lose_sum: 0.699796736240387
time_elpased: 2.106
#iterations: 208
currently lose_sum: 0.6453009247779846
time_elpased: 2.134
#iterations: 209
currently lose_sum: 0.6609410047531128
time_elpased: 2.143
#iterations: 210
currently lose_sum: 0.6565353870391846
time_elpased: 2.19
#iterations: 211
currently lose_sum: 0.671822190284729
time_elpased: 2.138
#iterations: 212
currently lose_sum: 0.6705700159072876
time_elpased: 2.158
#iterations: 213
currently lose_sum: 0.6275667548179626
time_elpased: 2.15
#iterations: 214
currently lose_sum: 0.6616052389144897
time_elpased: 2.162
#iterations: 215
currently lose_sum: 0.6674655675888062
time_elpased: 2.175
#iterations: 216
currently lose_sum: 0.6520243287086487
time_elpased: 2.18
#iterations: 217
currently lose_sum: 0.6454162001609802
time_elpased: 2.172
#iterations: 218
currently lose_sum: 0.671738862991333
time_elpased: 2.161
#iterations: 219
currently lose_sum: 0.6732219457626343
time_elpased: 2.193
start validation test
0.5616
0.572268907563
0.537066246057
0.554109031733
0.561958447704
17.087
#iterations: 220
currently lose_sum: 0.6670617461204529
time_elpased: 2.168
#iterations: 221
currently lose_sum: 0.6613835096359253
time_elpased: 2.126
#iterations: 222
currently lose_sum: 0.6453973650932312
time_elpased: 2.162
#iterations: 223
currently lose_sum: 0.6457974314689636
time_elpased: 2.152
#iterations: 224
currently lose_sum: 0.6565657258033752
time_elpased: 2.154
#iterations: 225
currently lose_sum: 0.6423401832580566
time_elpased: 2.157
#iterations: 226
currently lose_sum: 0.6378982067108154
time_elpased: 2.161
#iterations: 227
currently lose_sum: 0.6577603220939636
time_elpased: 2.16
#iterations: 228
currently lose_sum: 0.6808035373687744
time_elpased: 2.19
#iterations: 229
currently lose_sum: 0.6603469252586365
time_elpased: 2.15
#iterations: 230
currently lose_sum: 0.686085045337677
time_elpased: 2.161
#iterations: 231
currently lose_sum: 0.6662769913673401
time_elpased: 2.161
#iterations: 232
currently lose_sum: 0.7092466950416565
time_elpased: 2.172
#iterations: 233
currently lose_sum: 0.6811195611953735
time_elpased: 2.134
#iterations: 234
currently lose_sum: 0.6369140148162842
time_elpased: 2.163
#iterations: 235
currently lose_sum: 0.6443876624107361
time_elpased: 2.163
#iterations: 236
currently lose_sum: 0.6587696671485901
time_elpased: 2.181
#iterations: 237
currently lose_sum: 0.6589118242263794
time_elpased: 2.146
#iterations: 238
currently lose_sum: 0.6704810261726379
time_elpased: 2.143
#iterations: 239
currently lose_sum: 0.6688008308410645
time_elpased: 2.141
start validation test
0.568
0.573208722741
0.580441640379
0.576802507837
0.567818222787
16.938
#iterations: 240
currently lose_sum: 0.6935909986495972
time_elpased: 2.18
#iterations: 241
currently lose_sum: 0.6390829682350159
time_elpased: 2.2
#iterations: 242
currently lose_sum: 0.6825217604637146
time_elpased: 2.181
#iterations: 243
currently lose_sum: 0.6564003229141235
time_elpased: 2.154
#iterations: 244
currently lose_sum: 0.691947340965271
time_elpased: 2.149
#iterations: 245
currently lose_sum: 0.6780374050140381
time_elpased: 2.13
#iterations: 246
currently lose_sum: 0.6590741872787476
time_elpased: 2.19
#iterations: 247
currently lose_sum: 0.6508436799049377
time_elpased: 2.167
#iterations: 248
currently lose_sum: 0.674487292766571
time_elpased: 2.142
#iterations: 249
currently lose_sum: 0.6955795288085938
time_elpased: 2.126
#iterations: 250
currently lose_sum: 0.6363900899887085
time_elpased: 2.148
#iterations: 251
currently lose_sum: 0.6982182264328003
time_elpased: 2.133
#iterations: 252
currently lose_sum: 0.6612988114356995
time_elpased: 2.159
#iterations: 253
currently lose_sum: 0.6537675261497498
time_elpased: 2.143
#iterations: 254
currently lose_sum: 0.6458666324615479
time_elpased: 2.127
#iterations: 255
currently lose_sum: 0.6460695862770081
time_elpased: 2.12
#iterations: 256
currently lose_sum: 0.6583104133605957
time_elpased: 2.122
#iterations: 257
currently lose_sum: 0.6582484245300293
time_elpased: 2.16
#iterations: 258
currently lose_sum: 0.6505611538887024
time_elpased: 2.136
#iterations: 259
currently lose_sum: 0.6434314846992493
time_elpased: 2.149
start validation test
0.5844
0.584752035529
0.623028391167
0.603283696067
0.583835624155
16.850
#iterations: 260
currently lose_sum: 0.6720456480979919
time_elpased: 2.205
#iterations: 261
currently lose_sum: 0.6765221357345581
time_elpased: 2.153
#iterations: 262
currently lose_sum: 0.6719844341278076
time_elpased: 2.16
#iterations: 263
currently lose_sum: 0.6477534770965576
time_elpased: 2.177
#iterations: 264
currently lose_sum: 0.6932331323623657
time_elpased: 2.145
#iterations: 265
currently lose_sum: 0.682933509349823
time_elpased: 2.151
#iterations: 266
currently lose_sum: 0.6772986054420471
time_elpased: 2.136
#iterations: 267
currently lose_sum: 0.6910296082496643
time_elpased: 2.154
#iterations: 268
currently lose_sum: 0.6260124444961548
time_elpased: 2.161
#iterations: 269
currently lose_sum: 0.6566160321235657
time_elpased: 2.176
#iterations: 270
currently lose_sum: 0.6882334351539612
time_elpased: 2.151
#iterations: 271
currently lose_sum: 0.6532025337219238
time_elpased: 2.149
#iterations: 272
currently lose_sum: 0.6519950032234192
time_elpased: 2.139
#iterations: 273
currently lose_sum: 0.6594957113265991
time_elpased: 2.156
#iterations: 274
currently lose_sum: 0.6536388993263245
time_elpased: 2.127
#iterations: 275
currently lose_sum: 0.6740818619728088
time_elpased: 2.139
#iterations: 276
currently lose_sum: 0.6616687178611755
time_elpased: 2.175
#iterations: 277
currently lose_sum: 0.6581860184669495
time_elpased: 2.15
#iterations: 278
currently lose_sum: 0.6942228674888611
time_elpased: 2.157
#iterations: 279
currently lose_sum: 0.6525416374206543
time_elpased: 2.208
start validation test
0.5528
0.538265306122
0.832018927445
0.65365551425
0.548720502683
17.051
#iterations: 280
currently lose_sum: 0.6820626854896545
time_elpased: 2.139
#iterations: 281
currently lose_sum: 0.6549192667007446
time_elpased: 2.125
#iterations: 282
currently lose_sum: 0.6880201101303101
time_elpased: 2.153
#iterations: 283
currently lose_sum: 0.6640093922615051
time_elpased: 2.141
#iterations: 284
currently lose_sum: 0.6485195159912109
time_elpased: 2.146
#iterations: 285
currently lose_sum: 0.646605372428894
time_elpased: 2.161
#iterations: 286
currently lose_sum: 0.7013528347015381
time_elpased: 2.157
#iterations: 287
currently lose_sum: 0.6810147762298584
time_elpased: 2.13
#iterations: 288
currently lose_sum: 0.6500884294509888
time_elpased: 2.132
#iterations: 289
currently lose_sum: 0.6685270667076111
time_elpased: 2.146
#iterations: 290
currently lose_sum: 0.6572257876396179
time_elpased: 2.14
#iterations: 291
currently lose_sum: 0.6522960662841797
time_elpased: 2.16
#iterations: 292
currently lose_sum: 0.6748837828636169
time_elpased: 2.181
#iterations: 293
currently lose_sum: 0.6649861931800842
time_elpased: 2.165
#iterations: 294
currently lose_sum: 0.6111741065979004
time_elpased: 2.137
#iterations: 295
currently lose_sum: 0.6599557399749756
time_elpased: 2.158
#iterations: 296
currently lose_sum: 0.6683703660964966
time_elpased: 2.148
#iterations: 297
currently lose_sum: 0.6640786528587341
time_elpased: 2.218
#iterations: 298
currently lose_sum: 0.7110593914985657
time_elpased: 2.119
#iterations: 299
currently lose_sum: 0.6583409309387207
time_elpased: 2.205
start validation test
0.5472
0.614478114478
0.28785488959
0.392051557465
0.550989133107
16.946
#iterations: 300
currently lose_sum: 0.6369366645812988
time_elpased: 2.229
#iterations: 301
currently lose_sum: 0.6851155161857605
time_elpased: 2.185
#iterations: 302
currently lose_sum: 0.7021604776382446
time_elpased: 2.145
#iterations: 303
currently lose_sum: 0.6526709198951721
time_elpased: 2.159
#iterations: 304
currently lose_sum: 0.651720404624939
time_elpased: 2.189
#iterations: 305
currently lose_sum: 0.6505957245826721
time_elpased: 2.163
#iterations: 306
currently lose_sum: 0.6755687594413757
time_elpased: 2.168
#iterations: 307
currently lose_sum: 0.6981748342514038
time_elpased: 2.156
#iterations: 308
currently lose_sum: 0.6544541716575623
time_elpased: 2.166
#iterations: 309
currently lose_sum: 0.6750853657722473
time_elpased: 2.169
#iterations: 310
currently lose_sum: 0.6938157677650452
time_elpased: 2.163
#iterations: 311
currently lose_sum: 0.6634972095489502
time_elpased: 2.188
#iterations: 312
currently lose_sum: 0.6956775188446045
time_elpased: 2.133
#iterations: 313
currently lose_sum: 0.6860492825508118
time_elpased: 2.153
#iterations: 314
currently lose_sum: 0.6933253407478333
time_elpased: 2.205
#iterations: 315
currently lose_sum: 0.6750907897949219
time_elpased: 2.162
#iterations: 316
currently lose_sum: 0.7118135690689087
time_elpased: 2.148
#iterations: 317
currently lose_sum: 0.6291007399559021
time_elpased: 2.178
#iterations: 318
currently lose_sum: 0.6721379160881042
time_elpased: 2.185
#iterations: 319
currently lose_sum: 0.6653254628181458
time_elpased: 2.164
start validation test
0.5684
0.560152768937
0.694006309148
0.619936597393
0.566564842886
16.829
#iterations: 320
currently lose_sum: 0.6476361155509949
time_elpased: 2.16
#iterations: 321
currently lose_sum: 0.6596832275390625
time_elpased: 2.199
#iterations: 322
currently lose_sum: 0.6301200985908508
time_elpased: 2.136
#iterations: 323
currently lose_sum: 0.6656984090805054
time_elpased: 2.173
#iterations: 324
currently lose_sum: 0.6809756755828857
time_elpased: 2.17
#iterations: 325
currently lose_sum: 0.6621331572532654
time_elpased: 2.136
#iterations: 326
currently lose_sum: 0.6974198818206787
time_elpased: 2.144
#iterations: 327
currently lose_sum: 0.6508213877677917
time_elpased: 2.176
#iterations: 328
currently lose_sum: 0.6320481896400452
time_elpased: 2.125
#iterations: 329
currently lose_sum: 0.6975632309913635
time_elpased: 2.163
#iterations: 330
currently lose_sum: 0.6185851097106934
time_elpased: 2.175
#iterations: 331
currently lose_sum: 0.6920480132102966
time_elpased: 2.175
#iterations: 332
currently lose_sum: 0.6407904624938965
time_elpased: 2.112
#iterations: 333
currently lose_sum: 0.630806028842926
time_elpased: 2.186
#iterations: 334
currently lose_sum: 0.710704505443573
time_elpased: 2.194
#iterations: 335
currently lose_sum: 0.6281974911689758
time_elpased: 2.155
#iterations: 336
currently lose_sum: 0.6955825686454773
time_elpased: 2.173
#iterations: 337
currently lose_sum: 0.6642381548881531
time_elpased: 2.149
#iterations: 338
currently lose_sum: 0.6639358401298523
time_elpased: 2.156
#iterations: 339
currently lose_sum: 0.66729336977005
time_elpased: 2.129
start validation test
0.5564
0.59900373599
0.379337539432
0.4645098986
0.558986951534
17.016
#iterations: 340
currently lose_sum: 0.6492794752120972
time_elpased: 2.146
#iterations: 341
currently lose_sum: 0.6623106598854065
time_elpased: 2.139
#iterations: 342
currently lose_sum: 0.6206000447273254
time_elpased: 2.231
#iterations: 343
currently lose_sum: 0.6779983639717102
time_elpased: 2.197
#iterations: 344
currently lose_sum: 0.6651566028594971
time_elpased: 2.162
#iterations: 345
currently lose_sum: 0.6836215257644653
time_elpased: 2.132
#iterations: 346
currently lose_sum: 0.664237380027771
time_elpased: 2.184
#iterations: 347
currently lose_sum: 0.6498652696609497
time_elpased: 2.195
#iterations: 348
currently lose_sum: 0.6597961187362671
time_elpased: 2.179
#iterations: 349
currently lose_sum: 0.6439919471740723
time_elpased: 2.184
#iterations: 350
currently lose_sum: 0.6771891713142395
time_elpased: 2.138
#iterations: 351
currently lose_sum: 0.6355698108673096
time_elpased: 2.147
#iterations: 352
currently lose_sum: 0.6815528273582458
time_elpased: 2.167
#iterations: 353
currently lose_sum: 0.6449830532073975
time_elpased: 2.157
#iterations: 354
currently lose_sum: 0.643215000629425
time_elpased: 2.158
#iterations: 355
currently lose_sum: 0.6154137253761292
time_elpased: 2.148
#iterations: 356
currently lose_sum: 0.6892237663269043
time_elpased: 2.162
#iterations: 357
currently lose_sum: 0.6729366779327393
time_elpased: 2.17
#iterations: 358
currently lose_sum: 0.6614927649497986
time_elpased: 2.149
#iterations: 359
currently lose_sum: 0.6466258764266968
time_elpased: 2.16
start validation test
0.576
0.587542087542
0.55047318612
0.568403908795
0.576372956696
16.842
#iterations: 360
currently lose_sum: 0.6631458401679993
time_elpased: 2.135
#iterations: 361
currently lose_sum: 0.6633235812187195
time_elpased: 2.159
#iterations: 362
currently lose_sum: 0.648461103439331
time_elpased: 2.166
#iterations: 363
currently lose_sum: 0.6310216784477234
time_elpased: 2.166
#iterations: 364
currently lose_sum: 0.6478435397148132
time_elpased: 2.128
#iterations: 365
currently lose_sum: 0.7044155597686768
time_elpased: 2.183
#iterations: 366
currently lose_sum: 0.6402560472488403
time_elpased: 2.137
#iterations: 367
currently lose_sum: 0.6292955875396729
time_elpased: 2.153
#iterations: 368
currently lose_sum: 0.6685550212860107
time_elpased: 2.168
#iterations: 369
currently lose_sum: 0.6464036703109741
time_elpased: 2.198
#iterations: 370
currently lose_sum: 0.6183815002441406
time_elpased: 2.136
#iterations: 371
currently lose_sum: 0.6755038499832153
time_elpased: 2.162
#iterations: 372
currently lose_sum: 0.668163001537323
time_elpased: 2.198
#iterations: 373
currently lose_sum: 0.6478625535964966
time_elpased: 2.156
#iterations: 374
currently lose_sum: 0.6358628869056702
time_elpased: 2.168
#iterations: 375
currently lose_sum: 0.6725131869316101
time_elpased: 2.133
#iterations: 376
currently lose_sum: 0.6623396277427673
time_elpased: 2.161
#iterations: 377
currently lose_sum: 0.6807746291160583
time_elpased: 2.126
#iterations: 378
currently lose_sum: 0.6359609961509705
time_elpased: 2.127
#iterations: 379
currently lose_sum: 0.682362973690033
time_elpased: 2.162
start validation test
0.5424
0.564583333333
0.427444794953
0.486535008977
0.544079540333
17.163
#iterations: 380
currently lose_sum: 0.6401179432868958
time_elpased: 2.168
#iterations: 381
currently lose_sum: 0.6385912299156189
time_elpased: 2.171
#iterations: 382
currently lose_sum: 0.6625646948814392
time_elpased: 2.184
#iterations: 383
currently lose_sum: 0.6397809386253357
time_elpased: 2.163
#iterations: 384
currently lose_sum: 0.6802447438240051
time_elpased: 2.186
#iterations: 385
currently lose_sum: 0.6572034955024719
time_elpased: 2.148
#iterations: 386
currently lose_sum: 0.6924795508384705
time_elpased: 2.143
#iterations: 387
currently lose_sum: 0.6479326486587524
time_elpased: 2.133
#iterations: 388
currently lose_sum: 0.6186564564704895
time_elpased: 2.201
#iterations: 389
currently lose_sum: 0.6546723246574402
time_elpased: 2.169
#iterations: 390
currently lose_sum: 0.6640057563781738
time_elpased: 2.172
#iterations: 391
currently lose_sum: 0.6655126214027405
time_elpased: 2.181
#iterations: 392
currently lose_sum: 0.6605151295661926
time_elpased: 2.171
#iterations: 393
currently lose_sum: 0.6789053082466125
time_elpased: 2.163
#iterations: 394
currently lose_sum: 0.6275286674499512
time_elpased: 2.166
#iterations: 395
currently lose_sum: 0.6754022240638733
time_elpased: 2.148
#iterations: 396
currently lose_sum: 0.686562716960907
time_elpased: 2.15
#iterations: 397
currently lose_sum: 0.641679584980011
time_elpased: 2.173
#iterations: 398
currently lose_sum: 0.6764727830886841
time_elpased: 2.155
#iterations: 399
currently lose_sum: 0.6524151563644409
time_elpased: 2.175
start validation test
0.5652
0.607609988109
0.402996845426
0.484589853011
0.567569851284
16.913
#iterations: 400
currently lose_sum: 0.6554000973701477
time_elpased: 2.155
#iterations: 401
currently lose_sum: 0.6436931490898132
time_elpased: 2.216
#iterations: 402
currently lose_sum: 0.666487455368042
time_elpased: 2.157
#iterations: 403
currently lose_sum: 0.7175074815750122
time_elpased: 2.183
#iterations: 404
currently lose_sum: 0.6464467644691467
time_elpased: 2.197
#iterations: 405
currently lose_sum: 0.6487410068511963
time_elpased: 2.232
#iterations: 406
currently lose_sum: 0.6288365721702576
time_elpased: 2.176
#iterations: 407
currently lose_sum: 0.6746252179145813
time_elpased: 2.153
#iterations: 408
currently lose_sum: 0.7045583128929138
time_elpased: 2.15
#iterations: 409
currently lose_sum: 0.6285806894302368
time_elpased: 2.162
#iterations: 410
currently lose_sum: 0.6424424052238464
time_elpased: 2.132
#iterations: 411
currently lose_sum: 0.6612600684165955
time_elpased: 2.161
#iterations: 412
currently lose_sum: 0.6286890506744385
time_elpased: 2.178
#iterations: 413
currently lose_sum: 0.6713972687721252
time_elpased: 2.142
#iterations: 414
currently lose_sum: 0.6379501819610596
time_elpased: 2.152
#iterations: 415
currently lose_sum: 0.6925678849220276
time_elpased: 2.158
#iterations: 416
currently lose_sum: 0.648709237575531
time_elpased: 2.125
#iterations: 417
currently lose_sum: 0.663814902305603
time_elpased: 2.237
#iterations: 418
currently lose_sum: 0.6575610637664795
time_elpased: 2.116
#iterations: 419
currently lose_sum: 0.6435484290122986
time_elpased: 2.168
start validation test
0.5552
0.610169491525
0.340694006309
0.437246963563
0.558334016142
17.105
#iterations: 420
currently lose_sum: 0.6690874695777893
time_elpased: 2.156
#iterations: 421
currently lose_sum: 0.6815788149833679
time_elpased: 2.155
#iterations: 422
currently lose_sum: 0.6307616233825684
time_elpased: 2.117
#iterations: 423
currently lose_sum: 0.639919102191925
time_elpased: 2.172
#iterations: 424
currently lose_sum: 0.6434506773948669
time_elpased: 2.135
#iterations: 425
currently lose_sum: 0.657041609287262
time_elpased: 2.167
#iterations: 426
currently lose_sum: 0.6475301384925842
time_elpased: 2.143
#iterations: 427
currently lose_sum: 0.6502442955970764
time_elpased: 2.141
#iterations: 428
currently lose_sum: 0.676352858543396
time_elpased: 2.13
#iterations: 429
currently lose_sum: 0.6318297982215881
time_elpased: 2.137
#iterations: 430
currently lose_sum: 0.6660851836204529
time_elpased: 2.157
#iterations: 431
currently lose_sum: 0.6462770700454712
time_elpased: 2.156
#iterations: 432
currently lose_sum: 0.6444811224937439
time_elpased: 2.152
#iterations: 433
currently lose_sum: 0.6428481936454773
time_elpased: 2.195
#iterations: 434
currently lose_sum: 0.6537527441978455
time_elpased: 2.173
#iterations: 435
currently lose_sum: 0.6797016859054565
time_elpased: 2.147
#iterations: 436
currently lose_sum: 0.6308090686798096
time_elpased: 2.158
#iterations: 437
currently lose_sum: 0.6523007154464722
time_elpased: 2.173
#iterations: 438
currently lose_sum: 0.6635215878486633
time_elpased: 2.155
#iterations: 439
currently lose_sum: 0.6355862617492676
time_elpased: 2.178
start validation test
0.5536
0.625412541254
0.298895899054
0.404482390608
0.55732132615
16.917
#iterations: 440
currently lose_sum: 0.6413331627845764
time_elpased: 2.163
#iterations: 441
currently lose_sum: 0.6655512452125549
time_elpased: 2.145
#iterations: 442
currently lose_sum: 0.6754395365715027
time_elpased: 2.179
#iterations: 443
currently lose_sum: 0.680885910987854
time_elpased: 2.149
#iterations: 444
currently lose_sum: 0.6262778639793396
time_elpased: 2.128
#iterations: 445
currently lose_sum: 0.7003065347671509
time_elpased: 2.18
#iterations: 446
currently lose_sum: 0.6507790088653564
time_elpased: 2.125
#iterations: 447
currently lose_sum: 0.62306809425354
time_elpased: 2.134
#iterations: 448
currently lose_sum: 0.6569469571113586
time_elpased: 2.141
#iterations: 449
currently lose_sum: 0.6530116200447083
time_elpased: 2.215
#iterations: 450
currently lose_sum: 0.6633001565933228
time_elpased: 2.16
#iterations: 451
currently lose_sum: 0.6736167073249817
time_elpased: 2.149
#iterations: 452
currently lose_sum: 0.6404598355293274
time_elpased: 2.16
#iterations: 453
currently lose_sum: 0.6653297543525696
time_elpased: 2.121
#iterations: 454
currently lose_sum: 0.6613031625747681
time_elpased: 2.138
#iterations: 455
currently lose_sum: 0.653623640537262
time_elpased: 2.176
#iterations: 456
currently lose_sum: 0.6771343350410461
time_elpased: 2.146
#iterations: 457
currently lose_sum: 0.6415895223617554
time_elpased: 2.18
#iterations: 458
currently lose_sum: 0.620442807674408
time_elpased: 2.181
#iterations: 459
currently lose_sum: 0.6641003489494324
time_elpased: 2.154
start validation test
0.5556
0.62440570523
0.31072555205
0.4149552396
0.55917771109
16.939
#iterations: 460
currently lose_sum: 0.6593875288963318
time_elpased: 2.14
#iterations: 461
currently lose_sum: 0.6327922940254211
time_elpased: 2.193
#iterations: 462
currently lose_sum: 0.6833966970443726
time_elpased: 2.176
#iterations: 463
currently lose_sum: 0.6148062348365784
time_elpased: 2.159
#iterations: 464
currently lose_sum: 0.6764450073242188
time_elpased: 2.177
#iterations: 465
currently lose_sum: 0.6484023332595825
time_elpased: 2.16
#iterations: 466
currently lose_sum: 0.660702109336853
time_elpased: 2.15
#iterations: 467
currently lose_sum: 0.7037955522537231
time_elpased: 2.146
#iterations: 468
currently lose_sum: 0.6539957523345947
time_elpased: 2.153
#iterations: 469
currently lose_sum: 0.6952491998672485
time_elpased: 2.156
#iterations: 470
currently lose_sum: 0.6460999846458435
time_elpased: 2.194
#iterations: 471
currently lose_sum: 0.6832255721092224
time_elpased: 2.134
#iterations: 472
currently lose_sum: 0.6588760614395142
time_elpased: 2.182
#iterations: 473
currently lose_sum: 0.6436224579811096
time_elpased: 2.159
#iterations: 474
currently lose_sum: 0.6458462476730347
time_elpased: 2.191
#iterations: 475
currently lose_sum: 0.68463534116745
time_elpased: 2.177
#iterations: 476
currently lose_sum: 0.6802495718002319
time_elpased: 2.153
#iterations: 477
currently lose_sum: 0.6479664444923401
time_elpased: 2.164
#iterations: 478
currently lose_sum: 0.6502336263656616
time_elpased: 2.2
#iterations: 479
currently lose_sum: 0.6737762689590454
time_elpased: 2.186
start validation test
0.5688
0.60579064588
0.429022082019
0.502308402585
0.570842209841
16.959
#iterations: 480
currently lose_sum: 0.6279613971710205
time_elpased: 2.122
#iterations: 481
currently lose_sum: 0.6751219034194946
time_elpased: 2.151
#iterations: 482
currently lose_sum: 0.6470754742622375
time_elpased: 2.188
#iterations: 483
currently lose_sum: 0.6792683601379395
time_elpased: 2.142
#iterations: 484
currently lose_sum: 0.6675780415534973
time_elpased: 2.119
#iterations: 485
currently lose_sum: 0.6654106378555298
time_elpased: 2.128
#iterations: 486
currently lose_sum: 0.6612889170646667
time_elpased: 2.175
#iterations: 487
currently lose_sum: 0.6471230983734131
time_elpased: 2.171
#iterations: 488
currently lose_sum: 0.6945304870605469
time_elpased: 2.146
#iterations: 489
currently lose_sum: 0.6791645288467407
time_elpased: 2.189
#iterations: 490
currently lose_sum: 0.6603761315345764
time_elpased: 2.169
#iterations: 491
currently lose_sum: 0.6693141460418701
time_elpased: 2.173
#iterations: 492
currently lose_sum: 0.6396759152412415
time_elpased: 2.14
#iterations: 493
currently lose_sum: 0.6739575862884521
time_elpased: 2.158
#iterations: 494
currently lose_sum: 0.6444101929664612
time_elpased: 2.127
#iterations: 495
currently lose_sum: 0.6632546782493591
time_elpased: 2.129
#iterations: 496
currently lose_sum: 0.6681743860244751
time_elpased: 2.156
#iterations: 497
currently lose_sum: 0.6366701722145081
time_elpased: 2.134
#iterations: 498
currently lose_sum: 0.6350334286689758
time_elpased: 2.209
#iterations: 499
currently lose_sum: 0.6501257419586182
time_elpased: 2.133
start validation test
0.5704
0.571114369501
0.614353312303
0.591945288754
0.569757824983
16.809
#iterations: 500
currently lose_sum: 0.6454524397850037
time_elpased: 2.181
#iterations: 501
currently lose_sum: 0.613597571849823
time_elpased: 2.154
#iterations: 502
currently lose_sum: 0.6647518277168274
time_elpased: 2.143
#iterations: 503
currently lose_sum: 0.6322066783905029
time_elpased: 2.13
#iterations: 504
currently lose_sum: 0.7081130743026733
time_elpased: 2.166
#iterations: 505
currently lose_sum: 0.6679311990737915
time_elpased: 2.175
#iterations: 506
currently lose_sum: 0.6745887994766235
time_elpased: 2.199
#iterations: 507
currently lose_sum: 0.6859571933746338
time_elpased: 2.198
#iterations: 508
currently lose_sum: 0.6735028028488159
time_elpased: 2.148
#iterations: 509
currently lose_sum: 0.6240202188491821
time_elpased: 2.207
#iterations: 510
currently lose_sum: 0.652214527130127
time_elpased: 2.138
#iterations: 511
currently lose_sum: 0.68357253074646
time_elpased: 2.143
#iterations: 512
currently lose_sum: 0.6935362219810486
time_elpased: 2.143
#iterations: 513
currently lose_sum: 0.6713824272155762
time_elpased: 2.175
#iterations: 514
currently lose_sum: 0.6608761548995972
time_elpased: 2.2
#iterations: 515
currently lose_sum: 0.5999354720115662
time_elpased: 2.157
#iterations: 516
currently lose_sum: 0.6772395372390747
time_elpased: 2.134
#iterations: 517
currently lose_sum: 0.6309005618095398
time_elpased: 2.176
#iterations: 518
currently lose_sum: 0.6930386424064636
time_elpased: 2.148
#iterations: 519
currently lose_sum: 0.6680983901023865
time_elpased: 2.127
start validation test
0.5692
0.591915303176
0.485015772871
0.533159947984
0.570429964357
16.846
#iterations: 520
currently lose_sum: 0.6265345215797424
time_elpased: 2.143
#iterations: 521
currently lose_sum: 0.6686079502105713
time_elpased: 2.191
#iterations: 522
currently lose_sum: 0.6625499129295349
time_elpased: 2.15
#iterations: 523
currently lose_sum: 0.6193774938583374
time_elpased: 2.14
#iterations: 524
currently lose_sum: 0.6403912305831909
time_elpased: 2.169
#iterations: 525
currently lose_sum: 0.6100499033927917
time_elpased: 2.187
#iterations: 526
currently lose_sum: 0.6414926052093506
time_elpased: 2.148
#iterations: 527
currently lose_sum: 0.6802687048912048
time_elpased: 2.17
#iterations: 528
currently lose_sum: 0.6185709238052368
time_elpased: 2.133
#iterations: 529
currently lose_sum: 0.6340256333351135
time_elpased: 2.17
#iterations: 530
currently lose_sum: 0.6851434111595154
time_elpased: 2.142
#iterations: 531
currently lose_sum: 0.6260607242584229
time_elpased: 2.166
#iterations: 532
currently lose_sum: 0.6401650905609131
time_elpased: 2.168
#iterations: 533
currently lose_sum: 0.6494797468185425
time_elpased: 2.219
#iterations: 534
currently lose_sum: 0.6397047638893127
time_elpased: 2.155
#iterations: 535
currently lose_sum: 0.6067698001861572
time_elpased: 2.174
#iterations: 536
currently lose_sum: 0.6593736410140991
time_elpased: 2.161
#iterations: 537
currently lose_sum: 0.7053089141845703
time_elpased: 2.181
#iterations: 538
currently lose_sum: 0.6391167640686035
time_elpased: 2.143
#iterations: 539
currently lose_sum: 0.6226246356964111
time_elpased: 2.167
start validation test
0.5712
0.565948855989
0.663249211356
0.610748002905
0.569855125159
16.787
#iterations: 540
currently lose_sum: 0.7133777141571045
time_elpased: 2.153
#iterations: 541
currently lose_sum: 0.6616204977035522
time_elpased: 2.132
#iterations: 542
currently lose_sum: 0.6808449029922485
time_elpased: 2.175
#iterations: 543
currently lose_sum: 0.6831483244895935
time_elpased: 2.144
#iterations: 544
currently lose_sum: 0.6614586114883423
time_elpased: 2.161
#iterations: 545
currently lose_sum: 0.6611728072166443
time_elpased: 2.151
#iterations: 546
currently lose_sum: 0.621040940284729
time_elpased: 2.16
#iterations: 547
currently lose_sum: 0.6432089805603027
time_elpased: 2.141
#iterations: 548
currently lose_sum: 0.6372958421707153
time_elpased: 2.189
#iterations: 549
currently lose_sum: 0.6401285529136658
time_elpased: 2.126
#iterations: 550
currently lose_sum: 0.6748046278953552
time_elpased: 2.172
#iterations: 551
currently lose_sum: 0.6537516713142395
time_elpased: 2.134
#iterations: 552
currently lose_sum: 0.6236413717269897
time_elpased: 2.217
#iterations: 553
currently lose_sum: 0.6520159244537354
time_elpased: 2.145
#iterations: 554
currently lose_sum: 0.6488890647888184
time_elpased: 2.145
#iterations: 555
currently lose_sum: 0.6390787363052368
time_elpased: 2.166
#iterations: 556
currently lose_sum: 0.6812252998352051
time_elpased: 2.139
#iterations: 557
currently lose_sum: 0.6460952758789062
time_elpased: 2.135
#iterations: 558
currently lose_sum: 0.630119264125824
time_elpased: 2.179
#iterations: 559
currently lose_sum: 0.6363331079483032
time_elpased: 2.161
start validation test
0.5732
0.595441595442
0.494479495268
0.54028436019
0.574350137244
16.828
#iterations: 560
currently lose_sum: 0.6709356904029846
time_elpased: 2.171
#iterations: 561
currently lose_sum: 0.6581189632415771
time_elpased: 2.151
#iterations: 562
currently lose_sum: 0.5836631655693054
time_elpased: 2.175
#iterations: 563
currently lose_sum: 0.6037275195121765
time_elpased: 2.161
#iterations: 564
currently lose_sum: 0.6307491064071655
time_elpased: 2.163
#iterations: 565
currently lose_sum: 0.6408509016036987
time_elpased: 2.132
#iterations: 566
currently lose_sum: 0.6359215378761292
time_elpased: 2.129
#iterations: 567
currently lose_sum: 0.6738570928573608
time_elpased: 2.145
#iterations: 568
currently lose_sum: 0.638115644454956
time_elpased: 2.136
#iterations: 569
currently lose_sum: 0.6205461621284485
time_elpased: 2.174
#iterations: 570
currently lose_sum: 0.6682969927787781
time_elpased: 2.138
#iterations: 571
currently lose_sum: 0.6721597909927368
time_elpased: 2.179
#iterations: 572
currently lose_sum: 0.6511369943618774
time_elpased: 2.139
#iterations: 573
currently lose_sum: 0.647925615310669
time_elpased: 2.192
#iterations: 574
currently lose_sum: 0.6663185358047485
time_elpased: 2.146
#iterations: 575
currently lose_sum: 0.6460786461830139
time_elpased: 2.17
#iterations: 576
currently lose_sum: 0.6705412268638611
time_elpased: 2.165
#iterations: 577
currently lose_sum: 0.6331576704978943
time_elpased: 2.139
#iterations: 578
currently lose_sum: 0.6444746255874634
time_elpased: 2.159
#iterations: 579
currently lose_sum: 0.6684274077415466
time_elpased: 2.151
start validation test
0.5668
0.547508988187
0.840694006309
0.663141524106
0.562798301856
17.039
#iterations: 580
currently lose_sum: 0.6783642768859863
time_elpased: 2.126
#iterations: 581
currently lose_sum: 0.6544086933135986
time_elpased: 2.144
#iterations: 582
currently lose_sum: 0.68138587474823
time_elpased: 2.2
#iterations: 583
currently lose_sum: 0.6621214151382446
time_elpased: 2.19
#iterations: 584
currently lose_sum: 0.6657311916351318
time_elpased: 2.186
#iterations: 585
currently lose_sum: 0.621882438659668
time_elpased: 2.127
#iterations: 586
currently lose_sum: 0.691910982131958
time_elpased: 2.132
#iterations: 587
currently lose_sum: 0.6260089874267578
time_elpased: 2.229
#iterations: 588
currently lose_sum: 0.6083279252052307
time_elpased: 2.159
#iterations: 589
currently lose_sum: 0.6540794372558594
time_elpased: 2.19
#iterations: 590
currently lose_sum: 0.6332992911338806
time_elpased: 2.134
#iterations: 591
currently lose_sum: 0.6374025940895081
time_elpased: 2.126
#iterations: 592
currently lose_sum: 0.641289472579956
time_elpased: 2.133
#iterations: 593
currently lose_sum: 0.6282922029495239
time_elpased: 2.172
#iterations: 594
currently lose_sum: 0.656217098236084
time_elpased: 2.182
#iterations: 595
currently lose_sum: 0.6534866094589233
time_elpased: 2.181
#iterations: 596
currently lose_sum: 0.682868242263794
time_elpased: 2.139
#iterations: 597
currently lose_sum: 0.6165275573730469
time_elpased: 2.139
#iterations: 598
currently lose_sum: 0.6639491319656372
time_elpased: 2.19
#iterations: 599
currently lose_sum: 0.6810561418533325
time_elpased: 2.146
start validation test
0.57
0.571854058079
0.605678233438
0.588280352355
0.569478727109
16.740
acc: 0.583
pre: 0.584
rec: 0.612
F1: 0.598
auc: 0.582
