start to construct computing graph
graph construct over
3803
epochs start
#iterations: 0
currently lose_sum: 0.6905855536460876
time_elpased: 19.147
#iterations: 1
currently lose_sum: 0.6850338578224182
time_elpased: 19.031
#iterations: 2
currently lose_sum: 0.6786231994628906
time_elpased: 18.831
#iterations: 3
currently lose_sum: 0.6964002251625061
time_elpased: 18.879
#iterations: 4
currently lose_sum: 0.6921038031578064
time_elpased: 18.857
#iterations: 5
currently lose_sum: 0.688555121421814
time_elpased: 18.944
#iterations: 6
currently lose_sum: 0.6891328692436218
time_elpased: 18.995
#iterations: 7
currently lose_sum: 0.6951544284820557
time_elpased: 19.28
#iterations: 8
currently lose_sum: 0.7215831875801086
time_elpased: 18.956
#iterations: 9
currently lose_sum: 0.6844267249107361
time_elpased: 18.932
#iterations: 10
currently lose_sum: 0.6940008401870728
time_elpased: 18.926
#iterations: 11
currently lose_sum: 0.6817060112953186
time_elpased: 18.932
#iterations: 12
currently lose_sum: 0.6904714107513428
time_elpased: 18.991
#iterations: 13
currently lose_sum: 0.6832708120346069
time_elpased: 18.881
#iterations: 14
currently lose_sum: 0.6939403414726257
time_elpased: 19.004
#iterations: 15
currently lose_sum: 0.7019128203392029
time_elpased: 18.826
#iterations: 16
currently lose_sum: 0.685200572013855
time_elpased: 18.914
#iterations: 17
currently lose_sum: 0.7123500108718872
time_elpased: 19.018
#iterations: 18
currently lose_sum: 0.7040101885795593
time_elpased: 19.027
#iterations: 19
currently lose_sum: 0.6797546148300171
time_elpased: 19.52
start validation test
0.5172
0.540760869565
0.314127861089
0.397403894159
0.519999859174
17.464
#iterations: 20
currently lose_sum: 0.6850523948669434
time_elpased: 18.391
#iterations: 21
currently lose_sum: 0.705555260181427
time_elpased: 18.368
#iterations: 22
currently lose_sum: 0.669325053691864
time_elpased: 18.436
#iterations: 23
currently lose_sum: 0.7014097571372986
time_elpased: 18.479
#iterations: 24
currently lose_sum: 0.6775371432304382
time_elpased: 18.615
#iterations: 25
currently lose_sum: 0.6840973496437073
time_elpased: 18.753
#iterations: 26
currently lose_sum: 0.6802314519882202
time_elpased: 18.407
#iterations: 27
currently lose_sum: 0.6934707760810852
time_elpased: 18.76
#iterations: 28
currently lose_sum: 0.6839916706085205
time_elpased: 18.464
#iterations: 29
currently lose_sum: 0.7088496685028076
time_elpased: 18.374
#iterations: 30
currently lose_sum: 0.6737444996833801
time_elpased: 18.425
#iterations: 31
currently lose_sum: 0.6679455637931824
time_elpased: 18.47
#iterations: 32
currently lose_sum: 0.7094601988792419
time_elpased: 18.594
#iterations: 33
currently lose_sum: 0.6810823082923889
time_elpased: 18.486
#iterations: 34
currently lose_sum: 0.6847158670425415
time_elpased: 18.417
#iterations: 35
currently lose_sum: 0.6766741871833801
time_elpased: 18.658
#iterations: 36
currently lose_sum: 0.65911465883255
time_elpased: 18.437
#iterations: 37
currently lose_sum: 0.6892273426055908
time_elpased: 18.612
#iterations: 38
currently lose_sum: 0.6610308885574341
time_elpased: 18.51
#iterations: 39
currently lose_sum: 0.6846570372581482
time_elpased: 18.39
start validation test
0.5516
0.549525101764
0.639305445935
0.591025173294
0.550390760275
17.094
#iterations: 40
currently lose_sum: 0.7057992815971375
time_elpased: 18.515
#iterations: 41
currently lose_sum: 0.7049258947372437
time_elpased: 18.639
#iterations: 42
currently lose_sum: 0.6700569987297058
time_elpased: 18.445
#iterations: 43
currently lose_sum: 0.674206018447876
time_elpased: 18.513
#iterations: 44
currently lose_sum: 0.6804733872413635
time_elpased: 18.931
#iterations: 45
currently lose_sum: 0.6890857219696045
time_elpased: 18.339
#iterations: 46
currently lose_sum: 0.6987724304199219
time_elpased: 18.504
#iterations: 47
currently lose_sum: 0.6823788285255432
time_elpased: 18.461
#iterations: 48
currently lose_sum: 0.6749216318130493
time_elpased: 18.553
#iterations: 49
currently lose_sum: 0.6741957068443298
time_elpased: 18.424
#iterations: 50
currently lose_sum: 0.6931084394454956
time_elpased: 18.485
#iterations: 51
currently lose_sum: 0.6786553263664246
time_elpased: 18.303
#iterations: 52
currently lose_sum: 0.705259382724762
time_elpased: 18.459
#iterations: 53
currently lose_sum: 0.6556395888328552
time_elpased: 18.431
#iterations: 54
currently lose_sum: 0.6780531406402588
time_elpased: 18.439
#iterations: 55
currently lose_sum: 0.6952095031738281
time_elpased: 18.355
#iterations: 56
currently lose_sum: 0.6687924265861511
time_elpased: 18.442
#iterations: 57
currently lose_sum: 0.697684645652771
time_elpased: 18.519
#iterations: 58
currently lose_sum: 0.692365288734436
time_elpased: 18.835
#iterations: 59
currently lose_sum: 0.7206842303276062
time_elpased: 18.468
start validation test
0.54
0.531984691088
0.767955801105
0.628552971576
0.536857057081
17.200
#iterations: 60
currently lose_sum: 0.685822606086731
time_elpased: 18.408
#iterations: 61
currently lose_sum: 0.7001620531082153
time_elpased: 18.329
#iterations: 62
currently lose_sum: 0.6676574945449829
time_elpased: 18.436
#iterations: 63
currently lose_sum: 0.6926738023757935
time_elpased: 18.47
#iterations: 64
currently lose_sum: 0.6853142380714417
time_elpased: 18.536
#iterations: 65
currently lose_sum: 0.6834223866462708
time_elpased: 18.471
#iterations: 66
currently lose_sum: 0.6733448505401611
time_elpased: 18.504
#iterations: 67
currently lose_sum: 0.6908424496650696
time_elpased: 18.485
#iterations: 68
currently lose_sum: 0.6985503435134888
time_elpased: 18.56
#iterations: 69
currently lose_sum: 0.6947290301322937
time_elpased: 18.544
#iterations: 70
currently lose_sum: 0.6895572543144226
time_elpased: 18.509
#iterations: 71
currently lose_sum: 0.6942075490951538
time_elpased: 18.432
#iterations: 72
currently lose_sum: 0.6749900579452515
time_elpased: 18.386
#iterations: 73
currently lose_sum: 0.6784419417381287
time_elpased: 18.394
#iterations: 74
currently lose_sum: 0.6718466281890869
time_elpased: 18.439
#iterations: 75
currently lose_sum: 0.6760435700416565
time_elpased: 18.487
#iterations: 76
currently lose_sum: 0.6863662004470825
time_elpased: 18.596
#iterations: 77
currently lose_sum: 0.6537870764732361
time_elpased: 18.506
#iterations: 78
currently lose_sum: 0.6826708912849426
time_elpased: 18.456
#iterations: 79
currently lose_sum: 0.6927679181098938
time_elpased: 18.699
start validation test
0.5528
0.588585017836
0.390686661405
0.469639468691
0.555035139299
17.102
#iterations: 80
currently lose_sum: 0.6826589703559875
time_elpased: 20.406
#iterations: 81
currently lose_sum: 0.6548144817352295
time_elpased: 54.412
#iterations: 82
currently lose_sum: 0.6836035251617432
time_elpased: 59.548
#iterations: 83
currently lose_sum: 0.6589905023574829
time_elpased: 62.812
#iterations: 84
currently lose_sum: 0.6618655323982239
time_elpased: 66.728
#iterations: 85
currently lose_sum: 0.6872778534889221
time_elpased: 65.283
#iterations: 86
currently lose_sum: 0.6663715243339539
time_elpased: 52.894
#iterations: 87
currently lose_sum: 0.6867703199386597
time_elpased: 62.399
#iterations: 88
currently lose_sum: 0.6819067597389221
time_elpased: 63.692
#iterations: 89
currently lose_sum: 0.6747720241546631
time_elpased: 65.22
#iterations: 90
currently lose_sum: 0.6826518177986145
time_elpased: 65.472
#iterations: 91
currently lose_sum: 0.6550608277320862
time_elpased: 58.932
#iterations: 92
currently lose_sum: 0.6655427813529968
time_elpased: 58.716
#iterations: 93
currently lose_sum: 0.7016661167144775
time_elpased: 58.907
#iterations: 94
currently lose_sum: 0.6710484027862549
time_elpased: 62.401
#iterations: 95
currently lose_sum: 0.6499977111816406
time_elpased: 65.932
#iterations: 96
currently lose_sum: 0.6675254106521606
time_elpased: 60.68
#iterations: 97
currently lose_sum: 0.6831918358802795
time_elpased: 57.638
#iterations: 98
currently lose_sum: 0.6549951434135437
time_elpased: 60.937
#iterations: 99
currently lose_sum: 0.6914623975753784
time_elpased: 62.6
start validation test
0.538
0.526515151515
0.877663772691
0.658182894347
0.533316882291
17.235
#iterations: 100
currently lose_sum: 0.6718229651451111
time_elpased: 65.496
#iterations: 101
currently lose_sum: 0.6755532026290894
time_elpased: 65.677
#iterations: 102
currently lose_sum: 0.7170400023460388
time_elpased: 56.291
#iterations: 103
currently lose_sum: 0.6902359127998352
time_elpased: 60.693
#iterations: 104
currently lose_sum: 0.7346928119659424
time_elpased: 64.727
#iterations: 105
currently lose_sum: 0.6396764516830444
time_elpased: 61.971
#iterations: 106
currently lose_sum: 0.6749226450920105
time_elpased: 64.051
#iterations: 107
currently lose_sum: 0.6726065278053284
time_elpased: 59.782
#iterations: 108
currently lose_sum: 0.6714111566543579
time_elpased: 60.497
#iterations: 109
currently lose_sum: 0.6920021176338196
time_elpased: 60.369
#iterations: 110
currently lose_sum: 0.672116219997406
time_elpased: 64.902
#iterations: 111
currently lose_sum: 0.693716824054718
time_elpased: 64.689
#iterations: 112
currently lose_sum: 0.6768524050712585
time_elpased: 55.736
#iterations: 113
currently lose_sum: 0.6679539680480957
time_elpased: 59.971
#iterations: 114
currently lose_sum: 0.6564592719078064
time_elpased: 60.468
#iterations: 115
currently lose_sum: 0.6918200850486755
time_elpased: 65.087
#iterations: 116
currently lose_sum: 0.6858976483345032
time_elpased: 64.326
#iterations: 117
currently lose_sum: 0.6650715470314026
time_elpased: 60.581
#iterations: 118
currently lose_sum: 0.6573768854141235
time_elpased: 59.025
#iterations: 119
currently lose_sum: 0.6787698268890381
time_elpased: 62.252
start validation test
0.5612
0.576576576577
0.505130228887
0.538493899874
0.561973062538
17.011
#iterations: 120
currently lose_sum: 0.656829833984375
time_elpased: 63.308
#iterations: 121
currently lose_sum: 0.6898931860923767
time_elpased: 62.313
#iterations: 122
currently lose_sum: 0.6762585639953613
time_elpased: 55.003
#iterations: 123
currently lose_sum: 0.6696186065673828
time_elpased: 60.342
#iterations: 124
currently lose_sum: 0.6627927422523499
time_elpased: 62.739
#iterations: 125
currently lose_sum: 0.6404618620872498
time_elpased: 65.539
#iterations: 126
currently lose_sum: 0.6635513305664062
time_elpased: 63.478
#iterations: 127
currently lose_sum: 0.6515450477600098
time_elpased: 59.409
#iterations: 128
currently lose_sum: 0.7022685408592224
time_elpased: 61.38
#iterations: 129
currently lose_sum: 0.6629592776298523
time_elpased: 63.085
#iterations: 130
currently lose_sum: 0.6566168069839478
time_elpased: 64.437
#iterations: 131
currently lose_sum: 0.6425269842147827
time_elpased: 64.704
#iterations: 132
currently lose_sum: 0.6348979473114014
time_elpased: 60.559
#iterations: 133
currently lose_sum: 0.6997072100639343
time_elpased: 45.403
#iterations: 134
currently lose_sum: 0.6360406279563904
time_elpased: 59.596
#iterations: 135
currently lose_sum: 0.6745363473892212
time_elpased: 61.838
#iterations: 136
currently lose_sum: 0.7088658213615417
time_elpased: 65.587
#iterations: 137
currently lose_sum: 0.654253363609314
time_elpased: 62.576
#iterations: 138
currently lose_sum: 0.6853875517845154
time_elpased: 53.121
#iterations: 139
currently lose_sum: 0.6414734125137329
time_elpased: 58.402
start validation test
0.5744
0.58353909465
0.559589581689
0.57131345689
0.574604198793
16.894
#iterations: 140
currently lose_sum: 0.6815254092216492
time_elpased: 66.179
#iterations: 141
currently lose_sum: 0.6803319454193115
time_elpased: 62.996
#iterations: 142
currently lose_sum: 0.6876482963562012
time_elpased: 61.744
#iterations: 143
currently lose_sum: 0.6312899589538574
time_elpased: 62.872
#iterations: 144
currently lose_sum: 0.6944133043289185
time_elpased: 62.617
#iterations: 145
currently lose_sum: 0.6826075911521912
time_elpased: 59.283
#iterations: 146
currently lose_sum: 0.6721487641334534
time_elpased: 62.353
#iterations: 147
currently lose_sum: 0.6586563587188721
time_elpased: 63.891
#iterations: 148
currently lose_sum: 0.6630603075027466
time_elpased: 64.177
#iterations: 149
currently lose_sum: 0.6727496981620789
time_elpased: 63.014
#iterations: 150
currently lose_sum: 0.7054828405380249
time_elpased: 59.516
#iterations: 151
currently lose_sum: 0.6739423871040344
time_elpased: 62.416
#iterations: 152
currently lose_sum: 0.6600909233093262
time_elpased: 64.111
#iterations: 153
currently lose_sum: 0.6666025519371033
time_elpased: 64.439
#iterations: 154
currently lose_sum: 0.6436917781829834
time_elpased: 65.32
#iterations: 155
currently lose_sum: 0.6587938070297241
time_elpased: 64.811
#iterations: 156
currently lose_sum: 0.666556179523468
time_elpased: 65.231
#iterations: 157
currently lose_sum: 0.6727148294448853
time_elpased: 65.004
#iterations: 158
currently lose_sum: 0.6661662459373474
time_elpased: 65.433
#iterations: 159
currently lose_sum: 0.6958419680595398
time_elpased: 64.134
start validation test
0.578
0.585899513776
0.570639305446
0.578168732507
0.578101485651
16.825
#iterations: 160
currently lose_sum: 0.6685919165611267
time_elpased: 65.55
#iterations: 161
currently lose_sum: 0.6992083191871643
time_elpased: 64.871
#iterations: 162
currently lose_sum: 0.6708258986473083
time_elpased: 64.936
#iterations: 163
currently lose_sum: 0.6861973404884338
time_elpased: 66.729
#iterations: 164
currently lose_sum: 0.6826586723327637
time_elpased: 64.713
#iterations: 165
currently lose_sum: 0.6465108394622803
time_elpased: 63.705
#iterations: 166
currently lose_sum: 0.6600468158721924
time_elpased: 64.01
#iterations: 167
currently lose_sum: 0.6758221387863159
time_elpased: 63.822
#iterations: 168
currently lose_sum: 0.6596989631652832
time_elpased: 63.662
#iterations: 169
currently lose_sum: 0.6723172664642334
time_elpased: 64.667
#iterations: 170
currently lose_sum: 0.6519033312797546
time_elpased: 65.735
#iterations: 171
currently lose_sum: 0.6696982383728027
time_elpased: 63.252
#iterations: 172
currently lose_sum: 0.6563940644264221
time_elpased: 61.086
#iterations: 173
currently lose_sum: 0.6175441741943359
time_elpased: 63.189
#iterations: 174
currently lose_sum: 0.6600738763809204
time_elpased: 64.352
#iterations: 175
currently lose_sum: 0.6937715411186218
time_elpased: 65.096
#iterations: 176
currently lose_sum: 0.6625523567199707
time_elpased: 65.001
#iterations: 177
currently lose_sum: 0.6818252801895142
time_elpased: 63.254
#iterations: 178
currently lose_sum: 0.6706867814064026
time_elpased: 64.0
#iterations: 179
currently lose_sum: 0.6901214718818665
time_elpased: 65.069
start validation test
0.574
0.6391184573
0.366219415943
0.465629703964
0.576864776909
17.023
#iterations: 180
currently lose_sum: 0.6545389294624329
time_elpased: 65.314
#iterations: 181
currently lose_sum: 0.6997296214103699
time_elpased: 65.581
#iterations: 182
currently lose_sum: 0.6926077008247375
time_elpased: 63.224
#iterations: 183
currently lose_sum: 0.6637483239173889
time_elpased: 63.488
#iterations: 184
currently lose_sum: 0.6971957683563232
time_elpased: 65.124
#iterations: 185
currently lose_sum: 0.6412461996078491
time_elpased: 65.187
#iterations: 186
currently lose_sum: 0.6506552696228027
time_elpased: 64.392
#iterations: 187
currently lose_sum: 0.6423234343528748
time_elpased: 61.712
#iterations: 188
currently lose_sum: 0.646822988986969
time_elpased: 64.404
#iterations: 189
currently lose_sum: 0.6304131746292114
time_elpased: 63.838
#iterations: 190
currently lose_sum: 0.6856022477149963
time_elpased: 64.634
#iterations: 191
currently lose_sum: 0.6944751739501953
time_elpased: 65.101
#iterations: 192
currently lose_sum: 0.6699963212013245
time_elpased: 61.611
#iterations: 193
currently lose_sum: 0.6682572960853577
time_elpased: 62.863
#iterations: 194
currently lose_sum: 0.6692613363265991
time_elpased: 64.28
#iterations: 195
currently lose_sum: 0.6860243082046509
time_elpased: 65.233
#iterations: 196
currently lose_sum: 0.6953452825546265
time_elpased: 65.114
#iterations: 197
currently lose_sum: 0.6442109942436218
time_elpased: 66.113
#iterations: 198
currently lose_sum: 0.6889315843582153
time_elpased: 62.569
#iterations: 199
currently lose_sum: 0.6943891644477844
time_elpased: 62.514
start validation test
0.5644
0.572712418301
0.553275453828
0.562826174227
0.564553379793
16.822
#iterations: 200
currently lose_sum: 0.6549241542816162
time_elpased: 65.493
#iterations: 201
currently lose_sum: 0.6524194478988647
time_elpased: 63.985
#iterations: 202
currently lose_sum: 0.6853604912757874
time_elpased: 66.342
#iterations: 203
currently lose_sum: 0.653760552406311
time_elpased: 65.678
#iterations: 204
currently lose_sum: 0.6908677816390991
time_elpased: 65.762
#iterations: 205
currently lose_sum: 0.6639165282249451
time_elpased: 65.063
#iterations: 206
currently lose_sum: 0.6582339406013489
time_elpased: 64.029
#iterations: 207
currently lose_sum: 0.673994779586792
time_elpased: 66.523
#iterations: 208
currently lose_sum: 0.6795446872711182
time_elpased: 64.659
#iterations: 209
currently lose_sum: 0.6510598063468933
time_elpased: 65.163
#iterations: 210
currently lose_sum: 0.6951770186424255
time_elpased: 64.694
#iterations: 211
currently lose_sum: 0.6724448204040527
time_elpased: 65.089
#iterations: 212
currently lose_sum: 0.6631121039390564
time_elpased: 66.531
#iterations: 213
currently lose_sum: 0.6707980632781982
time_elpased: 64.695
#iterations: 214
currently lose_sum: 0.7066105008125305
time_elpased: 64.954
#iterations: 215
currently lose_sum: 0.6856706142425537
time_elpased: 63.432
#iterations: 216
currently lose_sum: 0.6714779138565063
time_elpased: 63.711
#iterations: 217
currently lose_sum: 0.6161222457885742
time_elpased: 63.953
#iterations: 218
currently lose_sum: 0.6527619957923889
time_elpased: 66.475
#iterations: 219
currently lose_sum: 0.6380012035369873
time_elpased: 63.381
start validation test
0.5648
0.555009219422
0.71270718232
0.62404975812
0.562760728224
16.906
#iterations: 220
currently lose_sum: 0.6666324734687805
time_elpased: 64.716
#iterations: 221
currently lose_sum: 0.6716180443763733
time_elpased: 65.909
#iterations: 222
currently lose_sum: 0.6750773787498474
time_elpased: 64.625
#iterations: 223
currently lose_sum: 0.6435039043426514
time_elpased: 65.956
#iterations: 224
currently lose_sum: 0.6591587662696838
time_elpased: 65.34
#iterations: 225
currently lose_sum: 0.6509751081466675
time_elpased: 64.6
#iterations: 226
currently lose_sum: 0.6737167239189148
time_elpased: 65.79
#iterations: 227
currently lose_sum: 0.6775733828544617
time_elpased: 64.898
#iterations: 228
currently lose_sum: 0.6496913433074951
time_elpased: 65.682
#iterations: 229
currently lose_sum: 0.6321114897727966
time_elpased: 64.553
#iterations: 230
currently lose_sum: 0.6802912354469299
time_elpased: 65.476
#iterations: 231
currently lose_sum: 0.635948657989502
time_elpased: 64.449
#iterations: 232
currently lose_sum: 0.6601412892341614
time_elpased: 64.131
#iterations: 233
currently lose_sum: 0.6570883393287659
time_elpased: 64.34
#iterations: 234
currently lose_sum: 0.6731780767440796
time_elpased: 65.421
#iterations: 235
currently lose_sum: 0.6823022365570068
time_elpased: 64.837
#iterations: 236
currently lose_sum: 0.6807386875152588
time_elpased: 64.281
#iterations: 237
currently lose_sum: 0.6991813778877258
time_elpased: 63.356
#iterations: 238
currently lose_sum: 0.7041484117507935
time_elpased: 62.999
#iterations: 239
currently lose_sum: 0.6167650818824768
time_elpased: 64.729
start validation test
0.572
0.63511659808
0.365430149961
0.463927855711
0.574848083902
17.209
#iterations: 240
currently lose_sum: 0.6561707854270935
time_elpased: 63.424
#iterations: 241
currently lose_sum: 0.7044236660003662
time_elpased: 65.016
#iterations: 242
currently lose_sum: 0.6565430164337158
time_elpased: 64.218
#iterations: 243
currently lose_sum: 0.6837501525878906
time_elpased: 65.504
#iterations: 244
currently lose_sum: 0.6916751265525818
time_elpased: 65.049
#iterations: 245
currently lose_sum: 0.6479781866073608
time_elpased: 64.279
#iterations: 246
currently lose_sum: 0.665062427520752
time_elpased: 63.804
#iterations: 247
currently lose_sum: 0.6599565744400024
time_elpased: 65.779
#iterations: 248
currently lose_sum: 0.6760937571525574
time_elpased: 64.71
#iterations: 249
currently lose_sum: 0.6803451776504517
time_elpased: 65.133
#iterations: 250
currently lose_sum: 0.6652779579162598
time_elpased: 65.514
#iterations: 251
currently lose_sum: 0.6937105059623718
time_elpased: 64.043
#iterations: 252
currently lose_sum: 0.660880446434021
time_elpased: 66.399
#iterations: 253
currently lose_sum: 0.6531001329421997
time_elpased: 65.492
#iterations: 254
currently lose_sum: 0.6210305690765381
time_elpased: 65.3
#iterations: 255
currently lose_sum: 0.6907572746276855
time_elpased: 65.304
#iterations: 256
currently lose_sum: 0.6372764706611633
time_elpased: 65.081
#iterations: 257
currently lose_sum: 0.6739948987960815
time_elpased: 64.655
#iterations: 258
currently lose_sum: 0.6646214127540588
time_elpased: 62.168
#iterations: 259
currently lose_sum: 0.7030506730079651
time_elpased: 64.453
start validation test
0.5692
0.569955817378
0.61089187056
0.589714285714
0.568625172912
16.867
#iterations: 260
currently lose_sum: 0.6777130365371704
time_elpased: 63.522
#iterations: 261
currently lose_sum: 0.640214204788208
time_elpased: 63.072
#iterations: 262
currently lose_sum: 0.644142746925354
time_elpased: 62.204
#iterations: 263
currently lose_sum: 0.6675031185150146
time_elpased: 64.221
#iterations: 264
currently lose_sum: 0.6516198515892029
time_elpased: 64.67
#iterations: 265
currently lose_sum: 0.6300821304321289
time_elpased: 63.704
#iterations: 266
currently lose_sum: 0.6917797923088074
time_elpased: 63.266
#iterations: 267
currently lose_sum: 0.6936686038970947
time_elpased: 62.874
#iterations: 268
currently lose_sum: 0.6597116589546204
time_elpased: 62.568
#iterations: 269
currently lose_sum: 0.6372585892677307
time_elpased: 65.311
#iterations: 270
currently lose_sum: 0.6656618714332581
time_elpased: 64.906
#iterations: 271
currently lose_sum: 0.6307369470596313
time_elpased: 62.89
#iterations: 272
currently lose_sum: 0.697120726108551
time_elpased: 63.083
#iterations: 273
currently lose_sum: 0.6563045978546143
time_elpased: 62.574
#iterations: 274
currently lose_sum: 0.67783522605896
time_elpased: 64.845
#iterations: 275
currently lose_sum: 0.6136106252670288
time_elpased: 64.407
#iterations: 276
currently lose_sum: 0.6735697984695435
time_elpased: 62.875
#iterations: 277
currently lose_sum: 0.7111344933509827
time_elpased: 64.617
#iterations: 278
currently lose_sum: 0.6718238592147827
time_elpased: 62.276
#iterations: 279
currently lose_sum: 0.6836456060409546
time_elpased: 65.209
start validation test
0.5412
0.539421813403
0.647987371744
0.588741484403
0.539727668029
17.202
#iterations: 280
currently lose_sum: 0.6537278890609741
time_elpased: 64.585
#iterations: 281
currently lose_sum: 0.6752442717552185
time_elpased: 64.427
#iterations: 282
currently lose_sum: 0.6962110996246338
time_elpased: 65.773
#iterations: 283
currently lose_sum: 0.6476078629493713
time_elpased: 65.292
#iterations: 284
currently lose_sum: 0.6700842976570129
time_elpased: 65.398
#iterations: 285
currently lose_sum: 0.7193834781646729
time_elpased: 61.356
#iterations: 286
currently lose_sum: 0.6441400647163391
time_elpased: 64.773
#iterations: 287
currently lose_sum: 0.6408769488334656
time_elpased: 64.402
#iterations: 288
currently lose_sum: 0.6482473611831665
time_elpased: 65.011
#iterations: 289
currently lose_sum: 0.6529276967048645
time_elpased: 65.437
#iterations: 290
currently lose_sum: 0.6365665197372437
time_elpased: 64.168
#iterations: 291
currently lose_sum: 0.6587875485420227
time_elpased: 66.94
#iterations: 292
currently lose_sum: 0.6480374336242676
time_elpased: 65.113
#iterations: 293
currently lose_sum: 0.6702091097831726
time_elpased: 64.832
#iterations: 294
currently lose_sum: 0.6851956248283386
time_elpased: 64.111
#iterations: 295
currently lose_sum: 0.655519425868988
time_elpased: 65.466
#iterations: 296
currently lose_sum: 0.6443788409233093
time_elpased: 64.875
#iterations: 297
currently lose_sum: 0.6610275506973267
time_elpased: 64.567
#iterations: 298
currently lose_sum: 0.6765908002853394
time_elpased: 65.599
#iterations: 299
currently lose_sum: 0.7197229266166687
time_elpased: 64.606
start validation test
0.58
0.637168141593
0.397790055249
0.489795918367
0.58251222146
16.822
#iterations: 300
currently lose_sum: 0.6662300825119019
time_elpased: 63.687
#iterations: 301
currently lose_sum: 0.6577025055885315
time_elpased: 64.057
#iterations: 302
currently lose_sum: 0.691974401473999
time_elpased: 66.35
#iterations: 303
currently lose_sum: 0.7087823748588562
time_elpased: 64.588
#iterations: 304
currently lose_sum: 0.7028254866600037
time_elpased: 65.264
#iterations: 305
currently lose_sum: 0.6740246415138245
time_elpased: 65.344
#iterations: 306
currently lose_sum: 0.6465644836425781
time_elpased: 64.232
#iterations: 307
currently lose_sum: 0.6541871428489685
time_elpased: 65.515
#iterations: 308
currently lose_sum: 0.6530145406723022
time_elpased: 62.509
#iterations: 309
currently lose_sum: 0.6521627306938171
time_elpased: 65.169
#iterations: 310
currently lose_sum: 0.69707190990448
time_elpased: 65.199
#iterations: 311
currently lose_sum: 0.6369775533676147
time_elpased: 63.804
#iterations: 312
currently lose_sum: 0.6630148887634277
time_elpased: 65.969
#iterations: 313
currently lose_sum: 0.6630575656890869
time_elpased: 64.915
#iterations: 314
currently lose_sum: 0.623286783695221
time_elpased: 63.86
#iterations: 315
currently lose_sum: 0.6376603841781616
time_elpased: 64.54
#iterations: 316
currently lose_sum: 0.6735153198242188
time_elpased: 65.301
#iterations: 317
currently lose_sum: 0.6715676784515381
time_elpased: 64.963
#iterations: 318
currently lose_sum: 0.6560238599777222
time_elpased: 61.705
#iterations: 319
currently lose_sum: 0.6291755437850952
time_elpased: 64.432
start validation test
0.5732
0.558411214953
0.7545382794
0.641826116146
0.570699796634
16.766
#iterations: 320
currently lose_sum: 0.6368869543075562
time_elpased: 65.097
#iterations: 321
currently lose_sum: 0.6354625821113586
time_elpased: 64.92
#iterations: 322
currently lose_sum: 0.6230050921440125
time_elpased: 64.562
#iterations: 323
currently lose_sum: 0.6551584005355835
time_elpased: 64.487
#iterations: 324
currently lose_sum: 0.6463477611541748
time_elpased: 62.63
#iterations: 325
currently lose_sum: 0.673258900642395
time_elpased: 65.116
#iterations: 326
currently lose_sum: 0.6474628448486328
time_elpased: 64.792
#iterations: 327
currently lose_sum: 0.6592523455619812
time_elpased: 65.484
#iterations: 328
currently lose_sum: 0.6616588830947876
time_elpased: 64.764
#iterations: 329
currently lose_sum: 0.6929702758789062
time_elpased: 62.625
#iterations: 330
currently lose_sum: 0.7041732668876648
time_elpased: 63.133
#iterations: 331
currently lose_sum: 0.6762422323226929
time_elpased: 61.645
#iterations: 332
currently lose_sum: 0.6403430104255676
time_elpased: 63.854
#iterations: 333
currently lose_sum: 0.7074220180511475
time_elpased: 64.33
#iterations: 334
currently lose_sum: 0.6429261565208435
time_elpased: 63.628
#iterations: 335
currently lose_sum: 0.6436209082603455
time_elpased: 62.476
#iterations: 336
currently lose_sum: 0.6996822953224182
time_elpased: 61.783
#iterations: 337
currently lose_sum: 0.6674765944480896
time_elpased: 65.689
#iterations: 338
currently lose_sum: 0.6520484685897827
time_elpased: 63.577
#iterations: 339
currently lose_sum: 0.6327428221702576
time_elpased: 63.608
start validation test
0.582
0.57805907173
0.648776637727
0.611379695054
0.58107931643
16.615
#iterations: 340
currently lose_sum: 0.7018265724182129
time_elpased: 63.175
#iterations: 341
currently lose_sum: 0.6149261593818665
time_elpased: 61.588
#iterations: 342
currently lose_sum: 0.6873460412025452
time_elpased: 62.899
#iterations: 343
currently lose_sum: 0.6456748843193054
time_elpased: 65.775
#iterations: 344
currently lose_sum: 0.6428585052490234
time_elpased: 62.439
#iterations: 345
currently lose_sum: 0.6326441764831543
time_elpased: 64.219
#iterations: 346
currently lose_sum: 0.6648030281066895
time_elpased: 62.409
#iterations: 347
currently lose_sum: 0.701249361038208
time_elpased: 63.199
#iterations: 348
currently lose_sum: 0.6570464968681335
time_elpased: 64.196
#iterations: 349
currently lose_sum: 0.6368396282196045
time_elpased: 64.497
#iterations: 350
currently lose_sum: 0.6930160522460938
time_elpased: 63.41
#iterations: 351
currently lose_sum: 0.6849163770675659
time_elpased: 65.238
#iterations: 352
currently lose_sum: 0.6774589419364929
time_elpased: 65.435
#iterations: 353
currently lose_sum: 0.6030768156051636
time_elpased: 65.575
#iterations: 354
currently lose_sum: 0.6334429979324341
time_elpased: 64.497
#iterations: 355
currently lose_sum: 0.6657429337501526
time_elpased: 62.744
#iterations: 356
currently lose_sum: 0.6996917128562927
time_elpased: 62.044
#iterations: 357
currently lose_sum: 0.6460911631584167
time_elpased: 65.072
#iterations: 358
currently lose_sum: 0.6759231686592102
time_elpased: 64.584
#iterations: 359
currently lose_sum: 0.6270880699157715
time_elpased: 63.685
start validation test
0.5816
0.656737588652
0.365430149961
0.469574036511
0.584580443999
16.928
#iterations: 360
currently lose_sum: 0.633583128452301
time_elpased: 64.139
#iterations: 361
currently lose_sum: 0.6341555118560791
time_elpased: 65.581
#iterations: 362
currently lose_sum: 0.6145645976066589
time_elpased: 62.027
#iterations: 363
currently lose_sum: 0.6494919061660767
time_elpased: 64.712
#iterations: 364
currently lose_sum: 0.6468031406402588
time_elpased: 65.88
#iterations: 365
currently lose_sum: 0.6362767815589905
time_elpased: 64.668
#iterations: 366
currently lose_sum: 0.6411972641944885
time_elpased: 65.22
#iterations: 367
currently lose_sum: 0.6519227027893066
time_elpased: 61.86
#iterations: 368
currently lose_sum: 0.6545729041099548
time_elpased: 63.728
#iterations: 369
currently lose_sum: 0.6416420936584473
time_elpased: 64.73
#iterations: 370
currently lose_sum: 0.6779828071594238
time_elpased: 62.182
#iterations: 371
currently lose_sum: 0.6679163575172424
time_elpased: 63.552
#iterations: 372
currently lose_sum: 0.6765063405036926
time_elpased: 62.101
#iterations: 373
currently lose_sum: 0.7086002826690674
time_elpased: 64.443
#iterations: 374
currently lose_sum: 0.6413219571113586
time_elpased: 64.948
#iterations: 375
currently lose_sum: 0.7079606652259827
time_elpased: 62.924
#iterations: 376
currently lose_sum: 0.6721055507659912
time_elpased: 62.172
#iterations: 377
currently lose_sum: 0.6642976999282837
time_elpased: 61.288
#iterations: 378
currently lose_sum: 0.6809326410293579
time_elpased: 64.251
#iterations: 379
currently lose_sum: 0.6389987468719482
time_elpased: 64.424
start validation test
0.5836
0.580829756795
0.640883977901
0.609380863039
0.582810196574
16.617
#iterations: 380
currently lose_sum: 0.6575050354003906
time_elpased: 62.469
#iterations: 381
currently lose_sum: 0.7274371385574341
time_elpased: 63.443
#iterations: 382
currently lose_sum: 0.6300202012062073
time_elpased: 62.996
#iterations: 383
currently lose_sum: 0.660104513168335
time_elpased: 62.742
#iterations: 384
currently lose_sum: 0.6446043252944946
time_elpased: 64.345
#iterations: 385
currently lose_sum: 0.6304464936256409
time_elpased: 62.531
#iterations: 386
currently lose_sum: 0.6729965806007385
time_elpased: 65.058
#iterations: 387
currently lose_sum: 0.6591357588768005
time_elpased: 62.489
#iterations: 388
currently lose_sum: 0.6602962017059326
time_elpased: 63.608
#iterations: 389
currently lose_sum: 0.6584948897361755
time_elpased: 64.335
#iterations: 390
currently lose_sum: 0.6622493267059326
time_elpased: 64.56
#iterations: 391
currently lose_sum: 0.6628091335296631
time_elpased: 64.928
#iterations: 392
currently lose_sum: 0.6508030891418457
time_elpased: 64.905
#iterations: 393
currently lose_sum: 0.6658583283424377
time_elpased: 64.272
#iterations: 394
currently lose_sum: 0.6668168902397156
time_elpased: 63.839
#iterations: 395
currently lose_sum: 0.6310985684394836
time_elpased: 63.601
#iterations: 396
currently lose_sum: 0.6552152037620544
time_elpased: 65.903
#iterations: 397
currently lose_sum: 0.6113156080245972
time_elpased: 65.536
#iterations: 398
currently lose_sum: 0.6435890197753906
time_elpased: 63.522
#iterations: 399
currently lose_sum: 0.6808536052703857
time_elpased: 65.57
start validation test
0.5772
0.567654639175
0.695343330702
0.625044341965
0.57557109763
16.627
#iterations: 400
currently lose_sum: 0.6391076445579529
time_elpased: 62.947
#iterations: 401
currently lose_sum: 0.6708773970603943
time_elpased: 63.813
#iterations: 402
currently lose_sum: 0.6366422772407532
time_elpased: 64.556
#iterations: 403
currently lose_sum: 0.6524084210395813
time_elpased: 63.065
#iterations: 404
currently lose_sum: 0.6628215312957764
time_elpased: 63.653
#iterations: 405
currently lose_sum: 0.6402849555015564
time_elpased: 62.444
#iterations: 406
currently lose_sum: 0.6458835005760193
time_elpased: 64.843
#iterations: 407
currently lose_sum: 0.6380082368850708
time_elpased: 65.065
#iterations: 408
currently lose_sum: 0.6362302899360657
time_elpased: 62.0
#iterations: 409
currently lose_sum: 0.5952619314193726
time_elpased: 64.443
#iterations: 410
currently lose_sum: 0.6488239765167236
time_elpased: 62.144
#iterations: 411
currently lose_sum: 0.6680871844291687
time_elpased: 64.03
#iterations: 412
currently lose_sum: 0.6512610912322998
time_elpased: 63.215
#iterations: 413
currently lose_sum: 0.6561790704727173
time_elpased: 64.52
#iterations: 414
currently lose_sum: 0.6402899026870728
time_elpased: 63.987
#iterations: 415
currently lose_sum: 0.638904869556427
time_elpased: 63.812
#iterations: 416
currently lose_sum: 0.652376115322113
time_elpased: 62.724
#iterations: 417
currently lose_sum: 0.6678706407546997
time_elpased: 64.39
#iterations: 418
currently lose_sum: 0.6514135003089905
time_elpased: 65.631
#iterations: 419
currently lose_sum: 0.6578079462051392
time_elpased: 62.767
start validation test
0.5748
0.589316987741
0.531176006314
0.558738065587
0.575401466255
16.690
#iterations: 420
currently lose_sum: 0.6652700304985046
time_elpased: 64.294
#iterations: 421
currently lose_sum: 0.6717118620872498
time_elpased: 65.112
#iterations: 422
currently lose_sum: 0.6540544629096985
time_elpased: 65.969
#iterations: 423
currently lose_sum: 0.674014151096344
time_elpased: 64.179
#iterations: 424
currently lose_sum: 0.6631574034690857
time_elpased: 62.563
#iterations: 425
currently lose_sum: 0.6645561456680298
time_elpased: 65.103
#iterations: 426
currently lose_sum: 0.6532862782478333
time_elpased: 65.801
#iterations: 427
currently lose_sum: 0.6761054992675781
time_elpased: 65.289
#iterations: 428
currently lose_sum: 0.6800384521484375
time_elpased: 64.212
#iterations: 429
currently lose_sum: 0.6303375363349915
time_elpased: 65.164
#iterations: 430
currently lose_sum: 0.6335086226463318
time_elpased: 62.771
#iterations: 431
currently lose_sum: 0.6960004568099976
time_elpased: 65.993
#iterations: 432
currently lose_sum: 0.6492130160331726
time_elpased: 63.228
#iterations: 433
currently lose_sum: 0.6417503356933594
time_elpased: 64.067
#iterations: 434
currently lose_sum: 0.6434655785560608
time_elpased: 65.792
#iterations: 435
currently lose_sum: 0.6488037109375
time_elpased: 65.436
#iterations: 436
currently lose_sum: 0.6365407705307007
time_elpased: 60.491
#iterations: 437
currently lose_sum: 0.6364560127258301
time_elpased: 61.297
#iterations: 438
currently lose_sum: 0.6033781170845032
time_elpased: 62.166
#iterations: 439
currently lose_sum: 0.6512279510498047
time_elpased: 61.982
start validation test
0.5904
0.595594020456
0.597474348856
0.596532702916
0.590302462343
16.556
#iterations: 440
currently lose_sum: 0.6452328562736511
time_elpased: 63.668
#iterations: 441
currently lose_sum: 0.6452917456626892
time_elpased: 62.04
#iterations: 442
currently lose_sum: 0.6495938301086426
time_elpased: 61.208
#iterations: 443
currently lose_sum: 0.6931150555610657
time_elpased: 62.257
#iterations: 444
currently lose_sum: 0.6470988392829895
time_elpased: 62.056
#iterations: 445
currently lose_sum: 0.6872395277023315
time_elpased: 64.39
#iterations: 446
currently lose_sum: 0.6305369734764099
time_elpased: 63.125
#iterations: 447
currently lose_sum: 0.7181353569030762
time_elpased: 60.143
#iterations: 448
currently lose_sum: 0.6358968615531921
time_elpased: 62.0
#iterations: 449
currently lose_sum: 0.6671373248100281
time_elpased: 62.481
#iterations: 450
currently lose_sum: 0.6578936576843262
time_elpased: 64.099
#iterations: 451
currently lose_sum: 0.6528623700141907
time_elpased: 64.393
#iterations: 452
currently lose_sum: 0.6331517100334167
time_elpased: 63.189
#iterations: 453
currently lose_sum: 0.6628448367118835
time_elpased: 62.479
#iterations: 454
currently lose_sum: 0.6666335463523865
time_elpased: 64.921
#iterations: 455
currently lose_sum: 0.6750476956367493
time_elpased: 59.646
#iterations: 456
currently lose_sum: 0.6208481788635254
time_elpased: 63.278
#iterations: 457
currently lose_sum: 0.6281986236572266
time_elpased: 62.673
#iterations: 458
currently lose_sum: 0.6609248518943787
time_elpased: 64.13
#iterations: 459
currently lose_sum: 0.6931665539741516
time_elpased: 66.242
start validation test
0.5932
0.624007936508
0.496448303078
0.552967032967
0.594533965002
16.604
#iterations: 460
currently lose_sum: 0.6299117803573608
time_elpased: 65.163
#iterations: 461
currently lose_sum: 0.6402249932289124
time_elpased: 63.362
#iterations: 462
currently lose_sum: 0.6426441669464111
time_elpased: 66.584
#iterations: 463
currently lose_sum: 0.6671425104141235
time_elpased: 61.541
#iterations: 464
currently lose_sum: 0.6580264568328857
time_elpased: 64.057
#iterations: 465
currently lose_sum: 0.647722601890564
time_elpased: 62.788
#iterations: 466
currently lose_sum: 0.6245346069335938
time_elpased: 65.197
#iterations: 467
currently lose_sum: 0.6610590219497681
time_elpased: 61.983
#iterations: 468
currently lose_sum: 0.6380794644355774
time_elpased: 61.569
#iterations: 469
currently lose_sum: 0.6714837551116943
time_elpased: 62.111
#iterations: 470
currently lose_sum: 0.6081225872039795
time_elpased: 62.199
#iterations: 471
currently lose_sum: 0.6553776264190674
time_elpased: 63.336
#iterations: 472
currently lose_sum: 0.6503930687904358
time_elpased: 61.229
#iterations: 473
currently lose_sum: 0.6136825084686279
time_elpased: 61.86
#iterations: 474
currently lose_sum: 0.6559335589408875
time_elpased: 59.575
#iterations: 475
currently lose_sum: 0.679612398147583
time_elpased: 62.203
#iterations: 476
currently lose_sum: 0.6230795383453369
time_elpased: 62.885
#iterations: 477
currently lose_sum: 0.6638327240943909
time_elpased: 63.004
#iterations: 478
currently lose_sum: 0.6819348335266113
time_elpased: 62.945
#iterations: 479
currently lose_sum: 0.6418018937110901
time_elpased: 61.307
start validation test
0.588
0.584582441113
0.646408839779
0.613943028486
0.587194687529
16.451
#iterations: 480
currently lose_sum: 0.6706575751304626
time_elpased: 63.816
#iterations: 481
currently lose_sum: 0.653211236000061
time_elpased: 64.627
#iterations: 482
currently lose_sum: 0.6572391390800476
time_elpased: 64.08
#iterations: 483
currently lose_sum: 0.6577926874160767
time_elpased: 64.832
#iterations: 484
currently lose_sum: 0.6731016635894775
time_elpased: 63.293
#iterations: 485
currently lose_sum: 0.6560570597648621
time_elpased: 62.448
#iterations: 486
currently lose_sum: 0.6474391222000122
time_elpased: 66.208
#iterations: 487
currently lose_sum: 0.6676129102706909
time_elpased: 63.264
#iterations: 488
currently lose_sum: 0.6927260756492615
time_elpased: 62.79
#iterations: 489
currently lose_sum: 0.6655257940292358
time_elpased: 60.706
#iterations: 490
currently lose_sum: 0.6384212374687195
time_elpased: 61.107
#iterations: 491
currently lose_sum: 0.6300289034843445
time_elpased: 64.26
#iterations: 492
currently lose_sum: 0.6850383281707764
time_elpased: 62.86
#iterations: 493
currently lose_sum: 0.6054947376251221
time_elpased: 60.615
#iterations: 494
currently lose_sum: 0.6898055076599121
time_elpased: 64.043
#iterations: 495
currently lose_sum: 0.6747153997421265
time_elpased: 62.769
#iterations: 496
currently lose_sum: 0.5817177891731262
time_elpased: 64.203
#iterations: 497
currently lose_sum: 0.6349038481712341
time_elpased: 62.176
#iterations: 498
currently lose_sum: 0.6935200691223145
time_elpased: 59.861
#iterations: 499
currently lose_sum: 0.6341617107391357
time_elpased: 62.685
start validation test
0.5852
0.608286252354
0.509865824783
0.554744525547
0.586238670705
16.626
#iterations: 500
currently lose_sum: 0.6208866238594055
time_elpased: 61.023
#iterations: 501
currently lose_sum: 0.6829161047935486
time_elpased: 63.789
#iterations: 502
currently lose_sum: 0.6551699638366699
time_elpased: 61.009
#iterations: 503
currently lose_sum: 0.6425442695617676
time_elpased: 61.439
#iterations: 504
currently lose_sum: 0.6597020626068115
time_elpased: 61.801
#iterations: 505
currently lose_sum: 0.6421977877616882
time_elpased: 62.649
#iterations: 506
currently lose_sum: 0.6800446510314941
time_elpased: 63.299
#iterations: 507
currently lose_sum: 0.6808536052703857
time_elpased: 62.379
#iterations: 508
currently lose_sum: 0.6530739068984985
time_elpased: 66.398
#iterations: 509
currently lose_sum: 0.6019731163978577
time_elpased: 60.855
#iterations: 510
currently lose_sum: 0.6698632836341858
time_elpased: 64.32
#iterations: 511
currently lose_sum: 0.6659120321273804
time_elpased: 66.125
#iterations: 512
currently lose_sum: 0.6364620327949524
time_elpased: 62.283
#iterations: 513
currently lose_sum: 0.607088565826416
time_elpased: 64.778
#iterations: 514
currently lose_sum: 0.675047755241394
time_elpased: 61.903
#iterations: 515
currently lose_sum: 0.600855827331543
time_elpased: 63.427
#iterations: 516
currently lose_sum: 0.6980517506599426
time_elpased: 64.514
#iterations: 517
currently lose_sum: 0.6748930215835571
time_elpased: 64.726
#iterations: 518
currently lose_sum: 0.6325888633728027
time_elpased: 66.911
#iterations: 519
currently lose_sum: 0.6612706184387207
time_elpased: 65.364
start validation test
0.5932
0.608885017422
0.551696921863
0.578881987578
0.593772224111
16.536
#iterations: 520
currently lose_sum: 0.6746158003807068
time_elpased: 65.001
#iterations: 521
currently lose_sum: 0.6786283850669861
time_elpased: 63.838
#iterations: 522
currently lose_sum: 0.6256389021873474
time_elpased: 64.792
#iterations: 523
currently lose_sum: 0.6178543567657471
time_elpased: 62.116
#iterations: 524
currently lose_sum: 0.6907265186309814
time_elpased: 64.806
#iterations: 525
currently lose_sum: 0.6685709357261658
time_elpased: 63.46
#iterations: 526
currently lose_sum: 0.6667520999908447
time_elpased: 65.095
#iterations: 527
currently lose_sum: 0.6555500030517578
time_elpased: 65.752
#iterations: 528
currently lose_sum: 0.6485193371772766
time_elpased: 64.353
#iterations: 529
currently lose_sum: 0.6595275402069092
time_elpased: 62.224
#iterations: 530
currently lose_sum: 0.6137748956680298
time_elpased: 64.344
#iterations: 531
currently lose_sum: 0.6769581437110901
time_elpased: 61.069
#iterations: 532
currently lose_sum: 0.6730889678001404
time_elpased: 64.016
#iterations: 533
currently lose_sum: 0.666978657245636
time_elpased: 65.939
#iterations: 534
currently lose_sum: 0.6166065335273743
time_elpased: 63.336
#iterations: 535
currently lose_sum: 0.6601818799972534
time_elpased: 65.924
#iterations: 536
currently lose_sum: 0.6727319955825806
time_elpased: 60.168
#iterations: 537
currently lose_sum: 0.7425414323806763
time_elpased: 64.127
#iterations: 538
currently lose_sum: 0.6494982242584229
time_elpased: 63.491
#iterations: 539
currently lose_sum: 0.6873907446861267
time_elpased: 57.691
start validation test
0.5868
0.608938547486
0.516179952644
0.558735583084
0.587773674619
16.567
#iterations: 540
currently lose_sum: 0.6555697917938232
time_elpased: 64.719
#iterations: 541
currently lose_sum: 0.6364017128944397
time_elpased: 59.263
#iterations: 542
currently lose_sum: 0.6471933126449585
time_elpased: 62.702
#iterations: 543
currently lose_sum: 0.644321620464325
time_elpased: 64.936
#iterations: 544
currently lose_sum: 0.6197009086608887
time_elpased: 62.651
#iterations: 545
currently lose_sum: 0.6236869692802429
time_elpased: 64.197
#iterations: 546
currently lose_sum: 0.6257956027984619
time_elpased: 60.032
#iterations: 547
currently lose_sum: 0.6462085843086243
time_elpased: 63.53
#iterations: 548
currently lose_sum: 0.6586388349533081
time_elpased: 64.632
#iterations: 549
currently lose_sum: 0.6701580286026001
time_elpased: 63.747
#iterations: 550
currently lose_sum: 0.5901042222976685
time_elpased: 62.932
#iterations: 551
currently lose_sum: 0.6384552121162415
time_elpased: 60.658
#iterations: 552
currently lose_sum: 0.6490380764007568
time_elpased: 63.636
#iterations: 553
currently lose_sum: 0.6328728199005127
time_elpased: 65.946
#iterations: 554
currently lose_sum: 0.6716738939285278
time_elpased: 64.702
#iterations: 555
currently lose_sum: 0.6585173010826111
time_elpased: 63.167
#iterations: 556
currently lose_sum: 0.6215065717697144
time_elpased: 66.113
#iterations: 557
currently lose_sum: 0.6362543702125549
time_elpased: 65.449
#iterations: 558
currently lose_sum: 0.6484771966934204
time_elpased: 65.215
#iterations: 559
currently lose_sum: 0.6400512456893921
time_elpased: 64.952
start validation test
0.6048
0.63323782235
0.523283346488
0.573033707865
0.605923911687
16.529
#iterations: 560
currently lose_sum: 0.6230430006980896
time_elpased: 65.704
#iterations: 561
currently lose_sum: 0.6121251583099365
time_elpased: 66.545
#iterations: 562
currently lose_sum: 0.6680447459220886
time_elpased: 65.896
#iterations: 563
currently lose_sum: 0.6262789368629456
time_elpased: 65.802
#iterations: 564
currently lose_sum: 0.6901688575744629
time_elpased: 64.376
#iterations: 565
currently lose_sum: 0.5922245979309082
time_elpased: 65.443
#iterations: 566
currently lose_sum: 0.6080989837646484
time_elpased: 63.271
#iterations: 567
currently lose_sum: 0.6118731498718262
time_elpased: 64.107
#iterations: 568
currently lose_sum: 0.6323339939117432
time_elpased: 63.095
#iterations: 569
currently lose_sum: 0.6795983910560608
time_elpased: 64.305
#iterations: 570
currently lose_sum: 0.6338556408882141
time_elpased: 66.545
#iterations: 571
currently lose_sum: 0.6542915105819702
time_elpased: 66.131
#iterations: 572
currently lose_sum: 0.6386652588844299
time_elpased: 64.866
#iterations: 573
currently lose_sum: 0.6352278590202332
time_elpased: 64.844
#iterations: 574
currently lose_sum: 0.6878868341445923
time_elpased: 65.426
#iterations: 575
currently lose_sum: 0.6814563274383545
time_elpased: 63.561
#iterations: 576
currently lose_sum: 0.6767035126686096
time_elpased: 64.419
#iterations: 577
currently lose_sum: 0.6106405854225159
time_elpased: 65.586
#iterations: 578
currently lose_sum: 0.6278246641159058
time_elpased: 65.702
#iterations: 579
currently lose_sum: 0.6381088495254517
time_elpased: 64.04
start validation test
0.5864
0.568009340339
0.767955801105
0.653020134228
0.583896797552
16.539
#iterations: 580
currently lose_sum: 0.6186082363128662
time_elpased: 65.533
#iterations: 581
currently lose_sum: 0.6566281318664551
time_elpased: 63.315
#iterations: 582
currently lose_sum: 0.6482260227203369
time_elpased: 63.796
#iterations: 583
currently lose_sum: 0.6454254388809204
time_elpased: 65.779
#iterations: 584
currently lose_sum: 0.6576097011566162
time_elpased: 64.959
#iterations: 585
currently lose_sum: 0.6195862293243408
time_elpased: 64.366
#iterations: 586
currently lose_sum: 0.6116431355476379
time_elpased: 65.237
#iterations: 587
currently lose_sum: 0.6006119251251221
time_elpased: 64.574
#iterations: 588
currently lose_sum: 0.6903260946273804
time_elpased: 63.98
#iterations: 589
currently lose_sum: 0.5940769910812378
time_elpased: 65.629
#iterations: 590
currently lose_sum: 0.6389597058296204
time_elpased: 65.507
#iterations: 591
currently lose_sum: 0.6839024424552917
time_elpased: 62.096
#iterations: 592
currently lose_sum: 0.6166924238204956
time_elpased: 65.228
#iterations: 593
currently lose_sum: 0.6511610150337219
time_elpased: 64.365
#iterations: 594
currently lose_sum: 0.6919652819633484
time_elpased: 66.043
#iterations: 595
currently lose_sum: 0.6692392230033875
time_elpased: 64.733
#iterations: 596
currently lose_sum: 0.6014900207519531
time_elpased: 65.534
#iterations: 597
currently lose_sum: 0.6120715141296387
time_elpased: 65.96
#iterations: 598
currently lose_sum: 0.6444461941719055
time_elpased: 64.808
#iterations: 599
currently lose_sum: 0.6427598595619202
time_elpased: 65.161
start validation test
0.58
0.572285143238
0.677979479084
0.620664739884
0.578649106939
16.556
acc: 0.572
pre: 0.565
rec: 0.676
F1: 0.615
auc: 0.570
