start to construct computing graph
graph construct over
3802
epochs start
#iterations: 0
currently lose_sum: 0.692396879196167
time_elpased: 2.881
#iterations: 1
currently lose_sum: 0.6961705684661865
time_elpased: 3.006
#iterations: 2
currently lose_sum: 0.6963505744934082
time_elpased: 2.846
#iterations: 3
currently lose_sum: 0.6935598850250244
time_elpased: 2.97
#iterations: 4
currently lose_sum: 0.6927658319473267
time_elpased: 3.229
#iterations: 5
currently lose_sum: 0.6949907541275024
time_elpased: 2.815
#iterations: 6
currently lose_sum: 0.6895434856414795
time_elpased: 2.849
#iterations: 7
currently lose_sum: 0.6916924118995667
time_elpased: 2.868
#iterations: 8
currently lose_sum: 0.6863523721694946
time_elpased: 2.786
#iterations: 9
currently lose_sum: 0.6900391578674316
time_elpased: 2.806
#iterations: 10
currently lose_sum: 0.6914921402931213
time_elpased: 2.863
#iterations: 11
currently lose_sum: 0.6858529448509216
time_elpased: 2.963
#iterations: 12
currently lose_sum: 0.6884027123451233
time_elpased: 2.774
#iterations: 13
currently lose_sum: 0.6965094208717346
time_elpased: 2.781
#iterations: 14
currently lose_sum: 0.6873435974121094
time_elpased: 2.986
#iterations: 15
currently lose_sum: 0.6898312568664551
time_elpased: 2.82
#iterations: 16
currently lose_sum: 0.6905043721199036
time_elpased: 2.821
#iterations: 17
currently lose_sum: 0.6965063214302063
time_elpased: 3.014
#iterations: 18
currently lose_sum: 0.6937994360923767
time_elpased: 2.845
#iterations: 19
currently lose_sum: 0.6951688528060913
time_elpased: 2.784
start validation test
0.506
0.513971210838
0.478706624606
0.495712535729
0.506398766848
17.301
#iterations: 20
currently lose_sum: 0.6876781582832336
time_elpased: 2.149
#iterations: 21
currently lose_sum: 0.6791828274726868
time_elpased: 2.151
#iterations: 22
currently lose_sum: 0.6974585652351379
time_elpased: 2.341
#iterations: 23
currently lose_sum: 0.6990971565246582
time_elpased: 2.13
#iterations: 24
currently lose_sum: 0.6887638568878174
time_elpased: 2.111
#iterations: 25
currently lose_sum: 0.6737069487571716
time_elpased: 2.126
#iterations: 26
currently lose_sum: 0.6925737857818604
time_elpased: 2.136
#iterations: 27
currently lose_sum: 0.6842961311340332
time_elpased: 2.301
#iterations: 28
currently lose_sum: 0.6843793988227844
time_elpased: 2.156
#iterations: 29
currently lose_sum: 0.6804488301277161
time_elpased: 2.247
#iterations: 30
currently lose_sum: 0.6827465891838074
time_elpased: 2.155
#iterations: 31
currently lose_sum: 0.704396665096283
time_elpased: 2.165
#iterations: 32
currently lose_sum: 0.6925445795059204
time_elpased: 2.198
#iterations: 33
currently lose_sum: 0.6919700503349304
time_elpased: 2.104
#iterations: 34
currently lose_sum: 0.6763403415679932
time_elpased: 2.12
#iterations: 35
currently lose_sum: 0.6767181158065796
time_elpased: 2.237
#iterations: 36
currently lose_sum: 0.6922290325164795
time_elpased: 2.081
#iterations: 37
currently lose_sum: 0.6754536628723145
time_elpased: 2.16
#iterations: 38
currently lose_sum: 0.6672886610031128
time_elpased: 2.114
#iterations: 39
currently lose_sum: 0.7012519836425781
time_elpased: 2.16
start validation test
0.5056
0.582474226804
0.0891167192429
0.154582763338
0.511684982998
17.463
#iterations: 40
currently lose_sum: 0.6767371892929077
time_elpased: 2.154
#iterations: 41
currently lose_sum: 0.669963002204895
time_elpased: 2.154
#iterations: 42
currently lose_sum: 0.6734198927879333
time_elpased: 2.254
#iterations: 43
currently lose_sum: 0.6791210174560547
time_elpased: 2.116
#iterations: 44
currently lose_sum: 0.6631511449813843
time_elpased: 2.191
#iterations: 45
currently lose_sum: 0.6816492676734924
time_elpased: 2.104
#iterations: 46
currently lose_sum: 0.6994530558586121
time_elpased: 2.195
#iterations: 47
currently lose_sum: 0.6934748888015747
time_elpased: 2.217
#iterations: 48
currently lose_sum: 0.6657851338386536
time_elpased: 2.222
#iterations: 49
currently lose_sum: 0.7004175782203674
time_elpased: 2.101
#iterations: 50
currently lose_sum: 0.6985536813735962
time_elpased: 2.206
#iterations: 51
currently lose_sum: 0.6819198727607727
time_elpased: 2.088
#iterations: 52
currently lose_sum: 0.6880662441253662
time_elpased: 2.401
#iterations: 53
currently lose_sum: 0.6834467053413391
time_elpased: 2.215
#iterations: 54
currently lose_sum: 0.7144786715507507
time_elpased: 2.154
#iterations: 55
currently lose_sum: 0.6854310035705566
time_elpased: 2.226
#iterations: 56
currently lose_sum: 0.6909065246582031
time_elpased: 2.119
#iterations: 57
currently lose_sum: 0.6791608929634094
time_elpased: 2.118
#iterations: 58
currently lose_sum: 0.6619576811790466
time_elpased: 2.506
#iterations: 59
currently lose_sum: 0.698405921459198
time_elpased: 2.184
start validation test
0.542
0.572267920094
0.384069400631
0.459650778669
0.544307427588
17.136
#iterations: 60
currently lose_sum: 0.686394214630127
time_elpased: 2.183
#iterations: 61
currently lose_sum: 0.6891546845436096
time_elpased: 2.103
#iterations: 62
currently lose_sum: 0.6907774209976196
time_elpased: 2.137
#iterations: 63
currently lose_sum: 0.6896539330482483
time_elpased: 2.193
#iterations: 64
currently lose_sum: 0.6758314371109009
time_elpased: 2.4
#iterations: 65
currently lose_sum: 0.6484912037849426
time_elpased: 2.309
#iterations: 66
currently lose_sum: 0.6664646863937378
time_elpased: 2.123
#iterations: 67
currently lose_sum: 0.6994813680648804
time_elpased: 2.181
#iterations: 68
currently lose_sum: 0.6866717338562012
time_elpased: 2.22
#iterations: 69
currently lose_sum: 0.6624515056610107
time_elpased: 2.091
#iterations: 70
currently lose_sum: 0.7066850066184998
time_elpased: 2.306
#iterations: 71
currently lose_sum: 0.7083985805511475
time_elpased: 2.327
#iterations: 72
currently lose_sum: 0.6588598489761353
time_elpased: 2.186
#iterations: 73
currently lose_sum: 0.6624515056610107
time_elpased: 2.138
#iterations: 74
currently lose_sum: 0.6801916360855103
time_elpased: 2.667
#iterations: 75
currently lose_sum: 0.6627551317214966
time_elpased: 2.268
#iterations: 76
currently lose_sum: 0.6639071702957153
time_elpased: 2.106
#iterations: 77
currently lose_sum: 0.6655367016792297
time_elpased: 2.081
#iterations: 78
currently lose_sum: 0.6682665944099426
time_elpased: 2.132
#iterations: 79
currently lose_sum: 0.6830406785011292
time_elpased: 2.228
start validation test
0.5248
0.610497237569
0.17429022082
0.271165644172
0.529921084436
17.300
#iterations: 80
currently lose_sum: 0.7049992084503174
time_elpased: 2.286
#iterations: 81
currently lose_sum: 0.6604969501495361
time_elpased: 2.2
#iterations: 82
currently lose_sum: 0.6809043884277344
time_elpased: 2.166
#iterations: 83
currently lose_sum: 0.6717502474784851
time_elpased: 2.102
#iterations: 84
currently lose_sum: 0.6816725134849548
time_elpased: 2.127
#iterations: 85
currently lose_sum: 0.6685532927513123
time_elpased: 2.199
#iterations: 86
currently lose_sum: 0.7050086855888367
time_elpased: 2.141
#iterations: 87
currently lose_sum: 0.6936129927635193
time_elpased: 2.16
#iterations: 88
currently lose_sum: 0.6870018839836121
time_elpased: 2.218
#iterations: 89
currently lose_sum: 0.6762679815292358
time_elpased: 2.441
#iterations: 90
currently lose_sum: 0.6766558885574341
time_elpased: 2.257
#iterations: 91
currently lose_sum: 0.6973860859870911
time_elpased: 2.3
#iterations: 92
currently lose_sum: 0.6715818643569946
time_elpased: 2.208
#iterations: 93
currently lose_sum: 0.6860203742980957
time_elpased: 2.247
#iterations: 94
currently lose_sum: 0.6652246713638306
time_elpased: 2.151
#iterations: 95
currently lose_sum: 0.6691926717758179
time_elpased: 2.222
#iterations: 96
currently lose_sum: 0.6680429577827454
time_elpased: 2.143
#iterations: 97
currently lose_sum: 0.6656956672668457
time_elpased: 2.1
#iterations: 98
currently lose_sum: 0.6853187084197998
time_elpased: 2.173
#iterations: 99
currently lose_sum: 0.6309421062469482
time_elpased: 2.255
start validation test
0.5428
0.548713951676
0.555205047319
0.551940415523
0.542618757426
17.117
#iterations: 100
currently lose_sum: 0.6855976581573486
time_elpased: 2.241
#iterations: 101
currently lose_sum: 0.6600399613380432
time_elpased: 2.182
#iterations: 102
currently lose_sum: 0.6325846314430237
time_elpased: 2.272
#iterations: 103
currently lose_sum: 0.6645613312721252
time_elpased: 2.141
#iterations: 104
currently lose_sum: 0.6557238698005676
time_elpased: 2.203
#iterations: 105
currently lose_sum: 0.6697734594345093
time_elpased: 2.153
#iterations: 106
currently lose_sum: 0.6965797543525696
time_elpased: 2.2
#iterations: 107
currently lose_sum: 0.6757784485816956
time_elpased: 2.164
#iterations: 108
currently lose_sum: 0.6951689124107361
time_elpased: 2.192
#iterations: 109
currently lose_sum: 0.720511794090271
time_elpased: 2.345
#iterations: 110
currently lose_sum: 0.6911405920982361
time_elpased: 2.321
#iterations: 111
currently lose_sum: 0.6595932841300964
time_elpased: 2.107
#iterations: 112
currently lose_sum: 0.691735029220581
time_elpased: 2.119
#iterations: 113
currently lose_sum: 0.7145957946777344
time_elpased: 2.151
#iterations: 114
currently lose_sum: 0.6755908727645874
time_elpased: 2.237
#iterations: 115
currently lose_sum: 0.636201798915863
time_elpased: 2.167
#iterations: 116
currently lose_sum: 0.6165493130683899
time_elpased: 2.096
#iterations: 117
currently lose_sum: 0.6647951602935791
time_elpased: 2.246
#iterations: 118
currently lose_sum: 0.6639472842216492
time_elpased: 2.189
#iterations: 119
currently lose_sum: 0.68141770362854
time_elpased: 2.159
start validation test
0.5488
0.560240963855
0.513406940063
0.535802469136
0.549317106395
17.149
#iterations: 120
currently lose_sum: 0.6738550066947937
time_elpased: 2.14
#iterations: 121
currently lose_sum: 0.6768457293510437
time_elpased: 2.082
#iterations: 122
currently lose_sum: 0.6683108806610107
time_elpased: 2.1
#iterations: 123
currently lose_sum: 0.6636802554130554
time_elpased: 2.143
#iterations: 124
currently lose_sum: 0.649549663066864
time_elpased: 2.301
#iterations: 125
currently lose_sum: 0.6923370361328125
time_elpased: 2.206
#iterations: 126
currently lose_sum: 0.6580772399902344
time_elpased: 2.173
#iterations: 127
currently lose_sum: 0.6610341668128967
time_elpased: 2.155
#iterations: 128
currently lose_sum: 0.6777245998382568
time_elpased: 2.136
#iterations: 129
currently lose_sum: 0.6685065627098083
time_elpased: 2.126
#iterations: 130
currently lose_sum: 0.6528964042663574
time_elpased: 2.137
#iterations: 131
currently lose_sum: 0.6865907907485962
time_elpased: 2.116
#iterations: 132
currently lose_sum: 0.6743574738502502
time_elpased: 2.263
#iterations: 133
currently lose_sum: 0.6882541179656982
time_elpased: 2.235
#iterations: 134
currently lose_sum: 0.6992387175559998
time_elpased: 2.164
#iterations: 135
currently lose_sum: 0.6700965762138367
time_elpased: 2.323
#iterations: 136
currently lose_sum: 0.658588707447052
time_elpased: 2.15
#iterations: 137
currently lose_sum: 0.6740922331809998
time_elpased: 2.146
#iterations: 138
currently lose_sum: 0.6847228407859802
time_elpased: 2.135
#iterations: 139
currently lose_sum: 0.6962975263595581
time_elpased: 2.204
start validation test
0.5472
0.549780380673
0.592271293375
0.570235383447
0.546541490844
16.963
#iterations: 140
currently lose_sum: 0.6814597845077515
time_elpased: 2.129
#iterations: 141
currently lose_sum: 0.6828306317329407
time_elpased: 2.135
#iterations: 142
currently lose_sum: 0.648087739944458
time_elpased: 2.091
#iterations: 143
currently lose_sum: 0.6668336391448975
time_elpased: 2.245
#iterations: 144
currently lose_sum: 0.6601515412330627
time_elpased: 2.123
#iterations: 145
currently lose_sum: 0.6598535776138306
time_elpased: 2.146
#iterations: 146
currently lose_sum: 0.7051459550857544
time_elpased: 2.311
#iterations: 147
currently lose_sum: 0.6844407916069031
time_elpased: 2.197
#iterations: 148
currently lose_sum: 0.673025906085968
time_elpased: 2.139
#iterations: 149
currently lose_sum: 0.6698553562164307
time_elpased: 2.157
#iterations: 150
currently lose_sum: 0.6580846309661865
time_elpased: 2.088
#iterations: 151
currently lose_sum: 0.6296606659889221
time_elpased: 2.151
#iterations: 152
currently lose_sum: 0.6608842611312866
time_elpased: 2.132
#iterations: 153
currently lose_sum: 0.6599172949790955
time_elpased: 2.114
#iterations: 154
currently lose_sum: 0.6524267792701721
time_elpased: 2.142
#iterations: 155
currently lose_sum: 0.6678767204284668
time_elpased: 2.123
#iterations: 156
currently lose_sum: 0.6338557600975037
time_elpased: 2.135
#iterations: 157
currently lose_sum: 0.6782752871513367
time_elpased: 2.127
#iterations: 158
currently lose_sum: 0.6657015085220337
time_elpased: 2.219
#iterations: 159
currently lose_sum: 0.6937211751937866
time_elpased: 2.346
start validation test
0.5524
0.55983935743
0.549684542587
0.554715479507
0.552439673891
16.911
#iterations: 160
currently lose_sum: 0.695891797542572
time_elpased: 2.117
#iterations: 161
currently lose_sum: 0.6069132685661316
time_elpased: 2.21
#iterations: 162
currently lose_sum: 0.6616823077201843
time_elpased: 2.19
#iterations: 163
currently lose_sum: 0.6692497730255127
time_elpased: 2.109
#iterations: 164
currently lose_sum: 0.6430481672286987
time_elpased: 2.108
#iterations: 165
currently lose_sum: 0.6642960906028748
time_elpased: 2.096
#iterations: 166
currently lose_sum: 0.6378282904624939
time_elpased: 2.129
#iterations: 167
currently lose_sum: 0.6881980299949646
time_elpased: 2.153
#iterations: 168
currently lose_sum: 0.6660293340682983
time_elpased: 2.401
#iterations: 169
currently lose_sum: 0.681140124797821
time_elpased: 2.396
#iterations: 170
currently lose_sum: 0.6875477433204651
time_elpased: 2.127
#iterations: 171
currently lose_sum: 0.6576837301254272
time_elpased: 2.131
#iterations: 172
currently lose_sum: 0.6605345010757446
time_elpased: 2.169
#iterations: 173
currently lose_sum: 0.6399673223495483
time_elpased: 2.168
#iterations: 174
currently lose_sum: 0.643734872341156
time_elpased: 2.205
#iterations: 175
currently lose_sum: 0.6348429322242737
time_elpased: 2.204
#iterations: 176
currently lose_sum: 0.6542762517929077
time_elpased: 2.236
#iterations: 177
currently lose_sum: 0.672312319278717
time_elpased: 2.155
#iterations: 178
currently lose_sum: 0.6751600503921509
time_elpased: 2.101
#iterations: 179
currently lose_sum: 0.7110869884490967
time_elpased: 2.336
start validation test
0.5532
0.585698070375
0.406940063091
0.480223359702
0.555336914663
17.044
#iterations: 180
currently lose_sum: 0.6655003428459167
time_elpased: 2.257
#iterations: 181
currently lose_sum: 0.6626412272453308
time_elpased: 2.157
#iterations: 182
currently lose_sum: 0.6484512090682983
time_elpased: 2.293
#iterations: 183
currently lose_sum: 0.6226879954338074
time_elpased: 2.282
#iterations: 184
currently lose_sum: 0.63852858543396
time_elpased: 2.118
#iterations: 185
currently lose_sum: 0.6839104294776917
time_elpased: 2.122
#iterations: 186
currently lose_sum: 0.6963642835617065
time_elpased: 2.187
#iterations: 187
currently lose_sum: 0.6751190423965454
time_elpased: 2.139
#iterations: 188
currently lose_sum: 0.670788049697876
time_elpased: 2.147
#iterations: 189
currently lose_sum: 0.6313605308532715
time_elpased: 2.151
#iterations: 190
currently lose_sum: 0.6674900650978088
time_elpased: 2.152
#iterations: 191
currently lose_sum: 0.670369029045105
time_elpased: 2.1
#iterations: 192
currently lose_sum: 0.6391284465789795
time_elpased: 2.284
#iterations: 193
currently lose_sum: 0.6639398336410522
time_elpased: 2.154
#iterations: 194
currently lose_sum: 0.6743713617324829
time_elpased: 2.314
#iterations: 195
currently lose_sum: 0.6084081530570984
time_elpased: 2.453
#iterations: 196
currently lose_sum: 0.6784397959709167
time_elpased: 2.178
#iterations: 197
currently lose_sum: 0.6530091166496277
time_elpased: 2.323
#iterations: 198
currently lose_sum: 0.6752135753631592
time_elpased: 2.389
#iterations: 199
currently lose_sum: 0.6210296154022217
time_elpased: 2.131
start validation test
0.526
0.550671550672
0.355678233438
0.432199329181
0.528488467369
17.169
#iterations: 200
currently lose_sum: 0.6883136034011841
time_elpased: 2.162
#iterations: 201
currently lose_sum: 0.6696327328681946
time_elpased: 2.24
#iterations: 202
currently lose_sum: 0.6936798095703125
time_elpased: 2.111
#iterations: 203
currently lose_sum: 0.6377117037773132
time_elpased: 2.177
#iterations: 204
currently lose_sum: 0.6655412912368774
time_elpased: 2.091
#iterations: 205
currently lose_sum: 0.6543707251548767
time_elpased: 2.122
#iterations: 206
currently lose_sum: 0.6529898643493652
time_elpased: 2.136
#iterations: 207
currently lose_sum: 0.6234758496284485
time_elpased: 2.141
#iterations: 208
currently lose_sum: 0.6595113277435303
time_elpased: 2.191
#iterations: 209
currently lose_sum: 0.672333836555481
time_elpased: 2.138
#iterations: 210
currently lose_sum: 0.7064851522445679
time_elpased: 2.221
#iterations: 211
currently lose_sum: 0.63450688123703
time_elpased: 2.207
#iterations: 212
currently lose_sum: 0.670676589012146
time_elpased: 2.142
#iterations: 213
currently lose_sum: 0.6520034670829773
time_elpased: 2.105
#iterations: 214
currently lose_sum: 0.6929829120635986
time_elpased: 2.605
#iterations: 215
currently lose_sum: 0.6314444541931152
time_elpased: 2.14
#iterations: 216
currently lose_sum: 0.6596962213516235
time_elpased: 2.119
#iterations: 217
currently lose_sum: 0.6951073408126831
time_elpased: 2.405
#iterations: 218
currently lose_sum: 0.6663433909416199
time_elpased: 2.232
#iterations: 219
currently lose_sum: 0.6551787853240967
time_elpased: 2.095
start validation test
0.5508
0.547854785479
0.654574132492
0.596478620194
0.549283819493
16.872
#iterations: 220
currently lose_sum: 0.646272599697113
time_elpased: 2.609
#iterations: 221
currently lose_sum: 0.687415599822998
time_elpased: 2.169
#iterations: 222
currently lose_sum: 0.673473060131073
time_elpased: 2.365
#iterations: 223
currently lose_sum: 0.6514241099357605
time_elpased: 2.402
#iterations: 224
currently lose_sum: 0.647976279258728
time_elpased: 2.43
#iterations: 225
currently lose_sum: 0.6814439296722412
time_elpased: 2.137
#iterations: 226
currently lose_sum: 0.6576493978500366
time_elpased: 2.191
#iterations: 227
currently lose_sum: 0.6467958092689514
time_elpased: 2.117
#iterations: 228
currently lose_sum: 0.6419934034347534
time_elpased: 2.086
#iterations: 229
currently lose_sum: 0.6795681715011597
time_elpased: 2.508
#iterations: 230
currently lose_sum: 0.6512015461921692
time_elpased: 2.205
#iterations: 231
currently lose_sum: 0.6835400462150574
time_elpased: 2.157
#iterations: 232
currently lose_sum: 0.6602802872657776
time_elpased: 2.362
#iterations: 233
currently lose_sum: 0.6425480842590332
time_elpased: 2.335
#iterations: 234
currently lose_sum: 0.676909863948822
time_elpased: 2.345
#iterations: 235
currently lose_sum: 0.6977092027664185
time_elpased: 2.162
#iterations: 236
currently lose_sum: 0.6724008321762085
time_elpased: 2.22
#iterations: 237
currently lose_sum: 0.6578013896942139
time_elpased: 2.125
#iterations: 238
currently lose_sum: 0.6637564897537231
time_elpased: 2.21
#iterations: 239
currently lose_sum: 0.6985217332839966
time_elpased: 2.122
start validation test
0.5524
0.552650176678
0.616719242902
0.582929556467
0.551460270802
16.867
#iterations: 240
currently lose_sum: 0.6852065920829773
time_elpased: 2.123
#iterations: 241
currently lose_sum: 0.6056968569755554
time_elpased: 2.198
#iterations: 242
currently lose_sum: 0.6504554152488708
time_elpased: 2.096
#iterations: 243
currently lose_sum: 0.6545431613922119
time_elpased: 2.209
#iterations: 244
currently lose_sum: 0.6471136212348938
time_elpased: 2.189
#iterations: 245
currently lose_sum: 0.6553972363471985
time_elpased: 2.356
#iterations: 246
currently lose_sum: 0.6616394519805908
time_elpased: 2.237
#iterations: 247
currently lose_sum: 0.6644673943519592
time_elpased: 2.126
#iterations: 248
currently lose_sum: 0.5879039764404297
time_elpased: 2.135
#iterations: 249
currently lose_sum: 0.6283769011497498
time_elpased: 2.14
#iterations: 250
currently lose_sum: 0.6229987144470215
time_elpased: 2.109
#iterations: 251
currently lose_sum: 0.6553764939308167
time_elpased: 2.483
#iterations: 252
currently lose_sum: 0.6736272573471069
time_elpased: 2.233
#iterations: 253
currently lose_sum: 0.6576369404792786
time_elpased: 2.165
#iterations: 254
currently lose_sum: 0.6628209948539734
time_elpased: 2.103
#iterations: 255
currently lose_sum: 0.6297812461853027
time_elpased: 2.234
#iterations: 256
currently lose_sum: 0.672700822353363
time_elpased: 2.137
#iterations: 257
currently lose_sum: 0.6935446262359619
time_elpased: 2.155
#iterations: 258
currently lose_sum: 0.6451348066329956
time_elpased: 2.135
#iterations: 259
currently lose_sum: 0.666462242603302
time_elpased: 2.216
start validation test
0.5708
0.599186164802
0.464511041009
0.52332296757
0.572352923102
16.902
#iterations: 260
currently lose_sum: 0.6484265327453613
time_elpased: 2.256
#iterations: 261
currently lose_sum: 0.654378354549408
time_elpased: 2.194
#iterations: 262
currently lose_sum: 0.6371738910675049
time_elpased: 2.1
#iterations: 263
currently lose_sum: 0.655965268611908
time_elpased: 2.393
#iterations: 264
currently lose_sum: 0.6687606573104858
time_elpased: 2.135
#iterations: 265
currently lose_sum: 0.6553288102149963
time_elpased: 2.194
#iterations: 266
currently lose_sum: 0.6936680674552917
time_elpased: 2.104
#iterations: 267
currently lose_sum: 0.6564525365829468
time_elpased: 2.098
#iterations: 268
currently lose_sum: 0.6935250759124756
time_elpased: 2.133
#iterations: 269
currently lose_sum: 0.644949197769165
time_elpased: 2.162
#iterations: 270
currently lose_sum: 0.654391348361969
time_elpased: 2.146
#iterations: 271
currently lose_sum: 0.648191511631012
time_elpased: 2.236
#iterations: 272
currently lose_sum: 0.6339792013168335
time_elpased: 2.155
#iterations: 273
currently lose_sum: 0.6137697696685791
time_elpased: 2.261
#iterations: 274
currently lose_sum: 0.6349714398384094
time_elpased: 2.12
#iterations: 275
currently lose_sum: 0.6496559381484985
time_elpased: 2.302
#iterations: 276
currently lose_sum: 0.6410090923309326
time_elpased: 2.138
#iterations: 277
currently lose_sum: 0.6502313017845154
time_elpased: 2.165
#iterations: 278
currently lose_sum: 0.6734095215797424
time_elpased: 2.346
#iterations: 279
currently lose_sum: 0.6487533450126648
time_elpased: 2.388
start validation test
0.56
0.586776859504
0.447949526814
0.508050089445
0.561637101069
16.998
#iterations: 280
currently lose_sum: 0.6338281631469727
time_elpased: 2.142
#iterations: 281
currently lose_sum: 0.6568672060966492
time_elpased: 2.293
#iterations: 282
currently lose_sum: 0.6203212141990662
time_elpased: 2.156
#iterations: 283
currently lose_sum: 0.5934416651725769
time_elpased: 2.351
#iterations: 284
currently lose_sum: 0.6797986030578613
time_elpased: 2.345
#iterations: 285
currently lose_sum: 0.6638742089271545
time_elpased: 2.151
#iterations: 286
currently lose_sum: 0.6568710207939148
time_elpased: 2.121
#iterations: 287
currently lose_sum: 0.6635177731513977
time_elpased: 2.21
#iterations: 288
currently lose_sum: 0.6744736433029175
time_elpased: 2.098
#iterations: 289
currently lose_sum: 0.6292247176170349
time_elpased: 2.191
#iterations: 290
currently lose_sum: 0.695559561252594
time_elpased: 2.166
#iterations: 291
currently lose_sum: 0.6282212138175964
time_elpased: 2.412
#iterations: 292
currently lose_sum: 0.6702712774276733
time_elpased: 2.125
#iterations: 293
currently lose_sum: 0.6371667981147766
time_elpased: 2.101
#iterations: 294
currently lose_sum: 0.6400659084320068
time_elpased: 2.14
#iterations: 295
currently lose_sum: 0.6437719464302063
time_elpased: 2.216
#iterations: 296
currently lose_sum: 0.6592245697975159
time_elpased: 2.166
#iterations: 297
currently lose_sum: 0.677472710609436
time_elpased: 2.123
#iterations: 298
currently lose_sum: 0.6385223269462585
time_elpased: 2.177
#iterations: 299
currently lose_sum: 0.6438749432563782
time_elpased: 2.14
start validation test
0.566
0.582358235824
0.510252365931
0.543926019336
0.566814494654
16.904
#iterations: 300
currently lose_sum: 0.60589200258255
time_elpased: 2.137
#iterations: 301
currently lose_sum: 0.6464782953262329
time_elpased: 2.13
#iterations: 302
currently lose_sum: 0.7039127945899963
time_elpased: 2.204
#iterations: 303
currently lose_sum: 0.6689254641532898
time_elpased: 2.104
#iterations: 304
currently lose_sum: 0.6556137204170227
time_elpased: 2.094
#iterations: 305
currently lose_sum: 0.6577285528182983
time_elpased: 2.119
#iterations: 306
currently lose_sum: 0.6525673866271973
time_elpased: 2.308
#iterations: 307
currently lose_sum: 0.643100917339325
time_elpased: 2.723
#iterations: 308
currently lose_sum: 0.6692567467689514
time_elpased: 2.264
#iterations: 309
currently lose_sum: 0.6570744514465332
time_elpased: 2.105
#iterations: 310
currently lose_sum: 0.675566554069519
time_elpased: 2.092
#iterations: 311
currently lose_sum: 0.6426328420639038
time_elpased: 2.191
#iterations: 312
currently lose_sum: 0.6649819016456604
time_elpased: 2.117
#iterations: 313
currently lose_sum: 0.649183988571167
time_elpased: 2.105
#iterations: 314
currently lose_sum: 0.6742240786552429
time_elpased: 2.301
#iterations: 315
currently lose_sum: 0.6384299397468567
time_elpased: 2.171
#iterations: 316
currently lose_sum: 0.6621696949005127
time_elpased: 2.122
#iterations: 317
currently lose_sum: 0.6694424152374268
time_elpased: 2.131
#iterations: 318
currently lose_sum: 0.6350537538528442
time_elpased: 2.14
#iterations: 319
currently lose_sum: 0.5979971885681152
time_elpased: 2.186
start validation test
0.5548
0.549775208735
0.675078864353
0.606017699115
0.55304267893
16.849
#iterations: 320
currently lose_sum: 0.6293198466300964
time_elpased: 2.137
#iterations: 321
currently lose_sum: 0.6514935493469238
time_elpased: 2.432
#iterations: 322
currently lose_sum: 0.6708914041519165
time_elpased: 2.067
#iterations: 323
currently lose_sum: 0.6400972008705139
time_elpased: 2.127
#iterations: 324
currently lose_sum: 0.6883174180984497
time_elpased: 2.132
#iterations: 325
currently lose_sum: 0.6750687956809998
time_elpased: 2.336
#iterations: 326
currently lose_sum: 0.6675073504447937
time_elpased: 2.15
#iterations: 327
currently lose_sum: 0.6222444176673889
time_elpased: 2.309
#iterations: 328
currently lose_sum: 0.651515781879425
time_elpased: 2.144
#iterations: 329
currently lose_sum: 0.6863102912902832
time_elpased: 2.188
#iterations: 330
currently lose_sum: 0.645310640335083
time_elpased: 2.178
#iterations: 331
currently lose_sum: 0.654783308506012
time_elpased: 2.386
#iterations: 332
currently lose_sum: 0.6854620575904846
time_elpased: 2.098
#iterations: 333
currently lose_sum: 0.6432812213897705
time_elpased: 2.131
#iterations: 334
currently lose_sum: 0.5933898687362671
time_elpased: 2.164
#iterations: 335
currently lose_sum: 0.6292611956596375
time_elpased: 2.162
#iterations: 336
currently lose_sum: 0.6229252815246582
time_elpased: 2.249
#iterations: 337
currently lose_sum: 0.6135529279708862
time_elpased: 2.116
#iterations: 338
currently lose_sum: 0.6644410490989685
time_elpased: 2.586
#iterations: 339
currently lose_sum: 0.6519772410392761
time_elpased: 2.176
start validation test
0.5608
0.570132013201
0.544952681388
0.557258064516
0.561031535499
16.881
#iterations: 340
currently lose_sum: 0.604748010635376
time_elpased: 2.226
#iterations: 341
currently lose_sum: 0.6464933753013611
time_elpased: 2.104
#iterations: 342
currently lose_sum: 0.6307065486907959
time_elpased: 2.278
#iterations: 343
currently lose_sum: 0.6731412410736084
time_elpased: 2.081
#iterations: 344
currently lose_sum: 0.6864146590232849
time_elpased: 2.193
#iterations: 345
currently lose_sum: 0.6587185859680176
time_elpased: 2.121
#iterations: 346
currently lose_sum: 0.6610772609710693
time_elpased: 2.12
#iterations: 347
currently lose_sum: 0.6745215058326721
time_elpased: 2.129
#iterations: 348
currently lose_sum: 0.6787344217300415
time_elpased: 2.138
#iterations: 349
currently lose_sum: 0.6912016272544861
time_elpased: 2.127
#iterations: 350
currently lose_sum: 0.6349239945411682
time_elpased: 2.151
#iterations: 351
currently lose_sum: 0.6583775877952576
time_elpased: 2.186
#iterations: 352
currently lose_sum: 0.6601932644844055
time_elpased: 2.134
#iterations: 353
currently lose_sum: 0.6065189242362976
time_elpased: 2.153
#iterations: 354
currently lose_sum: 0.6124948263168335
time_elpased: 2.108
#iterations: 355
currently lose_sum: 0.6223458051681519
time_elpased: 2.167
#iterations: 356
currently lose_sum: 0.67669677734375
time_elpased: 2.223
#iterations: 357
currently lose_sum: 0.6168565154075623
time_elpased: 2.437
#iterations: 358
currently lose_sum: 0.6457464694976807
time_elpased: 2.365
#iterations: 359
currently lose_sum: 0.6462663412094116
time_elpased: 2.145
start validation test
0.5616
0.584148727984
0.470820189274
0.521397379913
0.562926328403
16.898
#iterations: 360
currently lose_sum: 0.6749627590179443
time_elpased: 2.131
#iterations: 361
currently lose_sum: 0.6966490745544434
time_elpased: 2.202
#iterations: 362
currently lose_sum: 0.658742368221283
time_elpased: 2.143
#iterations: 363
currently lose_sum: 0.6739341616630554
time_elpased: 2.157
#iterations: 364
currently lose_sum: 0.6232694387435913
time_elpased: 2.255
#iterations: 365
currently lose_sum: 0.6462798118591309
time_elpased: 2.161
#iterations: 366
currently lose_sum: 0.6131921410560608
time_elpased: 2.134
#iterations: 367
currently lose_sum: 0.6560171246528625
time_elpased: 2.386
#iterations: 368
currently lose_sum: 0.5915610194206238
time_elpased: 2.12
#iterations: 369
currently lose_sum: 0.6218950152397156
time_elpased: 2.162
#iterations: 370
currently lose_sum: 0.634223997592926
time_elpased: 2.228
#iterations: 371
currently lose_sum: 0.6534957885742188
time_elpased: 2.129
#iterations: 372
currently lose_sum: 0.6367170810699463
time_elpased: 2.157
#iterations: 373
currently lose_sum: 0.6160593628883362
time_elpased: 2.229
#iterations: 374
currently lose_sum: 0.6372089385986328
time_elpased: 2.409
#iterations: 375
currently lose_sum: 0.6644221544265747
time_elpased: 2.275
#iterations: 376
currently lose_sum: 0.6116467118263245
time_elpased: 2.218
#iterations: 377
currently lose_sum: 0.6515759229660034
time_elpased: 2.121
#iterations: 378
currently lose_sum: 0.5989060997962952
time_elpased: 2.221
#iterations: 379
currently lose_sum: 0.6600313782691956
time_elpased: 2.146
start validation test
0.5568
0.553050397878
0.657728706625
0.600864553314
0.555325392273
16.907
#iterations: 380
currently lose_sum: 0.6740100383758545
time_elpased: 2.171
#iterations: 381
currently lose_sum: 0.6252557635307312
time_elpased: 2.151
#iterations: 382
currently lose_sum: 0.6688098907470703
time_elpased: 2.219
#iterations: 383
currently lose_sum: 0.6651308536529541
time_elpased: 2.181
#iterations: 384
currently lose_sum: 0.6248767971992493
time_elpased: 2.152
#iterations: 385
currently lose_sum: 0.6695920825004578
time_elpased: 2.077
#iterations: 386
currently lose_sum: 0.6526276469230652
time_elpased: 2.108
#iterations: 387
currently lose_sum: 0.6413183808326721
time_elpased: 2.172
#iterations: 388
currently lose_sum: 0.6558458209037781
time_elpased: 2.126
#iterations: 389
currently lose_sum: 0.6523622870445251
time_elpased: 2.221
#iterations: 390
currently lose_sum: 0.6588582396507263
time_elpased: 2.185
#iterations: 391
currently lose_sum: 0.638981819152832
time_elpased: 2.118
#iterations: 392
currently lose_sum: 0.6497896313667297
time_elpased: 2.183
#iterations: 393
currently lose_sum: 0.6133915781974792
time_elpased: 2.143
#iterations: 394
currently lose_sum: 0.6509048342704773
time_elpased: 2.128
#iterations: 395
currently lose_sum: 0.6714961528778076
time_elpased: 2.195
#iterations: 396
currently lose_sum: 0.6472960710525513
time_elpased: 2.158
#iterations: 397
currently lose_sum: 0.6456125378608704
time_elpased: 2.123
#iterations: 398
currently lose_sum: 0.6076626181602478
time_elpased: 2.165
#iterations: 399
currently lose_sum: 0.6209987998008728
time_elpased: 2.085
start validation test
0.5712
0.580459770115
0.557570977918
0.568785197104
0.571399125323
16.818
#iterations: 400
currently lose_sum: 0.6818109154701233
time_elpased: 2.128
#iterations: 401
currently lose_sum: 0.6262997388839722
time_elpased: 2.134
#iterations: 402
currently lose_sum: 0.6624195575714111
time_elpased: 2.138
#iterations: 403
currently lose_sum: 0.6138290166854858
time_elpased: 2.129
#iterations: 404
currently lose_sum: 0.6561422944068909
time_elpased: 2.128
#iterations: 405
currently lose_sum: 0.6757709383964539
time_elpased: 2.104
#iterations: 406
currently lose_sum: 0.623146116733551
time_elpased: 2.169
#iterations: 407
currently lose_sum: 0.6781623959541321
time_elpased: 2.108
#iterations: 408
currently lose_sum: 0.6763875484466553
time_elpased: 2.181
#iterations: 409
currently lose_sum: 0.6215296387672424
time_elpased: 2.096
#iterations: 410
currently lose_sum: 0.64471834897995
time_elpased: 2.238
#iterations: 411
currently lose_sum: 0.700324296951294
time_elpased: 2.294
#iterations: 412
currently lose_sum: 0.605363130569458
time_elpased: 2.207
#iterations: 413
currently lose_sum: 0.6703414916992188
time_elpased: 2.593
#iterations: 414
currently lose_sum: 0.6549445390701294
time_elpased: 2.144
#iterations: 415
currently lose_sum: 0.6625587344169617
time_elpased: 2.157
#iterations: 416
currently lose_sum: 0.6647072434425354
time_elpased: 2.121
#iterations: 417
currently lose_sum: 0.6160880327224731
time_elpased: 2.416
#iterations: 418
currently lose_sum: 0.6512104868888855
time_elpased: 2.126
#iterations: 419
currently lose_sum: 0.6022685170173645
time_elpased: 2.205
start validation test
0.5604
0.548759376803
0.75
0.633788737088
0.55762987013
17.103
#iterations: 420
currently lose_sum: 0.7045972347259521
time_elpased: 2.123
#iterations: 421
currently lose_sum: 0.6386863589286804
time_elpased: 2.283
#iterations: 422
currently lose_sum: 0.6138959527015686
time_elpased: 2.129
#iterations: 423
currently lose_sum: 0.6918057203292847
time_elpased: 2.178
#iterations: 424
currently lose_sum: 0.661266565322876
time_elpased: 2.131
#iterations: 425
currently lose_sum: 0.6498375535011292
time_elpased: 2.188
#iterations: 426
currently lose_sum: 0.589820146560669
time_elpased: 2.145
#iterations: 427
currently lose_sum: 0.6746859550476074
time_elpased: 2.155
#iterations: 428
currently lose_sum: 0.6784130930900574
time_elpased: 2.151
#iterations: 429
currently lose_sum: 0.6663334369659424
time_elpased: 2.176
#iterations: 430
currently lose_sum: 0.640484631061554
time_elpased: 2.137
#iterations: 431
currently lose_sum: 0.6726573705673218
time_elpased: 2.212
#iterations: 432
currently lose_sum: 0.6480558514595032
time_elpased: 2.185
#iterations: 433
currently lose_sum: 0.643719494342804
time_elpased: 2.13
#iterations: 434
currently lose_sum: 0.6757230162620544
time_elpased: 2.149
#iterations: 435
currently lose_sum: 0.6467235088348389
time_elpased: 2.124
#iterations: 436
currently lose_sum: 0.6553829908370972
time_elpased: 2.169
#iterations: 437
currently lose_sum: 0.6442533135414124
time_elpased: 2.142
#iterations: 438
currently lose_sum: 0.6505909562110901
time_elpased: 2.282
#iterations: 439
currently lose_sum: 0.634931206703186
time_elpased: 2.097
start validation test
0.56
0.555408970976
0.66403785489
0.604885057471
0.558479966406
16.824
#iterations: 440
currently lose_sum: 0.6624101400375366
time_elpased: 2.156
#iterations: 441
currently lose_sum: 0.6324450969696045
time_elpased: 2.124
#iterations: 442
currently lose_sum: 0.7001447081565857
time_elpased: 2.169
#iterations: 443
currently lose_sum: 0.6332159042358398
time_elpased: 2.187
#iterations: 444
currently lose_sum: 0.6705043315887451
time_elpased: 2.487
#iterations: 445
currently lose_sum: 0.6479026675224304
time_elpased: 2.148
#iterations: 446
currently lose_sum: 0.6410923600196838
time_elpased: 2.243
#iterations: 447
currently lose_sum: 0.6325342059135437
time_elpased: 2.147
#iterations: 448
currently lose_sum: 0.6446762681007385
time_elpased: 2.086
#iterations: 449
currently lose_sum: 0.6159787178039551
time_elpased: 2.166
#iterations: 450
currently lose_sum: 0.6350465416908264
time_elpased: 2.33
#iterations: 451
currently lose_sum: 0.6285027861595154
time_elpased: 2.12
#iterations: 452
currently lose_sum: 0.5725234150886536
time_elpased: 2.107
#iterations: 453
currently lose_sum: 0.6570576429367065
time_elpased: 2.186
#iterations: 454
currently lose_sum: 0.6484761238098145
time_elpased: 2.449
#iterations: 455
currently lose_sum: 0.6561357378959656
time_elpased: 2.327
#iterations: 456
currently lose_sum: 0.6264479756355286
time_elpased: 2.203
#iterations: 457
currently lose_sum: 0.6037262082099915
time_elpased: 2.172
#iterations: 458
currently lose_sum: 0.6474223136901855
time_elpased: 2.53
#iterations: 459
currently lose_sum: 0.6430842876434326
time_elpased: 2.474
start validation test
0.5572
0.554135843981
0.649842271293
0.598185117967
0.555846460322
16.825
#iterations: 460
currently lose_sum: 0.6535658240318298
time_elpased: 2.106
#iterations: 461
currently lose_sum: 0.6025181412696838
time_elpased: 2.112
#iterations: 462
currently lose_sum: 0.6809406876564026
time_elpased: 2.119
#iterations: 463
currently lose_sum: 0.6894670128822327
time_elpased: 2.124
#iterations: 464
currently lose_sum: 0.6650418639183044
time_elpased: 2.161
#iterations: 465
currently lose_sum: 0.6121706366539001
time_elpased: 2.101
#iterations: 466
currently lose_sum: 0.6596841216087341
time_elpased: 2.211
#iterations: 467
currently lose_sum: 0.6689599752426147
time_elpased: 2.22
#iterations: 468
currently lose_sum: 0.6332308053970337
time_elpased: 2.409
#iterations: 469
currently lose_sum: 0.6859305500984192
time_elpased: 2.177
#iterations: 470
currently lose_sum: 0.6567738056182861
time_elpased: 2.102
#iterations: 471
currently lose_sum: 0.6653934717178345
time_elpased: 2.528
#iterations: 472
currently lose_sum: 0.6477103233337402
time_elpased: 2.167
#iterations: 473
currently lose_sum: 0.6531322598457336
time_elpased: 2.15
#iterations: 474
currently lose_sum: 0.6268907785415649
time_elpased: 2.166
#iterations: 475
currently lose_sum: 0.6066076755523682
time_elpased: 2.096
#iterations: 476
currently lose_sum: 0.6545555591583252
time_elpased: 2.245
#iterations: 477
currently lose_sum: 0.6498609781265259
time_elpased: 2.182
#iterations: 478
currently lose_sum: 0.6737805008888245
time_elpased: 2.199
#iterations: 479
currently lose_sum: 0.6677520871162415
time_elpased: 2.194
start validation test
0.5516
0.541176470588
0.761829652997
0.632820176875
0.548528462862
17.187
#iterations: 480
currently lose_sum: 0.6383939385414124
time_elpased: 2.251
#iterations: 481
currently lose_sum: 0.6405322551727295
time_elpased: 2.292
#iterations: 482
currently lose_sum: 0.6709493398666382
time_elpased: 2.108
#iterations: 483
currently lose_sum: 0.6459230780601501
time_elpased: 2.241
#iterations: 484
currently lose_sum: 0.7044774889945984
time_elpased: 2.093
#iterations: 485
currently lose_sum: 0.6693815588951111
time_elpased: 2.106
#iterations: 486
currently lose_sum: 0.659345269203186
time_elpased: 2.151
#iterations: 487
currently lose_sum: 0.6339830756187439
time_elpased: 2.135
#iterations: 488
currently lose_sum: 0.6386778354644775
time_elpased: 2.126
#iterations: 489
currently lose_sum: 0.6209739446640015
time_elpased: 2.213
#iterations: 490
currently lose_sum: 0.6517102122306824
time_elpased: 2.221
#iterations: 491
currently lose_sum: 0.6567296385765076
time_elpased: 2.138
#iterations: 492
currently lose_sum: 0.6293314695358276
time_elpased: 2.412
#iterations: 493
currently lose_sum: 0.6093940138816833
time_elpased: 2.172
#iterations: 494
currently lose_sum: 0.6326547265052795
time_elpased: 2.473
#iterations: 495
currently lose_sum: 0.6441358923912048
time_elpased: 2.13
#iterations: 496
currently lose_sum: 0.6476133465766907
time_elpased: 2.121
#iterations: 497
currently lose_sum: 0.6605050563812256
time_elpased: 2.136
#iterations: 498
currently lose_sum: 0.6382924914360046
time_elpased: 2.177
#iterations: 499
currently lose_sum: 0.6098095774650574
time_elpased: 2.155
start validation test
0.566
0.569370735406
0.592271293375
0.580595284113
0.565616166168
16.742
#iterations: 500
currently lose_sum: 0.6467904448509216
time_elpased: 2.124
#iterations: 501
currently lose_sum: 0.660143256187439
time_elpased: 2.117
#iterations: 502
currently lose_sum: 0.6640846133232117
time_elpased: 2.115
#iterations: 503
currently lose_sum: 0.6706689596176147
time_elpased: 2.161
#iterations: 504
currently lose_sum: 0.6403710842132568
time_elpased: 2.186
#iterations: 505
currently lose_sum: 0.6082765460014343
time_elpased: 2.142
#iterations: 506
currently lose_sum: 0.6404441595077515
time_elpased: 2.214
#iterations: 507
currently lose_sum: 0.5906667709350586
time_elpased: 2.125
#iterations: 508
currently lose_sum: 0.6177775859832764
time_elpased: 2.145
#iterations: 509
currently lose_sum: 0.6236319541931152
time_elpased: 2.138
#iterations: 510
currently lose_sum: 0.6083778738975525
time_elpased: 2.15
#iterations: 511
currently lose_sum: 0.6598765850067139
time_elpased: 2.137
#iterations: 512
currently lose_sum: 0.5723640322685242
time_elpased: 2.156
#iterations: 513
currently lose_sum: 0.6306165456771851
time_elpased: 2.189
#iterations: 514
currently lose_sum: 0.6620988249778748
time_elpased: 2.1
#iterations: 515
currently lose_sum: 0.73148512840271
time_elpased: 2.673
#iterations: 516
currently lose_sum: 0.5953733325004578
time_elpased: 2.212
#iterations: 517
currently lose_sum: 0.5956580638885498
time_elpased: 2.123
#iterations: 518
currently lose_sum: 0.6523941159248352
time_elpased: 2.238
#iterations: 519
currently lose_sum: 0.611848771572113
time_elpased: 2.14
start validation test
0.5648
0.596153846154
0.440063091483
0.506352087114
0.566622454832
17.138
#iterations: 520
currently lose_sum: 0.6602168083190918
time_elpased: 2.146
#iterations: 521
currently lose_sum: 0.6794660091400146
time_elpased: 2.154
#iterations: 522
currently lose_sum: 0.6468530893325806
time_elpased: 2.274
#iterations: 523
currently lose_sum: 0.6198780536651611
time_elpased: 2.115
#iterations: 524
currently lose_sum: 0.610548734664917
time_elpased: 2.223
#iterations: 525
currently lose_sum: 0.6438323259353638
time_elpased: 2.096
#iterations: 526
currently lose_sum: 0.6135024428367615
time_elpased: 2.121
#iterations: 527
currently lose_sum: 0.6691537499427795
time_elpased: 2.179
#iterations: 528
currently lose_sum: 0.6563603281974792
time_elpased: 2.432
#iterations: 529
currently lose_sum: 0.6366971731185913
time_elpased: 2.241
#iterations: 530
currently lose_sum: 0.6252275109291077
time_elpased: 2.124
#iterations: 531
currently lose_sum: 0.6653199791908264
time_elpased: 2.117
#iterations: 532
currently lose_sum: 0.6327426433563232
time_elpased: 2.186
#iterations: 533
currently lose_sum: 0.5894099473953247
time_elpased: 2.089
#iterations: 534
currently lose_sum: 0.6598100066184998
time_elpased: 2.185
#iterations: 535
currently lose_sum: 0.5678632855415344
time_elpased: 2.151
#iterations: 536
currently lose_sum: 0.6588369607925415
time_elpased: 2.141
#iterations: 537
currently lose_sum: 0.6194122433662415
time_elpased: 2.245
#iterations: 538
currently lose_sum: 0.6840081810951233
time_elpased: 2.223
#iterations: 539
currently lose_sum: 0.6276180744171143
time_elpased: 2.129
start validation test
0.5616
0.556209150327
0.671135646688
0.608291636883
0.559999641526
16.829
#iterations: 540
currently lose_sum: 0.6026611328125
time_elpased: 2.154
#iterations: 541
currently lose_sum: 0.7100432515144348
time_elpased: 2.785
#iterations: 542
currently lose_sum: 0.6760055422782898
time_elpased: 2.194
#iterations: 543
currently lose_sum: 0.6399753093719482
time_elpased: 2.168
#iterations: 544
currently lose_sum: 0.6343976855278015
time_elpased: 2.176
#iterations: 545
currently lose_sum: 0.6428201198577881
time_elpased: 2.455
#iterations: 546
currently lose_sum: 0.6269987225532532
time_elpased: 2.4
#iterations: 547
currently lose_sum: 0.6123667359352112
time_elpased: 2.132
#iterations: 548
currently lose_sum: 0.626792848110199
time_elpased: 2.237
#iterations: 549
currently lose_sum: 0.5931284427642822
time_elpased: 2.099
#iterations: 550
currently lose_sum: 0.664283275604248
time_elpased: 2.277
#iterations: 551
currently lose_sum: 0.688362717628479
time_elpased: 2.169
#iterations: 552
currently lose_sum: 0.621647298336029
time_elpased: 2.146
#iterations: 553
currently lose_sum: 0.6514435410499573
time_elpased: 2.155
#iterations: 554
currently lose_sum: 0.6356973648071289
time_elpased: 2.119
#iterations: 555
currently lose_sum: 0.6068275570869446
time_elpased: 2.109
#iterations: 556
currently lose_sum: 0.615474283695221
time_elpased: 2.175
#iterations: 557
currently lose_sum: 0.5965468883514404
time_elpased: 2.133
#iterations: 558
currently lose_sum: 0.5696942806243896
time_elpased: 2.177
#iterations: 559
currently lose_sum: 0.6256369948387146
time_elpased: 2.232
start validation test
0.5676
0.579439252336
0.53785488959
0.557873210634
0.568034587652
16.904
#iterations: 560
currently lose_sum: 0.5872165560722351
time_elpased: 2.138
#iterations: 561
currently lose_sum: 0.655638575553894
time_elpased: 2.122
#iterations: 562
currently lose_sum: 0.6260651350021362
time_elpased: 2.223
#iterations: 563
currently lose_sum: 0.6517799496650696
time_elpased: 2.147
#iterations: 564
currently lose_sum: 0.6630330085754395
time_elpased: 2.13
#iterations: 565
currently lose_sum: 0.6127930283546448
time_elpased: 2.205
#iterations: 566
currently lose_sum: 0.6306126117706299
time_elpased: 2.148
#iterations: 567
currently lose_sum: 0.6233027577400208
time_elpased: 2.196
#iterations: 568
currently lose_sum: 0.6377610564231873
time_elpased: 2.169
#iterations: 569
currently lose_sum: 0.6700851321220398
time_elpased: 2.144
#iterations: 570
currently lose_sum: 0.6564303636550903
time_elpased: 2.092
#iterations: 571
currently lose_sum: 0.6712024211883545
time_elpased: 2.245
#iterations: 572
currently lose_sum: 0.6261522769927979
time_elpased: 2.244
#iterations: 573
currently lose_sum: 0.618309497833252
time_elpased: 2.081
#iterations: 574
currently lose_sum: 0.701292097568512
time_elpased: 2.111
#iterations: 575
currently lose_sum: 0.6233227252960205
time_elpased: 2.113
#iterations: 576
currently lose_sum: 0.7000460624694824
time_elpased: 2.345
#iterations: 577
currently lose_sum: 0.6414312720298767
time_elpased: 2.153
#iterations: 578
currently lose_sum: 0.6626895070075989
time_elpased: 2.119
#iterations: 579
currently lose_sum: 0.6577149033546448
time_elpased: 2.226
start validation test
0.5648
0.561475409836
0.648264984227
0.601756954612
0.563580544062
16.827
#iterations: 580
currently lose_sum: 0.6689092516899109
time_elpased: 2.103
#iterations: 581
currently lose_sum: 0.6521571278572083
time_elpased: 2.186
#iterations: 582
currently lose_sum: 0.6026690006256104
time_elpased: 2.147
#iterations: 583
currently lose_sum: 0.6552748084068298
time_elpased: 2.352
#iterations: 584
currently lose_sum: 0.6517608761787415
time_elpased: 2.204
#iterations: 585
currently lose_sum: 0.5951189398765564
time_elpased: 2.132
#iterations: 586
currently lose_sum: 0.5810995697975159
time_elpased: 2.107
#iterations: 587
currently lose_sum: 0.6037529110908508
time_elpased: 2.192
#iterations: 588
currently lose_sum: 0.646981954574585
time_elpased: 2.14
#iterations: 589
currently lose_sum: 0.6184467673301697
time_elpased: 2.13
#iterations: 590
currently lose_sum: 0.6000804901123047
time_elpased: 2.169
#iterations: 591
currently lose_sum: 0.629925012588501
time_elpased: 2.124
#iterations: 592
currently lose_sum: 0.5897682905197144
time_elpased: 2.086
#iterations: 593
currently lose_sum: 0.5986948609352112
time_elpased: 2.151
#iterations: 594
currently lose_sum: 0.6338142156600952
time_elpased: 2.154
#iterations: 595
currently lose_sum: 0.6739352941513062
time_elpased: 2.135
#iterations: 596
currently lose_sum: 0.7145763635635376
time_elpased: 2.19
#iterations: 597
currently lose_sum: 0.6530832052230835
time_elpased: 2.093
#iterations: 598
currently lose_sum: 0.6646941900253296
time_elpased: 2.178
#iterations: 599
currently lose_sum: 0.6378697752952576
time_elpased: 2.134
start validation test
0.5644
0.564434845212
0.618296529968
0.590139254799
0.563612550699
16.855
acc: 0.588
pre: 0.601
rec: 0.558
F1: 0.579
auc: 0.588
