start to construct computing graph
graph construct over
3802
epochs start
#iterations: 0
currently lose_sum: 0.6922203302383423
time_elpased: 5.392
#iterations: 1
currently lose_sum: 0.6924943327903748
time_elpased: 5.063
#iterations: 2
currently lose_sum: 0.6912585496902466
time_elpased: 5.221
#iterations: 3
currently lose_sum: 0.6805927753448486
time_elpased: 5.202
#iterations: 4
currently lose_sum: 0.6920880675315857
time_elpased: 5.871
#iterations: 5
currently lose_sum: 0.6771085858345032
time_elpased: 5.128
#iterations: 6
currently lose_sum: 0.6875318884849548
time_elpased: 5.389
#iterations: 7
currently lose_sum: 0.6822923421859741
time_elpased: 5.061
#iterations: 8
currently lose_sum: 0.6952394247055054
time_elpased: 5.05
#iterations: 9
currently lose_sum: 0.6998643279075623
time_elpased: 5.412
#iterations: 10
currently lose_sum: 0.692014217376709
time_elpased: 5.117
#iterations: 11
currently lose_sum: 0.6906875371932983
time_elpased: 5.107
#iterations: 12
currently lose_sum: 0.7038021087646484
time_elpased: 5.115
#iterations: 13
currently lose_sum: 0.6848066449165344
time_elpased: 5.097
#iterations: 14
currently lose_sum: 0.6906411647796631
time_elpased: 5.08
#iterations: 15
currently lose_sum: 0.6806373596191406
time_elpased: 5.131
#iterations: 16
currently lose_sum: 0.69154953956604
time_elpased: 5.062
#iterations: 17
currently lose_sum: 0.7061991691589355
time_elpased: 5.145
#iterations: 18
currently lose_sum: 0.689504086971283
time_elpased: 5.193
#iterations: 19
currently lose_sum: 0.6861942410469055
time_elpased: 5.148
start validation test
0.5192
0.520807061791
0.65141955836
0.578836720392
0.517268220738
17.306
#iterations: 20
currently lose_sum: 0.6891105771064758
time_elpased: 4.733
#iterations: 21
currently lose_sum: 0.7143734693527222
time_elpased: 4.352
#iterations: 22
currently lose_sum: 0.6917231678962708
time_elpased: 4.553
#iterations: 23
currently lose_sum: 0.692635715007782
time_elpased: 4.456
#iterations: 24
currently lose_sum: 0.6948761940002441
time_elpased: 4.461
#iterations: 25
currently lose_sum: 0.6959633827209473
time_elpased: 4.349
#iterations: 26
currently lose_sum: 0.7103729248046875
time_elpased: 4.422
#iterations: 27
currently lose_sum: 0.6984462738037109
time_elpased: 4.445
#iterations: 28
currently lose_sum: 0.6774340867996216
time_elpased: 4.42
#iterations: 29
currently lose_sum: 0.690704345703125
time_elpased: 4.39
#iterations: 30
currently lose_sum: 0.6927844882011414
time_elpased: 4.495
#iterations: 31
currently lose_sum: 0.6838394999504089
time_elpased: 4.459
#iterations: 32
currently lose_sum: 0.7000861167907715
time_elpased: 4.444
#iterations: 33
currently lose_sum: 0.6837077140808105
time_elpased: 4.342
#iterations: 34
currently lose_sum: 0.6822638511657715
time_elpased: 4.419
#iterations: 35
currently lose_sum: 0.6944261193275452
time_elpased: 4.342
#iterations: 36
currently lose_sum: 0.6905162334442139
time_elpased: 4.426
#iterations: 37
currently lose_sum: 0.706504225730896
time_elpased: 4.33
#iterations: 38
currently lose_sum: 0.6870852112770081
time_elpased: 4.431
#iterations: 39
currently lose_sum: 0.6691215634346008
time_elpased: 4.403
start validation test
0.5416
0.60553633218
0.276025236593
0.379198266522
0.545480150764
17.185
#iterations: 40
currently lose_sum: 0.6879765391349792
time_elpased: 4.447
#iterations: 41
currently lose_sum: 0.696536123752594
time_elpased: 4.378
#iterations: 42
currently lose_sum: 0.6829845905303955
time_elpased: 4.419
#iterations: 43
currently lose_sum: 0.6773196458816528
time_elpased: 4.87
#iterations: 44
currently lose_sum: 0.6806089878082275
time_elpased: 4.43
#iterations: 45
currently lose_sum: 0.6789840459823608
time_elpased: 4.545
#iterations: 46
currently lose_sum: 0.6656291484832764
time_elpased: 4.326
#iterations: 47
currently lose_sum: 0.6787450313568115
time_elpased: 4.448
#iterations: 48
currently lose_sum: 0.6259153485298157
time_elpased: 4.333
#iterations: 49
currently lose_sum: 0.689401388168335
time_elpased: 4.401
#iterations: 50
currently lose_sum: 0.7008163332939148
time_elpased: 4.728
#iterations: 51
currently lose_sum: 0.702339768409729
time_elpased: 4.44
#iterations: 52
currently lose_sum: 0.6818978786468506
time_elpased: 4.424
#iterations: 53
currently lose_sum: 0.6545553803443909
time_elpased: 4.427
#iterations: 54
currently lose_sum: 0.6828689575195312
time_elpased: 4.447
#iterations: 55
currently lose_sum: 0.6839466691017151
time_elpased: 4.429
#iterations: 56
currently lose_sum: 0.6535552740097046
time_elpased: 4.364
#iterations: 57
currently lose_sum: 0.6972556114196777
time_elpased: 4.427
#iterations: 58
currently lose_sum: 0.6670976281166077
time_elpased: 4.696
#iterations: 59
currently lose_sum: 0.6801370978355408
time_elpased: 4.591
start validation test
0.522
0.569259962049
0.236593059937
0.33426183844
0.526169906592
17.278
#iterations: 60
currently lose_sum: 0.6648983955383301
time_elpased: 4.413
#iterations: 61
currently lose_sum: 0.6609798669815063
time_elpased: 4.352
#iterations: 62
currently lose_sum: 0.6616508364677429
time_elpased: 4.449
#iterations: 63
currently lose_sum: 0.662050724029541
time_elpased: 4.45
#iterations: 64
currently lose_sum: 0.6621516346931458
time_elpased: 4.452
#iterations: 65
currently lose_sum: 0.6901048421859741
time_elpased: 4.396
#iterations: 66
currently lose_sum: 0.6858972311019897
time_elpased: 4.482
#iterations: 67
currently lose_sum: 0.7226412892341614
time_elpased: 4.432
#iterations: 68
currently lose_sum: 0.7039840817451477
time_elpased: 4.348
#iterations: 69
currently lose_sum: 0.6468316912651062
time_elpased: 4.354
#iterations: 70
currently lose_sum: 0.6877843737602234
time_elpased: 4.413
#iterations: 71
currently lose_sum: 0.6639926433563232
time_elpased: 4.483
#iterations: 72
currently lose_sum: 0.6846760511398315
time_elpased: 4.367
#iterations: 73
currently lose_sum: 0.6762498617172241
time_elpased: 4.595
#iterations: 74
currently lose_sum: 0.6848037838935852
time_elpased: 4.419
#iterations: 75
currently lose_sum: 0.6919448971748352
time_elpased: 4.381
#iterations: 76
currently lose_sum: 0.6743687987327576
time_elpased: 5.142
#iterations: 77
currently lose_sum: 0.6732261776924133
time_elpased: 4.364
#iterations: 78
currently lose_sum: 0.6926030516624451
time_elpased: 4.531
#iterations: 79
currently lose_sum: 0.6853334903717041
time_elpased: 4.405
start validation test
0.5336
0.537010159652
0.583596214511
0.559334845049
0.532869535827
17.209
#iterations: 80
currently lose_sum: 0.6760461330413818
time_elpased: 4.527
#iterations: 81
currently lose_sum: 0.6758201122283936
time_elpased: 4.805
#iterations: 82
currently lose_sum: 0.6779913306236267
time_elpased: 4.343
#iterations: 83
currently lose_sum: 0.6843231916427612
time_elpased: 4.34
#iterations: 84
currently lose_sum: 0.6516773700714111
time_elpased: 4.326
#iterations: 85
currently lose_sum: 0.6496356129646301
time_elpased: 4.372
#iterations: 86
currently lose_sum: 0.6944282650947571
time_elpased: 4.485
#iterations: 87
currently lose_sum: 0.6936345100402832
time_elpased: 4.384
#iterations: 88
currently lose_sum: 0.6895118951797485
time_elpased: 4.431
#iterations: 89
currently lose_sum: 0.6451953053474426
time_elpased: 4.431
#iterations: 90
currently lose_sum: 0.6813632249832153
time_elpased: 4.478
#iterations: 91
currently lose_sum: 0.7037294507026672
time_elpased: 4.47
#iterations: 92
currently lose_sum: 0.690888524055481
time_elpased: 4.385
#iterations: 93
currently lose_sum: 0.6570191979408264
time_elpased: 4.377
#iterations: 94
currently lose_sum: 0.6729114055633545
time_elpased: 4.408
#iterations: 95
currently lose_sum: 0.6694493293762207
time_elpased: 4.474
#iterations: 96
currently lose_sum: 0.702147364616394
time_elpased: 4.541
#iterations: 97
currently lose_sum: 0.705739438533783
time_elpased: 4.383
#iterations: 98
currently lose_sum: 0.6917523145675659
time_elpased: 4.321
#iterations: 99
currently lose_sum: 0.6606254577636719
time_elpased: 4.415
start validation test
0.5624
0.571782178218
0.546529968454
0.558870967742
0.562631867344
16.990
#iterations: 100
currently lose_sum: 0.7190693616867065
time_elpased: 4.386
#iterations: 101
currently lose_sum: 0.6741254925727844
time_elpased: 4.398
#iterations: 102
currently lose_sum: 0.6932847499847412
time_elpased: 4.416
#iterations: 103
currently lose_sum: 0.691078245639801
time_elpased: 4.364
#iterations: 104
currently lose_sum: 0.6782786846160889
time_elpased: 4.406
#iterations: 105
currently lose_sum: 0.6713246703147888
time_elpased: 4.417
#iterations: 106
currently lose_sum: 0.6446709632873535
time_elpased: 4.424
#iterations: 107
currently lose_sum: 0.6911520957946777
time_elpased: 4.54
#iterations: 108
currently lose_sum: 0.6570808291435242
time_elpased: 4.323
#iterations: 109
currently lose_sum: 0.6801405549049377
time_elpased: 4.373
#iterations: 110
currently lose_sum: 0.6771194338798523
time_elpased: 4.47
#iterations: 111
currently lose_sum: 0.6714417934417725
time_elpased: 4.411
#iterations: 112
currently lose_sum: 0.6716883778572083
time_elpased: 4.382
#iterations: 113
currently lose_sum: 0.6699989438056946
time_elpased: 4.423
#iterations: 114
currently lose_sum: 0.6546909213066101
time_elpased: 4.452
#iterations: 115
currently lose_sum: 0.6823616027832031
time_elpased: 4.352
#iterations: 116
currently lose_sum: 0.6731934547424316
time_elpased: 4.358
#iterations: 117
currently lose_sum: 0.6976211667060852
time_elpased: 4.348
#iterations: 118
currently lose_sum: 0.6736591458320618
time_elpased: 4.576
#iterations: 119
currently lose_sum: 0.6705906391143799
time_elpased: 4.404
start validation test
0.5628
0.549631310267
0.764195583596
0.639392939624
0.559857532058
16.924
#iterations: 120
currently lose_sum: 0.6852586269378662
time_elpased: 4.459
#iterations: 121
currently lose_sum: 0.7056518793106079
time_elpased: 4.401
#iterations: 122
currently lose_sum: 0.6643233299255371
time_elpased: 4.388
#iterations: 123
currently lose_sum: 0.6544344425201416
time_elpased: 4.363
#iterations: 124
currently lose_sum: 0.7103700041770935
time_elpased: 4.454
#iterations: 125
currently lose_sum: 0.6856840252876282
time_elpased: 4.733
#iterations: 126
currently lose_sum: 0.7071334719657898
time_elpased: 4.555
#iterations: 127
currently lose_sum: 0.6597450375556946
time_elpased: 4.447
#iterations: 128
currently lose_sum: 0.656807541847229
time_elpased: 4.406
#iterations: 129
currently lose_sum: 0.6706945896148682
time_elpased: 4.49
#iterations: 130
currently lose_sum: 0.6908881664276123
time_elpased: 4.445
#iterations: 131
currently lose_sum: 0.6849530935287476
time_elpased: 4.515
#iterations: 132
currently lose_sum: 0.6770731210708618
time_elpased: 4.435
#iterations: 133
currently lose_sum: 0.6821295022964478
time_elpased: 4.355
#iterations: 134
currently lose_sum: 0.6648623943328857
time_elpased: 4.343
#iterations: 135
currently lose_sum: 0.6693137288093567
time_elpased: 4.412
#iterations: 136
currently lose_sum: 0.6495856642723083
time_elpased: 4.371
#iterations: 137
currently lose_sum: 0.6781182885169983
time_elpased: 4.342
#iterations: 138
currently lose_sum: 0.6844947934150696
time_elpased: 4.381
#iterations: 139
currently lose_sum: 0.6503753662109375
time_elpased: 4.455
start validation test
0.5448
0.604166666667
0.297318611987
0.398520084567
0.5484157995
17.141
#iterations: 140
currently lose_sum: 0.6753984093666077
time_elpased: 4.392
#iterations: 141
currently lose_sum: 0.6597592234611511
time_elpased: 4.369
#iterations: 142
currently lose_sum: 0.6706419587135315
time_elpased: 4.501
#iterations: 143
currently lose_sum: 0.6512938737869263
time_elpased: 4.482
#iterations: 144
currently lose_sum: 0.6927908062934875
time_elpased: 4.397
#iterations: 145
currently lose_sum: 0.6670891046524048
time_elpased: 4.392
#iterations: 146
currently lose_sum: 0.6758802533149719
time_elpased: 4.5
#iterations: 147
currently lose_sum: 0.721331775188446
time_elpased: 4.529
#iterations: 148
currently lose_sum: 0.662723183631897
time_elpased: 4.372
#iterations: 149
currently lose_sum: 0.7048766613006592
time_elpased: 4.719
#iterations: 150
currently lose_sum: 0.6885204911231995
time_elpased: 4.402
#iterations: 151
currently lose_sum: 0.6274011135101318
time_elpased: 4.394
#iterations: 152
currently lose_sum: 0.6644043922424316
time_elpased: 4.381
#iterations: 153
currently lose_sum: 0.7021439075469971
time_elpased: 4.376
#iterations: 154
currently lose_sum: 0.6681365370750427
time_elpased: 4.477
#iterations: 155
currently lose_sum: 0.7004950046539307
time_elpased: 4.482
#iterations: 156
currently lose_sum: 0.657865583896637
time_elpased: 4.361
#iterations: 157
currently lose_sum: 0.7030238509178162
time_elpased: 4.6
#iterations: 158
currently lose_sum: 0.6758676171302795
time_elpased: 4.362
#iterations: 159
currently lose_sum: 0.6989191174507141
time_elpased: 4.67
start validation test
0.5656
0.560344827586
0.666403785489
0.60878962536
0.56412721742
16.841
#iterations: 160
currently lose_sum: 0.7055165767669678
time_elpased: 4.312
#iterations: 161
currently lose_sum: 0.6691738963127136
time_elpased: 4.868
#iterations: 162
currently lose_sum: 0.6632843017578125
time_elpased: 4.484
#iterations: 163
currently lose_sum: 0.6848300695419312
time_elpased: 4.86
#iterations: 164
currently lose_sum: 0.6615861654281616
time_elpased: 4.391
#iterations: 165
currently lose_sum: 0.6697068214416504
time_elpased: 4.409
#iterations: 166
currently lose_sum: 0.6659404635429382
time_elpased: 4.379
#iterations: 167
currently lose_sum: 0.6441527605056763
time_elpased: 4.49
#iterations: 168
currently lose_sum: 0.6496322751045227
time_elpased: 4.365
#iterations: 169
currently lose_sum: 0.6631007194519043
time_elpased: 4.37
#iterations: 170
currently lose_sum: 0.6105281710624695
time_elpased: 4.378
#iterations: 171
currently lose_sum: 0.6643093824386597
time_elpased: 4.356
#iterations: 172
currently lose_sum: 0.6703851222991943
time_elpased: 4.43
#iterations: 173
currently lose_sum: 0.644538402557373
time_elpased: 4.366
#iterations: 174
currently lose_sum: 0.7074843049049377
time_elpased: 4.304
#iterations: 175
currently lose_sum: 0.6763224005699158
time_elpased: 4.453
#iterations: 176
currently lose_sum: 0.6702026128768921
time_elpased: 4.38
#iterations: 177
currently lose_sum: 0.6788436770439148
time_elpased: 4.418
#iterations: 178
currently lose_sum: 0.6300932765007019
time_elpased: 4.369
#iterations: 179
currently lose_sum: 0.6630304455757141
time_elpased: 4.38
start validation test
0.5652
0.552954944412
0.745268138801
0.63486731609
0.562569134336
16.996
#iterations: 180
currently lose_sum: 0.6377742886543274
time_elpased: 4.518
#iterations: 181
currently lose_sum: 0.6310624480247498
time_elpased: 4.374
#iterations: 182
currently lose_sum: 0.6754550337791443
time_elpased: 4.467
#iterations: 183
currently lose_sum: 0.6794765591621399
time_elpased: 4.393
#iterations: 184
currently lose_sum: 0.6536247730255127
time_elpased: 4.673
#iterations: 185
currently lose_sum: 0.6572999358177185
time_elpased: 4.447
#iterations: 186
currently lose_sum: 0.6577020287513733
time_elpased: 4.363
#iterations: 187
currently lose_sum: 0.6651167869567871
time_elpased: 4.362
#iterations: 188
currently lose_sum: 0.6819905042648315
time_elpased: 4.693
#iterations: 189
currently lose_sum: 0.6474668383598328
time_elpased: 4.479
#iterations: 190
currently lose_sum: 0.6725513935089111
time_elpased: 4.362
#iterations: 191
currently lose_sum: 0.6666783094406128
time_elpased: 4.606
#iterations: 192
currently lose_sum: 0.6365491151809692
time_elpased: 4.385
#iterations: 193
currently lose_sum: 0.6343128085136414
time_elpased: 4.465
#iterations: 194
currently lose_sum: 0.6861372590065002
time_elpased: 4.341
#iterations: 195
currently lose_sum: 0.6897813677787781
time_elpased: 4.385
#iterations: 196
currently lose_sum: 0.6398587226867676
time_elpased: 4.382
#iterations: 197
currently lose_sum: 0.6780485510826111
time_elpased: 4.458
#iterations: 198
currently lose_sum: 0.7020685076713562
time_elpased: 4.397
#iterations: 199
currently lose_sum: 0.6697323322296143
time_elpased: 4.459
start validation test
0.5632
0.579136690647
0.507886435331
0.541176470588
0.564008152731
16.944
#iterations: 200
currently lose_sum: 0.6600344777107239
time_elpased: 4.752
#iterations: 201
currently lose_sum: 0.6564662456512451
time_elpased: 4.362
#iterations: 202
currently lose_sum: 0.6211797595024109
time_elpased: 4.418
#iterations: 203
currently lose_sum: 0.6551895141601562
time_elpased: 4.388
#iterations: 204
currently lose_sum: 0.6290227174758911
time_elpased: 4.418
#iterations: 205
currently lose_sum: 0.6794083118438721
time_elpased: 4.332
#iterations: 206
currently lose_sum: 0.6692790985107422
time_elpased: 4.434
#iterations: 207
currently lose_sum: 0.6838241815567017
time_elpased: 4.399
#iterations: 208
currently lose_sum: 0.6637857556343079
time_elpased: 4.388
#iterations: 209
currently lose_sum: 0.6538442373275757
time_elpased: 4.405
#iterations: 210
currently lose_sum: 0.6550594568252563
time_elpased: 4.354
#iterations: 211
currently lose_sum: 0.6302118897438049
time_elpased: 4.352
#iterations: 212
currently lose_sum: 0.6745947003364563
time_elpased: 4.323
#iterations: 213
currently lose_sum: 0.6268814206123352
time_elpased: 4.394
#iterations: 214
currently lose_sum: 0.6739303469657898
time_elpased: 4.639
#iterations: 215
currently lose_sum: 0.6836638450622559
time_elpased: 4.674
#iterations: 216
currently lose_sum: 0.6449034810066223
time_elpased: 4.383
#iterations: 217
currently lose_sum: 0.678480863571167
time_elpased: 4.465
#iterations: 218
currently lose_sum: 0.6007089018821716
time_elpased: 4.434
#iterations: 219
currently lose_sum: 0.66758131980896
time_elpased: 4.339
start validation test
0.5464
0.559502664298
0.496845425868
0.526315789474
0.547124011635
16.843
#iterations: 220
currently lose_sum: 0.6634867787361145
time_elpased: 4.418
#iterations: 221
currently lose_sum: 0.6749484539031982
time_elpased: 4.55
#iterations: 222
currently lose_sum: 0.6826931238174438
time_elpased: 4.418
#iterations: 223
currently lose_sum: 0.6511147022247314
time_elpased: 4.47
#iterations: 224
currently lose_sum: 0.6629806756973267
time_elpased: 4.724
#iterations: 225
currently lose_sum: 0.6498287320137024
time_elpased: 4.312
#iterations: 226
currently lose_sum: 0.6471788287162781
time_elpased: 4.311
#iterations: 227
currently lose_sum: 0.679543137550354
time_elpased: 4.538
#iterations: 228
currently lose_sum: 0.6618342399597168
time_elpased: 4.388
#iterations: 229
currently lose_sum: 0.6803725957870483
time_elpased: 4.419
#iterations: 230
currently lose_sum: 0.6831461191177368
time_elpased: 4.345
#iterations: 231
currently lose_sum: 0.6742167472839355
time_elpased: 4.329
#iterations: 232
currently lose_sum: 0.6479843258857727
time_elpased: 4.309
#iterations: 233
currently lose_sum: 0.7006760239601135
time_elpased: 4.415
#iterations: 234
currently lose_sum: 0.6340842247009277
time_elpased: 4.332
#iterations: 235
currently lose_sum: 0.6901495456695557
time_elpased: 4.37
#iterations: 236
currently lose_sum: 0.6624881029129028
time_elpased: 4.397
#iterations: 237
currently lose_sum: 0.6860790848731995
time_elpased: 4.379
#iterations: 238
currently lose_sum: 0.6421827673912048
time_elpased: 4.341
#iterations: 239
currently lose_sum: 0.6581692695617676
time_elpased: 4.52
start validation test
0.5632
0.568965517241
0.572555205047
0.570754716981
0.563063316809
16.790
#iterations: 240
currently lose_sum: 0.6229645013809204
time_elpased: 4.348
#iterations: 241
currently lose_sum: 0.6581666469573975
time_elpased: 4.393
#iterations: 242
currently lose_sum: 0.6797889471054077
time_elpased: 4.685
#iterations: 243
currently lose_sum: 0.6443884968757629
time_elpased: 4.481
#iterations: 244
currently lose_sum: 0.6421467661857605
time_elpased: 4.403
#iterations: 245
currently lose_sum: 0.637163519859314
time_elpased: 4.441
#iterations: 246
currently lose_sum: 0.6448143720626831
time_elpased: 4.422
#iterations: 247
currently lose_sum: 0.6821234226226807
time_elpased: 4.513
#iterations: 248
currently lose_sum: 0.6485503911972046
time_elpased: 4.781
#iterations: 249
currently lose_sum: 0.6265876889228821
time_elpased: 4.375
#iterations: 250
currently lose_sum: 0.6306770443916321
time_elpased: 4.614
#iterations: 251
currently lose_sum: 0.6765131950378418
time_elpased: 4.449
#iterations: 252
currently lose_sum: 0.6573486328125
time_elpased: 4.324
#iterations: 253
currently lose_sum: 0.7153096199035645
time_elpased: 4.663
#iterations: 254
currently lose_sum: 0.651943027973175
time_elpased: 4.686
#iterations: 255
currently lose_sum: 0.6416386365890503
time_elpased: 4.775
#iterations: 256
currently lose_sum: 0.669463574886322
time_elpased: 4.337
#iterations: 257
currently lose_sum: 0.6548324823379517
time_elpased: 4.404
#iterations: 258
currently lose_sum: 0.6363400220870972
time_elpased: 4.342
#iterations: 259
currently lose_sum: 0.6454849243164062
time_elpased: 4.357
start validation test
0.5656
0.627808988764
0.352523659306
0.451515151515
0.568713128354
16.922
#iterations: 260
currently lose_sum: 0.6552600264549255
time_elpased: 4.399
#iterations: 261
currently lose_sum: 0.6610058546066284
time_elpased: 4.357
#iterations: 262
currently lose_sum: 0.6683215498924255
time_elpased: 4.924
#iterations: 263
currently lose_sum: 0.6820807456970215
time_elpased: 4.387
#iterations: 264
currently lose_sum: 0.6858275532722473
time_elpased: 4.391
#iterations: 265
currently lose_sum: 0.618557333946228
time_elpased: 4.38
#iterations: 266
currently lose_sum: 0.7058820128440857
time_elpased: 4.377
#iterations: 267
currently lose_sum: 0.6530612111091614
time_elpased: 4.388
#iterations: 268
currently lose_sum: 0.6424629092216492
time_elpased: 4.393
#iterations: 269
currently lose_sum: 0.6551719903945923
time_elpased: 4.451
#iterations: 270
currently lose_sum: 0.6026912927627563
time_elpased: 4.495
#iterations: 271
currently lose_sum: 0.6168930530548096
time_elpased: 4.356
#iterations: 272
currently lose_sum: 0.6507707238197327
time_elpased: 4.367
#iterations: 273
currently lose_sum: 0.6438767910003662
time_elpased: 4.375
#iterations: 274
currently lose_sum: 0.6957064270973206
time_elpased: 4.33
#iterations: 275
currently lose_sum: 0.6566916704177856
time_elpased: 4.312
#iterations: 276
currently lose_sum: 0.6265537142753601
time_elpased: 4.438
#iterations: 277
currently lose_sum: 0.661364734172821
time_elpased: 4.334
#iterations: 278
currently lose_sum: 0.6856299638748169
time_elpased: 4.406
#iterations: 279
currently lose_sum: 0.6501399278640747
time_elpased: 4.348
start validation test
0.55
0.621805792164
0.28785488959
0.393530997305
0.553830042198
17.603
#iterations: 280
currently lose_sum: 0.6946313381195068
time_elpased: 4.396
#iterations: 281
currently lose_sum: 0.6549524664878845
time_elpased: 4.443
#iterations: 282
currently lose_sum: 0.6755668520927429
time_elpased: 4.356
#iterations: 283
currently lose_sum: 0.6455377340316772
time_elpased: 4.41
#iterations: 284
currently lose_sum: 0.6621545553207397
time_elpased: 4.434
#iterations: 285
currently lose_sum: 0.6541281342506409
time_elpased: 4.411
#iterations: 286
currently lose_sum: 0.6485791802406311
time_elpased: 4.567
#iterations: 287
currently lose_sum: 0.6995164752006531
time_elpased: 4.436
#iterations: 288
currently lose_sum: 0.640693187713623
time_elpased: 4.461
#iterations: 289
currently lose_sum: 0.6788697242736816
time_elpased: 4.649
#iterations: 290
currently lose_sum: 0.6528706550598145
time_elpased: 4.54
#iterations: 291
currently lose_sum: 0.6573542952537537
time_elpased: 4.381
#iterations: 292
currently lose_sum: 0.6536940932273865
time_elpased: 4.488
#iterations: 293
currently lose_sum: 0.6446988582611084
time_elpased: 4.431
#iterations: 294
currently lose_sum: 0.6602668762207031
time_elpased: 4.44
#iterations: 295
currently lose_sum: 0.6524888873100281
time_elpased: 4.41
#iterations: 296
currently lose_sum: 0.6909362077713013
time_elpased: 4.667
#iterations: 297
currently lose_sum: 0.655599057674408
time_elpased: 4.401
#iterations: 298
currently lose_sum: 0.6829283237457275
time_elpased: 4.477
#iterations: 299
currently lose_sum: 0.6218763589859009
time_elpased: 4.318
start validation test
0.5584
0.586315789474
0.43927444795
0.502254283138
0.560140470728
16.834
#iterations: 300
currently lose_sum: 0.6311724185943604
time_elpased: 4.585
#iterations: 301
currently lose_sum: 0.6513126492500305
time_elpased: 4.332
#iterations: 302
currently lose_sum: 0.6660493612289429
time_elpased: 4.33
#iterations: 303
currently lose_sum: 0.6407888531684875
time_elpased: 4.42
#iterations: 304
currently lose_sum: 0.6943904757499695
time_elpased: 4.379
#iterations: 305
currently lose_sum: 0.6825376749038696
time_elpased: 4.535
#iterations: 306
currently lose_sum: 0.6729908585548401
time_elpased: 4.44
#iterations: 307
currently lose_sum: 0.6597238183021545
time_elpased: 4.468
#iterations: 308
currently lose_sum: 0.6592384576797485
time_elpased: 4.484
#iterations: 309
currently lose_sum: 0.6651290655136108
time_elpased: 4.329
#iterations: 310
currently lose_sum: 0.6653404831886292
time_elpased: 4.418
#iterations: 311
currently lose_sum: 0.6113446950912476
time_elpased: 4.561
#iterations: 312
currently lose_sum: 0.6475778222084045
time_elpased: 4.374
#iterations: 313
currently lose_sum: 0.6079385876655579
time_elpased: 4.407
#iterations: 314
currently lose_sum: 0.6348350048065186
time_elpased: 4.453
#iterations: 315
currently lose_sum: 0.6830633282661438
time_elpased: 4.407
#iterations: 316
currently lose_sum: 0.6797409057617188
time_elpased: 4.438
#iterations: 317
currently lose_sum: 0.665605902671814
time_elpased: 4.432
#iterations: 318
currently lose_sum: 0.6391003131866455
time_elpased: 4.4
#iterations: 319
currently lose_sum: 0.6796051263809204
time_elpased: 4.488
start validation test
0.5664
0.564425770308
0.635646687697
0.597922848665
0.565388278914
16.873
#iterations: 320
currently lose_sum: 0.654050886631012
time_elpased: 4.475
#iterations: 321
currently lose_sum: 0.684998095035553
time_elpased: 4.834
#iterations: 322
currently lose_sum: 0.6379686594009399
time_elpased: 4.372
#iterations: 323
currently lose_sum: 0.67128586769104
time_elpased: 4.358
#iterations: 324
currently lose_sum: 0.6041238903999329
time_elpased: 4.371
#iterations: 325
currently lose_sum: 0.6698960661888123
time_elpased: 4.585
#iterations: 326
currently lose_sum: 0.6657052636146545
time_elpased: 4.449
#iterations: 327
currently lose_sum: 0.6785614490509033
time_elpased: 4.366
#iterations: 328
currently lose_sum: 0.6626876592636108
time_elpased: 4.631
#iterations: 329
currently lose_sum: 0.628426730632782
time_elpased: 4.384
#iterations: 330
currently lose_sum: 0.7000952959060669
time_elpased: 4.4
#iterations: 331
currently lose_sum: 0.6802937388420105
time_elpased: 4.591
#iterations: 332
currently lose_sum: 0.6829087734222412
time_elpased: 4.534
#iterations: 333
currently lose_sum: 0.6808307766914368
time_elpased: 4.403
#iterations: 334
currently lose_sum: 0.639969527721405
time_elpased: 4.343
#iterations: 335
currently lose_sum: 0.6865444779396057
time_elpased: 4.395
#iterations: 336
currently lose_sum: 0.643003523349762
time_elpased: 4.802
#iterations: 337
currently lose_sum: 0.6780074834823608
time_elpased: 4.534
#iterations: 338
currently lose_sum: 0.6234982013702393
time_elpased: 4.354
#iterations: 339
currently lose_sum: 0.64654940366745
time_elpased: 4.42
start validation test
0.5696
0.561935483871
0.68690851735
0.618168914123
0.567886076857
16.746
#iterations: 340
currently lose_sum: 0.6672800183296204
time_elpased: 4.4
#iterations: 341
currently lose_sum: 0.616142988204956
time_elpased: 4.59
#iterations: 342
currently lose_sum: 0.6299384832382202
time_elpased: 4.518
#iterations: 343
currently lose_sum: 0.6411550641059875
time_elpased: 4.379
#iterations: 344
currently lose_sum: 0.6860199570655823
time_elpased: 4.51
#iterations: 345
currently lose_sum: 0.7083419561386108
time_elpased: 4.435
#iterations: 346
currently lose_sum: 0.6461761593818665
time_elpased: 4.493
#iterations: 347
currently lose_sum: 0.6298994421958923
time_elpased: 4.952
#iterations: 348
currently lose_sum: 0.6484626531600952
time_elpased: 4.364
#iterations: 349
currently lose_sum: 0.65909743309021
time_elpased: 4.467
#iterations: 350
currently lose_sum: 0.733733057975769
time_elpased: 4.408
#iterations: 351
currently lose_sum: 0.6931726336479187
time_elpased: 4.362
#iterations: 352
currently lose_sum: 0.6533556580543518
time_elpased: 4.481
#iterations: 353
currently lose_sum: 0.6764660477638245
time_elpased: 4.466
#iterations: 354
currently lose_sum: 0.7379452586174011
time_elpased: 4.407
#iterations: 355
currently lose_sum: 0.6420615315437317
time_elpased: 4.327
#iterations: 356
currently lose_sum: 0.6444323062896729
time_elpased: 4.447
#iterations: 357
currently lose_sum: 0.7072566151618958
time_elpased: 4.515
#iterations: 358
currently lose_sum: 0.6616148352622986
time_elpased: 4.35
#iterations: 359
currently lose_sum: 0.6639829874038696
time_elpased: 4.327
start validation test
0.5736
0.582516339869
0.562302839117
0.572231139647
0.573765055922
16.762
#iterations: 360
currently lose_sum: 0.6335576772689819
time_elpased: 4.437
#iterations: 361
currently lose_sum: 0.6702851057052612
time_elpased: 4.399
#iterations: 362
currently lose_sum: 0.6175863146781921
time_elpased: 4.339
#iterations: 363
currently lose_sum: 0.6600914001464844
time_elpased: 4.392
#iterations: 364
currently lose_sum: 0.6545936465263367
time_elpased: 4.362
#iterations: 365
currently lose_sum: 0.7027771472930908
time_elpased: 4.432
#iterations: 366
currently lose_sum: 0.6779749989509583
time_elpased: 4.418
#iterations: 367
currently lose_sum: 0.6432628035545349
time_elpased: 4.39
#iterations: 368
currently lose_sum: 0.6274322271347046
time_elpased: 4.361
#iterations: 369
currently lose_sum: 0.6728549003601074
time_elpased: 4.4
#iterations: 370
currently lose_sum: 0.6276257038116455
time_elpased: 4.366
#iterations: 371
currently lose_sum: 0.6476612091064453
time_elpased: 4.347
#iterations: 372
currently lose_sum: 0.6774826049804688
time_elpased: 4.571
#iterations: 373
currently lose_sum: 0.6485627889633179
time_elpased: 4.35
#iterations: 374
currently lose_sum: 0.6276741623878479
time_elpased: 4.494
#iterations: 375
currently lose_sum: 0.6185227036476135
time_elpased: 4.404
#iterations: 376
currently lose_sum: 0.6245392560958862
time_elpased: 4.496
#iterations: 377
currently lose_sum: 0.6237289905548096
time_elpased: 4.412
#iterations: 378
currently lose_sum: 0.6493597626686096
time_elpased: 4.436
#iterations: 379
currently lose_sum: 0.6504601240158081
time_elpased: 4.388
start validation test
0.5712
0.579416531605
0.563880126183
0.571542765787
0.571306946208
16.723
#iterations: 380
currently lose_sum: 0.6530358791351318
time_elpased: 4.383
#iterations: 381
currently lose_sum: 0.6331790685653687
time_elpased: 4.437
#iterations: 382
currently lose_sum: 0.5916882157325745
time_elpased: 4.478
#iterations: 383
currently lose_sum: 0.6217712759971619
time_elpased: 4.461
#iterations: 384
currently lose_sum: 0.6479342579841614
time_elpased: 4.398
#iterations: 385
currently lose_sum: 0.6948211789131165
time_elpased: 4.378
#iterations: 386
currently lose_sum: 0.6845306158065796
time_elpased: 4.433
#iterations: 387
currently lose_sum: 0.6828768849372864
time_elpased: 4.447
#iterations: 388
currently lose_sum: 0.6286699175834656
time_elpased: 4.597
#iterations: 389
currently lose_sum: 0.6578936576843262
time_elpased: 4.394
#iterations: 390
currently lose_sum: 0.6752321720123291
time_elpased: 4.578
#iterations: 391
currently lose_sum: 0.7067478895187378
time_elpased: 4.824
#iterations: 392
currently lose_sum: 0.6421990394592285
time_elpased: 4.511
#iterations: 393
currently lose_sum: 0.6495333909988403
time_elpased: 4.442
#iterations: 394
currently lose_sum: 0.6169266700744629
time_elpased: 4.507
#iterations: 395
currently lose_sum: 0.639247477054596
time_elpased: 4.408
#iterations: 396
currently lose_sum: 0.6264261603355408
time_elpased: 4.427
#iterations: 397
currently lose_sum: 0.6950857639312744
time_elpased: 4.486
#iterations: 398
currently lose_sum: 0.6690271496772766
time_elpased: 4.434
#iterations: 399
currently lose_sum: 0.6070224046707153
time_elpased: 5.659
start validation test
0.5724
0.57566539924
0.597003154574
0.586140147116
0.572040538326
16.711
#iterations: 400
currently lose_sum: 0.6308661699295044
time_elpased: 4.553
#iterations: 401
currently lose_sum: 0.6521266102790833
time_elpased: 4.449
#iterations: 402
currently lose_sum: 0.6295103430747986
time_elpased: 4.467
#iterations: 403
currently lose_sum: 0.6617229580879211
time_elpased: 4.434
#iterations: 404
currently lose_sum: 0.6323963403701782
time_elpased: 4.365
#iterations: 405
currently lose_sum: 0.6174212694168091
time_elpased: 4.51
#iterations: 406
currently lose_sum: 0.5825216174125671
time_elpased: 4.711
#iterations: 407
currently lose_sum: 0.6710720062255859
time_elpased: 4.481
#iterations: 408
currently lose_sum: 0.6679279208183289
time_elpased: 4.505
#iterations: 409
currently lose_sum: 0.6358533501625061
time_elpased: 4.389
#iterations: 410
currently lose_sum: 0.6515557765960693
time_elpased: 4.412
#iterations: 411
currently lose_sum: 0.652213454246521
time_elpased: 4.442
#iterations: 412
currently lose_sum: 0.6614999175071716
time_elpased: 4.521
#iterations: 413
currently lose_sum: 0.678354024887085
time_elpased: 4.386
#iterations: 414
currently lose_sum: 0.6603080630302429
time_elpased: 4.625
#iterations: 415
currently lose_sum: 0.6371008157730103
time_elpased: 4.4
#iterations: 416
currently lose_sum: 0.6406303644180298
time_elpased: 4.591
#iterations: 417
currently lose_sum: 0.6888958215713501
time_elpased: 4.427
#iterations: 418
currently lose_sum: 0.686907172203064
time_elpased: 4.374
#iterations: 419
currently lose_sum: 0.6332294344902039
time_elpased: 4.369
start validation test
0.5776
0.570105820106
0.679810725552
0.620143884892
0.576106661477
16.583
#iterations: 420
currently lose_sum: 0.6634405255317688
time_elpased: 4.369
#iterations: 421
currently lose_sum: 0.6057020425796509
time_elpased: 4.444
#iterations: 422
currently lose_sum: 0.6305966973304749
time_elpased: 4.421
#iterations: 423
currently lose_sum: 0.6479438543319702
time_elpased: 4.345
#iterations: 424
currently lose_sum: 0.6387394666671753
time_elpased: 4.43
#iterations: 425
currently lose_sum: 0.6463698744773865
time_elpased: 4.489
#iterations: 426
currently lose_sum: 0.662135899066925
time_elpased: 4.416
#iterations: 427
currently lose_sum: 0.6516290307044983
time_elpased: 4.381
#iterations: 428
currently lose_sum: 0.660155177116394
time_elpased: 4.318
#iterations: 429
currently lose_sum: 0.6775537133216858
time_elpased: 4.394
#iterations: 430
currently lose_sum: 0.6775861978530884
time_elpased: 4.341
#iterations: 431
currently lose_sum: 0.6032930016517639
time_elpased: 4.468
#iterations: 432
currently lose_sum: 0.6333544850349426
time_elpased: 4.348
#iterations: 433
currently lose_sum: 0.6624258160591125
time_elpased: 4.359
#iterations: 434
currently lose_sum: 0.631886899471283
time_elpased: 4.522
#iterations: 435
currently lose_sum: 0.6419727802276611
time_elpased: 4.563
#iterations: 436
currently lose_sum: 0.5956931114196777
time_elpased: 4.276
#iterations: 437
currently lose_sum: 0.6328836679458618
time_elpased: 4.393
#iterations: 438
currently lose_sum: 0.6604243516921997
time_elpased: 4.515
#iterations: 439
currently lose_sum: 0.6581156849861145
time_elpased: 4.456
start validation test
0.5776
0.620181405896
0.431388012618
0.508837209302
0.579736214101
16.924
#iterations: 440
currently lose_sum: 0.649000883102417
time_elpased: 4.425
#iterations: 441
currently lose_sum: 0.6364798545837402
time_elpased: 4.462
#iterations: 442
currently lose_sum: 0.5951123833656311
time_elpased: 4.5
#iterations: 443
currently lose_sum: 0.6960921287536621
time_elpased: 4.419
#iterations: 444
currently lose_sum: 0.6222618222236633
time_elpased: 4.477
#iterations: 445
currently lose_sum: 0.6747872829437256
time_elpased: 4.376
#iterations: 446
currently lose_sum: 0.6564342379570007
time_elpased: 4.355
#iterations: 447
currently lose_sum: 0.6705760359764099
time_elpased: 4.437
#iterations: 448
currently lose_sum: 0.6495506167411804
time_elpased: 4.391
#iterations: 449
currently lose_sum: 0.6204659938812256
time_elpased: 4.509
#iterations: 450
currently lose_sum: 0.6288929581642151
time_elpased: 4.399
#iterations: 451
currently lose_sum: 0.6600927710533142
time_elpased: 4.42
#iterations: 452
currently lose_sum: 0.6690136194229126
time_elpased: 4.391
#iterations: 453
currently lose_sum: 0.6623824238777161
time_elpased: 4.615
#iterations: 454
currently lose_sum: 0.6234460473060608
time_elpased: 4.356
#iterations: 455
currently lose_sum: 0.7160583734512329
time_elpased: 4.36
#iterations: 456
currently lose_sum: 0.6369772553443909
time_elpased: 4.404
#iterations: 457
currently lose_sum: 0.6499499678611755
time_elpased: 4.522
#iterations: 458
currently lose_sum: 0.6537827849388123
time_elpased: 4.394
#iterations: 459
currently lose_sum: 0.6548274159431458
time_elpased: 4.392
start validation test
0.554
0.559164733179
0.570189274448
0.564623194065
0.553763468393
16.809
#iterations: 460
currently lose_sum: 0.6421952247619629
time_elpased: 4.392
#iterations: 461
currently lose_sum: 0.6854536533355713
time_elpased: 4.403
#iterations: 462
currently lose_sum: 0.6148328185081482
time_elpased: 4.417
#iterations: 463
currently lose_sum: 0.6331389546394348
time_elpased: 4.424
#iterations: 464
currently lose_sum: 0.6279387474060059
time_elpased: 4.361
#iterations: 465
currently lose_sum: 0.626707136631012
time_elpased: 4.372
#iterations: 466
currently lose_sum: 0.6146609783172607
time_elpased: 4.674
#iterations: 467
currently lose_sum: 0.6382148861885071
time_elpased: 4.485
#iterations: 468
currently lose_sum: 0.646554708480835
time_elpased: 4.462
#iterations: 469
currently lose_sum: 0.6362462639808655
time_elpased: 4.549
#iterations: 470
currently lose_sum: 0.7070660591125488
time_elpased: 4.358
#iterations: 471
currently lose_sum: 0.6811563372612
time_elpased: 4.345
#iterations: 472
currently lose_sum: 0.6331943869590759
time_elpased: 4.42
#iterations: 473
currently lose_sum: 0.6256629228591919
time_elpased: 4.449
#iterations: 474
currently lose_sum: 0.6735122799873352
time_elpased: 4.367
#iterations: 475
currently lose_sum: 0.6748918294906616
time_elpased: 4.503
#iterations: 476
currently lose_sum: 0.6800600290298462
time_elpased: 4.403
#iterations: 477
currently lose_sum: 0.6381514668464661
time_elpased: 4.403
#iterations: 478
currently lose_sum: 0.6537649631500244
time_elpased: 4.325
#iterations: 479
currently lose_sum: 0.6223011612892151
time_elpased: 4.373
start validation test
0.554
0.603799185889
0.35094637224
0.443890274314
0.556966692613
17.346
#iterations: 480
currently lose_sum: 0.608822762966156
time_elpased: 4.626
#iterations: 481
currently lose_sum: 0.6729109287261963
time_elpased: 4.576
#iterations: 482
currently lose_sum: 0.6830662488937378
time_elpased: 4.353
#iterations: 483
currently lose_sum: 0.659271240234375
time_elpased: 4.445
#iterations: 484
currently lose_sum: 0.6675136089324951
time_elpased: 4.413
#iterations: 485
currently lose_sum: 0.668449878692627
time_elpased: 4.399
#iterations: 486
currently lose_sum: 0.6468735337257385
time_elpased: 4.515
#iterations: 487
currently lose_sum: 0.634829580783844
time_elpased: 4.364
#iterations: 488
currently lose_sum: 0.619759202003479
time_elpased: 4.405
#iterations: 489
currently lose_sum: 0.6440664529800415
time_elpased: 4.353
#iterations: 490
currently lose_sum: 0.6452198624610901
time_elpased: 4.465
#iterations: 491
currently lose_sum: 0.6308662295341492
time_elpased: 4.34
#iterations: 492
currently lose_sum: 0.6988218426704407
time_elpased: 4.354
#iterations: 493
currently lose_sum: 0.5967295169830322
time_elpased: 4.328
#iterations: 494
currently lose_sum: 0.666199803352356
time_elpased: 4.518
#iterations: 495
currently lose_sum: 0.6362394094467163
time_elpased: 4.346
#iterations: 496
currently lose_sum: 0.6506113409996033
time_elpased: 4.33
#iterations: 497
currently lose_sum: 0.6298985481262207
time_elpased: 4.552
#iterations: 498
currently lose_sum: 0.6437944769859314
time_elpased: 4.374
#iterations: 499
currently lose_sum: 0.6546992659568787
time_elpased: 4.354
start validation test
0.5696
0.582191780822
0.536277602524
0.55829228243
0.57008685321
16.744
#iterations: 500
currently lose_sum: 0.6736817359924316
time_elpased: 4.403
#iterations: 501
currently lose_sum: 0.667697012424469
time_elpased: 4.411
#iterations: 502
currently lose_sum: 0.6566290259361267
time_elpased: 4.459
#iterations: 503
currently lose_sum: 0.6657681465148926
time_elpased: 4.599
#iterations: 504
currently lose_sum: 0.6546862721443176
time_elpased: 4.468
#iterations: 505
currently lose_sum: 0.6405537128448486
time_elpased: 4.375
#iterations: 506
currently lose_sum: 0.661485493183136
time_elpased: 4.49
#iterations: 507
currently lose_sum: 0.6679877638816833
time_elpased: 4.38
#iterations: 508
currently lose_sum: 0.6085648536682129
time_elpased: 4.502
#iterations: 509
currently lose_sum: 0.6906419992446899
time_elpased: 4.4
#iterations: 510
currently lose_sum: 0.683514416217804
time_elpased: 4.373
#iterations: 511
currently lose_sum: 0.6227520108222961
time_elpased: 4.527
#iterations: 512
currently lose_sum: 0.62760329246521
time_elpased: 4.383
#iterations: 513
currently lose_sum: 0.5911999344825745
time_elpased: 4.353
#iterations: 514
currently lose_sum: 0.6606805324554443
time_elpased: 4.446
#iterations: 515
currently lose_sum: 0.6293677091598511
time_elpased: 4.372
#iterations: 516
currently lose_sum: 0.6615679264068604
time_elpased: 4.407
#iterations: 517
currently lose_sum: 0.6514672636985779
time_elpased: 4.361
#iterations: 518
currently lose_sum: 0.6649892926216125
time_elpased: 4.373
#iterations: 519
currently lose_sum: 0.6485418677330017
time_elpased: 4.411
start validation test
0.5664
0.563623789765
0.642744479495
0.600589535741
0.56528457741
16.754
#iterations: 520
currently lose_sum: 0.6636789441108704
time_elpased: 4.369
#iterations: 521
currently lose_sum: 0.6579480171203613
time_elpased: 4.371
#iterations: 522
currently lose_sum: 0.6410083770751953
time_elpased: 4.349
#iterations: 523
currently lose_sum: 0.7137752771377563
time_elpased: 4.437
#iterations: 524
currently lose_sum: 0.7216641306877136
time_elpased: 4.359
#iterations: 525
currently lose_sum: 0.6726384162902832
time_elpased: 4.429
#iterations: 526
currently lose_sum: 0.68455970287323
time_elpased: 4.468
#iterations: 527
currently lose_sum: 0.7028486728668213
time_elpased: 4.576
#iterations: 528
currently lose_sum: 0.6551269292831421
time_elpased: 4.35
#iterations: 529
currently lose_sum: 0.6173770427703857
time_elpased: 4.778
#iterations: 530
currently lose_sum: 0.6611689925193787
time_elpased: 4.816
#iterations: 531
currently lose_sum: 0.6570762395858765
time_elpased: 4.514
#iterations: 532
currently lose_sum: 0.6431535482406616
time_elpased: 4.504
#iterations: 533
currently lose_sum: 0.6487274169921875
time_elpased: 4.471
#iterations: 534
currently lose_sum: 0.6426694989204407
time_elpased: 4.355
#iterations: 535
currently lose_sum: 0.6753093004226685
time_elpased: 4.433
#iterations: 536
currently lose_sum: 0.6096369028091431
time_elpased: 4.506
#iterations: 537
currently lose_sum: 0.5960124731063843
time_elpased: 4.534
#iterations: 538
currently lose_sum: 0.6276552081108093
time_elpased: 5.329
#iterations: 539
currently lose_sum: 0.6628210544586182
time_elpased: 4.408
start validation test
0.5688
0.650316455696
0.324132492114
0.432631578947
0.572374687615
16.958
#iterations: 540
currently lose_sum: 0.5756893754005432
time_elpased: 4.445
#iterations: 541
currently lose_sum: 0.65289705991745
time_elpased: 4.743
#iterations: 542
currently lose_sum: 0.6569408178329468
time_elpased: 4.434
#iterations: 543
currently lose_sum: 0.6675184369087219
time_elpased: 4.523
#iterations: 544
currently lose_sum: 0.6409479379653931
time_elpased: 4.387
#iterations: 545
currently lose_sum: 0.6467652916908264
time_elpased: 4.341
#iterations: 546
currently lose_sum: 0.6700480580329895
time_elpased: 4.604
#iterations: 547
currently lose_sum: 0.6412773728370667
time_elpased: 4.482
#iterations: 548
currently lose_sum: 0.6475911140441895
time_elpased: 4.413
#iterations: 549
currently lose_sum: 0.5858473777770996
time_elpased: 4.358
#iterations: 550
currently lose_sum: 0.6102325320243835
time_elpased: 4.638
#iterations: 551
currently lose_sum: 0.6381974816322327
time_elpased: 4.349
#iterations: 552
currently lose_sum: 0.631275475025177
time_elpased: 4.386
#iterations: 553
currently lose_sum: 0.6159374117851257
time_elpased: 4.394
#iterations: 554
currently lose_sum: 0.6662502884864807
time_elpased: 4.474
#iterations: 555
currently lose_sum: 0.6309270262718201
time_elpased: 4.399
#iterations: 556
currently lose_sum: 0.6802802085876465
time_elpased: 4.744
#iterations: 557
currently lose_sum: 0.6193211078643799
time_elpased: 4.537
#iterations: 558
currently lose_sum: 0.6571168303489685
time_elpased: 4.389
#iterations: 559
currently lose_sum: 0.6382392048835754
time_elpased: 4.323
start validation test
0.5788
0.604470359572
0.490536277603
0.541575968655
0.580089567373
16.842
#iterations: 560
currently lose_sum: 0.6781263947486877
time_elpased: 4.431
#iterations: 561
currently lose_sum: 0.6382685303688049
time_elpased: 4.458
#iterations: 562
currently lose_sum: 0.621572732925415
time_elpased: 4.37
#iterations: 563
currently lose_sum: 0.6163173913955688
time_elpased: 4.416
#iterations: 564
currently lose_sum: 0.70611172914505
time_elpased: 4.73
#iterations: 565
currently lose_sum: 0.6368924975395203
time_elpased: 4.424
#iterations: 566
currently lose_sum: 0.627055287361145
time_elpased: 4.44
#iterations: 567
currently lose_sum: 0.6191256642341614
time_elpased: 4.427
#iterations: 568
currently lose_sum: 0.6750145554542542
time_elpased: 4.387
#iterations: 569
currently lose_sum: 0.6799708008766174
time_elpased: 4.442
#iterations: 570
currently lose_sum: 0.6292769908905029
time_elpased: 4.365
#iterations: 571
currently lose_sum: 0.6555505394935608
time_elpased: 4.405
#iterations: 572
currently lose_sum: 0.6758990287780762
time_elpased: 4.399
#iterations: 573
currently lose_sum: 0.6299748420715332
time_elpased: 4.335
#iterations: 574
currently lose_sum: 0.6762304902076721
time_elpased: 4.56
#iterations: 575
currently lose_sum: 0.6941282749176025
time_elpased: 4.428
#iterations: 576
currently lose_sum: 0.6374841928482056
time_elpased: 4.423
#iterations: 577
currently lose_sum: 0.6799067854881287
time_elpased: 4.398
#iterations: 578
currently lose_sum: 0.5912293195724487
time_elpased: 4.353
#iterations: 579
currently lose_sum: 0.6658613681793213
time_elpased: 4.836
start validation test
0.5648
0.566079295154
0.608044164038
0.586311787072
0.564168185915
16.811
#iterations: 580
currently lose_sum: 0.6179803609848022
time_elpased: 4.351
#iterations: 581
currently lose_sum: 0.6315640807151794
time_elpased: 4.372
#iterations: 582
currently lose_sum: 0.6189567446708679
time_elpased: 4.656
#iterations: 583
currently lose_sum: 0.671284556388855
time_elpased: 4.47
#iterations: 584
currently lose_sum: 0.6719286441802979
time_elpased: 4.762
#iterations: 585
currently lose_sum: 0.6172139644622803
time_elpased: 4.648
#iterations: 586
currently lose_sum: 0.6361181735992432
time_elpased: 4.373
#iterations: 587
currently lose_sum: 0.6473522186279297
time_elpased: 4.39
#iterations: 588
currently lose_sum: 0.6229218244552612
time_elpased: 4.479
#iterations: 589
currently lose_sum: 0.6221504807472229
time_elpased: 4.405
#iterations: 590
currently lose_sum: 0.6393009424209595
time_elpased: 4.496
#iterations: 591
currently lose_sum: 0.6375595331192017
time_elpased: 4.385
#iterations: 592
currently lose_sum: 0.6083046197891235
time_elpased: 4.36
#iterations: 593
currently lose_sum: 0.6944953799247742
time_elpased: 4.328
#iterations: 594
currently lose_sum: 0.6551328897476196
time_elpased: 4.376
#iterations: 595
currently lose_sum: 0.63380366563797
time_elpased: 4.403
#iterations: 596
currently lose_sum: 0.6585726737976074
time_elpased: 4.386
#iterations: 597
currently lose_sum: 0.6158942580223083
time_elpased: 4.29
#iterations: 598
currently lose_sum: 0.6182410717010498
time_elpased: 4.485
#iterations: 599
currently lose_sum: 0.652884840965271
time_elpased: 4.727
start validation test
0.57
0.561819346573
0.691640378549
0.620007069636
0.568222786677
16.818
acc: 0.578
pre: 0.594
rec: 0.532
F1: 0.561
auc: 0.579
